Unnamed: 0,Chain,Length,designed_binder_seq,cs,ce
0,A,10,HSGKWFWKDN-KNGSWYYKNN-EKGKWYKIDN-GKGYWFFKNN-ENGSWKYKAN-ADGYWFYRDN-EKGYWIWKNN-IEGRWYWFDN-GPGEWIYIDN-TKGTWRFVDN-EKGYWFIENN-ADCTWYWKDN-ESGYWHWVNN-GIGSWKWTDN-ETGTWYWKNN-KHGTWTFKTN-EQGQWHFEDN-QQGHWYYLDN-EHGYMTFLDN-EEGNWYYRDN-EQGNWYWRNN-ESGTWKFTDN-ETGAWVYRDN-NAGYFSYKSN-GSGSWFFADN-NDGTFIWKDN-EEGDLYYVNN-AWGHWNWIRN-NSGQWHHEDN-QRGHWYFANN-ENGKWHYKNN-RNGFWSFQDN-SLGDWIWRNN-QKGEWTYVDN-NEGSWYYKNN-ATGEWYFIDN-SNGQWYWWDN-ASGEWHFVNN-ESGSWYYKDN-SAGDFYHVNN-QNGEWFFLNN-EFGRFQFLNN-NAGAIYWKNN-EKGAWHFVKN-EEGSFHWIDN-NTGTWVYLYN-DKGSWHFVNN-DEGSWEPVDN-MAGYWKWINN-ANGYWYWKNN-GTGYKYFLDN-ETGRWHFVTN-VEGSWYYKDN-EDGYWTQKDN-AAGAWHFSDN-ERGYWVYIGN-TGGAWTWKNN-EEGNWYFADN-MDGSFFFKNN-HVGKWHWVDN-NGGKWYYKDN-QNGSWSWLDN-CKGKWHWENN-TAGDFYFKDN-AEGKFYFKDN-IGGVYKQVNN-NDGNWLWIDN-KNGTWKHENN-ESGKSFWLTN-EFGSGLYIDN-EAGYKYYKDN-FEGYWYMRKN-ASGSWYFRTN-NNGKWYWKNN-ENGRWFYKNN-EDGQWYYKDN-APGKWYWKNN-IQGFWEWKDN-NEGAFYFKDN-SSGAWYWINN-HEGSWEWKNN-GAGNWYGKNN-ASGYWYFKNN-EEGYWYFWTN-NAGSWFFVNN-EKGTLLYLDN-GDGYWYTRNN-ETGPQYFVNN-KQGKWYWEDN-ERGSNYWFDN-GLGKWHYINN-ETGNWFFLNN-DEGDWYFTDN-GEGSFYWKNN-GLGAWVWQNN-TTLMWMFTNN-ETGSFHFVNN-EEGSWHFLDN-QQGAWIFVDN-ETGHFKFVNN,0,10
1,B,10,HSGKWFWKDN-KNGSWYYKNN-EKGKWYKIDN-GKGYWFFKNN-ENGSWKYKAN-ADGYWFYRDN-EKGYWIWKNN-IEGRWYWFDN-GPGEWIYIDN-TKGTWRFVDN-EKGYWFIENN-ADCTWYWKDN-ESGYWHWVNN-GIGSWKWTDN-ETGTWYWKNN-KHGTWTFKTN-EQGQWHFEDN-QQGHWYYLDN-EHGYMTFLDN-EEGNWYYRDN-EQGNWYWRNN-ESGTWKFTDN-ETGAWVYRDN-NAGYFSYKSN-GSGSWFFADN-NDGTFIWKDN-EEGDLYYVNN-AWGHWNWIRN-NSGQWHHEDN-QRGHWYFANN-ENGKWHYKNN-RNGFWSFQDN-SLGDWIWRNN-QKGEWTYVDN-NEGSWYYKNN-ATGEWYFIDN-SNGQWYWWDN-ASGEWHFVNN-ESGSWYYKDN-SAGDFYHVNN-QNGEWFFLNN-EFGRFQFLNN-NAGAIYWKNN-EKGAWHFVKN-EEGSFHWIDN-NTGTWVYLYN-DKGSWHFVNN-DEGSWEPVDN-MAGYWKWINN-ANGYWYWKNN-GTGYKYFLDN-ETGRWHFVTN-VEGSWYYKDN-EDGYWTQKDN-AAGAWHFSDN-ERGYWVYIGN-TGGAWTWKNN-EEGNWYFADN-MDGSFFFKNN-HVGKWHWVDN-NGGKWYYKDN-QNGSWSWLDN-CKGKWHWENN-TAGDFYFKDN-AEGKFYFKDN-IGGVYKQVNN-NDGNWLWIDN-KNGTWKHENN-ESGKSFWLTN-EFGSGLYIDN-EAGYKYYKDN-FEGYWYMRKN-ASGSWYFRTN-NNGKWYWKNN-ENGRWFYKNN-EDGQWYYKDN-APGKWYWKNN-IQGFWEWKDN-NEGAFYFKDN-SSGAWYWINN-HEGSWEWKNN-GAGNWYGKNN-ASGYWYFKNN-EEGYWYFWTN-NAGSWFFVNN-EKGTLLYLDN-GDGYWYTRNN-ETGPQYFVNN-KQGKWYWEDN-ERGSNYWFDN-GLGKWHYINN-ETGNWFFLNN-DEGDWYFTDN-GEGSFYWKNN-GLGAWVWQNN-TTLMWMFTNN-ETGSFHFVNN-EEGSWHFLDN-QQGAWIFVDN-ETGHFKFVNN,0,10
