Unnamed: 0,Chain,Length,designed_binder_seq,cs,ce
0,A,10,MFTYQDTLLY-MFMRTRELLY-GFHYTKELDY-MFERNKMLLY-MFTYTRKLRY-MFTYSKQLTY-SMTFSRELFY-LNSVSEELAY-MFSNSSVLMY-MMEDSKTLLY-MFSITHKLLY-MFSWTRELAY-MFDMTRQLSY-MFTYSKELLY-MFKHSKELMY-MFHYEHLLLY-MFTHSKQLAY-AFTYTTTLMY-MFEHTKELNY-LFLHSRELWY-MFAYSKQLSY-MFVLSREMLY-MFSYVRELLY-AFKWNKKLLY-AFNYTKELDY-MFLHDRALAY-MHSWTRELLY-MFRISKSLLY-MFTHESTLSY-MFTYSRELLY-MFSMSRELEY-MFVYSKDLDY-MFTRSDEFIY-MFRHELKLVY-MFTYHKELEY-AFEYTPQTLY-MFTTTGELLY-MDNHTSVLAY-MFYYTEKLLY-MFSHKKILMY-MFYRNKELLY-KFNYSADLTY-KFSYYKQLMY-TFTYSKEFDY-AFKHTKELLY-SFGYAHKLRY-MFHGTKKNLY-MWEFSRLADY-AFCFSQKPAY-MFSFSKEMAY-MFNFSKDLLY-MYSHSHTLTY-MFTQSKELAY-MFTYDGEPNY-MFTYSRELDY-MFHYSKELEY-QFTHSHELMY-GFSFSKCLHY-MFSLSKDLIY-MFTWNKTPKY-MWNYSKQLAY-MFGHSKMFLY-RFTWSRKLCY-MFSYSAVSTY-MFRWQKEKLY-SFSYKRELAY-MFTHTKKLAY-AFSHVAELPY-MFEYSTELMY-AFTHSTKPTY-MFVRSEVLDY-LFTFERTLNY-MFHVHRKLMY-MFLYWEKLAY-MLHYSYELLY-AFTHIAALDY-AFTYNKSLAY-SFHWVSQLHY-MFTSMPELMY-MFQRSRNLDY-IFTFTKKLAY-MFTYTRDLSY-CFNHSNKLAY-MFKYTKELTY-MFTHSSRLRY-MFTWSKEQLY-MFGVSTTPLY-MFEWSRELLY-TFEQDRKLQY-MFIYSREFLY-SSHYTKKLLY-MFSYSREYMY-QFSHDNKLAY-MFNWSRQLKY-MFYSSRDWLY-MFSWKRDLAY-AFSYSKQLWY-KHEYSRELVY-AFTHTENLLY-MSSYDKKPSY,0,10
1,B,10,MFTYQDTLLY-MFMRTRELLY-GFHYTKELDY-MFERNKMLLY-MFTYTRKLRY-MFTYSKQLTY-SMTFSRELFY-LNSVSEELAY-MFSNSSVLMY-MMEDSKTLLY-MFSITHKLLY-MFSWTRELAY-MFDMTRQLSY-MFTYSKELLY-MFKHSKELMY-MFHYEHLLLY-MFTHSKQLAY-AFTYTTTLMY-MFEHTKELNY-LFLHSRELWY-MFAYSKQLSY-MFVLSREMLY-MFSYVRELLY-AFKWNKKLLY-AFNYTKELDY-MFLHDRALAY-MHSWTRELLY-MFRISKSLLY-MFTHESTLSY-MFTYSRELLY-MFSMSRELEY-MFVYSKDLDY-MFTRSDEFIY-MFRHELKLVY-MFTYHKELEY-AFEYTPQTLY-MFTTTGELLY-MDNHTSVLAY-MFYYTEKLLY-MFSHKKILMY-MFYRNKELLY-KFNYSADLTY-KFSYYKQLMY-TFTYSKEFDY-AFKHTKELLY-SFGYAHKLRY-MFHGTKKNLY-MWEFSRLADY-AFCFSQKPAY-MFSFSKEMAY-MFNFSKDLLY-MYSHSHTLTY-MFTQSKELAY-MFTYDGEPNY-MFTYSRELDY-MFHYSKELEY-QFTHSHELMY-GFSFSKCLHY-MFSLSKDLIY-MFTWNKTPKY-MWNYSKQLAY-MFGHSKMFLY-RFTWSRKLCY-MFSYSAVSTY-MFRWQKEKLY-SFSYKRELAY-MFTHTKKLAY-AFSHVAELPY-MFEYSTELMY-AFTHSTKPTY-MFVRSEVLDY-LFTFERTLNY-MFHVHRKLMY-MFLYWEKLAY-MLHYSYELLY-AFTHIAALDY-AFTYNKSLAY-SFHWVSQLHY-MFTSMPELMY-MFQRSRNLDY-IFTFTKKLAY-MFTYTRDLSY-CFNHSNKLAY-MFKYTKELTY-MFTHSSRLRY-MFTWSKEQLY-MFGVSTTPLY-MFEWSRELLY-TFEQDRKLQY-MFIYSREFLY-SSHYTKKLLY-MFSYSREYMY-QFSHDNKLAY-MFNWSRQLKY-MFYSSRDWLY-MFSWKRDLAY-AFSYSKQLWY-KHEYSRELVY-AFTHTENLLY-MSSYDKKPSY,0,10
