,Chain,Length,designed_binder_seq
0,A,10,PEQVDGIIRP-PEEVPFMVLP-PAALQGLIVP-QSKVAGIIEP-TEAISGVLNP-PEIVPGIQQP-MEVSPEIQNP-TDAVLHIFWP-SEEVSGIIHP-PDSHAGLILP-PEHVQGIILP-PTVYHGLIKP-PAEIDGYVEP-PQKIPGIIRP-KQAVPGLILP-PEQIPGSILP-PEKVEGIFEP-PTTIERIILP-PTQFGNMVMP-TQVRQGILMP-VKAIAGLILP-PEKVESIKFP-AEQIRGIISP-PHRIPGILHP-MELRDAIIYP-PEKQPGLITP-PSQIPEIILP-KEVQSGIVLP-PEQVPGLIMP-AEPVSGLIEP-PTRSPARTLP-SEQLPGLVVP-PSVLPGIILP-TEKIEGIIVP-IHEMWGIIDP-PEDVPGILIP-PEKVKEFVDP-PEVIKGIIVP-PEKEPGTLLP-PEELDGIIWP-PEQVEKLILP-PETIAGIQLP-AEQVEGITTP-TIRVRDIIMP-AEKVPGVVQP-PEVVPEIVLP-PSKEPGMILP-PSELRGIIVP-PEHQVGLIRP-TQSLPGLIHP-HENIKDYILP-ADAIPGIINP-PEKLLEIIKP-ATCVEGIVEP-PEVAPGLIHP-ASQVPGILTP-TECVEDLVIP-PETIPGLIDP-AQSIAGLIRP-REPVPGIWLP-PEKVDGIILP-PERKPGLIMP-FTRVEGYIVP-PEVTEVILEP-DTVTPGVLKP-PVQVPGAIMP-FQRIQGMVQP-PERQEGFVQP-PAKIYDIIHP-PEVLQGLLIP-PEKLAGIVTP-PEQASGWILP-PEVVRGIILP-PEIVPGLILP-PETMSGIVLP-PERVHGIIKP-PERVTGLIVP-PQQIPGIYKP-FEKVPGIILP-YETIQEPRVP-CDKAEGIFEP-AEVVPGLIHP-PTKVPGIILP-PETIDGVIQP-TEKAGGRVLP-PTTVFGLILP-PLALEGLIRP-PESVPGLILP-PEQVPTLIMP-PEQVPGIIRP-QARIRGVILP-PERVPTLYLP-PKVVPGLIKP-PELQQEVIIP-PEVIPAIFRP-PAMVKGLILP-PEKLEGIILP-PSTWPELKTP-PSKIRGIITP-PEILQRTIHP
1,B,10,FTNNADVVAE-FTNNADVVAE-FTNNADVVAE-FTNNADVVAE-FTNNADVVAE-FTNNADVVAE-FTNNADVVAE-FTNNADVVAE-FTNNADVVAE-FTNNADVVAE-FTNNADVVAE-FTNNADVVAE-FTNNADVVAE-FTNNADVVAE-FTNNADVVAE-FTNNADVVAE-FTNNADVVAE-FTNNADVVAE-FTNNADVVAE-FTNNADVVAE-FTNNADVVAE-FTNNADVVAE-FTNNADVVAE-FTNNADVVAE-FTNNADVVAE-FTNNADVVAE-FTNNADVVAE-FTNNADVVAE-FTNNADVVAE-FTNNADVVAE-FTNNADVVAE-FTNNADVVAE-FTNNADVVAE-FTNNADVVAE-FTNNADVVAE-FTNNADVVAE-FTNNADVVAE-FTNNADVVAE-FTNNADVVAE-FTNNADVVAE-FTNNADVVAE-FTNNADVVAE-FTNNADVVAE-FTNNADVVAE-FTNNADVVAE-FTNNADVVAE-FTNNADVVAE-FTNNADVVAE-FTNNADVVAE-FTNNADVVAE-FTNNADVVAE-FTNNADVVAE-FTNNADVVAE-FTNNADVVAE-FTNNADVVAE-FTNNADVVAE-FTNNADVVAE-FTNNADVVAE-FTNNADVVAE-FTNNADVVAE-FTNNADVVAE-FTNNADVVAE-FTNNADVVAE-FTNNADVVAE-FTNNADVVAE-FTNNADVVAE-FTNNADVVAE-FTNNADVVAE-FTNNADVVAE-FTNNADVVAE-FTNNADVVAE-FTNNADVVAE-FTNNADVVAE-FTNNADVVAE-FTNNADVVAE-FTNNADVVAE-FTNNADVVAE-FTNNADVVAE-FTNNADVVAE-FTNNADVVAE-FTNNADVVAE-FTNNADVVAE-FTNNADVVAE-FTNNADVVAE-FTNNADVVAE-FTNNADVVAE-FTNNADVVAE-FTNNADVVAE-FTNNADVVAE-FTNNADVVAE-FTNNADVVAE-FTNNADVVAE-FTNNADVVAE-FTNNADVVAE-FTNNADVVAE-FTNNADVVAE-FTNNADVVAE-FTNNADVVAE-FTNNADVVAE-FTNNADVVAE
