Unnamed: 0,Chain,Length,designed_binder_seq,cs,ce
0,A,10,QVIFKHSPLV-NMIERQSYSV-DVVFRSEPRV-ELVIKNHPQV-LQSEENEVNV-EMIEKTAWAV-GVVDRHMYGV-LKVERHVWGV-NIVERNTPLV-DVVERNHKLV-DRVLTHQCHV-HIIEENAKGV-VTIRQHAPGV-QLVERNSCRV-IMVTTSAWAV-EVVLRNSTLV-DKVENSYPKV-GKVERCEPLV-RIVERHEPGV-DIVERNTPMV-DRACATTWLV-NVTESMSPFV-KIVEERAWIV-RIVNRCYPPV-DMVERNQPIV-DVVIRNSPLV-NLVYEGAWSV-GIVERNSVLV-EIVRRNAPCV-KIVDQNAPTV-HAVERFNQLV-DVVQRNCPFV-RVVERHTVLV-NLVDRNFLLV-HVVERRNRGV-KKVEQTDWDV-ANVERHQLQV-QRVERSTWEV-DKVDKTHPMV-EVVLKNGWQV-DITCRNTALV-RIVEWTDSLV-RVVLENAPLV-KNVEKLAPHV-VKVEESNPIV-EVVNRNNPLV-RIVEKSHFMV-IIVYKSSPLV-FVVERNSPEV-IIVERCAPLV-MKTCECGWWV-VTVERSSQLV-DLVSYKLPLV-DRSFRNQWQV-RIVKRNDPLV-QTVERNDWLV-RVVEKNAIMV-CIVIQNTPLV-DIVLREAPGV-CRSEEYNIWV-NVVEKGSQRV-TLVLTNSPLV-NIVERNDVHV-EIVDQNVPLV-EWYIRCEPLV-NVVTAHSPLV-MGVEDHDPLV-ERVMRSNPLV-IRVHKEAPMV-ILTEKHYPLV-NIVESRSPLV-IEVYRNSTDV-RLVYANTPQV-RKTMKNVPRV-QVVERTDVEV-EIYERNHPQV-NIGDRTCYMV-DTVLRSNHMV-NVVLRNEGIV-NINNRNAVQV-RIVEMMTPVV-VVVEGNAPPV-KKVESYRWLV-RVIFRAAWKV-RQVERNAPEV-LIVQQNHPLV-NSVDENSPKV-RLVIRYSPWV-FHEEKTSIGV-MWGCRYAPLV-YKVERHTPLV-TMFEERDHAV-DIVDRTKQEV-DVISENSVLV-DLVRRNSQLV-DVVQRNEWEV-DTRLRTAPHV-NVVHMNNWMV-DQVEMHNCMV-KVVERTGELV,9,19
1,B,10,QVIFKHSPLV-NMIERQSYSV-DVVFRSEPRV-ELVIKNHPQV-LQSEENEVNV-EMIEKTAWAV-GVVDRHMYGV-LKVERHVWGV-NIVERNTPLV-DVVERNHKLV-DRVLTHQCHV-HIIEENAKGV-VTIRQHAPGV-QLVERNSCRV-IMVTTSAWAV-EVVLRNSTLV-DKVENSYPKV-GKVERCEPLV-RIVERHEPGV-DIVERNTPMV-DRACATTWLV-NVTESMSPFV-KIVEERAWIV-RIVNRCYPPV-DMVERNQPIV-DVVIRNSPLV-NLVYEGAWSV-GIVERNSVLV-EIVRRNAPCV-KIVDQNAPTV-HAVERFNQLV-DVVQRNCPFV-RVVERHTVLV-NLVDRNFLLV-HVVERRNRGV-KKVEQTDWDV-ANVERHQLQV-QRVERSTWEV-DKVDKTHPMV-EVVLKNGWQV-DITCRNTALV-RIVEWTDSLV-RVVLENAPLV-KNVEKLAPHV-VKVEESNPIV-EVVNRNNPLV-RIVEKSHFMV-IIVYKSSPLV-FVVERNSPEV-IIVERCAPLV-MKTCECGWWV-VTVERSSQLV-DLVSYKLPLV-DRSFRNQWQV-RIVKRNDPLV-QTVERNDWLV-RVVEKNAIMV-CIVIQNTPLV-DIVLREAPGV-CRSEEYNIWV-NVVEKGSQRV-TLVLTNSPLV-NIVERNDVHV-EIVDQNVPLV-EWYIRCEPLV-NVVTAHSPLV-MGVEDHDPLV-ERVMRSNPLV-IRVHKEAPMV-ILTEKHYPLV-NIVESRSPLV-IEVYRNSTDV-RLVYANTPQV-RKTMKNVPRV-QVVERTDVEV-EIYERNHPQV-NIGDRTCYMV-DTVLRSNHMV-NVVLRNEGIV-NINNRNAVQV-RIVEMMTPVV-VVVEGNAPPV-KKVESYRWLV-RVIFRAAWKV-RQVERNAPEV-LIVQQNHPLV-NSVDENSPKV-RLVIRYSPWV-FHEEKTSIGV-MWGCRYAPLV-YKVERHTPLV-TMFEERDHAV-DIVDRTKQEV-DVISENSVLV-DLVRRNSQLV-DVVQRNEWEV-DTRLRTAPHV-NVVHMNNWMV-DQVEMHNCMV-KVVERTGELV,9,19
