Unnamed: 0,Chain,Length,designed_binder_seq,cs,ce
0,A,10,AGAQIRCLVN-IGAVFQCLTN-VGAWIVCLIN-VGGICKSLIN-NGGRIVALIN-VKGIEQATVN-FGGIVRSLRN-LGARWKFSIN-LGAQMMMLMN-AGGWTKSLIN-TGGSFRNLVN-IGGMIESLIN-VGGRTVALIN-VGGMTVCLVN-PGGLIRSIIN-NGAMMKSKNN-ISGLVKCIMN-VGGMVVSLVN-TGGCMRSLMN-VGARLRCLIN-LEALVKALVN-MGAMCRSILN-MGAQMQSIVN-IGGFIRSVIN-TGGMMKALIN-CGAYTWSLTN-IGGRIQSLGN-YGDRCLAMRN-IGALVKALVN-LGGWLKALDN-MGARLSSIIN-RGALMKALVN-VGGMISALTN-IGDLCKFIVN-IGGWLRATVN-LGGLMQSLIN-IGGLFLAMVN-IGGLVKSLSN-VGAEMRALIN-HGGVIKALIN-MGGMRESLKN-IGGSFKALMN-IGGKIRSVTN-VGAMMYAMIN-IGSVVRAVVN-CGPLVRSLIN-MGALTRSLVN-CGGTLVSLRN-LGAKKKSLIN-LGGEVYALIN-IGRRIHALIN-NGGCILSLVN-IGAKIMAYVN-MGGMMQCLTN-MGGRIHSLVN-LGGIISSLVN-DGGLDVSLIN-MSMMPESLVN-TGGMLHSLIN-LGGLMKSLAN-VGGLTVSLTN-QGGRLQCMMN-LGGMLRSLVN-TGEVLQSLTN-CGGELTTLVN-IGGVVKALTN-LGAPMRSLIN-LGALVRSLWN-VGGYIKSLTN-LGSMIKALIN-IGGLTKSLVN-TGAIMKALVN-VGGKVMALTN-VGGMSVALIN-YGAEVLCLIN-MGAEQLSLIN-MGGRIVSLVN-THGLTSALVN-TGAMISSFVN-VGAWCKSLTN-QGARLKALIN-IGGQVRSIVN-SGALERSLIN-IGGRGIALIN-IGAYIKALAN-VGGLMKSLVN-IGGMMVAMTN-IGGCIESLAN-IGAWNVALTN-SWAMTLALIN-TGGFTHSIPN-FYAMTISLIN-IGAKILALVN-IGGMVRSLAN-IGAFIWHLAN-VGALILSLVN-VGGVIKAKVN-LGATTRALIN-MGGKMESLIN-LGGILQSLVN,156,166
1,B,10,AGAQIRCLVN-IGAVFQCLTN-VGAWIVCLIN-VGGICKSLIN-NGGRIVALIN-VKGIEQATVN-FGGIVRSLRN-LGARWKFSIN-LGAQMMMLMN-AGGWTKSLIN-TGGSFRNLVN-IGGMIESLIN-VGGRTVALIN-VGGMTVCLVN-PGGLIRSIIN-NGAMMKSKNN-ISGLVKCIMN-VGGMVVSLVN-TGGCMRSLMN-VGARLRCLIN-LEALVKALVN-MGAMCRSILN-MGAQMQSIVN-IGGFIRSVIN-TGGMMKALIN-CGAYTWSLTN-IGGRIQSLGN-YGDRCLAMRN-IGALVKALVN-LGGWLKALDN-MGARLSSIIN-RGALMKALVN-VGGMISALTN-IGDLCKFIVN-IGGWLRATVN-LGGLMQSLIN-IGGLFLAMVN-IGGLVKSLSN-VGAEMRALIN-HGGVIKALIN-MGGMRESLKN-IGGSFKALMN-IGGKIRSVTN-VGAMMYAMIN-IGSVVRAVVN-CGPLVRSLIN-MGALTRSLVN-CGGTLVSLRN-LGAKKKSLIN-LGGEVYALIN-IGRRIHALIN-NGGCILSLVN-IGAKIMAYVN-MGGMMQCLTN-MGGRIHSLVN-LGGIISSLVN-DGGLDVSLIN-MSMMPESLVN-TGGMLHSLIN-LGGLMKSLAN-VGGLTVSLTN-QGGRLQCMMN-LGGMLRSLVN-TGEVLQSLTN-CGGELTTLVN-IGGVVKALTN-LGAPMRSLIN-LGALVRSLWN-VGGYIKSLTN-LGSMIKALIN-IGGLTKSLVN-TGAIMKALVN-VGGKVMALTN-VGGMSVALIN-YGAEVLCLIN-MGAEQLSLIN-MGGRIVSLVN-THGLTSALVN-TGAMISSFVN-VGAWCKSLTN-QGARLKALIN-IGGQVRSIVN-SGALERSLIN-IGGRGIALIN-IGAYIKALAN-VGGLMKSLVN-IGGMMVAMTN-IGGCIESLAN-IGAWNVALTN-SWAMTLALIN-TGGFTHSIPN-FYAMTISLIN-IGAKILALVN-IGGMVRSLAN-IGAFIWHLAN-VGALILSLVN-VGGVIKAKVN-LGATTRALIN-MGGKMESLIN-LGGILQSLVN,156,166
