Unnamed: 0,Chain,Length,designed_binder_seq,cs,ce
0,A,10,NEAFASGLEA-FEAFKLGEKA-EEAFHLGRTA-EQAFAMAKEA-DEAYQMGAAA-EEAFNMAKRA-EEAFNMGQEA-EEAFKMGLEA-ESSYTMGMEA-EEAFALGARA-EEAFEMGKEA-PEAYCMGIDA-TQAYSLGVNA-IESFEIGTGA-NEAFALGRKA-DEAFELAYYA-DEAFELGMSA-CEAYQLGLDA-EEAFLMAMEA-EEAYRLGYEA-EESFKSGYQA-EQSFCMGKKA-EEAYEKGYAA-EDAFSLGYKA-FEAFSLGMRA-EEASDLCMAA-EEAMELGKLA-EEAYWKGVKA-EEAFKIGRQA-EQAQALGEQA-DEAFNLGKQA-EESFYLGKKA-EEAYALGAQA-EKAFDLGSKA-EEAFVLGKKA-DAAEVLGADA-EEAYHLGLLA-EQAFERLKRA-EESYELGKEA-EEAYNLGLEA-QESYELGVHA-EEAFDMDKAA-AEAYNMGLSA-EEAFNLATEA-EESFQLGRKA-EEAYYMGKIA-EGADDLGRQA-EQAFRLGEGA-EEAAQLGCQA-EESFELGMTA-DEAFHLGKKA-EDAYKMGKEA-DESYSMALDA-AEAFALGHRA-EEAFMLGVKA-DEAYELGYRA-EESFDLAVEA-EEAFRNAYIA-EEAFDLGRSA-EEAYVLGFQA-EEAYDLGLQA-QDAEDMAYHA-DEADTFGKKA-EQSFQLGFQA-EEAFRLGAKA-EEAGKLGLKA-EQAWQAGKNA-DRAFELATNA-EQAFELGQKA-EEAYDLGHQA-CQAYQLGREA-EESFALGQIA-EEAFELGWKA-EPAFTLGSYA-EESFELIYKA-DESFERAQQA-LQAFELAKQA-ESAFELGVRA-DEAYNLGYKA-EDTFTMGYDA-EPAFAKGGEA-EEAFMMGKTA-DESYQMGKKA-QESFELGWIA-EEAFGLGKHA-EESLEMATKA-EEAFKMFYTA-EEAFSAARRA-AEAYQLGVRA-EEAYELGKEA-QDAFDLARIA-EEAFNLGTEA-MEAYMEAKWA-EESYILGREA-EEAYSLGLRA-NQAYEMGNLA-EEAYKLGMSA-EQKFLLGQRA-DEAYELAAKA-DESFVLGMEA,5,15
1,B,10,NGNLKYFEYI-NGNLKYFEYI-NGNLKYFEYI-NGNLKYFEYI-NGNLKYFEYI-NGNLKYFEYI-NGNLKYFEYI-NGNLKYFEYI-NGNLKYFEYI-NGNLKYFEYI-NGNLKYFEYI-NGNLKYFEYI-NGNLKYFEYI-NGNLKYFEYI-NGNLKYFEYI-NGNLKYFEYI-NGNLKYFEYI-NGNLKYFEYI-NGNLKYFEYI-NGNLKYFEYI-NGNLKYFEYI-NGNLKYFEYI-NGNLKYFEYI-NGNLKYFEYI-NGNLKYFEYI-NGNLKYFEYI-NGNLKYFEYI-NGNLKYFEYI-NGNLKYFEYI-NGNLKYFEYI-NGNLKYFEYI-NGNLKYFEYI-NGNLKYFEYI-NGNLKYFEYI-NGNLKYFEYI-NGNLKYFEYI-NGNLKYFEYI-NGNLKYFEYI-NGNLKYFEYI-NGNLKYFEYI-NGNLKYFEYI-NGNLKYFEYI-NGNLKYFEYI-NGNLKYFEYI-NGNLKYFEYI-NGNLKYFEYI-NGNLKYFEYI-NGNLKYFEYI-NGNLKYFEYI-NGNLKYFEYI-NGNLKYFEYI-NGNLKYFEYI-NGNLKYFEYI-NGNLKYFEYI-NGNLKYFEYI-NGNLKYFEYI-NGNLKYFEYI-NGNLKYFEYI-NGNLKYFEYI-NGNLKYFEYI-NGNLKYFEYI-NGNLKYFEYI-NGNLKYFEYI-NGNLKYFEYI-NGNLKYFEYI-NGNLKYFEYI-NGNLKYFEYI-NGNLKYFEYI-NGNLKYFEYI-NGNLKYFEYI-NGNLKYFEYI-NGNLKYFEYI-NGNLKYFEYI-NGNLKYFEYI-NGNLKYFEYI-NGNLKYFEYI-NGNLKYFEYI-NGNLKYFEYI-NGNLKYFEYI-NGNLKYFEYI-NGNLKYFEYI-NGNLKYFEYI-NGNLKYFEYI-NGNLKYFEYI-NGNLKYFEYI-NGNLKYFEYI-NGNLKYFEYI-NGNLKYFEYI-NGNLKYFEYI-NGNLKYFEYI-NGNLKYFEYI-NGNLKYFEYI-NGNLKYFEYI-NGNLKYFEYI-NGNLKYFEYI-NGNLKYFEYI-NGNLKYFEYI-NGNLKYFEYI-NGNLKYFEYI-NGNLKYFEYI,82,92
