Unnamed: 0,Chain,Length,designed_binder_seq,cs,ce
0,A,10,RAFHLLLAAN-KAYHLLRAAN-AAQNGLFATN-RCIHLLGSAN-EAYRLLLLAN-RAFHLLMAAN-QAWTLQVAAN-DVFHLLLAAN-QAFTLLMATN-HACHLLFCAN-PAEHLLVASN-PAQHLLYAAN-KAYHLLYSAN-KALHLTFHAN-KAWHLLLAKN-KAFHLLIAAN-PALHLLFPAN-PAWYHLMEAN-QAWHALLAAN-EAYHLLSNAN-AAKHHLWAAN-KAWHLLWAAN-GAQTLLFSAN-QAFHLLYAAN-RAWHLLIAAN-KKFHCDFSAN-QAWHLLNAAN-RALHYLFAAN-HTMHLLQYAN-PAPMLLNMAN-AAPKLLFAAN-AAFHLLFAAN-KAYHLLTSAN-WAFHLFLAAN-KAIHLLFAAN-KEFHLLAAAN-KAFHLLLAAN-KAFALLFAAN-FALHLLMAAN-QAFHLLMHAN-KAFHLLSAAN-AAAHLLFSAN-KAFDCLMAAN-HAEHLLFAAN-AAFFRLLAAN-RAWHLLVSAN-GAKHLLWAKN-KATHLLFAAN-YALHLLFQAN-KAFHLLLAAN-KAFHLLFSAN-RSEHLLYAAN-KALHLLYAAN-KALHLLYSAN-PAFHLVLSCN-RAFHLLHAAN-RAFHLLMAAN-WAFHLIIAAN-RAWHLLVAAN-PCFHLLLAAN-QALWLLFSVN-PSFHFLLEAN-KAFCLLMIKN-AASHNLIAAN-RAWSLLEAAN-PAIHLLESQN-KTFHLLWAAN-KAYHLLFAAN-KAFHSLEAAN-QCYFSLVAAN-QAFQLLMAAN-AAFQLLFSAN-YALHMLNAAN-KAWHLLVAAN-YAFHLLWAAN-IAFHLLFSSN-QNWHLLITAN-WAHHLLFAAN-RAWHLLCSAN-KAFHLLWAAN-RAFHLMMSAN-KAWHLLMSAN-KAYHLLMAAN-KAWHCLFTAN-PAEHLLFGAN-KAFHCLFCAN-PAFHLLDAAN-KAGHLLWSAN-YAWHLLEASN-YAFHLLIAAN-QAEHLLFWAN-KAFHLLYAAN-YAFTLLLAAN-PGKHLLFCAN-HAWFLLLSAN-KAMAWLRRAN-KAAHTLWAGN-RAFHRLTAAN-PAFHLLIAAN-PSSRLLFAAN,60,70
1,B,10,RAFHLLLAAN-KAYHLLRAAN-AAQNGLFATN-RCIHLLGSAN-EAYRLLLLAN-RAFHLLMAAN-QAWTLQVAAN-DVFHLLLAAN-QAFTLLMATN-HACHLLFCAN-PAEHLLVASN-PAQHLLYAAN-KAYHLLYSAN-KALHLTFHAN-KAWHLLLAKN-KAFHLLIAAN-PALHLLFPAN-PAWYHLMEAN-QAWHALLAAN-EAYHLLSNAN-AAKHHLWAAN-KAWHLLWAAN-GAQTLLFSAN-QAFHLLYAAN-RAWHLLIAAN-KKFHCDFSAN-QAWHLLNAAN-RALHYLFAAN-HTMHLLQYAN-PAPMLLNMAN-AAPKLLFAAN-AAFHLLFAAN-KAYHLLTSAN-WAFHLFLAAN-KAIHLLFAAN-KEFHLLAAAN-KAFHLLLAAN-KAFALLFAAN-FALHLLMAAN-QAFHLLMHAN-KAFHLLSAAN-AAAHLLFSAN-KAFDCLMAAN-HAEHLLFAAN-AAFFRLLAAN-RAWHLLVSAN-GAKHLLWAKN-KATHLLFAAN-YALHLLFQAN-KAFHLLLAAN-KAFHLLFSAN-RSEHLLYAAN-KALHLLYAAN-KALHLLYSAN-PAFHLVLSCN-RAFHLLHAAN-RAFHLLMAAN-WAFHLIIAAN-RAWHLLVAAN-PCFHLLLAAN-QALWLLFSVN-PSFHFLLEAN-KAFCLLMIKN-AASHNLIAAN-RAWSLLEAAN-PAIHLLESQN-KTFHLLWAAN-KAYHLLFAAN-KAFHSLEAAN-QCYFSLVAAN-QAFQLLMAAN-AAFQLLFSAN-YALHMLNAAN-KAWHLLVAAN-YAFHLLWAAN-IAFHLLFSSN-QNWHLLITAN-WAHHLLFAAN-RAWHLLCSAN-KAFHLLWAAN-RAFHLMMSAN-KAWHLLMSAN-KAYHLLMAAN-KAWHCLFTAN-PAEHLLFGAN-KAFHCLFCAN-PAFHLLDAAN-KAGHLLWSAN-YAWHLLEASN-YAFHLLIAAN-QAEHLLFWAN-KAFHLLYAAN-YAFTLLLAAN-PGKHLLFCAN-HAWFLLLSAN-KAMAWLRRAN-KAAHTLWAGN-RAFHRLTAAN-PAFHLLIAAN-PSSRLLFAAN,60,70
