Unnamed: 0,Chain,Length,designed_binder_seq,cs,ce
0,A,10,NLKATPMLSL-TVRTETSFYL-NARIDLDIHL-RMEPIRIIYL-IVRPEPMVHL-NVSPDALAFL-RTKGQPITHL-RVEPIPLCSL-RTQIESGLNL-TTELEDMDHL-RVRADDMCDL-RVQGDDLNLL-KTQPIDMFYL-RTTEQDIVFL-RCRHLPMDYL-NVMCEPIFAL-RVGAFEELFL-RCRHEPMFFL-NTRQIAEPFL-HVRTTDIHQL-RVQSEAMAFL-NVRTLPLQEL-TVIPDPVAYL-RTKGEEMPFL-TTRPIDMPHL-TTVCVPILDL-ECTADPMPFL-RVTPVDLTSL-NVEAEPVHYL-DTKALDMHAL-PVRMNPMTAL-ETTVEMMLAL-NVIPISVDAL-STRTFDMHQL-RTKKVSLASL-RTRIIPIFML-EVTEVSMDFL-RARVDSIRSL-NIEIEEVYNL-ECQWEDLRSL-NVRVEYMYKL-NVRPIPLAHL-RHKCIDETFL-HVIAENISFL-DIDCDDSFFL-TIEMEPMISL-NVAVEPWYAL-KTSCIPIGQL-RVRSIPESFL-RTQSSSQLSL-HTRCNSLHFL-TVRQDPLTYL-KTQIDHRSSL-NVEGLPSISL-NVTEEPMIFL-NTEPISIKEL-RVRVDPELVL-RVREDPQVHL-KIRLQPMHQL-RVQGIPVSNL-TTKIPAMTNL-RIDIDSHNQL-HVTWQPMIHL-KVKCEPQLFL-RTQLEPGYNL-EVGCEPMVDL-RTQPDPEFEL-NTRPIPELYL-KVKSSPMEML-HVYEPNLNHL-RTSREWMHNL-KTKPIPITTL-RVAAQNIPFL-RVRIEPMPYL-HTRIDTKQFL-MIKMEPIYGL-RTKMIDLFFL-SVEGEPIEGL-RARIEPEFHL-RTAQECLAQL-RVRGIPIPWL-TIRSEPIPEL-KVKVIDMNCL-NVAADYIAML-RATPDPYIEL-DIKELSEPYL-NTEIEDLSYL-NVRRELMGEL-QVRMHVLFHL-QVKLDPLFTL-TVVREDIQSL-RVQFISQTAL-ETEMEDMNYL-TTAPEDIPYL-RVTMEPTNNL-KARIQWVASL-RVREESIHSL-RVRSEDESYL-KDRSTPLSSL-RVKIESMDHL,125,135
1,B,10,NLKATPMLSL-TVRTETSFYL-NARIDLDIHL-RMEPIRIIYL-IVRPEPMVHL-NVSPDALAFL-RTKGQPITHL-RVEPIPLCSL-RTQIESGLNL-TTELEDMDHL-RVRADDMCDL-RVQGDDLNLL-KTQPIDMFYL-RTTEQDIVFL-RCRHLPMDYL-NVMCEPIFAL-RVGAFEELFL-RCRHEPMFFL-NTRQIAEPFL-HVRTTDIHQL-RVQSEAMAFL-NVRTLPLQEL-TVIPDPVAYL-RTKGEEMPFL-TTRPIDMPHL-TTVCVPILDL-ECTADPMPFL-RVTPVDLTSL-NVEAEPVHYL-DTKALDMHAL-PVRMNPMTAL-ETTVEMMLAL-NVIPISVDAL-STRTFDMHQL-RTKKVSLASL-RTRIIPIFML-EVTEVSMDFL-RARVDSIRSL-NIEIEEVYNL-ECQWEDLRSL-NVRVEYMYKL-NVRPIPLAHL-RHKCIDETFL-HVIAENISFL-DIDCDDSFFL-TIEMEPMISL-NVAVEPWYAL-KTSCIPIGQL-RVRSIPESFL-RTQSSSQLSL-HTRCNSLHFL-TVRQDPLTYL-KTQIDHRSSL-NVEGLPSISL-NVTEEPMIFL-NTEPISIKEL-RVRVDPELVL-RVREDPQVHL-KIRLQPMHQL-RVQGIPVSNL-TTKIPAMTNL-RIDIDSHNQL-HVTWQPMIHL-KVKCEPQLFL-RTQLEPGYNL-EVGCEPMVDL-RTQPDPEFEL-NTRPIPELYL-KVKSSPMEML-HVYEPNLNHL-RTSREWMHNL-KTKPIPITTL-RVAAQNIPFL-RVRIEPMPYL-HTRIDTKQFL-MIKMEPIYGL-RTKMIDLFFL-SVEGEPIEGL-RARIEPEFHL-RTAQECLAQL-RVRGIPIPWL-TIRSEPIPEL-KVKVIDMNCL-NVAADYIAML-RATPDPYIEL-DIKELSEPYL-NTEIEDLSYL-NVRRELMGEL-QVRMHVLFHL-QVKLDPLFTL-TVVREDIQSL-RVQFISQTAL-ETEMEDMNYL-TTAPEDIPYL-RVTMEPTNNL-KARIQWVASL-RVREESIHSL-RVRSEDESYL-KDRSTPLSSL-RVKIESMDHL,125,135
