Unnamed: 0,Chain,Length,designed_binder_seq,cs,ce
0,A,10,ELSQRKHWMD-AEAAQRQYND-SRAAHQFLHD-ERGEKLMMHD-DASALQHYYD-TKSAYQFLHD-GLAIKMMYFD-DMPAMQHLND-ETAELTEFFD-SLAKKQAWHD-SRSAVMRRRD-DEAGRTAFYD-SESARLHYYD-LASEIQELND-LLAQRLYDRD-EASKIQWLYD-VLAEKQELND-TAAGLQELND-PTSAKLELFD-EQGWRMSLND-EWAQRLERID-SKAATDELRD-DSAGILEFYD-TDSAVQRLND-SSDALQKDRD-DAAARMALAD-CEFQKMRLID-DKGGQAWNRD-TAAEKLALFD-PRAQSDHLHD-GNAEKQELFD-KQEASIEYWD-DACGKQAWND-DLASIFSAKD-DTSAAQSTLD-EGAAVRMLYD-DSGAVLFWHD-TKAGIQAYLD-DAAAQMSFYD-ETARIKKWYD-ETARVAALID-SATGQMALYD-TYSAKLEHYD-NEAEKKCLYD-CSSEKLAEYD-ENSARRQFQD-DKALKLMLND-DSSEQLFLFD-TTAEYQRLRD-EMSARCDYMD-DRAAKKQHID-DLAQVKAYYD-DDSSLRAYFD-SLSEIQHVYD-TKAERDNYLD-MPSEVQYLLD-TASSIQWLYD-QMSAYQQRND-DDAARQRFFD-DASSLRYLVD-DWSARDFLYD-DTAWSMSLRD-TSAKQHDQMD-LPATKQTRLD-DATLKASQRD-DLAQTAALRD-FASEKQALYD-EASQMDSLLD-DEASKSELLD-TSSEHQWLQD-TTSALQQHMD-NTAGRKLLND-SKADYLEMYD-DFATYGMPKD-TPSAVAALLD-DKAQKLAAND-EWSENLAQYD-MWSELIETFD-DCWGRMAYYD-SVAHQSEVMD-NKAAIQYRWD-DPANRAALDD-DTAMRQEKFD-GTAAIQGHLD-DEAAQRYYMD-AALEELFLYD-IDAEIQYLYD-ENAEKAYLYD-GDFARQNRND-TEAGESYKED-DRSALLLERD-TGAQRQAFKD-DEAMLKSYFD-SASALIHHRD-FLAARQAQLD-SFSARKVLVD-LLEQKMMLYD-TRSEKQEHAD-DNAARLHVND-SDAEMASSYD,28,38
1,B,10,LSQRKHWMDL-EAAQRQYNDL-RAAHQFLHDL-RGEKLMMHDL-ASALQHYYDL-KSAYQFLHDL-LAIKMMYFDL-MPAMQHLNDL-TAELTEFFDL-LAKKQAWHDL-RSAVMRRRDL-EAGRTAFYDL-ESARLHYYDL-ASEIQELNDL-LAQRLYDRDL-ASKIQWLYDL-LAEKQELNDL-AAGLQELNDL-TSAKLELFDL-QGWRMSLNDL-WAQRLERIDL-KAATDELRDL-SAGILEFYDL-DSAVQRLNDL-SDALQKDRDL-AAARMALADL-EFQKMRLIDL-KGGQAWNRDL-AAEKLALFDL-RAQSDHLHDL-NAEKQELFDL-QEASIEYWDL-ACGKQAWNDL-LASIFSAKDL-TSAAQSTLDL-GAAVRMLYDL-SGAVLFWHDL-KAGIQAYLDL-AAAQMSFYDL-TARIKKWYDL-TARVAALIDL-ATGQMALYDL-YSAKLEHYDL-EAEKKCLYDL-SSEKLAEYDL-NSARRQFQDL-KALKLMLNDL-SSEQLFLFDL-TAEYQRLRDL-MSARCDYMDL-RAAKKQHIDL-LAQVKAYYDL-DSSLRAYFDL-LSEIQHVYDL-KAERDNYLDL-PSEVQYLLDL-ASSIQWLYDL-MSAYQQRNDL-DAARQRFFDL-ASSLRYLVDL-WSARDFLYDL-TAWSMSLRDL-SAKQHDQMDL-PATKQTRLDL-ATLKASQRDL-LAQTAALRDL-ASEKQALYDL-ASQMDSLLDL-EASKSELLDL-SSEHQWLQDL-TSALQQHMDL-TAGRKLLNDL-KADYLEMYDL-FATYGMPKDL-PSAVAALLDL-KAQKLAANDL-WSENLAQYDL-WSELIETFDL-CWGRMAYYDL-VAHQSEVMDL-KAAIQYRWDL-PANRAALDDL-TAMRQEKFDL-TAAIQGHLDL-EAAQRYYMDL-ALEELFLYDL-DAEIQYLYDL-NAEKAYLYDL-DFARQNRNDL-EAGESYKEDL-RSALLLERDL-GAQRQAFKDL-EAMLKSYFDL-ASALIHHRDL-LAARQAQLDL-FSARKVLVDL-LEQKMMLYDL-RSEKQEHADL-NAARLHVNDL-DAEMASSYDL,29,39
