Unnamed: 0,Chain,Length,designed_binder_seq,cs,ce
0,A,10,LPLRYAILRD-MPLVYAILGD-LPGAYTVLRD-FPWAASICED-LPLMWAVLKD-LPLFYTVLKD-MHMATSILLD-LPFFWVILAD-MPLAYAILSD-LPLCYVILRD-MPMTYAILRD-LTFATVIFVD-LPLFCVIMRD-IPLKYAIIQD-LPVCDTILSD-LPLTYSLLKD-MFMCIVILRD-LPFADAILND-MPHFWSLLRD-LALMYTALKD-MPLMWTLMRD-VPLMWCILKD-LPSAYAILRD-LPFCYVILRD-FPFMYSILRD-LPLAYVHLKD-MPLAVYILSD-LPLMWSILED-MPHMYTDLRD-LPLAYSVLKD-LPLMYSVLSD-LPFAVSDLDD-LPLAFSILKD-MPFSYSILYD-LHLMYADLKD-MPLRWCILRD-LPLFRVILND-MNLFYIYLDD-MPLATVILKD-DPLFYVILSD-MPMMYCILTD-LPLMYSILTD-MPCAYVSLKD-MPREYVILND-MAFCFAILQD-LPLAYALLKD-MPLAYAILSD-LPLAYAILID-LPLCYAILVD-LPLAYVIIQD-LPLFYAILWD-LPLLYVILTD-MPLCYIIIRD-LYHFYAIRRD-LPVCLSGLRD-LPFASVILRD-LPEAYVILKD-LPLMWVIHRD-LPFIHVILKD-MPLAYSIQSD-LPLAWAILHD-LPFQWVILED-MPDAHNILKD-CPLSYEILRD-LPLEYVILGD-MPFAYSILRD-KPLFWCVLKD-IPLMYVILRD-LPFAWCILRD-LPTAYSILRD-MPEAYVILRD-LALMHTILTD-MPLAYVILKD-LPFMYAILKD-LPLAYAILQD-LYLAYAILKD-MPFCWVILDD-LSPFETILRD-LCFIYNVLTD-MPFMYCILRD-MPLTVAILRD-MPMMYTILKD-MPMCYVILRD-MPLSWVILWD-MPLMYVIMRD-LPLAWALSND-LPLMYTIIRD-MPFAWTILKD-MPYFHAILKD-LPNAYVVLKD-MPFAHTILKD-MPLFWVILRD-LPLSWAILRD-MPFVHSILRD-LPLFHVISAD-MPIAYAIVRD-LPLFIAFKKD-LPPAYVLLSD-LPLFWAIKKD-LPLFYVILCD,21,31
1,B,10,LPLRYAILRD-MPLVYAILGD-LPGAYTVLRD-FPWAASICED-LPLMWAVLKD-LPLFYTVLKD-MHMATSILLD-LPFFWVILAD-MPLAYAILSD-LPLCYVILRD-MPMTYAILRD-LTFATVIFVD-LPLFCVIMRD-IPLKYAIIQD-LPVCDTILSD-LPLTYSLLKD-MFMCIVILRD-LPFADAILND-MPHFWSLLRD-LALMYTALKD-MPLMWTLMRD-VPLMWCILKD-LPSAYAILRD-LPFCYVILRD-FPFMYSILRD-LPLAYVHLKD-MPLAVYILSD-LPLMWSILED-MPHMYTDLRD-LPLAYSVLKD-LPLMYSVLSD-LPFAVSDLDD-LPLAFSILKD-MPFSYSILYD-LHLMYADLKD-MPLRWCILRD-LPLFRVILND-MNLFYIYLDD-MPLATVILKD-DPLFYVILSD-MPMMYCILTD-LPLMYSILTD-MPCAYVSLKD-MPREYVILND-MAFCFAILQD-LPLAYALLKD-MPLAYAILSD-LPLAYAILID-LPLCYAILVD-LPLAYVIIQD-LPLFYAILWD-LPLLYVILTD-MPLCYIIIRD-LYHFYAIRRD-LPVCLSGLRD-LPFASVILRD-LPEAYVILKD-LPLMWVIHRD-LPFIHVILKD-MPLAYSIQSD-LPLAWAILHD-LPFQWVILED-MPDAHNILKD-CPLSYEILRD-LPLEYVILGD-MPFAYSILRD-KPLFWCVLKD-IPLMYVILRD-LPFAWCILRD-LPTAYSILRD-MPEAYVILRD-LALMHTILTD-MPLAYVILKD-LPFMYAILKD-LPLAYAILQD-LYLAYAILKD-MPFCWVILDD-LSPFETILRD-LCFIYNVLTD-MPFMYCILRD-MPLTVAILRD-MPMMYTILKD-MPMCYVILRD-MPLSWVILWD-MPLMYVIMRD-LPLAWALSND-LPLMYTIIRD-MPFAWTILKD-MPYFHAILKD-LPNAYVVLKD-MPFAHTILKD-MPLFWVILRD-LPLSWAILRD-MPFVHSILRD-LPLFHVISAD-MPIAYAIVRD-LPLFIAFKKD-LPPAYVLLSD-LPLFWAIKKD-LPLFYVILCD,21,31
