Unnamed: 0,Chain,Length,designed_binder_seq,cs,ce
0,A,10,ARGLELFEYX-CRGWELESFX-SRGLEVSEYX-ARGHEVADFX-ARGYECNAYX-TKGSEIAEFX-FQGYELFSYX-AKGLELFSYX-SRGLDAFTYX-ARGWELYSFX-ALGHELERLX-SRGLNLFSVX-ATGYDADERX-AIGLEVHEYX-ARGLDVASYX-SRGLEVQEFX-ATGLETPGFX-SKGHEVRVFX-SRGLAIDSFX-ARGLKLPAYX-SRGHEADTYX-SRGCEVEEYX-ASGYYIERFX-TEGLECADFX-GRGYEPSRYX-ARGLILESFX-ARGYELDEYX-SLGVELEDYX-HKGLELGEYX-SRGLDVHNFX-AKGLELASYX-ARDYEVDSFX-HKGLEADDFX-ARGLELDHFX-ARGLEAQSFX-ARGCYLEAYX-YAGEEYDEFX-ARGYELHEFX-SKGLEVEEYX-SRGLEVDGFX-AKGWELESYX-SRGLYEEVYX-ARGYQLPDYX-LNGLEANDFX-ARGLEVDEFX-ALHLEVDNFX-ARGLETPQFX-AQGRELRDFX-SETHEAQRFX-QRGLLCDNYX-ARGLELDDYX-TRGYEVFRHX-SKGLECWSFX-ASGQEPEVFX-AIGLELDTYX-ARGIEVDEYX-ARGRELDSIX-AVMLEVEEFX-ARGISVESYX-ARGLDLYETX-ATGIEVPTFX-SRGLEQNSYX-AQGLEVKIFX-SRGLELQEFX-ARGLELFSFX-ARGQEVWSFX-SRALLADAFX-ARGLEVDAYX-ACGYEVNDYX-AKGYEIDNYX-ARGLELDNFX-AKGFALADFX-SIGLECEDYX-SPGLELDSFX-AKHLDVNGFX-ARGYEVMDYX-AFGYELGRYX-AQGLEVEAYX-MWGLELQEFX-AAGYELNDYX-SRGVEDCNYX-ARGIEVFNPX-SDFIEVADYX-NLDLELDGFX-AFGLHYQEYX-ARGLECDEFX-ARGLECDEYX-SLGWTVDDYX-ARGLMTESFX-CKGLELFQYX-TKALETDLYX-SWGLSAGWYX-TRGLELDNYX-ARGFESYEFX-AAGYEWAEIX-SRGLEIDSFX-SVGHNIHEFX-ADGYEVDSYX-ALGLELWSYX-SLQLELHTFX,246,256
1,B,10,TVRVPARGLE-TVRVPCRGWE-TVRVPSRGLE-TVRVPARGHE-TVRVPARGYE-TVRVPTKGSE-TVRVPFQGYE-TVRVPAKGLE-TVRVPSRGLD-TVRVPARGWE-TVRVPALGHE-TVRVPSRGLN-TVRVPATGYD-TVRVPAIGLE-TVRVPARGLD-TVRVPSRGLE-TVRVTATGLE-TVRVPSKGHE-TVRVPSRGLA-TVRVPARGLK-TVRVYSRGHE-TVRVPSRGCE-TVRVPASGYY-TVRVPTEGLE-TVRVPGRGYE-TVRVPARGLI-TVRVPARGYE-TVRVPSLGVE-TVRVPHKGLE-TVRVPSRGLD-TVRVWAKGLE-TVRVPARDYE-TVRVPHKGLE-TVRVPARGLE-TVRVPARGLE-TVRVPARGCY-TVRVPYAGEE-TVRVPARGYE-TVRVPSKGLE-TVRVPSRGLE-TVRVPAKGWE-TVRVPSRGLY-TVRVPARGYQ-TVRVPLNGLE-TVRVPARGLE-TVRVPALHLE-TVRVPARGLE-TVRVPAQGRE-TVRVPSETHE-TVRVPQRGLL-TVRVPARGLE-TVRVPTRGYE-TVRVPSKGLE-TVRVPASGQE-TVRVPAIGLE-TVRVPARGIE-TVRVPARGRE-TVRVPAVMLE-TVRVPARGIS-TVRVPARGLD-TVRVPATGIE-TVRVLSRGLE-TVRVPAQGLE-TVRVPSRGLE-TVRVPARGLE-TVRVPARGQE-TVRVPSRALL-TVRVPARGLE-TVRVPACGYE-TVRVPAKGYE-TVRVPARGLE-TVRVPAKGFA-TVRVPSIGLE-TVRVPSPGLE-TVRVPAKHLD-TVRVPARGYE-TVRVPAFGYE-TVRVPAQGLE-TVRVPMWGLE-TVRVPAAGYE-TVRVPSRGVE-TVRVPARGIE-TVRVPSDFIE-TVRVPNLDLE-TVRVPAFGLH-TVRVPARGLE-TVRVPARGLE-TVRVPSLGWT-TVRVPARGLM-TVRVPCKGLE-TVRVPTKALE-TVRVPSWGLS-TVRVTTRGLE-TVRVPARGFE-TVRVPAAGYE-TVRVPSRGLE-TVRVPSVGHN-TVRVPADGYE-TVRVPALGLE-TVRVPSLQLE,241,251
