Unnamed: 0,Chain,Length,designed_binder_seq,cs,ce
0,A,10,QVIFGHGNIQ-KIVFWLGFVQ-KVVFTEGAEQ-TVTFGEGCVQ-QLILQHGFIQ-DSAFWEGKVQ-KYVYFDGFKQ-ATVHDDGLIQ-KTVFYLGFIQ-ITIFYQGFVQ-RWIYKEGLVQ-LVMFVDGWCQ-QVIFTGGFEQ-SSIYLQSYNQ-QSVFLTGAIQ-AVILFNGIVQ-QMIFWHGYNQ-WTKYLYGRHQ-KTILWDGIIQ-KIIYLHGEIQ-RVIFDEGLVQ-TVIGTDGFIQ-HNIFHEGYLQ-EIVHLFGHNQ-LFIFLEGLIQ-LTIFLEGYEQ-LTIFLIGFDQ-KTVRHDGHIQ-TIIFFDGFIQ-ESIWGLGFVQ-KVLEYKGVVQ-NTIRYFGYLQ-ISYFDHGFVQ-SVIHEEGLVQ-KAIYVYGFQQ-IVILYDGQVQ-KTIFTFGFVQ-IVIFKFGYTQ-KSIYFRGFQQ-TFIFEAGYVQ-YTIFHFKFIQ-QTIFNCGCIQ-LTIYESKFLQ-LYWFIEGFVQ-ETIYEFGHLQ-VVVHYCGVIQ-VTVHWLGFVQ-ACIWYEGQIQ-MAISSEGFRQ-QFVYELGFTQ-HTVFIEGPNQ-KGIGFLGVCQ-KTIYYYGYLQ-EFIYYEGYIQ-LVIYRHGFIQ-RVIFLYGYVQ-QITFFYGFFQ-KYVFQHGYVQ-LVVYYHGLIQ-EVIFWAGRTQ-LIITYNGIVQ-ITEFYEGQAQ-EIILRLGHHQ-HVVFWFGYIQ-KDINFLGHNQ-EVVYREGFHQ-IYPSNLGNIQ-QVIFELMFLQ-LTIYDHGFVQ-LCVYYDQRLQ-NTIYGFKCVQ-FVVLRSGIVQ-KFIYSCGFVQ-DFIYSNGFTQ-KSVAFDGYIQ-KVDFEYGLIQ-NAIFFYGYVQ-KFVCYEGFDQ-TCIFKLGFIQ-KVVYEDGFYQ-IYVYVLGFEQ-LTIFDHGVLQ-ETVFLEGKVQ-MTIFSDGFVQ-LTPYLWMFAQ-RVIFQCEFEQ-EIIFVPAFLQ-TVIMEHGFHQ-ETKFYFGAIQ-KVIPYNVVIQ-LSIYYFGRLQ-RTIFYLGTVQ-KSIHDLGRVQ-NVILAEGFAQ-KAVFYSGLPQ-KTVFIRGWVQ-QTIFHDGFKQ-RTIREQGILQ-KVLNHWGFVQ-LVDLTFGLQQ,110,120
1,B,10,GQVIFGHGNI-GKIVFWLGFV-GKVVFTEGAE-GTVTFGEGCV-GQLILQHGFI-GDSAFWEGKV-GKYVYFDGFK-GATVHDDGLI-GKTVFYLGFI-GITIFYQGFV-GRWIYKEGLV-GLVMFVDGWC-GQVIFTGGFE-GSSIYLQSYN-GQSVFLTGAI-GAVILFNGIV-GQMIFWHGYN-GWTKYLYGRH-GKTILWDGII-GKIIYLHGEI-GRVIFDEGLV-GTVIGTDGFI-GHNIFHEGYL-GEIVHLFGHN-GLFIFLEGLI-GLTIFLEGYE-GLTIFLIGFD-GKTVRHDGHI-GTIIFFDGFI-GESIWGLGFV-GKVLEYKGVV-GNTIRYFGYL-GISYFDHGFV-GSVIHEEGLV-GKAIYVYGFQ-GIVILYDGQV-GKTIFTFGFV-GIVIFKFGYT-GKSIYFRGFQ-GTFIFEAGYV-GYTIFHFKFI-GQTIFNCGCI-GLTIYESKFL-GLYWFIEGFV-GETIYEFGHL-GVVVHYCGVI-GVTVHWLGFV-CACIWYEGQI-GMAISSEGFR-GQFVYELGFT-GHTVFIEGPN-GKGIGFLGVC-GKTIYYYGYL-GEFIYYEGYI-GLVIYRHGFI-GRVIFLYGYV-GQITFFYGFF-GKYVFQHGYV-GLVVYYHGLI-GEVIFWAGRT-GLIITYNGIV-KITEFYEGQA-GEIILRLGHH-GHVVFWFGYI-GKDINFLGHN-GEVVYREGFH-GIYPSNLGNI-GQVIFELMFL-GLTIYDHGFV-GLCVYYDQRL-GNTIYGFKCV-GFVVLRSGIV-GKFIYSCGFV-GDFIYSNGFT-GKSVAFDGYI-GKVDFEYGLI-GNAIFFYGYV-CKFVCYEGFD-GTCIFKLGFI-GKVVYEDGFY-GIYVYVLGFE-VLTIFDHGVL-RETVFLEGKV-GMTIFSDGFV-GLTPYLWMFA-GRVIFQCEFE-QEIIFVPAFL-GTVIMEHGFH-GETKFYFGAI-GKVIPYNVVI-GLSIYYFGRL-GRTIFYLGTV-GKSIHDLGRV-GNVILAEGFA-GKAVFYSGLP-GKTVFIRGWV-GQTIFHDGFK-GRTIREQGIL-GKVLNHWGFV-GLVDLTFGLQ,109,119
