Unnamed: 0,Chain,Length,designed_binder_seq,cs,ce
0,A,10,VKDRFKYNEK-VRSAYKFWVK-YRKLFQYNQK-RMNLFAFVSK-PTDEFNWVFK-PKDQLKYIFK-VKDLFKWNYK-VKTPFVFLFK-PDQVLQYDRK-AMDAYGWNFK-IVDTFYWTTK-SKDAFRHYFK-PTKADSYLRK-VRHAFKYNFK-IKDSLFYTEK-VYDTLKYNTK-PMDKLQFIQK-ALDALKWNDK-SRDAGGWNKK-PIEQLNMLYK-VTKQLFFESK-TADYMRYRTK-AINALSYPRK-VKEALRFNRK-VPEALKFHEK-PSDVLNWNQK-IRQELEYIKK-RLAQFRWQYK-PLEQFRYNTK-TRDYLVFNEK-PKDALHFVFK-VRDQLSFIQK-PKQSLDYFIK-PLDQLRYNQK-VIDYYSFISK-PKDAWKYLQK-VTTVLNFSEK-PKDLYAYNFK-SREDLAYLEK-PKRAFSFRFK-QIDKPSFIFK-PLEMLAYNTK-SIDCFSYTQK-PEEQYAWHRK-VKDALHFNKK-PIDELKFLQK-VTDLFQFREK-VKTALESVFK-PTQQFFHLEK-PVDCYEWLSK-TKCKLDMIWK-VLDAFHFVKK-IQLQMKWTWK-VIDEFKFIHK-QIKQYADLRK-VKDLFEFNQK-IRKQYEFTSK-TSQTYYWINK-PNDAYKFLNK-IKQALYYNIK-PKDQLKYIIK-VHDQLKFNHK-ALDAYRELQK-IKSSFNYLQK-TIQQFAWIKK-CKETVAHLAK-PIDLFRKYWK-VKSQYAFIKK-TRDQFDWLRK-VIDTLKYNYK-SKDQLTFLNK-IREAFKFVEK-PIKALAFNQK-IKDQFKWLYK-QREAYYFNEK-VITRYKYIRK-VKEVFKFIRK-ARDALSSIRK-VKDAFRHQKK-EKDKITYIFK-EKEKLYFIWK-VRQQDKFNFK-VKEQFAWNYK-TRDQFKFISK-AKDLYRWLYK-PERQLDYFFK-ARDAFHYLLK-PKEMLKWWHK-SKEAYKWTQK-PRASLHWANK-SKDWFAWEFK-AKDQLKYTRK-TRDCFAYQSK-PKDWLTHIQK-VKDALSWMIK-IVDWFSYTSK-VLEQFDFNWK-VQDAFNYLHK-TIDLFHHLNK-PKEQLAWLNK,4,14
1,B,10,KXAQLSKALW-KXAQLSKALW-KXAQLSKALW-KXAQLSKALW-KXAQLSKALW-KXAQLSKALW-KXAQLSKALW-KXAQLSKALW-KXAQLSKALW-KXAQLSKALW-KXAQLSKALW-KXAQLSKALW-KXAQLSKALW-KXAQLSKALW-KXAQLSKALW-KXAQLSKALW-KXAQLSKALW-KXAQLSKALW-KXAQLSKALW-KXAQLSKALW-KXAQLSKALW-KXAQLSKALW-KXAQLSKALW-KXAQLSKALW-KXAQLSKALW-KXAQLSKALW-KXAQLSKALW-KXAQLSKALW-KXAQLSKALW-KXAQLSKALW-KXAQLSKALW-KXAQLSKALW-KXAQLSKALW-KXAQLSKALW-KXAQLSKALW-KXAQLSKALW-KXAQLSKALW-KXAQLSKALW-KXAQLSKALW-KXAQLSKALW-KXAQLSKALW-KXAQLSKALW-KXAQLSKALW-KXAQLSKALW-KXAQLSKALW-KXAQLSKALW-KXAQLSKALW-KXAQLSKALW-KXAQLSKALW-KXAQLSKALW-KXAQLSKALW-KXAQLSKALW-KXAQLSKALW-KXAQLSKALW-KXAQLSKALW-KXAQLSKALW-KXAQLSKALW-KXAQLSKALW-KXAQLSKALW-KXAQLSKALW-KXAQLSKALW-KXAQLSKALW-KXAQLSKALW-KXAQLSKALW-KXAQLSKALW-KXAQLSKALW-KXAQLSKALW-KXAQLSKALW-KXAQLSKALW-KXAQLSKALW-KXAQLSKALW-KXAQLSKALW-KXAQLSKALW-KXAQLSKALW-KXAQLSKALW-KXAQLSKALW-KXAQLSKALW-KXAQLSKALW-KXAQLSKALW-KXAQLSKALW-KXAQLSKALW-KXAQLSKALW-KXAQLSKALW-KXAQLSKALW-KXAQLSKALW-KXAQLSKALW-KXAQLSKALW-KXAQLSKALW-KXAQLSKALW-KXAQLSKALW-KXAQLSKALW-KXAQLSKALW-KXAQLSKALW-KXAQLSKALW-KXAQLSKALW-KXAQLSKALW-KXAQLSKALW-KXAQLSKALW-KXAQLSKALW-KXAQLSKALW,13,23
