Unnamed: 0,Chain,Length,designed_binder_seq,cs,ce
0,A,10,ARSSAAIEHR-AASVMADVRR-TESPWAAVHR-AGSKWHACYR-SAYADAAVGR-AEAYSAAVAR-SLSNQAAVAR-ELSAWAAQAR-SDSSYSAVHR-ATSSWAALCR-RHVVFAWHLR-SVTAQAAVHR-ALSPWAAFER-AFSPLESVHR-ALSPWAAVKR-AYSPWAALRR-AVSAKAAYRR-AGSVLAARIR-ATSAWAAQAR-AWSQHAALHR-EWSAFAALRR-AESQWAAVVR-HRSPWAAIAR-AQSQAAAVAR-RDSPWAAVYR-KDSPSWALHR-SLSAFAAMRR-SYCALSAVYR-AHSTAAAAGR-AVSAHTAHGR-DKSAWASWVR-EMSCHAAVFR-EMSAFAAVHR-FYSHEAAEAR-AFSPWAAYAR-AYSMDAAVRR-AGSPLSAVHR-ADSSWASVAR-AYSAWAAIAR-AYSPWAAMRR-AFSPWAACFR-DESVMAAVHR-ELSALAALRR-SWSQWAAVYR-GDSHWFAKKR-HRSAWAAYAR-AQSAATWRFR-ALSPFAAVER-EYSADAAMNR-RHATWVAFAR-ATSPTAAVHR-FESPFAAVAR-ALSAFAALAR-AYSQNWATQR-ALSAQAAVRR-ANSCPAARAR-AASILAAVAR-EMSAWAAVMR-ANSPSAMVHR-AISAWAHYAR-ARSAWASVYR-AQSVFTAHHR-GASPFATRAR-AWSPWAAVDR-PRCCLASWAR-AYSAWAAVVR-AEPAHSAKIR-ADGAWAHLSR-KLSIWAAFMR-DRSVWAAVNR-ADNALAAVYR-ANSPWAAVAR-AYSAQAAFHR-AKSPEAALHR-ADSPWPAVGR-ELSGHASYHR-SSSSWASEAR-DYSALAIEKR-ANCPWASVAR-AWSTEAAVHR-AWSATAAWHR-CFLPLAAVHR-ADSDFAAVYR-AFGDWMALAR-ELSSCAAYRR-AISPVAAQRR-SDCVLAAHAR-AHSVWSAINR-SVSALSAEGR-AESQWAAEVR-SDSSWCAVQR-EDSAWSARAR-DNSALAAESR-AYSPWAATAR-ADSQMAAVRR-CESPWAADKR-ALSQLAALHR-AISAAAALHR-AFNSWAAERR-AYSPWAAYYR,134,144
1,B,10,ARSSAAIEHR-AASVMADVRR-TESPWAAVHR-AGSKWHACYR-SAYADAAVGR-AEAYSAAVAR-SLSNQAAVAR-ELSAWAAQAR-SDSSYSAVHR-ATSSWAALCR-RHVVFAWHLR-SVTAQAAVHR-ALSPWAAFER-AFSPLESVHR-ALSPWAAVKR-AYSPWAALRR-AVSAKAAYRR-AGSVLAARIR-ATSAWAAQAR-AWSQHAALHR-EWSAFAALRR-AESQWAAVVR-HRSPWAAIAR-AQSQAAAVAR-RDSPWAAVYR-KDSPSWALHR-SLSAFAAMRR-SYCALSAVYR-AHSTAAAAGR-AVSAHTAHGR-DKSAWASWVR-EMSCHAAVFR-EMSAFAAVHR-FYSHEAAEAR-AFSPWAAYAR-AYSMDAAVRR-AGSPLSAVHR-ADSSWASVAR-AYSAWAAIAR-AYSPWAAMRR-AFSPWAACFR-DESVMAAVHR-ELSALAALRR-SWSQWAAVYR-GDSHWFAKKR-HRSAWAAYAR-AQSAATWRFR-ALSPFAAVER-EYSADAAMNR-RHATWVAFAR-ATSPTAAVHR-FESPFAAVAR-ALSAFAALAR-AYSQNWATQR-ALSAQAAVRR-ANSCPAARAR-AASILAAVAR-EMSAWAAVMR-ANSPSAMVHR-AISAWAHYAR-ARSAWASVYR-AQSVFTAHHR-GASPFATRAR-AWSPWAAVDR-PRCCLASWAR-AYSAWAAVVR-AEPAHSAKIR-ADGAWAHLSR-KLSIWAAFMR-DRSVWAAVNR-ADNALAAVYR-ANSPWAAVAR-AYSAQAAFHR-AKSPEAALHR-ADSPWPAVGR-ELSGHASYHR-SSSSWASEAR-DYSALAIEKR-ANCPWASVAR-AWSTEAAVHR-AWSATAAWHR-CFLPLAAVHR-ADSDFAAVYR-AFGDWMALAR-ELSSCAAYRR-AISPVAAQRR-SDCVLAAHAR-AHSVWSAINR-SVSALSAEGR-AESQWAAEVR-SDSSWCAVQR-EDSAWSARAR-DNSALAAESR-AYSPWAATAR-ADSQMAAVRR-CESPWAADKR-ALSQLAALHR-AISAAAALHR-AFNSWAAERR-AYSPWAAYYR,134,144
