Unnamed: 0,Chain,Length,designed_binder_seq,cs,ce
0,A,10,MVKDVLKREI-MIEDVTKEPI-GAVDIKDQPI-TLGDWSKCPI-MLMDITNEPI-ETADITNNEI-MIENVLDKPI-DVSDIHNNHI-MVPSVLKMPI-MIENITNQNI-MVPDISKENI-KMEDITNNDI-MVAGVTGNDI-MIHNYSDNEI-MVQDIMNNAI-MIPDITEMPI-MMQDVTDNMI-TIENNLHKPI-DVPEVLKESI-SFEDITSHPI-MMIDVSNKPI-MVPDVVKNKI-VPKDTTHNKI-SVKDVTQEPI-MKKSVIKAKI-IVVDVLNEKI-TVEDVKTNPI-MVEDILRKPI-MVKDDIDTPI-LLPVWSENPI-MLEDIEYKNI-MIHDVLKNEI-MIADYSLNEI-QIRDRVNNKI-MIEDVTNNEI-MSVDVRFNEI-MTKDISEENI-MIKNFIRNDI-GTPFVTEKSI-MIADVLQNPI-FVKSIIDKDI-MLVNFIHNAI-AMEDVSEQPI-MVQDVTDQEI-MVKDHTDCDI-MMRNCTIGKI-MVKNFIENPI-AVQDILQGDI-MVKDITDSMI-SVENVINNEI-PMPNYTIEPI-TMEDVIGKKI-MMPNILDNKI-MTEDVTRNEI-MVADHMNVPI-MSPRILDEPI-MVDDVQHNPI-CVPDVVDNKI-PLIDVLGKDI-PMKSIINNPI-MVPDIISKAI-SVENVTQAEI-MQESKLENPI-GTHDVRYKPI-VIEDINGHPI-AVRDNVHNPI-QMENVIDKPI-MMMDTTERSI-MIISIDNEPI-VVEDVLENDI-AMKDYLSATI-MVEDVTNNSI-MMKDIWMNQI-MVKTILDNPI-AIHDITINNI-MIEAVTDLKI-MVPDILNQKI-CMKSVLDNSI-AMKDVSLSQI-LVEDVTENEI-VVKDASNNPI-FVEDVLDNNI-MVKDIINWPI-TVKDNTNNEI-MIPDVSHWPI-MFVDVSKKPI-MIVDVSNNDI-AMKDYTQNEI-KMPSITDGPI-SLAAISTKQI-MVKDISQNNI-GVPDISEKDI-TIPDTTNKEI-MHLDVSHQNI-VVENIINQEI-MVRDVVHNPI-MMFDRTHNPI-GVKDRIENEI-MVIDPVDRPI-MVHNVLNEPI,0,10
1,B,10,PIPLEFVDVE-PIPLEFVDVE-PIPLEFVDVE-PIPLEFVDVE-PIPLEFVDVE-PIPLEFVDVE-PIPLEFVDVE-PIPLEFVDVE-PIPLEFVDVE-PIPLEFVDVE-PIPLEFVDVE-PIPLEFVDVE-PIPLEFVDVE-PIPLEFVDVE-PIPLEFVDVE-PIPLEFVDVE-PIPLEFVDVE-PIPLEFVDVE-PIPLEFVDVE-PIPLEFVDVE-PIPLEFVDVE-PIPLEFVDVE-PIPLEFVDVE-PIPLEFVDVE-PIPLEFVDVE-PIPLEFVDVE-PIPLEFVDVE-PIPLEFVDVE-PIPLEFVDVE-PIPLEFVDVE-PIPLEFVDVE-PIPLEFVDVE-PIPLEFVDVE-PIPLEFVDVE-PIPLEFVDVE-PIPLEFVDVE-PIPLEFVDVE-PIPLEFVDVE-PIPLEFVDVE-PIPLEFVDVE-PIPLEFVDVE-PIPLEFVDVE-PIPLEFVDVE-PIPLEFVDVE-PIPLEFVDVE-PIPLEFVDVE-PIPLEFVDVE-PIPLEFVDVE-PIPLEFVDVE-PIPLEFVDVE-PIPLEFVDVE-PIPLEFVDVE-PIPLEFVDVE-PIPLEFVDVE-PIPLEFVDVE-PIPLEFVDVE-PIPLEFVDVE-PIPLEFVDVE-PIPLEFVDVE-PIPLEFVDVE-PIPLEFVDVE-PIPLEFVDVE-PIPLEFVDVE-PIPLEFVDVE-PIPLEFVDVE-PIPLEFVDVE-PIPLEFVDVE-PIPLEFVDVE-PIPLEFVDVE-PIPLEFVDVE-PIPLEFVDVE-PIPLEFVDVE-PIPLEFVDVE-PIPLEFVDVE-PIPLEFVDVE-PIPLEFVDVE-PIPLEFVDVE-PIPLEFVDVE-PIPLEFVDVE-PIPLEFVDVE-PIPLEFVDVE-PIPLEFVDVE-PIPLEFVDVE-PIPLEFVDVE-PIPLEFVDVE-PIPLEFVDVE-PIPLEFVDVE-PIPLEFVDVE-PIPLEFVDVE-PIPLEFVDVE-PIPLEFVDVE-PIPLEFVDVE-PIPLEFVDVE-PIPLEFVDVE-PIPLEFVDVE-PIPLEFVDVE-PIPLEFVDVE-PIPLEFVDVE-PIPLEFVDVE-PIPLEFVDVE,64,74
