Unnamed: 0,Chain,Length,designed_binder_seq,cs,ce
0,A,10,KAMVNLLGQQ-KLAVLQLCEQ-KACVMDDCRQ-KANVRKLAEQ-KAAVVKLCKQ-KASCSLIGEQ-KGPVSLLGKQ-KAATGYLCQQ-KHASGKIVRQ-KSAVAFLCEQ-KHSVNFISRQ-KASENLLEQQ-KHSVGSLCEQ-KAAVHFLSLQ-KHATGLLSIQ-KYATCLLVYQ-KSAISCLSRQ-KACITLICKQ-KPSVHRYSLQ-KAAVSLLAEQ-KQACQEMAQQ-KSTVCKIATQ-KNAVNLLAHQ-KLSTGLLTNQ-KASAMLISHQ-KGACGTLSHQ-KAACGQLAKQ-KAAMSLLSRQ-KYAVSLIGNQ-KFAVNLLCTQ-KATVGRTTRQ-KAADVMLAKQ-KESVSELCYQ-KAAVTWLAEQ-KAMVSKEAEQ-KAAIALDTSQ-KDSQSQLAIQ-KCASILLMQQ-KSAIEQLSLQ-KGARDLMGGQ-KAAVGCLCYQ-KAANADMSRQ-KAACILLTEQ-KFSRSRLAEQ-KARYNFMTHQ-KRSVYALTEQ-KAKVSLLCRQ-RSAINHLAEQ-KKSITLSGKQ-KSGVSLENCQ-KDAVSLAGDQ-KAATFQLGRQ-KGSVNRLCQQ-VAAVGYLSRQ-KAAVIMLADQ-KAAVCEISLQ-KACQHRLAQQ-KTSVIMLGEQ-KSATHLLGLQ-KCATNWLTHQ-KSTVGKMSYQ-KVAISQIAQQ-KAATFLLSQQ-HSAVICMSRQ-KAAVSRLCHQ-KVAVHFLKEQ-KAALSSLAEQ-KAAVSTLAMQ-KAAKANLGRQ-KAATIELSLQ-KFSTGELGHQ-KAAVMLLSEQ-KSGQGLLGEQ-KEACGLLAQQ-KRAVGLLTKQ-KRAVAELCRQ-KATVSHLASQ-KFAVQLLHYQ-KVAVEVLAMQ-KLVTSLLSIQ-KAAWHNVCQQ-KALVTLLGEQ-KACNGWLARQ-KWSIAKLREQ-KAATELFCKQ-KSAVHRLCRQ-KAAVGSLCRQ-KSAVVEMTHQ-KAVVGKLTDQ-KAAVGMMSQQ-KLAVSRLNEQ-KKSVIKLCEQ-KSSSGCLAGQ-KGCVFLLGEQ-KYSMFLIAKQ-KAANRKLGKQ-KFSCNLLAKQ-KSVFIFLSHQ-KCATSLVSQQ-KIAQGLLGRQ,143,153
1,B,10,KAMVNLLGQQ-KLAVLQLCEQ-KACVMDDCRQ-KANVRKLAEQ-KAAVVKLCKQ-KASCSLIGEQ-KGPVSLLGKQ-KAATGYLCQQ-KHASGKIVRQ-KSAVAFLCEQ-KHSVNFISRQ-KASENLLEQQ-KHSVGSLCEQ-KAAVHFLSLQ-KHATGLLSIQ-KYATCLLVYQ-KSAISCLSRQ-KACITLICKQ-KPSVHRYSLQ-KAAVSLLAEQ-KQACQEMAQQ-KSTVCKIATQ-KNAVNLLAHQ-KLSTGLLTNQ-KASAMLISHQ-KGACGTLSHQ-KAACGQLAKQ-KAAMSLLSRQ-KYAVSLIGNQ-KFAVNLLCTQ-KATVGRTTRQ-KAADVMLAKQ-KESVSELCYQ-KAAVTWLAEQ-KAMVSKEAEQ-KAAIALDTSQ-KDSQSQLAIQ-KCASILLMQQ-KSAIEQLSLQ-KGARDLMGGQ-KAAVGCLCYQ-KAANADMSRQ-KAACILLTEQ-KFSRSRLAEQ-KARYNFMTHQ-KRSVYALTEQ-KAKVSLLCRQ-RSAINHLAEQ-KKSITLSGKQ-KSGVSLENCQ-KDAVSLAGDQ-KAATFQLGRQ-KGSVNRLCQQ-VAAVGYLSRQ-KAAVIMLADQ-KAAVCEISLQ-KACQHRLAQQ-KTSVIMLGEQ-KSATHLLGLQ-KCATNWLTHQ-KSTVGKMSYQ-KVAISQIAQQ-KAATFLLSQQ-HSAVICMSRQ-KAAVSRLCHQ-KVAVHFLKEQ-KAALSSLAEQ-KAAVSTLAMQ-KAAKANLGRQ-KAATIELSLQ-KFSTGELGHQ-KAAVMLLSEQ-KSGQGLLGEQ-KEACGLLAQQ-KRAVGLLTKQ-KRAVAELCRQ-KATVSHLASQ-KFAVQLLHYQ-KVAVEVLAMQ-KLVTSLLSIQ-KAAWHNVCQQ-KALVTLLGEQ-KACNGWLARQ-KWSIAKLREQ-KAATELFCKQ-KSAVHRLCRQ-KAAVGSLCRQ-KSAVVEMTHQ-KAVVGKLTDQ-KAAVGMMSQQ-KLAVSRLNEQ-KKSVIKLCEQ-KSSSGCLAGQ-KGCVFLLGEQ-KYSMFLIAKQ-KAANRKLGKQ-KFSCNLLAKQ-KSVFIFLSHQ-KCATSLVSQQ-KIAQGLLGRQ,143,153
