Unnamed: 0,Chain,Length,designed_binder_seq,cs,ce
0,A,10,MVTVVSDRYY-EVTIINNDVY-CVTVVDEYYY-SVTVSNWEYY-HVTVVNNDWY-QVTVVFSNFY-DVTVMHESFY-KVTVVNDFFY-EVTILNDEYY-KNTVLDQAFY-KVTVVNERYY-KVTICNHNFY-RVTVIHEEYY-SVTVINDDYY-KVTVTNGDYY-KVTLVNNHFY-KVTTINQQFY-RVTVVNSAFY-QVTVVNSNFY-LVTVVNEQYY-TVSVDNHFFY-SVTVLNDHYY-TVTTVNSDFY-KVTVINQAYY-NVTVTNSDTY-NVTIASAAFY-GVTVVDSELY-IVTCMNAFYY-HVTVLHEDYY-QQTIMNDSYY-VVTVLSSFYY-SVTVVSQWFY-IVTVVDDKFY-HVTVLNDNFY-RVTVTKSEFY-LVTVTNVHWY-NVTILNDTFY-EVTYINNLFY-QVTVGNDFFY-LVTVMNENYY-SVTVVNDQWY-SVTVLNTHFY-DVMVLNDDFY-IVTVLSQFFY-SVTVVNDCFY-RVTVLHHIFY-KVTVFNDRWY-NETTIHEDFY-EVTVMEQRYY-KVTHIHGDFY-LKMVTEYKYY-TVTVVDTNFY-LVTVISSHYY-EVTIFNDFFY-NVTVVNMEFY-HVTVCNDQFY-QVTVINDDYY-HVTGTNEEFY-NVTIIDENFY-EVTMTNEDFY-KVTTTSECFY-AVTVINERFY-RVTITDQNFY-KVTVVNQKFY-HVTVTDERQY-AVTIINDDFY-QVTVINTRFY-LHTIGPESYY-FVTVICDDFY-SVTVTDDAYY-NVTTHLSGDY-TVTVMDERFY-NVTTIGEKYY-QVTCIVREYY-QVPIIASFWY-WVTVLHTRFY-TVTVLDEPYY-LLTVVSARFY-IVTILSSRFY-SVTVINDEYY-NVTNTNDQFY-TVTVLSHQFY-QVTVLSEHFY-NVTVLNEFFY-KVTTTNHSFY-KVTIYNSEFY-QVTVINDPFY-TETVTHHYFY-SVTVTDERFY-FNTVLNRDYY-EVTAMSEHFY-RITYLSEDYY-KVTVHNTMYY-AVTTLRRNYY-KVTVVDDHFY-HVTIIFDAYY-KETVLNEEFY-HVTVLNENFY-KVTVISDDFY-RVTVVDEQFY,48,58
1,B,10,WTSKTSVAYV-WTSKTSVAYV-WTSKTSVAYV-WTSKTSVAYV-WTSKTSVAYV-WTSKTSVAYV-WTSKTSVAYV-WTSKTSVAYV-WTSKTSVAYV-WTSKTSVAYV-WTSKTSVAYV-WTSKTSVAYV-WTSKTSVAYV-WTSKTSVAYV-WTSKTSVAYV-WTSKTSVAYV-WTSKTSVAYV-WTSKTSVAYV-WTSKTSVAYV-WTSKTSVAYV-WTSKTSVAYV-WTSKTSVAYV-WTSKTSVAYV-WTSKTSVAYV-WTSKTSVAYV-WTSKTSVAYV-WTSKTSVAYV-WTSKTSVAYV-WTSKTSVAYV-WTSKTSVAYV-WTSKTSVAYV-WTSKTSVAYV-WTSKTSVAYV-WTSKTSVAYV-WTSKTSVAYV-WTSKTSVAYV-WTSKTSVAYV-WTSKTSVAYV-WTSKTSVAYV-WTSKTSVAYV-WTSKTSVAYV-WTSKTSVAYV-WTSKTSVAYV-WTSKTSVAYV-WTSKTSVAYV-WTSKTSVAYV-WTSKTSVAYV-WTSKTSVAYV-WTSKTSVAYV-WTSKTSVAYV-WTSKTSVAYV-WTSKTSVAYV-WTSKTSVAYV-WTSKTSVAYV-WTSKTSVAYV-WTSKTSVAYV-WTSKTSVAYV-WTSKTSVAYV-WTSKTSVAYV-WTSKTSVAYV-WTSKTSVAYV-WTSKTSVAYV-WTSKTSVAYV-WTSKTSVAYV-WTSKTSVAYV-WTSKTSVAYV-WTSKTSVAYV-WTSKTSVAYV-WTSKTSVAYV-WTSKTSVAYV-WTSKTSVAYV-WTSKTSVAYV-WTSKTSVAYV-WTSKTSVAYV-WTSKTSVAYV-WTSKTSVAYV-WTSKTSVAYV-WTSKTSVAYV-WTSKTSVAYV-WTSKTSVAYV-WTSKTSVAYV-WTSKTSVAYV-WTSKTSVAYV-WTSKTSVAYV-WTSKTSVAYV-WTSKTSVAYV-WTSKTSVAYV-WTSKTSVAYV-WTSKTSVAYV-WTSKTSVAYV-WTSKTSVAYV-WTSKTSVAYV-WTSKTSVAYV-WTSKTSVAYV-WTSKTSVAYV-WTSKTSVAYV-WTSKTSVAYV-WTSKTSVAYV-WTSKTSVAYV-WTSKTSVAYV,29,39
