Unnamed: 0,Chain,Length,designed_binder_seq,cs,ce
0,A,10,PAVPEERIDG-PAVARRLVDG-LRIPQDLVDG-PYVTCQKLDG-PAVPRSLLDG-PAVARRQLDG-PRLAMSLWDG-PAVPRAEVDG-QTVPRDQVDG-SVVPRKLWDG-ARVPSQHIDG-PRIARSLVDG-DRIPSELVDG-EKIPTWAVDG-AQRPCERVDG-QRVNTWGVDG-EKIPTSLLDG-ERVAEQDLDG-PAVKEAEVDG-GRVPSHLLDG-PRVPERLLDG-AAVPTALHNG-PAVPSAQVDG-EAIPRARLDG-ARIRQAELDG-PRIAASLIDG-PRVPQQELDG-PAVPREAVNG-PRVPLDLIDG-PDVAEDEVDG-EAVPTWDLTG-PRVATSEVDG-PAIPAWRVDG-PRNPSWEVDG-PKVPQSYLDG-TRTRSELVDG-GRVPMERVDG-PRAATEYVDG-PKVARSAVDG-PTIATGQVDG-AKVAQALVDG-PAVTQSLVDG-PAVASAEYNG-PWVQTFNIDG-PAVPRDLVDG-GRIAEDLVDG-TRVPRSLLMG-PRVMEEQVNG-HRVAEEDVDG-PAERQDALGG-PSVPRSIVDG-TAIPSSLIDG-PRLPQHEVDG-PRVARERLLG-TRHQSMLVDG-EAVRRAEVDG-VATARTEIDG-PRVPVSLMDG-PIIMRNLVDG-PAVPEWEVQG-PAIATNLVEG-PAVESHLVDG-PSVARSEVDG-AKIATQEWDG-RAVAREEIDG-RRISTEEWDG-PTVAQSQYDG-TARATSSHDG-AKVRSSLVEG-RRTPASLIDG-YAIPESEIDG-PRLPRWAVDG-PRVASWPIDG-AAVASSQVAG-AGSPVALIDG-PRVAAQEIDG-DRVVTPACNG-TAVAEQCWDG-ESVPAELVDG-PRIASSRLDG-EAVPESLVDG-HAVAANMVDG-PRVAVSEVDG-PRVPTSEIDG-ARLPQDSWDG-PAVASDLCDG-PAVPRQLVDG-PRQASELWRG-PRIPHSRVDG-PAIAKHEVNG-QAVPAEEVDG-PRVARSEIGG-PAVKRWRLDG-ARVRTDQING-PAVSECLVDG-PMTPQSLVDG-FSVPTFLVDG-PRVHESLVDG-PRIPTQKVAG-PAVETYAVDG,142,152
1,B,10,RFLTGE/SVG-RFLTGE/SVG-RFLTGE/SVG-RFLTGE/SVG-RFLTGE/SVG-RFLTGE/SVG-RFLTGE/SVG-RFLTGE/SVG-RFLTGE/SVG-RFLTGE/SVG-RFLTGE/SVG-RFLTGE/SVG-RFLTGE/SVG-RFLTGE/SVG-RFLTGE/SVG-RFLTGE/SVG-RFLTGE/SVG-RFLTGE/SVG-RFLTGE/SVG-RFLTGE/SVG-RFLTGE/SVG-RFLTGE/SVG-RFLTGE/SVG-RFLTGE/SVG-RFLTGE/SVG-RFLTGE/SVG-RFLTGE/SVG-RFLTGE/SVG-RFLTGE/SVG-RFLTGE/SVG-RFLTGE/SVG-RFLTGE/SVG-RFLTGE/SVG-RFLTGE/SVG-RFLTGE/SVG-RFLTGE/SVG-RFLTGE/SVG-RFLTGE/SVG-RFLTGE/SVG-RFLTGE/SVG-RFLTGE/SVG-RFLTGE/SVG-RFLTGE/SVG-RFLTGE/SVG-RFLTGE/SVG-RFLTGE/SVG-RFLTGE/SVG-RFLTGE/SVG-RFLTGE/SVG-RFLTGE/SVG-RFLTGE/SVG-RFLTGE/SVG-RFLTGE/SVG-RFLTGE/SVG-RFLTGE/SVG-RFLTGE/SVG-RFLTGE/SVG-RFLTGE/SVG-RFLTGE/SVG-RFLTGE/SVG-RFLTGE/SVG-RFLTGE/SVG-RFLTGE/SVG-RFLTGE/SVG-RFLTGE/SVG-RFLTGE/SVG-RFLTGE/SVG-RFLTGE/SVG-RFLTGE/SVG-RFLTGE/SVG-RFLTGE/SVG-RFLTGE/SVG-RFLTGE/SVG-RFLTGE/SVG-RFLTGE/SVG-RFLTGE/SVG-RFLTGE/SVG-RFLTGE/SVG-RFLTGE/SVG-RFLTGE/SVG-RFLTGE/SVG-RFLTGE/SVG-RFLTGE/SVG-RFLTGE/SVG-RFLTGE/SVG-RFLTGE/SVG-RFLTGE/SVG-RFLTGE/SVG-RFLTGE/SVG-RFLTGE/SVG-RFLTGE/SVG-RFLTGE/SVG-RFLTGE/SVG-RFLTGE/SVG-RFLTGE/SVG-RFLTGE/SVG-RFLTGE/SVG-RFLTGE/SVG-RFLTGE/SVG-RFLTGE/SVG,205,215
