Unnamed: 0,Chain,Length,designed_binder_seq,cs,ce
0,A,10,SPFFGLNVAS-APDAGFYICS-APLYGLDAYS-SPVFGGLSAS-AHEYGLAVWS-APKYGIPLYS-ARHFGEIHQS-APQFYNAVSS-APDFGLRHSS-TPKFGFHVSS-APEFGVISSS-APKYGFAVKS-APEYGIVASS-APFFGIAAAS-APNYGLTVSS-APRYGVAYAS-APRFGFDVFS-APSFGSHFSS-APRYGLNIAS-GPKYGVVCAS-AGDFGFACFS-AFQYGHIMSS-ALRFGKSYAS-SGNFGLSYYS-SHLFGRKIYS-APLWRNVVAS-ARVFGNVLYS-APQCGLQIAS-SPKFGIMSFS-AEEYGVHFSS-SLKFGIRISS-APDYGIKLAS-APEFGLDTCS-AREFGVDYHS-APLFGCKVAS-DNTFGICRYS-QEPQGLRGAS-GPRFGLKVYS-AGEFGLSVSS-ARDFGYYISS-SRQFGPAHWS-AREYGMPFWS-APKFGIDHPS-SADFGIDRFS-ARKYGLDAYS-APNFGIRKNS-APGFGYDVAS-AAKYGIDISS-APNFGHVCDS-APKFGHKLYS-APEWGLERSS-APEFGLIQFS-ASEFGIDRAS-APHYGLVLAS-APKFGDKVYS-APQFGIAWWS-APRYGWYLAS-APKYGIYATS-QARYGIARSS-VAQWGYHVAS-APDFGLRVAS-APKWGLITSS-APDFGLEVAS-AEDFGYKISS-AGEYGYIVHS-APEFGIDFGS-AREFVDAIAS-APRFGEAVYS-AKGFGYKYFS-AVKFGWFHSS-AVDFGLDVSS-AKDYGLDVGS-APNYGLSVAS-ARDFGLLVSS-APEFGIYKCS-APEYGEIVSS-APKYGLQAWS-APNFGIWSFS-APHFGIKTWS-APAFGLDVSS-QPQFGIQTAS-APQFGYERFS-SRDWGLAKCS-APRYGLNASS-APAYPLAVAS-FCDFEFDRAS-APKFGIINSS-APRYGLAIAS-APKYGLKVAS-APHYGYFVAS-SPAFGFAFSS-APRFGLKWSS-AADFGFARRS-SIDWGMTFYS-GPEFGIDISS-SPKFGLCVYS-APDYGISESS-IPKYGGIFFS-APNFGIKLFS-ARRWGFDVPS,179,189
1,B,10,GLNVASYFXE-GFYICSYFXE-GLDAYSYFXE-GGLSASYFXE-GLAVWSYFXE-GIPLYSYFXE-GEIHQSYFXE-YNAVSSYFXE-GLRHSSYFXE-GFHVSSYFXE-GVISSSYFXE-GFAVKSYFXE-GIVASSYFXE-GIAAASYFXE-GLTVSSYFXE-GVAYASYFXE-GFDVFSYFXE-GSHFSSYFXE-GLNIASYFXE-GVVCASYFXE-GFACFSYFXE-GHIMSSYFXE-GKSYASYFXE-GLSYYSYFXE-GRKIYSYFXE-RNVVASYFXE-GNVLYSYFXE-GLQIASYFXE-GIMSFSYFXE-GVHFSSYFXE-GIRISSYFXE-GIKLASYFXE-GLDTCSYFXE-GVDYHSYFXE-GCKVASYFXE-GICRYSYFXE-GLRGASYFXE-GLKVYSYFXE-GLSVSSYFXE-GYYISSYFXE-GPAHWSYFXE-GMPFWSYFXE-GIDHPSYFXE-GIDRFSYFXE-GLDAYSYFXE-GIRKNSYFXE-GYDVASYFXE-GIDISSYFXE-GHVCDSYFXE-GHKLYSYFXE-GLERSSYFXE-GLIQFSYFXE-GIDRASYFXE-GLVLASYFXE-GDKVYSYFXE-GIAWWSYFXE-GWYLASYFXE-GIYATSYFXE-GIARSSYFXE-GYHVASYFXE-GLRVASYFXE-GLITSSYFXE-GLEVASYFXE-GYKISSYFXE-GYIVHSYFXE-GIDFGSYFXE-VDAIASYFXE-GEAVYSYFXE-GYKYFSYFXE-GWFHSSYFXE-GLDVSSYFXE-GLDVGSYFXE-GLSVASYFXE-GLLVSSYFXE-GIYKCSYFXE-GEIVSSYFXE-GLQAWSYFXE-GIWSFSYFXE-GIKTWSYFXE-GLDVSSYFXE-GIQTASYFXE-GYERFSYFXE-GLAKCSYFXE-GLNASSYFXE-PLAVASYFXE-EFDRASYFXE-GIINSSYFXE-GLAIASYFXE-GLKVASYFXE-GYFVASYFXE-GFAFSSYFXE-GLKWSSYFXE-GFARRSYFXE-GMTFYSYFXE-GIDISSYFXE-GLCVYSYFXE-GISESSYFXE-GGIFFSYFXE-GIKLFSYFXE-GFDVPSYFXE,183,193
