Unnamed: 0,Chain,Length,designed_binder_seq,cs,ce
0,A,10,MNGMRMSNRN-ASKIQFLVPN-ANECRLSTTN-GNMTISRVGN-GNKVITHTTN-GGETSATIQN-MSETSLDVFN-GIGIQVLVNN-GHSIMFLHEN-GNTAVDTWVN-GDQVVSKVGN-GSEGRNFVSN-ADQVEATVLN-GDNVQIQTPN-MQWVQESIDN-GDLPDMGVGN-GNTVTMLVNN-GKTVRGLVYN-GNPVDITVSN-GNVSSSATVN-GVRCRPRTVN-GTKVVDFVSN-ASAVTLNVVN-GNTVTLMIMN-GDEVSIQIQN-GTSAKFTYTN-GIHVSTLVRN-GSEVKSLVSN-GGLSEARVLN-GWKASLHVEN-SVLVETLIAN-GLLVTMRVAN-GPVVMITNVN-MKVVTMNITN-AHIWICEVWN-CSLCELLVTN-GDKVEDTISN-AKIVTTESPN-MNTVTASIPN-GIVVTYTIIN-GQYAIVQIDN-GYEVTSQVQN-GSEVVSWIEN-GNEQALTVTN-GSIVESLVIN-GTEATIIIVN-GNSVLGIDRN-GDHVRCEVIN-SYKFMMYVPN-GSVVTTNEDN-GRVNIGFVVN-GNIATQTILN-GTEVTSSYRN-GNHVQTQIIN-GDIVITQVIN-GETVLALVRN-GMVTENMIDN-GTEVWADVAN-GDSESASVNN-GFQTQQEVYN-GRSVVVLNAN-GDMGKNRIIN-GSRVECHVSN-GNTVTALVKN-GNMVETDVTN-GSTVTMEILN-ADIQRTYTYN-GSHVEAYVRN-EHTCEMESRN-GTQVLMLVDN-GLHARIMVCN-GTEVSTKVIN-PNEYSHSIKN-GKEVVLSVFN-GDLVQAFIPN-GTVVQLIVDN-GDTVTLLLTN-GRVVVSHMQN-GGKVQTEVEN-GDTSVVENSN-GKQVFNIVWN-GGIVINSVVN-GATVQMLAHN-GELVTSSIVN-CSTVALLQEN-GDTKFTDDNN-GVIHETLVEN-GEYVTTSVQN-GETVTCYVPN-GTTDTAPVEN-GVQSSMSVRN-GQAVHTNIEN-GTSVTAHVSN-GNTVIQTVNN-CDMAYMAIDN-GNIVIINHRN-MRDVITLVPN-GGRATNIVTN-ASEIELDVEN-GEIVSLDVGN,0,10
1,B,10,MNGMRMSNRN-ASKIQFLVPN-ANECRLSTTN-GNMTISRVGN-GNKVITHTTN-GGETSATIQN-MSETSLDVFN-GIGIQVLVNN-GHSIMFLHEN-GNTAVDTWVN-GDQVVSKVGN-GSEGRNFVSN-ADQVEATVLN-GDNVQIQTPN-MQWVQESIDN-GDLPDMGVGN-GNTVTMLVNN-GKTVRGLVYN-GNPVDITVSN-GNVSSSATVN-GVRCRPRTVN-GTKVVDFVSN-ASAVTLNVVN-GNTVTLMIMN-GDEVSIQIQN-GTSAKFTYTN-GIHVSTLVRN-GSEVKSLVSN-GGLSEARVLN-GWKASLHVEN-SVLVETLIAN-GLLVTMRVAN-GPVVMITNVN-MKVVTMNITN-AHIWICEVWN-CSLCELLVTN-GDKVEDTISN-AKIVTTESPN-MNTVTASIPN-GIVVTYTIIN-GQYAIVQIDN-GYEVTSQVQN-GSEVVSWIEN-GNEQALTVTN-GSIVESLVIN-GTEATIIIVN-GNSVLGIDRN-GDHVRCEVIN-SYKFMMYVPN-GSVVTTNEDN-GRVNIGFVVN-GNIATQTILN-GTEVTSSYRN-GNHVQTQIIN-GDIVITQVIN-GETVLALVRN-GMVTENMIDN-GTEVWADVAN-GDSESASVNN-GFQTQQEVYN-GRSVVVLNAN-GDMGKNRIIN-GSRVECHVSN-GNTVTALVKN-GNMVETDVTN-GSTVTMEILN-ADIQRTYTYN-GSHVEAYVRN-EHTCEMESRN-GTQVLMLVDN-GLHARIMVCN-GTEVSTKVIN-PNEYSHSIKN-GKEVVLSVFN-GDLVQAFIPN-GTVVQLIVDN-GDTVTLLLTN-GRVVVSHMQN-GGKVQTEVEN-GDTSVVENSN-GKQVFNIVWN-GGIVINSVVN-GATVQMLAHN-GELVTSSIVN-CSTVALLQEN-GDTKFTDDNN-GVIHETLVEN-GEYVTTSVQN-GETVTCYVPN-GTTDTAPVEN-GVQSSMSVRN-GQAVHTNIEN-GTSVTAHVSN-GNTVIQTVNN-CDMAYMAIDN-GNIVIINHRN-MRDVITLVPN-GGRATNIVTN-ASEIELDVEN-GEIVSLDVGN,0,10
