Unnamed: 0,Chain,Length,designed_binder_seq,cs,ce
0,A,10,ASEXHPAGIE-TDYXPPRLIE-YENXPPESIE-HDHXPPDAIE-IDLXDPSAIE-VRLXAPGQLE-TALXPPHHIE-HEWXDPRNIE-TAWXPPRHIE-TDWXRPFATE-HNEXYPAYIE-TRWXPPENIE-ISWXDPRHLE-TSLXDPAQQE-GKNXPPEHIE-TRLXNPRRHE-CNQXSPGLSE-TRYXMPRNFE-LRHXDPRPIE-YGYXPPEMIE-ASWXGPEYIE-TETXDPRYQE-TSWXDPAGIE-VGWXDPRYWE-NQWXDPRFTE-TRLXPPRYTE-NLLXGPRQIE-EQLXMPRCVE-NKWXPPETVE-WATXDPRQVE-SMYXEPHFQE-HGLXPPQLSE-DILXDPRNRE-MTWXRPECQE-THLXNPSQGE-YKHXPPAFTE-TKLXPPEDIE-TDLXDPRHTE-FELXNPVYTE-SKRXGPEHIE-TKWXGPRHLE-NNIXFPEVYE-CQYXYPRSTE-MREXEPYLQE-TKLXPPYDIE-SSLXPPAFQE-NRTXGSRFIE-TEYXPPRYTE-TMWXYPRQQE-TRFXSPRNIE-ARVXNPRAIE-WEWXPPDEIE-VREXNPSLTE-NGYXKPRLTE-VHLXDPRHEE-IQLXDPEYTE-VEFXDPRSIE-TKLXGPSAIE-TELXDPSIIE-FKWXGPRQIE-IAFXDPSLQE-TRHXGPRNVE-HFFXGPRRRE-QGLXPPKFTE-HRLXSPHFIE-IHPXPPAGWE-TSFXGPRYKE-SSYXAPRGWE-VRWXGPRFIE-ISHXDPRAIE-DLWXNPGSIE-TELXEPRFFE-VQEXPPRQTE-TQLXPPSDCE-ERHXIPGNIE-NRWXKPRAVE-IAYXPPAYVE-TDTXPPSFIE-HELXFPRHIE-QQLXPPTYTE-VRWXEQRQTE-SLLXDPRHIE-NRLXCARGIE-HKHXDPRTTE-MRDXFPAYHE-DRLXAPEYIE-TDWXPPRFTE-FRWXGPESIE-TSWXDPQGIE-HSFXPGRFTE-TTLXSPRSLE-QRPXDRRYTE-ANIXEPRQNE-QTLXPPERTE-AKLXDPRIIE-TKWXPPSYIE-AKFXDPRSIE-TQLXPPPRVE-TDWXETETIE-TDMXPPLFIE,60,70
1,B,10,ASEXHPAGIE-TDYXPPRLIE-YENXPPESIE-HDHXPPDAIE-IDLXDPSAIE-VRLXAPGQLE-TALXPPHHIE-HEWXDPRNIE-TAWXPPRHIE-TDWXRPFATE-HNEXYPAYIE-TRWXPPENIE-ISWXDPRHLE-TSLXDPAQQE-GKNXPPEHIE-TRLXNPRRHE-CNQXSPGLSE-TRYXMPRNFE-LRHXDPRPIE-YGYXPPEMIE-ASWXGPEYIE-TETXDPRYQE-TSWXDPAGIE-VGWXDPRYWE-NQWXDPRFTE-TRLXPPRYTE-NLLXGPRQIE-EQLXMPRCVE-NKWXPPETVE-WATXDPRQVE-SMYXEPHFQE-HGLXPPQLSE-DILXDPRNRE-MTWXRPECQE-THLXNPSQGE-YKHXPPAFTE-TKLXPPEDIE-TDLXDPRHTE-FELXNPVYTE-SKRXGPEHIE-TKWXGPRHLE-NNIXFPEVYE-CQYXYPRSTE-MREXEPYLQE-TKLXPPYDIE-SSLXPPAFQE-NRTXGSRFIE-TEYXPPRYTE-TMWXYPRQQE-TRFXSPRNIE-ARVXNPRAIE-WEWXPPDEIE-VREXNPSLTE-NGYXKPRLTE-VHLXDPRHEE-IQLXDPEYTE-VEFXDPRSIE-TKLXGPSAIE-TELXDPSIIE-FKWXGPRQIE-IAFXDPSLQE-TRHXGPRNVE-HFFXGPRRRE-QGLXPPKFTE-HRLXSPHFIE-IHPXPPAGWE-TSFXGPRYKE-SSYXAPRGWE-VRWXGPRFIE-ISHXDPRAIE-DLWXNPGSIE-TELXEPRFFE-VQEXPPRQTE-TQLXPPSDCE-ERHXIPGNIE-NRWXKPRAVE-IAYXPPAYVE-TDTXPPSFIE-HELXFPRHIE-QQLXPPTYTE-VRWXEQRQTE-SLLXDPRHIE-NRLXCARGIE-HKHXDPRTTE-MRDXFPAYHE-DRLXAPEYIE-TDWXPPRFTE-FRWXGPESIE-TSWXDPQGIE-HSFXPGRFTE-TTLXSPRSLE-QRPXDRRYTE-ANIXEPRQNE-QTLXPPERTE-AKLXDPRIIE-TKWXPPSYIE-AKFXDPRSIE-TQLXPPPRVE-TDWXETETIE-TDMXPPLFIE,60,70
