Unnamed: 0,Chain,Length,designed_binder_seq,cs,ce
0,A,10,FVLPRFGFQX-FIHPYFTRHX-SVLIRLEFNX-YVVFRLGFNX-WILSMFGANX-YILFRENNNX-YVLFRKVLNX-YVFLVHGKSX-YVYNYFGYEX-FVLFRHGALX-FQLPHMLLNX-YVLLVQGYEX-YVYIYYGATX-FVQPYFGLNX-FIHHYSGFNX-YVLLKESYWX-YVFWYTLMDX-FVLLKVGYVX-YVENSFGSEX-YVLFAKKSAX-FVLEFYGAQX-AVTLYSGRTX-WVLGYLSFVX-FVHIYFGSVX-FVLTCFSFIX-YVLWKAGYQX-FVLFRFGTDX-FVLTWADFKX-FVYTQHGYKX-FVLPHWGLEX-FVYFDYTFQX-YVYIYIGSIX-WVTFYPGFQX-YVLARHFHEX-YVLLHLSHDX-AVYGYFSFRX-FVVENYLNLX-VVLWRQGLQX-YVLITVGENX-YVLFQFGYAX-YVLFFHGCQX-FVLTRHGALX-YVLFRFSSLX-FVWIKFNFFX-YVWLHFGSVX-YVFLANSFKX-FVLVRFSYLX-FVRFFLGTWX-YVLSRLGGRX-FILPFAGYQX-FVHWSYGFNX-WVLWSFSFNX-YYLYREGYSX-YDLLNLDATX-FVLANFYNNX-WVYPFQGMRX-YGHARFNYHX-CVYLRELFLX-GCWLHFGFNX-FIRLRKSAFX-WVLEVLGGRX-FVLLRFGFVX-FVLFAHDTRX-HVFIYIGGAX-FIATQFFFVX-YVLERFGYIX-YVRIKFGGIX-FVYHSFGFIX-FRLVFKDWTX-YVLWHFGYNX-WVLLYYNYRX-FCLHKFSAIX-FVLAYHHATX-YVFLQHGYEX-FVLRRHTFLX-YVVLYLVLQX-VVLSNLGFYX-YVLGRNCQVX-YVLEQGGTAX-YIWPNEGDKX-FVLPSVGYRX-YVLWKYGFNX-WSLLKFIFTX-YVLHKWGFSX-FVTQWPGFNX-FVRHRFGFNX-FVRFKFGCVX-YVKIWVGFRX-YILYRHSFVX-WVHFFYGTFX-FVRLVIGFNX-FVWLSLGIAX-FILENHGYNX-FVLIYDGYAX-YVLTKPGWIX-FVFLRAGEKX-YFYEYFGFRX-WVLHKIGFTX-YILPYLIIVX-FDLPRITWNX,50,60
1,B,10,IGDFVLPRFG-IGDFIHPYFT-IGDSVLIRLE-IGDYVVFRLG-IGDWILSMFG-IGDYILFREN-IGDYVLFRKV-IGDYVFLVHG-IGDYVYNYFG-IGDFVLFRHG-IGDFQLPHML-IGDYVLLVQG-IGDYVYIYYG-IGDFVQPYFG-IGDFIHHYSG-IGDYVLLKES-IGDYVFWYTL-IGDFVLLKVG-IGDYVENSFG-IGDYVLFAKK-IGDFVLEFYG-IGEAVTLYSG-IGDWVLGYLS-IGDFVHIYFG-IGDFVLTCFS-IGDYVLWKAG-IGDFVLFRFG-IGDFVLTWAD-IGDFVYTQHG-IGDFVLPHWG-IGDFVYFDYT-IGDYVYIYIG-IGDWVTFYPG-IGDYVLARHF-IGDYVLLHLS-IGDAVYGYFS-IGDFVVENYL-IGDVVLWRQG-IGDYVLITVG-IGDYVLFQFG-IGDYVLFFHG-IGDFVLTRHG-IGIYVLFRFS-IGCFVWIKFN-IGDYVWLHFG-IGDYVFLANS-IGDFVLVRFS-IGDFVRFFLG-IGDYVLSRLG-IGDFILPFAG-IGDFVHWSYG-IGDWVLWSFS-IGDYYLYREG-IGDYDLLNLD-IGDFVLANFY-IGDWVYPFQG-IGDYGHARFN-IGDCVYLREL-IGDGCWLHFG-IGDFIRLRKS-IGDWVLEVLG-IGDFVLLRFG-IGPFVLFAHD-IGKHVFIYIG-IGIFIATQFF-IGHYVLERFG-IGDYVRIKFG-IGRFVYHSFG-IGDFRLVFKD-IGDYVLWHFG-IGDWVLLYYN-IGDFCLHKFS-IGDFVLAYHH-IGDYVFLQHG-IGDFVLRRHT-IGTYVVLYLV-IGDVVLSNLG-IGDYVLGRNC-IGDYVLEQGG-IGDYIWPNEG-IGDFVLPSVG-IGDYVLWKYG-IGDWSLLKFI-IGDYVLHKWG-IGDFVTQWPG-IGDFVRHRFG-IGDFVRFKFG-IGDYVKIWVG-IGDYILYRHS-IGDWVHFFYG-IGDFVRLVIG-IGAFVWLSLG-IGDFILENHG-IGDFVLIYDG-IGDYVLTKPG-IGDFVFLRAG-IGDYFYEYFG-IGDWVLHKIG-IGDYILPYLI-IGDFDLPRIT,47,57
