Unnamed: 0,Chain,Length,designed_binder_seq,cs,ce
0,A,10,RIPPGESVME-ALRPGDTINE-HQSIGDTPLE-TNREYEFLLE-YVPPGWSVLE-GADAGETVLE-YQQYGEDLLE-FMDPGYSGLE-YIAHGESILE-VVCKGESELE-VMRRNETVLE-VRDIGESPLE-NCKPGETLLE-LQEPGKTLLE-YVKPGETMLE-YVDAGESLLE-IRSPGETILE-LVSSGITLNE-SMDMFTTMLE-NQFRGESVLE-AMSPGESILE-LVGPGETCLE-RVKPGESILE-IPNVGETYLE-LVYPGEDVLE-NIEVGETYVE-TMDMGESILE-MVQPGETALE-LMETVESPLE-ILQLGETLLE-NMKRGENLLE-YLGPGETPLE-WMKRGESVLE-HTQPGEDYTE-EVRCGEDILE-VMEEDESCLE-KQSAGEIPLE-EVQPGECLLE-TREKHESILE-EIKGKEVLLE-NVNLGESLLE-VLRRGETLLE-KMHQGESLLE-ISRAGETVYE-VHETGETLDE-VVKGGESVLE-IQEPGETCLE-RMKPGESMIE-LVSYGETFKE-LVDPGGSYLE-YVHIGETVLE-TMKVGETPLE-PNKPGETVLE-FVQPGEDYLE-AMKPGESMVE-VDRPGFPPLE-YMELGESMLE-LLDIGESLLE-RQKRGETILE-KMSPGESPLE-RVERGESVLE-IMLASESHLE-NVEVYQTVLE-EMRMGEEILE-GIRRGESFLE-IVEAGETILE-KVDKGETLLE-VLRPGESILE-FQIRGEHVLE-YVRPGETILE-KMEPGWNVLE-EVVPGETFEE-IVTIGQTHLE-TVEPGESVLE-VYPKGESLLE-KDPPGYSLLE-YLHPGSSALE-SIRLDETILE-LVDVGESVLE-RIAPGETLLE-RVDVGESNLE-AIQAGETILE-ISDRGETFLE-PITRGETKIE-GNKPGESFIE-RLAPTESLLE-RTFSGESALE-AVRTGETVCE-TIELGESFLE-NVRIGEDLLE-VSSPGETILE-IQQPGESLLE-VMNLGQDILE-VMRRDRSELE-SVKFGELYLE-FQASMESFLE-VMSMGETVME-FIGSGETPIE-TVKSGESIGE-YQKPNETLTE,31,41
1,B,10,RIPPGESVME-ALRPGDTINE-HQSIGDTPLE-TNREYEFLLE-YVPPGWSVLE-GADAGETVLE-YQQYGEDLLE-FMDPGYSGLE-YIAHGESILE-VVCKGESELE-VMRRNETVLE-VRDIGESPLE-NCKPGETLLE-LQEPGKTLLE-YVKPGETMLE-YVDAGESLLE-IRSPGETILE-LVSSGITLNE-SMDMFTTMLE-NQFRGESVLE-AMSPGESILE-LVGPGETCLE-RVKPGESILE-IPNVGETYLE-LVYPGEDVLE-NIEVGETYVE-TMDMGESILE-MVQPGETALE-LMETVESPLE-ILQLGETLLE-NMKRGENLLE-YLGPGETPLE-WMKRGESVLE-HTQPGEDYTE-EVRCGEDILE-VMEEDESCLE-KQSAGEIPLE-EVQPGECLLE-TREKHESILE-EIKGKEVLLE-NVNLGESLLE-VLRRGETLLE-KMHQGESLLE-ISRAGETVYE-VHETGETLDE-VVKGGESVLE-IQEPGETCLE-RMKPGESMIE-LVSYGETFKE-LVDPGGSYLE-YVHIGETVLE-TMKVGETPLE-PNKPGETVLE-FVQPGEDYLE-AMKPGESMVE-VDRPGFPPLE-YMELGESMLE-LLDIGESLLE-RQKRGETILE-KMSPGESPLE-RVERGESVLE-IMLASESHLE-NVEVYQTVLE-EMRMGEEILE-GIRRGESFLE-IVEAGETILE-KVDKGETLLE-VLRPGESILE-FQIRGEHVLE-YVRPGETILE-KMEPGWNVLE-EVVPGETFEE-IVTIGQTHLE-TVEPGESVLE-VYPKGESLLE-KDPPGYSLLE-YLHPGSSALE-SIRLDETILE-LVDVGESVLE-RIAPGETLLE-RVDVGESNLE-AIQAGETILE-ISDRGETFLE-PITRGETKIE-GNKPGESFIE-RLAPTESLLE-RTFSGESALE-AVRTGETVCE-TIELGESFLE-NVRIGEDLLE-VSSPGETILE-IQQPGESLLE-VMNLGQDILE-VMRRDRSELE-SVKFGELYLE-FQASMESFLE-VMSMGETVME-FIGSGETPIE-TVKSGESIGE-YQKPNETLTE,31,41
