Unnamed: 0,Chain,Length,designed_binder_seq,cs,ce
0,A,10,SNPKFKPDSL-SSEFVVCPTL-STPIIQATTL-SSPLRSASAL-SSPANFWPNL-SSPNYATEAL-SQPKVFSVSL-SNPNMSTPRL-GSPHAFAEQL-SSPDVQKPAL-SDPATATQEL-SNPAAVSAFL-SSPFTFWAAL-SSPWHCAPTL-DNPFYFRPTL-SDPRVAMPLL-SDPVIFSDFL-GDPIHWSDWL-ASPYVCSEDL-GSPYVAPEAL-SSPSIRTDHL-SSTVVFAEDL-SSPLRFAPLL-GSPFFNRNIL-NAPLKGSELL-SNPFFSSRFL-SSPFDFEPEL-SNPLSAMTEL-SNPFVFAEEL-SSRCVATDLL-SSPTFEASTL-SHRTYFAEAL-SRWYWWPETL-DSFLFLPEWL-SSPKVAQPDL-SSPLNDTRRL-SSPYFFQEDL-SSPLALAEEL-SSPLFCAQKL-SSPVLNTEAL-ASPAYSETGL-SQHLTFPNTL-SSPINHWEEL-ASPFFLHWAL-SSPAHFREFL-SADAAFAPAL-SNPQYRSEAL-DGTNNSAVGL-GSPFLEASKL-SNPHVCRTYL-SNPAVFATSL-SWTRFFPEAL-SNPYFSPSTL-SNPYYHAEFL-SSPDISREYL-SSPVVFAESL-SSPDYEHQDL-SSPFNVIEAL-SSDRILTDEL-SSPYVYRESL-SDPQKSSVAL-SSPAVDAVAL-GSPFAFQPEL-DRPFVLADAL-SAPAFESTAL-SDPHTAPVTL-SNPVNSAEGL-GNPYEFRTVL-TSPFVHTDFL-SMPLEQCPWL-SDPRVYSESL-SNPIFLPYLL-RSHLHMSDLL-SDPVNFQPLL-SSPFFLAVQL-SSPVFCASTL-SSPIIFVDKL-SSPWFFAEDL-GSPVIVASGL-SNPVQFAGAL-SSPVTEYETL-SSPYFSVEGL-SSPYVAFPAL-SSPQAFREWL-ADPDWATPAL-SSPFYKADEL-SSPVTFTPFL-ASPAYRLDFL-SDPVVAAVTL-SNPLIRSAYL-SMPTIFAPTL-SEPIYEQQAL-GNPTYNAMSL-DMPRLFREAL-SDPYASADVL-SDPSYLAPAL-SSPFNFWEEL-SAQYNFAELL-DSPFFNRPAL-SSPVHLAESL,8,18
1,B,10,PSLEPXYHPV-PSLEPXYHPV-PSLEPXYHPV-PSLEPXYHPV-PSLEPXYHPV-PSLEPXYHPV-PSLEPXYHPV-PSLEPXYHPV-PSLEPXYHPV-PSLEPXYHPV-PSLEPXYHPV-PSLEPXYHPV-PSLEPXYHPV-PSLEPXYHPV-PSLEPXYHPV-PSLEPXYHPV-PSLEPXYHPV-PSLEPXYHPV-PSLEPXYHPV-PSLEPXYHPV-PSLEPXYHPV-PSLEPXYHPV-PSLEPXYHPV-PSLEPXYHPV-PSLEPXYHPV-PSLEPXYHPV-PSLEPXYHPV-PSLEPXYHPV-PSLEPXYHPV-PSLEPXYHPV-PSLEPXYHPV-PSLEPXYHPV-PSLEPXYHPV-PSLEPXYHPV-PSLEPXYHPV-PSLEPXYHPV-PSLEPXYHPV-PSLEPXYHPV-PSLEPXYHPV-PSLEPXYHPV-PSLEPXYHPV-PSLEPXYHPV-PSLEPXYHPV-PSLEPXYHPV-PSLEPXYHPV-PSLEPXYHPV-PSLEPXYHPV-PSLEPXYHPV-PSLEPXYHPV-PSLEPXYHPV-PSLEPXYHPV-PSLEPXYHPV-PSLEPXYHPV-PSLEPXYHPV-PSLEPXYHPV-PSLEPXYHPV-PSLEPXYHPV-PSLEPXYHPV-PSLEPXYHPV-PSLEPXYHPV-PSLEPXYHPV-PSLEPXYHPV-PSLEPXYHPV-PSLEPXYHPV-PSLEPXYHPV-PSLEPXYHPV-PSLEPXYHPV-PSLEPXYHPV-PSLEPXYHPV-PSLEPXYHPV-PSLEPXYHPV-PSLEPXYHPV-PSLEPXYHPV-PSLEPXYHPV-PSLEPXYHPV-PSLEPXYHPV-PSLEPXYHPV-PSLEPXYHPV-PSLEPXYHPV-PSLEPXYHPV-PSLEPXYHPV-PSLEPXYHPV-PSLEPXYHPV-PSLEPXYHPV-PSLEPXYHPV-PSLEPXYHPV-PSLEPXYHPV-PSLEPXYHPV-PSLEPXYHPV-PSLEPXYHPV-PSLEPXYHPV-PSLEPXYHPV-PSLEPXYHPV-PSLEPXYHPV-PSLEPXYHPV-PSLEPXYHPV-PSLEPXYHPV-PSLEPXYHPV-PSLEPXYHPV-PSLEPXYHPV,143,153
