Unnamed: 0,Chain,Length,designed_binder_seq,cs,ce
0,A,10,DLRVTPSAFD-VLRVTVGFGD-DLTWVVARED-ELTSTVARKD-ELNVQVGRKD-QLAGVVCRTD-DLKVIVSKAD-DLRVVVCNAD-DLIVTVAGKD-ELEATVSRPD-DLKVTVGRED-ELYVTMGKDD-HLNITVALRD-ELDAVVSRAD-AANVTYSKFD-SPYVDVARPD-DLEVTVAAQD-DLKWTVAWID-DLIAIVSKPD-QLYVTVGRED-NLYSTVAKPD-DLHITFARHD-DLSVEVSKSD-HLNVTVGRED-DLNIRLSQKD-ALNVTVGWGD-HLHTTIKTPD-DHHLIQANHD-DLSVSFCTKD-DINVTVARRD-DLYITVSQQD-QLRVTISRDD-DLKVEVSRSD-DLQVTDGRAD-ELNVTVSKAD-YLYVPVHGLD-KLNATVARSD-RLCRTYGKED-NLSVRVSRDD-ELNITHSRGD-DLNAIIARPD-ELHVTVALED-DLSITVSGSD-RLEAVVSKND-HLSVEVGKND-SVNVVCQGRD-SLGITVAKRD-SLNVTFGPED-WLNCTVTQKD-DLQVSVASTD-ELNVTIAKPD-NLNGTVGRKD-GLRATVSSQD-EIRVVVANRD-ALEVTASNKD-TLRAEYLRPD-DRTVSAARKD-SLRVRVSEAD-ELHITAAKPD-RLHVTFGKED-ALTFEVSDRD-DLKVTVGKAD-ELYFTYSRPD-DLNVTFSKRD-ELSVTPGKKD-DLDVEFGRND-TLEATIGRPD-NLHVTVGRID-HLNCTCGGFD-GLNITPGKQD-DLQVTAIRSD-DLHVTVANED-ELNVTISKED-DLEISYAKND-ELELEIARLD-ELNVTFGRHD-DPYVVCASED-NLNVTVGKRD-ELNCVVSKND-GLRVTWGRTD-ELKCTVGRPD-WLYCTQSRPD-SLYANFAARD-NLYVEVGRRD-DLKVEVSKED-NLNAVVARRD-EIKPVVGSAD-FLNWTFGRTD-DLQVSVGLSD-DLFKTVARTD-ELFVHVGSHD-DLDVTWSKRD-DASVTFSTAD-DLTVQFGRAD-ELFLTVAWRD-DLEVTIAERD-SLVITAGKSD-DLHVTVGRKD-DLKIVFSGSD-QLFLIVSRYD,88,98
1,B,10,DLRVTPSAFD-VLRVTVGFGD-DLTWVVARED-ELTSTVARKD-ELNVQVGRKD-QLAGVVCRTD-DLKVIVSKAD-DLRVVVCNAD-DLIVTVAGKD-ELEATVSRPD-DLKVTVGRED-ELYVTMGKDD-HLNITVALRD-ELDAVVSRAD-AANVTYSKFD-SPYVDVARPD-DLEVTVAAQD-DLKWTVAWID-DLIAIVSKPD-QLYVTVGRED-NLYSTVAKPD-DLHITFARHD-DLSVEVSKSD-HLNVTVGRED-DLNIRLSQKD-ALNVTVGWGD-HLHTTIKTPD-DHHLIQANHD-DLSVSFCTKD-DINVTVARRD-DLYITVSQQD-QLRVTISRDD-DLKVEVSRSD-DLQVTDGRAD-ELNVTVSKAD-YLYVPVHGLD-KLNATVARSD-RLCRTYGKED-NLSVRVSRDD-ELNITHSRGD-DLNAIIARPD-ELHVTVALED-DLSITVSGSD-RLEAVVSKND-HLSVEVGKND-SVNVVCQGRD-SLGITVAKRD-SLNVTFGPED-WLNCTVTQKD-DLQVSVASTD-ELNVTIAKPD-NLNGTVGRKD-GLRATVSSQD-EIRVVVANRD-ALEVTASNKD-TLRAEYLRPD-DRTVSAARKD-SLRVRVSEAD-ELHITAAKPD-RLHVTFGKED-ALTFEVSDRD-DLKVTVGKAD-ELYFTYSRPD-DLNVTFSKRD-ELSVTPGKKD-DLDVEFGRND-TLEATIGRPD-NLHVTVGRID-HLNCTCGGFD-GLNITPGKQD-DLQVTAIRSD-DLHVTVANED-ELNVTISKED-DLEISYAKND-ELELEIARLD-ELNVTFGRHD-DPYVVCASED-NLNVTVGKRD-ELNCVVSKND-GLRVTWGRTD-ELKCTVGRPD-WLYCTQSRPD-SLYANFAARD-NLYVEVGRRD-DLKVEVSKED-NLNAVVARRD-EIKPVVGSAD-FLNWTFGRTD-DLQVSVGLSD-DLFKTVARTD-ELFVHVGSHD-DLDVTWSKRD-DASVTFSTAD-DLTVQFGRAD-ELFLTVAWRD-DLEVTIAERD-SLVITAGKSD-DLHVTVGRKD-DLKIVFSGSD-QLFLIVSRYD,88,98
