Unnamed: 0,Chain,Length,designed_binder_seq,cs,ce
0,A,10,LMRLAQALVP-LDLLAQALRP-VDALSQALRP-LRRLAQALRP-DDALAQALRP-LSVLAQALRP-LIDLAMALRP-LDALAQALRP-IDKLAQALRP-LDACAQALRP-IDALAQALRP-IYERAQALRP-IARMAQALRP-VAMLAQALRP-FYLLAQALRP-ISELAQALRP-IDNLAFALRP-LGHNAQALRP-PMALALALRP-TDYLAQALRP-PAQLAQALRP-LNRLAQALRP-PSDLAQWLRP-IPQLAQALRP-VDELAHALRP-PDRLAQALMP-LVQLAQALRP-IDQLAQALRP-TRLLAQALRP-LSALAQALRP-IDDLAQALRP-LDELAQALRP-PMHLAQALRP-VDNLAQALRP-VHDLAQSLRP-LDELAQALRP-PAALAQALDP-LDELASALRP-FWDLAQALRP-IDDLAQALRP-LFHMAQAYRP-VHDLAAALRP-LEELAQALRP-PKALAHALFP-TDALAQALRP-LRALAQTLYP-IEELAQALRP-PSALAQALRP-PTALAQALRP-VKDLAQALRP-VESLAQALRP-VSALAQALRP-EWLLAQAVRP-IDLLAQALRP-IQDLAQALRP-IDSLAQALRP-VDALAQALRP-LDRLAQALRP-PEHLAQALKP-LDDLAQALRP-IKELRQALRP-LYQLAQALRP-LDDLAQALRP-LEALAQAPRP-IQSLAAALRP-FDLLAPALRP-LGDLAQALRP-IDALAQALDP-LEDLAQALRP-TRPLAQALRP-VYELAQALRP-IAELAQALRP-LQQLTQALAP-LDELAQALRP-LQEFAQALCP-LVALAQALRP-VDKLAQALRP-LPHLAQALRP-LEELAQALRP-IDALAQALRP-IEHLTQALRP-TAALAQALRP-VRDLAQALRP-PEHLAQALRP-VQSRAQALRP-YDRLAHALRP-IAELIDALRP-VDRLAQALRP-ISAIAQALRP-IDELAQALRP-PSRLAQFLRP-IHIYAQALRP-LWALAQALRP-PQLLAQALRP-IDHLKQMLRP-LHELAQALRP-LDDLAQALRP-LDELAQALRP-LDREAQCLRP-PEKLAQALRP,119,129
1,B,10,VAEVAAVGFL-VAEVAAVGFL-VAEVAAVGFL-VAEVAAVGFL-VAEVAAVGFL-VAEVAAVGFL-VAEVAAVGFL-VAEVAAVGFL-VAEVAAVGFL-VAEVAAVGFL-VAEVAAVGFL-VAEVAAVGFL-VAEVAAVGFL-VAEVAAVGFL-VAEVAAVGFL-VAEVAAVGFL-VAEVAAVGFL-VAEVAAVGFL-VAEVAAVGFL-VAEVAAVGFL-VAEVAAVGFL-VAEVAAVGFL-VAEVAAVGFL-VAEVAAVGFL-VAEVAAVGFL-VAEVAAVGFL-VAEVAAVGFL-VAEVAAVGFL-VAEVAAVGFL-VAEVAAVGFL-VAEVAAVGFL-VAEVAAVGFL-VAEVAAVGFL-VAEVAAVGFL-VAEVAAVGFL-VAEVAAVGFL-VAEVAAVGFL-VAEVAAVGFL-VAEVAAVGFL-VAEVAAVGFL-VAEVAAVGFL-VAEVAAVGFL-VAEVAAVGFL-VAEVAAVGFL-VAEVAAVGFL-VAEVAAVGFL-VAEVAAVGFL-VAEVAAVGFL-VAEVAAVGFL-VAEVAAVGFL-VAEVAAVGFL-VAEVAAVGFL-VAEVAAVGFL-VAEVAAVGFL-VAEVAAVGFL-VAEVAAVGFL-VAEVAAVGFL-VAEVAAVGFL-VAEVAAVGFL-VAEVAAVGFL-VAEVAAVGFL-VAEVAAVGFL-VAEVAAVGFL-VAEVAAVGFL-VAEVAAVGFL-VAEVAAVGFL-VAEVAAVGFL-VAEVAAVGFL-VAEVAAVGFL-VAEVAAVGFL-VAEVAAVGFL-VAEVAAVGFL-VAEVAAVGFL-VAEVAAVGFL-VAEVAAVGFL-VAEVAAVGFL-VAEVAAVGFL-VAEVAAVGFL-VAEVAAVGFL-VAEVAAVGFL-VAEVAAVGFL-VAEVAAVGFL-VAEVAAVGFL-VAEVAAVGFL-VAEVAAVGFL-VAEVAAVGFL-VAEVAAVGFL-VAEVAAVGFL-VAEVAAVGFL-VAEVAAVGFL-VAEVAAVGFL-VAEVAAVGFL-VAEVAAVGFL-VAEVAAVGFL-VAEVAAVGFL-VAEVAAVGFL-VAEVAAVGFL-VAEVAAVGFL-VAEVAAVGFL-VAEVAAVGFL,17,27
