Unnamed: 0,Chain,Length,designed_binder_seq,cs,ce
0,A,10,CMHSEVMRTV-CSYSDIQKVV-CGAADYWKTV-CPASEFMRTV-SFCSDTYHVV-ATAAEMLEVV-PSYSEILTTV-CSMSQVWKTV-CSEAEFLKTV-ATAAEFLKVV-DTMAEKYRTV-TTASQYMKTV-CKASTVLSYV-CDASEYFRIV-CMACRFLRTV-STAAEVMRKV-CEASFQILTV-SPAAWYMFVV-CTASEWHLTV-DSASEIFKVV-CSASEFYMVV-CSDSEFMKVV-CSASEVWRVV-CTFAEFCRVV-CTAYERNRVV-CSASEVLVTV-CSASEVMRVV-CTFGETLRVV-NSASEYFKTV-CSATEMTDVV-CTASDFFWVV-CTPLEFMRTV-CTFGQYARTV-GTAAEHFKTV-CTCSGYLKVV-PKAWEFMIIV-CTASEFYITV-STLGIVFKGV-MSVGEIFKVV-MSASEYFKTV-VTASEFLLTV-CSTEEIMLTV-CTAAEVWKVV-MTASEYYRVV-MSAAEWARVV-CSASEFFQTV-CSASDYLKVV-ASAGEIFRTV-DNASHVLRVV-CSASDVLREV-CSAAEWMKVV-MSASQFQRVV-CTADEMFLSV-PSISQLYKAV-CTASEYMKTV-SSAAEYFLTV-PLASEYFLVV-QSAAQTYNVV-CAASEYFREV-CTASEYLEVV-CSAAPLMKVV-CNTSEYFRTV-DSFSETVKTV-ASASDVLRTV-VDMADIFGVV-PTAAEVSKVV-ETADQVFATV-CNSACCFKVV-MSASEVFHTV-GSASDVLKIV-LSASQILRTV-CSASDERTIV-CTAAEILQTV-ATASEVMRVV-CSASEFAKVV-CDAGEYFPVV-CSFGQVMTEV-PTAFEIALIV-CDASSFLRCV-ASWAEKMKVV-CTASEYFKVV-GSAAEMFRVV-CIASEFRKTV-CSASEIFRTV-AEAASFKRTV-CTAAEVKRVV-CPAAEVMRVV-ASYAEVLKVV-GTAAERFRVV-MSAAEPFIVV-PTTSEFCRTV-CTDGDVKYTV-CSAAEVMYIV-CATSCIYKTV-PPYSEILKVV-PPASEVWRTV-CAASKLFKVV-MNKSQYSKTV-PPASEYFGVV-CTAADILATV,0,10
1,B,10,CMHSEVMRTV-CSYSDIQKVV-CGAADYWKTV-CPASEFMRTV-SFCSDTYHVV-ATAAEMLEVV-PSYSEILTTV-CSMSQVWKTV-CSEAEFLKTV-ATAAEFLKVV-DTMAEKYRTV-TTASQYMKTV-CKASTVLSYV-CDASEYFRIV-CMACRFLRTV-STAAEVMRKV-CEASFQILTV-SPAAWYMFVV-CTASEWHLTV-DSASEIFKVV-CSASEFYMVV-CSDSEFMKVV-CSASEVWRVV-CTFAEFCRVV-CTAYERNRVV-CSASEVLVTV-CSASEVMRVV-CTFGETLRVV-NSASEYFKTV-CSATEMTDVV-CTASDFFWVV-CTPLEFMRTV-CTFGQYARTV-GTAAEHFKTV-CTCSGYLKVV-PKAWEFMIIV-CTASEFYITV-STLGIVFKGV-MSVGEIFKVV-MSASEYFKTV-VTASEFLLTV-CSTEEIMLTV-CTAAEVWKVV-MTASEYYRVV-MSAAEWARVV-CSASEFFQTV-CSASDYLKVV-ASAGEIFRTV-DNASHVLRVV-CSASDVLREV-CSAAEWMKVV-MSASQFQRVV-CTADEMFLSV-PSISQLYKAV-CTASEYMKTV-SSAAEYFLTV-PLASEYFLVV-QSAAQTYNVV-CAASEYFREV-CTASEYLEVV-CSAAPLMKVV-CNTSEYFRTV-DSFSETVKTV-ASASDVLRTV-VDMADIFGVV-PTAAEVSKVV-ETADQVFATV-CNSACCFKVV-MSASEVFHTV-GSASDVLKIV-LSASQILRTV-CSASDERTIV-CTAAEILQTV-ATASEVMRVV-CSASEFAKVV-CDAGEYFPVV-CSFGQVMTEV-PTAFEIALIV-CDASSFLRCV-ASWAEKMKVV-CTASEYFKVV-GSAAEMFRVV-CIASEFRKTV-CSASEIFRTV-AEAASFKRTV-CTAAEVKRVV-CPAAEVMRVV-ASYAEVLKVV-GTAAERFRVV-MSAAEPFIVV-PTTSEFCRTV-CTDGDVKYTV-CSAAEVMYIV-CATSCIYKTV-PPYSEILKVV-PPASEVWRTV-CAASKLFKVV-MNKSQYSKTV-PPASEYFGVV-CTAADILATV,0,10
