Unnamed: 0,Chain,Length,designed_binder_seq,cs,ce
0,A,10,IQSIITHAKF-VQDIISADDF-VVKNVSQEKF-RQEILLSDEF-AFDIIYSETF-RMEIISDDDF-ILDIICQDQF-QRDIVSNEYF-IIDIISAPEF-IRDIVSSDNF-IAALISKDQF-LMNIISSDQF-IIAIIKSKHF-WVAIISESHF-ENRCVASTSF-LVSIIESDDF-EFLIISNENF-RRDWEAFQSF-LMDIIAAQDF-VLDIIALEEF-MNEIISMDNF-IDEIIDNEVF-MVVIISEDNF-LNEHISEDVF-LESIISQHNF-IMEIVFSDTF-TGPVISNSDF-KRFIVGSETF-YNEIITSNVF-DLYIISDDKF-FLDRITEPEF-WEEIISAPKF-RIEIISSEQF-FVQIVMNEFF-KISLIAGDRF-MKDIIASKEF-FYDIISREKF-IQKIVSSERF-KQEIVMEETF-IKDIIYSPEF-AHKIISAHHF-FWFLISNENF-LNGIIAKEEF-IQEIISHEEF-LWEIQSDEIF-QNKIIFAEEF-WNMVICDIVF-VQKTMSEHKF-IKDIVSADEF-VLAISSDLKF-IREIISSHLF-EIAIIAEEQF-FMAVGSSDDF-LWRIISDKEF-MLEIITSPKF-VSQIIASLQF-FIRIISDLEF-HYEIISNDKF-VLEIISDDQF-VREVNARDVF-YVDIISSEEF-MLKIISDDCF-RVDIISNHIF-RMDIISSDSF-RQRIITRNEF-FKEIRATPQF-ILDILSADFF-FNELIACDSF-DAYITMEEKF-VLDIISSPVF-IHVIITRRKF-IGDIIASDDF-FWNIVMDENF-VFDSVSEKTF-IQDITSEEKF-VNQIITSDAF-FKEIEASETF-LWDIISEEHF-LKEIITSEVF-ILKMINDRKF-FIEIISADTF-VSAIISAETF-YQSIIASEHF-ILAGKSMCKF-TLDIISEELF-LYEICSAETF-MNAIFSEQQF-QLEIISSYTF-RLEIISAEEF-DKDNKERKLF-VVWAVSAAKF-LVNIVESIEF-LMNIISTPEF-IYHIIAAENF-YIDIISRQNF-IPHIISSDEF-HHRIISADEF-IQNIIMDDRF-RYECISSSQF-VMSILPAETF,34,44
1,B,10,IQSIITHAKF-VQDIISADDF-VVKNVSQEKF-RQEILLSDEF-AFDIIYSETF-RMEIISDDDF-ILDIICQDQF-QRDIVSNEYF-IIDIISAPEF-IRDIVSSDNF-IAALISKDQF-LMNIISSDQF-IIAIIKSKHF-WVAIISESHF-ENRCVASTSF-LVSIIESDDF-EFLIISNENF-RRDWEAFQSF-LMDIIAAQDF-VLDIIALEEF-MNEIISMDNF-IDEIIDNEVF-MVVIISEDNF-LNEHISEDVF-LESIISQHNF-IMEIVFSDTF-TGPVISNSDF-KRFIVGSETF-YNEIITSNVF-DLYIISDDKF-FLDRITEPEF-WEEIISAPKF-RIEIISSEQF-FVQIVMNEFF-KISLIAGDRF-MKDIIASKEF-FYDIISREKF-IQKIVSSERF-KQEIVMEETF-IKDIIYSPEF-AHKIISAHHF-FWFLISNENF-LNGIIAKEEF-IQEIISHEEF-LWEIQSDEIF-QNKIIFAEEF-WNMVICDIVF-VQKTMSEHKF-IKDIVSADEF-VLAISSDLKF-IREIISSHLF-EIAIIAEEQF-FMAVGSSDDF-LWRIISDKEF-MLEIITSPKF-VSQIIASLQF-FIRIISDLEF-HYEIISNDKF-VLEIISDDQF-VREVNARDVF-YVDIISSEEF-MLKIISDDCF-RVDIISNHIF-RMDIISSDSF-RQRIITRNEF-FKEIRATPQF-ILDILSADFF-FNELIACDSF-DAYITMEEKF-VLDIISSPVF-IHVIITRRKF-IGDIIASDDF-FWNIVMDENF-VFDSVSEKTF-IQDITSEEKF-VNQIITSDAF-FKEIEASETF-LWDIISEEHF-LKEIITSEVF-ILKMINDRKF-FIEIISADTF-VSAIISAETF-YQSIIASEHF-ILAGKSMCKF-TLDIISEELF-LYEICSAETF-MNAIFSEQQF-QLEIISSYTF-RLEIISAEEF-DKDNKERKLF-VVWAVSAAKF-LVNIVESIEF-LMNIISTPEF-IYHIIAAENF-YIDIISRQNF-IPHIISSDEF-HHRIISADEF-IQNIIMDDRF-RYECISSSQF-VMSILPAETF,34,44
