Unnamed: 0,Chain,Length,designed_binder_seq,cs,ce
0,A,10,WIHKAGHIET-WILAAGQIET-WISRVGCIET-SVHAAGYIET-WVRQAGYVET-HLSQKGSIET-MLSSVGRIET-WLARAGHIWT-WVHAVGHIET-CVSETGHDET-NMQNIGEIET-WPHAIGEIET-WVSEAGHIET-WLSKVGHIET-WVGRVGAIET-WSHQCGHIET-WVQQAGHVET-YLHKAGMIET-EVHRCGHIVT-WCQRIGCIET-WVSRAGSIET-WLHRAGHIET-GLHGCGRIET-LINAVGHIET-WCHRTGHIRT-LLKRVGHIET-WIARTGSIET-WLYSVGNDET-WDHRTGTIET-WLHRCGSIET-LCARAGAIET-LLHSIGHIET-WTRQAGAINT-HVIRVGHIET-WLLRIGTIET-YIHQAHHIET-FTARIGHTET-WCHSVGYIET-WLHSVGRIET-AMHKLGSIET-WVCATTNLET-WAHCIGRIET-WMLRIGTIET-WLQQVGCIST-WIYQAGSIET-WLYQIGQIET-WLTMIGHITT-WVARAGHIET-WSHRVGAIET-WVNGAGTIET-DLMKVGWIET-WVHQAGEIET-WYHSIGNLET-WCHQVGHIET-WLHGVGHIET-WHHQIGSIET-WTMQAGHITT-WSHSVGHIET-WHHRAGAIET-WVHRQGREET-WVHAIGQIET-FLAMAGAIET-NVHRVGHIET-WVSRAGCLET-WWNQAGYIQT-WLHQAEPIET-WIHRIGAIIT-WLHMMGHIQT-FQHKIMHIET-FIKQAGHIET-WGHAVGFIQT-WISGIGHIET-FVHQAGHQET-WVHQVGNIET-NVQMAGSIHT-WLARVGVIET-ILHAIGHIET-WLYRMGHIET-WIHETGEIET-YVLRAGNIET-WTMQSGHIET-WCHSAGRIET-WIAAAGTIET-WCHSTGILET-WLHTVGCIET-WVHQAGLVQT-WIHHTGHIQT-WIHRCGHIET-WVHRAGEINT-WVHMVGYWET-WVCAAFTIET-WLHQAGHIET-WVNQAGNIET-WVLAIGTIET-WIHKTGCRET-WLSRAGRIET-WVHQAGRIET-FIHKCGCIET-FVQQAGHIQT-WVVEIGNIET,18,28
1,B,10,EWIHKAGHIE-EWILAAGQIE-EWISRVGCIE-ESVHAAGYIE-RWVRQAGYVE-RHLSQKGSIE-TMLSSVGRIE-FWLARAGHIW-RWVHAVGHIE-HCVSETGHDE-QNMQNIGEIE-SWPHAIGEIE-AWVSEAGHIE-EWLSKVGHIE-GWVGRVGAIE-QWSHQCGHIE-FWVQQAGHVE-IYLHKAGMIE-TEVHRCGHIV-RWCQRIGCIE-SWVSRAGSIE-EWLHRAGHIE-TGLHGCGRIE-RLINAVGHIE-DWCHRTGHIR-RLLKRVGHIE-TWIARTGSIE-GWLYSVGNDE-QWDHRTGTIE-NWLHRCGSIE-ELCARAGAIE-RLLHSIGHIE-GWTRQAGAIN-THVIRVGHIE-YWLLRIGTIE-RYIHQAHHIE-EFTARIGHTE-DWCHSVGYIE-AWLHSVGRIE-EAMHKLGSIE-GWVCATTNLE-HWAHCIGRIE-DWMLRIGTIE-QWLQQVGCIS-EWIYQAGSIE-EWLYQIGQIE-SWLTMIGHIT-HWVARAGHIE-EWSHRVGAIE-RWVNGAGTIE-KDLMKVGWIE-HWVHQAGEIE-HWYHSIGNLE-KWCHQVGHIE-PWLHGVGHIE-GWHHQIGSIE-KWTMQAGHIT-EWSHSVGHIE-SWHHRAGAIE-DWVHRQGREE-YWVHAIGQIE-TFLAMAGAIE-VNVHRVGHIE-EWVSRAGCLE-RWWNQAGYIQ-RWLHQAEPIE-PWIHRIGAII-RWLHMMGHIQ-EFQHKIMHIE-GFIKQAGHIE-KWGHAVGFIQ-EWISGIGHIE-HFVHQAGHQE-FWVHQVGNIE-RNVQMAGSIH-EWLARVGVIE-EILHAIGHIE-SWLYRMGHIE-KWIHETGEIE-RYVLRAGNIE-SWTMQSGHIE-HWCHSAGRIE-EWIAAAGTIE-EWCHSTGILE-RWLHTVGCIE-RWVHQAGLVQ-HWIHHTGHIQ-EWIHRCGHIE-QWVHRAGEIN-RWVHMVGYWE-QWVCAAFTIE-EWLHQAGHIE-NWVNQAGNIE-QWVLAIGTIE-SWIHKTGCRE-AWLSRAGRIE-RWVHQAGRIE-DFIHKCGCIE-AFVQQAGHIQ-KWVVEIGNIE,17,27
