Unnamed: 0,Chain,Length,designed_binder_seq,cs,ce
0,A,10,GCATWAXXXX-GAISSRXXXX-GILGAAXXXX-GCLSSYXXXX-GALADGXXXX-GAFATDXXXX-GVLMPYXXXX-GAICPHXXXX-GAIGITXXXX-GVLAPMXXXX-GAIEAWXXXX-GTFGSHXXXX-GVLCGSXXXX-GASGSSXXXX-GHISPEXXXX-GALDSGXXXX-GAIGGVXXXX-GAFNPCXXXX-GALAPEXXXX-GTIYTEXXXX-GALSSNXXXX-GMFGASXXXX-GAISSDXXXX-GAFAHFXXXX-GALAPGXXXX-GAMAQNXXXX-GTPYAGXXXX-GVWAPHXXXX-GSFFSIXXXX-GWISTCXXXX-GALASIXXXX-GAIGATXXXX-GALGDQXXXX-GALAPEXXXX-GAFAPSXXXX-GVLCSAXXXX-GTLGMSXXXX-GRLCADXXXX-GAIVAHXXXX-GAFGVTXXXX-GALEPSXXXX-GGFAEGXXXX-GALSAGXXXX-GHLQNMXXXX-GCATATXXXX-GVLKPLXXXX-GVMSCDXXXX-GVMCASXXXX-GATGASXXXX-GAFSPYXXXX-GALGMHXXXX-GVLGERXXXX-GVDGANXXXX-GPLAPDXXXX-GALAPSXXXX-GVFAYGXXXX-GLAWPNXXXX-GAFAFEXXXX-GALGLNXXXX-GYFGAEXXXX-GAFEGVXXXX-GAFSTRXXXX-GGMQPGXXXX-GTCGSTXXXX-GGFVPHXXXX-GAFCWHXXXX-GAFAEYXXXX-GALGSPXXXX-GAFAMMXXXX-GALRIGXXXX-GVLPSQXXXX-WALGLGXXXX-PMLGSSXXXX-GALGHEXXXX-GAAGAAXXXX-GALAYTXXXX-GARGDQXXXX-GALSQSXXXX-GATHATXXXX-GAMAPVXXXX-GVLGGSXXXX-LCLGTNXXXX-GAMCPDXXXX-NAAAPNXXXX-GALCTGXXXX-GAFCPGXXXX-GADYPPXXXX-GAIASAXXXX-GAFCQSXXXX-GVFMSGXXXX-KALGMVXXXX-GSFAYGXXXX-GSIANEXXXX-GMLAWQXXXX-GVFGTLXXXX-GMFGANXXXX-GTWGSMXXXX-GALRTGXXXX-GAFSTLXXXX-GAIAWPXXXX,95,105
1,B,10,LRPLIPAAAP-LRPLIPAAAP-LRPLIPAAAP-LRPLIPAAAP-LRPLIPAAAP-LRPLIPAAAP-LRPLIPAAAP-LRPLIPAAAP-LRPLIPAAAP-LRPLIPAAAP-LRPLIPAAAP-LRPLIPAAAP-LRPLIPAAAP-LRPLIPAAAP-LRPLIPAAAP-LRPLIPAAAP-LRPLIPAAAP-LRPLIPAAAP-LRPLIPAAAP-LRPLIPAAAP-LRPLIPAAAP-LRPLIPAAAP-LRPLIPAAAP-LRPLIPAAAP-LRPLIPAAAP-LRPLIPAAAP-LRPLIPAAAP-LRPLIPAAAP-LRPLIPAAAP-LRPLIPAAAP-LRPLIPAAAP-LRPLIPAAAP-LRPLIPAAAP-LRPLIPAAAP-LRPLIPAAAP-LRPLIPAAAP-LRPLIPAAAP-LRPLIPAAAP-LRPLIPAAAP-LRPLIPAAAP-LRPLIPAAAP-LRPLIPAAAP-LRPLIPAAAP-LRPLIPAAAP-LRPLIPAAAP-LRPLIPAAAP-LRPLIPAAAP-LRPLIPAAAP-LRPLIPAAAP-LRPLIPAAAP-LRPLIPAAAP-LRPLIPAAAP-LRPLIPAAAP-LRPLIPAAAP-LRPLIPAAAP-LRPLIPAAAP-LRPLIPAAAP-LRPLIPAAAP-LRPLIPAAAP-LRPLIPAAAP-LRPLIPAAAP-LRPLIPAAAP-LRPLIPAAAP-LRPLIPAAAP-LRPLIPAAAP-LRPLIPAAAP-LRPLIPAAAP-LRPLIPAAAP-LRPLIPAAAP-LRPLIPAAAP-LRPLIPAAAP-LRPLIPAAAP-LRPLIPAAAP-LRPLIPAAAP-LRPLIPAAAP-LRPLIPAAAP-LRPLIPAAAP-LRPLIPAAAP-LRPLIPAAAP-LRPLIPAAAP-LRPLIPAAAP-LRPLIPAAAP-LRPLIPAAAP-LRPLIPAAAP-LRPLIPAAAP-LRPLIPAAAP-LRPLIPAAAP-LRPLIPAAAP-LRPLIPAAAP-LRPLIPAAAP-LRPLIPAAAP-LRPLIPAAAP-LRPLIPAAAP-LRPLIPAAAP-LRPLIPAAAP-LRPLIPAAAP-LRPLIPAAAP-LRPLIPAAAP-LRPLIPAAAP-LRPLIPAAAP,37,47
