Unnamed: 0,Chain,Length,designed_binder_seq,cs,ce
0,A,10,DNLGPLLLLK-SNVGPTSLIK-SNVPPGLLNK-ENIGCLVLQK-DNIGPLLLHK-SNWRPVLVKK-DNCGPLVLTK-DNVGPSLLNK-DNTGQLRLVK-NNVGPLWLTK-DNIGPLIHDK-DNVGATYLEK-DNVGPTLLYK-DNIGPLHLRK-DNVGPLILDK-CNVGHLYLNK-DNIGNLMLEK-DNIGPTVFEK-DNVGPQLRKK-DNIGCLLILK-DNVGPLYLEK-CNVGPLLLKK-SNVGPTHLQK-RNVGPLFGVK-DNVGPLLLMK-DNAGPVYLLK-NNVGKLQLSK-DNVGPMNLLK-DNVGPLLLKK-DNVGPIQLTK-DNVGPLILQK-DNVGPTYLRK-DNVGPLAMVK-DNIGELMMNK-KNVGPLLLLK-DNVGPLNLGK-DNIGFLNLTK-DNIDHNLLSK-DRVGPLVLMK-DTVGPLWLRK-DNVGPSLLTK-ANIGPLILIK-DNVGPLRLNK-DNVGPLNFDK-LHVGPLHLLK-DAEGALILSK-DNIGEIYLLK-DVQGPHLLQK-DNVGPLCLYK-DNIAPILLKK-DNIGALTRKK-DNIGRLHLTK-DNVGPLNWSK-SNVGSLLLKK-DNVGPLLQSK-SNLGPILLKK-DNIGPILLVK-DNDGPLLLIK-DNIGPLLLVK-DNVGPLNLNK-SNVGCLHLVK-DNVGWLCLEK-DNVGALLLIK-DNVGPHLLNK-DNVGQLNSIK-DNVGPLNLRK-DNIGPLMLKK-DNITALHDYK-DNVGPIRLMK-DRVGSLYLSK-DNVGELLLNK-DSVGPLRLVK-DNVGPLLLHK-CNVGPIWLRK-DSAGPLILKK-DNVGPLLLKK-DNVGHLLLNK-DSIGPILFHK-DNVGPLIMWK-DNVGCLILVK-DNTGPLRLSK-DNVGTWNKKK-DNTGPWLLSK-DNSGPLRLLK-DNNGPDVQWK-DNVGDLLLSK-DPVGPKELRK-FNVGPLFCEK-NNVGPLLLDK-DNVGPLFLCK-DMVYPLLLVK-DNVGELRLAK-DNVGPLHLLK-KNVGPQDLIK-DNVGALNLLK-DNIGSLNLVK-DNVGPLNLEK-DKVGPLELIK-DKCGPLLLVK-ENVGNLLDIK,54,64
1,B,10,DNLGPLLLLK-SNVGPTSLIK-SNVPPGLLNK-ENIGCLVLQK-DNIGPLLLHK-SNWRPVLVKK-DNCGPLVLTK-DNVGPSLLNK-DNTGQLRLVK-NNVGPLWLTK-DNIGPLIHDK-DNVGATYLEK-DNVGPTLLYK-DNIGPLHLRK-DNVGPLILDK-CNVGHLYLNK-DNIGNLMLEK-DNIGPTVFEK-DNVGPQLRKK-DNIGCLLILK-DNVGPLYLEK-CNVGPLLLKK-SNVGPTHLQK-RNVGPLFGVK-DNVGPLLLMK-DNAGPVYLLK-NNVGKLQLSK-DNVGPMNLLK-DNVGPLLLKK-DNVGPIQLTK-DNVGPLILQK-DNVGPTYLRK-DNVGPLAMVK-DNIGELMMNK-KNVGPLLLLK-DNVGPLNLGK-DNIGFLNLTK-DNIDHNLLSK-DRVGPLVLMK-DTVGPLWLRK-DNVGPSLLTK-ANIGPLILIK-DNVGPLRLNK-DNVGPLNFDK-LHVGPLHLLK-DAEGALILSK-DNIGEIYLLK-DVQGPHLLQK-DNVGPLCLYK-DNIAPILLKK-DNIGALTRKK-DNIGRLHLTK-DNVGPLNWSK-SNVGSLLLKK-DNVGPLLQSK-SNLGPILLKK-DNIGPILLVK-DNDGPLLLIK-DNIGPLLLVK-DNVGPLNLNK-SNVGCLHLVK-DNVGWLCLEK-DNVGALLLIK-DNVGPHLLNK-DNVGQLNSIK-DNVGPLNLRK-DNIGPLMLKK-DNITALHDYK-DNVGPIRLMK-DRVGSLYLSK-DNVGELLLNK-DSVGPLRLVK-DNVGPLLLHK-CNVGPIWLRK-DSAGPLILKK-DNVGPLLLKK-DNVGHLLLNK-DSIGPILFHK-DNVGPLIMWK-DNVGCLILVK-DNTGPLRLSK-DNVGTWNKKK-DNTGPWLLSK-DNSGPLRLLK-DNNGPDVQWK-DNVGDLLLSK-DPVGPKELRK-FNVGPLFCEK-NNVGPLLLDK-DNVGPLFLCK-DMVYPLLLVK-DNVGELRLAK-DNVGPLHLLK-KNVGPQDLIK-DNVGALNLLK-DNIGSLNLVK-DNVGPLNLEK-DKVGPLELIK-DKCGPLLLVK-ENVGNLLDIK,54,64
