Unnamed: 0,Chain,Length,designed_binder_seq,cs,ce
0,A,10,MELHINEFHV-MLIEPTEWRV-MEVIPNFWTV-MAPVINLLMV-LPLVSNEYQV-EKILPNLHEV-MELRNTMAIV-DDLIPVLRLV-MPLTFNLYTV-MHVTPDLWNV-VEVVQNVQLV-VELVPDNFRV-MELIPNYFFV-MKVEPWLFLV-VECIPDEFLV-AKLVPNRFYV-MKVIINEGLV-AEVLADLFIV-SQLVPNLRAV-MEVRFNELAV-MRVVPSSFLV-MNSIPMMFRV-PELLANRFRV-MQVLPDMYHV-MPVIPNCRYV-MVIKPDELAV-MQILPDRYRV-MRLVINLWSV-MQLMPAKHQV-GLRLPDKFEV-SELQINLYRV-FQVEANLTLV-MEVKFEEYYV-TNLRPNEYLV-YLVIPNNIKV-MKMLPNRLQV-LHLLPNNYNV-MSLRPCLSLV-MEVLPNLTEV-MDLRRDTFQV-IEVLPNNFLV-IEIERNLFEV-RTIVADMWKV-MKLLPNDYMV-MEYIPCRYEV-MTLLPQEFIV-YKIVFNEFGV-IDITLNKVKV-MEVKANCYVV-MKLKPDDYRV-MEVRINEYDV-MELVGWYFNV-RMLKPDCYKV-MEVRSNLLVV-TAIEPNTFLV-VELLPDMLRV-GPVTPDEWIV-MNLLPIMFLV-MEIVPNIFKV-MDVTMDEFVV-PEVKPNSLKV-MNVEANMLMV-SKIVPNSITV-MSIWPNMYWV-VNVVPDKLLV-MELRPNNEKV-MTITPTEIIV-MVLVPDLFTV-MKLLANKFFV-LDVRVNEFRV-SRVTPRELNV-VPVQPNELNV-MEVVPNEYVV-MAIKPRKLWV-PQVSPRRWAV-MNVRVNEFRV-PRVLPNLFLV-AVVVPTLSNV-THIIPKEFVV-MDTLPNFIMV-MDVIANSFIV-MKVLLNWCQV-MAVIPDKFRV-MKIKFEFLRV-LEMLPNQRIV-MKILANLIRV-MEVVPNEDRV-MCKEINMMNV-MDIIVPGIGV-KEVKPNRYWV-MSRRINEWLV-IPVVRDNFQV-QNKLQDKFLV-REVIPDELRV-RPVRINRFEV-MFDQPKKLIV-VERIPDAFEV-MTVLPDKIIV-MEIIPDQFLV-MELLPNEITV,0,10
1,B,10,MELHINEFHV-MLIEPTEWRV-MEVIPNFWTV-MAPVINLLMV-LPLVSNEYQV-EKILPNLHEV-MELRNTMAIV-DDLIPVLRLV-MPLTFNLYTV-MHVTPDLWNV-VEVVQNVQLV-VELVPDNFRV-MELIPNYFFV-MKVEPWLFLV-VECIPDEFLV-AKLVPNRFYV-MKVIINEGLV-AEVLADLFIV-SQLVPNLRAV-MEVRFNELAV-MRVVPSSFLV-MNSIPMMFRV-PELLANRFRV-MQVLPDMYHV-MPVIPNCRYV-MVIKPDELAV-MQILPDRYRV-MRLVINLWSV-MQLMPAKHQV-GLRLPDKFEV-SELQINLYRV-FQVEANLTLV-MEVKFEEYYV-TNLRPNEYLV-YLVIPNNIKV-MKMLPNRLQV-LHLLPNNYNV-MSLRPCLSLV-MEVLPNLTEV-MDLRRDTFQV-IEVLPNNFLV-IEIERNLFEV-RTIVADMWKV-MKLLPNDYMV-MEYIPCRYEV-MTLLPQEFIV-YKIVFNEFGV-IDITLNKVKV-MEVKANCYVV-MKLKPDDYRV-MEVRINEYDV-MELVGWYFNV-RMLKPDCYKV-MEVRSNLLVV-TAIEPNTFLV-VELLPDMLRV-GPVTPDEWIV-MNLLPIMFLV-MEIVPNIFKV-MDVTMDEFVV-PEVKPNSLKV-MNVEANMLMV-SKIVPNSITV-MSIWPNMYWV-VNVVPDKLLV-MELRPNNEKV-MTITPTEIIV-MVLVPDLFTV-MKLLANKFFV-LDVRVNEFRV-SRVTPRELNV-VPVQPNELNV-MEVVPNEYVV-MAIKPRKLWV-PQVSPRRWAV-MNVRVNEFRV-PRVLPNLFLV-AVVVPTLSNV-THIIPKEFVV-MDTLPNFIMV-MDVIANSFIV-MKVLLNWCQV-MAVIPDKFRV-MKIKFEFLRV-LEMLPNQRIV-MKILANLIRV-MEVVPNEDRV-MCKEINMMNV-MDIIVPGIGV-KEVKPNRYWV-MSRRINEWLV-IPVVRDNFQV-QNKLQDKFLV-REVIPDELRV-RPVRINRFEV-MFDQPKKLIV-VERIPDAFEV-MTVLPDKIIV-MEIIPDQFLV-MELLPNEITV,0,10
