Unnamed: 0,Chain,Length,designed_binder_seq,cs,ce
0,A,10,LSLPPGFRFY-LNLPPGFRFY-LGLPWGVRFY-LNLPPGFKFY-LNLPPGFRFY-VALPAGFRFY-YNYPPGFRFY-LYYGPGFGMY-LHLPRGFRFY-FNVCPGFRFY-LNNPPGFSFY-LDLPPGFRYY-LDLPPGFRFY-YSLPPCFLFY-LSVPPGFAFY-LLLPPGFRFY-LNLPPGFKFY-INFPPGFWFY-LVLPPGFRFY-LNLPPGFRFY-FKLPPGFRFY-LNLPPGFKFY-LNMPPGFRFY-WVFPPGMRFY-LQIPPGFRFY-YNLPSGFRFY-LSLPPDFKFY-INIPPGFRFY-LNLPPGNKFY-LHMPPCFRLY-INLPPGFPFY-LDLPEGIRFY-LRLPPGHVWY-LQLPPGFRFY-YQLPVGFQWY-LQYPPVFAFY-ENLPPGFRFY-CNLPLGFRFY-YDLPPGFNFY-FGVPPGIKFY-LKLPPGFSFY-LHLRPGWRFY-WWLPPGLKFY-LKLPPGFKFY-LNLGYGLDWY-YKLPLGVKFY-LGLPPGFRFY-LDLPPGLAFY-LKLKPGLCFY-LNLPPGWRFY-YNLPFGFKFY-LKIPPGFHFY-SNQPPGFRFY-FSLPPGFEWY-LNLPLGFRFY-LNIPEGYRFY-RKLPEGTKFY-LNLPLGLGFY-LNLPPGFGFY-MRFPRGFKFY-LNLPPGLRMY-NEMPPGFRLY-YNMPPGFRFY-LNLPPGFAFY-FNMPTGFRFY-ISLPPGFKFY-YMGPPGWRFY-LNLLPGVHFY-LPLPPGIRFY-LDLPPGFRWY-DKIIPGFKFY-IRLPPNFRFY-MRMPPGFKFY-YNLRPGWRFY-LILPLGFRFY-LELPEGQRWY-LKLPPGFRFY-MNLPEGFCFY-LRWPPGWKFY-LNLPPGFRFY-LTLPPGWRFY-LRLPPGQTFY-FDYPPGFRFY-WDLPPGIKFY-LELPPRIKFY-LNGPPGYKLY-YDLPPGLKFY-LNLPPGFRFY-YHIPPGFRFY-LSLQPGFRFY-YRLPPGFRFY-LQLPPGFAFY-LRRPPFDKLY-LDIPPGFKFY-WGCPPGFKFY-YNLPPGFRIY-LRLPPGFVFY-GKLPHGIKFY-LDLPPGYKYY-LNLPFGLKWY,4,14
1,B,10,LSLPPGFRFY-LNLPPGFRFY-LGLPWGVRFY-LNLPPGFKFY-LNLPPGFRFY-VALPAGFRFY-YNYPPGFRFY-LYYGPGFGMY-LHLPRGFRFY-FNVCPGFRFY-LNNPPGFSFY-LDLPPGFRYY-LDLPPGFRFY-YSLPPCFLFY-LSVPPGFAFY-LLLPPGFRFY-LNLPPGFKFY-INFPPGFWFY-LVLPPGFRFY-LNLPPGFRFY-FKLPPGFRFY-LNLPPGFKFY-LNMPPGFRFY-WVFPPGMRFY-LQIPPGFRFY-YNLPSGFRFY-LSLPPDFKFY-INIPPGFRFY-LNLPPGNKFY-LHMPPCFRLY-INLPPGFPFY-LDLPEGIRFY-LRLPPGHVWY-LQLPPGFRFY-YQLPVGFQWY-LQYPPVFAFY-ENLPPGFRFY-CNLPLGFRFY-YDLPPGFNFY-FGVPPGIKFY-LKLPPGFSFY-LHLRPGWRFY-WWLPPGLKFY-LKLPPGFKFY-LNLGYGLDWY-YKLPLGVKFY-LGLPPGFRFY-LDLPPGLAFY-LKLKPGLCFY-LNLPPGWRFY-YNLPFGFKFY-LKIPPGFHFY-SNQPPGFRFY-FSLPPGFEWY-LNLPLGFRFY-LNIPEGYRFY-RKLPEGTKFY-LNLPLGLGFY-LNLPPGFGFY-MRFPRGFKFY-LNLPPGLRMY-NEMPPGFRLY-YNMPPGFRFY-LNLPPGFAFY-FNMPTGFRFY-ISLPPGFKFY-YMGPPGWRFY-LNLLPGVHFY-LPLPPGIRFY-LDLPPGFRWY-DKIIPGFKFY-IRLPPNFRFY-MRMPPGFKFY-YNLRPGWRFY-LILPLGFRFY-LELPEGQRWY-LKLPPGFRFY-MNLPEGFCFY-LRWPPGWKFY-LNLPPGFRFY-LTLPPGWRFY-LRLPPGQTFY-FDYPPGFRFY-WDLPPGIKFY-LELPPRIKFY-LNGPPGYKLY-YDLPPGLKFY-LNLPPGFRFY-YHIPPGFRFY-LSLQPGFRFY-YRLPPGFRFY-LQLPPGFAFY-LRRPPFDKLY-LDIPPGFKFY-WGCPPGFKFY-YNLPPGFRIY-LRLPPGFVFY-GKLPHGIKFY-LDLPPGYKYY-LNLPFGLKWY,4,14
