Unnamed: 0,Chain,Length,designed_binder_seq,cs,ce
0,A,10,RKVRGAMRAI-QLIRQATRVI-HMIREAIKAI-EMTRKLMRVI-RLVRLTISVI-KLVSASFRVI-RLVKLTIRTI-RVWRAAILAI-DKVRAHLRAI-EAVRRSLAVI-RAIRQLLRVI-AMVKKTLAVI-SAVRCAIRVI-EVVGHMLATI-QSIRRSIRVI-QMLKTFSRVI-QQTREAIRAI-KMIAASIRVI-KLVRDCLRVI-RALRQSLYVI-RMVRRSLRHI-RLVRAATRVI-NLVRMSLKVI-AAVRRLIRVI-RFVRAVICVI-HSVRAVHLVI-AMTMRMWRTI-ASIKAAIRVI-RMTRLAVKGI-ELIRRVIRVI-SLIRSAIRVI-DAVRRMLQVI-RLVRASIRVI-RMVRDMLRVI-KAERMCIKVI-GMIQQAIGVI-KTVRSAIRVI-AWTRRAIRVI-ALVRKTIRVI-EWVRTAIRVI-RLIKVALLVI-AFTKRAVQVI-RMVMYALRSI-RMVKLALKVI-QLVRDAIKGI-RMIRRTIIVI-RLVKQMLAVI-AFVRSALRVI-KAVKAAIRPI-ARTQKAVASI-RMVSASVRVI-ASVRRYIRII-RTVKRAIIVI-LMTVEALRAI-AACRRGLRAI-RLVRSFIRVI-AKVRKAIATI-AAIKRALTVI-RTVRNYIHVI-RAVRTALRVI-ACVRKALSVI-RMTRHAIVVI-EFIRRTERAI-HRVKECLRII-DMIRRTIIVI-RLVQAALRVI-RMTSVAVRVI-KTIRDALVVI-AMIRCAENII-HMIRKMITVI-KLVRDSIRAI-AMVRSTLRVI-RTTRKTLQVI-DAVRRAVNTI-RLIKLALSTI-EVVRRVLRVI-AEVKRSLRVI-HMVKSTIRTI-DLVKRAMRVI-EAVKKALRTI-KLVRAEIRTI-RDVKRAIDVI-RLIRGTLKAI-VSVRDTLRVI-QLTKENLAVI-VMMRNALRAI-RCVCLAIRVI-AMVKRVICVI-RVIRDSIRAI-KLVARLYRAI-AATRRSLRVI-AVVKRVQRVI-STGRQSVLVI-DMVKQMLKVI-EMVRAMIATI-QMVRESIVAI-SQTEQALKTI-SMVKRMLVKI-SWVRRALTVI-NMSRFAIRVI,102,112
1,B,10,AIKNVSRPHG-VIKNVSRPHG-AIKNVSRPHG-VIKNVSRPHG-VIKNVSRPHG-VIKNVSRPHG-TIKNVSRPHG-AIKNVSRPHG-AIKNVSRPHG-VIKNVSRPHG-VIKNVSRPHG-VIKNVSRPHG-VIKNVSRPHG-TIKNVSRPHG-VIKNVSRPHG-VIKNVSRPHG-AIKNVSRPHG-VIKNVSRPHG-VIKNVSRPHG-VIKNVSRPHG-HIKNVSRPHG-VIKNVSRPHG-VIKNVSRPHG-VIKNVSRPHG-VIKNVSRPHG-VIKNVSRPHG-TIKNVSRPHG-VIKNVSRPHG-GIKNVSRPHG-VIKNVSRPHG-VIKNVSRPHG-VIKNVSRPHG-VIKNVSRPHG-VIKNVSRPHG-VIKNVSRPHG-VIKNVSRPHG-VIKNVSRPHG-VIKNVSRPHG-VIKNVSRPHG-VIKNVSRPHG-VIKNVSRPHG-VIKNVSRPHG-SIKNVSRPHG-VIKNVSRPHG-GIKNVSRPHG-VIKNVSRPHG-VIKNVSRPHG-VIKNVSRPHG-PIKNVSRPHG-SIKNVSRPHG-VIKNVSRPHG-IIKNVSRPHG-VIKNVSRPHG-AIKNVSRPHG-AIKNVSRPHG-VIKNVSRPHG-TIKNVSRPHG-VIKNVSRPHG-VIKNVSRPHG-VIKNVSRPHG-VIKNVSRPHG-VIKNVSRPHG-AIKNVSRPHG-IIKNVSRPHG-VIKNVSRPHG-VIKNVSRPHG-VIKNVSRPHG-VIKNVSRPHG-IIKNVSRPHG-VIKNVSRPHG-AIKNVSRPHG-VIKNVSRPHG-VIKNVSRPHG-TIKNVSRPHG-TIKNVSRPHG-VIKNVSRPHG-VIKNVSRPHG-TIKNVSRPHG-VIKNVSRPHG-TIKNVSRPHG-TIKNVSRPHG-VIKNVSRPHG-AIKNVSRPHG-VIKNVSRPHG-VIKNVSRPHG-AIKNVSRPHG-VIKNVSRPHG-VIKNVSRPHG-AIKNVSRPHG-AIKNVSRPHG-VIKNVSRPHG-VIKNVSRPHG-VIKNVSRPHG-VIKNVSRPHG-TIKNVSRPHG-AIKNVSRPHG-TIKNVSRPHG-KIKNVSRPHG-VIKNVSRPHG-VIKNVSRPHG,110,120
