Unnamed: 0,Chain,Length,designed_binder_seq,cs,ce
0,A,10,PIAETEGSKM-PMASTESGQM-PMAETEDGRM-PMAYTEAGLM-HGAVTNAGVM-PIAVFEHGRM-AIAELPNGPM-KIASKEGGWM-PIAETPNGIM-AIAETESGQM-PIAETECGKM-QLAETPAGGM-PLAETNNFTM-PLAETNSGLM-PLANTENGLM-PIAETNDGTM-PIQTTNDGRM-PLAETMMGKM-PLAQTPNGKM-PIRETELGRM-PIATTAYGRM-PLASTDNGTM-FLASESKGLM-PIARTQSGTM-PLAHDAHIQM-PIAQEETGTM-AIAETSNGKM-PIAYTESGEM-PMAETGSGTM-PIAETPGGKM-PPAETDWGKM-PIAHTDDGRM-GLAETEKGRM-PQATTHWGFM-PMTITEGGKM-PIAFTPAGVM-PVAHDASGKM-AIADTNNGRM-PIAETEDGKM-HIATTQNGLM-PLAETPNGLM-AICKTESGRM-PLAETESGEM-PLAHTPAGVM-PHAETPDGRM-SLACTESGLM-PQAETEDGLM-PLAETANGLM-PMAVTEEGTM-PMARTLAGKM-PKAETQNGKM-PLATTTDGRM-SMATHDDGKM-SMAETENGQM-FMATSDSGTM-CISVTAIDRM-HMAETENGAM-PMAETAAGVM-PIAETDNGLM-PLAETESGVM-RLAETPSGKM-PIAETDEGVM-PIAETPDWHM-YMANDSYGPM-PIAHTKAGEM-PMCETQGGRM-PIAETGSGVM-PLAFTEHGQM-PLAMTDKGVM-PLAETDNGNM-PLAETDSGVM-PIAETISGTM-PLAATPAGVM-ALATTSDVRM-PLASTDTGLM-ALAETPSGMM-ELAETLGGKM-PLAQTDQGKM-PLAETDNGLM-PLCLTDSFQM-PNAFTKHGTM-PLAETDDIFM-ALVETDDGKM-GQAETSDGKM-PVAETPPGKM-PHSLTSDGKM-PMAMLPSGTM-PMAETSDGRM-AQAYTASGEM-PIAETETGRM-PIAETDSGVM-NIAEFEDGKM-DMAEDDGGKM-AQAETDDGQM-PLAETENMKM-NLAETDNGKM-PMAGNDRGLM-EEAETDAGKM-SVAMTWEGRM-PEAPTHDGRM,174,184
1,B,10,NPIAETEGSK-DPMASTESGQ-TPMAETEDGR-TPMAYTEAGL-THGAVTNAGV-TPIAVFEHGR-HAIAELPNGP-SKIASKEGGW-TPIAETPNGI-NAIAETESGQ-SPIAETECGK-NQLAETPAGG-TPLAETNNFT-TPLAETNSGL-TPLANTENGL-TPIAETNDGT-TPIQTTNDGR-TPLAETMMGK-TPLAQTPNGK-TPIRETELGR-TPIATTAYGR-TPLASTDNGT-SFLASESKGL-TPIARTQSGT-TPLAHDAHIQ-SPIAQEETGT-SAIAETSNGK-APIAYTESGE-TPMAETGSGT-TPIAETPGGK-NPPAETDWGK-TPIAHTDDGR-GGLAETEKGR-TPQATTHWGF-TPMTITEGGK-TPIAFTPAGV-TPVAHDASGK-NAIADTNNGR-SPIAETEDGK-SHIATTQNGL-NPLAETPNGL-SAICKTESGR-TPLAETESGE-TPLAHTPAGV-QPHAETPDGR-VSLACTESGL-SPQAETEDGL-APLAETANGL-APMAVTEEGT-TPMARTLAGK-IPKAETQNGK-APLATTTDGR-TSMATHDDGK-TSMAETENGQ-TFMATSDSGT-PCISVTAIDR-NHMAETENGA-TPMAETAAGV-TPIAETDNGL-TPLAETESGV-SRLAETPSGK-TPIAETDEGV-SPIAETPDWH-YYMANDSYGP-TPIAHTKAGE-TPMCETQGGR-TPIAETGSGV-SPLAFTEHGQ-SPLAMTDKGV-NPLAETDNGN-EPLAETDSGV-TPIAETISGT-TPLAATPAGV-PALATTSDVR-TPLASTDTGL-AALAETPSGM-NELAETLGGK-NPLAQTDQGK-SPLAETDNGL-TPLCLTDSFQ-TPNAFTKHGT-TPLAETDDIF-SALVETDDGK-IGQAETSDGK-TPVAETPPGK-SPHSLTSDGK-SPMAMLPSGT-TPMAETSDGR-NAQAYTASGE-TPIAETETGR-SPIAETDSGV-NNIAEFEDGK-NDMAEDDGGK-NAQAETDDGQ-TPLAETENMK-NNLAETDNGK-NPMAGNDRGL-SEEAETDAGK-TSVAMTWEGR-NPEAPTHDGR,173,183
