Unnamed: 0,Chain,Length,designed_binder_seq,cs,ce
0,A,10,ETFTLEMRGR-KKFGLPVDGR-MIFIRHIGGR-LNYFLMVLGR-CVYLLAFHGR-ERVELQEIGR-ETFLLKVKGR-GFRSLGVKGR-ESHHLIVSGR-HFYESKVKGR-IIRYIPVRGR-GVYYARVLGR-EYHTLTVKGR-ERHWLEVKGR-MKFFLWVEGR-QHYTLKVPGR-KMFHLYVEGR-RLFFLRVKGR-ESYQLKVRGR-AVRHLVVKGR-HVYTLEVKGR-NQFTLTVEGR-SGYNLKVKGR-ERFELRDLGR-EFYIIMVRGR-TIHKLLVKER-NLRTEQVRDR-RKFILEVSKR-DWYTLPVKGR-EKYFLKVNGR-NVNALKVSGR-TTYNLFVQGR-CLYRLRVSGR-RTKELLVKGR-AAFELEVRGR-QLYLLKVTGR-MKFMLIVENR-ENFYLRVIGR-SQYTLKMIGR-EEAVLKVKGR-NRDAPKFVGR-EIYNNKKEGR-AEYKLWVKGR-DKKNLWVRGR-MKYILPITGR-QVKTLKIYGR-RLRHLRVRGR-MKWTLNVLGR-EKYYLHVNGR-MEYILNIKGR-EILKLEVKGR-DFYLLTISVR-RTFVLQVRGR-NVYYEEVQGR-EEYELNVFGR-MKYALTVKGR-SVYVLEVKGR-VEMPLTVTLR-HDYTLTVKGR-EIYTLVVEGR-EKYILKVKGR-RAYTLSVHGR-RHYQLEVKGR-ASHLLVVKGR-LRYYLYVVGR-ETFVLVVSYR-SHHYLEVRGR-SYYNIKVMGR-HKHSLKVCGR-TVFELKVLGR-EIFEIRVRGR-DIFILFDKGR-KRYHLKATNR-STYDLKVIGR-IKYFLEVFKR-SKYLIYVYGR-EKHNLSINGR-WYYSLTERGR-IEFKLYVKGR-AFHNLDVRGR-HYYKLQVRGR-DDFILTVKGR-EVYMEEVVGR-PMYTLHTRGR-ELFELSIRKR-DIHELRVGGR-TNFNFLVRGR-GVYNLPNFNR-MMHMLLVRLR-RLYSLLTNGR-ESYIGIVQGR-MKFSLQVQGR-DIHFLKVKGR-PIFILRVKGR-HLYYLKVAIR-MEFILVVPGR-EVFNLPVLGR-QKHLLLVNGR-RPYNLKVKGR-VTFTLKVKGR,0,10
1,B,10,ETFTLEMRGR-KKFGLPVDGR-MIFIRHIGGR-LNYFLMVLGR-CVYLLAFHGR-ERVELQEIGR-ETFLLKVKGR-GFRSLGVKGR-ESHHLIVSGR-HFYESKVKGR-IIRYIPVRGR-GVYYARVLGR-EYHTLTVKGR-ERHWLEVKGR-MKFFLWVEGR-QHYTLKVPGR-KMFHLYVEGR-RLFFLRVKGR-ESYQLKVRGR-AVRHLVVKGR-HVYTLEVKGR-NQFTLTVEGR-SGYNLKVKGR-ERFELRDLGR-EFYIIMVRGR-TIHKLLVKER-NLRTEQVRDR-RKFILEVSKR-DWYTLPVKGR-EKYFLKVNGR-NVNALKVSGR-TTYNLFVQGR-CLYRLRVSGR-RTKELLVKGR-AAFELEVRGR-QLYLLKVTGR-MKFMLIVENR-ENFYLRVIGR-SQYTLKMIGR-EEAVLKVKGR-NRDAPKFVGR-EIYNNKKEGR-AEYKLWVKGR-DKKNLWVRGR-MKYILPITGR-QVKTLKIYGR-RLRHLRVRGR-MKWTLNVLGR-EKYYLHVNGR-MEYILNIKGR-EILKLEVKGR-DFYLLTISVR-RTFVLQVRGR-NVYYEEVQGR-EEYELNVFGR-MKYALTVKGR-SVYVLEVKGR-VEMPLTVTLR-HDYTLTVKGR-EIYTLVVEGR-EKYILKVKGR-RAYTLSVHGR-RHYQLEVKGR-ASHLLVVKGR-LRYYLYVVGR-ETFVLVVSYR-SHHYLEVRGR-SYYNIKVMGR-HKHSLKVCGR-TVFELKVLGR-EIFEIRVRGR-DIFILFDKGR-KRYHLKATNR-STYDLKVIGR-IKYFLEVFKR-SKYLIYVYGR-EKHNLSINGR-WYYSLTERGR-IEFKLYVKGR-AFHNLDVRGR-HYYKLQVRGR-DDFILTVKGR-EVYMEEVVGR-PMYTLHTRGR-ELFELSIRKR-DIHELRVGGR-TNFNFLVRGR-GVYNLPNFNR-MMHMLLVRLR-RLYSLLTNGR-ESYIGIVQGR-MKFSLQVQGR-DIHFLKVKGR-PIFILRVKGR-HLYYLKVAIR-MEFILVVPGR-EVFNLPVLGR-QKHLLLVNGR-RPYNLKVKGR-VTFTLKVKGR,0,10
