Unnamed: 0,Chain,Length,designed_binder_seq,cs,ce
0,A,10,XXXXXXEADP-XXXXXXTVNP-XXXXXXILDP-XXXXXXGPQP-XXXXXXHAIP-XXXXXXIPDP-XXXXXXASNP-XXXXXXADDP-XXXXXXDDDP-XXXXXXSCDP-XXXXXXIQDP-XXXXXXRRDP-XXXXXXGPDP-XXXXXXCLDP-XXXXXXARDP-XXXXXXSVDP-XXXXXXGPDP-XXXXXXDINP-XXXXXXIPDP-XXXXXXCDAP-XXXXXXVPKP-XXXXXXGQDP-XXXXXXEEDP-XXXXXXDQDP-XXXXXXDANP-XXXXXXGANP-XXXXXXLITP-XXXXXXTEDP-XXXXXXDSDP-XXXXXXSEDP-XXXXXXEHNP-XXXXXXNPDP-XXXXXXQYDP-XXXXXXRREP-XXXXXXSKRP-XXXXXXQVAP-XXXXXXQVDP-XXXXXXGMNP-XXXXXXNEDP-XXXXXXAVDP-XXXXXXEVNP-XXXXXXGIDP-XXXXXXRPEP-XXXXXXPADP-XXXXXXAVDP-XXXXXXNFDP-XXXXXXWWDP-XXXXXXQIDP-XXXXXXPPDP-XXXXXXRDDP-XXXXXXTNKP-XXXXXXAKDP-XXXXXXSVNP-XXXXXXSHDP-XXXXXXEVDP-XXXXXXGQDP-XXXXXXEIDP-XXXXXXGQNP-XXXXXXGIDP-XXXXXXTRDP-XXXXXXSERP-XXXXXXRSDP-XXXXXXDADP-XXXXXXCSDP-XXXXXXRYLP-XXXXXXNSDP-XXXXXXREDP-XXXXXXQWNP-XXXXXXVVDP-XXXXXXDVNP-XXXXXXVTVP-XXXXXXATEP-XXXXXXTLVP-XXXXXXRPDP-XXXXXXLNNP-XXXXXXHNDP-XXXXXXEKDP-XXXXXXATDP-XXXXXXASDP-XXXXXXVTDP-XXXXXXALNP-XXXXXXARNP-XXXXXXRLDP-XXXXXXSQSP-XXXXXXNRNP-XXXXXXVADP-XXXXXXFEIP-XXXXXXTMNP-XXXXXXSPDP-XXXXXXLIDP-XXXXXXGVDP-XXXXXXRQDP-XXXXXXDKGP-XXXXXXGENP-XXXXXXPQFP-XXXXXXRRDP-XXXXXXGQDP-XXXXXXCRPP-XXXXXXQEDP-XXXXXXIKNP,244,254
1,B,10,XXXXXXXEAD-XXXXXXXTVN-XXXXXXXILD-XXXXXXXGPQ-XXXXXXXHAI-XXXXXXXIPD-XXXXXXXASN-XXXXXXXADD-XXXXXXXDDD-XXXXXXXSCD-XXXXXXXIQD-XXXXXXXRRD-XXXXXXXGPD-XXXXXXXCLD-XXXXXXXARD-XXXXXXXSVD-XXXXXXXGPD-XXXXXXXDIN-XXXXXXXIPD-XXXXXXXCDA-XXXXXXXVPK-XXXXXXXGQD-XXXXXXXEED-XXXXXXXDQD-XXXXXXXDAN-XXXXXXXGAN-XXXXXXXLIT-XXXXXXXTED-XXXXXXXDSD-XXXXXXXSED-XXXXXXXEHN-XXXXXXXNPD-XXXXXXXQYD-XXXXXXXRRE-XXXXXXXSKR-XXXXXXXQVA-XXXXXXXQVD-XXXXXXXGMN-XXXXXXXNED-XXXXXXXAVD-XXXXXXXEVN-XXXXXXXGID-XXXXXXXRPE-XXXXXXXPAD-XXXXXXXAVD-XXXXXXXNFD-XXXXXXXWWD-XXXXXXXQID-XXXXXXXPPD-XXXXXXXRDD-XXXXXXXTNK-XXXXXXXAKD-XXXXXXXSVN-XXXXXXXSHD-XXXXXXXEVD-XXXXXXXGQD-XXXXXXXEID-XXXXXXXGQN-XXXXXXXGID-XXXXXXXTRD-XXXXXXXSER-XXXXXXXRSD-XXXXXXXDAD-XXXXXXXCSD-XXXXXXXRYL-XXXXXXXNSD-XXXXXXXRED-XXXXXXXQWN-XXXXXXXVVD-XXXXXXXDVN-XXXXXXXVTV-XXXXXXXATE-XXXXXXXTLV-XXXXXXXRPD-XXXXXXXLNN-XXXXXXXHND-XXXXXXXEKD-XXXXXXXATD-XXXXXXXASD-XXXXXXXVTD-XXXXXXXALN-XXXXXXXARN-XXXXXXXRLD-XXXXXXXSQS-XXXXXXXNRN-XXXXXXXVAD-XXXXXXXFEI-XXXXXXXTMN-XXXXXXXSPD-XXXXXXXLID-XXXXXXXGVD-XXXXXXXRQD-XXXXXXXDKG-XXXXXXXGEN-XXXXXXXPQF-XXXXXXXRRD-XXXXXXXGQD-XXXXXXXCRP-XXXXXXXQED-XXXXXXXIKN,243,253
