Unnamed: 0,Chain,Length,designed_binder_seq,cs,ce
0,A,10,AIVEPFEPDD-SIVEPSSPAD-AILEPDDVDD-SIMEPSNHED-ALLEPASPRD-AVLYPVFTGD-SILMPIPYED-SILEPEFPED-AILTPWEGSD-SIHEPYDIAD-AILQPGYPGD-AILEPFEAQD-AILEPLDCED-AILEPNNPED-AIIEPFEPAD-AILEPLDIDD-AILTVVTGSD-AIMEPMDRED-AILHDNDPAD-AILEPFRPHD-MCLDPSDPDD-SILYPFESLD-SILEPFDSVD-AVLEPLDPED-AILEPDEATD-AILEPQYPED-AILTPEDVQD-SLLEPHFYED-AILSPLELND-AILEPVENND-AIVNPKEPAD-AILEPCESGD-SILDPQLSDD-EICEMFNPKD-AILSPYFVED-AILEPIFMGD-AVLEPMDVND-SIDFPVDPAD-AIMEALGARD-MILEPVHPID-SILDYFDDLD-SIAFPSFTDD-AILTPTRSND-SILEPHRSDD-CILCPFNSDD-AILEPIYPDD-SILEPWFPED-AIAEPYSSQD-TILEWCDNVD-AILEPFFPED-SILCPFYTTD-AIITPFYVDD-MELQPTQHED-SLVHLFDPDD-AILEPYECTD-AILECIYAED-AIEEPENPDD-FWLEPYNASD-NILEPSEASD-AILEPFEHPD-SILIPFNPDD-SILQPFDNQD-AILIPQKPED-AILMPLQEED-AILNPYDFSD-SILDPFVGDD-AVLSPHKPDD-ALLNPETNKD-SILEPTFTDD-AFLEPFNAAD-AILEPREPAD-APLNPYDPRD-AILRPFTPED-AILEPYGSGD-AILNPNNFKD-AILEPAEHAD-SILTQSSEED-AILTILDVQD-AILIPSFPED-SILEPIRVED-AILTPQDRGD-AELMNIIPID-KILDPFTPDD-AQVQPMNPDD-SILVPEDPDD-CILCPIEPRD-AILTPFDHAD-SHLEKNVRDD-AILYPASIED-SDLNPVCPKD-WILTPFLAID-TILYPANAFD-SIYEPFEVED-SITEKMNPFD-SHLEPDETED-AVLEPRNPDD-AIIEPTAPDD-SICFPYDVND-AILSPMESND-AILEPLFPDD,40,50
1,B,10,AIVEPFEPDD-SIVEPSSPAD-AILEPDDVDD-SIMEPSNHED-ALLEPASPRD-AVLYPVFTGD-SILMPIPYED-SILEPEFPED-AILTPWEGSD-SIHEPYDIAD-AILQPGYPGD-AILEPFEAQD-AILEPLDCED-AILEPNNPED-AIIEPFEPAD-AILEPLDIDD-AILTVVTGSD-AIMEPMDRED-AILHDNDPAD-AILEPFRPHD-MCLDPSDPDD-SILYPFESLD-SILEPFDSVD-AVLEPLDPED-AILEPDEATD-AILEPQYPED-AILTPEDVQD-SLLEPHFYED-AILSPLELND-AILEPVENND-AIVNPKEPAD-AILEPCESGD-SILDPQLSDD-EICEMFNPKD-AILSPYFVED-AILEPIFMGD-AVLEPMDVND-SIDFPVDPAD-AIMEALGARD-MILEPVHPID-SILDYFDDLD-SIAFPSFTDD-AILTPTRSND-SILEPHRSDD-CILCPFNSDD-AILEPIYPDD-SILEPWFPED-AIAEPYSSQD-TILEWCDNVD-AILEPFFPED-SILCPFYTTD-AIITPFYVDD-MELQPTQHED-SLVHLFDPDD-AILEPYECTD-AILECIYAED-AIEEPENPDD-FWLEPYNASD-NILEPSEASD-AILEPFEHPD-SILIPFNPDD-SILQPFDNQD-AILIPQKPED-AILMPLQEED-AILNPYDFSD-SILDPFVGDD-AVLSPHKPDD-ALLNPETNKD-SILEPTFTDD-AFLEPFNAAD-AILEPREPAD-APLNPYDPRD-AILRPFTPED-AILEPYGSGD-AILNPNNFKD-AILEPAEHAD-SILTQSSEED-AILTILDVQD-AILIPSFPED-SILEPIRVED-AILTPQDRGD-AELMNIIPID-KILDPFTPDD-AQVQPMNPDD-SILVPEDPDD-CILCPIEPRD-AILTPFDHAD-SHLEKNVRDD-AILYPASIED-SDLNPVCPKD-WILTPFLAID-TILYPANAFD-SIYEPFEVED-SITEKMNPFD-SHLEPDETED-AVLEPRNPDD-AIIEPTAPDD-SICFPYDVND-AILSPMESND-AILEPLFPDD,40,50
