Unnamed: 0,Chain,Length,designed_binder_seq,cs,ce
0,A,10,PQMNGDVRII-EHTTGDVVAI-VEPYGYVVDI-VTVKGDVIQI-PCVHADVIKI-KSQFADVISI-TEVPADLVAI-LSEQFDVIKI-TIQRGAVISI-PLNSGCKVFI-RPISGDVWAI-MVVTDDIIAI-MTLSQDVIAI-EDNVGDVVKI-LASTADVIDI-ARKMGDVVAI-TQIHADVSAI-TKQGGDIVAI-SVVRFDAAEI-VPQQGDVICI-VSTNKDVISI-MKVMEDVIEI-AAIQADSIAI-QHRSGDIVKI-NEVKYDVINI-RLVRDDIIQI-KSLSSDVVKI-MQQRGDIIAI-VLIHGDVISI-AMVRGDVLEI-FDESADIKAI-SHNSGDVVII-LDFKGDVIAI-LSNSGDIVAI-DAQPCDVVLI-DQVAADVISI-GITKGDVVHI-PIVREDVTEI-CRQCADVVAI-STRGPDTITI-MKVQHDVIEI-AEVKGDVIEI-SLQFGDITAI-TIPKEDVINI-TDPRADVKSI-ERFQDDPVEI-QQWSSVISRI-YQQVGNLVEI-MLNMFDVQKI-MKQEMAVIEI-PGISKDVIAI-SRIKACVIQI-RRLSADMITI-SKVSGDVIAI-RKVKGDVIKI-PTPQGDVIAI-SMAYGNILAI-SRIESDTIEI-SQSQADVTTI-SHMQGDVISI-VTQKCNVIGI-PQQRGDVIPI-RPVHSDVIAI-DSLKADVIDI-MKLRGDIVEI-MTRKADVRKI-LPTKADVVTI-MLNSFDTIEI-HTIKGDIVAI-AQITADVKLI-GWQAEDVIAI-SVVSGDVIGI-EQISHDVVGI-DSVSGDITSI-LFNDADLTDI-MRIAADVTAI-TSNQGTITEI-TLLKGDEIII-QFFAADVTAI-YMLKSNVNDI-PSQSGDIVQI-QTCSHDVIAI-SSISGDVIAI-MEVSADIIEI-NKVEADVVQI-ARQRADVVEI-ASPEGDVIAI-ASAGWHLKEI-LSTTGDVIAI-SRIAFDIFAI-TRISFDLIAI-AAQNEDVRAI-DNVAGDVIEI-SPLSGQVIEI-TRYCDDIIMI-PEIQVDNIAI-RRECGDIIAI-EVISGDVIPI-KQIGGDVIAI-VMQGGDVVKI,0,10
1,B,10,AEFLHAAKEA-AEFLHAAKEA-AEFLHAAKEA-AEFLHAAKEA-AEFLHAAKEA-AEFLHAAKEA-AEFLHAAKEA-AEFLHAAKEA-AEFLHAAKEA-AEFLHAAKEA-AEFLHAAKEA-AEFLHAAKEA-AEFLHAAKEA-AEFLHAAKEA-AEFLHAAKEA-AEFLHAAKEA-AEFLHAAKEA-AEFLHAAKEA-AEFLHAAKEA-AEFLHAAKEA-AEFLHAAKEA-AEFLHAAKEA-AEFLHAAKEA-AEFLHAAKEA-AEFLHAAKEA-AEFLHAAKEA-AEFLHAAKEA-AEFLHAAKEA-AEFLHAAKEA-AEFLHAAKEA-AEFLHAAKEA-AEFLHAAKEA-AEFLHAAKEA-AEFLHAAKEA-AEFLHAAKEA-AEFLHAAKEA-AEFLHAAKEA-AEFLHAAKEA-AEFLHAAKEA-AEFLHAAKEA-AEFLHAAKEA-AEFLHAAKEA-AEFLHAAKEA-AEFLHAAKEA-AEFLHAAKEA-AEFLHAAKEA-AEFLHAAKEA-AEFLHAAKEA-AEFLHAAKEA-AEFLHAAKEA-AEFLHAAKEA-AEFLHAAKEA-AEFLHAAKEA-AEFLHAAKEA-AEFLHAAKEA-AEFLHAAKEA-AEFLHAAKEA-AEFLHAAKEA-AEFLHAAKEA-AEFLHAAKEA-AEFLHAAKEA-AEFLHAAKEA-AEFLHAAKEA-AEFLHAAKEA-AEFLHAAKEA-AEFLHAAKEA-AEFLHAAKEA-AEFLHAAKEA-AEFLHAAKEA-AEFLHAAKEA-AEFLHAAKEA-AEFLHAAKEA-AEFLHAAKEA-AEFLHAAKEA-AEFLHAAKEA-AEFLHAAKEA-AEFLHAAKEA-AEFLHAAKEA-AEFLHAAKEA-AEFLHAAKEA-AEFLHAAKEA-AEFLHAAKEA-AEFLHAAKEA-AEFLHAAKEA-AEFLHAAKEA-AEFLHAAKEA-AEFLHAAKEA-AEFLHAAKEA-AEFLHAAKEA-AEFLHAAKEA-AEFLHAAKEA-AEFLHAAKEA-AEFLHAAKEA-AEFLHAAKEA-AEFLHAAKEA-AEFLHAAKEA-AEFLHAAKEA-AEFLHAAKEA-AEFLHAAKEA-AEFLHAAKEA,54,64
