Unnamed: 0,Chain,Length,designed_binder_seq,cs,ce
0,A,10,QIWKLVHSVT-AFKRLFYNFT-EYERLDHSVT-PIIRLEWSIT-AVINKYHSVT-AWNDLHHRAT-EVTRLFNSVT-VFTNLFYKVT-GWVSLGSAIT-AFVRLFHRVT-AFLATKYNFT-QIINLNNSVT-EIRNLFWRTT-SYIALYNSVT-AILDLLHSYT-AVINLKYKIT-SVQALYEQFT-AYKRLFYNYT-MYRSLHFSFT-AEIELFPRIT-AIIDLANRIT-PYLNLFYRIT-EKLNLQTLVT-AFLRLFWSRT-EIIPDFFLTT-AFRALRHRVT-EFHDLFYSCT-AILDLLTRRT-PWNDTLFKVT-EICHLFDRVT-ASLALSHATT-PFLSLFFDFT-SFHKLFTYIT-SVLRLKAWIT-SFILHNCRVT-SYLDLLNSVT-PYIDLYENVT-SIVDLFENIT-TFINVFYSVT-EIINLFTSVT-SFIRLFHQVT-EFLDLHETFT-PILDTFYCHT-YIIRLNYNST-DITNLHYRVT-PILDLHNEQT-AHLNLAYGLT-FTIPLLYRWT-VFLDLNNNVT-AVYNLATTIT-AFERLKYSKT-AIINLFYSPT-AITRLWTHFT-EFLNIWSSIT-PFLDLLYSVT-AFIDLFHVVT-AWLKLFHNVT-PICKLDNQVT-PILELYNDYT-NFEALGSEIT-PFIYDFYQRT-ATLQRYFNVT-ERKNLFYSIT-PFQNLFYSFT-EFENLKYRIT-AHIELLNSVT-EWLQLYNTVT-SFQNLYWNIT-AIRNLHYAVT-EFLQLYYRVT-PRIELWDSVT-PIKNYFPSFT-EFENLYYQVT-AFKELLTNIT-AHIWLHYCDT-EFLDLRWQYT-AYYRLLNNVT-AFIRLRENVT-PFNKLLASVT-PFDDLFNNVT-MYDNLKYSVT-EKLNLFRSVT-DFVALYHNVT-SIQNLFYNVT-AWNALLNQIT-AVEKLYNNVT-AFNDLRYSVT-AFIDLAYNVT-AQEELKERFT-AIKDLFYRTT-AFLNLLNKVT-AIKNLYWSVT-AWVASKWTVT-AFSRLFYNVT-PFLNLLVSVT-EYISLYNSVT-AYKRLFYNYT-AFLKLRYSVT-AELNLLNNVT-AYINLRLQTT,7,17
1,B,10,QIWKLVHSVT-AFKRLFYNFT-EYERLDHSVT-PIIRLEWSIT-AVINKYHSVT-AWNDLHHRAT-EVTRLFNSVT-VFTNLFYKVT-GWVSLGSAIT-AFVRLFHRVT-AFLATKYNFT-QIINLNNSVT-EIRNLFWRTT-SYIALYNSVT-AILDLLHSYT-AVINLKYKIT-SVQALYEQFT-AYKRLFYNYT-MYRSLHFSFT-AEIELFPRIT-AIIDLANRIT-PYLNLFYRIT-EKLNLQTLVT-AFLRLFWSRT-EIIPDFFLTT-AFRALRHRVT-EFHDLFYSCT-AILDLLTRRT-PWNDTLFKVT-EICHLFDRVT-ASLALSHATT-PFLSLFFDFT-SFHKLFTYIT-SVLRLKAWIT-SFILHNCRVT-SYLDLLNSVT-PYIDLYENVT-SIVDLFENIT-TFINVFYSVT-EIINLFTSVT-SFIRLFHQVT-EFLDLHETFT-PILDTFYCHT-YIIRLNYNST-DITNLHYRVT-PILDLHNEQT-AHLNLAYGLT-FTIPLLYRWT-VFLDLNNNVT-AVYNLATTIT-AFERLKYSKT-AIINLFYSPT-AITRLWTHFT-EFLNIWSSIT-PFLDLLYSVT-AFIDLFHVVT-AWLKLFHNVT-PICKLDNQVT-PILELYNDYT-NFEALGSEIT-PFIYDFYQRT-ATLQRYFNVT-ERKNLFYSIT-PFQNLFYSFT-EFENLKYRIT-AHIELLNSVT-EWLQLYNTVT-SFQNLYWNIT-AIRNLHYAVT-EFLQLYYRVT-PRIELWDSVT-PIKNYFPSFT-EFENLYYQVT-AFKELLTNIT-AHIWLHYCDT-EFLDLRWQYT-AYYRLLNNVT-AFIRLRENVT-PFNKLLASVT-PFDDLFNNVT-MYDNLKYSVT-EKLNLFRSVT-DFVALYHNVT-SIQNLFYNVT-AWNALLNQIT-AVEKLYNNVT-AFNDLRYSVT-AFIDLAYNVT-AQEELKERFT-AIKDLFYRTT-AFLNLLNKVT-AIKNLYWSVT-AWVASKWTVT-AFSRLFYNVT-PFLNLLVSVT-EYISLYNSVT-AYKRLFYNYT-AFLKLRYSVT-AELNLLNNVT-AYINLRLQTT,7,17
