Unnamed: 0,Chain,Length,designed_binder_seq,cs,ce
0,A,10,VWDSDYKVNS-VRDPNYSVKS-VYDFQYHVKS-AFDPFWLVFS-AYNSRHDVQS-SYDAEYKVHS-AIDPNYKVTS-VTGAEFELFS-VYGFRYRLIS-ASDIWYECKS-VYDFNFKVNS-VWNPSYMAHS-VYDPYWETKS-VYNPFYHHNS-VSNPWYRVQS-VFNPQYKIIS-VSDPDNLFVS-EYGFNFNIDS-VNFPYFQVLS-AYWMDYLVTS-VYDPRYVVKS-VYNPDYGLKS-AYDPWYPVDS-VYDPEYRIKS-VFDAHYNVRS-FSNPSYWVAS-AYRASYKVHS-VYNSRYKVRS-VTDSAYVIKS-ATGFQYDIKS-VWNPSYHVNS-VYDISYHVKS-TWDPNCNFNS-VYDPEWVVLS-VSGGDYYIDS-VFDGRFELNS-VWNSTFDVKS-VFNPNFHVSS-VYDAEYPVKS-VYEPYFKVYS-AYNPDWRVLS-VYDPNFHISS-VYDPQYFILS-VYSPNYIIYS-AFDVWYDVKS-VYNPNYFLNS-VYAPSFSVKS-VYDRDFIVSS-VENPYYSVKS-VSDASYYIKS-ASAYSYWVKS-VYDFRYDVHS-VFSPNYEVKS-VYDADYDVKS-AYDDWYEVKS-VFDANYNVSS-VYDPGYRFHS-VWDSEYVKKS-VTNFRYFVPS-VYDPNYFIMS-VFDFYYFVKS-AYDPRYKIIS-AWNFTFSMKS-VWNESYKIES-AFDNYYELKS-VYDPKYACKS-VWPTNYKVLS-VTNPSYRVNS-AFGAHYGVKS-VSDPFRLIIS-VFSSHYNVKS-VYAARYVVLS-VYDPFYNVQS-VFDPDFHVES-AYNAFYNIYS-AWDPEYFVKS-VKDPEYHIKS-VFDFNYYCNS-VYDANFLIKS-VFDPYYEVKS-VYDPYYCLKS-VGNPKYTVKS-VWNPKYHVSS-VYNPHWYCKS-AYDDKYWVQS-VFDPNYEVDS-AYDFQYRVIS-AYRPRGNVMS-TYNFKYKCMS-VFDVSYKVSS-VSEFDYEIKS-VYEPFYKINS-VTESSYSLLS-EFDYRFESKS-VCNPNYTLSS-CYNPAYYWKS-VFRPDYSIVS-VYDPEWEIKS-VFNPSYTVKS-VYQPSYDVKS,78,88
1,B,10,KEIVLEDGTE-KEIVLEDGTE-KEIVLEDGTE-KEIVLEDGTE-KEIVLEDGTE-KEIVLEDGTE-KEIVLEDGTE-KEIVLEDGTE-KEIVLEDGTE-KEIVLEDGTE-KEIVLEDGTE-KEIVLEDGTE-KEIVLEDGTE-KEIVLEDGTE-KEIVLEDGTE-KEIVLEDGTE-KEIVLEDGTE-KEIVLEDGTE-KEIVLEDGTE-KEIVLEDGTE-KEIVLEDGTE-KEIVLEDGTE-KEIVLEDGTE-KEIVLEDGTE-KEIVLEDGTE-KEIVLEDGTE-KEIVLEDGTE-KEIVLEDGTE-KEIVLEDGTE-KEIVLEDGTE-KEIVLEDGTE-KEIVLEDGTE-KEIVLEDGTE-KEIVLEDGTE-KEIVLEDGTE-KEIVLEDGTE-KEIVLEDGTE-KEIVLEDGTE-KEIVLEDGTE-KEIVLEDGTE-KEIVLEDGTE-KEIVLEDGTE-KEIVLEDGTE-KEIVLEDGTE-KEIVLEDGTE-KEIVLEDGTE-KEIVLEDGTE-KEIVLEDGTE-KEIVLEDGTE-KEIVLEDGTE-KEIVLEDGTE-KEIVLEDGTE-KEIVLEDGTE-KEIVLEDGTE-KEIVLEDGTE-KEIVLEDGTE-KEIVLEDGTE-KEIVLEDGTE-KEIVLEDGTE-KEIVLEDGTE-KEIVLEDGTE-KEIVLEDGTE-KEIVLEDGTE-KEIVLEDGTE-KEIVLEDGTE-KEIVLEDGTE-KEIVLEDGTE-KEIVLEDGTE-KEIVLEDGTE-KEIVLEDGTE-KEIVLEDGTE-KEIVLEDGTE-KEIVLEDGTE-KEIVLEDGTE-KEIVLEDGTE-KEIVLEDGTE-KEIVLEDGTE-KEIVLEDGTE-KEIVLEDGTE-KEIVLEDGTE-KEIVLEDGTE-KEIVLEDGTE-KEIVLEDGTE-KEIVLEDGTE-KEIVLEDGTE-KEIVLEDGTE-KEIVLEDGTE-KEIVLEDGTE-KEIVLEDGTE-KEIVLEDGTE-KEIVLEDGTE-KEIVLEDGTE-KEIVLEDGTE-KEIVLEDGTE-KEIVLEDGTE-KEIVLEDGTE-KEIVLEDGTE-KEIVLEDGTE-KEIVLEDGTE-KEIVLEDGTE,12,22
