Unnamed: 0,Chain,Length,designed_binder_seq,cs,ce
0,A,10,PLVARFWSQA-AFTAAFWASA-EADAQFYAAA-PATAVAWSQA-LHTAAKWAAA-SEAAHFWAGA-AATVSFWTRA-EAAREFWEAA-LATAAWTSRA-EAACSFYAAA-QVAADFWAKA-RETTRFWSGA-ERAAEFYRGA-PAVAAFWAFA-QPTAVFWESA-DRTAAWFESA-NNATDFYSRA-AETAAFWHAA-MATTDWWARA-SRTFQWWSQA-LRTADFWAGA-AAAARFWADA-AAVARFWPLA-DEAARQWSEA-PRVLEFWVEA-EATTRFWAGA-ARTVAWWSGA-HRTADWWAGA-EVTVKSWSEA-YATAEFFSQA-AQTTRYWEGA-MAAAAWWAEA-EAAATFWARA-QPTAAFWAAA-AHTAAFWAEA-QATAAFWSKA-EETRAWFSAA-QVAVDFWSQA-EDTARFWSAA-ERATAFWAEA-QATQRFYHEA-DQTVRFWSGA-APTAAFWSAA-LAAAEFWREA-NETAAFWSGA-ETTASFWSGA-SAAADFVANA-DATAAFWSAA-DKEAAWQAAA-EATVEFWMMA-LRTADFWAQA-EATAAFWSHA-TATATFWSGA-RRTVDFWSRA-ASVVAFWGGA-ERAVQFWLGA-RATADWWARA-RAAADFYAHA-SETSRWWSEA-ERTVGFWADA-KVAARFWAEA-ERTAEFWAYA-RRTVEWWSRA-AATAAFQAEA-KRTAAFWSQA-EEAGRWWAGA-ETTERFHSAA-PQTAAFWANA-ASACAFWAHA-ERATAFWAAA-RRTAAFWEGA-EAATRFWAAA-PEVWRFSLDA-EAVAAFFSRA-HEAVRFYEKA-ERTAEFWSRA-RRTADFWSRA-EPTTRFWSGA-DHTVEWWSKA-QATADFWDAA-AETAAFLAAA-DRTTAFWSSA-DRSGKFWADA-HTTADWWANA-HRTVDFYAGA-REAAAWWSGA-EERAQFWSRA-PQTVAFYAGA-DATVEFWSGA-LETARFYAGA-CDVTKFWSAA-PRTQDFWARA-FMTAKFYSAA-EETAQFWANA-ETAAAFTEAA-AQTAEFWSGA-EKTAAYWSGA-NATPAFWSEA-EAAAHFWASA-ERTAAFWAAA,21,31
1,B,10,QQPLVARFWS-QQAFTAAFWA-QREADAQFYA-QLPATAVAWS-QLLHTAAKWA-QLSEAAHFWA-QLAATVSFWT-QQEAAREFWE-QLLATAAWTS-QQEAACSFYA-QRQVAADFWA-QWRETTRFWS-QMERAAEFYR-QLPAVAAFWA-QQQPTAVFWE-QSDRTAAWFE-QLNNATDFYS-QLAETAAFWH-QLMATTDWWA-QQSRTFQWWS-QTLRTADFWA-QRAAAARFWA-QRAAVARFWP-QLDEAARQWS-QDPRVLEFWV-QLEATTRFWA-QQARTVAWWS-QLHRTADWWA-QREVTVKSWS-QFYATAEFFS-QAAQTTRYWE-QMMAAAAWWA-QHEAAATFWA-QTQPTAAFWA-QTAHTAAFWA-QQQATAAFWS-QQEETRAWFS-QLQVAVDFWS-QMEDTARFWS-QQERATAFWA-QKQATQRFYH-QLDQTVRFWS-QQAPTAAFWS-QALAAAEFWR-QMNETAAFWS-QTETTASFWS-QLSAAADFVA-QTDATAAFWS-QLDKEAAWQA-QMEATVEFWM-QSLRTADFWA-QCEATAAFWS-QQTATATFWS-QMRRTVDFWS-QVASVVAFWG-QLERAVQFWL-QQRATADWWA-QARAAADFYA-QQSETSRWWS-QQERTVGFWA-QKKVAARFWA-QAERTAEFWA-QQRRTVEWWS-QCAATAAFQA-QLKRTAAFWS-QLEEAGRWWA-QWETTERFHS-QMPQTAAFWA-QQASACAFWA-QMERATAFWA-QLRRTAAFWE-QLEAATRFWA-QQPEVWRFSL-QAEAVAAFFS-QQHEAVRFYE-QLERTAEFWS-QLRRTADFWS-QSEPTTRFWS-QKDHTVEWWS-QLQATADFWD-QLAETAAFLA-QMDRTTAFWS-QLDRSGKFWA-QTHTTADWWA-QTHRTVDFYA-QQREAAAWWS-QHEERAQFWS-QLPQTVAFYA-QHDATVEFWS-QTLETARFYA-QLCDVTKFWS-QQPRTQDFWA-QFFMTAKFYS-QQEETAQFWA-QKETAAAFTE-QQAQTAEFWS-QQEKTAAYWS-QQNATPAFWS-QQEAAAHFWA-QHERTAAFWA,19,29
