Unnamed: 0,Chain,Length,designed_binder_seq,cs,ce
0,A,10,IELIRRLAQV-VDYVRLLAQV-EDVFRRLGDV-TDQIRALATV-LNLMKRMAYV-VELIDKLAVV-AELFQRLALV-ENRFRLLAAV-TELFKKLAHV-LANIRQLHAV-EELYRELAKV-EKLLRRLAYV-TALFRQLGHV-TDLLRRLATV-TCLFKRLGHV-TALFRRMARV-TALARRLAHV-TALFRRLAEV-YSLFRRLGQV-ISLFRFIAEV-WAGFRKMAHV-VELNRYLANV-TALIIRMAHV-SILFKRMAEV-TSLIRDLAAV-EGLFRRLAHV-LAVSRYLAQV-CNLVRLLSDV-KRLMRIMAHV-TTLFRRMAMV-TALVARNGHV-TSEMRRLAAV-IDLVRRLAQV-EGLFKLLAQV-VELFRRLAHV-EALFRFLAEV-CDLIRFLAHV-VELIALMSHV-APLLRFLGRV-DWLIRALWSV-TKLFRHMAPV-TNLFLFLAEV-TGLMRDLAHV-EDLIRELAYV-RELFSFLARV-TSLFRRLALV-CSLVRFLADV-IDLFRRMAHV-TDLISHLCKV-EAMIRALAQV-IRLFAKLAHV-VPLIRTLAEV-GELFRKLAHV-VDLYRDIADV-ADVHKQLAAV-ACIVERLAKV-TDLFRQLMAV-IDSFRRLEQV-TDLFRRLALV-TRLIRRSIHV-NDLLRRLAHV-QQYFTRFGAV-HALIRRMAQV-TSLFKRLAYV-NALVRRWGYV-TDLVRRMALV-TGLVRRIAFV-EQKHRQLAQV-ESLFRRPAAV-LPLIRSLASV-QNHLRKLAQV-EALIRMYARV-RELIRYWADV-CAAFEYLAQV-TQLVRRLARV-VQRLKRLAKV-AAMVRRLAAV-TDLFRRLARV-AMQYRLITTV-VRLYKNLAQV-LALCRKLAYV-TGEIRKLAYV-TGLFKHMAQV-KELVRRLAHV-EELFRRLAYV-TTLFRQLAHV-VPMFKLLITV-VSGFRRLAEV-TELIRQLAWV-HRLFRLMAQV-AKLFRRLAHV-CMLFKHIAEV-QQLIRVNAQV-EDMFKRLAHV-HSLFRLDANV-TDEFKLLAKV-TEKIRFLAHV-TQLYSYLAAV-TRLCRWLASV-TQLFKRLAKV,330,340
1,B,10,RRLAQVAAGD-RLLAQVAAGD-RRLGDVAAGD-RALATVAAGD-KRMAYVAAGD-DKLAVVAAGD-QRLALVAAGD-RLLAAVAAGD-KKLAHVAAGD-RQLHAVAAGD-RELAKVAAGD-RRLAYVAAGD-RQLGHVAAGD-RRLATVAAGD-KRLGHVAAGD-RRMARVAAGD-RRLAHVAAGD-RRLAEVAAGD-RRLGQVAAGD-RFIAEVAAGD-RKMAHVAAGD-RYLANVAAGD-IRMAHVAAGD-KRMAEVAAGD-RDLAAVAAGD-RRLAHVAAGD-RYLAQVAAGD-RLLSDVAAGD-RIMAHVAAGD-RRMAMVAAGD-ARNGHVAAGD-RRLAAVAAGD-RRLAQVAAGD-KLLAQVAAGD-RRLAHVAAGD-RFLAEVAAGD-RFLAHVAAGD-ALMSHVAAGD-RFLGRVAAGD-RALWSVAAGD-RHMAPVAAGD-LFLAEVAAGD-RDLAHVAAGD-RELAYVAAGD-SFLARVAAGD-RRLALVAAGD-RFLADVAAGD-RRMAHVAAGD-SHLCKVAAGD-RALAQVAAGD-AKLAHVAAGD-RTLAEVAAGD-RKLAHVAAGD-RDIADVAAGD-KQLAAVAAGD-ERLAKVAAGD-RQLMAVAAGD-RRLEQVAAGD-RRLALVAAGD-RRSIHVAAGD-RRLAHVAAGD-TRFGAVAAGD-RRMAQVAAGD-KRLAYVAAGD-RRWGYVAAGD-RRMALVAAGD-RRIAFVAAGD-RQLAQVAAGD-RRPAAVAAGD-RSLASVAAGD-RKLAQVAAGD-RMYARVAAGD-RYWADVAAGD-EYLAQVAAGD-RRLARVAAGD-KRLAKVAAGD-RRLAAVAAGD-RRLARVAAGD-RLITTVAAGD-KNLAQVAAGD-RKLAYVAAGD-RKLAYVAAGD-KHMAQVAAGD-RRLAHVAAGD-RRLAYVAAGD-RQLAHVAAGD-KLLITVAAGD-RRLAEVAAGD-RQLAWVAAGD-RLMAQVAAGD-RRLAHVAAGD-KHIAEVAAGD-RVNAQVAAGD-KRLAHVAAGD-RLDANVAAGD-KLLAKVAAGD-RFLAHVAAGD-SYLAAVAAGD-RWLASVAAGD-KRLAKVAAGD,334,344
