Unnamed: 0,Chain,Length,designed_binder_seq,cs,ce
0,A,10,EDPRELWTVQ-ELPGENSLVQ-EVSKDMFLVQ-ELTSWSYCVQ-ELPKEMFLVQ-ETVPALFKVQ-ELHPNFFLVQ-ECHGATYLVQ-ELPPEMFTVQ-EIDQANFLVQ-EWDRELFRVQ-EVPDPTFLVQ-EGTAATVGLQ-ESDESYWYVQ-ENAQSLFTVQ-EMDVNMFQVQ-EMPANMYLVQ-RHPNDWFFVQ-EYPHDSVLVQ-ETHMDMFLQQ-VLDPQMFRVQ-EVPVDLSVVQ-EVPEETFLVQ-EHDIPLFSEQ-EMPLDLWYVQ-ELPPEFTLVQ-ELPPFNIYVQ-EGRKELLREQ-ELQPESDLVQ-ESPPELFIVQ-EEDKQTVQVQ-ETPEDMYFVQ-EYERSFHLVQ-EVPPEMFRVQ-EVPIDTLSVQ-ERPVEFYTVQ-ECDEELWSVQ-EYPPDLYLVQ-EDPTESVTVQ-EAPTNLFTVQ-EVPTEDFRVQ-EVPEHMFLVQ-EYPRELQSVQ-ELPQWTVLVQ-ELNRDFILVQ-EMPVENRMVQ-ELPVEMYTVQ-ELGQEYVLIQ-SIDMKFFMVQ-ETQKDNCRVQ-ENSEDLILVQ-EGKPCLLKVQ-ELPEDMFKVQ-ERNRRLVSVQ-ETPMEEVLVQ-EVSPSMFKVQ-FVSPDMFSVQ-ELPSGSFLVQ-ELPPDLLGVQ-EKAIERYVVQ-EVDADDYLVQ-ECPEDYNLVQ-EQSKKHFLVQ-EGPVRLFTVQ-ELPNESFLVQ-EGDNALFIVQ-EIPEDMLLVQ-ELPTSLFSVQ-ESNPSMFFVQ-EGDEAHFMVQ-ESPIDMLLVQ-ELPRESSLVQ-EGDVSTYPVQ-ELPVSSVLVQ-YVDPELVMVQ-ENDPRLFYVQ-EVDADMGFVQ-ETREDMMTVQ-ELQADMWMVQ-IVEETLWQVQ-YVHGETTLVQ-ELDPDYYTVQ-ETDTELLLVQ-ESDPGFNWVQ-EVSPENCLVQ-ELDPDRSVIQ-EVSPDRVLVQ-EVAEEMFLVQ-EGPQQSFTVQ-IWDREMFLVQ-EQDTSNFFVQ-EGPEDTFLVQ-EAPKDCFTVQ-ELNRDLFIVQ-ELPPERFKVQ-EVDENLFVVQ-ETPMSTVWVQ-ELDTDMYLFQ-EVPVQMFHVQ-ELDPETWQVQ,106,116
1,B,10,GYDWEIHINE-GYDWEIHIRE-GYDWEIHIRE-GYDWEIHITE-GYDWEIHIRE-GYDWEIHINE-GYDWEIHITE-GYDWEIHIRE-GYDWEIHIKE-GYDWEIHITE-GYDWEIHIDE-GYDWEIHINE-GYDWEIHIHE-GYDWEIHIKE-GYDWEIHIIE-GYDWEIHIFE-GYDWEIHIEE-GYDWEIHIER-GYDWEIHITE-GYDWEIHISE-GYDWEIHIHV-GYDWEIHIKE-GYDWEIHIKE-GYDWEIHISE-GYDWEIHIRE-GYDWEIHIQE-GYDWEIHIRE-GYDWEIHITE-GYDWEIHIEE-GYDWEIHIRE-GYDWEIHILE-GYDWEIHITE-GYDWEIHISE-GYDWEIHIVE-GYDWEIHIAE-GYDWEIHIFE-GYDWEIHITE-GYDWEIHIRE-GYDWEIHITE-GYDWEIHIKE-GYDWEIHIRE-GYDWEIHIRE-GYDWEIHIAE-GYDWEIHITE-GYDWEIHIYE-GYDWEIHIGE-GYDWEIHINE-GYDWEIHIQE-GYDWEIHISS-GYDWEIHITE-GYDWEIHISE-GYDWEIHIEE-GYDWEIHIRE-GYDWEIHIEE-GYDWEIHIRE-GYDWEIHIRE-GYDWEIHIRF-GYDWEIHIEE-GYDWEIHIRE-GYDWEIHIRE-GYDWEIHIAE-GYDWEIHINE-GYDWEIHIRE-GYDWEIHISE-GYDWEIHIDE-GYDWEIHIRE-GYDWEIHIQE-GYDWEIHIRE-GYDWEIHITE-GYDWEIHIKE-GYDWEIHIEE-GYDWEIHISE-GYDWEIHIDE-GYDWEIHIEE-GYDWEIHIWY-GYDWEIHIAE-GYDWEIHIQE-GYDWEIHIKE-GYDWEIHIRE-GYDWEIHIRI-GYDWEIHITY-GYDWEIHIDE-GYDWEIHITE-GYDWEIHIEE-GYDWEIHISE-GYDWEIHITE-GYDWEIHIIE-GYDWEIHITE-GYDWEIHITE-GYDWEIHIDI-GYDWEIHIDE-GYDWEIHITE-GYDWEIHIRE-GYDWEIHITE-GYDWEIHIEE-GYDWEIHIEE-GYDWEIHIYE-GYDWEIHIRE-GYDWEIHIGE-GYDWEIHISE,97,107
