Unnamed: 0,Chain,Length,designed_binder_seq,cs,ce
0,A,10,EKIEVLEKIV-SRLHLLQATV-KENRTLSREV-QETEEFKREV-ERFVALTQQV-AQVNVLIMEV-KEVRELEPEV-AKIKELEEEV-LINQDVKNEV-RDIEFLELKV-AQVETLRSAV-KQVEPLEAEV-QFIRVLRECV-TRVADLNAEV-KRVAELEQDV-ETVRFYNEEV-YVVAKLNNDV-LENQQLWEKV-EKVAELEAYV-IEVKDLNQEV-NQVGTMRFEV-NSIAFLSREV-SEQRELCTEV-HEVSNLHRSV-HKTATLENEV-KRVKELQTLV-FKLMELETEV-NRVGKLEAEV-MRIHQLRQEV-KEVADLTQKV-VECNRLKEDV-NSVRAKSDRV-ATVWTLQQEV-NLVAELNLQV-DKCVELNAEV-NSVMDLKRVV-LAIEKLKQEV-QYVKKLRDQV-KKIEHENIEV-RKIEKLRLKV-AKVAYLKQEV-CRVSALENEV-EECKLLKEEV-RKIKSLEKEV-AKVHELNLCV-NKVKTQSTDV-QEVRFMRDRV-RRQRQQDFKV-AEVQELKEMV-EEVEELKAAV-MKVRKLEARV-ELIGLLRSEV-ELVAQFLDEV-MNVEILETEV-RTVKELEESV-GKCYELTEEV-SKVMLLKEEV-KKETELKRGV-AEIPKLKQDV-KVTVDNHSLV-QEVKLLRQEV-RGVETRDTEV-ARVEELEPHV-KKEEHLNAEV-RTIRLLSQEV-GKVERLEDEV-NQVSTNNEKV-DNIADHESEV-NERERVQREV-SMLDTLRSYV-HTVKELKGEV-EEAQSEEVKV-LELCQLSKQV-KKVEQLVSSV-HPCDRSELVV-SKITVLETEV-QRIKLLEAEV-REDMALREQV-HEIVMLNKTV-RKVEKLEAEV-EKVAILKKEV-QEVQRARDDV-SQIQELSVAV-ALIDELHNLV-KRIQELEREV-SQVDKLEHKV-ERIANLESMV-SQLKRLLNEV-ERPLKLEKEV-EAFEHCSAKV-DDIRALNQKV-TKNRILKSEV-REYSELRAEV-ERIQHLDQEV-QAVRHLNEEV-NQVVELQEHV-GQVEELKAEV-ELIERLEKEV-SAVKHLQDEV-HKNSELSEAV,19,29
1,B,10,EKIEVLEKIV-SRLHLLQATV-KENRTLSREV-QETEEFKREV-ERFVALTQQV-AQVNVLIMEV-KEVRELEPEV-AKIKELEEEV-LINQDVKNEV-RDIEFLELKV-AQVETLRSAV-KQVEPLEAEV-QFIRVLRECV-TRVADLNAEV-KRVAELEQDV-ETVRFYNEEV-YVVAKLNNDV-LENQQLWEKV-EKVAELEAYV-IEVKDLNQEV-NQVGTMRFEV-NSIAFLSREV-SEQRELCTEV-HEVSNLHRSV-HKTATLENEV-KRVKELQTLV-FKLMELETEV-NRVGKLEAEV-MRIHQLRQEV-KEVADLTQKV-VECNRLKEDV-NSVRAKSDRV-ATVWTLQQEV-NLVAELNLQV-DKCVELNAEV-NSVMDLKRVV-LAIEKLKQEV-QYVKKLRDQV-KKIEHENIEV-RKIEKLRLKV-AKVAYLKQEV-CRVSALENEV-EECKLLKEEV-RKIKSLEKEV-AKVHELNLCV-NKVKTQSTDV-QEVRFMRDRV-RRQRQQDFKV-AEVQELKEMV-EEVEELKAAV-MKVRKLEARV-ELIGLLRSEV-ELVAQFLDEV-MNVEILETEV-RTVKELEESV-GKCYELTEEV-SKVMLLKEEV-KKETELKRGV-AEIPKLKQDV-KVTVDNHSLV-QEVKLLRQEV-RGVETRDTEV-ARVEELEPHV-KKEEHLNAEV-RTIRLLSQEV-GKVERLEDEV-NQVSTNNEKV-DNIADHESEV-NERERVQREV-SMLDTLRSYV-HTVKELKGEV-EEAQSEEVKV-LELCQLSKQV-KKVEQLVSSV-HPCDRSELVV-SKITVLETEV-QRIKLLEAEV-REDMALREQV-HEIVMLNKTV-RKVEKLEAEV-EKVAILKKEV-QEVQRARDDV-SQIQELSVAV-ALIDELHNLV-KRIQELEREV-SQVDKLEHKV-ERIANLESMV-SQLKRLLNEV-ERPLKLEKEV-EAFEHCSAKV-DDIRALNQKV-TKNRILKSEV-REYSELRAEV-ERIQHLDQEV-QAVRHLNEEV-NQVVELQEHV-GQVEELKAEV-ELIERLEKEV-SAVKHLQDEV-HKNSELSEAV,19,29
