Unnamed: 0,Chain,Length,designed_binder_seq,cs,ce
0,A,10,DVTQYLEDRA-SVDELLDSNA-NLTWELATKA-DFSENIEKDA-SVQDEINAGA-NYKYSLQTGA-NIAKHLKTKA-EIGEALWSKA-PHKNKYQTKA-NVNAAINDHA-SVEEYIETKA-SVKDLLQNKA-DVSPYLETRA-DFSQHPATGA-DVTKQIDSGA-NVTDYLKSGA-KVEQFLKSGA-NVTHYIDMKA-NVSEALETGA-DVRENLHSKA-NVSRHISTGA-FVKSQIQNVA-NVQEWLKIGA-DVEQYLQQKA-DVRQHINSGA-DYQDALDRRA-DFVPLLRTGA-NYTNYIKSGA-NFSQWLDTGA-DITEYLKTKA-GVQGKLKTGA-NVTMYIETGA-PVPQFIQNKA-NVEHELRSKA-NFADNISWRA-DVWPYLKKHA-DVTQSLAQGA-DYREYLSKKA-DFSRYLSEGA-NVEKPLETGA-DVRQWLANGA-NNSHFLTTKA-NIEIWIETHA-DFQDYIQTDA-SVEQHIQTGA-NVREYLTNEA-EFTDFVERHA-DVRQYLETKA-DVMNYLKTGA-DFTTYVENKA-DVCSYKQKGA-DVTRGLDNEA-NFNDYLESGA-SITQQLITKA-NIDEAIEKKA-DATAYLESGA-DVSRWLESKA-DVTKFQEDGA-DFIKFIDSTA-DVRSHLETGA-DISNKTLYRA-LFDSHLQTGA-DITKFLKTDA-SIENYLGSKA-SIQLNLDQRA-DFTNYINQRA-DVRNYLATHA-NVDEWFANKA-EVEQYLQTGA-SVSSELTTGA-KVNKPISQGA-NVPHYLETKA-AVQADIEDKA-SFQKWLKTCA-EYRQYLKIGA-DVQNFEKSRA-EVTGDLVQKA-DLTDALWTRA-NVTLALFAGA-DIELAIQVGA-IAHKYLETKA-NVKRDLDTGA-KVEEDLKTNA-KVTEALHRKA-SVSTEFQRDA-KFNEHISAKA-DIERHINDGA-DVKHKLKLKA-KVTTSLETKA-DITEQCSTQA-NITHHLERHA-NVSNALKTGA-DVREELQKGA-NVDRALEKGA-NVNHFIECHA-DCSSQIKTNA-DVTSFLCDKA-DLTEFLKNSA-SIEDYLDSQA-SVVKNMQTKA,75,85
1,B,10,LARIDLSRDD-LARIDLSRDD-LARIDLSRDD-LARIDLSRDD-LARIDLSRDD-LARIDLSRDD-LARIDLSRDD-LARIDLSRDD-LARIDLSRDD-LARIDLSRDD-LARIDLSRDD-LARIDLSRDD-LARIDLSRDD-LARIDLSRDD-LARIDLSRDD-LARIDLSRDD-LARIDLSRDD-LARIDLSRDD-LARIDLSRDD-LARIDLSRDD-LARIDLSRDD-LARIDLSRDD-LARIDLSRDD-LARIDLSRDD-LARIDLSRDD-LARIDLSRDD-LARIDLSRDD-LARIDLSRDD-LARIDLSRDD-LARIDLSRDD-LARIDLSRDD-LARIDLSRDD-LARIDLSRDD-LARIDLSRDD-LARIDLSRDD-LARIDLSRDD-LARIDLSRDD-LARIDLSRDD-LARIDLSRDD-LARIDLSRDD-LARIDLSRDD-LARIDLSRDD-LARIDLSRDD-LARIDLSRDD-LARIDLSRDD-LARIDLSRDD-LARIDLSRDD-LARIDLSRDD-LARIDLSRDD-LARIDLSRDD-LARIDLSRDD-LARIDLSRDD-LARIDLSRDD-LARIDLSRDD-LARIDLSRDD-LARIDLSRDD-LARIDLSRDD-LARIDLSRDD-LARIDLSRDD-LARIDLSRDD-LARIDLSRDD-LARIDLSRDD-LARIDLSRDD-LARIDLSRDD-LARIDLSRDD-LARIDLSRDD-LARIDLSRDD-LARIDLSRDD-LARIDLSRDD-LARIDLSRDD-LARIDLSRDD-LARIDLSRDD-LARIDLSRDD-LARIDLSRDD-LARIDLSRDD-LARIDLSRDD-LARIDLSRDD-LARIDLSRDD-LARIDLSRDD-LARIDLSRDD-LARIDLSRDD-LARIDLSRDD-LARIDLSRDD-LARIDLSRDD-LARIDLSRDD-LARIDLSRDD-LARIDLSRDD-LARIDLSRDD-LARIDLSRDD-LARIDLSRDD-LARIDLSRDD-LARIDLSRDD-LARIDLSRDD-LARIDLSRDD-LARIDLSRDD-LARIDLSRDD-LARIDLSRDD-LARIDLSRDD-LARIDLSRDD-LARIDLSRDD,1,11
