Unnamed: 0,Chain,Length,designed_binder_seq,cs,ce
0,A,10,IEANLETLKH-ITVQMQTRKH-RLAQLCTGTH-TMAQMETSKH-IHCQLDTGKH-IYAQLDTDKH-IKASLATGKH-SWCQLETDAH-IIAQLETGKH-LNAQLSTGKH-IETHLSTGKH-EKVRLQTNKH-IYTQLSTESH-NHAMLMTGKH-IKAALATNYH-LMAQLETGKH-MKAANETNCH-VLCQLMTKRH-LNVMLSTQSH-IQAQLATKRH-IMVSLETHKH-NSASLDTNAH-ISTQLETNRH-IFAKLETNKH-QHAQLKTGKH-IDAMLETMSH-FRAMLSTGKH-LHAMLDTNKH-IAVELSTLRH-IEATLDTNAH-IKAQLATDAH-TLCQEETNTH-KITQLSTGKH-VRAELETNAH-LDAQLKTDVH-IGVGLATKGH-INAELKTSKH-IAAELETRGH-IEVQLETEVH-INAQLQTHAH-AEAQLETNRH-LKTMLDTMKH-LQTQCSTKKH-VEAQLATEKH-IMYQLSTDKH-IPCQLSTDAH-IETQLSTGCH-ILAQIKTGKH-ILAELKTNVH-IKAQLETGAH-IQAELETGKH-VDVQLYHRKH-FGTMMSTGKH-MSVQLDTNKH-VNAQLETKKH-MTAALSTIKH-SILSLKTRRH-VGAGHKTHYH-INCILNTDKH-IGAQNSTNKH-IRTQLSTFAH-KRVQLETHTH-KFCELGTNAH-IKSQLCTKIH-IQAQLDTNSH-IKASLSDKTH-IRAMLKTKKH-LKAQLATKAH-IEASLETFHH-IQAKLSTIKH-IKARLMTNAH-ILAQLSTTKH-RKTMLETNSH-IKTGLLTKPH-LRAKLTTGGH-VQLQMKTGKH-IVAQMETMSH-LLAQLETNRH-IAEALKTKHH-LKAQMQTSSH-VKAQLKTNRH-AKAMLKTRKH-IMASLSTHHH-LEAELETDKH-MKTQMRTNCH-NKVKLSTGKH-SQVQLLTQKH-QKAMMSRNKH-IKNALTLGKH-IKAKLSTGKH-IGVQLNTHPH-INACLETQQH-LEAQLNTSHH-LLAQLSTNKH-IEAQLETNKH-GKAQLDTMNH-IMAMLATNKH-LFAQIGTNKH-LKAELSTPAH-IKTNNDTWKH,182,192
1,B,10,MASIAIKKLK-MASIAIKKLK-MASIAIKKLK-MASIAIKKLK-MASIAIKKLK-MASIAIKKLK-MASIAIKKLK-MASIAIKKLK-MASIAIKKLK-MASIAIKKLK-MASIAIKKLK-MASIAIKKLK-MASIAIKKLK-MASIAIKKLK-MASIAIKKLK-MASIAIKKLK-MASIAIKKLK-MASIAIKKLK-MASIAIKKLK-MASIAIKKLK-MASIAIKKLK-MASIAIKKLK-MASIAIKKLK-MASIAIKKLK-MASIAIKKLK-MASIAIKKLK-MASIAIKKLK-MASIAIKKLK-MASIAIKKLK-MASIAIKKLK-MASIAIKKLK-MASIAIKKLK-MASIAIKKLK-MASIAIKKLK-MASIAIKKLK-MASIAIKKLK-MASIAIKKLK-MASIAIKKLK-MASIAIKKLK-MASIAIKKLK-MASIAIKKLK-MASIAIKKLK-MASIAIKKLK-MASIAIKKLK-MASIAIKKLK-MASIAIKKLK-MASIAIKKLK-MASIAIKKLK-MASIAIKKLK-MASIAIKKLK-MASIAIKKLK-MASIAIKKLK-MASIAIKKLK-MASIAIKKLK-MASIAIKKLK-MASIAIKKLK-MASIAIKKLK-MASIAIKKLK-MASIAIKKLK-MASIAIKKLK-MASIAIKKLK-MASIAIKKLK-MASIAIKKLK-MASIAIKKLK-MASIAIKKLK-MASIAIKKLK-MASIAIKKLK-MASIAIKKLK-MASIAIKKLK-MASIAIKKLK-MASIAIKKLK-MASIAIKKLK-MASIAIKKLK-MASIAIKKLK-MASIAIKKLK-MASIAIKKLK-MASIAIKKLK-MASIAIKKLK-MASIAIKKLK-MASIAIKKLK-MASIAIKKLK-MASIAIKKLK-MASIAIKKLK-MASIAIKKLK-MASIAIKKLK-MASIAIKKLK-MASIAIKKLK-MASIAIKKLK-MASIAIKKLK-MASIAIKKLK-MASIAIKKLK-MASIAIKKLK-MASIAIKKLK-MASIAIKKLK-MASIAIKKLK-MASIAIKKLK-MASIAIKKLK-MASIAIKKLK-MASIAIKKLK-MASIAIKKLK,114,124
