Unnamed: 0,Chain,Length,designed_binder_seq,cs,ce
0,A,10,YHIYKYHLCI-YLIQKYNILI-FLIHKVDYLI-YYIERYYIEI-FWSDLYHILI-YRVNRLDVLI-YYIQRFYILI-FLINRYYWEI-YMISRLHLLI-YLTERFDILI-YLIKRFNISI-YLIDRSHLMI-YLIERYDILI-HHIKRYHILI-YLPKRYHILI-YNVSRYDKLI-YLMKFYHLLI-FHWEMYIILI-YMIHRYHILI-YNIYRWHVLI-YHNINYKISI-YKIHRMHELI-YLVKKYHILI-YLTERFYLLI-FLPHRFHLLI-TRIKRYPIII-YLINRFDIMI-YHIDKYYILI-YRISRYDILI-YLINRYYILI-YRSRRYDIMI-YHINRYNIWI-FLLDRYWILI-FEIKRLHILI-YLISRFNQTI-YLIERRDILI-YKCGKLYILI-FKIERWHIMI-VRVDKFNVLI-YQIHRYDILI-FLIRKLNLLI-YLVEKYHMLI-YLVGRFNILI-YFPEKYHILI-FQINRLAVLI-HLPKKLNCLI-YLIGRYDILI-YLVSRMHLLI-FHIERYYILI-YLINRYHILI-FNNSRYDILI-YLVKRYFILI-YLINKYHIMI-YHVGKYYILI-MYVKRYNILI-FLMRKYNILI-FLIHRDHILI-FEIMRFYIMI-YLIDRYDILI-FLTRKFYLLI-YLIKRYHILI-VLDSRYNILI-YLTQRLHIMI-YLIRKYHILI-YLIRRYSILI-YQTNRHWVCI-YRTGRYFIHI-YLINRYDILI-FLCGRLHILI-FLIGRFDILI-FKVKRYHVLI-YLVEKYDVLI-PLIERYHIYI-YLIQQDHILI-YLVNQYHNLI-YKIGKTYLLI-YLIQRYNILI-YTIKRYYILI-FLCKKYYILI-HLVQRYNILI-YLVKRYHIAI-YLCERHHILI-MLINKLSISI-WRVGKLHILI-YYINRHHIMI-YLVHRWDILI-YLIGEYHILI-YQVHRLDILI-YLVKRHYILI-FLWGRDYIKI-YKVKKFHHLI-YIIKRYDILI-YLVERYNLLI-YEVKRFWIAI-YHIGRLDILI-FMVGRYNILI-FTIKRYHLLI-YWINKMHILI-YNLHRFHILI-FIIDVYNILI,65,75
1,B,10,VCAQINKSLL-VCAQINKSLL-VCAQINKSLL-VCAQINKSLL-VCAQINKSLL-VCAQINKSLL-VCAQINKSLL-VCAQINKSLL-VCAQINKSLL-VCAQINKSLL-VCAQINKSLL-VCAQINKSLL-VCAQINKSLL-VCAQINKSLL-VCAQINKSLL-VCAQINKSLL-VCAQINKSLL-VCAQINKSLL-VCAQINKSLL-VCAQINKSLL-VCAQINKSLL-VCAQINKSLL-VCAQINKSLL-VCAQINKSLL-VCAQINKSLL-VCAQINKSLL-VCAQINKSLL-VCAQINKSLL-VCAQINKSLL-VCAQINKSLL-VCAQINKSLL-VCAQINKSLL-VCAQINKSLL-VCAQINKSLL-VCAQINKSLL-VCAQINKSLL-VCAQINKSLL-VCAQINKSLL-VCAQINKSLL-VCAQINKSLL-VCAQINKSLL-VCAQINKSLL-VCAQINKSLL-VCAQINKSLL-VCAQINKSLL-VCAQINKSLL-VCAQINKSLL-VCAQINKSLL-VCAQINKSLL-VCAQINKSLL-VCAQINKSLL-VCAQINKSLL-VCAQINKSLL-VCAQINKSLL-VCAQINKSLL-VCAQINKSLL-VCAQINKSLL-VCAQINKSLL-VCAQINKSLL-VCAQINKSLL-VCAQINKSLL-VCAQINKSLL-VCAQINKSLL-VCAQINKSLL-VCAQINKSLL-VCAQINKSLL-VCAQINKSLL-VCAQINKSLL-VCAQINKSLL-VCAQINKSLL-VCAQINKSLL-VCAQINKSLL-VCAQINKSLL-VCAQINKSLL-VCAQINKSLL-VCAQINKSLL-VCAQINKSLL-VCAQINKSLL-VCAQINKSLL-VCAQINKSLL-VCAQINKSLL-VCAQINKSLL-VCAQINKSLL-VCAQINKSLL-VCAQINKSLL-VCAQINKSLL-VCAQINKSLL-VCAQINKSLL-VCAQINKSLL-VCAQINKSLL-VCAQINKSLL-VCAQINKSLL-VCAQINKSLL-VCAQINKSLL-VCAQINKSLL-VCAQINKSLL-VCAQINKSLL-VCAQINKSLL-VCAQINKSLL-VCAQINKSLL,161,171
