,Chain,Length,designed_binder_seq
0,A,10,QITKADATML-RAYAVYHRWL-KLDKSLFLNL-VAMAAHNRAL-KCQCSYLKAL-KVANAMLKIL-ARSAAYNRSL-DATNVYMRSL-RMMLSNVHSL-AEKNAAMLSL-NVIHAHLSAL-IMSYSTIKSL-VSLKSHIAAL-FMDLWNPMGL-TRLDADDMAL-KIEYVALLNL-KQLNAFLKEL-KVERANLKEL-RRLRAAQEML-RQLRALLGAL-AVLHAGIYDL-RCKWANYRDL-RVNKACIAVL-EQIKNYLGIL-KMRVSFNGAL-KHRVAIRHFL-VGGQAFKEAL-RITKACHKNL-RVADALEELL-RVVASALTRL-IVLRTYMEAL-KKHSAPISVL-GIPVFRWNVL-QAQSSFLYCL-KAWQAFAKSL-KAADAYSTAL-KNLRLLGQML-RVAKAFKEIL-DAVNAGVTLL-LIRRAAMSAL-DIKRAINSSL-RVSQQYGEAL-NMLAAWLESL-KMLQCYSAEL-LRVRAFYVNL-IAHRAFRRAL-LLPLALISVL-VAMGAFTDGL-RSRQALYNSL-EPIEAYYRFL-KRILMYLRSL-AVIESFLTGL-EKMKMFRECL-RVQDAFSRGL-RMTEAFNRML-RMSPAILKSL-CLEQAARRCL-IMARSLIKFL-QLEQAATTGL-DIEIALQRGL-LTFRVLLKRL-NAANAFIASL-KSQKAFLNGL-GQYQTRHERL-NIIKAMVNAL-RRAQCLKKAL-VCAQIFTRAL-AQNKVVKRVL-RVTMAFQRSL-SSTAAGEFAL-KVESTLQISL-KAQEAMIRSL-SFNASTAAHL-RNTAAVLKML-QLAQAYNVVL-EDTIAHCVAL-AIDYYHYKAL-NVNNAYLSGL-RVKHCFLRCL-VFRSAFIDSL-EEDFMILSDL-FLRKAFMFSL-VLTKAFIASL-RFDQALLCAL-EVGAAFDDAL-KANEAFQQVL-ASFTAFAESL-KAQDAFLDSL-RKNLAFFLNL-RVRKFCQATL-AMENSLKRAL-TQQQAYLEAL-DQDKSMLDQL-RKQNAFLSQL-NVVDAPKEAL-LVDAAYQRAL-INFHSYHKAL-EARAAINGTL-TVMKAHLQAL-VVRLAGYKCL
1,B,10,ARIEEEMNQY-ARIEEEMNQY-ARIEEEMNQY-ARIEEEMNQY-ARIEEEMNQY-ARIEEEMNQY-ARIEEEMNQY-ARIEEEMNQY-ARIEEEMNQY-ARIEEEMNQY-ARIEEEMNQY-ARIEEEMNQY-ARIEEEMNQY-ARIEEEMNQY-ARIEEEMNQY-ARIEEEMNQY-ARIEEEMNQY-ARIEEEMNQY-ARIEEEMNQY-ARIEEEMNQY-ARIEEEMNQY-ARIEEEMNQY-ARIEEEMNQY-ARIEEEMNQY-ARIEEEMNQY-ARIEEEMNQY-ARIEEEMNQY-ARIEEEMNQY-ARIEEEMNQY-ARIEEEMNQY-ARIEEEMNQY-ARIEEEMNQY-ARIEEEMNQY-ARIEEEMNQY-ARIEEEMNQY-ARIEEEMNQY-ARIEEEMNQY-ARIEEEMNQY-ARIEEEMNQY-ARIEEEMNQY-ARIEEEMNQY-ARIEEEMNQY-ARIEEEMNQY-ARIEEEMNQY-ARIEEEMNQY-ARIEEEMNQY-ARIEEEMNQY-ARIEEEMNQY-ARIEEEMNQY-ARIEEEMNQY-ARIEEEMNQY-ARIEEEMNQY-ARIEEEMNQY-ARIEEEMNQY-ARIEEEMNQY-ARIEEEMNQY-ARIEEEMNQY-ARIEEEMNQY-ARIEEEMNQY-ARIEEEMNQY-ARIEEEMNQY-ARIEEEMNQY-ARIEEEMNQY-ARIEEEMNQY-ARIEEEMNQY-ARIEEEMNQY-ARIEEEMNQY-ARIEEEMNQY-ARIEEEMNQY-ARIEEEMNQY-ARIEEEMNQY-ARIEEEMNQY-ARIEEEMNQY-ARIEEEMNQY-ARIEEEMNQY-ARIEEEMNQY-ARIEEEMNQY-ARIEEEMNQY-ARIEEEMNQY-ARIEEEMNQY-ARIEEEMNQY-ARIEEEMNQY-ARIEEEMNQY-ARIEEEMNQY-ARIEEEMNQY-ARIEEEMNQY-ARIEEEMNQY-ARIEEEMNQY-ARIEEEMNQY-ARIEEEMNQY-ARIEEEMNQY-ARIEEEMNQY-ARIEEEMNQY-ARIEEEMNQY-ARIEEEMNQY-ARIEEEMNQY-ARIEEEMNQY-ARIEEEMNQY-ARIEEEMNQY-ARIEEEMNQY
