,Chain,Length,designed_binder_seq
0,A,10,---------------------------------------------------------------------------------------------------
1,B,10,RPATLQVYNP-RPATLWDTYP-RPATLRDWYP-RPATLWVHYP-RPATLFDCYP-RPATLWANYP-RPATLFDCYP-RPATLWDWYP-RPATLWDAYP-RPATLFDWYP-RPATLWCRYA-RPATLWDHYP-RPATLYDFYP-RPATLWDNFP-RPATLYDYYP-RPATLFDYYP-RPATLYDFFP-RPATLYDRYP-RPATLWDCYP-RPATLWDQYP-RPATLFQRYL-RPATLWDLFP-RPATLWDMYP-RPATLWDNYP-RPATLAMFYP-RPATLYDMYP-RPATLWDFYP-RPATLKDWYP-RPATLWDAYP-RPATLWDKWP-RPATLMCCYP-RPATLDYHYP-RPATLYYSYP-RPATLWDSYP-RPATLWDCYP-RPATLWDDYP-RPATLEDMKP-RPATLWDRYP-RPATLWLMYP-RPATLWNCIP-RPATLWIHYP-RPATLWDHYP-RPATLWDHYP-RPATLWDIWP-RPATLWDMWP-RPATLWVYAP-RPATLSLMYK-RPATLWDAVP-RPATLRDEFP-RPATLWNFYP-RPATLWDWYP-RPATLWDFFG-RPATLALFYP-RPATLIDYNP-RPATLWDNYP-RPATLWLQYP-RPATLWDYKP-RPATLWDMYW-RPATLWDDVP-RPATLMDLYP-RPATLFDFYC-RPATLAVNYP-RPATLYDCYP-RPATLWVAYP-RPATLRDTYP-RPATLDVFYP-RPATLWDDYP-RPATLYDDYP-RPATLWCHYP-RPATLWDFYP-RPATLFDRYP-RPATLWDDYI-RPATLWDSFP-RPATLWTAYP-RPATLWDYYP-RPATLFDWYP-RPATLWDMYP-RPATLHDKYP-RPATLCDWYP-RPATLWDMYP-RPATLWDFFP-RPATLYDMWP-RPATLVQCYF-RPATLFDEYP-RPATLWDHYP-RPATLWDCFY-RPATLWDRYP-RPATLFDIYP-RPATLFFLYP-RPATLWVAAP-RPATLFDFIP-RPATLFDMYP-RPATLWDYYP-RPATLLDMYP-RPATLWDSFP-RPATLWDRFP-RPATLWDTFP-RPATLWDTYP-RPATLWDHYP-RPATLWDMYP
