Unnamed: 0,Chain,Length,designed_binder_seq,cs,ce
0,A,10,APVDQLHQLA-ETPRILTHLA-RPNGLLEELA-RICEILEELA-TPIEIMEHLA-DPVELLTELA-PKQQLLEELA-PTTQILKELA-STLWILEALA-FVTELLAALA-PSTALLTQMA-KAESVLDHLA-PTVEILHHLA-NSVELLAELA-NPPEVLQELA-PEEELLAHLA-TVSKVLIYMA-PTNVLLEELA-PCVQDLNALA-RSTDLLEHLA-PTPDILQELA-DSTDLLEHLA-RAVDLLERLA-PTNKLLEQLA-LKTRKLEHLA-HPTRLLEELA-PAVNILNALA-PPVNIHDALA-PVRAILYHLA-SMNSLLMALA-DPVAILRQLA-ATTTVLAHLA-LPVQIIQEIA-GTTARLGHLA-KMPEILAELA-CAVDIPHHLA-PVVRILENLA-APIEILRRIA-IRVDVLKELA-RSEKLLRHLA-PSTDLLAHLA-PVAEVLRDLA-PVTQLLGQLA-PVTAVLGQLA-KCPDLLYELA-PRPKLLAELA-QLVEILEHLA-PSVKVLDDMA-SAKSTLANLA-PYYDVLTHIA-HTVELLGQCA-PVRDLLDHLA-SASRMQDMLA-DQCEILEELA-AMNSILRHLA-PPVDILDHLA-PADRLLASIA-RTTDELKHLA-QSPPLLAGLA-PVVDILLRIA-PVKALMDHLA-DKMQPLRGLA-PTVTLLQHMA-PRMTILDHLA-PTIELLAVLA-PTCTLLWALA-PITTILHNLA-ADVEILDEIA-KHVRLLEDLA-PVTELLAHLA-PTTELLDHLA-DPAKLLEKLA-TPVELLAQLA-PTVSILEEIA-PTRIILEEIA-DVCGVLRDLA-PTVDLLEELA-KPVLIQDHIA-PTISLLGKLA-PTVNLLNHLA-PVNWLLEQLA-RPTELLERVA-PTVALLEHLA-PCNLLLEALA-PPLEIMRFLA-DALTLLAHSA-PATGILQELA-QPVDLLRHLA-PTANVHTAPA-ADTVALRELA-DAVRLLTELA-PKIDITDHLA-SATEVLKHLA-EPTAILWHLA-RPVTLLDQLA-EQNELLEELA-PVVNILQHLA-PVVRLLENLA-EPVMLSDHGA-GPNEALAALA,30,40
1,B,10,DQLHQLAAVR-RILTHLAAVR-GLLEELAAVR-EILEELAAVR-EIMEHLAAVR-ELLTELAAVR-QLLEELAAVR-QILKELAAVR-WILEALAAVR-ELLAALAAVR-ALLTQMAAVR-SVLDHLAAVR-EILHHLAAVR-ELLAELAAVR-EVLQELAAVR-ELLAHLAAVR-KVLIYMAAVR-VLLEELAAVR-QDLNALAAVR-DLLEHLAAVR-DILQELAAVR-DLLEHLAAVR-DLLERLAAVR-KLLEQLAAVR-RKLEHLAAVR-RLLEELAAVR-NILNALAAVR-NIHDALAAVR-AILYHLAAVR-SLLMALAAVR-AILRQLAAVR-TVLAHLAAVR-QIIQEIAAVR-ARLGHLAAVR-EILAELAAVR-DIPHHLAAVR-RILENLAAVR-EILRRIAAVR-DVLKELAAVR-KLLRHLAAVR-DLLAHLAAVR-EVLRDLAAVR-QLLGQLAAVR-AVLGQLAAVR-DLLYELAAVR-KLLAELAAVR-EILEHLAAVR-KVLDDMAAVR-STLANLAAVR-DVLTHIAAVR-ELLGQCAAVR-DLLDHLAAVR-RMQDMLAAVR-EILEELAAVR-SILRHLAAVR-DILDHLAAVR-RLLASIAAVR-DELKHLAAVR-PLLAGLAAVR-DILLRIAAVR-ALMDHLAAVR-QPLRGLAAVR-TLLQHMAAVR-TILDHLAAVR-ELLAVLAAVR-TLLWALAAVR-TILHNLAAVR-EILDEIAAVR-RLLEDLAAVR-ELLAHLAAVR-ELLDHLAAVR-KLLEKLAAVR-ELLAQLAAVR-SILEEIAAVR-IILEEIAAVR-GVLRDLAAVR-DLLEELAAVR-LIQDHIAAVR-SLLGKLAAVR-NLLNHLAAVR-WLLEQLAAVR-ELLERVAAVR-ALLEHLAAVR-LLLEALAAVR-EIMRFLAAVR-TLLAHSAAVR-GILQELAAVR-DLLRHLAAVR-NVHTAPAAVR-VALRELAAVR-RLLTELAAVR-DITDHLAAVR-EVLKHLAAVR-AILWHLAAVR-TLLDQLAAVR-ELLEELAAVR-NILQHLAAVR-RLLENLAAVR-MLSDHGAAVR-EALAALAAVR,33,43
