Unnamed: 0,Chain,Length,designed_binder_seq,cs,ce
0,A,10,XXXXXXXXXX-XXXXXXXXXX-XXXXXXXXXX-XXXXXXXXXX-XXXXXXXXXX-XXXXXXXXXX-XXXXXXXXXX-XXXXXXXXXX-XXXXXXXXXX-XXXXXXXXXX-XXXXXXXXXX-XXXXXXXXXX-XXXXXXXXXX-XXXXXXXXXX-XXXXXXXXXX-XXXXXXXXXX-XXXXXXXXXX-XXXXXXXXXX-XXXXXXXXXX-XXXXXXXXXX-XXXXXXXXXX-XXXXXXXXXX-XXXXXXXXXX-XXXXXXXXXX-XXXXXXXXXX-XXXXXXXXXX-XXXXXXXXXX-XXXXXXXXXX-XXXXXXXXXX-XXXXXXXXXX-XXXXXXXXXX-XXXXXXXXXX-XXXXXXXXXX-XXXXXXXXXX-XXXXXXXXXX-XXXXXXXXXX-XXXXXXXXXX-XXXXXXXXXX-XXXXXXXXXX-XXXXXXXXXX-XXXXXXXXXX-XXXXXXXXXX-XXXXXXXXXX-XXXXXXXXXX-XXXXXXXXXX-XXXXXXXXXX-XXXXXXXXXX-XXXXXXXXXX-XXXXXXXXXX-XXXXXXXXXX-XXXXXXXXXX-XXXXXXXXXX-XXXXXXXXXX-XXXXXXXXXX-XXXXXXXXXX-XXXXXXXXXX-XXXXXXXXXX-XXXXXXXXXX-XXXXXXXXXX-XXXXXXXXXX-XXXXXXXXXX-XXXXXXXXXX-XXXXXXXXXX-XXXXXXXXXX-XXXXXXXXXX-XXXXXXXXXX-XXXXXXXXXX-XXXXXXXXXX-XXXXXXXXXX-XXXXXXXXXX-XXXXXXXXXX-XXXXXXXXXX-XXXXXXXXXX-XXXXXXXXXX-XXXXXXXXXX-XXXXXXXXXX-XXXXXXXXXX-XXXXXXXXXX-XXXXXXXXXX-XXXXXXXXXX-XXXXXXXXXX-XXXXXXXXXX-XXXXXXXXXX-XXXXXXXXXX-XXXXXXXXXX-XXXXXXXXXX-XXXXXXXXXX-XXXXXXXXXX-XXXXXXXXXX-XXXXXXXXXX-XXXXXXXXXX-XXXXXXXXXX-XXXXXXXXXX-XXXXXXXXXX-XXXXXXXXXX-XXXXXXXXXX-XXXXXXXXXX-XXXXXXXXXX-XXXXXXXXXX-XXXXXXXXXX,62,72
1,B,10,XMPNENQSIR-XMPNENQSIR-XMPNENQSIR-XMPNENQSIR-XMPNENQSIR-XMPNENQSIR-XMPNENQSIR-XMPNENQSIR-XMPNENQSIR-XMPNENQSIR-XMPNENQSIR-XMPNENQSIR-XMPNENQSIR-XMPNENQSIR-XMPNENQSIR-XMPNENQSIR-XMPNENQSIR-XMPNENQSIR-XMPNENQSIR-XMPNENQSIR-XMPNENQSIR-XMPNENQSIR-XMPNENQSIR-XMPNENQSIR-XMPNENQSIR-XMPNENQSIR-XMPNENQSIR-XMPNENQSIR-XMPNENQSIR-XMPNENQSIR-XMPNENQSIR-XMPNENQSIR-XMPNENQSIR-XMPNENQSIR-XMPNENQSIR-XMPNENQSIR-XMPNENQSIR-XMPNENQSIR-XMPNENQSIR-XMPNENQSIR-XMPNENQSIR-XMPNENQSIR-XMPNENQSIR-XMPNENQSIR-XMPNENQSIR-XMPNENQSIR-XMPNENQSIR-XMPNENQSIR-XMPNENQSIR-XMPNENQSIR-XMPNENQSIR-XMPNENQSIR-XMPNENQSIR-XMPNENQSIR-XMPNENQSIR-XMPNENQSIR-XMPNENQSIR-XMPNENQSIR-XMPNENQSIR-XMPNENQSIR-XMPNENQSIR-XMPNENQSIR-XMPNENQSIR-XMPNENQSIR-XMPNENQSIR-XMPNENQSIR-XMPNENQSIR-XMPNENQSIR-XMPNENQSIR-XMPNENQSIR-XMPNENQSIR-XMPNENQSIR-XMPNENQSIR-XMPNENQSIR-XMPNENQSIR-XMPNENQSIR-XMPNENQSIR-XMPNENQSIR-XMPNENQSIR-XMPNENQSIR-XMPNENQSIR-XMPNENQSIR-XMPNENQSIR-XMPNENQSIR-XMPNENQSIR-XMPNENQSIR-XMPNENQSIR-XMPNENQSIR-XMPNENQSIR-XMPNENQSIR-XMPNENQSIR-XMPNENQSIR-XMPNENQSIR-XMPNENQSIR-XMPNENQSIR-XMPNENQSIR-XMPNENQSIR-XMPNENQSIR-XMPNENQSIR-XMPNENQSIR,71,81
