Unnamed: 0,Chain,Length,designed_binder_seq,cs,ce
0,A,10,VHPEQVRAGA-ASEDQVRAAA-ILPEQIRAGA-IKPRQAQAAA-AYPSAIRAAA-AKPQEITAAA-AYPREIAAAA-FLYEQYRADA-AHPRALRAAA-AFPEAVRAGA-SLPAAIVIAA-AHPRTIRAAA-AFPRQIHAAA-IRPDAIKAAA-AHLAAIRAAA-VPADQIDAAA-CFPEQIEAAA-FLPAQCLAAA-VHPAQLLAAA-WLPEAINAAA-ALPSAIQAAA-TLSKQIDAEA-WHPVQLAAAA-HKQTQVNSAA-ALPRAIRAAA-VREQQLRAAA-ALPVQLFAAA-VLPEQIKMWA-TLPVQIQAAA-VYPAQVAAAA-SYPSEIRAAA-LRPEQAAAAA-CRPSAVEEAA-TRPDQIKAIA-WYPDAAIAAA-ATPTQLAAAA-CLPQALHAAA-VRPCQLVAAA-GRPSAYKAAA-QLPAVSTAAA-VLPTNMRNGA-RLPEAIVAAA-TLPTQLKAAA-TLPSVVEAAA-TRPEYIRAAA-ALPVQAAAAA-ITPEEPRAAA-TPPAAVVAAA-WLPEQHTACA-SRPEQIRAAA-THPSCVVAAA-VSPSQVKWGA-AKPAALRAAA-FYPESIFAAA-TLPATLTAAA-ALPEQLEAAA-IFPTECRAAA-WLPAIIRAAA-ALPAVVVAAA-ALPVQIKAAA-TYPHQIPAAA-VGPEQIAAAA-IQTQQQRAAA-VHPQAVRWAA-ALPHQVKAEA-FLPTQEIAAA-ARPEDIKAAA-AVPEQVRAGA-FLPDQIEAAA-AHVDATKAAA-RHPAQTRRAA-APQEAVNTAA-ALPQAIQAAA-FFEAQRWAAA-AQSEAIQAAA-ARDAGISAAA-TTPKQVKANA-NHSQQAKAAA-WHIKTITAAA-VLPFQVKAAA-SAPVEIISAA-TTFDAVLQAA-ARPAEIQIEA-FYPSFIQAAA-NRPQEVHAAA-THPWQIFKAA-AWPEQVQAAA-SKNGQIKAAA-GLPVEPRAAA-TRPRQVEAAA-TLPQQITAAA-QLPWEIRAAA-KKPQTIAAAA-ALPQERAAAA-ARPEEIRAAA-ATQPQAEDAA-HAPRENRAAA-TLPQEVRAGA-TLPQELLAGA-CWPTEINAAA,108,118
1,B,10,VHPEQVRAGA-ASEDQVRAAA-ILPEQIRAGA-IKPRQAQAAA-AYPSAIRAAA-AKPQEITAAA-AYPREIAAAA-FLYEQYRADA-AHPRALRAAA-AFPEAVRAGA-SLPAAIVIAA-AHPRTIRAAA-AFPRQIHAAA-IRPDAIKAAA-AHLAAIRAAA-VPADQIDAAA-CFPEQIEAAA-FLPAQCLAAA-VHPAQLLAAA-WLPEAINAAA-ALPSAIQAAA-TLSKQIDAEA-WHPVQLAAAA-HKQTQVNSAA-ALPRAIRAAA-VREQQLRAAA-ALPVQLFAAA-VLPEQIKMWA-TLPVQIQAAA-VYPAQVAAAA-SYPSEIRAAA-LRPEQAAAAA-CRPSAVEEAA-TRPDQIKAIA-WYPDAAIAAA-ATPTQLAAAA-CLPQALHAAA-VRPCQLVAAA-GRPSAYKAAA-QLPAVSTAAA-VLPTNMRNGA-RLPEAIVAAA-TLPTQLKAAA-TLPSVVEAAA-TRPEYIRAAA-ALPVQAAAAA-ITPEEPRAAA-TPPAAVVAAA-WLPEQHTACA-SRPEQIRAAA-THPSCVVAAA-VSPSQVKWGA-AKPAALRAAA-FYPESIFAAA-TLPATLTAAA-ALPEQLEAAA-IFPTECRAAA-WLPAIIRAAA-ALPAVVVAAA-ALPVQIKAAA-TYPHQIPAAA-VGPEQIAAAA-IQTQQQRAAA-VHPQAVRWAA-ALPHQVKAEA-FLPTQEIAAA-ARPEDIKAAA-AVPEQVRAGA-FLPDQIEAAA-AHVDATKAAA-RHPAQTRRAA-APQEAVNTAA-ALPQAIQAAA-FFEAQRWAAA-AQSEAIQAAA-ARDAGISAAA-TTPKQVKANA-NHSQQAKAAA-WHIKTITAAA-VLPFQVKAAA-SAPVEIISAA-TTFDAVLQAA-ARPAEIQIEA-FYPSFIQAAA-NRPQEVHAAA-THPWQIFKAA-AWPEQVQAAA-SKNGQIKAAA-GLPVEPRAAA-TRPRQVEAAA-TLPQQITAAA-QLPWEIRAAA-KKPQTIAAAA-ALPQERAAAA-ARPEEIRAAA-ATQPQAEDAA-HAPRENRAAA-TLPQEVRAGA-TLPQELLAGA-CWPTEINAAA,108,118
