Unnamed: 0,Chain,Length,designed_binder_seq,cs,ce
0,A,10,INAIKVEEAL-LQKAQTVLGL-LGQAETVEAL-IENATTIIAL-ILTAEEIQAL-LNTSETVVAL-IETAETIMAL-LRNCEVVQAL-LTSAEAVNAL-LQTAPEVRAL-IHISESVIAL-IWYAETIEAL-LEGSEQIIAL-IDSAEEILAL-LRMAETINAL-KHTALAIEAL-LQVAGTIHAL-IQYAGSINLL-PQCSVGVDAL-LSNAETVHAL-LRGSETVAAL-LGTSSTIEAL-LMSSEAIVAL-NLYSETIDAL-IMYSEMILAL-IDHAEEVQAL-IVSAEQIMAL-ILNAETVMEL-LLNSHTIVAL-LVNAQTIHAL-LRSASAIMAL-IENGETISAL-LMNSVTMEAL-LESAEAIEAL-LEIAHTIRAL-IVSCECTEAL-IFCSVHVVPL-LAIAKVIRGL-LEAAEAIVGL-LKYADTIEAL-LENAFQKTAL-LKASEVIKAL-IFSAYEVCAL-IQNSETYRAL-LENAETIEAL-LRIAEEIEAL-LNHSEDILAL-LRSAYAIQAL-LGVARNVIAL-LESSVFVMSL-LENAQEIQGL-IENAETIPAL-LCFSETVRAL-LRWRETVSAL-IQYAQEVHAL-ETSAEAIISL-IDVAEVMSAL-IQNSESIFAL-ISCAEVITAL-LIVSECVQAL-INNAASIENL-LNHSQSIQAL-LQNSTVINAL-LLTASAVLAL-LEVSEEKIKL-LGNSEEILAL-ITGAEWVYAL-IREAESIEAL-ITKSDAKLAL-LEKEYAISAL-IQAAETILAL-LRNSEAVEAL-LKYSEMIEAL-LNFSETIWAL-IYVSEAIHAL-MDIASTVHAL-LQAAETIHAL-LAYAEAIEAL-LQSSEVVEAL-LRIVEWCEAL-MLSSETIEAL-ILHAEAVAAL-IQTSIAVEAL-FRSSDTILAL-ILRAEEIEAL-LQSAIVLNAL-INVAHSIWAL-ITTSSQIIAL-LSTSEEIEAL-LANAEAIEAL-LQKATTIEAL-LTAAETIQSL-IDHSEAIQSL-GRVPDAISAL-LISSEHIEAL-IQSSRLIRAL-IVSANEVKAL-VLVADTVKSL-LNSSETIAAL-IQSAESIISL,191,201
1,B,10,SINAIKVEEA-SLQKAQTVLG-SLGQAETVEA-LIENATTIIA-SILTAEEIQA-CLNTSETVVA-NIETAETIMA-HLRNCEVVQA-CLTSAEAVNA-ALQTAPEVRA-AIHISESVIA-NIWYAETIEA-CLEGSEQIIA-AIDSAEEILA-TLRMAETINA-TKHTALAIEA-ALQVAGTIHA-CIQYAGSINL-APQCSVGVDA-TLSNAETVHA-ALRGSETVAA-CLGTSSTIEA-SLMSSEAIVA-ANLYSETIDA-SIMYSEMILA-SIDHAEEVQA-SIVSAEQIMA-TILNAETVME-SLLNSHTIVA-CLVNAQTIHA-CLRSASAIMA-AIENGETISA-SLMNSVTMEA-TLESAEAIEA-SLEIAHTIRA-HIVSCECTEA-SIFCSVHVVP-CLAIAKVIRG-ALEAAEAIVG-CLKYADTIEA-SLENAFQKTA-TLKASEVIKA-SIFSAYEVCA-AIQNSETYRA-ALENAETIEA-SLRIAEEIEA-ELNHSEDILA-TLRSAYAIQA-NLGVARNVIA-NLESSVFVMS-ALENAQEIQG-AIENAETIPA-ELCFSETVRA-ALRWRETVSA-VIQYAQEVHA-AETSAEAIIS-CIDVAEVMSA-MIQNSESIFA-SISCAEVITA-SLIVSECVQA-AINNAASIEN-RLNHSQSIQA-GLQNSTVINA-SLLTASAVLA-ALEVSEEKIK-SLGNSEEILA-SITGAEWVYA-CIREAESIEA-SITKSDAKLA-SLEKEYAISA-SIQAAETILA-VLRNSEAVEA-SLKYSEMIEA-PLNFSETIWA-AIYVSEAIHA-SMDIASTVHA-ALQAAETIHA-SLAYAEAIEA-ALQSSEVVEA-TLRIVEWCEA-AMLSSETIEA-SILHAEAVAA-AIQTSIAVEA-SFRSSDTILA-TILRAEEIEA-SLQSAIVLNA-TINVAHSIWA-TITTSSQIIA-TLSTSEEIEA-SLANAEAIEA-ALQKATTIEA-ALTAAETIQS-CIDHSEAIQS-AGRVPDAISA-CLISSEHIEA-SIQSSRLIRA-SIVSANEVKA-CVLVADTVKS-SLNSSETIAA-SIQSAESIIS,190,200
