,Chain,Length,designed_binder_seq
0,A,10,---------------------------------------------------------------------------------------------------
1,B,10,EAIPILRAAQ-EAIPILRAAR-EAIPILRAWQ-EAIPILRAAQ-EAIPILRAAT-EAIPILRAAA-EAIPILRAAA-EAIPILRAAA-EAIPILRAAL-EAIPILRAAQ-EAIPILRAAL-EAIPILRAAM-EAIPILRAAA-EAIPILRAAA-EAIPILRAAL-EAIPILRAAQ-EAIPILRAAS-EAIPILRAAL-EAIPILRAAL-EAIPILRAAK-EAIPILRAAA-EAIPILRAAE-EAIPILRAAK-EAIPILRAAL-EAIPILRALL-EAIPILRAAL-EAIPILRAAK-EAIPILRAAS-EAIPILRAAL-EAIPILRAAL-EAIPILRAAK-EAIPILRAGK-EAIPILRAAQ-EAIPILRAAK-EAIPILRAAL-EAIPILRAAQ-EAIPILRAAK-EAIPILRAAK-EAIPILRAAQ-EAIPILRAAL-EAIPILRAAQ-EAIPILRAAL-EAIPILRAAL-EAIPILRAAQ-EAIPILRAAL-EAIPILRARQ-EAIPILRAAL-EAIPILRAAG-EAIPILRAAL-EAIPILRAAL-EAIPILRAAL-EAIPILRAAK-EAIPILRAAL-EAIPILRAAL-EAIPILRAAL-EAIPILRAAL-EAIPILRAAL-EAIPILRAAQ-EAIPILRAAQ-EAIPILRAAL-EAIPILRAAL-EAIPILRAAL-EAIPILRAAL-EAIPILRASQ-EAIPILRAAH-EAIPILRADL-EAIPILRAAL-EAIPILRAAE-EAIPILRAAL-EAIPILRAAW-EAIPILRAAQ-EAIPILRAAL-EAIPILRAAQ-EAIPILRAAE-EAIPILRAAL-EAIPILRAAL-EAIPILRAAL-EAIPILRAAQ-EAIPILRAAL-EAIPILRAAL-EAIPILRAAL-EAIPILRAAK-EAIPILRAAL-EAIPILRAAQ-EAIPILRAAK-EAIPILRAAP-EAIPILRAAL-EAIPILRAAM-EAIPILRAAL-EAIPILRAAA-EAIPILRAAL-EAIPILRAAP-EAIPILRAAH-EAIPILRAAK-EAIPILRAAL-EAIPILRAAK-EAIPILRAAQ-EAIPILRAAQ-EAIPILRAAL-EAIPILRAAL
