Unnamed: 0,Chain,Length,designed_binder_seq,cs,ce
0,A,10,AGADRVSGHA-EGAKRVTREA-MGAEEVAIYA-AGAAAVTVAA-EGAEHVSNEA-ANARRVSVGA-NGCKRVSIAA-AGAPRVEKSA-SGAKRNSPVA-SGAERVSTRA-KGAEEVIKQA-AGASKVSEEA-AGADSVQETA-CGAPYITGTA-AGAEDVTQRA-SGARKVEKEA-AGAEEVAIEA-IGARETSLDA-AGARRISNSA-AGAEKVTDSA-AGARRVSEEA-AGAEESASSA-AGAESVRQGA-SGAEHVSLSA-LGAEAVSNEA-AGARVVYEEA-AGAEKKTREA-SGACMVESHA-AGAEEVSNEA-AGAKKVGRQA-SGAENVTIAA-RGAEEVTVEA-EGAERVGIDA-AGAERVHNAA-DGAESVNEEA-AGAEQIENRA-AGAKRVSSSA-MGFERVTNQA-SGAESVSVDA-AGAWEDEFTA-SGARKVEEEA-AGAAEVSKEA-AGAKRVAPSA-SGAKRVSNHA-EGAEAVQREA-EGAEKVSHDA-EGAEEVTNEA-AGAEKVSKDA-AGAQGVEKLA-AGADSVTKEA-SGAVRVSPEA-AHAELVNNGA-SGPERRTLEA-AGAEFVSFRA-KGAQRVSQNA-AGADKVSHAA-EGATAVTRNA-AGAPKVTWRA-AGAERWTKQA-AGMAMITKHA-AGARRVTAGA-AFAERVSLAA-NGAKRVIDEA-AGAEEVGRFA-AGAETVANTA-YGAQRVTAEA-SGAENVDSDA-SGAEGVQLEA-ANAEEISLEA-AGAEKVEMSA-SGAERVSRGA-AGAEEVSPTA-DGAERGEDTA-AGAKEIDLLA-ADAEGVTLEA-IGAEKVSNSA-WGATRIASSA-EGAEEVSYKA-ADAEEVTEDA-AGAQRVGREA-AGAEKVNGGA-AGAREVDLEA-AGAEEVSLDA-QGAEEVEDYA-EGAEKVTIEA-AGAKEVTMQA-AGAPSVESGA-AGAQKVSHEA-AGARYVEKHA-AGVEKVEQGA-AGALRVSDRA-AGAKAVTESA-AGATCITYIA-AGAYEVTKEA-AGAEEVTDEA-AGARKVTIDA-AMARRVSRAA-EGAYRVSSGA-AGAEKVSKEA-AGAERVTDSA,14,24
1,B,10,AGADRVSGHA-EGAKRVTREA-MGAEEVAIYA-AGAAAVTVAA-EGAEHVSNEA-ANARRVSVGA-NGCKRVSIAA-AGAPRVEKSA-SGAKRNSPVA-SGAERVSTRA-KGAEEVIKQA-AGASKVSEEA-AGADSVQETA-CGAPYITGTA-AGAEDVTQRA-SGARKVEKEA-AGAEEVAIEA-IGARETSLDA-AGARRISNSA-AGAEKVTDSA-AGARRVSEEA-AGAEESASSA-AGAESVRQGA-SGAEHVSLSA-LGAEAVSNEA-AGARVVYEEA-AGAEKKTREA-SGACMVESHA-AGAEEVSNEA-AGAKKVGRQA-SGAENVTIAA-RGAEEVTVEA-EGAERVGIDA-AGAERVHNAA-DGAESVNEEA-AGAEQIENRA-AGAKRVSSSA-MGFERVTNQA-SGAESVSVDA-AGAWEDEFTA-SGARKVEEEA-AGAAEVSKEA-AGAKRVAPSA-SGAKRVSNHA-EGAEAVQREA-EGAEKVSHDA-EGAEEVTNEA-AGAEKVSKDA-AGAQGVEKLA-AGADSVTKEA-SGAVRVSPEA-AHAELVNNGA-SGPERRTLEA-AGAEFVSFRA-KGAQRVSQNA-AGADKVSHAA-EGATAVTRNA-AGAPKVTWRA-AGAERWTKQA-AGMAMITKHA-AGARRVTAGA-AFAERVSLAA-NGAKRVIDEA-AGAEEVGRFA-AGAETVANTA-YGAQRVTAEA-SGAENVDSDA-SGAEGVQLEA-ANAEEISLEA-AGAEKVEMSA-SGAERVSRGA-AGAEEVSPTA-DGAERGEDTA-AGAKEIDLLA-ADAEGVTLEA-IGAEKVSNSA-WGATRIASSA-EGAEEVSYKA-ADAEEVTEDA-AGAQRVGREA-AGAEKVNGGA-AGAREVDLEA-AGAEEVSLDA-QGAEEVEDYA-EGAEKVTIEA-AGAKEVTMQA-AGAPSVESGA-AGAQKVSHEA-AGARYVEKHA-AGVEKVEQGA-AGALRVSDRA-AGAKAVTESA-AGATCITYIA-AGAYEVTKEA-AGAEEVTDEA-AGARKVTIDA-AMARRVSRAA-EGAYRVSSGA-AGAEKVSKEA-AGAERVTDSA,14,24
