Unnamed: 0,Chain,Length,designed_binder_seq,cs,ce
0,A,10,STNIFHDNIM-DKVIFGSTIM-EVEIFEPVIM-EVSMFPAAIM-NTLISDDVIM-KTTIFEHLCM-AAIIFEPMIM-DVKMFERIIM-NTEIFGPTIM-DARGFNNMIM-SSTIFFNTQM-DERIFNENVM-SVHIFEDMIM-ETQIFDWMIM-DTSAFGPAIM-KAEWFQNQVM-DHIQFDNVIM-DSQLFGPMIM-RSTTFMNLVM-TMNIFDNEIM-SSMIFENVIM-DPEIFNNMIM-KAEVFGCTIM-RTDVFQYQSM-GSSQFAPDCM-DHWIFSNMIM-EDFIFEDTIM-RHNIIDSLIM-VEDIFENLIM-QNYWFQNLIM-DTETFSAQIM-DQSMFRNMIM-KWEEFENNSM-DSQIFDNTIM-DASCYDNIIM-EAKIFDNVIM-DYSIFWNGIM-NCEIFEDIIM-DVNIFGDCVM-NETIFDNLIM-DKSVFGDVIM-DSKIFDDIIM-DCRIFGPVAM-KTYILKDLIM-ETAQFNNIIM-EEKIFEELIM-SANIFGDMVM-ESKIFDPCVM-DSEIFENLIM-DENFFGNAIM-KQELFEDCIM-SVDIFDNLIM-ETDGFRDQIM-ESHCVLDKIM-ESDIFASAIM-GDKLHGNMIM-EEQVFGGICM-KSEVFWPSIM-DVEIFENAVM-DTMISESCIM-DVKIFEELNM-SSAIFTDVVM-DSGIFEDNVM-KTEIFGRVIM-ASTVFNSLVM-ETEIFSLMIM-STFIFETQIM-DTKMFGDCIM-EHHIFGPMIM-NVDVFRNNIM-SVEVFENCVM-DHHIMGNLVM-SSELFGNSIM-TEVIFNNCIM-SHNIFDNKIM-KSEIFGNLIM-DVPVLDAVIM-ESEIFNNDIM-NTQMFGTLVM-DDWIFAEISM-GSEIFTNLIM-NWRVFDNIVM-HTVIFQNIAM-DCQIFTDVVM-DTQIFLDDIM-DIDIFDNMVM-DTQIFNNCIM-ETDIFGDVVM-DVEIFEECVM-KCEVFNNQEM-QTCIFEDLIM-NTKIFGNTIM-EDHVMGNVGM-KVYIDWDNIM-DSAIFNDVIM-KTEIFDNCIM-IQAIYGNMDM-CSRIRGNLIM-DSKIFGEMIM-DSEIFSEAVM,66,76
1,B,10,STNIFHDNIM-DKVIFGSTIM-EVEIFEPVIM-EVSMFPAAIM-NTLISDDVIM-KTTIFEHLCM-AAIIFEPMIM-DVKMFERIIM-NTEIFGPTIM-DARGFNNMIM-SSTIFFNTQM-DERIFNENVM-SVHIFEDMIM-ETQIFDWMIM-DTSAFGPAIM-KAEWFQNQVM-DHIQFDNVIM-DSQLFGPMIM-RSTTFMNLVM-TMNIFDNEIM-SSMIFENVIM-DPEIFNNMIM-KAEVFGCTIM-RTDVFQYQSM-GSSQFAPDCM-DHWIFSNMIM-EDFIFEDTIM-RHNIIDSLIM-VEDIFENLIM-QNYWFQNLIM-DTETFSAQIM-DQSMFRNMIM-KWEEFENNSM-DSQIFDNTIM-DASCYDNIIM-EAKIFDNVIM-DYSIFWNGIM-NCEIFEDIIM-DVNIFGDCVM-NETIFDNLIM-DKSVFGDVIM-DSKIFDDIIM-DCRIFGPVAM-KTYILKDLIM-ETAQFNNIIM-EEKIFEELIM-SANIFGDMVM-ESKIFDPCVM-DSEIFENLIM-DENFFGNAIM-KQELFEDCIM-SVDIFDNLIM-ETDGFRDQIM-ESHCVLDKIM-ESDIFASAIM-GDKLHGNMIM-EEQVFGGICM-KSEVFWPSIM-DVEIFENAVM-DTMISESCIM-DVKIFEELNM-SSAIFTDVVM-DSGIFEDNVM-KTEIFGRVIM-ASTVFNSLVM-ETEIFSLMIM-STFIFETQIM-DTKMFGDCIM-EHHIFGPMIM-NVDVFRNNIM-SVEVFENCVM-DHHIMGNLVM-SSELFGNSIM-TEVIFNNCIM-SHNIFDNKIM-KSEIFGNLIM-DVPVLDAVIM-ESEIFNNDIM-NTQMFGTLVM-DDWIFAEISM-GSEIFTNLIM-NWRVFDNIVM-HTVIFQNIAM-DCQIFTDVVM-DTQIFLDDIM-DIDIFDNMVM-DTQIFNNCIM-ETDIFGDVVM-DVEIFEECVM-KCEVFNNQEM-QTCIFEDLIM-NTKIFGNTIM-EDHVMGNVGM-KVYIDWDNIM-DSAIFNDVIM-KTEIFDNCIM-IQAIYGNMDM-CSRIRGNLIM-DSKIFGEMIM-DSEIFSEAVM,66,76
