Unnamed: 0,Chain,Length,designed_binder_seq,cs,ce
0,A,10,EFTKACWKQW-VFVDSMYQQW-RFSRALWSQW-KFTRNLWRQW-TVTNAIWEQW-LFRLSILANW-QFLRAVWCSW-NWCQAIDQQW-SFEENLWEQW-LYTSSLWDIW-KFTRAMYNQW-RWLEAVWEQW-KFTKAWWQSW-NFMTGLSSWW-DFLTALWAQW-MFSEAVWEGW-AFRLSIWEQW-TYSQALWRQW-VFMLQLWDQW-TFLDSLWQQW-NFLSSLWAQW-VFSKSCWDQW-KYQEATWNQW-KYLFSLLRQW-VFTAALWRQW-RSLRSLWAEW-AFLSAVWDQW-SWEQYLWSQW-RFEDSIWACW-VYRNSLWNQW-LYTQAMWEQW-QFLNAIDVQW-AFLVALWAQW-EFYNGVWLQW-IIMNSIWNSW-FFCICLQQQW-LFQNSLWNSW-VRGAAIWDNW-HVTDALYQQW-MWTDAIWKQW-YFAKALWKQW-KYYEALWTQW-VFRNAIWDQW-LYTNAIWRQW-VFLSSMWKQW-VYKKAGWDQW-VYLKSMWEQW-RFLKACIRQW-QFIAAMWEQW-IFTSSLWHTW-NFRHALFIVW-AFTRAIQDQW-GFLTPLWDQW-EFKESCWNCW-RFTEALWKQW-DFLEALWHQW-MFCKALWEQW-LFLKGLIFQW-NFSDALISQW-RFRLPLFEQW-SFQTSVWEQW-QFESALWQNW-RFERSIWNQW-VFLNSLWTIW-VFGDALWIHW-TWLISMWLQW-RFLSSGWEQW-SCLQSLWSQW-RFLVSMWTQW-LFADSVWKQW-VFTHSLWAQW-QFKRASWDQW-SFEQSIWSQW-NYLASLWNQW-KYENAIWEQW-WYTTAMWSQW-AFLSHIWRQW-KCMRAIWCQW-VFMDSLKEFW-TERFALWETW-EFLHSLWDQW-RYTHALWTHW-RYLDALHVWW-EYTGSIWTQW-MFELAMWTQW-RFKVQIWKQW-DYMKSIWKQW-MFTRALWEQW-QHKRAIWDQW-IFLRSLWHQW-NFRKALWANW-QFMLADWNQW-TYELAVWQQW-RVQAAIWQQW-YWRDAVDHSW-DFLQAIWCQW-VFMESIVQQW-HFLQAMLNQW-DWLKADWDQW-QYCKSIWRQW,81,91
1,B,10,PKITLLTLIK-PKITLLTLIK-PKITLLTLIK-PKITLLTLIK-PKITLLTLIK-PKITLLTLIK-PKITLLTLIK-PKITLLTLIK-PKITLLTLIK-PKITLLTLIK-PKITLLTLIK-PKITLLTLIK-PKITLLTLIK-PKITLLTLIK-PKITLLTLIK-PKITLLTLIK-PKITLLTLIK-PKITLLTLIK-PKITLLTLIK-PKITLLTLIK-PKITLLTLIK-PKITLLTLIK-PKITLLTLIK-PKITLLTLIK-PKITLLTLIK-PKITLLTLIK-PKITLLTLIK-PKITLLTLIK-PKITLLTLIK-PKITLLTLIK-PKITLLTLIK-PKITLLTLIK-PKITLLTLIK-PKITLLTLIK-PKITLLTLIK-PKITLLTLIK-PKITLLTLIK-PKITLLTLIK-PKITLLTLIK-PKITLLTLIK-PKITLLTLIK-PKITLLTLIK-PKITLLTLIK-PKITLLTLIK-PKITLLTLIK-PKITLLTLIK-PKITLLTLIK-PKITLLTLIK-PKITLLTLIK-PKITLLTLIK-PKITLLTLIK-PKITLLTLIK-PKITLLTLIK-PKITLLTLIK-PKITLLTLIK-PKITLLTLIK-PKITLLTLIK-PKITLLTLIK-PKITLLTLIK-PKITLLTLIK-PKITLLTLIK-PKITLLTLIK-PKITLLTLIK-PKITLLTLIK-PKITLLTLIK-PKITLLTLIK-PKITLLTLIK-PKITLLTLIK-PKITLLTLIK-PKITLLTLIK-PKITLLTLIK-PKITLLTLIK-PKITLLTLIK-PKITLLTLIK-PKITLLTLIK-PKITLLTLIK-PKITLLTLIK-PKITLLTLIK-PKITLLTLIK-PKITLLTLIK-PKITLLTLIK-PKITLLTLIK-PKITLLTLIK-PKITLLTLIK-PKITLLTLIK-PKITLLTLIK-PKITLLTLIK-PKITLLTLIK-PKITLLTLIK-PKITLLTLIK-PKITLLTLIK-PKITLLTLIK-PKITLLTLIK-PKITLLTLIK-PKITLLTLIK-PKITLLTLIK-PKITLLTLIK-PKITLLTLIK-PKITLLTLIK-PKITLLTLIK,0,10
