Unnamed: 0,Chain,Length,designed_binder_seq,cs,ce
0,A,10,XXXXXSDPIT-XXXXXISSIT-XXXXXHDTIT-XXXXXREHIT-XXXXXHQKIT-XXXXXTKSIT-XXXXXLHRLT-XXXXXAKKLT-XXXXXHEMIT-XXXXXKGLLT-XXXXXEGAMT-XXXXXTDKIT-XXXXXEEELT-XXXXXNIRIT-XXXXXLNLLT-XXXXXSKHIT-XXXXXSENIT-XXXXXAQSLT-XXXXXNSSIT-XXXXXMEQLT-XXXXXFTNIT-XXXXXKDEIT-XXXXXRMEIT-XXXXXQQQCT-XXXXXHMLLT-XXXXXSTEIT-XXXXXNLRMT-XXXXXGELLT-XXXXXFDLIT-XXXXXDEMIT-XXXXXKSLWT-XXXXXRHYIT-XXXXXDHKIT-XXXXXPNHIT-XXXXXISKLT-XXXXXLEPIT-XXXXXDYKLT-XXXXXKKRLT-XXXXXDTRMT-XXXXXPGSIT-XXXXXLEQIT-XXXXXSMLVT-XXXXXTDQLT-XXXXXPEEIT-XXXXXSDRIT-XXXXXNSQIT-XXXXXVDGLT-XXXXXTLEIT-XXXXXHSEPT-XXXXXRGKIT-XXXXXMEGLT-XXXXXQEELT-XXXXXTEVIT-XXXXXQEKET-XXXXXDQSIT-XXXXXRYDIT-XXXXXLEKIT-XXXXXSNQLT-XXXXXVTLIT-XXXXXQEHIT-XXXXXDNEIT-XXXXXDKELT-XXXXXSENIT-XXXXXSDSIT-XXXXXENKIT-XXXXXKEMLT-XXXXXVLDLT-XXXXXSSVLT-XXXXXTNIIT-XXXXXYEALT-XXXXXIKLIT-XXXXXSHSLT-XXXXXMAEIT-XXXXXNYKIT-XXXXXKSQIT-XXXXXPDVIT-XXXXXNKSIT-XXXXXMSRIT-XXXXXGGLIT-XXXXXDTQIT-XXXXXLKALT-XXXXXTIELT-XXXXXMTSIT-XXXXXKEKIT-XXXXXLSEIT-XXXXXTGKIT-XXXXXDSKIT-XXXXXQKQIT-XXXXXRPRLT-XXXXXAEKMT-XXXXXIQQIT-XXXXXANHIT-XXXXXTGHIT-XXXXXFNRIT-XXXXXPDFIT-XXXXXTTKLT-XXXXXQDILT-XXXXXLFNIT-XXXXXAEVDT-XXXXXTVVLT,70,80
1,B,10,PXXXXXXXXS-PXXXXXXXXI-PXXXXXXXXH-PXXXXXXXXR-PXXXXXXXXH-PXXXXXXXXT-PXXXXXXXXL-PXXXXXXXXA-PXXXXXXXXH-PXXXXXXXXK-PXXXXXXXXE-PXXXXXXXXT-PXXXXXXXXE-PXXXXXXXXN-PXXXXXXXXL-PXXXXXXXXS-PXXXXXXXXS-PXXXXXXXXA-PXXXXXXXXN-PXXXXXXXXM-PXXXXXXXXF-PXXXXXXXXK-PXXXXXXXXR-PXXXXXXXXQ-PXXXXXXXXH-PXXXXXXXXS-PXXXXXXXXN-PXXXXXXXXG-PXXXXXXXXF-PXXXXXXXXD-PXXXXXXXXK-PXXXXXXXXR-PXXXXXXXXD-PXXXXXXXXP-PXXXXXXXXI-PXXXXXXXXL-PXXXXXXXXD-PXXXXXXXXK-PXXXXXXXXD-PXXXXXXXXP-PXXXXXXXXL-PXXXXXXXXS-PXXXXXXXXT-PXXXXXXXXP-PXXXXXXXXS-PXXXXXXXXN-PXXXXXXXXV-PXXXXXXXXT-PXXXXXXXXH-PXXXXXXXXR-PXXXXXXXXM-PXXXXXXXXQ-PXXXXXXXXT-PXXXXXXXXQ-PXXXXXXXXD-PXXXXXXXXR-PXXXXXXXXL-PXXXXXXXXS-PXXXXXXXXV-PXXXXXXXXQ-PXXXXXXXXD-PXXXXXXXXD-PXXXXXXXXS-PXXXXXXXXS-PXXXXXXXXE-PXXXXXXXXK-PXXXXXXXXV-PXXXXXXXXS-PXXXXXXXXT-PXXXXXXXXY-PXXXXXXXXI-PXXXXXXXXS-PXXXXXXXXM-PXXXXXXXXN-PXXXXXXXXK-PXXXXXXXXP-PXXXXXXXXN-PXXXXXXXXM-PXXXXXXXXG-PXXXXXXXXD-PXXXXXXXXL-PXXXXXXXXT-PXXXXXXXXM-PXXXXXXXXK-PXXXXXXXXL-PXXXXXXXXT-PXXXXXXXXD-PXXXXXXXXQ-PXXXXXXXXR-PXXXXXXXXA-PXXXXXXXXI-PXXXXXXXXA-PXXXXXXXXT-PXXXXXXXXF-PXXXXXXXXP-PXXXXXXXXT-PXXXXXXXXQ-PXXXXXXXXL-PXXXXXXXXA-PXXXXXXXXT,66,76
