Unnamed: 0,Chain,Length,designed_binder_seq,cs,ce
0,A,10,WVVEASSTEV-IVVAAVDADV-IIVAADTAEV-FIIEAIDTDV-IIVEATSNEV-IIIEACASDV-IVVEAESSDV-TIVNAEIAWV-FITKCSDPDV-YIVEAENEDV-YIVDCKDFDV-FCVQADKFEV-YIIEADNADV-HIICVHSSDV-VIVDTASATV-VIVDAIDVEV-IIAEAVDMSV-IIVEAYDAQV-VIVESAGSDV-IVVDAENPDV-IVVQANNAPV-IDVSAEDTEV-FVVQCTESDV-IVVEVQTSEV-FIFECYAYEV-YIVMASDASV-FCVEALVPEV-YVVRCPDSEV-VIIEADDADV-IIAGVDSDFV-VVVEASDSDV-IVVWSDTSDV-FVVEAEDTDV-GIVMATDSDV-AIVEATNADV-VIVLSDTDEV-IVVEAIDHDV-IVVEAVDREV-IIIEADSPDV-YIVGANTTEV-YVVEAIEADV-IVRMAWDLEV-MVALMPDPGV-FTVTAHDARV-LIVEATTADV-IVVQTLDPDV-FIAHCQDVDV-IIFSANNFDV-FVVLASNVSV-WIVEAHEAEV-IIVETSDHPV-VIVHMSMMPV-IIAEATDAPV-IVASQSDPNV-IIVSAEDAEV-VVLLTTMSVV-IVTAASDADV-LIVEASSHTV-WVFLASSSEV-IVKMVEDADV-FIISAAEASV-YVAECEFSEV-TIVEASYQHV-IAAWSETTDV-FVIISLNPEV-IIYQGVDSDV-YIVHVAGPDV-IVVEAADADV-IVVEAETVEV-FIVQTIDCDV-IKVAVDDDDV-IVVESETTAV-VVAAVLDHNV-IMVSCSTSDV-IVVEWNDADV-IIVRCTDSRV-IIVLAQTPGV-VVVECQDPHV-IIHEMRDAEV-IIVETQTSAV-FCAQCNDSAV-IICECREPPV-VVVEAMGADV-IIVECTDVGV-QIVSASDAEV-IIVAAQTTKV-HIVAVSEHSV-IIVEAIDGDV-VIIEALDADV-FCIRCSDPNV-IEVACQTTEV-FIIQATDVDV-VAVEAADHEV-IIVETSDAEV-IIVSAEDATV-FIVQAASHPV-NVVEADNSDV-IVIETSDADV-LEVEATDSSV-IIVELKDSDV,127,137
1,B,10,WVVEASSTEV-IVVAAVDADV-IIVAADTAEV-FIIEAIDTDV-IIVEATSNEV-IIIEACASDV-IVVEAESSDV-TIVNAEIAWV-FITKCSDPDV-YIVEAENEDV-YIVDCKDFDV-FCVQADKFEV-YIIEADNADV-HIICVHSSDV-VIVDTASATV-VIVDAIDVEV-IIAEAVDMSV-IIVEAYDAQV-VIVESAGSDV-IVVDAENPDV-IVVQANNAPV-IDVSAEDTEV-FVVQCTESDV-IVVEVQTSEV-FIFECYAYEV-YIVMASDASV-FCVEALVPEV-YVVRCPDSEV-VIIEADDADV-IIAGVDSDFV-VVVEASDSDV-IVVWSDTSDV-FVVEAEDTDV-GIVMATDSDV-AIVEATNADV-VIVLSDTDEV-IVVEAIDHDV-IVVEAVDREV-IIIEADSPDV-YIVGANTTEV-YVVEAIEADV-IVRMAWDLEV-MVALMPDPGV-FTVTAHDARV-LIVEATTADV-IVVQTLDPDV-FIAHCQDVDV-IIFSANNFDV-FVVLASNVSV-WIVEAHEAEV-IIVETSDHPV-VIVHMSMMPV-IIAEATDAPV-IVASQSDPNV-IIVSAEDAEV-VVLLTTMSVV-IVTAASDADV-LIVEASSHTV-WVFLASSSEV-IVKMVEDADV-FIISAAEASV-YVAECEFSEV-TIVEASYQHV-IAAWSETTDV-FVIISLNPEV-IIYQGVDSDV-YIVHVAGPDV-IVVEAADADV-IVVEAETVEV-FIVQTIDCDV-IKVAVDDDDV-IVVESETTAV-VVAAVLDHNV-IMVSCSTSDV-IVVEWNDADV-IIVRCTDSRV-IIVLAQTPGV-VVVECQDPHV-IIHEMRDAEV-IIVETQTSAV-FCAQCNDSAV-IICECREPPV-VVVEAMGADV-IIVECTDVGV-QIVSASDAEV-IIVAAQTTKV-HIVAVSEHSV-IIVEAIDGDV-VIIEALDADV-FCIRCSDPNV-IEVACQTTEV-FIIQATDVDV-VAVEAADHEV-IIVETSDAEV-IIVSAEDATV-FIVQAASHPV-NVVEADNSDV-IVIETSDADV-LEVEATDSSV-IIVELKDSDV,127,137
