Unnamed: 0,Chain,Length,designed_binder_seq,cs,ce
0,A,10,VYNIATNHPN-TVTFAVDFPN-VCVIWKDTRN-NVVIWEDIKN-TWIFAIDDVN-TLVTFLEIRN-MWNIYEDPVN-TWVIYIDEVN-RLVLSKGLTN-TWVIWVDEKN-VMVIWVDQVN-ADVVFIDEQN-FWVLWIDEPN-TWVIWLDERN-VWVDWLQETN-TVVIYQDIKN-TWVVAKDLPN-SWNIIIDEQN-LWVIWKRERN-TWVIWIEEKN-TYLLAKDTRN-TWVLFVDYKN-IWVIIQDLVN-TWVLYIDTQN-TFVISEDILN-TPISAILQPN-TWVLYKDIQN-SWVIGVDEKN-TLIIKKVEEN-TWTIWKEEAN-TWVLWLDAVN-TWVIWDDVTN-TWVLWVDRKN-NWTVWVDVVN-TWVIWTEQPN-TVVIAIDIVN-VDVIWTDVVN-TWVPWVEERN-TWVIWMEINN-VWVIWKEDGN-RWVLCLDVKN-TVVYNIDERN-QWYVWQDTTN-NIVISIDLKN-SWVIYEELKN-TVIIAIDIPN-TWVLSKKDTN-SWVLSIDERN-QIIIAKNTKN-TCVIWIDTKN-TWVIWKDEKN-EMIIWVDEAN-TWVLSKEIKN-TWVIHKDLKN-TFVIWIDYSN-TIVLWQEGRN-TWVIWEDITN-TILIWQDLKN-TVVLTQDVKN-VLVIWEDEKN-VWTIAKDMTN-QWMIFKNLVN-RWVIWVDTPN-NWVIWQEVKN-VYVIWTDTIN-EWQIWRDRTN-RWVIVIELGN-TWVIWVDIRN-TWTIWTDLTN-TWVLFRDVVN-TFGIMDDQIN-VWVINVDEMN-TVVMWIEYPN-TIVIERKAKN-TIVLYRDSTN-TLVIWVDLKN-PFVVWEEDVN-TWVVWEDEIN-QWVLSINEPN-VYTIQIDEKN-RWVLWKDMRN-VWVLWANDVN-TWVIIVEETN-TVVIYEDTAN-TWVMWVDTKN-TWTIWIDEQN-KVVIWVTPVN-TWVIWEDTVN-TWVLYKDLYN-TLVICKEEVN-VWVIWEDLPN-EWVIYVDEQN-NWVIWIDIPN-TWVISVNQQN-RWTIWLDEKN-THVIWDDNMN-VWEIWVDSPN-TTLIWEDLTN-TWVISEDLVN-TWVIEIEYNN,53,63
1,B,10,GVYNIATNHP-GTVTFAVDFP-GVCVIWKDTR-GNVVIWEDIK-GTWIFAIDDV-GTLVTFLEIR-GMWNIYEDPV-GTWVIYIDEV-GRLVLSKGLT-GTWVIWVDEK-GVMVIWVDQV-DADVVFIDEQ-GFWVLWIDEP-GTWVIWLDER-GVWVDWLQET-GTVVIYQDIK-GTWVVAKDLP-DSWNIIIDEQ-GLWVIWKRER-GTWVIWIEEK-GTYLLAKDTR-GTWVLFVDYK-GIWVIIQDLV-STWVLYIDTQ-GTFVISEDIL-GTPISAILQP-GTWVLYKDIQ-GSWVIGVDEK-MTLIIKKVEE-GTWTIWKEEA-GTWVLWLDAV-GTWVIWDDVT-GTWVLWVDRK-GNWTVWVDVV-GTWVIWTEQP-GTVVIAIDIV-GVDVIWTDVV-GTWVPWVEER-GTWVIWMEIN-GVWVIWKEDG-GRWVLCLDVK-GTVVYNIDER-GQWYVWQDTT-GNIVISIDLK-GSWVIYEELK-GTVIIAIDIP-GTWVLSKKDT-GSWVLSIDER-GQIIIAKNTK-GTCVIWIDTK-GTWVIWKDEK-REMIIWVDEA-GTWVLSKEIK-GTWVIHKDLK-GTFVIWIDYS-GTIVLWQEGR-GTWVIWEDIT-GTILIWQDLK-GTVVLTQDVK-GVLVIWEDEK-GVWTIAKDMT-GQWMIFKNLV-GRWVIWVDTP-GNWVIWQEVK-GVYVIWTDTI-GEWQIWRDRT-GRWVIVIELG-GTWVIWVDIR-GTWTIWTDLT-GTWVLFRDVV-GTFGIMDDQI-GVWVINVDEM-GTVVMWIEYP-GTIVIERKAK-GTIVLYRDST-GTLVIWVDLK-GPFVVWEEDV-GTWVVWEDEI-GQWVLSINEP-GVYTIQIDEK-GRWVLWKDMR-GVWVLWANDV-GTWVIIVEET-GTVVIYEDTA-GTWVMWVDTK-GTWTIWIDEQ-GKVVIWVTPV-GTWVIWEDTV-GTWVLYKDLY-GTLVICKEEV-GVWVIWEDLP-GEWVIYVDEQ-GNWVIWIDIP-GTWVISVNQQ-YRWTIWLDEK-GTHVIWDDNM-GVWEIWVDSP-GTTLIWEDLT-GTWVISEDLV-GTWVIEIEYN,52,62
