Unnamed: 0,Chain,Length,designed_binder_seq,cs,ce
0,A,10,VIHDDLVRVS-VEKDSQYSAS-TKHDDNHFAS-RLESHAWSSS-KEEDGVWTAS-TDVDGQHTAS-TFKNSEIGAS-RKRDGEWSCS-HQIQGTWSAS-TEWDGQPSLS-HSQAGVYKAS-RMEKGEFSSS-KKSDNEYSSS-SQRDGVHRVS-TKRDGPWSAS-HKQGGIYDAS-RQANGEYGAS-REDDPQWSCS-HQRDGEYTGS-RRTEGVYSAS-GQHGGAWSSS-QREIGEFKSS-REQDGVYTAS-EEWHENYIAS-LKRQGRASAS-LIEDADASSS-GERDGVWSSS-TEVDGESTAS-GYENGQWFAS-REAHGQWSAS-CKYDGMWSAS-TEFDGKWSAS-QRRAGRWTSS-RKRRSETSAS-KLTGSRSTYS-KTTNGWHTAS-IRDCGQWNAS-KEEDGEYSAS-NSQIADWSAS-NTVDGVYSSS-KEENSVWTSS-RHHENEWSAS-TEREGETSAS-KVKEGTTSSS-YKKDGKWSAS-MEQQGSDSMS-REEKHQFGAS-RQKPGEYTAS-RRVNGEVTAS-QERDREYSSS-GEEQGKITAS-NRKDGIWSAS-TKDNGQWRAS-RKANGIYLAS-RQENGTYTAS-RVENGDASAS-SRENGELTVS-TRKDGVWTAS-VEIGAHWSRS-RQAMGAYTAS-QREHGEWAAS-RIVQGEATAS-NEIDGHYFAS-NESNGKWTAS-RLQDGEWCAS-TNQNGQWQSS-NCDGGVWTSS-SEEGGHFSAS-REWNGRYHHS-NQWNGHWGSS-IREDGEWSSS-SERDGVYTAS-TRQDWQDMGS-TRKSGRYDAS-RVVDFEASAS-TTANGETSSS-SQEGRQYTSS-RIEGGVSQAS-TRRDGRYQSS-KQRAGNWSAS-SLHKGQYSTS-QQEGGQYSAS-VTFEGKATSS-TQQDGEYSAS-GQQNSQFSAS-RKSDGHYVAS-AEYRGKLTAS-KKIKGNHIAS-RQVGCEWSAS-RERNGAWSGS-RRKDHVWWSS-DPADNLEKAS-RLHDGVHTAS-SLQDGEWRAS-STEAGETTSS-RAEEGYYTAS-TRNDGVDSAS-REDSGHTSCS-EERDKQWVAS-EKRDGLTSAS,248,258
1,B,10,LCGTGAMFWV-LCGTGAMFLV-LCGTGAMFVT-LCGTGAMFLR-LCGTGAMFGK-LCGTGAMFLT-LCGTGAMFLT-LCGTGAMFTR-LCGTGAMFTH-LCGTGAMFLT-LCGTGAMFIH-LCGTGAMFKR-LCGTGAMFLK-LCGTGAMFLS-LCGTGAMFLT-LCGTGAMFIH-LCGTGAMFLR-LCGTGAMFLR-LCGTGAMFLH-LCGTGAMFLR-LCGTGAMFLG-LCGTGAMFVQ-LCGTGAMFLR-LCGTGAMFLE-LCGTGAMFLL-LCGTGAMFRL-LCGTGAMFLG-LCGTGAMFLT-LCGTGAMFIG-LCGTGAMFLR-LCGTGAMFIC-LCGTGAMFLT-LCGTGAMFLQ-LCGTGAMFTR-LCGTGAMFRK-LCGTGAMFAK-LCGTGAMFPI-LCGTGAMFLK-LCGTGAMFLN-LCGTGAMFIN-LCGTGAMFLK-LCGTGAMFVR-LCGTGAMFVT-LCGTGAMFLK-LCGTGAMFLY-LCGTGAMFLM-LCGTGAMFLR-LCGTGAMFLR-LCGTGAMFLR-LCGTGAMFIQ-LCGTGAMFLG-LCGTGAMFLN-LCGTGAMFLT-LCGTGAMFVR-LCGTGAMFIR-LCGTGAMFLR-LCGTGAMFWS-LCGTGAMFIT-LCGTGAMFLV-LCGTGAMFLR-LCGTGAMFLQ-LCGTGAMFKR-LCGTGAMFVN-LCGTGAMFLN-LCGTGAMFSR-LCGTGAMFLT-LCGTGAMFIN-LCGTGAMFIS-LCGTGAMFDR-LCGTGAMFLN-LCGTGAMFLI-LCGTGAMFIS-LCGTGAMFIT-LCGTGAMFLT-LCGTGAMFVR-LCGTGAMFLT-LCGTGAMFIS-LCGTGAMFRR-LCGTGAMFLT-LCGTGAMFDK-LCGTGAMFLS-LCGTGAMFLQ-LCGTGAMFIV-LCGTGAMFVT-LCGTGAMFIG-LCGTGAMFIR-LCGTGAMFLA-LCGTGAMFLK-LCGTGAMFLR-LCGTGAMFLR-LCGTGAMFLR-LCGTGAMFVD-LCGTGAMFFR-LCGTGAMFLS-LCGTGAMFIS-LCGTGAMFLR-LCGTGAMFLT-LCGTGAMFLR-LCGTGAMFGE-LCGTGAMFLE,239,249
