Unnamed: 0,Chain,Length,designed_binder_seq,cs,ce
0,A,10,VQVLGLEYSA-IAVEMLEYSA-VQVQILAYSA-VRVRELTYSA-LAIAALEWSA-VRVEALGYFA-VRVSELFWSA-VRVTELEWDA-VVVLSNYYSA-LVVKVLRYDA-ITVEQLTFSA-VEVVSLSQNA-WVVQSLSYRA-LEIKSIGYSA-LHVESLEYSA-VQITDLVYAA-VHVERMYYEA-VVVEAYHWSA-VEIEALHYSA-VEVEQLDYSA-VQVEALSYSA-VCVVAVEWDA-VIVPHLSYNA-VTVERLSSSA-VHVQSLKWSA-CRIDAKRYSA-VRVHEVSHSA-NWVLEDENSA-LTVEELHYSA-VQVLALTYSA-IMITRVEFVA-VHVLRLDKYA-VKVDRLSYAA-VQVLNLAYDA-LTVCSVVCHA-LRVEHLGYDA-LDILPLRYSA-VEILKWFYSA-VVVDSMHYSA-VEVDRFVDDA-VLVEKAEYSA-VEVTAIDWSA-VRVEAWGWDA-VRIYRLEYSA-VRVDYLSFRA-VGVARLLYDA-VRVEALRWSA-VAVHRQEYSA-VEVVDLRYSA-VKVNTCTFSA-VSVEAIDYEA-IQVKQLPYDA-VEVVALSYSA-VKVTGLTYSA-VEVQSTHYSA-VEVLALEYSA-VVVSALSYRA-VSVLRVEYSA-VSVISLSYSA-VAVESMECDA-CVEEQLGYSA-LEKEGEEYAA-VLIEGLGFEA-LEVLRVTYSA-VEVEAIFPSA-LRVSAMQYIA-VTVLRLNYSA-VSVEELHYSA-VEVLEIDYSA-LRIDRNDYSA-LVEPSVSWSA-VRVDTLAFSA-VSVAPLRHNA-VEVESLAYSA-LVVEGDAHLA-VHIEEVSYSA-VTVMKLDYSA-VEVLALAYAA-VTVEAMEYDA-VVIDRLPFDA-VRVDALDYSA-ITVERLEYSA-VQVEALHFSA-VEVRQLSYSA-LSVELAAYSA-VHSTMLDYSA-VEVVNVSYSA-VFVQALEIGA-VRSLELEASA-VNVLKLEYDA-VRVNQSTYSA-LAVVRLHYSA-VEVVALCYWA-LEVEALTHSA-VEVEHLAYSA-VFVDSLTWSA-VTVEGLSFSA-VHIDALHFSA-VVVMKLEYSA-LLVRQLHYSA,18,28
1,B,10,VQVLGLEYSA-IAVEMLEYSA-VQVQILAYSA-VRVRELTYSA-LAIAALEWSA-VRVEALGYFA-VRVSELFWSA-VRVTELEWDA-VVVLSNYYSA-LVVKVLRYDA-ITVEQLTFSA-VEVVSLSQNA-WVVQSLSYRA-LEIKSIGYSA-LHVESLEYSA-VQITDLVYAA-VHVERMYYEA-VVVEAYHWSA-VEIEALHYSA-VEVEQLDYSA-VQVEALSYSA-VCVVAVEWDA-VIVPHLSYNA-VTVERLSSSA-VHVQSLKWSA-CRIDAKRYSA-VRVHEVSHSA-NWVLEDENSA-LTVEELHYSA-VQVLALTYSA-IMITRVEFVA-VHVLRLDKYA-VKVDRLSYAA-VQVLNLAYDA-LTVCSVVCHA-LRVEHLGYDA-LDILPLRYSA-VEILKWFYSA-VVVDSMHYSA-VEVDRFVDDA-VLVEKAEYSA-VEVTAIDWSA-VRVEAWGWDA-VRIYRLEYSA-VRVDYLSFRA-VGVARLLYDA-VRVEALRWSA-VAVHRQEYSA-VEVVDLRYSA-VKVNTCTFSA-VSVEAIDYEA-IQVKQLPYDA-VEVVALSYSA-VKVTGLTYSA-VEVQSTHYSA-VEVLALEYSA-VVVSALSYRA-VSVLRVEYSA-VSVISLSYSA-VAVESMECDA-CVEEQLGYSA-LEKEGEEYAA-VLIEGLGFEA-LEVLRVTYSA-VEVEAIFPSA-LRVSAMQYIA-VTVLRLNYSA-VSVEELHYSA-VEVLEIDYSA-LRIDRNDYSA-LVEPSVSWSA-VRVDTLAFSA-VSVAPLRHNA-VEVESLAYSA-LVVEGDAHLA-VHIEEVSYSA-VTVMKLDYSA-VEVLALAYAA-VTVEAMEYDA-VVIDRLPFDA-VRVDALDYSA-ITVERLEYSA-VQVEALHFSA-VEVRQLSYSA-LSVELAAYSA-VHSTMLDYSA-VEVVNVSYSA-VFVQALEIGA-VRSLELEASA-VNVLKLEYDA-VRVNQSTYSA-LAVVRLHYSA-VEVVALCYWA-LEVEALTHSA-VEVEHLAYSA-VFVDSLTWSA-VTVEGLSFSA-VHIDALHFSA-VVVMKLEYSA-LLVRQLHYSA,18,28
