Unnamed: 0,Chain,Length,designed_binder_seq,cs,ce
0,A,10,AEALGIPLAI-SEALSIPLAI-AEVLGIPLSI-AQALHIHLSI-AEALGIPLPI-AEALGISLAI-AKALGIPLNI-ACSLGIPLFI-AEAMGIPCSI-AEALGIPLRI-AEALGIPLAI-AEALHFPLNI-AEALGIILHI-AEALFIPLNI-KEAMGIALPI-AHADYIAIPI-AESLGIPSRI-ADAMGIELKI-NETLGIPLSI-AEAMGLPLSI-APSMGIMLNI-AESEGIPLPI-AEALGIPLPI-AEAHGVSLSI-VEALGIPLYI-AESCGVPLWI-AEHLGLPLPI-AEALDVPLHI-AETLDLPLSI-AEALGIPLHI-AEAMGYTDAI-SLALQIPLAI-ADAMGIPLAI-AEALQIPLSI-AKALGLPLPI-AEALGIPLAI-ANAEGIPENI-FEMVGIKFFI-AQIMGAMLPI-AESMDIPLEI-AEALGIPIFI-AEAQFIPIHI-AEALVIPLAI-ASSMGIPLHI-AEVLGIPLHI-AAALGLPLPI-AEALGIRLNI-AEAIHLELLI-AEALGVPLHI-AEALGIPLHI-ASAMGLPLSI-AEALGIAQNI-AQQKGIPLAI-AEALGIKLSI-AEAVGLPWRI-AEALLIPLNI-AEALGIDLPI-AETLGLPLHI-AEALGIPLYI-AEALGIPLYI-AEALEIPLLI-AESLSLNLAI-AQALWTALYI-MEALNIPLPI-AEALGVPLPI-AEALGLPLPI-AESEGIPCAI-AEALGIPLYI-AEALNIPMPI-AQALGLDFAI-AEALDIGMPI-AEALDIPTAI-AEALGIKLNI-AEALGIPLDI-AEALKIPCFI-AEALGIPLAI-AEALGVPLFI-AAALGLNLPI-AEALGHVIAI-AEAMGIPLAI-AEALNIPLPI-AEALNTPISI-AEALAIPLSI-ACALGIALAI-AEAWGIELSI-AEADGIWLAI-AEAMGIPKSI-AESLGIPLHI-AEALNIPLNI-AEAVNIPLHI-AESMKIPLVI-AEALDHHLHI-AESINIPMHI-AETLGFPLSI-ADSLGIPLAI-AEAYGIPLYI-AAACGLHLPI-AEAMDIPLSI-AEAPGIPWNI-ACAMGIHLPI,21,31
1,B,10,AEALGIPLAI-SEALSIPLAI-AEVLGIPLSI-AQALHIHLSI-AEALGIPLPI-AEALGISLAI-AKALGIPLNI-ACSLGIPLFI-AEAMGIPCSI-AEALGIPLRI-AEALGIPLAI-AEALHFPLNI-AEALGIILHI-AEALFIPLNI-KEAMGIALPI-AHADYIAIPI-AESLGIPSRI-ADAMGIELKI-NETLGIPLSI-AEAMGLPLSI-APSMGIMLNI-AESEGIPLPI-AEALGIPLPI-AEAHGVSLSI-VEALGIPLYI-AESCGVPLWI-AEHLGLPLPI-AEALDVPLHI-AETLDLPLSI-AEALGIPLHI-AEAMGYTDAI-SLALQIPLAI-ADAMGIPLAI-AEALQIPLSI-AKALGLPLPI-AEALGIPLAI-ANAEGIPENI-FEMVGIKFFI-AQIMGAMLPI-AESMDIPLEI-AEALGIPIFI-AEAQFIPIHI-AEALVIPLAI-ASSMGIPLHI-AEVLGIPLHI-AAALGLPLPI-AEALGIRLNI-AEAIHLELLI-AEALGVPLHI-AEALGIPLHI-ASAMGLPLSI-AEALGIAQNI-AQQKGIPLAI-AEALGIKLSI-AEAVGLPWRI-AEALLIPLNI-AEALGIDLPI-AETLGLPLHI-AEALGIPLYI-AEALGIPLYI-AEALEIPLLI-AESLSLNLAI-AQALWTALYI-MEALNIPLPI-AEALGVPLPI-AEALGLPLPI-AESEGIPCAI-AEALGIPLYI-AEALNIPMPI-AQALGLDFAI-AEALDIGMPI-AEALDIPTAI-AEALGIKLNI-AEALGIPLDI-AEALKIPCFI-AEALGIPLAI-AEALGVPLFI-AAALGLNLPI-AEALGHVIAI-AEAMGIPLAI-AEALNIPLPI-AEALNTPISI-AEALAIPLSI-ACALGIALAI-AEAWGIELSI-AEADGIWLAI-AEAMGIPKSI-AESLGIPLHI-AEALNIPLNI-AEAVNIPLHI-AESMKIPLVI-AEALDHHLHI-AESINIPMHI-AETLGFPLSI-ADSLGIPLAI-AEAYGIPLYI-AAACGLHLPI-AEAMDIPLSI-AEAPGIPWNI-ACAMGIHLPI,21,31
