Unnamed: 0,Chain,Length,designed_binder_seq,cs,ce
0,A,10,AFIFATMVGY-SVKLAMGLGY-AVMIADRVRY-ANTLSSGLLY-VVTSSTVVGY-SIDMSFQIGY-AIVISAGLGY-AVNFGLGTFY-SVNLASMVGY-SWNLAVSVGY-SISLASKVSY-SIDLAMGVGY-AVDSAARVGY-SVDFAAGTGY-AVDGTTGIAY-AAYLSASTGY-SVMLMSATPY-AVSLVLGCNY-SIFATIRIGY-AVDIASLNGY-AFLLASINFY-MIVKKAGIGY-SVNFASQIGY-AFNHCTEIEY-ANDLAAKVGY-AWDMSNGTAY-SGVIMSNILY-SLLNAAAVRY-SLWLMGPILY-SIVYISLVEY-TVIFSDHVFY-SAIKSALVAY-AFVLTTASGY-AFHLAMHVWY-SLSLITGVLY-AVDFATRLGY-SWILATGIGY-SVNYRCLQVY-SFNLSMQIEY-TWDMAALVRY-AFIGSTGVRY-AINASMGIGY-AVVLSMRIGY-SVNLQMGTGY-ASDNSSQCIY-SLIHATPVGY-AWQFASVARY-TFNFAGNVEY-AVLVANRVSY-AIILAMGFGY-SVPMSAGVMY-SIDFHTGVGY-AVELSLLIGY-SIDCASVTGY-SIIMMTGVGY-SWDVSLGVGY-AVVWATGMGY-FFIDSMSVLY-AVGLPMTVMY-ALMLATGVHY-AVQLMSGVLY-SFIMASKIGY-SIMLMFGIGY-AIKLCTTTMY-SLILLTGTEY-TIDLCTSFGY-AVSWSLIVWY-SGVFAVGIGY-WWVLASGAYY-AMLIATGVGY-AVNWSALVGY-SGVIAAGAGY-VVNWLALTKY-AWNFAAMIQY-AVNLAMEYIY-AVAFSCGTKY-STRCSLRLAY-AIVFAVTVGY-ALALAGLIRY-TVNLSKSTGY-GLDLPADVMY-VFILSTGVKY-AVRLAACIPY-PILLSTCVGY-TVDLGLLVGY-VISLATMVGY-AIDYSIVVGY-TFLNSTGVGY-SVCYMTAIGY-KFVLSLGTNY-ALILASAVGY-AIELSTGVNY-THFIVKWVGY-SIILSAQMGY-SLELTGHTHY-SIGLCMVIGY-SINLAGMPGY-ALNLSGKIGY-SISMAAVTGY-AVSFLSVTGY,29,39
1,B,10,TVTLIVLGIG-TVTLIVLGIG-TVTLIVLGIG-TVTLIVLGIG-TVTLIVLGIG-TVTLIVLGIG-TVTLIVLGIG-TVTLIVLGIG-TVTLIVLGIG-TVTLIVLGIG-TVTLIVLGIG-TVTLIVLGIG-TVTLIVLGIG-TVTLIVLGIG-TVTLIVLGIG-TVTLIVLGIG-TVTLIVLGIG-TVTLIVLGIG-TVTLIVLGIG-TVTLIVLGIG-TVTLIVLGIG-TVTLIVLGIG-TVTLIVLGIG-TVTLIVLGIG-TVTLIVLGIG-TVTLIVLGIG-TVTLIVLGIG-TVTLIVLGIG-TVTLIVLGIG-TVTLIVLGIG-TVTLIVLGIG-TVTLIVLGIG-TVTLIVLGIG-TVTLIVLGIG-TVTLIVLGIG-TVTLIVLGIG-TVTLIVLGIG-TVTLIVLGIG-TVTLIVLGIG-TVTLIVLGIG-TVTLIVLGIG-TVTLIVLGIG-TVTLIVLGIG-TVTLIVLGIG-TVTLIVLGIG-TVTLIVLGIG-TVTLIVLGIG-TVTLIVLGIG-TVTLIVLGIG-TVTLIVLGIG-TVTLIVLGIG-TVTLIVLGIG-TVTLIVLGIG-TVTLIVLGIG-TVTLIVLGIG-TVTLIVLGIG-TVTLIVLGIG-TVTLIVLGIG-TVTLIVLGIG-TVTLIVLGIG-TVTLIVLGIG-TVTLIVLGIG-TVTLIVLGIG-TVTLIVLGIG-TVTLIVLGIG-TVTLIVLGIG-TVTLIVLGIG-TVTLIVLGIG-TVTLIVLGIG-TVTLIVLGIG-TVTLIVLGIG-TVTLIVLGIG-TVTLIVLGIG-TVTLIVLGIG-TVTLIVLGIG-TVTLIVLGIG-TVTLIVLGIG-TVTLIVLGIG-TVTLIVLGIG-TVTLIVLGIG-TVTLIVLGIG-TVTLIVLGIG-TVTLIVLGIG-TVTLIVLGIG-TVTLIVLGIG-TVTLIVLGIG-TVTLIVLGIG-TVTLIVLGIG-TVTLIVLGIG-TVTLIVLGIG-TVTLIVLGIG-TVTLIVLGIG-TVTLIVLGIG-TVTLIVLGIG-TVTLIVLGIG-TVTLIVLGIG-TVTLIVLGIG-TVTLIVLGIG-TVTLIVLGIG-TVTLIVLGIG,52,62
