,Chain,Length,designed_binder_seq
0,A,10,KRKAIEDLMD-WDRAIKDLQD-LDRAIENLTD-LANSIQELRD-LMMAFKDLMD-LDRAHIELED-LEQAIEDVYD-LELAIKNLMD-LDQAINLLED-LEFAIEGLHD-LEYAASGLED-LEYAIKNLTD-IEDAINNLMD-LDKAFNELAD-LEFYIKNLRD-LSDAIKDLRD-LEKAISNLND-LDRALRGLYD-LDEAIHELID-LEEAIEDLLD-TEKAITDLMD-LEDAIDDLYD-MDSALQDLRD-LDQPIWDLGD-LEVAIRNLSD-LEWSINNLED-LSNAIKGLAD-LNSAIKQLMD-VSHALNELSD-LDNALQDLRD-LNAAINDLRD-LDKALRELRD-LAFALKDLKD-LEDAIEAVED-DDEAIFGLRD-LEDAIKGLRD-LSQAISVLVD-LEEAIRRLDD-LDVDIRKLKD-VSKCIKNTGD-LDSAMSNLFD-LSVAIDDLYD-FSEALQDLRD-LDQALNMLED-IDKAINDHYD-QSTAIVGLED-IQMAIINPRD-LSYAINRLKD-MAEAIRGLED-LSEAIQAIMD-LADALQDLTD-LKDAIQNLRD-LYEAFTRLAD-IDKGIQELED-LNKAIHGLND-LDEALYHLED-FDVALDNLED-LGDSLPNLHD-LDKAIKELND-LDEALRRLID-LDQALKELQD-LEEACSDLFD-LNKAIQGLTD-LDQARRQLQD-LFCALRNLRD-LWEALLNLKD-LEHALKNLYD-LRKALRDLTD-LNQAINGLKD-LSKAIHELGD-LEDAIENLSD-LDEALMDVHD-LDVATPWLID-LAHAILELMD-LEEAISQLDD-LVEALMSLRD-LSDALSGLSD-LNEAFSNLQD-LEEAIQDLKD-LEDAIVDLSD-LRAAIRNLFD-IDIAIYQLWD-LDKAIRRLED-LSHAISDFCD-LDEAIEPMVD-MDEAITDLRD-LYHAIVALRD-LSNAIRDLGD-NDKAINNLID-IEDGIKAIRD-ISNAINNAYD-LDNAIRDLMD-LSWALHDLKD-LDLAIRSLND-LEDAIDSLWD-IDKAIRDLRD-LDYADKNLND-LEQAIDCLKD-LSEALKNLRD-GTSALKGLLD
1,B,10,---------------------------------------------------------------------------------------------------
