Unnamed: 0,Chain,Length,designed_binder_seq,cs,ce
0,A,10,KDVMFFLSFF-WTYMSLLMEF-PQTQHPKYRF-SEVDKLLQWF-FEQHKLLHIF-EEFRFLLNRF-SIIEDLLNNF-SSVLDLFKVF-PEVLKLLEKF-WYVHRMISRF-PWTLSLLNGF-IPQEILLHRF-DCTKDMLTFF-AFIKAFIQGF-PEILMLLSWF-EGVHTLGEHF-NNVLHLLEHF-ATQLYLLWHF-EFVKFLLAWF-TVNHDLERQF-QMVRSLIQVF-DEFTFLLEYF-DSTRFLYSSF-EVHTFLLSRF-KKVADLLSYF-SPVHAKYEFF-PHVLSLLDIF-SHIEAMLRIF-SFCLMMMGIF-SPIRYFGNRF-AEVLGLWGLF-PAILALLWMF-SIVKLMLDDF-KHLKGLMEWF-ECLLSLISKF-PVIEFMMKLF-EWNHMDLYHF-HHVIRLSERF-PEVINQIQDF-GECHEACDSF-SSQSLLLDIF-DEVIRLLEFF-SEILFLLKKF-HHTIRLLETF-EHTSLMLWFF-DGIKFLLSRF-FYILSLLSVF-YETKYLLAIF-ATTRCLFAAF-ESFVALLRFF-YELQFSLEFF-YHMKLLMSKF-EHSQSLIERF-YDTLYLITFF-VAWMILIERF-PIVNSLLRWF-HEFQYLLAWF-EDVRVFLGFF-DDQVYLLQVF-KYILLLASMF-RAVRKLLDHF-SYTKDMLSQF-PFDHYLLNFF-RSIKFLLYRF-YWLHYMLQWF-QHVYFPLARF-ADVHMMCERF-GDIISLLRWF-DEIKFLLEHF-PSIKYMHVVF-AQERYLLAHF-TWTTALMNNF-SEVISMLNWF-SEYDYLLNKF-QHTLTLLLMF-DYIKIWLGRF-SYVLFLLADF-WHTLELLNRF-AHILDMLEIF-AYVRVQEIVF-TEYIRLLGFF-PSTMKLFQAF-HPTASLLDIF-WLTSGLLEIF-AYIHFLMRHF-HFVIDLLRHF-HEVKLLLVYF-SDIKVLMNKF-AHIASLLERF-WAIKLLLSWF-SNNASRISFF-QDVLSIINRF-SSIKELLDFF-NVTLQLLEKF-EEYLRLLDRF-RAIHDLLHAF-NEELALIQRF-PMMPYLMYRF-KHVKSLLNKF-PEVLFLWQRF,304,314
1,B,10,KDVMFFLSFF-WTYMSLLMEF-PQTQHPKYRF-SEVDKLLQWF-FEQHKLLHIF-EEFRFLLNRF-SIIEDLLNNF-SSVLDLFKVF-PEVLKLLEKF-WYVHRMISRF-PWTLSLLNGF-IPQEILLHRF-DCTKDMLTFF-AFIKAFIQGF-PEILMLLSWF-EGVHTLGEHF-NNVLHLLEHF-ATQLYLLWHF-EFVKFLLAWF-TVNHDLERQF-QMVRSLIQVF-DEFTFLLEYF-DSTRFLYSSF-EVHTFLLSRF-KKVADLLSYF-SPVHAKYEFF-PHVLSLLDIF-SHIEAMLRIF-SFCLMMMGIF-SPIRYFGNRF-AEVLGLWGLF-PAILALLWMF-SIVKLMLDDF-KHLKGLMEWF-ECLLSLISKF-PVIEFMMKLF-EWNHMDLYHF-HHVIRLSERF-PEVINQIQDF-GECHEACDSF-SSQSLLLDIF-DEVIRLLEFF-SEILFLLKKF-HHTIRLLETF-EHTSLMLWFF-DGIKFLLSRF-FYILSLLSVF-YETKYLLAIF-ATTRCLFAAF-ESFVALLRFF-YELQFSLEFF-YHMKLLMSKF-EHSQSLIERF-YDTLYLITFF-VAWMILIERF-PIVNSLLRWF-HEFQYLLAWF-EDVRVFLGFF-DDQVYLLQVF-KYILLLASMF-RAVRKLLDHF-SYTKDMLSQF-PFDHYLLNFF-RSIKFLLYRF-YWLHYMLQWF-QHVYFPLARF-ADVHMMCERF-GDIISLLRWF-DEIKFLLEHF-PSIKYMHVVF-AQERYLLAHF-TWTTALMNNF-SEVISMLNWF-SEYDYLLNKF-QHTLTLLLMF-DYIKIWLGRF-SYVLFLLADF-WHTLELLNRF-AHILDMLEIF-AYVRVQEIVF-TEYIRLLGFF-PSTMKLFQAF-HPTASLLDIF-WLTSGLLEIF-AYIHFLMRHF-HFVIDLLRHF-HEVKLLLVYF-SDIKVLMNKF-AHIASLLERF-WAIKLLLSWF-SNNASRISFF-QDVLSIINRF-SSIKELLDFF-NVTLQLLEKF-EEYLRLLDRF-RAIHDLLHAF-NEELALIQRF-PMMPYLMYRF-KHVKSLLNKF-PEVLFLWQRF,304,314
