Unnamed: 0,Chain,Length,designed_binder_seq,cs,ce
0,A,10,FRSRGTGTLG-IPMSGTGALG-PALRGTGTLG-MNRQGTGTLG-MQRRGTGTLG-KDLRGMGAQG-VALRGTGSLG-LPLRGTGNLG-MEARGTGTIG-PPLRGTLDLG-MPLHGTGALG-IPLGGTGSLG-MYLRGTGDLG-VELRGTETCG-MQLRGTGTLG-MELRGTGHLG-MHLMGYGTLG-IKLKGTLDLG-TPLRGTGSLG-MYLRGTGTLG-MGLAGDGSVG-FTHRHHGNLG-SPLLGTATLG-PILRGTGVLG-KWARGTGTLG-VPRRGTNTLG-VDIKGTGELG-APLRDTGDVG-VPLRGSGTFG-IPLFGTGDLG-AALRGTGHIG-IELMGTMDLG-VTLKGTGDLG-DALRGTGTVG-MGLHGTGSLG-TPLLGTGALG-MDEQGTGQYG-EQMWGQCNLG-MGIRGTNVVG-VPLKGTGSLG-QPLWATGVNG-MSLQGFGDLG-FALWGTGCRG-MQSRGTSVLG-VKLLGTGCLG-LKRRGTGTIG-NPKRGTGPLG-VPHTGTGVLG-LKLRGTGSLG-VEMKGTGALG-GTLHGTNHVG-PDLRGRGTLG-LPLMGTGTLG-PPLRGIGLYG-TELRGTCTLG-MPMRGTGSYG-FPPRGTGNYG-MRQRGTMDLG-LQLFGTGTLG-VALRGTGTLG-VALRGTGAPG-PALRGTGALG-PDRHGSGDLG-QELRGTWDLG-GPRKGTGTMG-PPLRGTSTLG-LELRGTMCLG-VPLYGTERLG-PQPTGTGDLG-IPLRGTGAIG-PPLRGAGALG-MNVIGTTTIG-PRLMGTGTLG-VCLRGSGDQG-VPVTGMGAIG-TQLRGTGSLG-VPLRGMGTSG-TPLIGTGTLG-MALRGVGVLG-LYLRGTGSFG-SDIRGSGGLG-VPKRGSGDLG-TPLKGTGPLG-MGIQGTGALG-TRERETGCFG-MALRGNGDLG-IAHQGTGTLG-PKMRGMGNLG-GELVGTGKLG-VPLHGTGAFG-LEVRGTGTLG-MPMRGTAALG-YRLRGTSVIG-LPKFGTNDMG-QAPRGTGVLG-PCLMGTGSLG-MGLRYTGNLG-APVQGSTALG-PPKRGTGNIG-RHLNGTGTFG,0,10
1,B,10,FRSRGTGTLG-IPMSGTGALG-PALRGTGTLG-MNRQGTGTLG-MQRRGTGTLG-KDLRGMGAQG-VALRGTGSLG-LPLRGTGNLG-MEARGTGTIG-PPLRGTLDLG-MPLHGTGALG-IPLGGTGSLG-MYLRGTGDLG-VELRGTETCG-MQLRGTGTLG-MELRGTGHLG-MHLMGYGTLG-IKLKGTLDLG-TPLRGTGSLG-MYLRGTGTLG-MGLAGDGSVG-FTHRHHGNLG-SPLLGTATLG-PILRGTGVLG-KWARGTGTLG-VPRRGTNTLG-VDIKGTGELG-APLRDTGDVG-VPLRGSGTFG-IPLFGTGDLG-AALRGTGHIG-IELMGTMDLG-VTLKGTGDLG-DALRGTGTVG-MGLHGTGSLG-TPLLGTGALG-MDEQGTGQYG-EQMWGQCNLG-MGIRGTNVVG-VPLKGTGSLG-QPLWATGVNG-MSLQGFGDLG-FALWGTGCRG-MQSRGTSVLG-VKLLGTGCLG-LKRRGTGTIG-NPKRGTGPLG-VPHTGTGVLG-LKLRGTGSLG-VEMKGTGALG-GTLHGTNHVG-PDLRGRGTLG-LPLMGTGTLG-PPLRGIGLYG-TELRGTCTLG-MPMRGTGSYG-FPPRGTGNYG-MRQRGTMDLG-LQLFGTGTLG-VALRGTGTLG-VALRGTGAPG-PALRGTGALG-PDRHGSGDLG-QELRGTWDLG-GPRKGTGTMG-PPLRGTSTLG-LELRGTMCLG-VPLYGTERLG-PQPTGTGDLG-IPLRGTGAIG-PPLRGAGALG-MNVIGTTTIG-PRLMGTGTLG-VCLRGSGDQG-VPVTGMGAIG-TQLRGTGSLG-VPLRGMGTSG-TPLIGTGTLG-MALRGVGVLG-LYLRGTGSFG-SDIRGSGGLG-VPKRGSGDLG-TPLKGTGPLG-MGIQGTGALG-TRERETGCFG-MALRGNGDLG-IAHQGTGTLG-PKMRGMGNLG-GELVGTGKLG-VPLHGTGAFG-LEVRGTGTLG-MPMRGTAALG-YRLRGTSVIG-LPKFGTNDMG-QAPRGTGVLG-PCLMGTGSLG-MGLRYTGNLG-APVQGSTALG-PPKRGTGNIG-RHLNGTGTFG,0,10
