Unnamed: 0,Chain,Length,designed_binder_seq,cs,ce
0,A,10,TIDDSGIRDR-TRNFQGITER-TKDYAGIRDR-TRDFAGVEKR-TRTVRGIQQR-TIDFAGRSER-TYTRAGNVSR-TRFYRGWRSR-TMDLAGIRDR-TTDRYGDQSR-TVDFSGRQDR-TMDPSGIENR-TLDWAGIDNR-TKDYSGVHGR-TADLHGVKGR-TRNMAGVNQR-TFDCSSVFKR-TVDFAGRIER-TVDYAGIRDR-TDDRDAIENR-ICDHHGIKLR-TLDYCEKHER-TKFSSGTAER-TVDHSGITDR-TRDYAGIKNR-TRDRAACKGR-TRDRSGQAER-TCDYAGVKDR-TRDYAGIEQR-TRDYAGVNDR-TTDYHGVRDR-TFDRVGIKDR-TRDFSGLVDR-TTCWAGFEER-TTDRGGQKDR-TRDHDGIHQR-TVDHAGIVNR-TKDVAGVSQR-TVDRAGIKER-TRNVAGVIDR-TKKRAGIGDR-MFDQAGTEER-TFDKSGIIDR-TQDERGIRER-TVDRWRNVDR-TRDYPGHVNR-TRDYAGIVQR-TRDYAGISER-TEDQCGIKER-TRDRFGVKDR-TRDHAGSVDR-TFDWAGFKGR-TGDFAGVRDR-TKNYAGREDR-THDFAGCRNR-TWDRFGMVDR-TVPQHGHKER-TRDCAGIRER-TDQISGIVDR-TEDYCGVRER-TKNFAGTSRR-TSDHYAVVER-TQNRFAVKDR-TRNRWGLEKR-CRDVAGIPER-TRDKSGVNER-TCNTHGINDR-TVDTAAIKDR-TKDASGVGQR-TSEVAGIRNR-TMDVAGQIHR-TADQFGHKDR-THPFAGIRDR-TRDYAGVRDR-TTDYAGIHNR-TRDMAGVVDR-TLNRAGVDNR-TFDDGTVVNR-TRNLAGIKER-TRDVAGINDR-TENRGGVVDR-TTDRYGIKDR-TMDRFGVQDR-TRDDCGIRER-TRDIAGIVDR-TTDNNGVKDR-TQDYAAHKDR-TKDVAGIVKR-TVDHYGVYKR-TVDYHGVKNR-HIDKSGIKNR-TRDEAGVIER-TRDFAGRAQR-TLDKACVVSR-TMDLFGVQDR-TRDYAGIKER-TVDYSGVKDR-TTWEAGVVER-TDDSCGVLDR-TRTIHGVEVR,75,85
1,B,10,DSGIRDRVYS-FQGITERVYS-YAGIRDRVYS-FAGVEKRVYS-VRGIQQRVYS-FAGRSERVYS-RAGNVSRVYS-YRGWRSRVYS-LAGIRDRVYS-RYGDQSRVYS-FSGRQDRVYS-PSGIENRVYS-WAGIDNRVYS-YSGVHGRVYS-LHGVKGRVYS-MAGVNQRVYS-CSSVFKRVYS-FAGRIERVYS-YAGIRDRVYS-RDAIENRVYS-HHGIKLRVYS-YCEKHERVYS-SSGTAERVYS-HSGITDRVYS-YAGIKNRVYS-RAACKGRVYS-RSGQAERVYS-YAGVKDRVYS-YAGIEQRVYS-YAGVNDRVYS-YHGVRDRVYS-RVGIKDRVYS-FSGLVDRVYS-WAGFEERVYS-RGGQKDRVYS-HDGIHQRVYS-HAGIVNRVYS-VAGVSQRVYS-RAGIKERVYS-VAGVIDRVYS-RAGIGDRVYS-QAGTEERVYS-KSGIIDRVYS-ERGIRERVYS-RWRNVDRVYS-YPGHVNRVYS-YAGIVQRVYS-YAGISERVYS-QCGIKERVYS-RFGVKDRVYS-HAGSVDRVYS-WAGFKGRVYS-FAGVRDRVYS-YAGREDRVYS-FAGCRNRVYS-RFGMVDRVYS-QHGHKERVYS-CAGIRERVYS-ISGIVDRVYS-YCGVRERVYS-FAGTSRRVYS-HYAVVERVYS-RFAVKDRVYS-RWGLEKRVYS-VAGIPERVYS-KSGVNERVYS-THGINDRVYS-TAAIKDRVYS-ASGVGQRVYS-VAGIRNRVYS-VAGQIHRVYS-QFGHKDRVYS-FAGIRDRVYS-YAGVRDRVYS-YAGIHNRVYS-MAGVVDRVYS-RAGVDNRVYS-DGTVVNRVYS-LAGIKERVYS-VAGINDRVYS-RGGVVDRVYS-RYGIKDRVYS-RFGVQDRVYS-DCGIRERVYS-IAGIVDRVYS-NNGVKDRVYS-YAAHKDRVYS-VAGIVKRVYS-HYGVYKRVYS-YHGVKNRVYS-KSGIKNRVYS-EAGVIERVYS-FAGRAQRVYS-KACVVSRVYS-LFGVQDRVYS-YAGIKERVYS-YSGVKDRVYS-EAGVVERVYS-SCGVLDRVYS-IHGVEVRVYS,78,88
