,Chain,Length,designed_binder_seq
0,A,10,CSWCLLARNI-SYMLDLATEI-TRAERPAEGI-SDPQRLAQTI-SFVRRVATNI-VTHRKLATSI-WNNSTCAERI-CDPMWLGCHI-TDFFMVATNI-SSPKKIAERI-EEYEKLGLNI-PIPRQVAWKI-TDTIKLAQNI-STYNVLRLYI-TGLKSAGIQI-CYPERYADEI-VSKLPYSGNI-TNPIKVASRI-AWSRNLGSDI-TRWQRIARQI-TDFKNISISI-TSPRTFALNI-TDFVRVAKNI-CKYTGIALRI-SHPLRTAQRI-SVNKIIASNI-TYPVFTAKNI-SNERKWAEKI-TDMTRIALNI-TDWKKIAPNI-FDYRKIAEQI-CSMLKTGTLI-TDWRRVGLEI-MRPKDVAQMI-SDWKKIATNI-TLPVNLAERI-CNWVRVAGNI-SEYKHLAEQI-GITRKIALNI-THHLNIAGNI-TKMNRVACKI-SKVKRIALNI-YNKKQVALNI-VKYKDVSFMI-NDLRIIAMTI-SVPKTLALNI-TNPQRIGRNI-SEVLHVAQDI-TMPSDVAVRI-TCPQNIFLEI-CANHIIALNI-TSPLVLGSKI-AEYAPVAENI-SSSKRYARHI-VDFKRLANLI-VDVLGIAYNI-MNPIDFAEQI-SPAVWIAKDI-TDYKIIAMKI-LSYALYSKQI-QHRYNIAKNI-SHFLDIGQNI-TCFNHLAENI-ESPIKLAGDI-TLTSLIAQNI-SDARQLALNI-CNPDAVAVKI-SESLTVAKNI-SNTLDTAVNI-TSPLEIARNI-YDNSELAEHI-CNPILIAENI-VVAKSIAERI-CINKILAKNI-TGPLTPALNI-TNPQYISCTI-SSPKRNASRI-SNSCHVAHYI-TEPMDIAQEI-TSWKNVAGRI-NMRRTISRGI-TTERNIAENI-TSPIGIAGNI-THSPVIAQNI-CSLRSLAQNI-DSPQRIAERI-QEWKSIAQSI-DNLKSIALNI-VKPTFIAENI-TSTTNIAYHI-CSSRQLAEQI-MHFRHFAYRI-VYWKRVALRI-AKWKKVAENI-ASYKPLGRNI-KSYKEEAERI-AKQEEIAERI-NQWFHLALRI-TNPTNLAQKI-SRPMRLAYNI
1,B,10,VCETLQFLDI-VCETLQFLDI-VCETLQFLDI-VCETLQFLDI-VCETLQFLDI-VCETLQFLDI-VCETLQFLDI-VCETLQFLDI-VCETLQFLDI-VCETLQFLDI-VCETLQFLDI-VCETLQFLDI-VCETLQFLDI-VCETLQFLDI-VCETLQFLDI-VCETLQFLDI-VCETLQFLDI-VCETLQFLDI-VCETLQFLDI-VCETLQFLDI-VCETLQFLDI-VCETLQFLDI-VCETLQFLDI-VCETLQFLDI-VCETLQFLDI-VCETLQFLDI-VCETLQFLDI-VCETLQFLDI-VCETLQFLDI-VCETLQFLDI-VCETLQFLDI-VCETLQFLDI-VCETLQFLDI-VCETLQFLDI-VCETLQFLDI-VCETLQFLDI-VCETLQFLDI-VCETLQFLDI-VCETLQFLDI-VCETLQFLDI-VCETLQFLDI-VCETLQFLDI-VCETLQFLDI-VCETLQFLDI-VCETLQFLDI-VCETLQFLDI-VCETLQFLDI-VCETLQFLDI-VCETLQFLDI-VCETLQFLDI-VCETLQFLDI-VCETLQFLDI-VCETLQFLDI-VCETLQFLDI-VCETLQFLDI-VCETLQFLDI-VCETLQFLDI-VCETLQFLDI-VCETLQFLDI-VCETLQFLDI-VCETLQFLDI-VCETLQFLDI-VCETLQFLDI-VCETLQFLDI-VCETLQFLDI-VCETLQFLDI-VCETLQFLDI-VCETLQFLDI-VCETLQFLDI-VCETLQFLDI-VCETLQFLDI-VCETLQFLDI-VCETLQFLDI-VCETLQFLDI-VCETLQFLDI-VCETLQFLDI-VCETLQFLDI-VCETLQFLDI-VCETLQFLDI-VCETLQFLDI-VCETLQFLDI-VCETLQFLDI-VCETLQFLDI-VCETLQFLDI-VCETLQFLDI-VCETLQFLDI-VCETLQFLDI-VCETLQFLDI-VCETLQFLDI-VCETLQFLDI-VCETLQFLDI-VCETLQFLDI-VCETLQFLDI-VCETLQFLDI-VCETLQFLDI-VCETLQFLDI-VCETLQFLDI-VCETLQFLDI-VCETLQFLDI-VCETLQFLDI
