Unnamed: 0,Chain,Length,designed_binder_seq,cs,ce
0,A,10,QACFDHFFPI-QMCSDMHFPI-LTCFDYYFPI-SSCYDRFFPI-QTCFDEHYPI-NYCYDAKFPI-NSCYEHNFKI-QACMDIHFPI-TSCFDQFFPI-QVCFEEHFPI-HRCADKHFPI-LACYDHFFPI-NQCYNGHFPI-NVCMDEFFPI-NTCIDAYFQI-RACYDLYFPI-LACWESEFPI-KAAFDHYFPI-NSCYEDVFPI-KVCFDRFFPI-NVCWPQHFPI-QACYDQYFPI-QTCWDIFFSI-QSCFDKYLPI-QWCKLAYFPI-GACYDQYFPI-QAKWDHFFPI-NACYDGRFPI-NACYDAHFPI-NACYDTLFPI-NACRDQHFPI-YACWDRRYPI-RECWDNKAPI-MTCYDYYFPI-NSCRETFDPI-SACYDWFQPI-QTCSDEHKPI-NSCVDKHFPI-QKCRDHPWPI-RACYDACFPI-KTCFCARYPI-NVCLDAFQPI-NTCRDKFFPI-TACYDRVFPI-NACRDEHFPI-NACFGNYFPI-RTCHDKNFPI-NVCWDSYGPI-NTCYEDEFPI-QACMDMHFPI-ETCYNCWFPI-NVCRAHFFPI-MTCIPDFDPI-DRCFNDYFPI-NMCFDKFFPI-NACYDYFFHI-NVEWDSIFPI-NLCYDREFPI-SACLNSNFAI-LVCYDEAFPI-NACYDQFFVI-QSCFDAFFPI-NACNDMSFPI-NSCYDKVTPI-IACYDRYFNI-NACYDIQFPI-HACYEQFFPI-NQCFDYFCPI-NMCYRSYYII-QNCFDKFFPI-QSYYDHHFPI-MACYDEKHPI-RACYDSWQPI-NACRDSMQPI-NSCFEQHFKI-QACYDYFFPI-LTCIDEYHPI-NSCLLNHGKI-NLCCEQYYEI-NCCLDKYFPI-NTCFDMHFPI-KSCWDYYFPI-NACFERYNPI-NSCFEIFFPI-QVCRDVRFPI-TACGDYHSPI-NVCYDNHFPI-NVCYDSVFPI-SACYDDIFPI-NACFDAYYPI-MQCQDESFPI-QACYDKKFPI-VFCFDRYFPI-LGCLDKYFPI-NACMDRWFPI-NTCYDLHYDI-NACREWIQPI-IACIDQHYPI-NHCYELNYPI-QVCYDSNFPI,45,55
1,B,10,VIFEAAFMYV-VIFEAAFMYV-VIFEAAFMYV-VIFEAAFMYV-VIFEAAFMYV-VIFEAAFMYV-VIFEAAFMYV-VIFEAAFMYV-VIFEAAFMYV-VIFEAAFMYV-VIFEAAFMYV-VIFEAAFMYV-VIFEAAFMYV-VIFEAAFMYV-VIFEAAFMYV-VIFEAAFMYV-VIFEAAFMYV-VIFEAAFMYV-VIFEAAFMYV-VIFEAAFMYV-VIFEAAFMYV-VIFEAAFMYV-VIFEAAFMYV-VIFEAAFMYV-VIFEAAFMYV-VIFEAAFMYV-VIFEAAFMYV-VIFEAAFMYV-VIFEAAFMYV-VIFEAAFMYV-VIFEAAFMYV-VIFEAAFMYV-VIFEAAFMYV-VIFEAAFMYV-VIFEAAFMYV-VIFEAAFMYV-VIFEAAFMYV-VIFEAAFMYV-VIFEAAFMYV-VIFEAAFMYV-VIFEAAFMYV-VIFEAAFMYV-VIFEAAFMYV-VIFEAAFMYV-VIFEAAFMYV-VIFEAAFMYV-VIFEAAFMYV-VIFEAAFMYV-VIFEAAFMYV-VIFEAAFMYV-VIFEAAFMYV-VIFEAAFMYV-VIFEAAFMYV-VIFEAAFMYV-VIFEAAFMYV-VIFEAAFMYV-VIFEAAFMYV-VIFEAAFMYV-VIFEAAFMYV-VIFEAAFMYV-VIFEAAFMYV-VIFEAAFMYV-VIFEAAFMYV-VIFEAAFMYV-VIFEAAFMYV-VIFEAAFMYV-VIFEAAFMYV-VIFEAAFMYV-VIFEAAFMYV-VIFEAAFMYV-VIFEAAFMYV-VIFEAAFMYV-VIFEAAFMYV-VIFEAAFMYV-VIFEAAFMYV-VIFEAAFMYV-VIFEAAFMYV-VIFEAAFMYV-VIFEAAFMYV-VIFEAAFMYV-VIFEAAFMYV-VIFEAAFMYV-VIFEAAFMYV-VIFEAAFMYV-VIFEAAFMYV-VIFEAAFMYV-VIFEAAFMYV-VIFEAAFMYV-VIFEAAFMYV-VIFEAAFMYV-VIFEAAFMYV-VIFEAAFMYV-VIFEAAFMYV-VIFEAAFMYV-VIFEAAFMYV-VIFEAAFMYV-VIFEAAFMYV-VIFEAAFMYV-VIFEAAFMYV-VIFEAAFMYV,127,137
