Unnamed: 0,Chain,Length,designed_binder_seq,cs,ce
0,A,10,EQKKIPIKKW-YEVTIPRKAW-DDLRIPRDKW-QEVAIPRKKW-DLVSIPRKKW-AEVEIPDKKW-KKVSIPRKKW-QYVNIPRKKW-DQILIPRKKW-HYIWIPRNKW-KQKTIPRKKW-QEIMIPRKKW-EYRFIPRKKW-KFIDIPRKKW-IDVEIPRKKW-REVRIPRKKW-TTTKIPRKKW-QLVHIPRKKW-KHVRIPRKKW-EEISILRKKW-RMIMIPRKKW-ELVRIPRKFW-TKVYIPRKKW-LTRRIPRKKW-EKVLIPRKKW-EYVVIPRKKW-KKVGIPRKKW-ETVRIPGCKW-EYVNIPHKKW-TMVVIPRWKW-ELKKIPRKKW-EGIPIPRKKW-KQLNIPRKKW-TMVKIPRAKW-NCTCIPRKKW-EIVEIPRKKW-MNVQIPRKKW-SYVEIDRKKW-KMVKIPRKRW-QMVRIPRWKW-KEVRIPNKKW-DTIHIPRKKW-QIQEIPRKKW-ELIQIPRKHW-NEIQIPRKKW-KFVMQPRKKW-KLVTIPRKKW-KYVPIPRKKW-RRVMIPRKKW-QVQRIPRTKW-DEVSIPRRKW-EKVYIPRKKW-NQVCIPRKKW-EVVRIPRQKW-KIIHIPRKKW-EEVSIPRKKW-ARRTIPRKKW-KTVQIPRPKW-DHVEIPRKKW-MFIRIPRKKW-DHINIPRKMW-EQVEIPRKSW-KRIGIPRKKW-ATIKIPRKKW-RYRIIPRKKW-LMIAIPRKKW-KTRKIHHKKW-EELIIPRKKW-PEIKIPRKKW-EFVTIPRKKW-KERTIPRKKW-TLVMIPRKKW-EYVEIPRKKW-KILKIPRKKW-KECKIPRKKW-TLVLAPRHKW-EKKRIPRKKW-NQVLIPRAKW-EEIFKPRKKW-EMVCIPRKKW-IMKKIPRKKW-NKRYIPRKKW-KQVVIPRKKW-KFWDIPRYKW-DEVYIPRKKW-GYVKIPRKKW-KDIKIPRKKW-QEVKIPRRKW-EHVRIPRKKW-KMKRIPRKKW-RFLWIPRDKW-ALEWIPRKKW-NFVEIPRKKW-KCVKIRRKKW-RLVEIPRKKW-KHIVIPRKKW-EIINIPRKGW-KRIFIPRKKW-EEVVIPRKKW-QQVHIPRKKW,203,213
1,B,10,LEAKAKEQKK-LEAKARYEVT-LEAKADDDLR-LEAKANQEVA-LEAKAKDLVS-LEAKAKAEVE-LEAKALKKVS-LEAKAEQYVN-LEAKAKDQIL-LEAKADHYIW-LEAKAGKQKT-LEAKAAQEIM-LEAKAAEYRF-LEAKAPKFID-LEAKANIDVE-LEAKAKREVR-LEAKAATTTK-LEAKADQLVH-LEAKASKHVR-LEAKANEEIS-LEAKAARMIM-LEAKAAELVR-LEAKAKTKVY-LEAKAALTRR-LEAKAEEKVL-LEAKADEYVV-LEAKAQKKVG-LEAKAAETVR-LEAKANEYVN-LEAKADTMVV-LEAKAAELKK-LEAKAREGIP-LEAKAEKQLN-LEAKAKTMVK-LEAKADNCTC-LEAKAKEIVE-LEAKASMNVQ-LEAKAVSYVE-LEAKASKMVK-LEAKAAQMVR-LEAKALKEVR-LEAKAADTIH-LEAKAKQIQE-LEAKARELIQ-LEAKADNEIQ-LEAKAKKFVM-LEAKAEKLVT-LEAKAGKYVP-LEAKANRRVM-LEAKARQVQR-LEAKARDEVS-LEAKAREKVY-LEAKARNQVC-LEAKAKEVVR-LEAKARKIIH-LEAKAKEEVS-LEAKARARRT-LEAKAKKTVQ-LEAKAGDHVE-LEAKAEMFIR-LEAKASDHIN-LEAKAAEQVE-LEAKAGKRIG-LEAKAKATIK-LEAKARRYRI-LEAKAKLMIA-LEAKAKKTRK-LEAKAKEELI-LEAKAMPEIK-LEAKAKEFVT-LEAKAKKERT-LEAKALTLVM-LEAKAKEYVE-LEAKAHKILK-LEAKAEKECK-LEAKAATLVL-LEAKAKEKKR-LEAKARNQVL-LEAKAQEEIF-LEAKANEMVC-LEAKAAIMKK-LEAKAANKRY-LEAKAKKQVV-LEAKAEKFWD-LEAKADDEVY-LEAKAAGYVK-LEAKAKKDIK-LEAKASQEVK-LEAKAREHVR-LEAKASKMKR-LEAKAQRFLW-LEAKASALEW-LEAKAENFVE-LEAKAAKCVK-LEAKAERLVE-LEAKAEKHIV-LEAKAKEIIN-LEAKARKRIF-LEAKAAEEVV-LEAKAPQQVH,197,207
