Unnamed: 0,Chain,Length,designed_binder_seq,cs,ce
0,A,10,QVSTYYNFRW-NHNTYLNTPW-NVQTVPNTPW-RVVTYENTKW-KVPTHFNTLW-CVPMYLNTEW-NKPCHPNTFW-KTKVYQNDPW-NVPVSKNLVW-LTSIYQNTAW-KRPTTMDNPW-KTSIRPNTDW-RYKTGLNTDW-HVPTHFNNDW-KVPVNPNREW-SVPTHPATAW-KWPIPDNTEW-CVQTALNTLW-HNPVYENNGW-KVGVYQNLSW-RRPVYLNSVW-RAPTYLNTTW-KVPTALNSRW-YVPSPPNGTW-KYATCLNTDW-KEPTHLPWPW-RQSHYYNNNW-LVSTAWMTDW-KVKSCFNNAW-KIPLYPNTLW-SIPTFPNSEW-IVPTAPNNHW-CVPTTPENAW-RIPTDPNTQW-IKGVSEENQW-HVINNGNTDW-KEPTEPNSIW-QYNTYFNNRW-RVTTFQNTPW-NVSTDHNNAW-WRRDYFNPAW-KVKVPLNFEW-KAQVGSNYHW-QDPTAFNRMW-LVRVYLNTSW-KIDVSYNSEW-MVRVFNNNDW-MVPTTANTYW-TQNTKNNDAW-KWHTSLNTVW-TAMTYFNRDW-MITTWLNNKW-QVPVETNNDW-KYSVNLNNLW-LPSTSHNVDW-RQRVDPNNKW-LDRDDFNNFW-NVPLKLNHTW-RVTTGFNTDW-QTPNAPNNKW-HVSNWGNTNW-HQPVYFNNLW-RRVNSPNNDW-KIWTSANTAW-TVPVDLNTDW-RVSTNLNTCW-HQRIELNWDW-KVNTFLNNRW-LRPIYLNSPW-DVPNSMNNAW-HQRTYPNNRW-AVHTHPNSLW-TYPVFHNTLW-HENCHLNTDW-RQSCYPNFTW-KTSNYANTDW-KVPVNMSIEW-HYRNYLNNDW-HVHTALNTPW-HVPVSFNTQW-YRSTNLNNDW-KVPTGMNNEW-RVPTSFNNVW-LVPTKDNSKW-TNGTYLNTNW-SIATHPWFKW-EYPTSPNHAW-KTPVNLNNVW-RSSTFMNNKW-YVPTDLNSDW-HQSVYDNTLW-RVPTYMNTMW-RIPTNLNVPW-KQSIYPNTRW-KVPTSLNNWW-IVPVYPNRPW-HVPNRHNTFW-NVSANYNTAW-RVPVPYNTEW-IVPNHYNNLW,873,883
1,B,10,QVSTYYNFRW-NHNTYLNTPW-NVQTVPNTPW-RVVTYENTKW-KVPTHFNTLW-CVPMYLNTEW-NKPCHPNTFW-KTKVYQNDPW-NVPVSKNLVW-LTSIYQNTAW-KRPTTMDNPW-KTSIRPNTDW-RYKTGLNTDW-HVPTHFNNDW-KVPVNPNREW-SVPTHPATAW-KWPIPDNTEW-CVQTALNTLW-HNPVYENNGW-KVGVYQNLSW-RRPVYLNSVW-RAPTYLNTTW-KVPTALNSRW-YVPSPPNGTW-KYATCLNTDW-KEPTHLPWPW-RQSHYYNNNW-LVSTAWMTDW-KVKSCFNNAW-KIPLYPNTLW-SIPTFPNSEW-IVPTAPNNHW-CVPTTPENAW-RIPTDPNTQW-IKGVSEENQW-HVINNGNTDW-KEPTEPNSIW-QYNTYFNNRW-RVTTFQNTPW-NVSTDHNNAW-WRRDYFNPAW-KVKVPLNFEW-KAQVGSNYHW-QDPTAFNRMW-LVRVYLNTSW-KIDVSYNSEW-MVRVFNNNDW-MVPTTANTYW-TQNTKNNDAW-KWHTSLNTVW-TAMTYFNRDW-MITTWLNNKW-QVPVETNNDW-KYSVNLNNLW-LPSTSHNVDW-RQRVDPNNKW-LDRDDFNNFW-NVPLKLNHTW-RVTTGFNTDW-QTPNAPNNKW-HVSNWGNTNW-HQPVYFNNLW-RRVNSPNNDW-KIWTSANTAW-TVPVDLNTDW-RVSTNLNTCW-HQRIELNWDW-KVNTFLNNRW-LRPIYLNSPW-DVPNSMNNAW-HQRTYPNNRW-AVHTHPNSLW-TYPVFHNTLW-HENCHLNTDW-RQSCYPNFTW-KTSNYANTDW-KVPVNMSIEW-HYRNYLNNDW-HVHTALNTPW-HVPVSFNTQW-YRSTNLNNDW-KVPTGMNNEW-RVPTSFNNVW-LVPTKDNSKW-TNGTYLNTNW-SIATHPWFKW-EYPTSPNHAW-KTPVNLNNVW-RSSTFMNNKW-YVPTDLNSDW-HQSVYDNTLW-RVPTYMNTMW-RIPTNLNVPW-KQSIYPNTRW-KVPTSLNNWW-IVPVYPNRPW-HVPNRHNTFW-NVSANYNTAW-RVPVPYNTEW-IVPNHYNNLW,873,883
