Unnamed: 0,Chain,Length,designed_binder_seq,cs,ce
0,A,10,FDPMFWEALA-YNPEYYEALA-CDPKYWSASA-NPEAYWESLA-IDPAYWRALA-FDPAYYEALA-FDPARFQALA-DTIYYYKALA-FEPAYFHALA-FDPGYYQALA-YDPEVFQALA-YNANYYLALA-WDPAYWQALA-LVLEGYKALA-TNPAFSTALA-HNPEYKRALA-FDPNFWRAEA-LDPSYWQSRA-FDPDFFKAIA-ENEKYWQAFA-WDHKYAKAIA-LDPAFHAAVA-LDPSFYRAYA-CDKNYYEALA-YDPEYFRAKA-SDPYWFEALA-YETEFWEAMA-FDPELWLAYA-LNPQYFRARA-WDPQYFLALA-LEPEFFRACA-YDPYYWKALA-WSPQFFEADA-YNYEDFLALA-WDPEYYAALA-FSPCFWEARA-DRAEYWLAKA-YNPKYMRALA-MDPKFWEAWA-FQAEYHQALA-KDPTYWVALA-QHPCYWEALA-DNPAFWEARA-YDPQHWQALA-RSAEYFRAIA-QNPAYWRAGA-YDPAYYEALA-LSPKYFEALA-LDPNYFQALA-WSPLYYHALA-WDPRFFFALA-YNAEYFRALA-YDPSYWKGLA-LNHEFFEAIA-WDPKYYEAVA-GNPDYHKALA-HDPNYYQALA-QRASYFRALA-FDPQFWEALA-LNPKYYYALA-WDSEYYKALA-THPPYFDWFA-WQPAFYKALA-FDPEYHIARA-FDPAYYAALA-HDPGFWDALA-NEPEYYRALA-YDPEYFKALA-YEEEGYQALA-WNPAFFEALA-FDPGPWRALA-FNPAYFSAIA-YDPDYFKAVA-YDPRFWRAVA-FSPEYWEARA-WNPQWYRALA-DNPGYYEACA-HNPQYFEALA-WSPKGYEAKA-EDPSYYEALA-YHPAYEEAVA-LDPKTKMALA-WQPTFWDARA-HNPEYYRALA-DDPRYWEAYA-WDPDWWLGLA-FDSQIYTSLA-TDPDYYEALA-HSSVYFQAQA-HDPEFWQALA-YQRANFHALA-WAPEYYIGLA-YDPDYFEALA-FLSEAHAALA-WDNKFWLALA-SSPEYFPAKA-WDPHYWLALA-HDPQYYKALA-FMPDYYEAVA-FVSDYWLALA,2,12
1,B,10,FDPMFWEALA-YNPEYYEALA-CDPKYWSASA-NPEAYWESLA-IDPAYWRALA-FDPAYYEALA-FDPARFQALA-DTIYYYKALA-FEPAYFHALA-FDPGYYQALA-YDPEVFQALA-YNANYYLALA-WDPAYWQALA-LVLEGYKALA-TNPAFSTALA-HNPEYKRALA-FDPNFWRAEA-LDPSYWQSRA-FDPDFFKAIA-ENEKYWQAFA-WDHKYAKAIA-LDPAFHAAVA-LDPSFYRAYA-CDKNYYEALA-YDPEYFRAKA-SDPYWFEALA-YETEFWEAMA-FDPELWLAYA-LNPQYFRARA-WDPQYFLALA-LEPEFFRACA-YDPYYWKALA-WSPQFFEADA-YNYEDFLALA-WDPEYYAALA-FSPCFWEARA-DRAEYWLAKA-YNPKYMRALA-MDPKFWEAWA-FQAEYHQALA-KDPTYWVALA-QHPCYWEALA-DNPAFWEARA-YDPQHWQALA-RSAEYFRAIA-QNPAYWRAGA-YDPAYYEALA-LSPKYFEALA-LDPNYFQALA-WSPLYYHALA-WDPRFFFALA-YNAEYFRALA-YDPSYWKGLA-LNHEFFEAIA-WDPKYYEAVA-GNPDYHKALA-HDPNYYQALA-QRASYFRALA-FDPQFWEALA-LNPKYYYALA-WDSEYYKALA-THPPYFDWFA-WQPAFYKALA-FDPEYHIARA-FDPAYYAALA-HDPGFWDALA-NEPEYYRALA-YDPEYFKALA-YEEEGYQALA-WNPAFFEALA-FDPGPWRALA-FNPAYFSAIA-YDPDYFKAVA-YDPRFWRAVA-FSPEYWEARA-WNPQWYRALA-DNPGYYEACA-HNPQYFEALA-WSPKGYEAKA-EDPSYYEALA-YHPAYEEAVA-LDPKTKMALA-WQPTFWDARA-HNPEYYRALA-DDPRYWEAYA-WDPDWWLGLA-FDSQIYTSLA-TDPDYYEALA-HSSVYFQAQA-HDPEFWQALA-YQRANFHALA-WAPEYYIGLA-YDPDYFEALA-FLSEAHAALA-WDNKFWLALA-SSPEYFPAKA-WDPHYWLALA-HDPQYYKALA-FMPDYYEAVA-FVSDYWLALA,2,12
