Unnamed: 0,Chain,Length,designed_binder_seq,cs,ce
0,A,10,KDSVRVDSAE-QASHRVRHAE-ARDRRATSAE-DLKKAVVSAE-LTSSRIRSTE-DTAEKVDASE-LPETRTRSAE-RPDDQVDSSE-DAERRASSAE-APCRKCTDSE-TPRDRFRSAE-LASGRVTSAE-APHRRCTDWE-PADNLNRSKE-DPSLMARSAE-PASRFVRSAE-APRRRVQSRE-LPDRRCRSRE-LVKDQVTDAE-PRHLLVSDAE-APTCKTRTSE-NPRYRVADAE-NRNMRARSAE-MPEARVQNWE-CPEKRVRDAE-PDDLRARSAE-VAKQKARRFE-QPDRRITSTE-LPRDRATSHE-LAESRVRSAE-HHERRPRSTE-SRERRVRDAE-PSRSVCADAE-DAATRVRSAE-RKSRQLRSAE-NANDCARAWE-PWTLRAKTAE-LSERKTESAE-GRVRLCRNSE-HAKRRCHSAE-DAWRRFRSSE-PPCLRVTTQE-ESKRRVDTAE-QPHLRARNAE-MPECLVNSAE-LLTPKVASAE-TPENRVNSKE-RNALRANSAE-TSRRRVDSAE-PSHLRVRSAE-TPGAQARDAE-TKKREVAASE-PEHRRVTSTE-ESHAHTRSWE-TDNDLVRTAE-PNERKMQSAE-PAQSKIRSAE-PEKDRVWSAE-QQEWRVHSAE-ESDNHVEHAE-GIEKRTRSAE-EAENCVRSAE-EPEELYRSAE-NQARKVESSE-GQDSLVERSE-PAAGKARWAE-TRERAVRSAE-RERQRVSDSE-LPKRRARSAE-GQNLLVESGE-LSSFRVDSAE-TEQKKARSAE-LPERRVTNAE-PFDNLVGTAE-LPDRRVKSRE-FPERRRRDAE-DPALEVRSAE-VPSRFIERSE-DEDRRVRTAE-DLARHATSAE-KPNLVVRSAE-GQERRVRDSE-PPELRITSTE-TPFHKVQSAE-AYKARVRNAE-TPEMRVVSAE-TTEGLVKDWE-TPKDRVFSRE-EERTRVRSAE-CTELLANTAE-TPDRKCESYE-DPARLATSAE-SAFLRVGSAE-TQERPVRSAE-PASRQARSSE-WPENYEAQAE-TKPRAVESAE-PPPLQARSAE-VEKYRIRTAE-REGGRVRSSE,14,24
1,B,10,DSVRVDSAEG-ASHRVRHAEG-RDRRATSAEG-LKKAVVSAEG-TSSRIRSTEG-TAEKVDASEG-PETRTRSAEG-PDDQVDSSEG-AERRASSAEG-PCRKCTDSEG-PRDRFRSAEG-ASGRVTSAEG-PHRRCTDWEG-ADNLNRSKEG-PSLMARSAEG-ASRFVRSAEG-PRRRVQSREG-PDRRCRSREG-VKDQVTDAEG-RHLLVSDAEG-PTCKTRTSEG-PRYRVADAEG-RNMRARSAEG-PEARVQNWEG-PEKRVRDAEG-DDLRARSAEG-AKQKARRFEG-PDRRITSTEG-PRDRATSHEG-AESRVRSAEG-HERRPRSTEG-RERRVRDAEG-SRSVCADAEG-AATRVRSAEG-KSRQLRSAEG-ANDCARAWEG-WTLRAKTAEG-SERKTESAEG-RVRLCRNSEG-AKRRCHSAEG-AWRRFRSSEG-PCLRVTTQEG-SKRRVDTAEG-PHLRARNAEG-PECLVNSAEG-LTPKVASAEG-PENRVNSKEG-NALRANSAEG-SRRRVDSAEG-SHLRVRSAEG-PGAQARDAEG-KKREVAASEG-EHRRVTSTEG-SHAHTRSWEG-DNDLVRTAEG-NERKMQSAEG-AQSKIRSAEG-EKDRVWSAEG-QEWRVHSAEG-SDNHVEHAEG-IEKRTRSAEG-AENCVRSAEG-PEELYRSAEG-QARKVESSEG-QDSLVERSEG-AAGKARWAEG-RERAVRSAEG-ERQRVSDSEG-PKRRARSAEG-QNLLVESGEG-SSFRVDSAEG-EQKKARSAEG-PERRVTNAEG-FDNLVGTAEG-PDRRVKSREG-PERRRRDAEG-PALEVRSAEG-PSRFIERSEG-EDRRVRTAEG-LARHATSAEG-PNLVVRSAEG-QERRVRDSEG-PELRITSTEG-PFHKVQSAEG-YKARVRNAEG-PEMRVVSAEG-TEGLVKDWEG-PKDRVFSREG-ERTRVRSAEG-TELLANTAEG-PDRKCESYEG-PARLATSAEG-AFLRVGSAEG-QERPVRSAEG-ASRQARSSEG-PENYEAQAEG-KPRAVESAEG-PPLQARSAEG-EKYRIRTAEG-EGGRVRSSEG,15,25
