contacts,cs,ce,Chain,Length,designed_receptor_seq,native_receptor_seq,designed_binder_seq,native_binder_seq
17.0,120,130,A,10,MAEELEEAFAYLEKMARKMRLPEEVLETAKELFREVYEGKYLKGRKKGAIASACLYIATKKEGRPKTVREVEEISEYSREEILRMYKEILKALNMEVEEVTVEDFIEPFCKKLKLPEEVCEAAKYIGKKAVEMKLVPGRSPVAVAAAAIYMASQLSEKQKTQEEIGRVAGVSEVTIRRAYEEILPKAEELVPPDFKFYVPVEKLPKP-MEEELEEAFAYLEKMARKMKLPEEVLEEAKELFREVYRGKYLKGRKKGAVASACLYIATKKMGRPKTVREVEEISEYSKEEILKAYKEILKALNMSVEEVTVEDFIEPFCKKLKLPEEVCEAAKYIGKKAVEMKLVPGRSPVAVAAAAIYMASQLSEKQKTQEEIGKVAGVDEKTIARAYKEILPKAEELVPPDYKFYVPVEKLPKP-MEERKEEAFAYLRKMAEKMNLPEEVLETAKELFEEVYEKKALKGRKEGAIASACLYIATKKEGRPKTVKEVEEISEYSREEILKRYKEILEALNTSVKKVTVEDFIEPFCKRLNLPEEVKEAAKYIGKKAVEKKLVPGRSPVAVAAAAIYMASQLSEKQKTQEEIGKVAGVSEVTIRRAYEEILPEAEELIPPEYELAVPVEELPKP-MEEEIEEAFKYLEKMAKKMNLPEEILETAKELFKEVYEKKCLKGRKKETIASACLYIATKKEGKPKTVKEVEEVSKSSREEILKAYKEILKCLNMEVEEVTVEDFIEPFCKKLNLPEEVKEAAKYIGKKAVEMKLVPGRSPVAVAAAAIYMASQLSEKQKTQEEIGKVAGVDEKTIARAYKEILPKAEELIPPNYKLYVPVEKLPKP-MEEEEEEAFAYLEKMARKMKLPEEVLETAKELYRRVKRGKYLKGRKKEAVASACLYIATKIEGRPKTVREVEEISKYSREEILKAYREILKALKMEVKEVTVEDFIEPFCKKLKLPEEVCEAAKYIGKKAVEMKLVPGRSPVAVAAAAIYMASQLSEKQKTQEEIGKVAGVSEVTIRRAYEEILPKAEELVPPEYKFAVPVEKLPKP-MEEEIEEAFAYLEKMAKKMNLPEEILETTKELFKEVYEKKLLKGRKKGAIASACLYIATKKEGRPKTVKEIEKISEYSKEEILKAYKEILKGLNMEVKEVTVEDFIKPFCEKLNLPEEVCEAAKYIGKKAVEKKLVPGRSPVAVAAAAIYMASQLSEKQKTQEEIGKVAGVDEKTIARAYKEILPEAEELIPPDYKLYVPVEKLPKP-MAEELEEAFAYLEKMARKMRLPEEVLETAKELFREVYEKKCLKGRKKEAIASACLYIATKKEGRPKTVREVEEISKYSREEILKAYKEILKCLNMEVEEVKVEDFIEPFCKKLKLPEEVCECAKYIGKKAVEMKLVPGRSPVAVAAAAIYMASQLSEKQKTLEEIGKVAGVSEVTIARAYKEILPKAEELIPPEYKLYRPVEELPKP-MEEEIEEAFKYLEKMAKKMNLPEEVLETTKELFKEVYEKKCLKGRKKGAIASACLYIATKKEGKPKTVKEVEEISEYSKEEILKAYKEILKCLNMEVEEVKVEDFIERICKELNLPEEVKEAAKYIGKKAVEMKLVEGRSPVAVAAAAIYMASNLSEKQKTQEEIGKVAGVSEVTIRRAYEEILPKAEELIPPNYKLYVPVEKLPKP-MEEEEEEAFAYIEKMARKMRLPEEVVETTKELYRRVKRGRYLRGRKKGAIASACLYIATKIEGRPKTVREVERVTEYSREEILRMYREILRALNMEVEEVTVEDFIEPFCRKLRLPEEVCEAAKYIGRRAVEMRLVPGRSPVAVAAAAIYMASQLSERQKTQEEIGRVAGVDERTIRRAYEEILPYAEELVPPDYEFYVPVEELPRP-MEEEIEEAFAYIDRMARKMRLPEEVVETTKELFRRVYRGKYLKGRKKGAIASACLYIATKIEGRPKTVREVERISEYSREEILRMYREILKALNMSVKEVTVEDFIEPFCKKLKLPEEVCEAAKYIGRRAVEMKLVPGRSPVAVAAAAIYMASQLSEKQKTQEEIGRVAGVSEVTIRRAYEEILPYAEELIPPDYELYVPVEELPRP,SDRAMMNAFKEITTMADRINLPRNIVDRTNNLFKQVYEQKSLKGRANDAIASACLYIACRQEGVPRTFKEICAVSRISKKEIGRCFKLILKALETSVDLITTGDFMSRFCSNLCLPKQVQMAATHIARKAVELDLVPGRSPISVAAAAIYMASQASAEKRTQKEIGDIAGVADVTIRQSYRLIYPRAPDLFPTDFKFDTPVDKLPQL-SDRAMMNAFKEITTMADRINLPRNIVDRTNNLFKQVYEQKSLKGRANDAIASACLYIACRQEGVPRTFKEICAVSRISKKEIGRCFKLILKALETSVDLITTGDFMSRFCSNLCLPKQVQMAATHIARKAVELDLVPGRSPISVAAAAIYMASQASAEKRTQKEIGDIAGVADVTIRQSYRLIYPRAPDLFPTDFKFDTPVDKLPQL-SDRAMMNAFKEITTMADRINLPRNIVDRTNNLFKQVYEQKSLKGRANDAIASACLYIACRQEGVPRTFKEICAVSRISKKEIGRCFKLILKALETSVDLITTGDFMSRFCSNLCLPKQVQMAATHIARKAVELDLVPGRSPISVAAAAIYMASQASAEKRTQKEIGDIAGVADVTIRQSYRLIYPRAPDLFPTDFKFDTPVDKLPQL-SDRAMMNAFKEITTMADRINLPRNIVDRTNNLFKQVYEQKSLKGRANDAIASACLYIACRQEGVPRTFKEICAVSRISKKEIGRCFKLILKALETSVDLITTGDFMSRFCSNLCLPKQVQMAATHIARKAVELDLVPGRSPISVAAAAIYMASQASAEKRTQKEIGDIAGVADVTIRQSYRLIYPRAPDLFPTDFKFDTPVDKLPQL-SDRAMMNAFKEITTMADRINLPRNIVDRTNNLFKQVYEQKSLKGRANDAIASACLYIACRQEGVPRTFKEICAVSRISKKEIGRCFKLILKALETSVDLITTGDFMSRFCSNLCLPKQVQMAATHIARKAVELDLVPGRSPISVAAAAIYMASQASAEKRTQKEIGDIAGVADVTIRQSYRLIYPRAPDLFPTDFKFDTPVDKLPQL-SDRAMMNAFKEITTMADRINLPRNIVDRTNNLFKQVYEQKSLKGRANDAIASACLYIACRQEGVPRTFKEICAVSRISKKEIGRCFKLILKALETSVDLITTGDFMSRFCSNLCLPKQVQMAATHIARKAVELDLVPGRSPISVAAAAIYMASQASAEKRTQKEIGDIAGVADVTIRQSYRLIYPRAPDLFPTDFKFDTPVDKLPQL-SDRAMMNAFKEITTMADRINLPRNIVDRTNNLFKQVYEQKSLKGRANDAIASACLYIACRQEGVPRTFKEICAVSRISKKEIGRCFKLILKALETSVDLITTGDFMSRFCSNLCLPKQVQMAATHIARKAVELDLVPGRSPISVAAAAIYMASQASAEKRTQKEIGDIAGVADVTIRQSYRLIYPRAPDLFPTDFKFDTPVDKLPQL-SDRAMMNAFKEITTMADRINLPRNIVDRTNNLFKQVYEQKSLKGRANDAIASACLYIACRQEGVPRTFKEICAVSRISKKEIGRCFKLILKALETSVDLITTGDFMSRFCSNLCLPKQVQMAATHIARKAVELDLVPGRSPISVAAAAIYMASQASAEKRTQKEIGDIAGVADVTIRQSYRLIYPRAPDLFPTDFKFDTPVDKLPQL-SDRAMMNAFKEITTMADRINLPRNIVDRTNNLFKQVYEQKSLKGRANDAIASACLYIACRQEGVPRTFKEICAVSRISKKEIGRCFKLILKALETSVDLITTGDFMSRFCSNLCLPKQVQMAATHIARKAVELDLVPGRSPISVAAAAIYMASQASAEKRTQKEIGDIAGVADVTIRQSYRLIYPRAPDLFPTDFKFDTPVDKLPQL-SDRAMMNAFKEITTMADRINLPRNIVDRTNNLFKQVYEQKSLKGRANDAIASACLYIACRQEGVPRTFKEICAVSRISKKEIGRCFKLILKALETSVDLITTGDFMSRFCSNLCLPKQVQMAATHIARKAVELDLVPGRSPISVAAAAIYMASQASAEKRTQKEIGDIAGVADVTIRQSYRLIYPRAPDLFPTDFKFDTPVDKLPQL,KKKKFEDPEA-EEEEFEDPEE-EEEEFEDPEE-EEEKFEDPEA-KKKKFEDPEA-KEEEFKDPEA-EEEEFEDPEE-EEEEFEDPEA-EEEEWEDPEE-EEEEFEDPEE,QQFSSYEPEL-QQFSSYEPEL-QQFSSYEPEL-QQFSSYEPEL-QQFSSYEPEL-QQFSSYEPEL-QQFSSYEPEL-QQFSSYEPEL-QQFSSYEPEL-QQFSSYEPEL
11.0,132,142,B,10,SSGITPKIQNIVASVNLGCRLDLKKLALILRNAEYDPKRFAALIYRIREPKTTALIFASGKMVCTGAKSEKESRLAARKYARVIRKCGYPARFEDFKIQNMVGSCDVKFPIRLEGIILAHSHLCSYEPELFPGLIYRMREPKIVALIFVSGKVVLTGAKVREEIYAAFEKLYPILKGYQI-SSGITPKIQNIVASVNLGCRLDLKKLALALRNAEYDPERFAALIYRIREPKTTALIFASGKMVCTGAKSEKEAKLAARKYARVIRKHGYPAKFEDFKIQNMVGSCDVKFPIRLEGIILAHSHLCSYEPELFPGLIYRMREPKIVALIFVSGKIVLTGAKVREEIYAAFEKLYPILKGYQK-SSGIRPQIQNIVASVNLGCRLDLKKLALALRNAEYDPKRFAALIYRIREPKTTALIFASGKMVCTGAKSEREAKLAARKYARVIRKHGYPAKFEDFKIQNMVGSCDVKFPIRLEGIVLAHSHLCSYEPELFPGLIYRMVEPKIVALIFVSGKVVLTGAKVRREIYEAFEKLYPILKGYQR-SSGITPKIQNIVASVNLGCRLDLKKLALILRNAEYDPERFAALIYRIREPKTTALIFASGKMVVTGAKSERESRLAARKYARVIRKCGYPAKFEDFKIQNMVGSCDVKFPIRLEGIVLAHSHLCSYEPELFPGLIYRMIEPKIVALIFVSGKVVLTGAKVRREIYEAFEKLYPILKGYQV-SSGITPQIQNIVASVNLGCRLDLKKLALILRNAEYDPERFAALIYRIREPKTTALIFASGKMVVTGAKSEREAKLAARKYARVIRKCGYPAKFEDFKIQNMVGSCDVKFPIRLEGIILAHSHLCSYEPELFPGLIYRMREPKIVALIFVSGKIVLTGAKVREEIYEAFEKLYPILKGFQR-MSGIKPKIQNIVASVNLGCRLDLKKLALILRNAEYDPERFAALIYRIREPKTTALIFASGKMVVTGAKSEKEAKLAARKYARVIRKAGYPAKFEDFKIQNMVGSCDVKFPIRLEGIILAHSHLSSYEPELFPGMIYRMIEPKIVALIFVSGKIVLTGAKVREEIYEAFEKLYPILKGYQE-SSGITPKIQNIVASVNLGCKLDLKKLALILRNAEYDPERFAALIYRIREPKTTALIFASGKMVVTGAKSEKESREAARKYARVIRKCGYPAKFEKFKIQNMVGSCDVKFPIRLEGIILAHSHLCSYEPELFPGLIYRMIEPKIVALIFVSGKIVLTGAKVRKEIYEAFEKLYPILKGYQK-SSGITPKIQNIVASVNLGCRLDLKKLALILRNAEYDPERFAALIYRIREPKTTALIFASGKMVVTGAKSEKEAKEAARKYARVIRKCGYPAKFEKFKIQNMVGSCDVKFPIRLEGIILAHSHLCSYEPELFPGLIYRMVEPKIVALIFVSGKIVLTGAKVREEIYEAFEKLYPILKGYQE-SSGITPKIQNIVASVNLGCRLDLKKLALVLRNAEYDPKRFAALIYRIREPKTTALIFASGKMVCTGAKSEKEAKLAARKYARVIRKCGYPAKFEKFKIQNMVGSCDVKFPIRLEGIILAHSHLCSYEPELFPGLIYRMVEPKIVALIFVSGKIVLTGAKVRKEIYEAFEKLYPILKGYQK-SSGITPKIQNIVASVNLGCRLDLKKLALLLPNAEYDPERFAALIYRIREPKTTALIFASGKMVCTGAKSEREAKLAARKYARVIRKCGYPAKFEDFKIQNMVGSCDVKFPIRLEGIILAHSHLCSYEPELFPGLIYRMREPKIVALIFVSGKVVLTGAKVRREIYEAFEKLYPILKGFQR,GSGIVPQLQNIVSTVNLGCKLDLKTIALRARNAEYNPKRFAAVIMRIREPRTTALIFSSGKMVCTGAKSEEQSRLAARKYARVVQKLGFPAKFLDFKIQNMVGSCDVKFPIRLEGLVLTHQQFSSYEPELFPGLIYRMIKPRIVLLIFVSGKVVLTGAKVRAEIYEAFENIYPILKGFRK-GSGIVPQLQNIVSTVNLGCKLDLKTIALRARNAEYNPKRFAAVIMRIREPRTTALIFSSGKMVCTGAKSEEQSRLAARKYARVVQKLGFPAKFLDFKIQNMVGSCDVKFPIRLEGLVLTHQQFSSYEPELFPGLIYRMIKPRIVLLIFVSGKVVLTGAKVRAEIYEAFENIYPILKGFRK-GSGIVPQLQNIVSTVNLGCKLDLKTIALRARNAEYNPKRFAAVIMRIREPRTTALIFSSGKMVCTGAKSEEQSRLAARKYARVVQKLGFPAKFLDFKIQNMVGSCDVKFPIRLEGLVLTHQQFSSYEPELFPGLIYRMIKPRIVLLIFVSGKVVLTGAKVRAEIYEAFENIYPILKGFRK-GSGIVPQLQNIVSTVNLGCKLDLKTIALRARNAEYNPKRFAAVIMRIREPRTTALIFSSGKMVCTGAKSEEQSRLAARKYARVVQKLGFPAKFLDFKIQNMVGSCDVKFPIRLEGLVLTHQQFSSYEPELFPGLIYRMIKPRIVLLIFVSGKVVLTGAKVRAEIYEAFENIYPILKGFRK-GSGIVPQLQNIVSTVNLGCKLDLKTIALRARNAEYNPKRFAAVIMRIREPRTTALIFSSGKMVCTGAKSEEQSRLAARKYARVVQKLGFPAKFLDFKIQNMVGSCDVKFPIRLEGLVLTHQQFSSYEPELFPGLIYRMIKPRIVLLIFVSGKVVLTGAKVRAEIYEAFENIYPILKGFRK-GSGIVPQLQNIVSTVNLGCKLDLKTIALRARNAEYNPKRFAAVIMRIREPRTTALIFSSGKMVCTGAKSEEQSRLAARKYARVVQKLGFPAKFLDFKIQNMVGSCDVKFPIRLEGLVLTHQQFSSYEPELFPGLIYRMIKPRIVLLIFVSGKVVLTGAKVRAEIYEAFENIYPILKGFRK-GSGIVPQLQNIVSTVNLGCKLDLKTIALRARNAEYNPKRFAAVIMRIREPRTTALIFSSGKMVCTGAKSEEQSRLAARKYARVVQKLGFPAKFLDFKIQNMVGSCDVKFPIRLEGLVLTHQQFSSYEPELFPGLIYRMIKPRIVLLIFVSGKVVLTGAKVRAEIYEAFENIYPILKGFRK-GSGIVPQLQNIVSTVNLGCKLDLKTIALRARNAEYNPKRFAAVIMRIREPRTTALIFSSGKMVCTGAKSEEQSRLAARKYARVVQKLGFPAKFLDFKIQNMVGSCDVKFPIRLEGLVLTHQQFSSYEPELFPGLIYRMIKPRIVLLIFVSGKVVLTGAKVRAEIYEAFENIYPILKGFRK-GSGIVPQLQNIVSTVNLGCKLDLKTIALRARNAEYNPKRFAAVIMRIREPRTTALIFSSGKMVCTGAKSEEQSRLAARKYARVVQKLGFPAKFLDFKIQNMVGSCDVKFPIRLEGLVLTHQQFSSYEPELFPGLIYRMIKPRIVLLIFVSGKVVLTGAKVRAEIYEAFENIYPILKGFRK-GSGIVPQLQNIVSTVNLGCKLDLKTIALRARNAEYNPKRFAAVIMRIREPRTTALIFSSGKMVCTGAKSEEQSRLAARKYARVVQKLGFPAKFLDFKIQNMVGSCDVKFPIRLEGLVLTHQQFSSYEPELFPGLIYRMIKPRIVLLIFVSGKVVLTGAKVRAEIYEAFENIYPILKGFRK,KKKKLGEPPK-GCKFLGKPPK-GGKYLGLPPE-KGLLPGKPPE-GGKLLGLPPR-KKKKLGKPPK-GGKYLGLPPK-EEEELGKPPK-KNPFLGKPPK-EEEELGKPPK,LDLVPGRSPI-LDLVPGRSPI-LDLVPGRSPI-LDLVPGRSPI-LDLVPGRSPI-LDLVPGRSPI-LDLVPGRSPI-LDLVPGRSPI-LDLVPGRSPI-LDLVPGRSPI
