contacts,cs,ce,Chain,Length,designed_receptor_seq,native_receptor_seq,designed_binder_seq,native_binder_seq
31.0,63,73,A,10,GSHMPAPRRTIREIREARSDDEELIKYRQLLLGEGPEVTMPDQPNVRVVSREFVIEEAPDPVTMNLEGDLDALKDAVLVFKEGEPYQVRYTFQVNRDIVNGLRQENFVYRDGQLVATDNWLIGSFGPRPEAYQFLTPEQVMPTGSEANGTYKVHGRFIDDDDVEHLRFEYNVRIASDYE-MDFSPPPKATLKELREADADNELLIEFRKLLLGGGPKLVIPNMPNVNITQRDFIIEEAPGPVTMDLNGDLDELKKSTLVIKEGVRFQIKYTFQVNKDIVTGLMLVNEIYRDGKLVNRSRFLIGTFGPKPEKYEFLTPEQVAPSGSIFNGTYHSKVRFTDDDLVNHKEFEYNVKVTKSWD-AAFKPAPSATIQEIRDSHAADASLIEFKNLLLGEGPLVTFPNQPNVTITQRHYLIEEAPGPVTMDLTGDLSALERSTLVLKEGVEYQVLYTFRVNREIVRGLRCENIIYRDGVEVERNSWLIGSFGPKPEEYEFKSPPLKLPSGLLMRGTYHNRVRFVDDRDVEHKEFQYNVSVTSSWD-AEVQPPPEATIEEILEAKSDDEKLIEYKKKLLGGGPNIVIPNMPNVAITSVDYIIESAPGPISMDLTGDLSTLKNSTLIFKEGVPYQVKYTFRVNRKIVRGLRLEEEIYRDGKLINKETWLIGSFGPRPSEYRFLTPPKVLPSGSIARGTYHIKQRFTDDNNVLHKEFEYNVEVKKSWE-GSSSPPPEASIEELRSAFSSDTTLKAYKESLLGHGPRLVRPGSPNVLITSREFLIESAPGPTTMDLTGDREALRNSTLVIKEGEAYRVRLTFQVNREIVRGLRQENVVYRDGVEVARKDWLIGSFGPRPESYTFLTPEAVAPSGSAANGTYHFESRFTDDRETEHLSFEYNVSVQAAWA-GSSSPPPKATLEELRNRWNDDEELIRFRKLLLGDGPQIVVPNMPNVKVTDLKFLIEDAPGPIKMDLTGDLAKLKESTLVLKEGVKYKILLTFQVNKDIVEGLKRELDIYRDGQLVKKMDTLIGSYGPRPSEYNFETPELTAPEGDLARGTYHIHGRFIDDDKVEHLRFEYNVKIAREWS-SMSAPAPKATIEQIENEDSDDEIKILFKKILLGGGPKIVFPDEPNVTITSLEYLIEEAPGPISMDLTGDIESLKNSTLIFKEGVSYQVRFTFRVNNDIVRGLKLENEIYRRGQLVSKESFLIGTFGPKPQEYTFLTPQQVLPEGTLAMGTYHNKVRFTDDDNVNHLSFEYNVKVAKSWD-GSSSPPPKATLEELRSAYSDNKVLRQYRDLLLGGGPKVVFPHEPNVCITSLEFEIEEAPGPVAMDLTGDLETLKKSTLVFKQGVPYRVKYTFRVNKDIVCGLTQEDLVYREGKLVAKNSWLIGSYGPRPESYEFLTPVRTLPEGSDAMGTYHLLSRFTDDDKVEHKRFEYNVKIAADYK-GAMTPPPYATIQEIRDAYSDDEFLIKYRELLLGQGPQVVIPDMPNVKVTSLEFLIESAPGPVRMDLTGDLSRLDRSTLVLKEGVDYQVKYTFQVNREIVTGLRRVSKVYRDGQLVDLSEELIGTFGPRPSEYYFLTPVQTMPAGEEARGTYHVEQHFTDDRHVLHLQFEYNVKVAKSWD-GSHMPPPGRTIHEIRAAFIDDEELRKYRQELLGGGPTEIVPNEPNVTVTSLRFLIEEAPGPIEMDLTGDLKKLEESTLVFKEGVPYRVEYTFRVNREIVTGLRQEDYVYRDGVLVNFSEWLIGSFGPRPDPYYFLTPVRTLPEGAEARGTYHHETRFVDDRDTDHLRFQFNLRVEKDWG,GNYKPPPQKSLKELQEMDKDDESLIKYKKTLLGDGPVVTDPKAPNVVVTRLTLVCESAPGPITMDLTGDLEALKKETIVLKEGSEYRVKIHFKVNRDIVSGLKYVQHTYRTGVKVDKATFMVGSYGPRPEEYEFLTPVEEAPKGMLARGTYHNKSFFTDDDKQDHLSWEWNLSIKKEWG-GNYKPPPQKSLKELQEMDKDDESLIKYKKTLLGDGPVVTDPKAPNVVVTRLTLVCESAPGPITMDLTGDLEALKKETIVLKEGSEYRVKIHFKVNRDIVSGLKYVQHTYRTGVKVDKATFMVGSYGPRPEEYEFLTPVEEAPKGMLARGTYHNKSFFTDDDKQDHLSWEWNLSIKKEWG-GNYKPPPQKSLKELQEMDKDDESLIKYKKTLLGDGPVVTDPKAPNVVVTRLTLVCESAPGPITMDLTGDLEALKKETIVLKEGSEYRVKIHFKVNRDIVSGLKYVQHTYRTGVKVDKATFMVGSYGPRPEEYEFLTPVEEAPKGMLARGTYHNKSFFTDDDKQDHLSWEWNLSIKKEWG-GNYKPPPQKSLKELQEMDKDDESLIKYKKTLLGDGPVVTDPKAPNVVVTRLTLVCESAPGPITMDLTGDLEALKKETIVLKEGSEYRVKIHFKVNRDIVSGLKYVQHTYRTGVKVDKATFMVGSYGPRPEEYEFLTPVEEAPKGMLARGTYHNKSFFTDDDKQDHLSWEWNLSIKKEWG-GNYKPPPQKSLKELQEMDKDDESLIKYKKTLLGDGPVVTDPKAPNVVVTRLTLVCESAPGPITMDLTGDLEALKKETIVLKEGSEYRVKIHFKVNRDIVSGLKYVQHTYRTGVKVDKATFMVGSYGPRPEEYEFLTPVEEAPKGMLARGTYHNKSFFTDDDKQDHLSWEWNLSIKKEWG-GNYKPPPQKSLKELQEMDKDDESLIKYKKTLLGDGPVVTDPKAPNVVVTRLTLVCESAPGPITMDLTGDLEALKKETIVLKEGSEYRVKIHFKVNRDIVSGLKYVQHTYRTGVKVDKATFMVGSYGPRPEEYEFLTPVEEAPKGMLARGTYHNKSFFTDDDKQDHLSWEWNLSIKKEWG-GNYKPPPQKSLKELQEMDKDDESLIKYKKTLLGDGPVVTDPKAPNVVVTRLTLVCESAPGPITMDLTGDLEALKKETIVLKEGSEYRVKIHFKVNRDIVSGLKYVQHTYRTGVKVDKATFMVGSYGPRPEEYEFLTPVEEAPKGMLARGTYHNKSFFTDDDKQDHLSWEWNLSIKKEWG-GNYKPPPQKSLKELQEMDKDDESLIKYKKTLLGDGPVVTDPKAPNVVVTRLTLVCESAPGPITMDLTGDLEALKKETIVLKEGSEYRVKIHFKVNRDIVSGLKYVQHTYRTGVKVDKATFMVGSYGPRPEEYEFLTPVEEAPKGMLARGTYHNKSFFTDDDKQDHLSWEWNLSIKKEWG-GNYKPPPQKSLKELQEMDKDDESLIKYKKTLLGDGPVVTDPKAPNVVVTRLTLVCESAPGPITMDLTGDLEALKKETIVLKEGSEYRVKIHFKVNRDIVSGLKYVQHTYRTGVKVDKATFMVGSYGPRPEEYEFLTPVEEAPKGMLARGTYHNKSFFTDDDKQDHLSWEWNLSIKKEWG-GNYKPPPQKSLKELQEMDKDDESLIKYKKTLLGDGPVVTDPKAPNVVVTRLTLVCESAPGPITMDLTGDLEALKKETIVLKEGSEYRVKIHFKVNRDIVSGLKYVQHTYRTGVKVDKATFMVGSYGPRPEEYEFLTPVEEAPKGMLARGTYHNKSFFTDDDKQDHLSWEWNLSIKKEWG,DGVLRPLAEN-YGVLAPLAAN-YGVLVPLAEN-LGVLEPLAAK-NGVLAPLADN-DGRLIPLALA-YGVLIPLAAR-LGVLVPLAAN-FGRLIPLALN-DGVLLPLAAN,YDRLRPLSYP-YDRLRPLSYP-YDRLRPLSYP-YDRLRPLSYP-YDRLRPLSYP-YDRLRPLSYP-YDRLRPLSYP-YDRLRPLSYP-YDRLRPLSYP-YDRLRPLSYP
22.0,22,32,B,10,AIDIKCVVVGDGAVGKTCLLISYTTNQFPGEYIPTVFENYTANVQVDDVPVNLGLWDTAGQEDYDRLRPLSYPQTDVFLICFSLVSPASFENVREKWYPEVRHHCPNTPIILVGTKLDLREDKDTRERLAEKNLSPITYPQGKALAEAINCVKYIECSALTQQNLEEVFIEAIKAVLRPKK-AIFIKCVVVGDGAVGKTCLLISYTTNSFPGEYVPTVFENYTASVMVDDTPVNLGLWDTAGQEDYDRLRPLSYPQTDVFLICFSLVSPDSFENVREKWHPEVRHYCPNTPIILVGTKLDLREDKNTIEKLAKKKQKPITYPMGLQLAEDINCVKYLECSALTQKNLEEVFIEAIRAVLNPTP-SIYIKCVVVGDGAVGKTCLLISYTTDSFPGEYVPTVFENYTASVDVDDQPVNLGLWDTAGQEEYDRLRPLSYPQTDVFLICFSLVSPDSFENVRQKWYPEVRHHCPNVPIILVGTKLDLRDDVETRRNLEKKKLSPITYPQGKALAEEINCVRYLECSALTQQNLKEVFIEAIRAVLRPSE-MTRIKCVVVGDGAVGKTCLLISYTTNRFPGEYVPTVFDNYSANMEVDDIPVNLGLWDTAGQEDYDRLRPLSYPQTDVFLVCFSLVSPDSFENVREKWYPEVRHYCPNTPIILVGTQLDLRDDKDTVEKLRKKNQQPITYPQGLELAKKINCVKYLECSALTQRGLEEVFVEAIRAVLKPSD-MTNIKCVVVGDGAVGKTCLLISYTTNAFPGEYVPTVFDNYTANIQVDDTPVNLGLWDTAGQEDYDRLRPLSYPQTDVFLICFSLVSPSSYENVREKWYPEVRHYCPNTPIILVGTKLDLRDDSNTRQKLEEKNMHPITYPEGAALAKEINCVKYIECSALTQKNLAEVFVEAIKAVLHPTD-SLSIKCVVVGDGAVGKTCLLISYTTNAFPGEYVPTVFENYSASVQVDDIPVNLGLWDTAGQEDYDRLRPLSYPQTDVFLICFSLVSPDSYENVRSKWYPEVRHHCPNTPIILVGTQLDLRDDRDTIKKLEEESKHPITYPQGLELAKDIHCVKYLECSALTQRNLKEVFIQAVRAVLEPKP-MIKIKCVVVGDGAVGKTCLLISYTTNQFPGEYVPTVFENYTASLQVDNQPVHLGLWDTAGQEDYDRLRPLSYPQTDVFLICFSLVSPDSFENVRNKWYPEVRHFCPDTPIILVGTKLDLREDEQTRQELAKRKQQPITFPMGQELAKSIQSVKYLECSALTQRNLEEVFVQAIKAVLQPDN-MINIKCVVVGDGAVGKTCLLISYTTNSFPGEYVPTVFENYTAQVEVDDQPVNLGLWDTAGQEDYDRLRPLSYPQTDVFLICFSLVSPSSYHNVREKWYPEVRHYCPDVPIILVGTKLDLREDKETREKLAAKKQHPITYPEGLALAKDIKCVKYLECSAKTQKNLEEVFIEAIRAVLKPKK-MTNIKCVVVGDGAVGKTCLLISYTTNSFPGEYVPTVFDNYTASVDVEDQPVNLGLWDTAGQEEYDRLRPLSYPQTDVFLICFSLVSPSSFENVREKWHPEVRHYCPTTPIILVGTKLDLREDKETVERLAAKNQSPITYPMGKELAEQISCVKYLECSALTQRNLKEVFIEAIRAVLFPND-STNIKCVVVGDGAVGKTCLLISYTTDSFPGEYVPTVFENYSVSMEVDDQPINLGLWDTAGQEDYDRLRPLSYPQTDVFLICFSLVSPSSFENVKEKWYPEVRHYCPDTPIILVGTKLDLREDEKTRKELEKKKLHPITYPEGLDLAEKIKCVKYIECSSLTQKNLKEVFTEAVRAVLEPNP,MQAIKCVVVGDGAVGKTCLLISYTTNAFPGEYIPTVFDNYSANVMVDSKPVNLGLWDTAGQEDYDRLRPLSYPQTDVFLICFSLVSPASYENVRAKWFPEVRHHCPSTPIILVGTKLDLRDDKDTIEKLKEKKLAPITYPQGLALAKEIDSVKYLECSALTQRGLKTVFDEAIRAVLCPQP-MQAIKCVVVGDGAVGKTCLLISYTTNAFPGEYIPTVFDNYSANVMVDSKPVNLGLWDTAGQEDYDRLRPLSYPQTDVFLICFSLVSPASYENVRAKWFPEVRHHCPSTPIILVGTKLDLRDDKDTIEKLKEKKLAPITYPQGLALAKEIDSVKYLECSALTQRGLKTVFDEAIRAVLCPQP-MQAIKCVVVGDGAVGKTCLLISYTTNAFPGEYIPTVFDNYSANVMVDSKPVNLGLWDTAGQEDYDRLRPLSYPQTDVFLICFSLVSPASYENVRAKWFPEVRHHCPSTPIILVGTKLDLRDDKDTIEKLKEKKLAPITYPQGLALAKEIDSVKYLECSALTQRGLKTVFDEAIRAVLCPQP-MQAIKCVVVGDGAVGKTCLLISYTTNAFPGEYIPTVFDNYSANVMVDSKPVNLGLWDTAGQEDYDRLRPLSYPQTDVFLICFSLVSPASYENVRAKWFPEVRHHCPSTPIILVGTKLDLRDDKDTIEKLKEKKLAPITYPQGLALAKEIDSVKYLECSALTQRGLKTVFDEAIRAVLCPQP-MQAIKCVVVGDGAVGKTCLLISYTTNAFPGEYIPTVFDNYSANVMVDSKPVNLGLWDTAGQEDYDRLRPLSYPQTDVFLICFSLVSPASYENVRAKWFPEVRHHCPSTPIILVGTKLDLRDDKDTIEKLKEKKLAPITYPQGLALAKEIDSVKYLECSALTQRGLKTVFDEAIRAVLCPQP-MQAIKCVVVGDGAVGKTCLLISYTTNAFPGEYIPTVFDNYSANVMVDSKPVNLGLWDTAGQEDYDRLRPLSYPQTDVFLICFSLVSPASYENVRAKWFPEVRHHCPSTPIILVGTKLDLRDDKDTIEKLKEKKLAPITYPQGLALAKEIDSVKYLECSALTQRGLKTVFDEAIRAVLCPQP-MQAIKCVVVGDGAVGKTCLLISYTTNAFPGEYIPTVFDNYSANVMVDSKPVNLGLWDTAGQEDYDRLRPLSYPQTDVFLICFSLVSPASYENVRAKWFPEVRHHCPSTPIILVGTKLDLRDDKDTIEKLKEKKLAPITYPQGLALAKEIDSVKYLECSALTQRGLKTVFDEAIRAVLCPQP-MQAIKCVVVGDGAVGKTCLLISYTTNAFPGEYIPTVFDNYSANVMVDSKPVNLGLWDTAGQEDYDRLRPLSYPQTDVFLICFSLVSPASYENVRAKWFPEVRHHCPSTPIILVGTKLDLRDDKDTIEKLKEKKLAPITYPQGLALAKEIDSVKYLECSALTQRGLKTVFDEAIRAVLCPQP-MQAIKCVVVGDGAVGKTCLLISYTTNAFPGEYIPTVFDNYSANVMVDSKPVNLGLWDTAGQEDYDRLRPLSYPQTDVFLICFSLVSPASYENVRAKWFPEVRHHCPSTPIILVGTKLDLRDDKDTIEKLKEKKLAPITYPQGLALAKEIDSVKYLECSALTQRGLKTVFDEAIRAVLCPQP-MQAIKCVVVGDGAVGKTCLLISYTTNAFPGEYIPTVFDNYSANVMVDSKPVNLGLWDTAGQEDYDRLRPLSYPQTDVFLICFSLVSPASYENVRAKWFPEVRHHCPSTPIILVGTKLDLRDDKDTIEKLKEKKLAPITYPQGLALAKEIDSVKYLECSALTQRGLKTVFDEAIRAVLCPQP,SLTDFLRKLL-ALELYRRHLM-SLKKYMALLL-AMKNYLKKLL-SLEEYTRRLL-ALRDYLKQLL-ASLRYRKMLG-SLKDYVKKLC-ALETYRKHLL-SLQEYLERLL,SLIKYKKTLL-SLIKYKKTLL-SLIKYKKTLL-SLIKYKKTLL-SLIKYKKTLL-SLIKYKKTLL-SLIKYKKTLL-SLIKYKKTLL-SLIKYKKTLL-SLIKYKKTLL
