contacts,cs,ce,Chain,Length,designed_receptor_seq,native_receptor_seq,designed_binder_seq,native_binder_seq
6.0,22,32,A,10,VQLTPPVLSVEVSGNKYRIVWRDERPKRDDVDRVYEVQFWRDTTSWGEAPATTHVNAGSVELPALEPGSVYHARVRVREVRNGYEGTWSAWSEPVSWTVAP-STLAPPVVSVEKKGNKYRLVWNNGTERGSDVDIETEVVYWEETVSWEQAPAVTTTNVNSLELPELKPGATYFARVRQREVKNGFRGVWSEWSTPVSWTVEP-SQETPPVLSVSQNGNAYSINWSTGTPAADNVDRVYEITYWASESSWGSAPTTTLTNQNSQSLPSLTPSTTYYARVRVRLRKDGVEGAWSAWSTPVSWTVTP-AELAPPQLRVERDGDAYRLVWSEGEPAPSWVDLEYEVVFWREDATRGEAPARTLVNEGELSLPALLPGARYHAEVRVREVRDGLAGAWSAWSEPVSWTVAP-AELAPPVLSVEQDNNRYRLVWSDGVPADSSVSRQVALQFWAREHSWGSAPVQWFVNTGSVELPSLGPSTTYFARARVREVRNGLSGPWSSWSTPVSWTVAP-MEGAPPVLSISKDGDKYSINWSDGYPKDADIDYEYDIVYWAENKSWGETPITTKINVGSMDLPSLEPNTKYFARVRVRSVKKGIHGTWSEWSAPVSWTVGP-EELGPPKVAVKVLGDVYSIEWEDGKPREKWEDRVYEIVFWEEDKTWEESPSTTFTNVTSVKLPALKPNTRYFAKVRVRLSAYGYYGVWSKWSEPVSWTVKP-TTLSPPTVSVEQSGNNYRLVWKDGEEDQSWVDREYWVRYWEASKTAEESPEVKLVNKGEVELPELEPGKTYYAEVRVREVKKGYEGEWSDWSEPVSWTVED-VTLSPPVVSIRVVGNRYEIVWSDGEPRSSNVDLVYEVRYWRSDASAGSAPAETFTDVGRRALPALEPSAVYYAQVRVRESKNGEHGAWSAWSAEVSWTVAP-ATLSPPSVSVDRSGGSYRILWSDGTPRDSHVDREYRIRYWAQRTTWSGAPATTRTDVGEVALPALKPGARYYAQVQVREVRHGVTGTWSAWSTPVSWTVKP,IQMAPPSLNVTKDGDSYSLRWETMKMRYEHIDHTFEIQYRKDTATWKDSKTETLQNAHSMALPALEPSTRYWARVRVRTSRTGYNGIWSEWSEARSWDTES-IQMAPPSLNVTKDGDSYSLRWETMKMRYEHIDHTFEIQYRKDTATWKDSKTETLQNAHSMALPALEPSTRYWARVRVRTSRTGYNGIWSEWSEARSWDTES-IQMAPPSLNVTKDGDSYSLRWETMKMRYEHIDHTFEIQYRKDTATWKDSKTETLQNAHSMALPALEPSTRYWARVRVRTSRTGYNGIWSEWSEARSWDTES-IQMAPPSLNVTKDGDSYSLRWETMKMRYEHIDHTFEIQYRKDTATWKDSKTETLQNAHSMALPALEPSTRYWARVRVRTSRTGYNGIWSEWSEARSWDTES-IQMAPPSLNVTKDGDSYSLRWETMKMRYEHIDHTFEIQYRKDTATWKDSKTETLQNAHSMALPALEPSTRYWARVRVRTSRTGYNGIWSEWSEARSWDTES-IQMAPPSLNVTKDGDSYSLRWETMKMRYEHIDHTFEIQYRKDTATWKDSKTETLQNAHSMALPALEPSTRYWARVRVRTSRTGYNGIWSEWSEARSWDTES-IQMAPPSLNVTKDGDSYSLRWETMKMRYEHIDHTFEIQYRKDTATWKDSKTETLQNAHSMALPALEPSTRYWARVRVRTSRTGYNGIWSEWSEARSWDTES-IQMAPPSLNVTKDGDSYSLRWETMKMRYEHIDHTFEIQYRKDTATWKDSKTETLQNAHSMALPALEPSTRYWARVRVRTSRTGYNGIWSEWSEARSWDTES-IQMAPPSLNVTKDGDSYSLRWETMKMRYEHIDHTFEIQYRKDTATWKDSKTETLQNAHSMALPALEPSTRYWARVRVRTSRTGYNGIWSEWSEARSWDTES-IQMAPPSLNVTKDGDSYSLRWETMKMRYEHIDHTFEIQYRKDTATWKDSKTETLQNAHSMALPALEPSTRYWARVRVRTSRTGYNGIWSEWSEARSWDTES,PVPTGWGTVQ-EEPTYWGEEW-VTPISWGVSY-RVPLAWGVLR-AVPVSWGVSL-PEPPSWGEKY-GKPAEWGVER-EEPEEWGEEW-GTPRGWGVTE-SVPLTWGVTY,CRANEYGDSF-CRANEYGDSF-CRANEYGDSF-CRANEYGDSF-CRANEYGDSF-CRANEYGDSF-CRANEYGDSF-CRANEYGDSF-CRANEYGDSF-CRANEYGDSF
4.0,21,31,B,10,MITVTQSPSSQTVAVGGTLTITATLSNNGNDYVDWYVQWPGGPRTLLIYNATTRYSGMPATVSGSGSATTFTLTISPFQAVDNATYYAEDRTTPPYASSNGCTVYASAAVRAPTLTLTAPTAGALSRGQAVITCDATSFYPNNLDWAWYIDGTAATAGLTTTNTAQNRTNTCYSRTTTLTLSKTAYDAHTTYTCQATHSSSATPITVSFTK-PTQIITSPAQQTVALGNTATITCTANSNGTARIDWFVQKPGQPQMLLIYNATTRYSGMPAQVSGSGTATTFTLTLSPVQATDTATYYCRDRTTPPYTYSQGSTITVAAAVKCPSVTITPPTAQQLSQGIATITCDATNFYPNNLTWAWYKDGNAVTSGITTTAASQNLTNATYSATATWTLTEASYNAGTTYTCSATHTCSNTPITNSFTR-PINLTTSPASQTVALGSTCTITCTATTNGKYYIDWYAQWPGGPRVALITNATTRYAGMPSTVTGSGTDTTFTLTINPVLTSFNATYYCEDKTTPPRVMSNGSTITISTSAKCPVVTIAAPTSGQLAVGKATITCNATNFYPSTLTFSWYRDGTAVTTGVTTTTSAQNRTDATYSATATLTLTAAAYNAGTTYTCQATHTCSATPVTVSFTK-DIVVTQSPSSQTVALGGTLTIQCVTSTNGTAYVDWYEQRVGSPPTLLIYNATTRYSGAPSTVTGSGSSNTYTLTLSPVQASFNATYYCRDRSTPPYSFGNGNTVTVSAAVACPVVTLTPPTTGELSQGVATITCDATNFYPNNLTWQWFRDGVLVTTGVTSTTAAQDQTNTNYSRTVTLTLTKAQYDAGTYYTCRATHVCNTTPVTVSFNK-ATTVLQTPSSQTVALGGSLSITATTSSSGTSFVDWYIQKAGQPRTLLIYNATTRFAGVPANITGAGTATTFTLTISPFLAEDNATYYAEDRTTPPYTRSNGSTITAASAAACPTLTIAPPTAAELATGSATITCNATSFNPNTLTFAWYRDGTLQTTGVTGTNAAQDLTNNNYSRTVTLTLSVADYNAGTNYTCQATHSCSTTPTTASFTK-DIKVVQTPSSQSVALGSTLTITCTLTNRGRDYIDWYEQRYGEPPKLLIYDATTRHAGMPATVTGSGTATTFVLTINPVTASMNATYYCSDWTVPPRTESTGSTVTVTNAVRCPVVTLTPPTAGELATNRATITCDAKNFYPDTLTFQWLRDGVLVTTGVSQTQSTQDLTNAAYSATVTWTMSRAEYEAGTTYTCQATHVCSATPFTVSFVK-ATVITQTPASVAVAVGGTATITCTATTAGTPYVDWYVKKAGGPPTLLVYSSTTRYAGAPAAVSASGTTTTFTLTLSPVAYTDTATYYCRDQTTPPYAYSNGATITVTGAVACPVATLAPPTTGELATNTATITCNYTSFFPNTLTYAWYRDGTAVTTGVTTTTAAQDLTNNNYSTTATLTLTAAAYNAGTTYTCQATHTCATTPITVSFTK-MVTITATPSSVSVALGSTCTITCTASNNGVNYVDWYIQRAGQPRTLLIWNATTRYSGAPSNVTGSGTTTTFTLTISPVQNSFNATYYCQDRTTPPWNFSNGVTITISAATACPTVTLTAPTAGQLATNTAVITCDATGFFPDVLTWKFFRDGVSQTTGITTVYSAQDLTNSNYSATATWTLTVSAYNSASTYTCQATHVCSSTPVTVSFTK-MITLVQTPASVTVALGGTAVITCTRSDDGVDYIDWYAQAAGGPRTTLIYNATTRYAGAPAEVSGSGTATSFTLTLSPVTAAFTATYYCRDRSVPPFSDSNGCTIEVSSATACPAVTLAAPTAGELAVNLATITCTATGFYPNDLTFAWYRDGAAVTSGVSTVNAAQSLTDVRFSTTATWTLSRAAYLAGTTYTCSATHVCTTTPVTVSFTR-YITLTSSPSSVTVKLGDTLVITCTADTDGTERIDWYIQKAGGPPQLLIYNATTRFSGMPAEVTGSGSATVFTLTLNPVQAYHNATYYCQDRTTPPYSFSNGTTITVDTADACPSVTFTAPTDGELQVNKATITCNATNFYPNNLTYAWYIDGTAQTTGITGTNAAQDKTNANYSKTVTLTLTKAAYDAHTTYTCQATHTCSSTPITVSFTK,NIVLTQSPASLAVSLGQRATISCRANEYGDSFMHWYQQKPGQPPKLLIYLASNLASGVPARFSGSGSRTDFTLTIDPVETDDAATYYCQQNNEDPWTFGGGTKLEIKRGDAAPTVSIFPPSSEQLTSGGASVVCFLNNFYPKDANVAWKIDGSERQNGVLNSWTDQDSKDSTYSMSSTLTLTKDEYERHNSYTCEATHKTSTSPIVKSFNR-NIVLTQSPASLAVSLGQRATISCRANEYGDSFMHWYQQKPGQPPKLLIYLASNLASGVPARFSGSGSRTDFTLTIDPVETDDAATYYCQQNNEDPWTFGGGTKLEIKRGDAAPTVSIFPPSSEQLTSGGASVVCFLNNFYPKDANVAWKIDGSERQNGVLNSWTDQDSKDSTYSMSSTLTLTKDEYERHNSYTCEATHKTSTSPIVKSFNR-NIVLTQSPASLAVSLGQRATISCRANEYGDSFMHWYQQKPGQPPKLLIYLASNLASGVPARFSGSGSRTDFTLTIDPVETDDAATYYCQQNNEDPWTFGGGTKLEIKRGDAAPTVSIFPPSSEQLTSGGASVVCFLNNFYPKDANVAWKIDGSERQNGVLNSWTDQDSKDSTYSMSSTLTLTKDEYERHNSYTCEATHKTSTSPIVKSFNR-NIVLTQSPASLAVSLGQRATISCRANEYGDSFMHWYQQKPGQPPKLLIYLASNLASGVPARFSGSGSRTDFTLTIDPVETDDAATYYCQQNNEDPWTFGGGTKLEIKRGDAAPTVSIFPPSSEQLTSGGASVVCFLNNFYPKDANVAWKIDGSERQNGVLNSWTDQDSKDSTYSMSSTLTLTKDEYERHNSYTCEATHKTSTSPIVKSFNR-NIVLTQSPASLAVSLGQRATISCRANEYGDSFMHWYQQKPGQPPKLLIYLASNLASGVPARFSGSGSRTDFTLTIDPVETDDAATYYCQQNNEDPWTFGGGTKLEIKRGDAAPTVSIFPPSSEQLTSGGASVVCFLNNFYPKDANVAWKIDGSERQNGVLNSWTDQDSKDSTYSMSSTLTLTKDEYERHNSYTCEATHKTSTSPIVKSFNR-NIVLTQSPASLAVSLGQRATISCRANEYGDSFMHWYQQKPGQPPKLLIYLASNLASGVPARFSGSGSRTDFTLTIDPVETDDAATYYCQQNNEDPWTFGGGTKLEIKRGDAAPTVSIFPPSSEQLTSGGASVVCFLNNFYPKDANVAWKIDGSERQNGVLNSWTDQDSKDSTYSMSSTLTLTKDEYERHNSYTCEATHKTSTSPIVKSFNR-NIVLTQSPASLAVSLGQRATISCRANEYGDSFMHWYQQKPGQPPKLLIYLASNLASGVPARFSGSGSRTDFTLTIDPVETDDAATYYCQQNNEDPWTFGGGTKLEIKRGDAAPTVSIFPPSSEQLTSGGASVVCFLNNFYPKDANVAWKIDGSERQNGVLNSWTDQDSKDSTYSMSSTLTLTKDEYERHNSYTCEATHKTSTSPIVKSFNR-NIVLTQSPASLAVSLGQRATISCRANEYGDSFMHWYQQKPGQPPKLLIYLASNLASGVPARFSGSGSRTDFTLTIDPVETDDAATYYCQQNNEDPWTFGGGTKLEIKRGDAAPTVSIFPPSSEQLTSGGASVVCFLNNFYPKDANVAWKIDGSERQNGVLNSWTDQDSKDSTYSMSSTLTLTKDEYERHNSYTCEATHKTSTSPIVKSFNR-NIVLTQSPASLAVSLGQRATISCRANEYGDSFMHWYQQKPGQPPKLLIYLASNLASGVPARFSGSGSRTDFTLTIDPVETDDAATYYCQQNNEDPWTFGGGTKLEIKRGDAAPTVSIFPPSSEQLTSGGASVVCFLNNFYPKDANVAWKIDGSERQNGVLNSWTDQDSKDSTYSMSSTLTLTKDEYERHNSYTCEATHKTSTSPIVKSFNR-NIVLTQSPASLAVSLGQRATISCRANEYGDSFMHWYQQKPGQPPKLLIYLASNLASGVPARFSGSGSRTDFTLTIDPVETDDAATYYCQQNNEDPWTFGGGTKLEIKRGDAAPTVSIFPPSSEQLTSGGASVVCFLNNFYPKDANVAWKIDGSERQNGVLNSWTDQDSKDSTYSMSSTLTLTKDEYERHNSYTCEATHKTSTSPIVKSFNR,NTTTTALIWS-RYDAPALTWQ-VSATKALAWE-ARGTTALYWQ-PSNYPALYWQ-NTTVPALWWE-PATTVALAWN-NYTATKLWYQ-PVTTAALTYQ-VNNAPALSWQ,ETMKMRYEHI-ETMKMRYEHI-ETMKMRYEHI-ETMKMRYEHI-ETMKMRYEHI-ETMKMRYEHI-ETMKMRYEHI-ETMKMRYEHI-ETMKMRYEHI-ETMKMRYEHI
