contacts,cs,ce,Chain,Length,designed_receptor_seq,native_receptor_seq,designed_binder_seq,native_binder_seq
30.0,39,49,A,10,EENWLSCHCDGYCRPTNIANTCQTNGYCFAIIDQGSVFVKKGCLRHSGAKVQCNSNPSAPVKFRIECCQADFCNNALNPELPP-AEPWLECECHGHCSGDNFANTDKTDGYCFSIVTQNGTSWKSGCLKNEGASIQCRANPEHYLKYKIRCCKEDLCNVQRRPALPP-EEPWLKCHCEGRCPDDHVEHTCTTSGYCFAIVTSDGLKHFSGCLKEEGADIQCSSDPYAPFQNTIRCCRRYLCNNEVHPQLPA-SEPYLECYCRGFCPSDHILNTCTTDGYCFAINTTDPKTWHSGCLKKEGATVLCTDSDLHPICFNIECCRRNLCNNDMKPKLPP-DQPWLRCHCLGYCSPQEVENTCVTNGYCFSIIGTGRNQLKRGCLREEGAMLQCRGNPHAHYRYRIECCQENFCNMHMFPQLPP-TQPFLHCYCSGYCPDDNILNTCETDGYCFALVTEDNNQIFSGCLKLEGSETQCQASPYAIVDRSIVCCNELYCNLHVYPELPP-DSPSLKCYCQGYCPLDNIAFTCYTEGFCFRIVRTDSETRNSGCMENDGAEDQCAKSPHAEARSTIVCCRQDLCNLNMYPKLPP-ASPYLTCKCEGYCNDSEVENKCTTDGYCFAVRTTNLKRQSSGCLHYIGAHIECTDDPQDVDVATILCCEEDLCDAHTKPTLPP-SIPTLQCYCLGFCPNDHLVQSCITDGYCFKIIQVEPVRNYSGCMKRQGSDIQCQSDPNSPYDSKIECCQDDFCNTSRTPTLPP-ASPWLRCYCLGYCSNDHISNTDDTDGYCFRIRNTEHQTERAGCLRLQGSHRQCEANETQDRKSEIVCCRHDYCNTKLNPVLPP,TLPFLKCYCSGHCPDDAINNTCITNGHCFAIIEEDETTLASGCMKYEGSDFQCKDSPKAQLRRTIECCRTNLCNQYLQPTLPP-TLPFLKCYCSGHCPDDAINNTCITNGHCFAIIEEDETTLASGCMKYEGSDFQCKDSPKAQLRRTIECCRTNLCNQYLQPTLPP-TLPFLKCYCSGHCPDDAINNTCITNGHCFAIIEEDETTLASGCMKYEGSDFQCKDSPKAQLRRTIECCRTNLCNQYLQPTLPP-TLPFLKCYCSGHCPDDAINNTCITNGHCFAIIEEDETTLASGCMKYEGSDFQCKDSPKAQLRRTIECCRTNLCNQYLQPTLPP-TLPFLKCYCSGHCPDDAINNTCITNGHCFAIIEEDETTLASGCMKYEGSDFQCKDSPKAQLRRTIECCRTNLCNQYLQPTLPP-TLPFLKCYCSGHCPDDAINNTCITNGHCFAIIEEDETTLASGCMKYEGSDFQCKDSPKAQLRRTIECCRTNLCNQYLQPTLPP-TLPFLKCYCSGHCPDDAINNTCITNGHCFAIIEEDETTLASGCMKYEGSDFQCKDSPKAQLRRTIECCRTNLCNQYLQPTLPP-TLPFLKCYCSGHCPDDAINNTCITNGHCFAIIEEDETTLASGCMKYEGSDFQCKDSPKAQLRRTIECCRTNLCNQYLQPTLPP-TLPFLKCYCSGHCPDDAINNTCITNGHCFAIIEEDETTLASGCMKYEGSDFQCKDSPKAQLRRTIECCRTNLCNQYLQPTLPP-TLPFLKCYCSGHCPDDAINNTCITNGHCFAIIEEDETTLASGCMKYEGSDFQCKDSPKAQLRRTIECCRTNLCNQYLQPTLPP,PLPDWKKGCL-PVPDWQEQDL-PIEEWQMGQL-PIPNHHNGWS-PIPDWLHGHH-PKPNWDDGDL-PLPDWMKGEY-PTPDWARGLL-PYPDYMNVIL-PVPDWENGVL,PLADHLNSTN-PLADHLNSTN-PLADHLNSTN-PLADHLNSTN-PLADHLNSTN-PLADHLNSTN-PLADHLNSTN-PLADHLNSTN-PLADHLNSTN-PLADHLNSTN
22.0,42,52,B,10,SGNCMVHPLLVSFADVGWDTVIRAPQSYHAWFCRGGCPWPLPQHLNSTLLAVAQNLLHKLDERFPRACCVPTALQPITVVYIDDESIPVHKIFPNMIVSQCGCH-TQDCAKHPFYVNFEEIGWSDWILFPKSYQQYFCSGACNVPLLAEECNSLEAILQNLLHEADESVPQACCAPIFLDSISILFLDEDSIPRIVNLEDMIVSKCGCY-HTECQREPLYVNFEEVGWHDIIRAPRGFQAWFCSGECQWPLQDRMKSTVHARLQAIAHTVHGSIPKPCCLPVEVESMTMKYLDADDQTRLKKVEGMIVKKCGCR-ANVCARHPLYVDFKHIGWNDFILWPGGFEHHYCSGNCPLPLEKDMVGSVEARIQNILHCLDQSIPQPTCKPIKENSISILYLDENKVPKKHNFPRMIVELCGCN-AHTCKKHPLFIDFSDMGWSDFILEPEGYQASYCSGRCDFPLLEHENSTLNAVIQNLINQIDSSYPNACCMPRLQRSMSVNYLDSQNESKRDTWPRMIVDDCGCF-NNRCRRHPLNIDFKQVGWEHWILRPGGYEAHYCDGKCNLPLSSDECSSVKAVLQMILHSTDSVVPEPCCVPVKLSSMGIRYIDKELTPRLVNVSSMIVEACGCR-DQMCCRHPLYVEFTAIGWDDFICWPHGYQQHYCNGDCNYPLREEMNSHVASILRRIANMIDNNIPLPCCMPVKLSSIDIIYLDATNSIMRDTYNNMIVEECGCR-MGQCSKHPLYVDFNQIGWNSFIMFPNGYQQNYCSGCCNYPLMKNMHSTSLAIVQNQINLLNNSVPRACCRPIASSSISIKYLDKSNVPIIKHIANAIVDKCGCW-IGNCARHPLFMDFKVIGWDDYIVWPNGYYKHYCSGGCYQPLSENMHCSLRAVVQNQLHYMDSTYPKPCCVPVKQNAITIEYIDENRQRRLYHLNNAIVENCGCN-TSTCAVHPLFVDFRKIGWSDFIIQPGGYEAHFCAGECNLPLEKDMNSSLVAVVQAILHRFNHSIPRPCCVPVEMTSITILYIDKSKKVKVTRLDNMIVTACGCT,KSSCKRHPLYVDFSDVGWNDWIVAPPGYHAFYCHGECPFPLADHLNSTNHAIVQTLVNSVNSKIPKACCVPTELSAISMLYLDENEKVVLKNYQDMVVEGCGCR-KSSCKRHPLYVDFSDVGWNDWIVAPPGYHAFYCHGECPFPLADHLNSTNHAIVQTLVNSVNSKIPKACCVPTELSAISMLYLDENEKVVLKNYQDMVVEGCGCR-KSSCKRHPLYVDFSDVGWNDWIVAPPGYHAFYCHGECPFPLADHLNSTNHAIVQTLVNSVNSKIPKACCVPTELSAISMLYLDENEKVVLKNYQDMVVEGCGCR-KSSCKRHPLYVDFSDVGWNDWIVAPPGYHAFYCHGECPFPLADHLNSTNHAIVQTLVNSVNSKIPKACCVPTELSAISMLYLDENEKVVLKNYQDMVVEGCGCR-KSSCKRHPLYVDFSDVGWNDWIVAPPGYHAFYCHGECPFPLADHLNSTNHAIVQTLVNSVNSKIPKACCVPTELSAISMLYLDENEKVVLKNYQDMVVEGCGCR-KSSCKRHPLYVDFSDVGWNDWIVAPPGYHAFYCHGECPFPLADHLNSTNHAIVQTLVNSVNSKIPKACCVPTELSAISMLYLDENEKVVLKNYQDMVVEGCGCR-KSSCKRHPLYVDFSDVGWNDWIVAPPGYHAFYCHGECPFPLADHLNSTNHAIVQTLVNSVNSKIPKACCVPTELSAISMLYLDENEKVVLKNYQDMVVEGCGCR-KSSCKRHPLYVDFSDVGWNDWIVAPPGYHAFYCHGECPFPLADHLNSTNHAIVQTLVNSVNSKIPKACCVPTELSAISMLYLDENEKVVLKNYQDMVVEGCGCR-KSSCKRHPLYVDFSDVGWNDWIVAPPGYHAFYCHGECPFPLADHLNSTNHAIVQTLVNSVNSKIPKACCVPTELSAISMLYLDENEKVVLKNYQDMVVEGCGCR-KSSCKRHPLYVDFSDVGWNDWIVAPPGYHAFYCHGECPFPLADHLNSTNHAIVQTLVNSVNSKIPKACCVPTELSAISMLYLDENEKVVLKNYQDMVVEGCGCR,YIRAEGAQLQ-WYLKRGSKAQ-NRRQAGALIE-EVRGTGKWFE-KIQTHGSHAQ-QLQQTGSVFQ-SLLRQGRYFQ-QRDRAGFEFQ-YIDSQGSYYQ-NIESLGKDVQ,CMKYEGSDFQ-CMKYEGSDFQ-CMKYEGSDFQ-CMKYEGSDFQ-CMKYEGSDFQ-CMKYEGSDFQ-CMKYEGSDFQ-CMKYEGSDFQ-CMKYEGSDFQ-CMKYEGSDFQ
