contacts,cs,ce,Chain,Length,designed_receptor_seq,native_receptor_seq,designed_binder_seq,native_binder_seq
39.0,89,99,A,10,MSDRDNFIVSPIYKPANINIDYNLMIFDKSDNFNGSLVKDFTLKRDFTNSIVFVKVKKESEEKEEDDEEYTTEKREFSPEDLPWLLEINGENGKKYKGVEVGESEGDYYLYVYTQTPNGAFLAYPIKNIYLFRPLEKYVDDSLESIIEKYDLTK-SNAMFSELIYPVYVPQNIDTKFNLMIFDEKDNFDWKKVDSFTLERDYTNLVYYEKVEKGKEKEEEEEKEYTEKEVKFAPEDLPWILKINGEKGRKYLGLEVEKEDSDYFDMVYTQAPDGSFYAYPVNKKYLFFPVENFKAKTKEEIIKYHEKKK-MPISSTATINAVYRPTQIDVDYNLMIFDKDDNFDGSKVKEATLERDFTNSVVYVKVEKGVEKKEKDEKEYTTEEKKFLDSDLPWILKINGENGSTYKGYMVGDFDTDYYDLVYTQRPDGAYYAYPVNKTYKFSPESKDTSATKEEKIEYYNTVT-DVMSANAIIYPVYRPTQIDKTFNLMIFDKEDNFDEKKVKNFDLTVDTTNLVLYRKVERGKAEEGDEGKEYDYEEVTFNPTDMPWKLEINGEKGRKYIGNEVGKKEGLSSYYVKTTAPNGAQLRYPVAKTYVFTPIENVKLSSKDELEKYYESKK-GPLGSSCIVYPVYKPKDVNTDYNLMIFDKKDNFNFNDVKNFTLERDNTVSELYVEKEKGSKKYGKNGKKYTTELKKFAPEDLPWILKINGKNGRTYIGFEQEEKKTSSTLYVRTQAPDGSYYQYPVKKTYLFSPIEKFKISSKEDIVKYFNKKR-SSEKSVSIVYPVYIPEDVDTQWNLMIFDAQDNFDFAKVREFSLEKDTRFNKVEVEVEKPSEKASEDDKEYTTKTVRFAPESLPWILKINGENGRTFLGVEVGNKLSESYLMVATQTPQGAFYQYPVHKVYRFYPIEKYQDESQEKIVEAARKVF-GPLGSMATVYPIYEPRDVNVSWNLMVFDEKDNFNGEDVKNFTLRRDYSNLVVLKEVKKGEEEKDEEGEEYTTEELVFNPEDLPWLLEINGENGRKYVGWEVGSSDSSERYYVATQEPDGAYLRYPVEKIYLFSPESKFASNSEEVLKAEYEKKV-SNAASNFVIYQVFTPTSTNTKFNLMIFDQQDNINFDEVKSFDLKRDNSFSTVYVKEEKGSKDYGSNGKKYTTKKIEFAPEDSPWILEINGKDGRKYIGIEKEKKDSNTYLLVKTQTPNGAYNEYPVEKIYNFSPVEKYKLNTKDDLIKEAKKKK-GPLGSMSVTYPVFTPTNTDTSYNLMIFDQSDNFDGSKVNSYTLTKDTSNSVVYKKVKKGDDEEDEDEEEYTYKELKFDDSDLPYILQINGKDGKTYIGFEKKDDDKTSYNYVYTQTPDGAYLTYPVDKTYLFTPIEKVTMKSDEEIIEYYESKK-APLYAQEIVYPVYKPTKVNTTYNLMIFDKKDKFDFKKVKNYTLERDKTFETLYVKVEDGSEKAAENEKPYTYEKVTFAPSDLPWLLTINGKKGRKYIGFEKMNRNSRYTMFVYTQTPNGAYKMYPVNKIYNFTPIENYKFSSKEDKKAYYESKV,GPSSQNVTEYVVRVPKNTTKKYNIMAFNAADKVNFATWNQARLERDLSNKKIYQEEEMRKLREEARRKKYGIVLKEFRPEDQPWLLRVNGKSGRKFKGIKKGGVTENTSYYIFTQCPDGAFEAFPVHNWYNFTPLARHRTLTAEEAEEEWERRN-GPSSQNVTEYVVRVPKNTTKKYNIMAFNAADKVNFATWNQARLERDLSNKKIYQEEEMRKLREEARRKKYGIVLKEFRPEDQPWLLRVNGKSGRKFKGIKKGGVTENTSYYIFTQCPDGAFEAFPVHNWYNFTPLARHRTLTAEEAEEEWERRN-GPSSQNVTEYVVRVPKNTTKKYNIMAFNAADKVNFATWNQARLERDLSNKKIYQEEEMRKLREEARRKKYGIVLKEFRPEDQPWLLRVNGKSGRKFKGIKKGGVTENTSYYIFTQCPDGAFEAFPVHNWYNFTPLARHRTLTAEEAEEEWERRN-GPSSQNVTEYVVRVPKNTTKKYNIMAFNAADKVNFATWNQARLERDLSNKKIYQEEEMRKLREEARRKKYGIVLKEFRPEDQPWLLRVNGKSGRKFKGIKKGGVTENTSYYIFTQCPDGAFEAFPVHNWYNFTPLARHRTLTAEEAEEEWERRN-GPSSQNVTEYVVRVPKNTTKKYNIMAFNAADKVNFATWNQARLERDLSNKKIYQEEEMRKLREEARRKKYGIVLKEFRPEDQPWLLRVNGKSGRKFKGIKKGGVTENTSYYIFTQCPDGAFEAFPVHNWYNFTPLARHRTLTAEEAEEEWERRN-GPSSQNVTEYVVRVPKNTTKKYNIMAFNAADKVNFATWNQARLERDLSNKKIYQEEEMRKLREEARRKKYGIVLKEFRPEDQPWLLRVNGKSGRKFKGIKKGGVTENTSYYIFTQCPDGAFEAFPVHNWYNFTPLARHRTLTAEEAEEEWERRN-GPSSQNVTEYVVRVPKNTTKKYNIMAFNAADKVNFATWNQARLERDLSNKKIYQEEEMRKLREEARRKKYGIVLKEFRPEDQPWLLRVNGKSGRKFKGIKKGGVTENTSYYIFTQCPDGAFEAFPVHNWYNFTPLARHRTLTAEEAEEEWERRN-GPSSQNVTEYVVRVPKNTTKKYNIMAFNAADKVNFATWNQARLERDLSNKKIYQEEEMRKLREEARRKKYGIVLKEFRPEDQPWLLRVNGKSGRKFKGIKKGGVTENTSYYIFTQCPDGAFEAFPVHNWYNFTPLARHRTLTAEEAEEEWERRN-GPSSQNVTEYVVRVPKNTTKKYNIMAFNAADKVNFATWNQARLERDLSNKKIYQEEEMRKLREEARRKKYGIVLKEFRPEDQPWLLRVNGKSGRKFKGIKKGGVTENTSYYIFTQCPDGAFEAFPVHNWYNFTPLARHRTLTAEEAEEEWERRN-GPSSQNVTEYVVRVPKNTTKKYNIMAFNAADKVNFATWNQARLERDLSNKKIYQEEEMRKLREEARRKKYGIVLKEFRPEDQPWLLRVNGKSGRKFKGIKKGGVTENTSYYIFTQCPDGAFEAFPVHNWYNFTPLARHRTLTAEEAEEEWERRN,NQIYVFTISD-DQIYVFTIEN-DAIYVYTIKK-DMVRVFTIDK-DTILVFTINE-NQVFVFTIRD-DLILVYTTTN-DKVFVFTVEK-NLVMVFTISN-PQVYVFTVKK,QTLTVFTESS-QTLTVFTESS-QTLTVFTESS-QTLTVFTESS-QTLTVFTESS-QTLTVFTESS-QTLTVFTESS-QTLTVFTESS-QTLTVFTESS-QTLTVFTESS
37.0,18,28,B,10,VGSGELDLTGVLHYHKFWLISVPEPLSAKWALAKNEGPVGYIFIEEKEGEVKVSFQLNEELDSIKPEGSKPKEFSEPKKHPFSLESGSGKTIQVYTISDKKKMSLVAIVAQRASLLES-MGHGELDLSGVLRRTKYWLIAVPSPLAEKWSLAEEEGPVGYITVTRERGQVDVSFQLNEELAAIWPFGGRPERISLPAVHPFELLSEGGEEIKVYTVSSSLEMSLVAVVALKARCLWS-MGRGELDMEGVQRETIFWLIKVPEPLAKKWSLAKGFGPVGKILIEEHKGKVEISFQLNEELASIYDEGAKPLFIAEPKVHPFRLLSNGGRLIQVYTVSKSRKRSLVANVGLCAEMLDG-KGSGELDLAGVAVNKKVWLVAVPKPLSERWSLAKENGPVGEITIEGEEGKVNVSFRLNEELDSLRPFGAKPAEEAEPRELPFTILSNGGETIEVFTVSSSNEVTAVALVSMKAKMEPE-IGAGDLDLTGVLTDTEFWLVRVPEPLAARWRLAEGRGPVGRIHVEMEDGKVAVSFELDEALAAVHPEGAEPAVMAAPARHPFTLLGSGGERIEVFTVSSASAVTAVAVVAQRAVCEET-MGRGELALEGVRRLEGVWLVAVPEPLAERWAKAKEDGPVGYITVERKRGKVKVSFTLNEELDSIYPYGGKPSEERKPKEHPFHLLSNEGETIKVYTVSRDKRVSLVAIVNLKAVCTEG-MGIGELDRAGVAHYTGVWLVRVPEPLAAKWALAKGRGPVGRIHIDQLEGEVRVSFQLNEELDSIRPQGGVPARQEAPHEHPFTLLSGGGEVIEVYTVSATNAVSLVAIVTQKAVCLES-MGHGDLNLVGVACLNEYWLVSVPQPLADKWSLAEGEGPVGTISIEEEEGRVRVSFQLNKELASIHPKGGKPKEKSEPKENPFTILSNGGSKIEVYTVSASHQVSLVALVSRMAVCQDS-AGAGELDLTGVLQDTKVALISVPEPLADKWALAKDWGPVGTITIQRDEGKTKVSFTLNEALDAIHPKGAKPKEESEPRIHPFTLLSNGGNEIRVFTVTSKEKRSLVARVAQMAACEDG-MGIGELDMEGVLNEEIVWLVEVPDPVVKRFSLAKDEGPVGFITVRREKGRVEVSFTLNEELASIVPYGGVPAEVELPKELPFELLSNGGQTIRVFTISSEKKMRLVAIVGQKAILKYN,AERGELDLTGAKQNTGVWLVKVPKYLSQQWAKASGRGEVGKLRIAKTQGRTEVSFTLNEDLANIHDIGGKPASVSAPREHPFVLQSVGGQTLTVFTESSSDKLSLEGIVVQRAECRPA-AERGELDLTGAKQNTGVWLVKVPKYLSQQWAKASGRGEVGKLRIAKTQGRTEVSFTLNEDLANIHDIGGKPASVSAPREHPFVLQSVGGQTLTVFTESSSDKLSLEGIVVQRAECRPA-AERGELDLTGAKQNTGVWLVKVPKYLSQQWAKASGRGEVGKLRIAKTQGRTEVSFTLNEDLANIHDIGGKPASVSAPREHPFVLQSVGGQTLTVFTESSSDKLSLEGIVVQRAECRPA-AERGELDLTGAKQNTGVWLVKVPKYLSQQWAKASGRGEVGKLRIAKTQGRTEVSFTLNEDLANIHDIGGKPASVSAPREHPFVLQSVGGQTLTVFTESSSDKLSLEGIVVQRAECRPA-AERGELDLTGAKQNTGVWLVKVPKYLSQQWAKASGRGEVGKLRIAKTQGRTEVSFTLNEDLANIHDIGGKPASVSAPREHPFVLQSVGGQTLTVFTESSSDKLSLEGIVVQRAECRPA-AERGELDLTGAKQNTGVWLVKVPKYLSQQWAKASGRGEVGKLRIAKTQGRTEVSFTLNEDLANIHDIGGKPASVSAPREHPFVLQSVGGQTLTVFTESSSDKLSLEGIVVQRAECRPA-AERGELDLTGAKQNTGVWLVKVPKYLSQQWAKASGRGEVGKLRIAKTQGRTEVSFTLNEDLANIHDIGGKPASVSAPREHPFVLQSVGGQTLTVFTESSSDKLSLEGIVVQRAECRPA-AERGELDLTGAKQNTGVWLVKVPKYLSQQWAKASGRGEVGKLRIAKTQGRTEVSFTLNEDLANIHDIGGKPASVSAPREHPFVLQSVGGQTLTVFTESSSDKLSLEGIVVQRAECRPA-AERGELDLTGAKQNTGVWLVKVPKYLSQQWAKASGRGEVGKLRIAKTQGRTEVSFTLNEDLANIHDIGGKPASVSAPREHPFVLQSVGGQTLTVFTESSSDKLSLEGIVVQRAECRPA-AERGELDLTGAKQNTGVWLVKVPKYLSQQWAKASGRGEVGKLRIAKTQGRTEVSFTLNEDLANIHDIGGKPASVSAPREHPFVLQSVGGQTLTVFTESSSDKLSLEGIVVQRAECRPA,GRKYHLRIYN-DEEYWLLVHG-DTDFNLLIFD-NVSYNLRIRK-DVDYLLRVHA-EVSYNLLVFE-DVTYNLLVHG-ETTYNLLIYD-NVTYNLWIQE-REEYHLAIEG,TKKYNIMAFN-TKKYNIMAFN-TKKYNIMAFN-TKKYNIMAFN-TKKYNIMAFN-TKKYNIMAFN-TKKYNIMAFN-TKKYNIMAFN-TKKYNIMAFN-TKKYNIMAFN
