contacts,cs,ce,Chain,Length,designed_receptor_seq,native_receptor_seq,designed_binder_seq,native_binder_seq
21.0,109,119,A,10,MITVKYFAWVRDIVGTSEEKVPADFPTVEALRVALAAKSEAWKTALSRGDLLAAVNQELVSFDHPLHEGDEVAFFPPVTGG-MITVRYFASVRDEVGTSEEQVPADFPTVEALRVALAARSDAWRRALSRGDLLAAVNQELVDFAHPLHDGDEVAFFPPVSGY-MITVKFFASVREIVGTSELEVPADFPTVEALRVALAARSEAWRRALTRGDLLAAVNQELVSFSHPLHAGDEVAFFPPVTGY-MIAVKFFASVRDRVGTSQLEVPADFPTVEALRIALASRSDAWREALTQGDLLAAVNQELVDFAHPLQEGDEVAFFPPVSGG-MITVRYFASVRDVVGTSEETVPADHPTVEALRVALAARSDDWRRALTRGDLLAAVNQELVDFSHPLHAGDEVAFFPPVTGG-GITVRYFATVREEVGTDQEQVAANYPTVEALRVALAARSAAWRKALSGDDLLAAVNQQVVSFDHPLHAGDEVAFFPPVTGG-GIRVRFFASVREEVGTSELSVPADFPTVEALRIALASRSAAWRRALSRGDLRAAVNQELVSFSHPLHDGDEVAFFPPVTGG-MIRVLFFATVRDQVGTSELEVPADFPTVEALRVALAARSAEWRRALTRGDLLAAVNQANVDFSHPLHAGDEVAFFPPVTGA-AITVRFFASVRDTVGTGELQVPANFPTVEALRVHLASQSAAWKEALSQGDLMAAVNQELVSFSHPLKDGDEVAFFPPVTGG-MITVKYFASVRDEVGTDEEQVPANFPTVEALRVALASRSSAWRRALSRGDLLAAVNQVLVSFSHPLHDGDEVAFFPPVTGG,MIKVLFFAQVRELVGTDATEVAADFPTVEALRQHMAAQSDRWALALEDGKLLAAVNQTLVSFDHPLTDGDEVAFFPPVTGG-MIKVLFFAQVRELVGTDATEVAADFPTVEALRQHMAAQSDRWALALEDGKLLAAVNQTLVSFDHPLTDGDEVAFFPPVTGG-MIKVLFFAQVRELVGTDATEVAADFPTVEALRQHMAAQSDRWALALEDGKLLAAVNQTLVSFDHPLTDGDEVAFFPPVTGG-MIKVLFFAQVRELVGTDATEVAADFPTVEALRQHMAAQSDRWALALEDGKLLAAVNQTLVSFDHPLTDGDEVAFFPPVTGG-MIKVLFFAQVRELVGTDATEVAADFPTVEALRQHMAAQSDRWALALEDGKLLAAVNQTLVSFDHPLTDGDEVAFFPPVTGG-MIKVLFFAQVRELVGTDATEVAADFPTVEALRQHMAAQSDRWALALEDGKLLAAVNQTLVSFDHPLTDGDEVAFFPPVTGG-MIKVLFFAQVRELVGTDATEVAADFPTVEALRQHMAAQSDRWALALEDGKLLAAVNQTLVSFDHPLTDGDEVAFFPPVTGG-MIKVLFFAQVRELVGTDATEVAADFPTVEALRQHMAAQSDRWALALEDGKLLAAVNQTLVSFDHPLTDGDEVAFFPPVTGG-MIKVLFFAQVRELVGTDATEVAADFPTVEALRQHMAAQSDRWALALEDGKLLAAVNQTLVSFDHPLTDGDEVAFFPPVTGG-MIKVLFFAQVRELVGTDATEVAADFPTVEALRQHMAAQSDRWALALEDGKLLAAVNQTLVSFDHPLTDGDEVAFFPPVTGG,SGRTEPVWRR-ARRTVPVWRR-KGTTDRVWRR-DGRTVPFWRR-PGERVPVWRR-DGLRVPVWRR-SDETIPIWSK-AGTTAPVWRR-AGKFVPIWRK-ARREVPVWRR,LKTRAPFWKR-LKTRAPFWKR-LKTRAPFWKR-LKTRAPFWKR-LKTRAPFWKR-LKTRAPFWKR-LKTRAPFWKR-LKTRAPFWKR-LKTRAPFWKR-LKTRAPFWKR
25.0,69,79,B,10,MGVRIEVGPAPFDLGAELPWLAAREADRAVVTFVGYVREHAFEYEYYPEMVERSLAEIVAEARRRWPLGRVQVLHRTGVLRPGDAIVFVGVTAAHRADAFAACRFIMDQLKTRVPFWKKEFTPEGWRWVAAREEDERAAARW-MATRIRVGPEPFDLGAELPWLAAREEDGAVVTFVGTVRDHALTYEHYPGMVEVALARIVAEARRRWPLGRVQVLHRVGTLRPGDAIVYVGVTAAHRADAFAACEFIMDRLKTEVPFWKREHTGSGWRWVEAKDEDREAAARW-MAVRIHVGPEPFDVGAELPWLAARDEDGAVVTFVGTVRDHAFTLEHYPGMVERALARIVEEARRRWPLGRVVVRHRTGTLHPGDAIVYVGVTAAHRRDAFAACEFIMDRLKTEVPFWKKEATATGWRWVEAEDADRRAAARW-MSTLIRVGPEPFDLGAELPWLAARAEDGAVVTFVGTVRSHAMTYDHYPEMTEAALAAIVAEARRRWPLGRVIVLHRTGTLRPGDAIVFIGVTAAHRADAFAAGEFIMDRLKTTVPFWKREHTGEGVRWVEARDEDVRAAARW-MSVRIRVGPEPFSVGAELPWLAARDEDGAVVTFTGLVREHALTYDHYPGMVERALAAIVAEARERWPLGRVQVLHRTGRLLPGDAIVFVGVTAAHRAEAFAACEYIMDLLKTRVPFWKREHTATGVRWVEPRAADDRAAARW-MSVRIEVGPEPFDLGAELPWLAARAEDRAVVTFVGHVRDHALTWEHYPEMTEAALAAIVEEARRRWPLGRVVVRHRTGTLHPGDAAVFVGVTAAHRRDAFAAAEFIMDRLKTEVPFWKREHTADGVRWVEAREADRRAAARW-MAVRIVVGPEPFSLDAELPWLSEREEDGAVVTFTGYVREHALTYEYYPGMVERALAAIVEEARRRWPLGRVQVLHRTGTLRPGDAIVYVGVTAAHRREAFAACEFIMDRLKTEVPFWKKEATPEGWRWVEAKEEDLRAAAGW-METRIEVGPEPFSLGDELPWLAERDADRAVVTFVGTVRDHRLVLEHYPGMVERSLARIVEEARRRWPLGRVTVRHRTGVLSPGDAIVFVGVTSAHRRDAFAACEYIMDRLKTEVPFWKRELTPEGWRWVESRESDRQAAARW-MSTHIHVGPEPFSLGDELPWLAARDADRAVVTFVGTVREHGLTWEHYPGMVERALAAIVEEARERWPLGRVIVLHRVGELWPGDAIVYVGVTSGHRADAFAAAEFIMDQLKTRVPFWKREHTPEGVRWVEPRDEDRRAAARW-MSVRIRVGPEPFDLGEELPWLAADAADRAVVTFTGTVRAESFVYEYYPEMVERSLGEIVAEARRRWPLGRVTVLHRTGELRPGDAIVYVGVTAAHRRDALAACEFIMDELKTRVPFWKRERTPRGWVWVEPREEDDRAAARW,AETKIVVGPQPFSVGEEYPWLAERDEDGAVVTFTGKVRVNALTLEHYPGMTEKALAEIVDEARNRWPLGRVTVIHRIGELWPGDEIVFVGVTSAHRSSAFEAGQFIMDYLKTRAPFWKREATPEGDRWVEARESDQQAAKRW-AETKIVVGPQPFSVGEEYPWLAERDEDGAVVTFTGKVRVNALTLEHYPGMTEKALAEIVDEARNRWPLGRVTVIHRIGELWPGDEIVFVGVTSAHRSSAFEAGQFIMDYLKTRAPFWKREATPEGDRWVEARESDQQAAKRW-AETKIVVGPQPFSVGEEYPWLAERDEDGAVVTFTGKVRVNALTLEHYPGMTEKALAEIVDEARNRWPLGRVTVIHRIGELWPGDEIVFVGVTSAHRSSAFEAGQFIMDYLKTRAPFWKREATPEGDRWVEARESDQQAAKRW-AETKIVVGPQPFSVGEEYPWLAERDEDGAVVTFTGKVRVNALTLEHYPGMTEKALAEIVDEARNRWPLGRVTVIHRIGELWPGDEIVFVGVTSAHRSSAFEAGQFIMDYLKTRAPFWKREATPEGDRWVEARESDQQAAKRW-AETKIVVGPQPFSVGEEYPWLAERDEDGAVVTFTGKVRVNALTLEHYPGMTEKALAEIVDEARNRWPLGRVTVIHRIGELWPGDEIVFVGVTSAHRSSAFEAGQFIMDYLKTRAPFWKREATPEGDRWVEARESDQQAAKRW-AETKIVVGPQPFSVGEEYPWLAERDEDGAVVTFTGKVRVNALTLEHYPGMTEKALAEIVDEARNRWPLGRVTVIHRIGELWPGDEIVFVGVTSAHRSSAFEAGQFIMDYLKTRAPFWKREATPEGDRWVEARESDQQAAKRW-AETKIVVGPQPFSVGEEYPWLAERDEDGAVVTFTGKVRVNALTLEHYPGMTEKALAEIVDEARNRWPLGRVTVIHRIGELWPGDEIVFVGVTSAHRSSAFEAGQFIMDYLKTRAPFWKREATPEGDRWVEARESDQQAAKRW-AETKIVVGPQPFSVGEEYPWLAERDEDGAVVTFTGKVRVNALTLEHYPGMTEKALAEIVDEARNRWPLGRVTVIHRIGELWPGDEIVFVGVTSAHRSSAFEAGQFIMDYLKTRAPFWKREATPEGDRWVEARESDQQAAKRW-AETKIVVGPQPFSVGEEYPWLAERDEDGAVVTFTGKVRVNALTLEHYPGMTEKALAEIVDEARNRWPLGRVTVIHRIGELWPGDEIVFVGVTSAHRSSAFEAGQFIMDYLKTRAPFWKREATPEGDRWVEARESDQQAAKRW-AETKIVVGPQPFSVGEEYPWLAERDEDGAVVTFTGKVRVNALTLEHYPGMTEKALAEIVDEARNRWPLGRVTVIHRIGELWPGDEIVFVGVTSAHRSSAFEAGQFIMDYLKTRAPFWKREATPEGDRWVEARESDQQAAKRW,ALAVWHPPVS-AVWVRHPPVT-ETLVVFPPVT-GVRLTYPRVT-AVAVWHPPVT-DLVVTYPPVT-SHRVVFPPVT-ENLLVYPPVT-GTTLWYPPVS-GRWVAHPRVS,DEVAFFPPVT-DEVAFFPPVT-DEVAFFPPVT-DEVAFFPPVT-DEVAFFPPVT-DEVAFFPPVT-DEVAFFPPVT-DEVAFFPPVT-DEVAFFPPVT-DEVAFFPPVT
