contacts,cs,ce,Chain,Length,designed_receptor_seq,native_receptor_seq,designed_binder_seq,native_binder_seq
15.0,23,33,A,10,APGLAAAGAALARDAVEGEVLGVLRTRMEEIEAENARLKAEVAALKKEYDALEKE-GPLGSLASRLRSFDKVLGDILGQIEAEMERIEAELELLKEEAEEDLRALEEELDK-MKGLEKLEKQLKKVEEVGEKLKKMLEEMEKELEKLEKEVEEAEKQLEKLEKELEK-GPGSQLRAQVEAQLVVLGERIGRLLSEMTRQISELETLIEDTEDELRAVEKEVKE-APGEEEAEALLAEEEVLGEEVEALLAEMERLLAELEAEVEALEDEVEALEEELEA-APGAAVARARLARLEVLGEELDRILERMEEMAARERELVRRLEEEVRALEEELRR-DPGQAAAAAAAAKAEVDGQKLAAIKADMEVRRAELAAKVEAAEADLAAVTAELER-DPGLEIAQERLNESLVDGEKLGAMLQEMSERVSELDGDILEAEERLRDIEEQIEE-MPGGIVRGILEAETVVLGNQLEALMKDMEVRLKDMEKRVEDRTKELEERVRELEE-GPGSMAEAKRLRRLVIDGEELDAMVREMQEEIARAEVEVEEAEEELRAVEEEIRR,DAGLDALSSIISRQKQMGQEIGNELDEQNEIIDDLANLVENTDEKLRTEARRVTL-DAGLDALSSIISRQKQMGQEIGNELDEQNEIIDDLANLVENTDEKLRTEARRVTL-DAGLDALSSIISRQKQMGQEIGNELDEQNEIIDDLANLVENTDEKLRTEARRVTL-DAGLDALSSIISRQKQMGQEIGNELDEQNEIIDDLANLVENTDEKLRTEARRVTL-DAGLDALSSIISRQKQMGQEIGNELDEQNEIIDDLANLVENTDEKLRTEARRVTL-DAGLDALSSIISRQKQMGQEIGNELDEQNEIIDDLANLVENTDEKLRTEARRVTL-DAGLDALSSIISRQKQMGQEIGNELDEQNEIIDDLANLVENTDEKLRTEARRVTL-DAGLDALSSIISRQKQMGQEIGNELDEQNEIIDDLANLVENTDEKLRTEARRVTL-DAGLDALSSIISRQKQMGQEIGNELDEQNEIIDDLANLVENTDEKLRTEARRVTL-DAGLDALSSIISRQKQMGQEIGNELDEQNEIIDDLANLVENTDEKLRTEARRVTL,PRLEELEKKR-DVIAELKKER-KLEELLKKLK-PLLDKLGEVR-EELERLGEEA-PRLLRLGEEA-PTIAELEKER-PEIAELQERR-PLLKELGRRR-PRIEELRERR,EIIEELGEQR-EIIEELGEQR-EIIEELGEQR-EIIEELGEQR-EIIEELGEQR-EIIEELGEQR-EIIEELGEQR-EIIEELGEQR-EIIEELGEQR-EIIEELGEQR
15.0,25,35,B,10,GNLVDELKEELKRLQKEIDELGEEIKKKLGELREELEELREKLEELEEELEELEEELEEL-GGMIEERLETLRRENEALKEEGRRLKEELGKLRRELLRAKAALVEAERQLEEVERLLAEA-MDEIEKLKEENRRLREEIERLGEEIIKLEGKIRDLLLEAKELILEAEELKELEREVKRLE-GGPLAELRAENERLAAALREEGERLAAELGRLREELLRELEERLRAERERLVEARLRALR-GNALSELNKNLEEVSKKVKELGEKIKKELGKLRDELLEKKRKITELEEELKEVERLLKEK-GGMEEMTRKLLEEKLKELDELGEEIEELEGKIKELLLKAKELIEKAKEEVKKLEELERKL-GGPLEELEEENKRLNAEIEKLGEEIKAEKGRLRDSLLQALKEKVKAKEGLKVVEEIRGLL-GHMEEELLKELEQLAKELEELGEELERRLGLLKEELLEALKLIKEREEELKKLEELLKKL-GGSLAQLKEENERLSKKLEEIGEYLSSELGKLRNELLEAKRNLVKASEKLEKVEEVLEKL-GSLSEEYEKELERRSEELEELGRELERRLGQIRELLEEAKRRLEEAREELRELERRLEEA,MNRATQSIERSHRIATETDQIGTEIIEELGEQRDQLERTKSRLVNTNENLSKSRKILRSM-MNRATQSIERSHRIATETDQIGTEIIEELGEQRDQLERTKSRLVNTNENLSKSRKILRSM-MNRATQSIERSHRIATETDQIGTEIIEELGEQRDQLERTKSRLVNTNENLSKSRKILRSM-MNRATQSIERSHRIATETDQIGTEIIEELGEQRDQLERTKSRLVNTNENLSKSRKILRSM-MNRATQSIERSHRIATETDQIGTEIIEELGEQRDQLERTKSRLVNTNENLSKSRKILRSM-MNRATQSIERSHRIATETDQIGTEIIEELGEQRDQLERTKSRLVNTNENLSKSRKILRSM-MNRATQSIERSHRIATETDQIGTEIIEELGEQRDQLERTKSRLVNTNENLSKSRKILRSM-MNRATQSIERSHRIATETDQIGTEIIEELGEQRDQLERTKSRLVNTNENLSKSRKILRSM-MNRATQSIERSHRIATETDQIGTEIIEELGEQRDQLERTKSRLVNTNENLSKSRKILRSM-MNRATQSIERSHRIATETDQIGTEIIEELGEQRDQLERTKSRLVNTNENLSKSRKILRSM,IEELELLEEL-PEEEKLREEL-KEIEELLKEL-PPLEELRRRL-RDIEKLLEEL-EKLEELKKEL-EELEKLLEKL-EELEELLKRL-EEIEKLLEEL-RELERLREEL,DEQNEIIDDL-DEQNEIIDDL-DEQNEIIDDL-DEQNEIIDDL-DEQNEIIDDL-DEQNEIIDDL-DEQNEIIDDL-DEQNEIIDDL-DEQNEIIDDL-DEQNEIIDDL
