contacts,cs,ce,Chain,Length,designed_receptor_seq,native_receptor_seq,designed_binder_seq,native_binder_seq
38.0,140,150,A,10,ANDAALRALEAEVKRLECRLRDQLAAASTENRRQDIDTMNGHFDPITSMIIWNRVNPSTRAEARKMEQRAKQMADEFQAEIKRVKDG-QQLRSLERQVQEVEEQVMALEQRVIDEERRLQEELERELRGAYDRRTQQLVCTAINPESWFLECIQIAYDDRARQILEREQEQLRQR-MSEQVMERWRQEIIALQEKICAQILAEQRRLDTEKEALIAGAYDKTTAELWHAKSNPLTEALEAKRQEEAAARAKLKAEYNWKKNNY-MDEGNEEIIRKKIMQAEQEREILLEERKAKNALIEMLAELGAYDANTHAVYRKAINPKTTAEFSLEMAEKEKARIEHEFSMSLQAAG-VDHIQLQKRRTELEEMNRRIQELVDELKKEVQRLEEGAEQGDFRCWVSTLYQDSINPRTTWLKKVWEDELNAYKAAIQKMNRTLEVA-VDDKQTADLYARVKELEGRVKELEEKDKQLREELEEAFEKGKFDRATHAILHDKWNPKTIANSLVEEKNEFKRKVAELELRVKAKEG-AEIEKLDKLVAEVKAGEEKAKAAEELAKKEQEILLEAKEKGAFDETTSSLWQLEENPATRRAAELLQAELERIRLESERSKIEEERI-ASPELRDNLAHQLDALKNRLDILNKEKEEKLQELEQAKREGAYDKDTHKILMKATNPQTVAIKAVYMEYEEMEKNITDSENKIRLAD-WNWYEFATLVQERQAQLNLREEQLKAEQQRLEEEVAAWKQGAYDEKEAKWIYYGDNPETVAARDQDHADAEKEYWDAMTSIIRKANG-RDEEKEAEFLKELEKYKNELKKLEEEKKRLEKEINQLREQGYYNPSTKSIYHQPVNPYTNRLAELREIEIKKIIEEEIKRKQEFNEK,FSREEADTLRLKVEELEGERSRLEEEKRMLEAQLERRALQGDYDQSRTKVLHMSLNPTSVARQRLREDHSQLQAECERLRGLLRAME-FSREEADTLRLKVEELEGERSRLEEEKRMLEAQLERRALQGDYDQSRTKVLHMSLNPTSVARQRLREDHSQLQAECERLRGLLRAME-FSREEADTLRLKVEELEGERSRLEEEKRMLEAQLERRALQGDYDQSRTKVLHMSLNPTSVARQRLREDHSQLQAECERLRGLLRAME-FSREEADTLRLKVEELEGERSRLEEEKRMLEAQLERRALQGDYDQSRTKVLHMSLNPTSVARQRLREDHSQLQAECERLRGLLRAME-FSREEADTLRLKVEELEGERSRLEEEKRMLEAQLERRALQGDYDQSRTKVLHMSLNPTSVARQRLREDHSQLQAECERLRGLLRAME-FSREEADTLRLKVEELEGERSRLEEEKRMLEAQLERRALQGDYDQSRTKVLHMSLNPTSVARQRLREDHSQLQAECERLRGLLRAME-FSREEADTLRLKVEELEGERSRLEEEKRMLEAQLERRALQGDYDQSRTKVLHMSLNPTSVARQRLREDHSQLQAECERLRGLLRAME-FSREEADTLRLKVEELEGERSRLEEEKRMLEAQLERRALQGDYDQSRTKVLHMSLNPTSVARQRLREDHSQLQAECERLRGLLRAME-FSREEADTLRLKVEELEGERSRLEEEKRMLEAQLERRALQGDYDQSRTKVLHMSLNPTSVARQRLREDHSQLQAECERLRGLLRAME-FSREEADTLRLKVEELEGERSRLEEEKRMLEAQLERRALQGDYDQSRTKVLHMSLNPTSVARQRLREDHSQLQAECERLRGLLRAME,SEQQLTIVKN-TTRLIWRLNA-AMSVVVRVKA-ASVVEYKVET-SYLVVRRKEF-AFDVHIKVDK-DTIVVVRARA-STMLLLRVEA-SSRTLQRVEN-AYLNLQTRES,SFDLLIYTDK-SFDLLIYTDK-SFDLLIYTDK-SFDLLIYTDK-SFDLLIYTDK-SFDLLIYTDK-SFDLLIYTDK-SFDLLIYTDK-SFDLLIYTDK-SFDLLIYTDK
56.0,48,58,B,10,QITNDGAAEITSLFFLYSINQLLYNLGMYPEKEFRAVEQFGLNLNVTTQPLLIDYLQGVINELKRRLKAGVVKALMVIVRDKESGRTLLRSRHSITNDLQAALDLFPAEKTLTSIKTDIHDVIYNLHDTITILPLINVSVSFEILIEVDQTVEIPENWEITDPKNINNAQSKILESFTTKIITVQSSIDFLTPQK-PMTRQAAAYIAGEFFYYKINETLYRLGVYPKTGFIARERYGLTLHVTRNKVLREYLHGVIHQLVGWLLEGKVQQLDIIVRDLQTGKVVMREHFEIRNDRHAVFDSAPQSKELRTIEEEIRKVIEALWHTVKDLPALRVDVSFDILLRVDRTVDIPDKYERFVEYNIDNSLTRRLFSFTTGIIKVSHSISFLRPAD-GMSRNGAANTVATFFFFAINQTLFQTGIFPNVDFRPKRMYGLTLHVTKVESEIKYLRGVVNQANIQLRNCNINYLRMIVSDIETGEVLMKISYQIYNDKEAKLDIAPRVKAKSEINSQMAGVISAFDGTVQTLPRLGTETAYTLLLGVDDNVKIPTKWERSSEDFIKKSLSKLLEQFTTKIHTISSAIEYKRPAN-SMTRNASAEIASTFFYFCINNILYERSVLPREEFKSVQAYGLNLMVTEDRNLRRYLYQVISHLETKLRESTVKAVSVIVADIETGKVLMDFRFSIANDRLAAWDIEPRSISETDVNQQINHVISAMHNTVDALPKLNVEVSFMLLLAVEENVKIPDRWERMNPFEIDNSISAALEGFSTNIISVNTGVSFQKPVG-EVTLNGASSIAGDFFLFATNEVLHSLGVFPAASFRQVTRYGLTLHVTLDKKLLAYLQGVIDEMIRLLTEGQIKALEVIVANVDTGAVLNRYTFSIENDLDAHRDIRGRTVSSEAVEAQMRQVISAMQATVSALPRLNVETAFQILLEVDSLLKIPQFWGRSSRKLITSADHLSLQSFSTAIITVSSSIAFLRPTG-KPSRDRAATITATFFRYDINQVLHLLGIAPANSFTAVTKFGLTLHITRDTALENYLNQVVDCLKLMLIKGDVLRLDVVIRNKETGEILMKQQYEIKCDKSAASDLAGRAKSAEEIHNQIKDVIETQRKTVQALPKLNVKTTFNILIGVDEDVAIPNKWERETSDIITSSFSRKLEEFTTKIITVKHSVRYKMPSS-TTSRQSAAITASTWFWFSINQVLFTLGIYPASEFTARKKYGLQLNVTTNDMMQDYLKGVIDQLREWLILSTVKSADIIIRHVKTGKVLMHYSYSIKSDKDSIFDTEGRAKTDIEIDREIKGVIEAWRKQIKHLPSIGVEVSYIILLQVDEDVTIPSDWHESDKYFIEDSEFKSLESFTTDVITVSSSIRYLIPND-PMTRNLAADITSQFFSYNINEILFRKHIMPQNQFKAMAAYGLDLFVSTDPDLIKYLSGVTNTLRKWLEAGTVLWVYVVIRDVATGAVLERWKYSIRNDKEAKEDAAPRAKTNKAIHTQIQGVISAMRDNVVRLPTLTRRTSFDILLMVDENVDIPANWQQFGQYIISDCNSNVLENFETDIHAVRSSVSYLTPKG-AMTRGRAADVAANFFYYDVNEVLYSRGISPAQSFKQTTKYGLTLNVSQDNDLKRYLYRVIDKLKTMLTGGDVTAVDVIVADKATGQVLERYRYDIKCDSTAEFDTRPSNKSLEEINTEIRGVISKLFATVPFLPPLTTTTKHALLMGVNRATAIPKDWQRAGRNMIANAVSQELDSFTTTIISVNSAIEYLTPKG-ARTLTGSAKTVGSFFFFSVNEILHRLGVYPQKDFVARQSYGLKLKVTANLKEKKYLKGVVTQLETWLKASNVRSLDIIIANKATGQVVMDWNFAIKSDVSAAYDKKPKDLSKLRVESEMKDVLQTMVDTVKSLPRINVEVSYRLHMAVDQNVSIPTFWEKSTELPIVVSNSKSLDSFSTAIHTVESGVSYLRPVS,GITLRGSAEIVAEFFSFGINSILYQRGIYPSETFTRVQKYGLTLLVTTDLELIKYLNNVVEQLKDWLYKCSVQKLVVVISNIESGEVLERWQFDIECDKTAKDDSAPREKSQKAIQDEIRSVIAQITATVTFLPLLEVSCSFDLLIYTDKDLVVPEKWEESGPQFITNSEEVRLRSFTTTIHKVNSMVAYKIPVN-GITLRGSAEIVAEFFSFGINSILYQRGIYPSETFTRVQKYGLTLLVTTDLELIKYLNNVVEQLKDWLYKCSVQKLVVVISNIESGEVLERWQFDIECDKTAKDDSAPREKSQKAIQDEIRSVIAQITATVTFLPLLEVSCSFDLLIYTDKDLVVPEKWEESGPQFITNSEEVRLRSFTTTIHKVNSMVAYKIPVN-GITLRGSAEIVAEFFSFGINSILYQRGIYPSETFTRVQKYGLTLLVTTDLELIKYLNNVVEQLKDWLYKCSVQKLVVVISNIESGEVLERWQFDIECDKTAKDDSAPREKSQKAIQDEIRSVIAQITATVTFLPLLEVSCSFDLLIYTDKDLVVPEKWEESGPQFITNSEEVRLRSFTTTIHKVNSMVAYKIPVN-GITLRGSAEIVAEFFSFGINSILYQRGIYPSETFTRVQKYGLTLLVTTDLELIKYLNNVVEQLKDWLYKCSVQKLVVVISNIESGEVLERWQFDIECDKTAKDDSAPREKSQKAIQDEIRSVIAQITATVTFLPLLEVSCSFDLLIYTDKDLVVPEKWEESGPQFITNSEEVRLRSFTTTIHKVNSMVAYKIPVN-GITLRGSAEIVAEFFSFGINSILYQRGIYPSETFTRVQKYGLTLLVTTDLELIKYLNNVVEQLKDWLYKCSVQKLVVVISNIESGEVLERWQFDIECDKTAKDDSAPREKSQKAIQDEIRSVIAQITATVTFLPLLEVSCSFDLLIYTDKDLVVPEKWEESGPQFITNSEEVRLRSFTTTIHKVNSMVAYKIPVN-GITLRGSAEIVAEFFSFGINSILYQRGIYPSETFTRVQKYGLTLLVTTDLELIKYLNNVVEQLKDWLYKCSVQKLVVVISNIESGEVLERWQFDIECDKTAKDDSAPREKSQKAIQDEIRSVIAQITATVTFLPLLEVSCSFDLLIYTDKDLVVPEKWEESGPQFITNSEEVRLRSFTTTIHKVNSMVAYKIPVN-GITLRGSAEIVAEFFSFGINSILYQRGIYPSETFTRVQKYGLTLLVTTDLELIKYLNNVVEQLKDWLYKCSVQKLVVVISNIESGEVLERWQFDIECDKTAKDDSAPREKSQKAIQDEIRSVIAQITATVTFLPLLEVSCSFDLLIYTDKDLVVPEKWEESGPQFITNSEEVRLRSFTTTIHKVNSMVAYKIPVN-GITLRGSAEIVAEFFSFGINSILYQRGIYPSETFTRVQKYGLTLLVTTDLELIKYLNNVVEQLKDWLYKCSVQKLVVVISNIESGEVLERWQFDIECDKTAKDDSAPREKSQKAIQDEIRSVIAQITATVTFLPLLEVSCSFDLLIYTDKDLVVPEKWEESGPQFITNSEEVRLRSFTTTIHKVNSMVAYKIPVN-GITLRGSAEIVAEFFSFGINSILYQRGIYPSETFTRVQKYGLTLLVTTDLELIKYLNNVVEQLKDWLYKCSVQKLVVVISNIESGEVLERWQFDIECDKTAKDDSAPREKSQKAIQDEIRSVIAQITATVTFLPLLEVSCSFDLLIYTDKDLVVPEKWEESGPQFITNSEEVRLRSFTTTIHKVNSMVAYKIPVN-GITLRGSAEIVAEFFSFGINSILYQRGIYPSETFTRVQKYGLTLLVTTDLELIKYLNNVVEQLKDWLYKCSVQKLVVVISNIESGEVLERWQFDIECDKTAKDDSAPREKSQKAIQDEIRSVIAQITATVTFLPLLEVSCSFDLLIYTDKDLVVPEKWEESGPQFITNSEEVRLRSFTTTIHKVNSMVAYKIPVN,QYISRTENPA-TWIGRSENPC-SWIHRSKNPY-AYIGMRRNPA-STIHRVRNPA-AWIGRSTNPG-RTIHQNENPS-MIIGEKDNPG-AVIHQSVNPY-DWVSRKNNPL,KVLHMSLNPT-KVLHMSLNPT-KVLHMSLNPT-KVLHMSLNPT-KVLHMSLNPT-KVLHMSLNPT-KVLHMSLNPT-KVLHMSLNPT-KVLHMSLNPT-KVLHMSLNPT
