contacts,cs,ce,Chain,Length,designed_receptor_seq,native_receptor_seq,designed_binder_seq,native_binder_seq
15.0,30,40,A,10,MSLEDKETDEKIKELNTIYKAGKEVLKLGKELLDHLKSLIDLEGALGKLYEALAKNDPENKEWFSKLANKSFLLKEYGEKLKKDVENFVKELDKLLNEDMKKVLEVIKKRNEAREKYYEYKKKIEEEGEEGKKKLEEYEKEFEKLNKEVKEGLEKLKEEKEKVLNKVFKELAESVGKFHEEVIKEVEK-MSLEDKELDEKIEKLNTIKKAGEEILKLGKELLDHLKSLIDLEGALGKLFEALAENDPENKEIFSKLANKSFILKEEGEKLKKAVKDFVEKLDKLLNEDMKKVEETIKKRNEAREKYFEYKKKIEEEGEKGKEKLKEYEEKFNKLNEEVKKGLEELEKNKKEVLEKEFKELAEATKKFAEEVKKKVEE-MSLEDKETDEKIKKLNTIYKLGKEVLKLGKELLDHLKSLIDLEGALGKLFEAWAENDPENKEWFSKLANKSFLLKEYGEKLKKDVENFVKELEKLLTEDMKKVKETIKKREEARKKYEEYKKKLEEEGEEGKEKLKEYEEKFEKLNKEVKEGLEKLEKEKEEVLNKEFKKLIESVGEFHKKVAEEVFK-MSLEDKETDEKIKKLNTIYKAGKEVLKLGKELLDHLKSLIDLEGALGKLYEAWAENDPENKEWFSKLANKSFILKEEGKKLLEAVKNFVEKLDKLLNEDMKKVLEVIKKRNEAREKYYEYKKKLEEEGEEGEKKLKEYEEEFEKLNKEVKEGLEKLEEEKKKVLEKEFKELAEAVGKFHEEVKKKVEE-MSLEDKETDEKIKELETISKVGKEILKLGKDLLNYLKSLIDLEGALGKLFEAWAENDPENKEWFSKAANKTFLFKEEGEKLKKAVKEFVDKLTKLLEEDMKKVKETIKKRNEAREKYFEYKKKLEEEGEEGKEKLKEYEEKFNKLNKEVKEGLEKLKEEKEKVLGKEFKELAEAVGEFHKKSLEKLKE-MSLEDKETDEKIEKLNKISKLGKEILKLGKELLDHLKSLIDLEGALGKLFEAWAENDPENKEIFSKLANKSFLLKEEGKKLLEAVKKFVEELEKLLEEDMKKVQETIKKRNEAREKYFEYEKKIEEEGEEGKKKLEEYKKEFEKLNKEVKEGLEKLEEEKKKVLEKEFKKLAEAVGEFHKKVAEKVLE-MSLEDKETDEKIKKLNTIYKAGKEILKLGKELLDHLKSLIDLEGALGKLYEAWAENDPENKEWFSKLANKSFHLKEEGKKLLEAVKDFVEKLDKLLNEDMKKVLETIKKREEARKKYFEYKKKLEEEGEEGEKKLKEYEEEFEKLNKEVKEGLEKLEEEKKKVLEKEFKELIEAVKEFHKNSLKKLEE-MSLSDEETDKKIEELNKIKEIGEKILKLGKELLDHLKSLIDLEGALGKLYEALAKNDPENAEIFSKLANKTFILKEEGEKLKKAVTEFVEKLTKLLEEDMKKVEETIKKRNEAREKYFEYKKKLEEEGEENKEKLKEYEEKFNKLNEEVKKGLEELEKNKKEVLEKEFKELAEAVGKFHENVVKKVEE-MSLEDKETDEKIKKLNTIYKAGKEILKLGKELLDHLKSLIDLEGALGKLYEAWAENDPENKEIFSKLANKTFHLKEEGKKLLEAVKNFVEKIDKLLNEDMKKVLEVIKKRNEAREKYYEYKKKLEEEGEENKEKLKEYEEEFEKLNKEVKEKLEELEKEKEKVLNKEFKELIEAVKEFHKNSLKKIEE-MSLEDKELDEKIKKLNEIYKLGKEILKLGKELLDYLKSLIDLEGALGELYKAWAENDPENKEIFSKLANKTFILKEEGEKLKKAVKEFVEKLDKLLNEDMKKVLEVIKKRNEAREKYYEYKKKIEEEGEEGKEKLKEYEEKFEKLKKEVEEKLEELEKKKEEILGKEFKELAEAVGEFHKKVAEKVLE,SRTVDLELELQIELLRETKRKYESVLQLGRALTAHLYSLLQTQHALGDAFADLSQKSPELQEEFGYNAETQKLLCKNGETLLGAVNFFVSSINTLVTKTMEDTLMTVKQYEAARLEYDAYRTDLEELSESAQATFQAHRDKYEKLRGDVAIKLKFLEENKIKVMHKQLLLFHNAVSAYFAGNQKQLEQ-SRTVDLELELQIELLRETKRKYESVLQLGRALTAHLYSLLQTQHALGDAFADLSQKSPELQEEFGYNAETQKLLCKNGETLLGAVNFFVSSINTLVTKTMEDTLMTVKQYEAARLEYDAYRTDLEELSESAQATFQAHRDKYEKLRGDVAIKLKFLEENKIKVMHKQLLLFHNAVSAYFAGNQKQLEQ-SRTVDLELELQIELLRETKRKYESVLQLGRALTAHLYSLLQTQHALGDAFADLSQKSPELQEEFGYNAETQKLLCKNGETLLGAVNFFVSSINTLVTKTMEDTLMTVKQYEAARLEYDAYRTDLEELSESAQATFQAHRDKYEKLRGDVAIKLKFLEENKIKVMHKQLLLFHNAVSAYFAGNQKQLEQ-SRTVDLELELQIELLRETKRKYESVLQLGRALTAHLYSLLQTQHALGDAFADLSQKSPELQEEFGYNAETQKLLCKNGETLLGAVNFFVSSINTLVTKTMEDTLMTVKQYEAARLEYDAYRTDLEELSESAQATFQAHRDKYEKLRGDVAIKLKFLEENKIKVMHKQLLLFHNAVSAYFAGNQKQLEQ-SRTVDLELELQIELLRETKRKYESVLQLGRALTAHLYSLLQTQHALGDAFADLSQKSPELQEEFGYNAETQKLLCKNGETLLGAVNFFVSSINTLVTKTMEDTLMTVKQYEAARLEYDAYRTDLEELSESAQATFQAHRDKYEKLRGDVAIKLKFLEENKIKVMHKQLLLFHNAVSAYFAGNQKQLEQ-SRTVDLELELQIELLRETKRKYESVLQLGRALTAHLYSLLQTQHALGDAFADLSQKSPELQEEFGYNAETQKLLCKNGETLLGAVNFFVSSINTLVTKTMEDTLMTVKQYEAARLEYDAYRTDLEELSESAQATFQAHRDKYEKLRGDVAIKLKFLEENKIKVMHKQLLLFHNAVSAYFAGNQKQLEQ-SRTVDLELELQIELLRETKRKYESVLQLGRALTAHLYSLLQTQHALGDAFADLSQKSPELQEEFGYNAETQKLLCKNGETLLGAVNFFVSSINTLVTKTMEDTLMTVKQYEAARLEYDAYRTDLEELSESAQATFQAHRDKYEKLRGDVAIKLKFLEENKIKVMHKQLLLFHNAVSAYFAGNQKQLEQ-SRTVDLELELQIELLRETKRKYESVLQLGRALTAHLYSLLQTQHALGDAFADLSQKSPELQEEFGYNAETQKLLCKNGETLLGAVNFFVSSINTLVTKTMEDTLMTVKQYEAARLEYDAYRTDLEELSESAQATFQAHRDKYEKLRGDVAIKLKFLEENKIKVMHKQLLLFHNAVSAYFAGNQKQLEQ-SRTVDLELELQIELLRETKRKYESVLQLGRALTAHLYSLLQTQHALGDAFADLSQKSPELQEEFGYNAETQKLLCKNGETLLGAVNFFVSSINTLVTKTMEDTLMTVKQYEAARLEYDAYRTDLEELSESAQATFQAHRDKYEKLRGDVAIKLKFLEENKIKVMHKQLLLFHNAVSAYFAGNQKQLEQ-SRTVDLELELQIELLRETKRKYESVLQLGRALTAHLYSLLQTQHALGDAFADLSQKSPELQEEFGYNAETQKLLCKNGETLLGAVNFFVSSINTLVTKTMEDTLMTVKQYEAARLEYDAYRTDLEELSESAQATFQAHRDKYEKLRGDVAIKLKFLEENKIKVMHKQLLLFHNAVSAYFAGNQKQLEQ,EEKKEFEHHH-KEEKKFEKKK-EKKEEFKLEE-KLPEEHHHHH-EEKKEFELKE-KKEEKFKKEE-EEEEEFKLEE-EKKKEFEKKK-KIPKEYELKK-EEKKEFELKK,YIPTVFDNYS-YIPTVFDNYS-YIPTVFDNYS-YIPTVFDNYS-YIPTVFDNYS-YIPTVFDNYS-YIPTVFDNYS-YIPTVFDNYS-YIPTVFDNYS-YIPTVFDNYS
22.0,35,45,B,10,MLIKCVVVGDGAVGKTCLLISYTTNAFPGEYVPTVFDNYSAQVEVDGKPVNLGLWDTAGQEDYDRLRPLSYPQTDVFLICFSLVSPSSFENVSEKWYPEVRHYCPDVPIILVGTKLDLREDKKTLEKLAKENKRPITYEQGEAMAKKIGALRYLECSALTQQGLQEVFVEAVRAVLG-MLIKCVVVGDGAVGKTCLLISYTTNAFPGEYVPTVFDNYSANVEVDGKPVNLGLWDTAGQEDYDRLRPLSYPQTDVFLICFSLVSPSSFENVSEKWYPEVRHYCPNVPIILVGTKLDLREDKKTLEKLAKENKRPITYEQGQAMAKKIGALRYLECSALTQQGLQEVFTEAIRAVLG-MLIKCVVVGDGAVGKTCLLISYTTNAFPGEYVPTVFDNYSAQVEVDGKPVNLGLWDTAGQEDYDRLRPLSYPQTDVFLICFSLVSPSSFENVKEKWYPEVKHYCPDVPIILVGTKLDLREDKKTLEKLKEKNQRPITYEQGQAMAKEIGALRYLECSALTQQGLQEVFTEAIRAVLG-MLIKCVVVGDGAVGKTCLLISYTTNAFPGEYVPTVFENYAANVMVDGKPVNLGLWDTAGQEDYDRLRPLSYPQTDVFLICFSLVSPSSFENVKEKWYPEVRHYCPNVPIILVGTKLDLREDKKTLEELAKKNQRPITYEQGQAMAEAIGALRYLECSALTQQGLQEVFTEAIRAVLG-MLIKCVVVGDGAVGKTCLLISYTTNAFPGEYVPTVFDNYSANVEVDGKPVNLGLWDTAGQEDYDRLRPLSYPQTDVFLICFSLVSPSSFENVKEKWYPEVKHYCPNVPIILVGTKLDLREDKKTLEKLKEKNQRPITYEQGEAMAKEIGALKYLECSALTQQGLQEVFTEAIRAVLG-MLIKCVVVGDGAVGKTCLLISYTTNAFPGEYVPTVFDNYSANVEVDGKPVNLGLWDTAGQEDYDRLRPLSYPQTDVFLICFSLVSPSSFENVKEKWYPEVRHYCPNVPIILVGTKLDLREDEKTIEELKKKNQRPITYEQGQAMAEEIGALRYLECSALTQQGLQEVFTEAIRAVLG-MLIKCVVVGDGAVGKTCLLISYTTNAFPGEYVPTVFDNYSANVEVDGKPVNLGLWDTAGQEDYDRLRPLSYPQTDVFLICFSLVSPSSFENVKEKWYPEVRHYCPDVPIILVGTKLDLREDKKTIEKLKEKNQRPITYEQGEAMAKEIGALRYLECSALTQQGLQEVFTEAVRAVLG-MLIKCVVVGDGAVGKTCLLISYTTNAFPGEYVPTVFDNYSANVEVDGKPVNLGLWDTAGQEDYDRLRPLSYPQTDVFLICFSLVSPSSFENVKEKWYPEVRHYCPNVPIILVGTKLDLREDKKTLEKLKEKNQRPITYEQGQAMAKEIGALRYLECSALTQQGLQEVFTEAIRAVLG-MLIKCVVVGDGAVGKTCLLISYTTNAFPGEYVPTVFDNYSANVEVDGKPVNLGLWDTAGQEDYDRLRPLSYPQTDVFLICFSLVSPSSFENVKEKWYPEVRHYCPNVPIILVGTKLDLREDKKTLEELAKKKQRPITYEQGQAMAEAIGALRYLECSALTQQGLQEVFTEAIRAVLG-MLIKCVVVGDGAVGKTCLLISYTTNAFPGEYVPTVFDNYSANVEVDGKPVNLGLWDTAGQEDYDRLRPLSYPQTDVFLICFSLVSPSSFENVSEKWYPEVKHYCPNVPIILVGTKLDLREDKKTIEKLKEKNQRPITYEQGEAMAKKIGALKYLECSALTQQGLQEVFTEAIRAVLG,QAIKCVVVGDGAVGKTCLLISYTTNAFPGEYIPTVFDNYSANVMVDGKPVNLGLWDTAGQEDYDRLRPLSYPQTDVFLICFSLVSPASFENVRAKWYPEVRHHCPNTPIILVGTKLDLRDDKDTIEKLKEKKLTPITYPQGLAMAKEIGAVKYLECSALTQRGLKTVFDEAIRAVLC-QAIKCVVVGDGAVGKTCLLISYTTNAFPGEYIPTVFDNYSANVMVDGKPVNLGLWDTAGQEDYDRLRPLSYPQTDVFLICFSLVSPASFENVRAKWYPEVRHHCPNTPIILVGTKLDLRDDKDTIEKLKEKKLTPITYPQGLAMAKEIGAVKYLECSALTQRGLKTVFDEAIRAVLC-QAIKCVVVGDGAVGKTCLLISYTTNAFPGEYIPTVFDNYSANVMVDGKPVNLGLWDTAGQEDYDRLRPLSYPQTDVFLICFSLVSPASFENVRAKWYPEVRHHCPNTPIILVGTKLDLRDDKDTIEKLKEKKLTPITYPQGLAMAKEIGAVKYLECSALTQRGLKTVFDEAIRAVLC-QAIKCVVVGDGAVGKTCLLISYTTNAFPGEYIPTVFDNYSANVMVDGKPVNLGLWDTAGQEDYDRLRPLSYPQTDVFLICFSLVSPASFENVRAKWYPEVRHHCPNTPIILVGTKLDLRDDKDTIEKLKEKKLTPITYPQGLAMAKEIGAVKYLECSALTQRGLKTVFDEAIRAVLC-QAIKCVVVGDGAVGKTCLLISYTTNAFPGEYIPTVFDNYSANVMVDGKPVNLGLWDTAGQEDYDRLRPLSYPQTDVFLICFSLVSPASFENVRAKWYPEVRHHCPNTPIILVGTKLDLRDDKDTIEKLKEKKLTPITYPQGLAMAKEIGAVKYLECSALTQRGLKTVFDEAIRAVLC-QAIKCVVVGDGAVGKTCLLISYTTNAFPGEYIPTVFDNYSANVMVDGKPVNLGLWDTAGQEDYDRLRPLSYPQTDVFLICFSLVSPASFENVRAKWYPEVRHHCPNTPIILVGTKLDLRDDKDTIEKLKEKKLTPITYPQGLAMAKEIGAVKYLECSALTQRGLKTVFDEAIRAVLC-QAIKCVVVGDGAVGKTCLLISYTTNAFPGEYIPTVFDNYSANVMVDGKPVNLGLWDTAGQEDYDRLRPLSYPQTDVFLICFSLVSPASFENVRAKWYPEVRHHCPNTPIILVGTKLDLRDDKDTIEKLKEKKLTPITYPQGLAMAKEIGAVKYLECSALTQRGLKTVFDEAIRAVLC-QAIKCVVVGDGAVGKTCLLISYTTNAFPGEYIPTVFDNYSANVMVDGKPVNLGLWDTAGQEDYDRLRPLSYPQTDVFLICFSLVSPASFENVRAKWYPEVRHHCPNTPIILVGTKLDLRDDKDTIEKLKEKKLTPITYPQGLAMAKEIGAVKYLECSALTQRGLKTVFDEAIRAVLC-QAIKCVVVGDGAVGKTCLLISYTTNAFPGEYIPTVFDNYSANVMVDGKPVNLGLWDTAGQEDYDRLRPLSYPQTDVFLICFSLVSPASFENVRAKWYPEVRHHCPNTPIILVGTKLDLRDDKDTIEKLKEKKLTPITYPQGLAMAKEIGAVKYLECSALTQRGLKTVFDEAIRAVLC-QAIKCVVVGDGAVGKTCLLISYTTNAFPGEYIPTVFDNYSANVMVDGKPVNLGLWDTAGQEDYDRLRPLSYPQTDVFLICFSLVSPASFENVRAKWYPEVRHHCPNTPIILVGTKLDLRDDKDTIEKLKEKKLTPITYPQGLAMAKEIGAVKYLECSALTQRGLKTVFDEAIRAVLC,KLEEIFLKAM-PLDELFRKYL-VLEEEFRKAL-SLREIFLKAM-EISKIILDFN-DLEKTFLDFI-PLDDIFREAL-PLEEIFRKAL-DLEKIFLDFN-KLSLIFDIFL,LYSLLQTQHA-LYSLLQTQHA-LYSLLQTQHA-LYSLLQTQHA-LYSLLQTQHA-LYSLLQTQHA-LYSLLQTQHA-LYSLLQTQHA-LYSLLQTQHA-LYSLLQTQHA
