contacts,cs,ce,Chain,Length,designed_receptor_seq,native_receptor_seq,designed_binder_seq,native_binder_seq
13.0,2,12,A,10,SQIQYVPKCSSNYCDQIQCSWRSTGNINCESELKLYYCKDSKDSSLKECTPINAGQESCLCTLTVAAVKCSDSYTLDVVHGDTLLWSGSFTPSFHIIPKSPTKLFQSNNSILSWENPYPRDNYLYKKLTYQVRIWIVDDLSFSLVEYVDRSNTSLRIVGDKTYGAAVKCYASIFSTSYSDWSKYVRWN-ERIEKVPQCTSNYLDVSECQWSVVGPVVCASEMKLLYQRLSPTSALKECTPTNNGGTNCVCTLTLTNVVCTDRYKLALIRGDVLLWQGTYTPATSIVPRAPSNLAVTGTTKLSWSNPYPLNNFLFNQLTYQVKLWENSNSCQYRIFNVSDSYPWLTLAGTATYQAAVKAYATSFQTAWSDWSSQVSWP-MNIVTPPECTSNFHNDVECKWVVEGSVNCSTEFKLFYQLLKTDSVRHECIPTNDGASSCVCTLSVTAVYDTDVYSLDLVEGDTKLWQGTFSPSKHIRPLAPSNLKVKGNYHLYWNNPYDVFNFLYDHLSYEVTIWKYSDSTKHTVHTVANIIPELSLVGTSNWRVSVNCFAEKWNSSWSDNSEETNWY-GGITTVPTCISNFHDLITCSWQTNGKQDCATQLKLYYQLIHREATLQTCTPENEGETGCIAVMQVTDVHFGDIYELRLMNGNTLLWNGTFKPMDHIKPLAPSNLYNFTSSNLSWNNPYPRTNFLYNHLTYEVKLWRRDTSYDFQIFKVPASETSLSVFNNKEYGVAVKCYAATFLTTWSEWSEYVKWV-QNIVQAPVCSSDYKNTITCGWVTDGPVYCSSELRLQYQLNESNSVLKTCIPTNTGDTGCTCTLKVSKVIYSDTYILRLMQGKSLLWEGQFVPAKHIQPKSPSKLVSQYPDTLSWNNPYDPYNALFDNLSYQVKIWNTSNTSQRKIFSVPATHTQLTIYGSGSYSVSVQCFAEAFGTTWSEDSYFTSWS-MNISTNPTWSSNYYDKLTGSWTCDGAVDCGSELKLFYQLESTASQKNMAIPTNDGKEGCIAVLTVNDVNCGDKYTLELMRGSTLLWKGEFAPAGHITPSAPSALVNQGNLSLVWDNPYHALNSLYSQLTYEVRIWTTKLSKTEETYHVPFSSPNLNLNEPDKYGVSVRNYAKLFNTSWSEASSSTSWG-NNIAVLPHCVSNYLNTIECYWVSDGSVDCYTELRLYYTLLWQVSRRRVCTPSNVGNTGCLCILTVDVVQVSDLYRLQLIRGDSLLYETTFRPARYIQPRAPHDLMQLASDVLVWNNPYPPDNQLTAQLTYTVRVWNTSSSLAWSDFDIPWEQAQLTMQGPQQYSVAVRCLADRFNTTLSAWSRHTSFS-RDIVEEPKCTSDWESSSTCTWKAKGPIKCGRELRLYYIRLQEESRRKLCVPYNHGEEQCICSLEVTSVTVDDSFELRLIKGNKLLWLGTFAPSEKVVPLAPSNLTVTGDLELQWDNPYPKYNFLYNQLTYEVLIWRLNDIRQSHIYEVSSTDTNLKIEGPDTYGVAVRCFARDYVTAWSDWSAFDDFA-MHIKDAPVCTSDFYDRITCGWRTEGPVDAGTELRLEYVLRKTDSTSEICQPTNDGDEGCVCVLEVDYVIETMEYQLIVWKGGTELWNGTFKPADNIVPKAPNALAVTGTLTLSWNNPYGDGNFLFNQLTYETRIWVQDATTDYAVFENPWGTPSLKIVKPGNYGVSVRSYAAAYETTWSEWSASTSFY-TNIATPPICTSNYYDQSVCQWEVEGPVTASTELLLYYELLQPDSIRRRAVPTNAGIDQAIAVLHHKYVRERDRFRLRLMRGDELLWDGYFQPASHIKPTAPSGLQNRKDLVLHWNNPYPPSNSMYRQLTYQLRLWVLEDPSQMELHEIPASQPMLRHHGPRSYGAAVLCYAKAFETTWSHWSASTDWP,FKVLQEPTCVSDYMSISTCEWKMNGPTNCSTELRLLYQLVFLLSEAHTCIPENNGGAGCVCHLLMDDVVSADNYTLDLWAGQQLLWKGSFKPSEHVKPRAPGNLTVHDTLLLTWSNPYPPDNYLYNHLTYAVNIWSENDPADFRIYNVTYLEPSLRIAAGISYRARVRAWAQAYNTTWSEWSPSTKWH-FKVLQEPTCVSDYMSISTCEWKMNGPTNCSTELRLLYQLVFLLSEAHTCIPENNGGAGCVCHLLMDDVVSADNYTLDLWAGQQLLWKGSFKPSEHVKPRAPGNLTVHDTLLLTWSNPYPPDNYLYNHLTYAVNIWSENDPADFRIYNVTYLEPSLRIAAGISYRARVRAWAQAYNTTWSEWSPSTKWH-FKVLQEPTCVSDYMSISTCEWKMNGPTNCSTELRLLYQLVFLLSEAHTCIPENNGGAGCVCHLLMDDVVSADNYTLDLWAGQQLLWKGSFKPSEHVKPRAPGNLTVHDTLLLTWSNPYPPDNYLYNHLTYAVNIWSENDPADFRIYNVTYLEPSLRIAAGISYRARVRAWAQAYNTTWSEWSPSTKWH-FKVLQEPTCVSDYMSISTCEWKMNGPTNCSTELRLLYQLVFLLSEAHTCIPENNGGAGCVCHLLMDDVVSADNYTLDLWAGQQLLWKGSFKPSEHVKPRAPGNLTVHDTLLLTWSNPYPPDNYLYNHLTYAVNIWSENDPADFRIYNVTYLEPSLRIAAGISYRARVRAWAQAYNTTWSEWSPSTKWH-FKVLQEPTCVSDYMSISTCEWKMNGPTNCSTELRLLYQLVFLLSEAHTCIPENNGGAGCVCHLLMDDVVSADNYTLDLWAGQQLLWKGSFKPSEHVKPRAPGNLTVHDTLLLTWSNPYPPDNYLYNHLTYAVNIWSENDPADFRIYNVTYLEPSLRIAAGISYRARVRAWAQAYNTTWSEWSPSTKWH-FKVLQEPTCVSDYMSISTCEWKMNGPTNCSTELRLLYQLVFLLSEAHTCIPENNGGAGCVCHLLMDDVVSADNYTLDLWAGQQLLWKGSFKPSEHVKPRAPGNLTVHDTLLLTWSNPYPPDNYLYNHLTYAVNIWSENDPADFRIYNVTYLEPSLRIAAGISYRARVRAWAQAYNTTWSEWSPSTKWH-FKVLQEPTCVSDYMSISTCEWKMNGPTNCSTELRLLYQLVFLLSEAHTCIPENNGGAGCVCHLLMDDVVSADNYTLDLWAGQQLLWKGSFKPSEHVKPRAPGNLTVHDTLLLTWSNPYPPDNYLYNHLTYAVNIWSENDPADFRIYNVTYLEPSLRIAAGISYRARVRAWAQAYNTTWSEWSPSTKWH-FKVLQEPTCVSDYMSISTCEWKMNGPTNCSTELRLLYQLVFLLSEAHTCIPENNGGAGCVCHLLMDDVVSADNYTLDLWAGQQLLWKGSFKPSEHVKPRAPGNLTVHDTLLLTWSNPYPPDNYLYNHLTYAVNIWSENDPADFRIYNVTYLEPSLRIAAGISYRARVRAWAQAYNTTWSEWSPSTKWH-FKVLQEPTCVSDYMSISTCEWKMNGPTNCSTELRLLYQLVFLLSEAHTCIPENNGGAGCVCHLLMDDVVSADNYTLDLWAGQQLLWKGSFKPSEHVKPRAPGNLTVHDTLLLTWSNPYPPDNYLYNHLTYAVNIWSENDPADFRIYNVTYLEPSLRIAAGISYRARVRAWAQAYNTTWSEWSPSTKWH-FKVLQEPTCVSDYMSISTCEWKMNGPTNCSTELRLLYQLVFLLSEAHTCIPENNGGAGCVCHLLMDDVVSADNYTLDLWAGQQLLWKGSFKPSEHVKPRAPGNLTVHDTLLLTWSNPYPPDNYLYNHLTYAVNIWSENDPADFRIYNVTYLEPSLRIAAGISYRARVRAWAQAYNTTWSEWSPSTKWH,HNFDYLEQKG-WGISHAEKIY-SNLQEQATKD-IDNNHLERLL-PNLQTYCRFN-AGISALEALQ-DQLQEWEKLS-LDVNSLSITN-EGIQKQEAQM-VGPERLQAKR,CDITLQEIIK-CDITLQEIIK-CDITLQEIIK-CDITLQEIIK-CDITLQEIIK-CDITLQEIIK-CDITLQEIIK-CDITLQEIIK-CDITLQEIIK-CDITLQEIIK
19.0,62,72,B,10,TTIGMGTLRIRANLDTISRMNCKCRDYLVNDVFALAGKITAAQKWCMVATVLHDYYRKHSTDSRCWGQTIQEYLQKNRLISLLRCLEGDLEAEAGLDSCRISVTEEIKLSVFLKQMQSEIDDYYLKFNS-DVLNSCIEEVVTRLNLVARQISICDSWEVFNVFAATSSISGNELDCRAAWVLDDYYTQHRQDQRCYGTTFLEYERWCNLILNLRALQYNLKGRAGLEYCPIQEEQMLSLTEFLRGWQSRMDSTWSKGKG-SMSGPIDSEIVRNLYQISQLRTVCDQIEVVDVFAKANEQDFDTLLCQAAMVLRDFYTTHMKDSSCMGSTLTEAINQAFFMSLLQQLEINLRGLAGLNSCKITSTDKIKLSDFLQKFNKVRMEIARQGAQ-VLCGPIVKHIERSLVEISETRCVCDEYYVVDVFDEKRSISEEEKYCMTAKVLKDFYIEHRNDSRCFGETCEEFEMHRTYMRLLKVLELNLKGMAGLDDCPIEESQMVSLRTFLRNYKGIIKEVVKQCGG-FNNGPRLKGIVKILDNLEKMRTKCDERKVRNVFQQDPNISRETLYCKVGEVLREWYTEHQRDVACTGQTEDQLNRWQSFIYNLKGLEEDLMGMAGLKSCPITETKQIKLTQYLSKLRLVMQEVFQLGGK-AENGPILQDIVTDLQQLQQLSTKCSNRTVYDVFADKPDINEKALYCMVGQELEKFFREEEYNYQCLGKSVEQYQSHLRFMFLLEGLEVNLRGMAGLSECQITVTQQINLKDYLQILSRVMEKRFQEGQS-PWRNETLLRIVRTLEDLRRLGTVCSRWLVKNVFEVRDSITMRNLFCKVGKVISNFYSQYSSALDCYGRTAQELFRHLKFIRLLRVLEHDLKCMAGLNNCPIRERERLALEDFLDRLNRVIRDLHRAESN-SMRNSISREIIQNLEQIKRMLTICRNKLVTNVFERDVRITDEELYCKVALVLNDFYTEHEKDSTCYGDTIEEHMAHSKFIHLLIFLECNLRGLAGLEDCPITSTNLLTLDEFLENFNKVMEDYYNNDEE-MDIGPIEAEIKQFINYIKSMDNFCDSKQVTNIFANDNNINNNEVLCKAAFVLEKFYENFAADKSCYGMTMNEYFKQKSYINYLKALTENLRGLSGLEDCRINIKEKTELKNFLESFENVIEHRYSKGVG-MIYNNKLKEIISNLKLLEEKKTICTNLQVFDVFTFDKEINYNTVLCRAAEVLNSFYTEHERDLSCLGNSTTEYFKHKNLVQLLKNLTYNLRFMAGLESCQISEEQKIELKDFLQKFFYLMKVEYQRYVS,HKCDITLQEIIKTLNSLTEQKTLCTELTVTDIFAASKNTTEKETFCRAATVLRQFYSHHEKDTRCLGATAQQFHRHKQLIRFLKRLDRNLWGLAGLNSCPVKEANQSTLENFLERLKTIMREKYSKCSS-HKCDITLQEIIKTLNSLTEQKTLCTELTVTDIFAASKNTTEKETFCRAATVLRQFYSHHEKDTRCLGATAQQFHRHKQLIRFLKRLDRNLWGLAGLNSCPVKEANQSTLENFLERLKTIMREKYSKCSS-HKCDITLQEIIKTLNSLTEQKTLCTELTVTDIFAASKNTTEKETFCRAATVLRQFYSHHEKDTRCLGATAQQFHRHKQLIRFLKRLDRNLWGLAGLNSCPVKEANQSTLENFLERLKTIMREKYSKCSS-HKCDITLQEIIKTLNSLTEQKTLCTELTVTDIFAASKNTTEKETFCRAATVLRQFYSHHEKDTRCLGATAQQFHRHKQLIRFLKRLDRNLWGLAGLNSCPVKEANQSTLENFLERLKTIMREKYSKCSS-HKCDITLQEIIKTLNSLTEQKTLCTELTVTDIFAASKNTTEKETFCRAATVLRQFYSHHEKDTRCLGATAQQFHRHKQLIRFLKRLDRNLWGLAGLNSCPVKEANQSTLENFLERLKTIMREKYSKCSS-HKCDITLQEIIKTLNSLTEQKTLCTELTVTDIFAASKNTTEKETFCRAATVLRQFYSHHEKDTRCLGATAQQFHRHKQLIRFLKRLDRNLWGLAGLNSCPVKEANQSTLENFLERLKTIMREKYSKCSS-HKCDITLQEIIKTLNSLTEQKTLCTELTVTDIFAASKNTTEKETFCRAATVLRQFYSHHEKDTRCLGATAQQFHRHKQLIRFLKRLDRNLWGLAGLNSCPVKEANQSTLENFLERLKTIMREKYSKCSS-HKCDITLQEIIKTLNSLTEQKTLCTELTVTDIFAASKNTTEKETFCRAATVLRQFYSHHEKDTRCLGATAQQFHRHKQLIRFLKRLDRNLWGLAGLNSCPVKEANQSTLENFLERLKTIMREKYSKCSS-HKCDITLQEIIKTLNSLTEQKTLCTELTVTDIFAASKNTTEKETFCRAATVLRQFYSHHEKDTRCLGATAQQFHRHKQLIRFLKRLDRNLWGLAGLNSCPVKEANQSTLENFLERLKTIMREKYSKCSS-HKCDITLQEIIKTLNSLTEQKTLCTELTVTDIFAASKNTTEKETFCRAATVLRQFYSHHEKDTRCLGATAQQFHRHKQLIRFLKRLDRNLWGLAGLNSCPVKEANQSTLENFLERLKTIMREKYSKCSS,ANAAYQREAD-TLEFLKVAYD-AIQLMQNFME-EYVELEVVSH-VHKDYKVETH-VHYLYHVATD-EFSLSRVCCE-MYHHYSVVSD-KPILSISVTD-YSKAFQVEAE,LLMDDVVSAD-LLMDDVVSAD-LLMDDVVSAD-LLMDDVVSAD-LLMDDVVSAD-LLMDDVVSAD-LLMDDVVSAD-LLMDDVVSAD-LLMDDVVSAD-LLMDDVVSAD
