contacts,cs,ce,Chain,Length,designed_receptor_seq,native_receptor_seq,designed_binder_seq,native_binder_seq
23.0,10,20,A,10,MQYVISTIILLEDPERVYFLVVRWETFLTDGFELVLTDGKDSWAGNKSDRFLRHNAENHNYLLNHYVGLLREALLEWFNFEYNFNKNTNEFHFLRRDLNKSFLLGKYQLIKESNPKLILDTIQSQIENQKLQLIRLKKEANKLKQEAAEKVSFFQQKKETLQKQAKDELKAKKEAMIHSHNLIKKEIVTIQNKARQKHDEYKQYEEF-LDYKITELTLLEDPTHLWYLLVRWDLRLETGFDISLTDGRFSWNGQTSEMALIHRAHLLNHDFGYYVGLLHDALLGTYAFVFHFDASTCNFWFQLQEVNQQFLLGQLQLDKSTQPEAEIKALATLIDESREARNQELEREKLRREERVHQLEEEAKRAHASIAKDIEEQIHTLSQSIDRLNRIKVQARTAQQSVEKDIEKVQAWEED-KEFSIKSLKLFEDPAKIFKLMVQWENSLREGFQLTLTDGGRAWSGRRSSTELTNQAQMLNKKENKYIELLKMALLGQFSVMFNFSKETYKFWFTKEENNKSSLLGFFQLARDSNPLRLLKEMVTYQNNRRNSLNILQKEKEENAKEKVLDLETSQKELEEKKKAYEEKEKAWKQKQIKGVNERKEDINRLQNLLEYIKIWQEDLEEK-MNFEIKQLKLAEDPQKVWYLRVSWKNYLKYGFRIELTDGINSWVGYKSEKEIEKAAQYLHMKKQKYVGELAKALLNVNVYRYHFSRSSHLFWYDKILMRKSRRMGMFELKQSRQPQEVINEWQQEIEEQKTKEQKMEAKLREEAEQARELAQKQAEEARLKAEQEAKDRTAEYRQMITELNKLLGELKQKKEEAHREYLRKQKEMLE-MNHTINTISLQEEPEQLYKLKVSWTDHLTTGFDIILTDGKNCWSGLMTRAGIARLAELGNYDLNNYVGFLSDSLLGTSRYVFKFNKKTTAFHFVIVNENSSALAGSFALVRDEEPKKYLSLMQLAVDHAVKEQQDQKDIEEIEAQKALFEAKREAQKEQQRIQEIKVSYIAELLKKIEYVNDQRTKIKEHYNALKSAINEVKAQVKE-MQYVTKKITLVQSPSKRFYLKVQWEDFLEHGFNLKLTNGSNVWAGFTSHNQLVEESKNNLWDFGRYVLNLYMALLGEDRFEFHFNEETCDFFFKQSKANFSFDLGLFQLVKEKVPDENINHLYSRIQQKKKEEIMMLQQFIDKQAKMEEEKKQKLEELNREVERQKIAYRDNLTKKIEVLNKLKEMEVAVRNTMKEIERKINDLQTK-MNWVVSEISLENDPDHSWLLRVSWTSSLKKGFNVLLTDGHQSWSATVTEDQLITLAEENSMYLDSYVGFLRESLLGSFTISFNFDQSTAIFWFTRVMEESQWLAGQFQLNREVHPTDVINECLSLLLEEYKRLEERIQQREIERLYLKQEVEFKKQRLEQEKELANKENISLKMKIISEINKRKERIRKAHDQVLEFKKFLHSLQNN-LNYVIKGISLNESPETLHMLSVEWTETLKNGFFMTLTDGENAWSGIKSEEMLRRDAKNGFFQLEMYVGFLEQALLGKQQYQFHFDGKTYNFRFYKVEEGKETLMGEFQLEVEEEPEAVIERIWSLVRQKAAESFAMALKAKESLQQFEKEVKEYDKKWQELEAEKQKAERERKEREIIQLNQMKVLANFYNHEADRALEARQAEIME-SDFVSNRINLASLPDIKHHLIIMWNQTLKAGFWIVLTDGVKAWQGKMTQDEILIKAQYRNEAFGRYTGLLVDALLGPDEYYFYFDEKTNRFWFERGTKQFTWLTGYFELKESDQPSEIISENEKLLQEESQRLQKAREELEEQKKEFAQKLEEKELELQQKQEKLRAEVEKSQRVLIERINLLKAEVKRLDNEVKSLEEKVQRLEND-MEQVIQSLHLWEDPEKTYHLRVQWTDSLKWGFEIVLTDGFSAWIGQKTETQLINEAKLQNNDLNLYVGYLERALLGREEYAYFFSEKTCKFFFTIIIANKNVNMGELQLVKDVDPLNLINKWVIDLHELLKRTNVENQRLKAENQALLTELKNKQQAYNDTLASAAKYKEHIDKIIIGAVNSNKADVREVRNKIDELKLAVNKLKTE,MERKISRIHLVSEPSITHFLQVSWEKTLESGFVITLTDGHSAWTGTVSESEISQEADDMAMEKGKYVGELRKALLSADVYTFNFSKESAYFFFEKNLKDVSFRLGSFNLEKVENPAEVIRELIAYALDTIAENQAKNEHLQKENERLLRDWNDVQGRFEKAVSAKEALETDLYKRFILVLNEKKTKIRSLHNKLLNAAQEREKDIKQ-MERKISRIHLVSEPSITHFLQVSWEKTLESGFVITLTDGHSAWTGTVSESEISQEADDMAMEKGKYVGELRKALLSADVYTFNFSKESAYFFFEKNLKDVSFRLGSFNLEKVENPAEVIRELIAYALDTIAENQAKNEHLQKENERLLRDWNDVQGRFEKAVSAKEALETDLYKRFILVLNEKKTKIRSLHNKLLNAAQEREKDIKQ-MERKISRIHLVSEPSITHFLQVSWEKTLESGFVITLTDGHSAWTGTVSESEISQEADDMAMEKGKYVGELRKALLSADVYTFNFSKESAYFFFEKNLKDVSFRLGSFNLEKVENPAEVIRELIAYALDTIAENQAKNEHLQKENERLLRDWNDVQGRFEKAVSAKEALETDLYKRFILVLNEKKTKIRSLHNKLLNAAQEREKDIKQ-MERKISRIHLVSEPSITHFLQVSWEKTLESGFVITLTDGHSAWTGTVSESEISQEADDMAMEKGKYVGELRKALLSADVYTFNFSKESAYFFFEKNLKDVSFRLGSFNLEKVENPAEVIRELIAYALDTIAENQAKNEHLQKENERLLRDWNDVQGRFEKAVSAKEALETDLYKRFILVLNEKKTKIRSLHNKLLNAAQEREKDIKQ-MERKISRIHLVSEPSITHFLQVSWEKTLESGFVITLTDGHSAWTGTVSESEISQEADDMAMEKGKYVGELRKALLSADVYTFNFSKESAYFFFEKNLKDVSFRLGSFNLEKVENPAEVIRELIAYALDTIAENQAKNEHLQKENERLLRDWNDVQGRFEKAVSAKEALETDLYKRFILVLNEKKTKIRSLHNKLLNAAQEREKDIKQ-MERKISRIHLVSEPSITHFLQVSWEKTLESGFVITLTDGHSAWTGTVSESEISQEADDMAMEKGKYVGELRKALLSADVYTFNFSKESAYFFFEKNLKDVSFRLGSFNLEKVENPAEVIRELIAYALDTIAENQAKNEHLQKENERLLRDWNDVQGRFEKAVSAKEALETDLYKRFILVLNEKKTKIRSLHNKLLNAAQEREKDIKQ-MERKISRIHLVSEPSITHFLQVSWEKTLESGFVITLTDGHSAWTGTVSESEISQEADDMAMEKGKYVGELRKALLSADVYTFNFSKESAYFFFEKNLKDVSFRLGSFNLEKVENPAEVIRELIAYALDTIAENQAKNEHLQKENERLLRDWNDVQGRFEKAVSAKEALETDLYKRFILVLNEKKTKIRSLHNKLLNAAQEREKDIKQ-MERKISRIHLVSEPSITHFLQVSWEKTLESGFVITLTDGHSAWTGTVSESEISQEADDMAMEKGKYVGELRKALLSADVYTFNFSKESAYFFFEKNLKDVSFRLGSFNLEKVENPAEVIRELIAYALDTIAENQAKNEHLQKENERLLRDWNDVQGRFEKAVSAKEALETDLYKRFILVLNEKKTKIRSLHNKLLNAAQEREKDIKQ-MERKISRIHLVSEPSITHFLQVSWEKTLESGFVITLTDGHSAWTGTVSESEISQEADDMAMEKGKYVGELRKALLSADVYTFNFSKESAYFFFEKNLKDVSFRLGSFNLEKVENPAEVIRELIAYALDTIAENQAKNEHLQKENERLLRDWNDVQGRFEKAVSAKEALETDLYKRFILVLNEKKTKIRSLHNKLLNAAQEREKDIKQ-MERKISRIHLVSEPSITHFLQVSWEKTLESGFVITLTDGHSAWTGTVSESEISQEADDMAMEKGKYVGELRKALLSADVYTFNFSKESAYFFFEKNLKDVSFRLGSFNLEKVENPAEVIRELIAYALDTIAENQAKNEHLQKENERLLRDWNDVQGRFEKAVSAKEALETDLYKRFILVLNEKKTKIRSLHNKLLNAAQEREKDIKQ,LQTEINVENL-LLNNMDENTM-AFEDTNLVTL-WLVDINEFNL-TLTATCYLTL-MFTATNMENL-SFNNINLETL-LRTDINEATL-SRSQIDEQTL-LTEDINLDNL,YFIDTDLNQL-YFIDTDLNQL-YFIDTDLNQL-YFIDTDLNQL-YFIDTDLNQL-YFIDTDLNQL-YFIDTDLNQL-YFIDTDLNQL-YFIDTDLNQL-YFIDTDLNQL
17.0,174,184,B,10,APPFDQDGNSYFLPIDTALFAEVRAGAA-TELFDEDGRSFLLPTNAQNLDDVIRGKW-KRKYDEGGNSFVEPTDATKYGVIVAGFG-DAEYDEWGLSHYKDTTVANYQKALAGLP-SETFTKHGLSYFLKTDDEQLAKVKEGVP-YSDYNKNGLSYFKPVNADEAIIVNAGQV-KEEFDSMGKSFFDKINSKKLVKIYKGME-KNELDVDGCSFLRNTDRTEVRAVLDGVV-GMELEKDGRSKYAPTGRARLAEVLAGLG-MAAFDKNGLSYFEPTYVGGLTKVIRGIG,AREYDCYGDSYFIDTDLNQLKEVFSGIK-AREYDCYGDSYFIDTDLNQLKEVFSGIK-AREYDCYGDSYFIDTDLNQLKEVFSGIK-AREYDCYGDSYFIDTDLNQLKEVFSGIK-AREYDCYGDSYFIDTDLNQLKEVFSGIK-AREYDCYGDSYFIDTDLNQLKEVFSGIK-AREYDCYGDSYFIDTDLNQLKEVFSGIK-AREYDCYGDSYFIDTDLNQLKEVFSGIK-AREYDCYGDSYFIDTDLNQLKEVFSGIK-AREYDCYGDSYFIDTDLNQLKEVFSGIK,AMIERRNAMI-EEIVVINHRK-DDIAAMNARK-DDIKDINNFI-ALVQKLNFRK-QDIEKINASI-YGIFVRNTHI-KLICERNANI-TGIKVRNEAI-DAIKKINKVT,RFILVLNEKK-RFILVLNEKK-RFILVLNEKK-RFILVLNEKK-RFILVLNEKK-RFILVLNEKK-RFILVLNEKK-RFILVLNEKK-RFILVLNEKK-RFILVLNEKK
