contacts,cs,ce,Chain,Length,designed_receptor_seq,native_receptor_seq,designed_binder_seq,native_binder_seq
15.0,15,25,A,10,DCPSGWSYFNGSCYKPFNLRLSWDDAQKFCTEQASGGNLVQITSSGEADFVAELVKANITDKNDFVWIGDKLDDDYCGWKDVYGNGEKITSTGCKPWTCKNCRGLRYSTGYRQKENIWCGAKFPFVCQS-RCPEGWYEYEGKCFKPFNLYLTWDDAERFCTLQARGGHLVRIVSEGESDFVSELVKKNIKNKCEFVWVGDRYEGEALQWSERYWNGTRVTKTEWRPEEATRCFGLNYLDGYRKRNPIYCGNKFPFVCQT-QCPQGWSAFDGKCYKPFNLYLTFDDAELFCTQQAEGGSLVQITSDGEADFVSDLIKANIVDSSAYVWIGDRYNGDELETKDFYDNGTEITETGWDPCDAKNCFGLNNATGYRSRTAIYCGNRFPFVCQN-DCPAGWHAYEGKCYKPFNLRLTWEEADRFCTRQANGGDLVKITSAGESDFVSRLIKANIKDKNEFVWIGTRLEGNSSESSNTWSDGTKITKTGWKPWEAKNCYGLYERLGYRARIPIWCGGKFPFVCSS-SCPSGWSSYSGSCYKPFNKKLTFDDAEKFCTEQSSGGSLVEITSQGESDFVSELVKKNIKDKNDYIWIGERLNDKRSSYLDKWFDGTTITKEGWKPCDAKNCFGLRQSTGYKERNPIYCGSRFPFVCQN-ECPQGWYSFDGRCYKPFDKKLTWEAAQKFCTEQAKGGTLVQIDSAGQADFVSDLVKKNIKDKNEYIWIGQKLENDALGFEFQHDDGSKITKQGFAPWEAKLCLGLNKKTGYKKEEDIWCGSENPFVCQN-ACPTGWYEFEGKCYKPFNKKLTYDEAEEFCTKQAKGGHLVQITSVGESQFVSELVKKNIKDKREYVWIGERLKDNSLEKLNKYSNGKKITETGWKECDAKNCYGLEHSTGYLERIPIYCGSKFPFVCQN-KCPKGWYSYKGKCYKPFNLKLTFAEAEEFCTRQADGGHLVQITSDGEADFVSDLVKKNIKDKKEYVWIGERLKGDASDFREKYDDGTKIEKTGYKPCDAKRCFGLNEEFGYRKKIPVYCGNKFPFVCQN-DCPKGWYYYEGKCFKPFNIYLTFEKAEKFCTEQADGGRLVHITSLGESDFVSDLIKENIKDKNEYIWIGEKYNGIEWEKRNRWINGTEIKETGWEPWKAKRCYGLYEKTGYKEKQKIYCGSEFPFVCQN-DCPDGWFEYDGSCFRPFNEYLSWDEAELFCTRQAEGGNLVSITSAGEADFVSDLVKNNISNKRDYVWVGSRRNDTALQESFVHGNGTLITQVGYKPFEARNCFGLREETGYRQLDPIWCGSKNPFVCQS,DCPSGWSSYEGHCYKPFKLYKTWDDAERFCTEQAKGGHLVSIESAGEADFVAQLVTENIQNTKSYVWIGLRVQGKEKQCSSEWSDGSSVSYENWIEAESKTCLGLEKETGFRKWVNIYCGQQNPFVCEA-DCPSGWSSYEGHCYKPFKLYKTWDDAERFCTEQAKGGHLVSIESAGEADFVAQLVTENIQNTKSYVWIGLRVQGKEKQCSSEWSDGSSVSYENWIEAESKTCLGLEKETGFRKWVNIYCGQQNPFVCEA-DCPSGWSSYEGHCYKPFKLYKTWDDAERFCTEQAKGGHLVSIESAGEADFVAQLVTENIQNTKSYVWIGLRVQGKEKQCSSEWSDGSSVSYENWIEAESKTCLGLEKETGFRKWVNIYCGQQNPFVCEA-DCPSGWSSYEGHCYKPFKLYKTWDDAERFCTEQAKGGHLVSIESAGEADFVAQLVTENIQNTKSYVWIGLRVQGKEKQCSSEWSDGSSVSYENWIEAESKTCLGLEKETGFRKWVNIYCGQQNPFVCEA-DCPSGWSSYEGHCYKPFKLYKTWDDAERFCTEQAKGGHLVSIESAGEADFVAQLVTENIQNTKSYVWIGLRVQGKEKQCSSEWSDGSSVSYENWIEAESKTCLGLEKETGFRKWVNIYCGQQNPFVCEA-DCPSGWSSYEGHCYKPFKLYKTWDDAERFCTEQAKGGHLVSIESAGEADFVAQLVTENIQNTKSYVWIGLRVQGKEKQCSSEWSDGSSVSYENWIEAESKTCLGLEKETGFRKWVNIYCGQQNPFVCEA-DCPSGWSSYEGHCYKPFKLYKTWDDAERFCTEQAKGGHLVSIESAGEADFVAQLVTENIQNTKSYVWIGLRVQGKEKQCSSEWSDGSSVSYENWIEAESKTCLGLEKETGFRKWVNIYCGQQNPFVCEA-DCPSGWSSYEGHCYKPFKLYKTWDDAERFCTEQAKGGHLVSIESAGEADFVAQLVTENIQNTKSYVWIGLRVQGKEKQCSSEWSDGSSVSYENWIEAESKTCLGLEKETGFRKWVNIYCGQQNPFVCEA-DCPSGWSSYEGHCYKPFKLYKTWDDAERFCTEQAKGGHLVSIESAGEADFVAQLVTENIQNTKSYVWIGLRVQGKEKQCSSEWSDGSSVSYENWIEAESKTCLGLEKETGFRKWVNIYCGQQNPFVCEA-DCPSGWSSYEGHCYKPFKLYKTWDDAERFCTEQAKGGHLVSIESAGEADFVAQLVTENIQNTKSYVWIGLRVQGKEKQCSSEWSDGSSVSYENWIEAESKTCLGLEKETGFRKWVNIYCGQQNPFVCEA,TTDPTCSTSC-CTLPSLSERA-CTGPRNDDCP-WEGPEAALKK-CSDDKLCKKE-TKKKKKKKKK-YLKPSCNSSC-CKTPDCKTKC-ENENSYYSLE-YEGYDLRSFA,KCSFARVFNT-KCSFARVFNT-KCSFARVFNT-KCSFARVFNT-KCSFARVFNT-KCSFARVFNT-KCSFARVFNT-KCSFARVFNT-KCSFARVFNT-KCSFARVFNT
10.0,112,122,B,10,MDLGGDPNPCDRSNTPCDLTQCDPQQVAAAQQDA-MNPGGSNEPCSLECFPGPFFSCFEEEARLAEEHI-MPDGGGVEPCRREDGDGFCDRCLDEDCQRWRECR-MNTGGDDTPCRAEDGPVDAIDCFGGTELLAELLD-MDLGGNDAPCDLRAFPAPPCGCLPGLTAVCASCH-MDLGGNNNACDEGTGPREWISCLSVDEQLWQQYQ-MDNGDGTEPCTKEMEGCSACSCSKGCEKICEACG-MVSGGDITKCEGNYGGGSFASCVGAAANVGTNAD-NGTGGVDAPCTAGAYPCDNLFCVNGACDQWAAVS-MDSGGSVSECNVNDLGCVAPFCKSDCEASCSSCV,YNSGKLFVRGNLRCKKCSFARVFNTKTTFWKQYV-YNSGKLFVRGNLRCKKCSFARVFNTKTTFWKQYV-YNSGKLFVRGNLRCKKCSFARVFNTKTTFWKQYV-YNSGKLFVRGNLRCKKCSFARVFNTKTTFWKQYV-YNSGKLFVRGNLRCKKCSFARVFNTKTTFWKQYV-YNSGKLFVRGNLRCKKCSFARVFNTKTTFWKQYV-YNSGKLFVRGNLRCKKCSFARVFNTKTTFWKQYV-YNSGKLFVRGNLRCKKCSFARVFNTKTTFWKQYV-YNSGKLFVRGNLRCKKCSFARVFNTKTTFWKQYV-YNSGKLFVRGNLRCKKCSFARVFNTKTTFWKQYV,PPQPQPQGCP-EEVPVDPDQP-PPVPHDPGCD-PVVPAPAGLP-PEVPADPGQP-PVVPRPSNVP-PAKKEDCSKP-PTVTVDASIK-PPVPVDPGVP-PRVPANPKLP,KWVNIYCGQQ-KWVNIYCGQQ-KWVNIYCGQQ-KWVNIYCGQQ-KWVNIYCGQQ-KWVNIYCGQQ-KWVNIYCGQQ-KWVNIYCGQQ-KWVNIYCGQQ-KWVNIYCGQQ
