contacts,cs,ce,Chain,Length,designed_receptor_seq,native_receptor_seq,designed_binder_seq,native_binder_seq
9.0,4,14,A,10,MIKPYRGDPFAPALDTPLTSSRLVRAVVGNLPLFRKGWGPFRRGLLVGVAHGFVLILPFVFFGPWADTDRAADGGLVTALVVIALAWLGLLTFGLFSFRRGGSATDPLRTRAGWLRFTAGFLVGAVGSAYVAYFLLRNWDVVAGLLTGAFG-MIKPYRGNPFFPALDTPLTNSRLVRLVVGNLPLFRKGWGPFRRGLLVGIAHGFVLILPFVFFGPWADTDHAADGGLITALLVIAGYWLFLLTFGLFSFRRGGSATDPLHTRRGWLAFTAGFLVGAVGSAYVAYWLIENWDWVAGLLTGAYG-MVKPFRGNPFFPALDTPLTSSKLVRWLVGNLPLFRKGWGPFRRGLLVGVAHGFVLILPFVFFGPWANTDVAADGGLVTALVVIALAWLGLLTTGLFSFRRGGSETDPLHTRRGWLAFTAGFLVGAVGSAYVAYWLLENWDWVAGLLTGAYG-SVKPYRGDPFAPALDTPLTNSTLVRTLVGNLPLFRPGLDPFTRGLLVGVAHGFVLGLPFYYFGPWAKTDRAEDGALVTALVVIAGYWLWLLTFGLVSFRDGGSATDPLRTTAGWLRFTAGFLVGAVGSAYVAYWLLRNRAAVEGLLTGAYG-SVKPFAGDPFAPALDTPLTSSDFVRAFVGNLPLFREGLDPFVRGLLVGIAHGFVLGLPFYYFGPWAKTDRAADGALVTSLVVIALYWLWLFAYGLVSFRDGGSATDPLRTTEGWLRFTAGFLVGAVGSAYVAYWLVRNRAWVEGLLTGAYG-MVKPFRGNPFAPALETPLTDSGLVRAVVGNLPLFRKGWGPFRRGLLVGVAHGFVLGLPFVFFGPWADTDRAADGALVTALVVIALYWLGLLTNGLFSFRGGGSATDPLRTRRGWLAFTAGFLVGAVGSAYVAYWLLEHWDWVAGLLTGAYG-MVKPFRGDPFFPALETPLTASELVRRVVGNLPLFRKGWGPFRRGLVVGVAHGFVLILPFVFFGPWADTDRAADGGLVTALVVIALYWLWLLTFGLFSFRRGGSATDPLRTRAGWLRFTAGFLVGAVGSAYVAYWLLENWDTVAGLLTGAYG-AVKPYRGDPFAPALDTPLTDSELVRRVVGNLPLFRKGLDPFVRGLLVGLAHGFVLGLPFYFFGPWADTDRAADGALVTALLVIAGYWLGLFAFGLVSFRRGGSATDPLRTRAGWLRFTAGFLVGAVGSAYVAYWLLENWDTVAGLLTGAYG-MVKPYRGNPFAPALDTPLTNSRLVRAVVGNLPLFRKGWGPFRRGLLVGVAHGFVLILPFVFFGPWADTDVAADGGLVTALLVIAGYWLFLWAYGQVSFRGGGSATDPLRTRAGWMRFTAGFLVGAVGSAYVAYFLLRNWDWVAGLLTGAYG-MIKPYRGDPFAPALDTPLTNSGLVRAVVGNLPLFRKGWGPFRRGLLVGLAHGFVLGLPFYFFGPWADTDRAADGALVTALVVIALYWLWLLTFGLFSFRRGGSATDPLHTRAGWLRFTAGFLVGAVGSAYVAYWLLENWDWVAGLLTGAYG,LVKPYNGDPFVGHLSTPISDSGLVKTFIGNLPAYRQGLSPILRGLEVGMAHGYFLIGPWVKLGPLRDSDVANLGGLISGIALILVATACLAAYGLVSFQKGGSSSDPLKTSEGWSQFTAGFFVGAMGSAFVAFFLLENFLVVDGIMTGLFN-LVKPYNGDPFVGHLSTPISDSGLVKTFIGNLPAYRQGLSPILRGLEVGMAHGYFLIGPWVKLGPLRDSDVANLGGLISGIALILVATACLAAYGLVSFQKGGSSSDPLKTSEGWSQFTAGFFVGAMGSAFVAFFLLENFLVVDGIMTGLFN-LVKPYNGDPFVGHLSTPISDSGLVKTFIGNLPAYRQGLSPILRGLEVGMAHGYFLIGPWVKLGPLRDSDVANLGGLISGIALILVATACLAAYGLVSFQKGGSSSDPLKTSEGWSQFTAGFFVGAMGSAFVAFFLLENFLVVDGIMTGLFN-LVKPYNGDPFVGHLSTPISDSGLVKTFIGNLPAYRQGLSPILRGLEVGMAHGYFLIGPWVKLGPLRDSDVANLGGLISGIALILVATACLAAYGLVSFQKGGSSSDPLKTSEGWSQFTAGFFVGAMGSAFVAFFLLENFLVVDGIMTGLFN-LVKPYNGDPFVGHLSTPISDSGLVKTFIGNLPAYRQGLSPILRGLEVGMAHGYFLIGPWVKLGPLRDSDVANLGGLISGIALILVATACLAAYGLVSFQKGGSSSDPLKTSEGWSQFTAGFFVGAMGSAFVAFFLLENFLVVDGIMTGLFN-LVKPYNGDPFVGHLSTPISDSGLVKTFIGNLPAYRQGLSPILRGLEVGMAHGYFLIGPWVKLGPLRDSDVANLGGLISGIALILVATACLAAYGLVSFQKGGSSSDPLKTSEGWSQFTAGFFVGAMGSAFVAFFLLENFLVVDGIMTGLFN-LVKPYNGDPFVGHLSTPISDSGLVKTFIGNLPAYRQGLSPILRGLEVGMAHGYFLIGPWVKLGPLRDSDVANLGGLISGIALILVATACLAAYGLVSFQKGGSSSDPLKTSEGWSQFTAGFFVGAMGSAFVAFFLLENFLVVDGIMTGLFN-LVKPYNGDPFVGHLSTPISDSGLVKTFIGNLPAYRQGLSPILRGLEVGMAHGYFLIGPWVKLGPLRDSDVANLGGLISGIALILVATACLAAYGLVSFQKGGSSSDPLKTSEGWSQFTAGFFVGAMGSAFVAFFLLENFLVVDGIMTGLFN-LVKPYNGDPFVGHLSTPISDSGLVKTFIGNLPAYRQGLSPILRGLEVGMAHGYFLIGPWVKLGPLRDSDVANLGGLISGIALILVATACLAAYGLVSFQKGGSSSDPLKTSEGWSQFTAGFFVGAMGSAFVAFFLLENFLVVDGIMTGLFN-LVKPYNGDPFVGHLSTPISDSGLVKTFIGNLPAYRQGLSPILRGLEVGMAHGYFLIGPWVKLGPLRDSDVANLGGLISGIALILVATACLAAYGLVSFQKGGSSSDPLKTSEGWSQFTAGFFVGAMGSAFVAFFLLENFLVVDGIMTGLFN,GGPPAFAGAW-AAPPAFAGAW-GGPPEFAGAW-GGPPAFAGAW-AAPPAFAGAW-APPPAFAGAW-APPPAFAGAW-GGPPAFAGAW-GGPPAFAGAW-AAPPAFAGAW,GQPPLYGGST-GQPPLYGGST-GQPPLYGGST-GQPPLYGGST-GQPPLYGGST-GQPPLYGGST-GQPPLYGGST-GQPPLYGGST-GQPPLYGGST-GQPPLYGGST
15.0,4,14,B,10,MSLTGQPPIYKGSTGGLGIAAFTEERYAITFTSPEEMEMLSPEGGKMIVQKGKNLIFFQKYSECTSFAENELYPNNIYDYKIYKILPDGTTTLISPEDGVDPEIYHEGREAVNVVPRKKEERPDKSELKGTGKKPDDP-GSLEGQPPVYKGSLGGLGISALTEERWAITFTSPEEMEMLSPEGGKMIVRKGKNLIFFQKYEECMEFAEKELYPRNIFDYKIYKILPDGTTTLVYPEDGVPPEIYHEGREAVNVVPRKKEERPKKEELKGTGKKPDDP-MALTGQPPIYAGSTGGLGIAAFTEERYAITFTSPEEMEMLSPEGGKMTVRKGENLIFFQKYEECTEFAEKELYPRNIYDYKIYKILPDGTTTLISPADGVPPEIYHEGREAVNVVPRKAEERPDEEELKGTGKKPDDP-MALTGQPPVYAGSTGGLGIAALTEERYAITFTSPEEMEMLSPEGGTMTVQKGENLIYFQKYSECTEFAEKELYPNNIYDYKIYKILPDGTTTLISPADGVPPEVYHEGREAVNVVPRKAEERPDEEDLKDTGKKPDDP-MALTGQPPIYKGSKGGLGISALTEERYAITFTSPEEMEMLSPEGGKMIVQKGKNLIFFQKYEECMEFAEKELYPNNIFDYKIYKILPDGTTTLISPEDGVPPEIFHEGREAVNVVPRKIEEFPKIEELKGTGKKPWDP-MSLTGQPPIYEGSLGGLGIEAFTEERYAITFTSPEEMEMLSPEGGTMIVQKGKNLIFFQKYEECTEFAEEELYPNDIYDYEIYKILPDGTTTLISPEDGVPPEEWHEGREAVNVVPRKKEEFPKKEELKGTGKKPWDP-MALTGQPPVYAGSTGGLGVAALTEERYAITFTSPEEMPMLSPEGGEMTVQKGENLIYFQKYEDCMEFAEEQLYPNDIYDYEIYRILPDGTTTLISPADGVPPEEWHEGREAVNVVPRKAEERPDEEELEGTGKKPDDP-MSLTGQPPIYKGSKGGLGISAFTEERYAITFTSPEEMEMLSPEGGKMIVQKGKNLIFFQKYEECMEFAEKELYPNNIYDYKIYKILPDGTTTLISPEDGVSPEIYHEGREAVNVVPRKKEERPKKEELKGTGKKPDDP-MALTGQPPIYEGSTGGLGIAAFTEERYAITFTSPEEMEMLSPEGGTMIVQKGKNLIFFQKYEECTEFAEKELYPNNIFDYKIYKILPDGTTTLISPEDGVPPEIYSEGREAVNVVPRKAEERPDEEELKGTGKKPDDP-MALTGQPPIYKGSKGGLGIAAFTEERYAITFTSPEEMEMLSPEGGKMIVQKGKNLIFFQKYEECMEFAEKELYPRNIFDYKIYKILPDGTTTLISPADGVPPEKWHEGRKAVNVVPRKKEERPKKEELKGTGKKPDDP,TTLTGQPPLYGGSTGGLLSAADTEEKYAITWTSPKEQVFEMPTAGAAVMREGENLVYFARKEQCLALAAQQLRPRKINDYKIYRIFPDGETVLIHPKDGVFPEKVNKGREAVNSVPRSIGQNPNPSQLKFTGKKPYDP-TTLTGQPPLYGGSTGGLLSAADTEEKYAITWTSPKEQVFEMPTAGAAVMREGENLVYFARKEQCLALAAQQLRPRKINDYKIYRIFPDGETVLIHPKDGVFPEKVNKGREAVNSVPRSIGQNPNPSQLKFTGKKPYDP-TTLTGQPPLYGGSTGGLLSAADTEEKYAITWTSPKEQVFEMPTAGAAVMREGENLVYFARKEQCLALAAQQLRPRKINDYKIYRIFPDGETVLIHPKDGVFPEKVNKGREAVNSVPRSIGQNPNPSQLKFTGKKPYDP-TTLTGQPPLYGGSTGGLLSAADTEEKYAITWTSPKEQVFEMPTAGAAVMREGENLVYFARKEQCLALAAQQLRPRKINDYKIYRIFPDGETVLIHPKDGVFPEKVNKGREAVNSVPRSIGQNPNPSQLKFTGKKPYDP-TTLTGQPPLYGGSTGGLLSAADTEEKYAITWTSPKEQVFEMPTAGAAVMREGENLVYFARKEQCLALAAQQLRPRKINDYKIYRIFPDGETVLIHPKDGVFPEKVNKGREAVNSVPRSIGQNPNPSQLKFTGKKPYDP-TTLTGQPPLYGGSTGGLLSAADTEEKYAITWTSPKEQVFEMPTAGAAVMREGENLVYFARKEQCLALAAQQLRPRKINDYKIYRIFPDGETVLIHPKDGVFPEKVNKGREAVNSVPRSIGQNPNPSQLKFTGKKPYDP-TTLTGQPPLYGGSTGGLLSAADTEEKYAITWTSPKEQVFEMPTAGAAVMREGENLVYFARKEQCLALAAQQLRPRKINDYKIYRIFPDGETVLIHPKDGVFPEKVNKGREAVNSVPRSIGQNPNPSQLKFTGKKPYDP-TTLTGQPPLYGGSTGGLLSAADTEEKYAITWTSPKEQVFEMPTAGAAVMREGENLVYFARKEQCLALAAQQLRPRKINDYKIYRIFPDGETVLIHPKDGVFPEKVNKGREAVNSVPRSIGQNPNPSQLKFTGKKPYDP-TTLTGQPPLYGGSTGGLLSAADTEEKYAITWTSPKEQVFEMPTAGAAVMREGENLVYFARKEQCLALAAQQLRPRKINDYKIYRIFPDGETVLIHPKDGVFPEKVNKGREAVNSVPRSIGQNPNPSQLKFTGKKPYDP-TTLTGQPPLYGGSTGGLLSAADTEEKYAITWTSPKEQVFEMPTAGAAVMREGENLVYFARKEQCLALAAQQLRPRKINDYKIYRIFPDGETVLIHPKDGVFPEKVNKGREAVNSVPRSIGQNPNPSQLKFTGKKPYDP,KDGNPFWGGK-KDGNPFWGGK-ADGNPFWGAK-ADGNPFWGGK-KDGNPFWGEK-ADGNPFWGGK-ADGDPFWGGK-KDGNPFWGGK-KDGNPFWGGK-KDGNPFWGGK,YNGDPFVGHL-YNGDPFVGHL-YNGDPFVGHL-YNGDPFVGHL-YNGDPFVGHL-YNGDPFVGHL-YNGDPFVGHL-YNGDPFVGHL-YNGDPFVGHL-YNGDPFVGHL
