contacts,cs,ce,Chain,Length,designed_receptor_seq,native_receptor_seq,designed_binder_seq,native_binder_seq
39.0,108,118,A,10,MNKVTVYDTCIGCAACVYACPTDVLEMVPWDGNEAGQIASAPYEEDCTGCKACEGACPVEPHAIVVEKGEETAESLGLDG-MNKVTVYDTCIGCAACVYACPTDVLEMVPWDGNEAGQIASAPYEEDCIGCKACEGACPVEDHAIVVELAEETAESLGLDD-MNKVTVYDTCIGCAACVYACPTDVLEMVPWDGNEAGQIASAPYEEDCIGCKACEGACPVEDYAIVVELGEETAESLGLEE-MNKVTVYDTCIGCAACVYACPTDVLEMVPWDGNEAGQIASAPYEEDCIGCKACEGACPVEDYAIVVELQEETAESLGLED-MNRVTVYDTCIGCAACVYACPTDVLEMVPWDGNEAGQIASAPYEDLCTGCKACEGACPVEPYAIVVEPGEETVESLGLDG-MNKVTVYDTCIGCSACVNACPTDVLEMVPWDGNEAGQIASAPYEEDCIGCKACEGACPVEPYAIVVELQEETVESLGLDE-MNKVTVYDTCIGCAACVYACPTDVLEMVPWDGNEAGQIASAPYEEDCIGCRACEGACPVEDYAIVVEPGEETVESLGLDG-MHKVTVYDTCIGCAACVYACPTDVLEMVPWDGNEAGQIASAPYEEDCIGCRACEGACPVEDYAIVVEKQEETAESLGLDG-MNKVTVYDTCIGCAACVYACPTDVLEMVPWDGNEAGQIASAPFEEDCIGCRACEGACPVEDHAIVVELGEETAESLGLED-MNKVTIYDTCIGCAACVYACPTDVLEMVPWDGNEAGQIASAPYEEDCIGCKACEGACPVEDYAIVVEKQEETAESLGLEE,AHTVKIYDTCIGCTQCVRACPTDVLEMVPWDGCKAGQIASSPRTEDCVGCKRCETACPTDFLSIRVYLGAETTRSMGLAY-AHTVKIYDTCIGCTQCVRACPTDVLEMVPWDGCKAGQIASSPRTEDCVGCKRCETACPTDFLSIRVYLGAETTRSMGLAY-AHTVKIYDTCIGCTQCVRACPTDVLEMVPWDGCKAGQIASSPRTEDCVGCKRCETACPTDFLSIRVYLGAETTRSMGLAY-AHTVKIYDTCIGCTQCVRACPTDVLEMVPWDGCKAGQIASSPRTEDCVGCKRCETACPTDFLSIRVYLGAETTRSMGLAY-AHTVKIYDTCIGCTQCVRACPTDVLEMVPWDGCKAGQIASSPRTEDCVGCKRCETACPTDFLSIRVYLGAETTRSMGLAY-AHTVKIYDTCIGCTQCVRACPTDVLEMVPWDGCKAGQIASSPRTEDCVGCKRCETACPTDFLSIRVYLGAETTRSMGLAY-AHTVKIYDTCIGCTQCVRACPTDVLEMVPWDGCKAGQIASSPRTEDCVGCKRCETACPTDFLSIRVYLGAETTRSMGLAY-AHTVKIYDTCIGCTQCVRACPTDVLEMVPWDGCKAGQIASSPRTEDCVGCKRCETACPTDFLSIRVYLGAETTRSMGLAY-AHTVKIYDTCIGCTQCVRACPTDVLEMVPWDGCKAGQIASSPRTEDCVGCKRCETACPTDFLSIRVYLGAETTRSMGLAY-AHTVKIYDTCIGCTQCVRACPTDVLEMVPWDGCKAGQIASSPRTEDCVGCKRCETACPTDFLSIRVYLGAETTRSMGLAY,EEAVNFVPEE-EEAVNLVPEE-EEAVNFVPEE-EEAVNLVPEE-EEAVNLVPEP-EEAVNFVPEE-EEAVNFVPEE-EEAVNFVPEP-AEAVNLVPEP-EEAVNFVPEE,REAVNSVPRS-REAVNSVPRS-REAVNSVPRS-REAVNSVPRS-REAVNSVPRS-REAVNSVPRS-REAVNSVPRS-REAVNSVPRS-REAVNSVPRS-REAVNSVPRS
35.0,20,30,B,10,MSLEGQPPIYEGSDGGLGIAAFTEERWAITFTSPEEMEMLSPEGGTMTVQKGKNLIFFQEREECMEFAEEELYPNDIYDFEIYRILPDGTTELIEPEDGVLPEEVHEGREAVNYVPREEEEFPDEEELEGTDLEPWDP-MALTGQPPVYEGSGGGLGIAAFTEERYAITFTSPEEMEMLSPEGGTMTVQKGENLIFFQKRSECMEFAEKELIPRNIYDYKIYKILPNGETTLIEPEDGVLPEKVHEGREAVNYVPRKKSERPKKSELKGTGKKPDDP-SMLTGQPPIYEGSEGGLGIEAFTEECWAITFTSPEEMEMESPEGGTMTVQKGENLIFFQERSECMEFAEEELYPNDIYDFEIYRILPDGTTELVEPEDGVLPEEVHEGREAVNYVPREEEERPDEEELEGTGEEPDDP-MALTGQPPIYEGSGGGLGIAAFTEECWAITFTSPEEMEMLSPEGGTMIVQKGENLIFFQKRSECMEFAEKELYPNNIYDYKIYKILPNGETILIEPEDGVLPEIVHEGREAKNYVPRKKEERPKKEDLKGTGKKPDDP-MALTGQPPIYEGSGGGLGISAFTEECWAITFTSPEEMEMLSPEGGTMTVQKGENLIFFQKRSECMEFAEKELYPRNIFDFKIYKILPDGTTTLVEPADGVLPEIVHEGREAVNYVPRKKEEFPKKEDLKGTGKKPWDP-MALTGQPPIYEGSSGGLGISAFTEECWAITFTSPEEMEMLSPEGGTMTVQKGKNLIFFQKRSQCMEFAEKQLYPNNIYDYKIYKILPDGTTTLIEPADGVLPEKVHEGREAVNYVPRKKEERPKKEDLKGTGKKPDDP-MSLTGQPPIYEGSDGGLGIEAFTEERYAITFTSPEEMEMESPEGGTMTVQKGENLIFFQERSECMEFAEEELYPNDIYDYEIYRILPDGTTELIEPEDGVLPEEVHEGREAENYVPREEEEYPDEEELEGTDAEPWDP-MALTGQPPIYEGSGGGLGIAAFTEERWAITFTSPEEMEMESPEGGTMTVQKGENLIYFQKRSECMEFAEEELYPNDIYDYEIYRILPDGTTTLVEPADGVLPEEVHEGREAVNYVPREEEERPDEEDLEGTGAEPDDP-MALTGQPPIYEGSGGGLGIAAFTEERWAITFTSPEEMEMESPEGGTMTVQKGENLIFFQKRSQCMEFAEKELYPRNIFDFKIYRILPDGTTTLIEPEDGVPPEKVHEGREAKNYVPRKKEERPKKEDLKGTGKKPDDP-MALTGQPPVYAGSGGGLGIAALTEERWAITFTSPEEMEMLSPEGGTMTVQKGENLIFFQKRSQCMEFAEKELYPRNIFDFKIYKILPDGTTTLVEPADGVLPEKVHEGREAVNVVPRKKSERPKKSELKGTGKKPDDP,TTLTGQPPLYGGSTGGLLSAADTEEKYAITWTSPKEQVFEMPTAGAAVMREGENLVYFARKEQCLALAAQQLRPRKINDYKIYRIFPDGETVLIHPKDGVFPEKVNKGREAVNSVPRSIGQNPNPSQLKFTGKKPYDP-TTLTGQPPLYGGSTGGLLSAADTEEKYAITWTSPKEQVFEMPTAGAAVMREGENLVYFARKEQCLALAAQQLRPRKINDYKIYRIFPDGETVLIHPKDGVFPEKVNKGREAVNSVPRSIGQNPNPSQLKFTGKKPYDP-TTLTGQPPLYGGSTGGLLSAADTEEKYAITWTSPKEQVFEMPTAGAAVMREGENLVYFARKEQCLALAAQQLRPRKINDYKIYRIFPDGETVLIHPKDGVFPEKVNKGREAVNSVPRSIGQNPNPSQLKFTGKKPYDP-TTLTGQPPLYGGSTGGLLSAADTEEKYAITWTSPKEQVFEMPTAGAAVMREGENLVYFARKEQCLALAAQQLRPRKINDYKIYRIFPDGETVLIHPKDGVFPEKVNKGREAVNSVPRSIGQNPNPSQLKFTGKKPYDP-TTLTGQPPLYGGSTGGLLSAADTEEKYAITWTSPKEQVFEMPTAGAAVMREGENLVYFARKEQCLALAAQQLRPRKINDYKIYRIFPDGETVLIHPKDGVFPEKVNKGREAVNSVPRSIGQNPNPSQLKFTGKKPYDP-TTLTGQPPLYGGSTGGLLSAADTEEKYAITWTSPKEQVFEMPTAGAAVMREGENLVYFARKEQCLALAAQQLRPRKINDYKIYRIFPDGETVLIHPKDGVFPEKVNKGREAVNSVPRSIGQNPNPSQLKFTGKKPYDP-TTLTGQPPLYGGSTGGLLSAADTEEKYAITWTSPKEQVFEMPTAGAAVMREGENLVYFARKEQCLALAAQQLRPRKINDYKIYRIFPDGETVLIHPKDGVFPEKVNKGREAVNSVPRSIGQNPNPSQLKFTGKKPYDP-TTLTGQPPLYGGSTGGLLSAADTEEKYAITWTSPKEQVFEMPTAGAAVMREGENLVYFARKEQCLALAAQQLRPRKINDYKIYRIFPDGETVLIHPKDGVFPEKVNKGREAVNSVPRSIGQNPNPSQLKFTGKKPYDP-TTLTGQPPLYGGSTGGLLSAADTEEKYAITWTSPKEQVFEMPTAGAAVMREGENLVYFARKEQCLALAAQQLRPRKINDYKIYRIFPDGETVLIHPKDGVFPEKVNKGREAVNSVPRSIGQNPNPSQLKFTGKKPYDP-TTLTGQPPLYGGSTGGLLSAADTEEKYAITWTSPKEQVFEMPTAGAAVMREGENLVYFARKEQCLALAAQQLRPRKINDYKIYRIFPDGETVLIHPKDGVFPEKVNKGREAVNSVPRSIGQNPNPSQLKFTGKKPYDP,EGAEWEAVPF-KNAKTAKVPF-EEAEWEAVPF-KDAKTEAVPY-DGAEWEAVPF-KNAKTAKVPF-EEAEYAAVPF-EDAEYEAVPA-GGAEWEAVPF-PDAETAAVPF,PTDVLEMVPW-PTDVLEMVPW-PTDVLEMVPW-PTDVLEMVPW-PTDVLEMVPW-PTDVLEMVPW-PTDVLEMVPW-PTDVLEMVPW-PTDVLEMVPW-PTDVLEMVPW
