contacts,cs,ce,Chain,Length,designed_receptor_seq,native_receptor_seq,designed_binder_seq,native_binder_seq
10.0,24,34,A,10,MNRVTVYDSCIGCSACVYACPTDVLEMVPWDGNEAGQIASAPFEERCTGCKLCEVACPVEPEAIVVELKERTRESLGLED-MHDVTVYDTCIGCDACVHACPTDVLEMVPWDGNAAGQIASAPNVDDCTGCRACEAACPVDPHAIVVTPQEQTAASLGLSE-MNKVTVYDTCIGCKNCVYACPNNVLEMVPFDGNSAGQIASAPFTDRCTGCKACEDACPVDPYAIVVEPQEKTLESLGLNE-HHHVYVYDNCVGCAACVNACPTDVLEMVPWDGNANGQIANAPNVEDCTGCKACEGACPVEPHAIVVVLEEETAETLGLDD-SHRVTVHDTCIGCDACVKACPNDVLEMVPWDGNSAGQIASAPFEEFCDGCRACEGACPVENSAIEVTLGEKTVASLGLDG-HHHVTVYDTCIGCDACVYACPTDVLEMVPWEGNAAGQIASAPFEELCTGCRACEAACPVEPFAVVVTPGERTAESLGLEE-MNKVTVYPTCIGCAGCVFACPTDVLEMVPWEGNTAGQIASAPYEEDCIGCRACEAACPQDPHAIVVEPAEATAATLGLDD-THKITVEPTCIGCAACVEACPTNVLEMVPWEGNAAGQIASAPFEDRCTGCRACEGACPVEEHAIVIELQEQTAASLGLED-AHRVTVHDTCIGCDRCVRACPTDVLRMVPDDTNVNGRIADAPYEDRCTGCKACEGACPVEPFAIEVELQEKTAASLGLDW-HHHVTVHDTCIGCAACVYACPTDVLEMVPDDGNDEGQTASAPYVEDCTGCRACEAACPVEPHAITVTLGEETAASRGLTD,AHTVKIYDTCIGCTQCVRACPTDVLEMVPWDGCKAGQIASSPRTEDCVGCKRCETACPTDFLSIRVYLGAETTRSMGLAY-AHTVKIYDTCIGCTQCVRACPTDVLEMVPWDGCKAGQIASSPRTEDCVGCKRCETACPTDFLSIRVYLGAETTRSMGLAY-AHTVKIYDTCIGCTQCVRACPTDVLEMVPWDGCKAGQIASSPRTEDCVGCKRCETACPTDFLSIRVYLGAETTRSMGLAY-AHTVKIYDTCIGCTQCVRACPTDVLEMVPWDGCKAGQIASSPRTEDCVGCKRCETACPTDFLSIRVYLGAETTRSMGLAY-AHTVKIYDTCIGCTQCVRACPTDVLEMVPWDGCKAGQIASSPRTEDCVGCKRCETACPTDFLSIRVYLGAETTRSMGLAY-AHTVKIYDTCIGCTQCVRACPTDVLEMVPWDGCKAGQIASSPRTEDCVGCKRCETACPTDFLSIRVYLGAETTRSMGLAY-AHTVKIYDTCIGCTQCVRACPTDVLEMVPWDGCKAGQIASSPRTEDCVGCKRCETACPTDFLSIRVYLGAETTRSMGLAY-AHTVKIYDTCIGCTQCVRACPTDVLEMVPWDGCKAGQIASSPRTEDCVGCKRCETACPTDFLSIRVYLGAETTRSMGLAY-AHTVKIYDTCIGCTQCVRACPTDVLEMVPWDGCKAGQIASSPRTEDCVGCKRCETACPTDFLSIRVYLGAETTRSMGLAY-AHTVKIYDTCIGCTQCVRACPTDVLEMVPWDGCKAGQIASSPRTEDCVGCKRCETACPTDFLSIRVYLGAETTRSMGLAY,YRCLKPGCLH-EVDLTPGVLF-EIDYTPGVRF-WVDLTPGVRD-VRDLTPGVLH-ERDLTPGVRY-AVDLTPGVRF-EEDLTPGVLY-WVDLTPGVRG-PASETPGVRH,SVDQTPGVKY-SVDQTPGVKY-SVDQTPGVKY-SVDQTPGVKY-SVDQTPGVKY-SVDQTPGVKY-SVDQTPGVKY-SVDQTPGVKY-SVDQTPGVKY-SVDQTPGVKY
17.0,51,61,B,10,VKKGSLVKILKPKSAWFKQIGRVFGVDTTPGVARPVFVVFDTPNWRGAVGSKDRNRAAYFRFDEVEEVD-VEKGSRVRILRPTSFWYRQVGTVQGVDLTPGVRRPVLVSFDTPNSKGYPGATDGHRTARYAFDEVEVVD-VKKGSKVKILRPTSYWYNEIGTVRGVNTTPGVKRPVFVTFDKPNSWGYPGSKEYNRFDSFAFDEVEEVG-VKDGDRVRILRPSSYWYNEIGTVLGVDETPGVKRPVLVGFDRPNKWGYPGAKEHHTVDCYAFDEVEVVE-VKKGSRVRILRPSSFWYRQVGTVAGVDDTPGVRRPVAVTFDEPNDHGSPGSTRGSRSDNFAFDEVEEVD-VKKGSLVKILKPSSYWYKQVGEVAGVDLTPGVKTPVLVVFRTPNDWGKPGSTSGNKASVFAFNEVEEVD-VRKGSRVRILRPTSAWYKEVGVVAGVNETPGVATPVNVVFDRPNSWGRPGSTSGNTADNFAFDEVEEVD-VEKGSKVRILRPDSYWYNQIGTVAGVDETPGVKRPVFVTFDTPNNWGEPGSKNGNRVDRYAFDEVEVVE-VDKGSHVRILRPESFWFEEVGTVKGVDRTPGVKTPVSVTFDRPREWGYPGSEGGNRGDNYAFDEVEEID-VKKGDLVRILRPDSFWFNQVGRVAGVDLTPGKKRPVAVVFDTPNDWGLPGDDRGNTGSYYAFDEVEVVE,VQRGSKVKILRPESYWYNEVGTVASVDQTPGVKYPVIVRFDKVNYTGYSGSASGVNTNNFALHEVQEVA-VQRGSKVKILRPESYWYNEVGTVASVDQTPGVKYPVIVRFDKVNYTGYSGSASGVNTNNFALHEVQEVA-VQRGSKVKILRPESYWYNEVGTVASVDQTPGVKYPVIVRFDKVNYTGYSGSASGVNTNNFALHEVQEVA-VQRGSKVKILRPESYWYNEVGTVASVDQTPGVKYPVIVRFDKVNYTGYSGSASGVNTNNFALHEVQEVA-VQRGSKVKILRPESYWYNEVGTVASVDQTPGVKYPVIVRFDKVNYTGYSGSASGVNTNNFALHEVQEVA-VQRGSKVKILRPESYWYNEVGTVASVDQTPGVKYPVIVRFDKVNYTGYSGSASGVNTNNFALHEVQEVA-VQRGSKVKILRPESYWYNEVGTVASVDQTPGVKYPVIVRFDKVNYTGYSGSASGVNTNNFALHEVQEVA-VQRGSKVKILRPESYWYNEVGTVASVDQTPGVKYPVIVRFDKVNYTGYSGSASGVNTNNFALHEVQEVA-VQRGSKVKILRPESYWYNEVGTVASVDQTPGVKYPVIVRFDKVNYTGYSGSASGVNTNNFALHEVQEVA-VQRGSKVKILRPESYWYNEVGTVASVDQTPGVKYPVIVRFDKVNYTGYSGSASGVNTNNFALHEVQEVA,EWVLRMPEDG-VEDLLAPGDY-KRRLLAPGDW-EEEEEEPEDV-ELRGLLPGDG-EYDAAMPGDF-ALLGELPEDR-EEEEEEPWDY-LIRGLLPYDR-EFFGSLPEDG,RCETACPTDF-RCETACPTDF-RCETACPTDF-RCETACPTDF-RCETACPTDF-RCETACPTDF-RCETACPTDF-RCETACPTDF-RCETACPTDF-RCETACPTDF
