contacts,cs,ce,Chain,Length,designed_receptor_seq,native_receptor_seq,designed_binder_seq,native_binder_seq
29.0,30,40,A,10,ATAGLVPCAESAAFAERAKNATNLTADPKSGADAFRRWSSSLCGADGKPVLVDDGDPATAGDKLFPLLLLVYFLGMIGFTARRYAQAVAGSGSFVGDMTNLNLPLLAAQLAQGVFWPVLLAWEFLTGKLFSKAGDVYALPG-AKFGLVPCKDSLAFKERYKTAKNITKDPKSGEQLFKRQSAMLCDAGGEPVLVCDGDVATAGDCVVPAMISFYVIGMVGYTAREYARATAASGNAAGKATNVDVPLAISCLSKGFLFPFLVLRDYLTGKLFKSSNELGTLPG-AQFGLVPCKDSAAFQERAKNAINLTDDPNSGAILFQRLSEALCGEDGLPVLVCDGNPQTSGDCTVPAIVLLYLLGWIGFTAAEYARRIRNSGAADQLLSNIDIPLLVECSLEGWKWPILLAVDWLTGRLFQRRNDVWQLPL-AADGLVPCKESAAFQERKKTAKNLTDDPNSGQKAFERDSKCLCGKGGEPVLVCDGDPATAGHCRIPAGLFIYALGCMGYTAEQYHREVAKSGQFDKLMKNIDLPLALKCMAKGFLWPILALVDYVTGNAEKKADEVSTLPG-AVAGLVPCAESAAFNERYKTAKNLTDDPNSGKKLFENLSKALCGADGKPVLVCDGNPATAGDCTIPAIVFGYFLGMIGYTVFEYVKAIANSGKALEQLKNVDIPLAIKQLAMGVFWPVLFLIDYITGKLYKKSGDIGHAEH-AEQGLIPCAESAAFQQRKATAVNLTADPNSGKKTYERLSGMLCGAGGEPVLVCDGDPAQAGNCLVPLVLLVYLAGMIGYTAWRYADEIADSGSALEKLVVIDWPLLIAQLVKGLFFPIFIAIDYATGRLFRRKGEIRHTPG-AVYGLVPCKDSKAFQEKKKDAKNLTSDPNSGKRLFERQENMLCGEDGEPVLVCDGNPAQAGNCKVPLIVLVYFLGWIGYTALVYSDTIKDSGNYEEKKKNIDWPTAIKCLALGVLWPILLAIDYATGKLYRKKDELGEFPG-AEDGLIPCKDSQAFQDRYKNAKNLTDDPESGKKLYERLSKMLCGEDGKPVLVCNGNPATAGDCLIPLAIFVYVAGSIGYTAWRYYKAIKDSGNAEEKLKNVDWPLLIKCLSLGILWPVLFLIDFLTGKLFKKEDEIEHDPD-AAEGLVPCAESAAFQERAKTAKNLTKDPKSGAILFERQSSALCGADGKPVLVCDGDPKTAGDCSVPLLIFAYLAGMVGWTARKYDDAISKSGAAAEKKTNVDVPLAIACALQGVFFPLLVFIEYRTGKLSAPKDEIESLPD-ATDGLVPCADSAAFQERRKNAANLTTDPNSGAQAFERWSSALCGDDGLPVLVCDGNPATAGDCTVPALVYLYVLGCIGFTAYQYMQATAGSGNFLGNLVNLNIPLLVAQLLQGVFWPALLLVDWLTGQLFKKADEIGRLPG,DVAGLVPCKDSPAFQKRAAAAVNTTADPASGQKRFERYSQALCGEDGLPHLVVDGRLSRAGDFLIPSVLFLYIAGWIGWVGRAYLIAVRNSGEANEKEIIIDVPLAIKCMLTGFAWPLAALKELASGELTAKDNEITVSPR-DVAGLVPCKDSPAFQKRAAAAVNTTADPASGQKRFERYSQALCGEDGLPHLVVDGRLSRAGDFLIPSVLFLYIAGWIGWVGRAYLIAVRNSGEANEKEIIIDVPLAIKCMLTGFAWPLAALKELASGELTAKDNEITVSPR-DVAGLVPCKDSPAFQKRAAAAVNTTADPASGQKRFERYSQALCGEDGLPHLVVDGRLSRAGDFLIPSVLFLYIAGWIGWVGRAYLIAVRNSGEANEKEIIIDVPLAIKCMLTGFAWPLAALKELASGELTAKDNEITVSPR-DVAGLVPCKDSPAFQKRAAAAVNTTADPASGQKRFERYSQALCGEDGLPHLVVDGRLSRAGDFLIPSVLFLYIAGWIGWVGRAYLIAVRNSGEANEKEIIIDVPLAIKCMLTGFAWPLAALKELASGELTAKDNEITVSPR-DVAGLVPCKDSPAFQKRAAAAVNTTADPASGQKRFERYSQALCGEDGLPHLVVDGRLSRAGDFLIPSVLFLYIAGWIGWVGRAYLIAVRNSGEANEKEIIIDVPLAIKCMLTGFAWPLAALKELASGELTAKDNEITVSPR-DVAGLVPCKDSPAFQKRAAAAVNTTADPASGQKRFERYSQALCGEDGLPHLVVDGRLSRAGDFLIPSVLFLYIAGWIGWVGRAYLIAVRNSGEANEKEIIIDVPLAIKCMLTGFAWPLAALKELASGELTAKDNEITVSPR-DVAGLVPCKDSPAFQKRAAAAVNTTADPASGQKRFERYSQALCGEDGLPHLVVDGRLSRAGDFLIPSVLFLYIAGWIGWVGRAYLIAVRNSGEANEKEIIIDVPLAIKCMLTGFAWPLAALKELASGELTAKDNEITVSPR-DVAGLVPCKDSPAFQKRAAAAVNTTADPASGQKRFERYSQALCGEDGLPHLVVDGRLSRAGDFLIPSVLFLYIAGWIGWVGRAYLIAVRNSGEANEKEIIIDVPLAIKCMLTGFAWPLAALKELASGELTAKDNEITVSPR-DVAGLVPCKDSPAFQKRAAAAVNTTADPASGQKRFERYSQALCGEDGLPHLVVDGRLSRAGDFLIPSVLFLYIAGWIGWVGRAYLIAVRNSGEANEKEIIIDVPLAIKCMLTGFAWPLAALKELASGELTAKDNEITVSPR-DVAGLVPCKDSPAFQKRAAAAVNTTADPASGQKRFERYSQALCGEDGLPHLVVDGRLSRAGDFLIPSVLFLYIAGWIGWVGRAYLIAVRNSGEANEKEIIIDVPLAIKCMLTGFAWPLAALKELASGELTAKDNEITVSPR,AQNPGQLYFP-KDNPGELRYP-ANNPGQLFFP-KDDPNRLFFP-KNNPGVIRFP-EKNPGRLAFP-GDNPGNLAVP-EKNPGKIAFP-EKNPGVLFFP-KDNPGQFYFP,RFYPDLLFHP-RFYPDLLFHP-RFYPDLLFHP-RFYPDLLFHP-RFYPDLLFHP-RFYPDLLFHP-RFYPDLLFHP-RFYPDLLFHP-RFYPDLLFHP-RFYPDLLFHP
14.0,93,103,B,10,MADLLRFLSHRPVVALAGTAVLLGILILGNLFYPEQDAVPT-MIDYIRFLQTKPIRLLLSSAALLLIAVVGEVFNPNLTSIPF-EALLQLLLSHRPVVLAATAAVALAVLVLGSLFWPDLDSVPS-SNEELLLLSTKPFVTLLSSAIFLFICLSFSLFFPDINSIPT-MKALLRALQHRPVRLLAGTAILVGVVVLGNLLLPHQTSVPR-SGSLLQFLRWRPVVLLAATAVLLGVTLVGSALFPDQDHFPL-MWKLLKFLCHRPVVLAYTSAIVFLILWLGNKFFPNLVAIPY-MGLLRRLLNHRPFVLLFATAVGLLYLLLGTLWHPNQLTLPR-MKYLLAFLNFRPFVLLRDTLIGLAIVIIGDLFFPNLNAIPY-EALLRLLLNTRPVVTVRDTAIQLGKAVLGAVFFPNQTSLPF,MKHFLTYLSTAPVLAAIWMTITAGILIEFNRFYPDLLFHPL-MKHFLTYLSTAPVLAAIWMTITAGILIEFNRFYPDLLFHPL-MKHFLTYLSTAPVLAAIWMTITAGILIEFNRFYPDLLFHPL-MKHFLTYLSTAPVLAAIWMTITAGILIEFNRFYPDLLFHPL-MKHFLTYLSTAPVLAAIWMTITAGILIEFNRFYPDLLFHPL-MKHFLTYLSTAPVLAAIWMTITAGILIEFNRFYPDLLFHPL-MKHFLTYLSTAPVLAAIWMTITAGILIEFNRFYPDLLFHPL-MKHFLTYLSTAPVLAAIWMTITAGILIEFNRFYPDLLFHPL-MKHFLTYLSTAPVLAAIWMTITAGILIEFNRFYPDLLFHPL-MKHFLTYLSTAPVLAAIWMTITAGILIEFNRFYPDLLFHPL,TLSELFILTP-PELAKTYLLS-DAESLWLLRL-LKKRLVILEE-LSPYSTFLDP-ALPFALVLDR-GLPHLIILPE-PLGELVYLRP-FSPFEWILLP-SATDTFILRQ,ANEKEIIIDV-ANEKEIIIDV-ANEKEIIIDV-ANEKEIIIDV-ANEKEIIIDV-ANEKEIIIDV-ANEKEIIIDV-ANEKEIIIDV-ANEKEIIIDV-ANEKEIIIDV
