contacts,cs,ce,Chain,Length,designed_receptor_seq,native_receptor_seq,designed_binder_seq,native_binder_seq
10.0,24,34,A,10,MHRVTVHDTCIGCAACVRACPTDVLEMVPWDGNAAGQIASAPRVELCTGCRACEAACPVEPHAIVVELGERTAASLGLDD-MHRVTVHDTCIGCAACVHACPTDVLEMVPWDGNAAGQIASAPRVELCTGCRACEAACPVEPHAIVVELGEETAASLGLDD-MHRVTVHDTCIGCAACVYACPTDVLEMVPWDGNAAGQIASAPRVELCTGCRACEAACPVEPHAIVVELGEETAASLGLDE-MHRVTVHDTCIGCAACVRACPTDVLEMVPWDGNAAGQIASAPREELCTGCRACEAACPVEPHAIVVELGPETAASLGLDG-MNRVTVYDTCIGCAACVYACPTDVLEMVPWDGNAAGQIASAPYVEDCTGCRACEAACPVEPHAIVVELGEETAASLGLDE-MHRVTVHDTCIGCAACVHACPTDVLEMVPWDGNAAGQIASAPRVELCTGCRACEAACPVEPHAIVVELGEETAASLGLDD-MHRVTVHDTCIGCAACVRACPTDVLEMVPWDGNVAGQIASAPRVELCTGCRACEAACPVEPHAIVVELGPETAASLGLDE-MHRVTVYDTCIGCAACVYACPTDVLEMVPWDGNAAGQIASAPYEEDCTGCRACEGACPVEPHAIVVELGEETAESLGLDE-MHRVTVHDTCIGCAACVHACPTDVLEMVPWDGNAAGQIASAPRTELCTGCRACEAACPVEPHAIVVEPGPRTAASLGLDG-MHRVTVYDTCIGCAACVYACPTDVLEMVPWDGNAAGQIASAPRVELCTGCRACEGACPVEPHAIVVELGEETAASLGLDG,AHTVKIYDTCIGCTQCVRACPTDVLEMVPWDGCKAGQIASSPRTEDCVGCKRCETACPTDFLSIRVYLGAETTRSMGLAY-AHTVKIYDTCIGCTQCVRACPTDVLEMVPWDGCKAGQIASSPRTEDCVGCKRCETACPTDFLSIRVYLGAETTRSMGLAY-AHTVKIYDTCIGCTQCVRACPTDVLEMVPWDGCKAGQIASSPRTEDCVGCKRCETACPTDFLSIRVYLGAETTRSMGLAY-AHTVKIYDTCIGCTQCVRACPTDVLEMVPWDGCKAGQIASSPRTEDCVGCKRCETACPTDFLSIRVYLGAETTRSMGLAY-AHTVKIYDTCIGCTQCVRACPTDVLEMVPWDGCKAGQIASSPRTEDCVGCKRCETACPTDFLSIRVYLGAETTRSMGLAY-AHTVKIYDTCIGCTQCVRACPTDVLEMVPWDGCKAGQIASSPRTEDCVGCKRCETACPTDFLSIRVYLGAETTRSMGLAY-AHTVKIYDTCIGCTQCVRACPTDVLEMVPWDGCKAGQIASSPRTEDCVGCKRCETACPTDFLSIRVYLGAETTRSMGLAY-AHTVKIYDTCIGCTQCVRACPTDVLEMVPWDGCKAGQIASSPRTEDCVGCKRCETACPTDFLSIRVYLGAETTRSMGLAY-AHTVKIYDTCIGCTQCVRACPTDVLEMVPWDGCKAGQIASSPRTEDCVGCKRCETACPTDFLSIRVYLGAETTRSMGLAY-AHTVKIYDTCIGCTQCVRACPTDVLEMVPWDGCKAGQIASSPRTEDCVGCKRCETACPTDFLSIRVYLGAETTRSMGLAY,PPDLTPGVLF-PPDLTPGVRF-PPDPTPGVLF-PPDLTPGVLF-VVDLTPGVLF-PVDLTPGVLF-PPDLTPGVRF-EPDLTPGVLF-PVDLTPGVLF-PVDLTPGVLF,SVDQTPGVKY-SVDQTPGVKY-SVDQTPGVKY-SVDQTPGVKY-SVDQTPGVKY-SVDQTPGVKY-SVDQTPGVKY-SVDQTPGVKY-SVDQTPGVKY-SVDQTPGVKY
17.0,51,61,B,10,VKKGSRVRILRPDSYWYNQVGTVAGVDTTPGVKRPVLVTFDTPNDWGYPGSKSGNRTDTFAFDEVEEVD-VKKGSRVRILRPDSFWYEQVGTVAGVDETPGVKRPVLVTFDTPNDWGYPGSKSGNRTDTFAFDEVEEVE-VEKGSRVRILRPDSFWYEQVGTVAGVDTTPGVKRPVFVTFDTPNDWGYPGSTSGNRSATYAFDEVEEVE-VKKGSRVRILRPDSFWYEQVGTVAGVDTTPGVKRPVLVTFDTPNDWGYPGSKSGNRTDTFAFDEVEEVE-VKKGSRVRILRPDSFWYRQVGTVAGVDTTPGVKRPVLVTFDTPNDWGYPGSKSGNRTDTFAFDEVEEVE-VRKGSRVRILRPDSFWYEQVGTVAGVDETPGVKRPVLVTFDTPNDWGYPGSEEGNRTDTYAFDEVEEVD-VKKGSRVRILRPDSFWYKQVGTVAGVDTTPGVKRPVLVTFDTPNDWGYPGSKSGNRTDTFAFDEVEEVD-VKKGSRVRILRPDSFWYEQVGTVAGVDTTPGVKRPVLVTFDTPNDWGYPGSKSGNRTDRFAFDEVEEVD-VKKGSRVRILRPDSFWYKEVGTVAGVDTTPGVKRPVLVVFDRPNDWGAPGSKSGNRMDTFAFDEVEEVD-VEKGSRVRILRPDSFWYEQVGTVAGVDTTPGVKRPVLVVFDTPNDWGAPGSKSGNRMDTFAFDEVEVVD,VQRGSKVKILRPESYWYNEVGTVASVDQTPGVKYPVIVRFDKVNYTGYSGSASGVNTNNFALHEVQEVA-VQRGSKVKILRPESYWYNEVGTVASVDQTPGVKYPVIVRFDKVNYTGYSGSASGVNTNNFALHEVQEVA-VQRGSKVKILRPESYWYNEVGTVASVDQTPGVKYPVIVRFDKVNYTGYSGSASGVNTNNFALHEVQEVA-VQRGSKVKILRPESYWYNEVGTVASVDQTPGVKYPVIVRFDKVNYTGYSGSASGVNTNNFALHEVQEVA-VQRGSKVKILRPESYWYNEVGTVASVDQTPGVKYPVIVRFDKVNYTGYSGSASGVNTNNFALHEVQEVA-VQRGSKVKILRPESYWYNEVGTVASVDQTPGVKYPVIVRFDKVNYTGYSGSASGVNTNNFALHEVQEVA-VQRGSKVKILRPESYWYNEVGTVASVDQTPGVKYPVIVRFDKVNYTGYSGSASGVNTNNFALHEVQEVA-VQRGSKVKILRPESYWYNEVGTVASVDQTPGVKYPVIVRFDKVNYTGYSGSASGVNTNNFALHEVQEVA-VQRGSKVKILRPESYWYNEVGTVASVDQTPGVKYPVIVRFDKVNYTGYSGSASGVNTNNFALHEVQEVA-VQRGSKVKILRPESYWYNEVGTVASVDQTPGVKYPVIVRFDKVNYTGYSGSASGVNTNNFALHEVQEVA,PEPGEDPYDG-EEEEEEPEDW-VEEGEDPYDG-EEEGEDPYDY-EEEEEEPEDV-EFEGLDPYDG-EEEEEEPEDW-ERRGLDPRDR-PVPGLDPRDR-EPELEDPEDR,RCETACPTDF-RCETACPTDF-RCETACPTDF-RCETACPTDF-RCETACPTDF-RCETACPTDF-RCETACPTDF-RCETACPTDF-RCETACPTDF-RCETACPTDF
