contacts,cs,ce,Chain,Length,designed_receptor_seq,native_receptor_seq,designed_binder_seq,native_binder_seq
24.0,43,53,A,10,SKKIKKLRFSGKQDYLKTWESIVEEFVAGLKPTLKELVSVSMVVREAVENSIRIGYNENPNGMIKVLVGIENGVLNMSVADKGAGVPDVETLMKPGYSEIPFSATGSNSFTTLKKLADKVDVRSELGKGIIINAKKKIVVK-MRLEIILTEEGREEKIKSWQREVAEFVSLLNPSNTELKEFTTITAEAVLNAIRTQFSEDPKGKIELRMGLSGGTIKLMVKDNGRGIPDIELALQPKVTFPPNIWGNSLRGQIIRLLADSAVFESETETGTIVYITKKIEES-PLKVLSIRRDGRKSHLAEWEENVAEFVAQLRPTWRELEDVTTLVREAVSNAIRYGYDNNPQGNIIGEAVIEDGVLRLLFEDRGRGIPDLDQAMQPDFRISPDKSGKGRGFEIIRRRADSLSVESSQNRGTKIYAQKKIAVK-MNLHWAYRKAAEEKNITEWQKWVAEFISHLEPSWKQLVEVTEITEEAVENSIRYGYANQPEGHIEVNVEIKDGMVKWIDKNRGRGVPYLEHATQPRFNLRPDIAGRATGFEVIRSLADKAVIASEANQGLVIELEKRVHFD-YEVKVEIEENATRENIEGFMYDVASVVAGLNPSEEELVDVALMTEEVVANAIRYGFKEDPSGMVRIDVGIENGTLHLSVSDEGLGIPDLKSACEPNYLYEPASTLGANGFAILQSRADNVDVASELETGIVVSIIKTIIEG-MNLSLSIVLRGELSNIKTFEEMVTAFAASLSPSLEEILDLSTIIREATQNAIIYDYEADPDGKVKIYVGLEDGVVTLAVADKGKGIPDLTKATEPGFSITPVDTRGDGSFDSIRLLADELNITTEINKGVEMSIKKRISKT-SAKERILQQSGKEALYKAFAILVAQFCAEMNPDINAISEVSTMVDEVFSNAVRVGFESDPLGQVTCFLGIESGRLLLTVSDDGKGIPDLQRVTVPDYDFLPEENKSGHGFQVLKQKADLVTVDSTAKVGLSVHAEKHFQDS-MKSVFALEFLAEEKNIKNAQLVVAGHAAGLNPTGEELYKISTVVEEAVNNAIRYGYVEDPEGIVKVFIGNESGVINLRTEDDGIGLPFIDTVTKPKYVTVPQQKGKELGFEIMRRIADSVEVESKVKIGTRISIKKRIERR-AAENLSILKHGTQKNLDTWQKLVAIFAANLAPSGDELTDIMAVTREAVENAIHKGYENRPVGLIKGDIALDNGRVSLKVSDKGMGIPDLSSMTTPGFSALPGHLSSDMGFEILRTRADRVEISSQLDKGTEIFVEKIIQEK-MKAVRVYAVTGKKRHIDLLEKDVASFVSGLKPSMEELREITEIVKEAALNAIRYGYDDDPNGVITIKVIIEKGVLRLFVGDRGKGIPDLEKMKKPDYDFFPELLTHNKGFEIMRRLADEVVVKSVIGEGVVVFIKKRIVDY,MRNEMHLQFSARSENESFARVTVAAFVAQLDPTMDELTEIKTVVSEAVTNAIIHGYNNDPNGIVSISVIIEDGVVHLTVRDEGVGIPDIEEARQPLFTTKPELERSGMGFTIMENFMDEVIVESEVNKGTTVYLKKHIVKS-MRNEMHLQFSARSENESFARVTVAAFVAQLDPTMDELTEIKTVVSEAVTNAIIHGYNNDPNGIVSISVIIEDGVVHLTVRDEGVGIPDIEEARQPLFTTKPELERSGMGFTIMENFMDEVIVESEVNKGTTVYLKKHIVKS-MRNEMHLQFSARSENESFARVTVAAFVAQLDPTMDELTEIKTVVSEAVTNAIIHGYNNDPNGIVSISVIIEDGVVHLTVRDEGVGIPDIEEARQPLFTTKPELERSGMGFTIMENFMDEVIVESEVNKGTTVYLKKHIVKS-MRNEMHLQFSARSENESFARVTVAAFVAQLDPTMDELTEIKTVVSEAVTNAIIHGYNNDPNGIVSISVIIEDGVVHLTVRDEGVGIPDIEEARQPLFTTKPELERSGMGFTIMENFMDEVIVESEVNKGTTVYLKKHIVKS-MRNEMHLQFSARSENESFARVTVAAFVAQLDPTMDELTEIKTVVSEAVTNAIIHGYNNDPNGIVSISVIIEDGVVHLTVRDEGVGIPDIEEARQPLFTTKPELERSGMGFTIMENFMDEVIVESEVNKGTTVYLKKHIVKS-MRNEMHLQFSARSENESFARVTVAAFVAQLDPTMDELTEIKTVVSEAVTNAIIHGYNNDPNGIVSISVIIEDGVVHLTVRDEGVGIPDIEEARQPLFTTKPELERSGMGFTIMENFMDEVIVESEVNKGTTVYLKKHIVKS-MRNEMHLQFSARSENESFARVTVAAFVAQLDPTMDELTEIKTVVSEAVTNAIIHGYNNDPNGIVSISVIIEDGVVHLTVRDEGVGIPDIEEARQPLFTTKPELERSGMGFTIMENFMDEVIVESEVNKGTTVYLKKHIVKS-MRNEMHLQFSARSENESFARVTVAAFVAQLDPTMDELTEIKTVVSEAVTNAIIHGYNNDPNGIVSISVIIEDGVVHLTVRDEGVGIPDIEEARQPLFTTKPELERSGMGFTIMENFMDEVIVESEVNKGTTVYLKKHIVKS-MRNEMHLQFSARSENESFARVTVAAFVAQLDPTMDELTEIKTVVSEAVTNAIIHGYNNDPNGIVSISVIIEDGVVHLTVRDEGVGIPDIEEARQPLFTTKPELERSGMGFTIMENFMDEVIVESEVNKGTTVYLKKHIVKS-MRNEMHLQFSARSENESFARVTVAAFVAQLDPTMDELTEIKTVVSEAVTNAIIHGYNNDPNGIVSISVIIEDGVVHLTVRDEGVGIPDIEEARQPLFTTKPELERSGMGFTIMENFMDEVIVESEVNKGTTVYLKKHIVKS,GRKELVHALL-SRRSYVRSII-SAKNAVIHAI-TWEEIVRTIL-DNDMIVGTIR-NMVDYVREII-GSYEFVRQIV-DINKIVERRL-ENEEMVRNAL-SQGEVVGQML,SPEDVVLAQE-SPEDVVLAQE-SPEDVVLAQE-SPEDVVLAQE-SPEDVVLAQE-SPEDVVLAQE-SPEDVVLAQE-SPEDVVLAQE-SPEDVVLAQE-SPEDVVLAQE
28.0,24,34,B,10,GSSSADDAVQFAMGRRIIRAAAELRTRLGRRPTYHEVAAHLGQSPHKVAHAIAFVEK-GGHMEHKEFMKDVGGQIIDAYWTLHRELGRGPRIAEIAARLGMSPSQVRLAMSFETR-GGDPKEVKRTSALGMRITEAIWHLKQQLGHAPTFEEVARHLGVTPQRVIGAWFDVRG-QGSSQVYESERALGVRIRRQTEILKRELGREPTLQEVADGLGVTPDRVYSSIRSLMR-MAKAAANTNWKSLGYLIADAEESLRRQLGRDPTVHEIAAALGVSPAQVVNAAKYQAI-MGRKTERQAAERIGLRILDETEVLRRQLGHTPTIREIADRLGMSPQKVVGALLYVQV-MARFSRKLLDKKLGRRILSAKYELQEELGRQPTITQIAEHLGMSPRNVGYALEHLRA-GSKDSKHFANLQTGTSILISYDDLRRELGRDPTNWEIARRLGMSANEVCKALVYVYC-MSNRSTATFQRDRGEAIVAACDELRRTLGREPTLREIAVHLGMTPQAVVAAIEHVSG-NGQDQVRRHMTTLGGAIRAAVEDLERELGREPTQAEVAAKLDISPTKVCEALSYYNL,DGTVKVSRSLKEMGNKIRKAKDELSKTRGRAPTVTEIADHLGISPEDVVLAQEAVRL-DGTVKVSRSLKEMGNKIRKAKDELSKTRGRAPTVTEIADHLGISPEDVVLAQEAVRL-DGTVKVSRSLKEMGNKIRKAKDELSKTRGRAPTVTEIADHLGISPEDVVLAQEAVRL-DGTVKVSRSLKEMGNKIRKAKDELSKTRGRAPTVTEIADHLGISPEDVVLAQEAVRL-DGTVKVSRSLKEMGNKIRKAKDELSKTRGRAPTVTEIADHLGISPEDVVLAQEAVRL-DGTVKVSRSLKEMGNKIRKAKDELSKTRGRAPTVTEIADHLGISPEDVVLAQEAVRL-DGTVKVSRSLKEMGNKIRKAKDELSKTRGRAPTVTEIADHLGISPEDVVLAQEAVRL-DGTVKVSRSLKEMGNKIRKAKDELSKTRGRAPTVTEIADHLGISPEDVVLAQEAVRL-DGTVKVSRSLKEMGNKIRKAKDELSKTRGRAPTVTEIADHLGISPEDVVLAQEAVRL-DGTVKVSRSLKEMGNKIRKAKDELSKTRGRAPTVTEIADHLGISPEDVVLAQEAVRL,AAAAATHPTL-DAKAGENPWL-TYNAGARPVV-RGQAGNNPTL-AGSAGKDPYC-AVRAGRDPEV-YQALGMNPRV-ANQAGLNPFV-QGRAGRNPRL-FNNAGDNPRL,AFVAQLDPTM-AFVAQLDPTM-AFVAQLDPTM-AFVAQLDPTM-AFVAQLDPTM-AFVAQLDPTM-AFVAQLDPTM-AFVAQLDPTM-AFVAQLDPTM-AFVAQLDPTM
