contacts,cs,ce,Chain,Length,designed_receptor_seq,native_receptor_seq,designed_binder_seq,native_binder_seq
23.0,78,88,A,10,HYRLPCTIRKIYEARDYRRRLYIGDINVKLVTITGVVMDIREMHCFWKYLLDDRTFCPIEVKQRKKRKVELIPVNTWIQVSGHVEQFENVISLLGDSISPVTDIRAVREHRDKVQLCLTVSKL-SATVPVSIAMIAEAESRKSKLFIGNIEVARVTFCGVITEASETEKYILLDVNDETSEPIQVTSWRGSGQKLLPKNTFCTISGSVKVFKDKVTIIGSDIVPVDDLAMTKNHVQLVTLSIERLAK-YREIKVSVNQIRQTVGINNDLYYGDVKISKVRLSGRVVEAKDMKEYFKYLVDDLTDRPIKVVVWKKFWRPLIPVNTYVIISGFVRVFKGAIELTADTILPVDDMSLVLHHIEEVLESLRILRT-KKVIPLTVANIYNAESRFGKLFIGTVEVTKVKICGRIIKAVKKQRSTVLLIDDGTAAPIEVIAWIKQKGNEIPINVWVVVNGRVKIFLDNIILVANEISPVNNIQDVKDHITQVVMAKVVLNK-HRTVSLWVSQIRTAHKRNAKLYIADVKVEKVVLVGIVKKVQKQKNHACYEVDDATDKPIQVTRLIQENEPLIPVNTIVKVAGKVVLFKDKVNLKADTIQPVNNPTVANRHVLIVSSSEIFRQK-KPVFPATISMLRTVHKYLRKLYYGTHEIRRIVVVGRVISVKQCRYYIEYTISDGTAKPILVVQKCFDGLPPIPEDTLVQVTGYVRSYNSEIVLIAEMIAPITNLAVYAAHRELVYLAEIARSR-MKTIPMSIGMLRTAKELDGKIYYGDIELTNVTICGTIVTAKKEKAYLSYTIDDDTDYPIKVKKWTEENGNLVVINTLVLVKGYVQKYNNTIQLIADDIKPIDDEQQAIKHIQSQIAAQTILHG-GPELRMTVGQVFTTDDWNNKFYYQGVHVSYVTICGKVIATRESETFFSYLLDDYSADPIEVRQWKQDGKHLILVKTEVNVSGYLRKYQGTLHLVSKEITPVQDLDLLHKHKLDTLKSILVLNN-SPNIPVSIRSIFEAYTINNSLFIGNINVDLVTIVGRIVNAKADKNFMEYDVDDYTAYPILVKKWLHLSIPLIPEHTFVVIEGYVQIFRNRKEFVAHSVIPINNLNLIRKHSFLVEKSFTALSE-QRVVPLTINKVVQARRRNRKTYIGKVEVKEITVTGCVRQAEEGKKCNRYMLDDYTDNPIMVSTWKWKQNPLIPTNTLVTVSGYIREIDGKKELKANTIKPVNDVSKLLLHNINTLRCLNVLQN,QHIVPCTISQLLSATLVDEVFRIGNVEISQVTIVGIIRHAEKAPTNIVYKIDDMTAAPMDVRQWVDTDNTVVPPETYVKVAGHLRSFQNKKSLVAFKIMPLEDMNEFTTHILEVINAHMVLSK-QHIVPCTISQLLSATLVDEVFRIGNVEISQVTIVGIIRHAEKAPTNIVYKIDDMTAAPMDVRQWVDTDNTVVPPETYVKVAGHLRSFQNKKSLVAFKIMPLEDMNEFTTHILEVINAHMVLSK-QHIVPCTISQLLSATLVDEVFRIGNVEISQVTIVGIIRHAEKAPTNIVYKIDDMTAAPMDVRQWVDTDNTVVPPETYVKVAGHLRSFQNKKSLVAFKIMPLEDMNEFTTHILEVINAHMVLSK-QHIVPCTISQLLSATLVDEVFRIGNVEISQVTIVGIIRHAEKAPTNIVYKIDDMTAAPMDVRQWVDTDNTVVPPETYVKVAGHLRSFQNKKSLVAFKIMPLEDMNEFTTHILEVINAHMVLSK-QHIVPCTISQLLSATLVDEVFRIGNVEISQVTIVGIIRHAEKAPTNIVYKIDDMTAAPMDVRQWVDTDNTVVPPETYVKVAGHLRSFQNKKSLVAFKIMPLEDMNEFTTHILEVINAHMVLSK-QHIVPCTISQLLSATLVDEVFRIGNVEISQVTIVGIIRHAEKAPTNIVYKIDDMTAAPMDVRQWVDTDNTVVPPETYVKVAGHLRSFQNKKSLVAFKIMPLEDMNEFTTHILEVINAHMVLSK-QHIVPCTISQLLSATLVDEVFRIGNVEISQVTIVGIIRHAEKAPTNIVYKIDDMTAAPMDVRQWVDTDNTVVPPETYVKVAGHLRSFQNKKSLVAFKIMPLEDMNEFTTHILEVINAHMVLSK-QHIVPCTISQLLSATLVDEVFRIGNVEISQVTIVGIIRHAEKAPTNIVYKIDDMTAAPMDVRQWVDTDNTVVPPETYVKVAGHLRSFQNKKSLVAFKIMPLEDMNEFTTHILEVINAHMVLSK-QHIVPCTISQLLSATLVDEVFRIGNVEISQVTIVGIIRHAEKAPTNIVYKIDDMTAAPMDVRQWVDTDNTVVPPETYVKVAGHLRSFQNKKSLVAFKIMPLEDMNEFTTHILEVINAHMVLSK-QHIVPCTISQLLSATLVDEVFRIGNVEISQVTIVGIIRHAEKAPTNIVYKIDDMTAAPMDVRQWVDTDNTVVPPETYVKVAGHLRSFQNKKSLVAFKIMPLEDMNEFTTHILEVINAHMVLSK,KVEITDSTTG-TKIETNHVSD-RELKMDYKTG-LVKTENYKKG-NEQYTDDISI-TVLLMNYLGD-QLILKDQMGC-RYAIRNFRDT-ELNLMNYIGE-NILVCTCLVC,SVNIADFQEN-SVNIADFQEN-SVNIADFQEN-SVNIADFQEN-SVNIADFQEN-SVNIADFQEN-SVNIADFQEN-SVNIADFQEN-SVNIADFQEN-SVNIADFQEN
22.0,111,121,B,10,KFVYRRISDIRSMRLGMTGSPDRVKLVATVEDVNPRGHIYSACPKPNCRIRMIEADSGVYLCEKCKRTSRRIRWNYALRIRIADWSDSMWVDAFEESSEIILGVTSEEIGNLRYCNHESYMSIVGGAVFKRFEFVITTRNDEFMRNVIQDVRIVDWDEEFDRVKLDIARKLLT-GIPMKFIREIVDEKLGEFGEEDVVEFVGTVVNLDRSGALYTSCTAEECYEKAEDMGDGYFNCVRDHKKVDVLRWCIGLEAKIADFTANLWCVFFQESAERVLGCRAKDYGMMVFDGPHEALRKVDGSVFKQYVFKVRTKSELEMKHTVLEVEEIDVEEYGALLCETIEYLEAD-GSPWRTVSEVFEEGLGAKGRPNYFTLIATVVLLRKEGALFMACSEPGCNQKMEAIETGTYYCKKCKTRSEKLRFVYNLKVLIGDHSSQMWCVAFEEAAETILGVTSKNLGAMQLEDMAAFEQTFAGAVFKAFKFRVKSKFLPGRDYTILKVEEVNYKMHEQKLKDEIYELIKE-SMRWVTILQAYCEKYGQGDSKDFIELTATVVELSKELVSYLACPNPGCNARVTNTPDGKYYCERCRRSYTSTRYKLLLRATVADFSASMQAIMFEEAAEVVLGMKAEELHLLKETFQEEYNAVFDYAVFRTFRFGISIKEREDRAMVVNSVDAVNLDDLGERITTCINAYVRD-RVPMCTISDVNERELGSGNEPDFVELDASVRRLWKEGCMYTSCANSGCRKKILENKDGTYHCRHCNKFSKETKWTIALKAQIEDFAANLNVTMFDRGSEIVLGISAEELGNLANQDSAKFAEVFDGSTFKRFSFSLATKFNSWNRYTVKTVKKINWKEQGAAIGAAIVENFRD-SFPMALISKVVSEKLGQTGSKDTVSLWATVTHLHHRGVLYKGCSTEGCKAKMKKVPEGIYVCTKKNMTVTYQKWITSLFVTISDYRDHLGAVAFDTAAEQILGIDAKRYGSLYEEEHKEAKAVIDNSINQCFEFRINSKYNDNLVNTIMEVYPVDENKLDEFLAGMIEELKNS-ETKYRWISEIKTDGLGEGKQSDICVFSGMVKQIDDWGVIYTACPESNCTAKMEHVTDGVYLCNTCNKIFDFQKYRLRMKMMVSDAIDSLWVTAFKEGGEKILGISAEELGNIFNNGREEYLKIFNNAIFNWFVFRIQSKEYTKLEHTVLDVEDIDFVKHGERLKKEIQQLYKD-SENYKTIKEIKYEKLGTQDDKDFVVFDATVINIDVSQSIFISCDEEGCTNKAINKPNGQYFCPKCQKETDSISYRFSLNTVIADSEESLWCMAFDEAATTILGLKADVIGNRFKEDDSKYRAIFAGSVFKTFTFKVSVKKDNNLKNVINYVEKVNEATRFVRLNAEIERYRNE-GSMWRTIPEIREDGLGTMGVPDRVVLYATVTFIHKEFMLYSGCPEPGCTRKAVDKDDGTFYCERCKKDCSQKTYRMLCTVQLSDMSGFLECTAFDRAASVILGISAEELGSLYNTSFDEYEDIFTNATFTTYQFTISTKKDNNIKNIVTSVTKVDMSDEGERLSSKIIVFQSI-GSMNKLIAEIKNEGYGTGETPDWLSMVGTVVSLDATTVLYMACAKPNCNAKVQPLEDGTYECGKCNKKYTEIRWVFTLRVRVGDHTKQIQMTSFDKAAQEILGCSADELGQMYESDREAYQEIIDNAVFKQYVFSVSTKIDDDLKYTVTDVKPVDYNKLTNELKDSINRFTKE,NTNWKTLYEVKSENLGQGDKPDYFSSVATVVYLRKENCMYQACPTQDCNKKVIDQQNGLYRCEKCDTEFPNFKYRMILSVNIADFQENQWVTCFQESAEAILGQNAAYLGELKDKNEQAFEEVFQNANFRSFIFRVRVKVETYIKATVMDVKPVDYREYGRRLVMSIRRSALM-NTNWKTLYEVKSENLGQGDKPDYFSSVATVVYLRKENCMYQACPTQDCNKKVIDQQNGLYRCEKCDTEFPNFKYRMILSVNIADFQENQWVTCFQESAEAILGQNAAYLGELKDKNEQAFEEVFQNANFRSFIFRVRVKVETYIKATVMDVKPVDYREYGRRLVMSIRRSALM-NTNWKTLYEVKSENLGQGDKPDYFSSVATVVYLRKENCMYQACPTQDCNKKVIDQQNGLYRCEKCDTEFPNFKYRMILSVNIADFQENQWVTCFQESAEAILGQNAAYLGELKDKNEQAFEEVFQNANFRSFIFRVRVKVETYIKATVMDVKPVDYREYGRRLVMSIRRSALM-NTNWKTLYEVKSENLGQGDKPDYFSSVATVVYLRKENCMYQACPTQDCNKKVIDQQNGLYRCEKCDTEFPNFKYRMILSVNIADFQENQWVTCFQESAEAILGQNAAYLGELKDKNEQAFEEVFQNANFRSFIFRVRVKVETYIKATVMDVKPVDYREYGRRLVMSIRRSALM-NTNWKTLYEVKSENLGQGDKPDYFSSVATVVYLRKENCMYQACPTQDCNKKVIDQQNGLYRCEKCDTEFPNFKYRMILSVNIADFQENQWVTCFQESAEAILGQNAAYLGELKDKNEQAFEEVFQNANFRSFIFRVRVKVETYIKATVMDVKPVDYREYGRRLVMSIRRSALM-NTNWKTLYEVKSENLGQGDKPDYFSSVATVVYLRKENCMYQACPTQDCNKKVIDQQNGLYRCEKCDTEFPNFKYRMILSVNIADFQENQWVTCFQESAEAILGQNAAYLGELKDKNEQAFEEVFQNANFRSFIFRVRVKVETYIKATVMDVKPVDYREYGRRLVMSIRRSALM-NTNWKTLYEVKSENLGQGDKPDYFSSVATVVYLRKENCMYQACPTQDCNKKVIDQQNGLYRCEKCDTEFPNFKYRMILSVNIADFQENQWVTCFQESAEAILGQNAAYLGELKDKNEQAFEEVFQNANFRSFIFRVRVKVETYIKATVMDVKPVDYREYGRRLVMSIRRSALM-NTNWKTLYEVKSENLGQGDKPDYFSSVATVVYLRKENCMYQACPTQDCNKKVIDQQNGLYRCEKCDTEFPNFKYRMILSVNIADFQENQWVTCFQESAEAILGQNAAYLGELKDKNEQAFEEVFQNANFRSFIFRVRVKVETYIKATVMDVKPVDYREYGRRLVMSIRRSALM-NTNWKTLYEVKSENLGQGDKPDYFSSVATVVYLRKENCMYQACPTQDCNKKVIDQQNGLYRCEKCDTEFPNFKYRMILSVNIADFQENQWVTCFQESAEAILGQNAAYLGELKDKNEQAFEEVFQNANFRSFIFRVRVKVETYIKATVMDVKPVDYREYGRRLVMSIRRSALM-NTNWKTLYEVKSENLGQGDKPDYFSSVATVVYLRKENCMYQACPTQDCNKKVIDQQNGLYRCEKCDTEFPNFKYRMILSVNIADFQENQWVTCFQESAEAILGQNAAYLGELKDKNEQAFEEVFQNANFRSFIFRVRVKVETYIKATVMDVKPVDYREYGRRLVMSIRRSALM,DMIVLSLITN-VEFEYSIRTN-AEVVLKLLRN-TLLIWSLLES-LEQLSSLLKS-LSITFSYLTR-AEFIYALMKD-TEALLRFIRR-WSLIYSLICN-LWERYQQLIG,LEVINAHMVL-LEVINAHMVL-LEVINAHMVL-LEVINAHMVL-LEVINAHMVL-LEVINAHMVL-LEVINAHMVL-LEVINAHMVL-LEVINAHMVL-LEVINAHMVL
