contacts,cs,ce,Chain,Length,designed_receptor_seq,native_receptor_seq,designed_binder_seq,native_binder_seq
42.0,39,49,A,10,GSSGSPSDFRLVASVINEDTLPDTHRTIRLIPPDADTPLGFSIRGGTRTVQTPEGLEERPAIFVSSLTPGGLAERTGLIHVDDEVLEVNGVSVRGLSLDEVRRLMEENRADLVITVRPAVEED-GSSGSPSNFRLVASVVNEDVLPDSFREIVLIPPDANTPLGFKIRGGTRTVMTPKGLEERPAIFVSELTPGGLAEKTGLIHVNDEVLEVNGVSVRGLSLDEVRKLMEENRLNLRILVRPAVKEE-GSSGSPSNFRLVASVVNSETLPDTHRQIVLIPPDENTPLGFSIRGGTRTVQTKKGLEKRPAIFVSSLEPGGLAEKTGLIHVNDEVLEVNGVSVRGLSLDEVKKLMEENKLNLTITVRPAVKKE-GSSGSPSEFRLVASVINEDVLPDTHRQIRLIPPDENTPLGFSIRGGTRTVMTPKGLEERPGIFVSSLTPGGLAERTGLIHVDDEVLEVNGVSVRGLSLDEVRELMEKNRLDLVITVRPAVKAK-GSSGSSGSFRLVASVINSDTLPDTFRTIRLIPPDSSTPLGFSIREGTRTVQTKKGLEKRPGIFVSSLTPGGLAEKTGLIHVNDEVLEVNGVSVRGLSLDEVKKLMEENKEDLIITVRPAVKEE-GSSGSSGSFRLVASVVNEDVLPDSFRQIVLIPPDENTPLGFDIRGGYVTRQTPKGLEKLPGIFVSSLTPGGLAEKTGLIHVNDQVLEVNGVSVRGLSLDEVRELMKKNHLKLVITVKPAVKEK-GSSGSSGSFRLVASVINEDILPDTHRTIRLIPPDANTPLGFSIRGGTRTVQTKKGLEKRPAIFVSSLTPGGLAERTGLIHVDDEVLEVNGVSVRGLSLDEVRKLMEENRLDLVITVRPAVEEE-GSSGSSGSFRLVASVVNEETLPDTHRQIVLIPPDENTPLGFSIRGGTRTVQTKKGLEERPAIFVSSLEPGGLAERTGLIHVDDEVLEVNGVSVRGLSLDEVRQLMEENRAHLVITVRPAVKEE-GSSGSSGSFRLVASVINEDTLPDTHRTIRLIPPDSSSPLGFSIRGGTRTVQTKKGLEKRPAIFVSSLEPGGLAEKTGLIHVDDEVLEVNGVSVRGLSLDEVRRLMEENREDLVITVRPAVEEE-GSSGSPSNFRLVASVINEETLPDTFRTIRLIPPDSSTPLGFSIRGGVRTVKTKKGLEKRPAIFVSSLEPGGLAERTGLIHVNDEVLEVNGVSVRGLSLDEVKKLMEENREDLVITVRPAVKEE,IVISMPQDFRPVSSIIDVDILPETHRRVRLCKYGTEKPLGFYIRDGSSVRVTPHGLEKVPGIFISRLVPGGLAQSTGLLAVNDEVLEVNGIEVSGKSLDQVTDMMIANSRNLIITVRPANQRN-IVISMPQDFRPVSSIIDVDILPETHRRVRLCKYGTEKPLGFYIRDGSSVRVTPHGLEKVPGIFISRLVPGGLAQSTGLLAVNDEVLEVNGIEVSGKSLDQVTDMMIANSRNLIITVRPANQRN-IVISMPQDFRPVSSIIDVDILPETHRRVRLCKYGTEKPLGFYIRDGSSVRVTPHGLEKVPGIFISRLVPGGLAQSTGLLAVNDEVLEVNGIEVSGKSLDQVTDMMIANSRNLIITVRPANQRN-IVISMPQDFRPVSSIIDVDILPETHRRVRLCKYGTEKPLGFYIRDGSSVRVTPHGLEKVPGIFISRLVPGGLAQSTGLLAVNDEVLEVNGIEVSGKSLDQVTDMMIANSRNLIITVRPANQRN-IVISMPQDFRPVSSIIDVDILPETHRRVRLCKYGTEKPLGFYIRDGSSVRVTPHGLEKVPGIFISRLVPGGLAQSTGLLAVNDEVLEVNGIEVSGKSLDQVTDMMIANSRNLIITVRPANQRN-IVISMPQDFRPVSSIIDVDILPETHRRVRLCKYGTEKPLGFYIRDGSSVRVTPHGLEKVPGIFISRLVPGGLAQSTGLLAVNDEVLEVNGIEVSGKSLDQVTDMMIANSRNLIITVRPANQRN-IVISMPQDFRPVSSIIDVDILPETHRRVRLCKYGTEKPLGFYIRDGSSVRVTPHGLEKVPGIFISRLVPGGLAQSTGLLAVNDEVLEVNGIEVSGKSLDQVTDMMIANSRNLIITVRPANQRN-IVISMPQDFRPVSSIIDVDILPETHRRVRLCKYGTEKPLGFYIRDGSSVRVTPHGLEKVPGIFISRLVPGGLAQSTGLLAVNDEVLEVNGIEVSGKSLDQVTDMMIANSRNLIITVRPANQRN-IVISMPQDFRPVSSIIDVDILPETHRRVRLCKYGTEKPLGFYIRDGSSVRVTPHGLEKVPGIFISRLVPGGLAQSTGLLAVNDEVLEVNGIEVSGKSLDQVTDMMIANSRNLIITVRPANQRN-IVISMPQDFRPVSSIIDVDILPETHRRVRLCKYGTEKPLGFYIRDGSSVRVTPHGLEKVPGIFISRLVPGGLAQSTGLLAVNDEVLEVNGIEVSGKSLDQVTDMMIANSRNLIITVRPANQRN,EFVLAEVVVG-EFVLAEVEVG-VFLLAEVDVD-VFLLAEVVVG-EFVLVEAEVG-VFLLAEAEVG-EFVLAEVEVE-EFVLAEVEVG-EFVLAEVVVG-EFVLVEVEVE,VFDNYAVTVM-VFDNYAVTVM-VFDNYAVTVM-VFDNYAVTVM-VFDNYAVTVM-VFDNYAVTVM-VFDNYAVTVM-VFDNYAVTVM-VFDNYAVTVM-VFDNYAVTVM
39.0,5,15,B,10,GPLGSKTIKIVVVGDGAVGKTCLLISYTTNQFPEEYVPTVFENYAVTVSIGGRPHKLGLWDTAGQEDYDRLRPLSYPDTDVFLVCFSVVSPTSFENVREKWVPEITHHCPNTPFLLVGTKIDLRDDPETLEKLASKNQRPITPEEAQQLAKELGAVKYVECSALTQRGLDEVFQTAIQAALEPPEPREKRRCQL-GPLGSMEIKIVVVGDGAVGKTCLLISYTTNQFPEEYVPTVFENYAVTVSIGGRPHTIGLWDTAGQEDYDRLRPLSYPQTDVFLVCFSVVSPASFENVREKWVPEITHHCPNTPFLLVGTKIDLRDDPETLEKLASQNQRPITPEEAQELAKELGAVKYVECSALTQRGLDEVFETAIQAALLPPEPREKRRCNL-GPLGSMEIKIVVVGDGAVGKTCLLISYTTNQFPEEYVPTVFENYAVTVSIGGRPHKLGLWDTAGQEDYDRLRPLSYPQTDVFLVCFSVVSPASFENVREKWVPEITHHCPNTPFLLVGTQIDLREDPETLEKLASKKQRPITPEEAQELAKELGAVKYVECSALTQRGLDEVFETAIQAALLPPEPREKRRCQL-GPGGSMEIKIVVVGDGAVGKTCLLISYTTNQFPEEYVPTVFENYAVTVEIGGKPHKLGLWDTAGQEDYDRLRPLSYPQTDVFLVCFSVVSPASFENVREKWVPEITHHCPNTPFLLVGTQIDLREDPETLEKLASKKQRPITPEEAQELAKELGAVKYVECSALTQKGLDEVFQTAIQAALEPPEPREKRRCNL-GPGGSMEIKIVVVGDGAVGKTCLLISYTTNEFPEEYVPTVFENYAVTVSIGGRPHKLGLWDTAGQEDYDRLRPLSYPQTDVFLVCFSVVSPTSFENVREKWVPEITHHCPNTPFLLVGTKIDLREDPETLEKLASKNQRPITPEEAQELAKELGAVKYVECSALTQRGLKEVFDTAIQAALLPPEPREKRRCNL-GPLGSKTIKIVVVGDGAVGKTCLLISYTTNEFPEEYVPTVFENYAVTVEIGGKPHKLGLWDTAGQEDYDRLRPLSYPDTDVFLVCFSVVSPSSFENVSKKWVPEITHHCPNTPFLLVGTKIDLREDPETLEKLASKNQRPITPEEAQELAKKLGAVKYVECSALTQKGLKEVFDTAIQAALDPPEPREKRRCNL-GPGGMQTIKIVVVGDGAVGKTCLLISYTTNQFPEEYVPTVFENYAVTVSIGGRPHKLGLWDTAGQEEYDRLRPLSYPDTDVFLVCFSVVSPASFENVREKWVPEITHHCPNTPFLLVGTKIDLREDPETLEKLASQNQRPITPEEAQELAKELGAVKYVECSALTQRGLDEVFETAIQAALLPPEPREKRRCNL-GPLGSMEIKIVVVGDGAVGKTCLLISYTTNQFPEEYVPTVFENYAVTVSIGGRPHKLGLWDTAGQEDYDRLRPLSYPQTDVFLVCFSVVSPASFENVREKWVPEITHHCPNTPFLLVGTQIDLREDPETLEELASRNQRPITPEEAQELAKELGAVKYVECSALTQRGLDEVFQTAIQAALLPPEPREKRRCQL-GPLGSKTIKIVVVGDGAVGKTCLLISYTTNEFPEEYVPTVFENYAVTVEIGGEPHKLGLWDTAGQEDYDRLRPLSYPQTDVFLVCFSVVSPTSFENVSKKWVPEITHHCPNTPFLLVGTKIDLREDPETLEKLASKNQRPITPEEAQEMAKKLGAVKYVECSALTQKGLDEVFETAIKAALEPPEPAEKRRCNL-GPLGSETIKIVVVGDGAVGKTCLLISYTTNQFPEEYVPTVFENYAVTVQIGGRPHTLGLWDTAGQEDYDRLRPLSYPQTDVFLVCFSVVSPSSFENVREKWVPEITHHCPNTPFLLVGTKIDLREDPETLEKLASQNQRPITPEEAQELAKELGAVKYVECSALTQRGLDEVFQTAIQAALEPPEPREKRRCQL,GAMGIQTIKCVVVGDGAVGKTCLLISYTTNKFPSEYVPTVFDNYAVTVMIGGEPYTLGLFDTAGLEDYDRLRPLSYPQTDVFLVCFSVVSPSSFENVKEKWVPEITHHCPKTPFLLVGTQIDLRDDPSTIEKLAKNKQKPITPETAEKLARDLKAVKYVECSALTQKGLKNVFDEAILAALEPPEPKKSRRCVL-GAMGIQTIKCVVVGDGAVGKTCLLISYTTNKFPSEYVPTVFDNYAVTVMIGGEPYTLGLFDTAGLEDYDRLRPLSYPQTDVFLVCFSVVSPSSFENVKEKWVPEITHHCPKTPFLLVGTQIDLRDDPSTIEKLAKNKQKPITPETAEKLARDLKAVKYVECSALTQKGLKNVFDEAILAALEPPEPKKSRRCVL-GAMGIQTIKCVVVGDGAVGKTCLLISYTTNKFPSEYVPTVFDNYAVTVMIGGEPYTLGLFDTAGLEDYDRLRPLSYPQTDVFLVCFSVVSPSSFENVKEKWVPEITHHCPKTPFLLVGTQIDLRDDPSTIEKLAKNKQKPITPETAEKLARDLKAVKYVECSALTQKGLKNVFDEAILAALEPPEPKKSRRCVL-GAMGIQTIKCVVVGDGAVGKTCLLISYTTNKFPSEYVPTVFDNYAVTVMIGGEPYTLGLFDTAGLEDYDRLRPLSYPQTDVFLVCFSVVSPSSFENVKEKWVPEITHHCPKTPFLLVGTQIDLRDDPSTIEKLAKNKQKPITPETAEKLARDLKAVKYVECSALTQKGLKNVFDEAILAALEPPEPKKSRRCVL-GAMGIQTIKCVVVGDGAVGKTCLLISYTTNKFPSEYVPTVFDNYAVTVMIGGEPYTLGLFDTAGLEDYDRLRPLSYPQTDVFLVCFSVVSPSSFENVKEKWVPEITHHCPKTPFLLVGTQIDLRDDPSTIEKLAKNKQKPITPETAEKLARDLKAVKYVECSALTQKGLKNVFDEAILAALEPPEPKKSRRCVL-GAMGIQTIKCVVVGDGAVGKTCLLISYTTNKFPSEYVPTVFDNYAVTVMIGGEPYTLGLFDTAGLEDYDRLRPLSYPQTDVFLVCFSVVSPSSFENVKEKWVPEITHHCPKTPFLLVGTQIDLRDDPSTIEKLAKNKQKPITPETAEKLARDLKAVKYVECSALTQKGLKNVFDEAILAALEPPEPKKSRRCVL-GAMGIQTIKCVVVGDGAVGKTCLLISYTTNKFPSEYVPTVFDNYAVTVMIGGEPYTLGLFDTAGLEDYDRLRPLSYPQTDVFLVCFSVVSPSSFENVKEKWVPEITHHCPKTPFLLVGTQIDLRDDPSTIEKLAKNKQKPITPETAEKLARDLKAVKYVECSALTQKGLKNVFDEAILAALEPPEPKKSRRCVL-GAMGIQTIKCVVVGDGAVGKTCLLISYTTNKFPSEYVPTVFDNYAVTVMIGGEPYTLGLFDTAGLEDYDRLRPLSYPQTDVFLVCFSVVSPSSFENVKEKWVPEITHHCPKTPFLLVGTQIDLRDDPSTIEKLAKNKQKPITPETAEKLARDLKAVKYVECSALTQKGLKNVFDEAILAALEPPEPKKSRRCVL-GAMGIQTIKCVVVGDGAVGKTCLLISYTTNKFPSEYVPTVFDNYAVTVMIGGEPYTLGLFDTAGLEDYDRLRPLSYPQTDVFLVCFSVVSPSSFENVKEKWVPEITHHCPKTPFLLVGTQIDLRDDPSTIEKLAKNKQKPITPETAEKLARDLKAVKYVECSALTQKGLKNVFDEAILAALEPPEPKKSRRCVL-GAMGIQTIKCVVVGDGAVGKTCLLISYTTNKFPSEYVPTVFDNYAVTVMIGGEPYTLGLFDTAGLEDYDRLRPLSYPQTDVFLVCFSVVSPSSFENVKEKWVPEITHHCPKTPFLLVGTQIDLRDDPSTIEKLAKNKQKPITPETAEKLARDLKAVKYVECSALTQKGLKNVFDEAILAALEPPEPKKSRRCVL,PTDFKLIDSK-PTDFKKISQK-PTDYKVIDSF-PTDYKEIDRK-PTDYKVIDSK-PTDFKVIDSK-PTDYKVIDSK-PTDYLELDRK-PTDFKEISRG-PTDYLEIDAK,PQDFRPVSSI-PQDFRPVSSI-PQDFRPVSSI-PQDFRPVSSI-PQDFRPVSSI-PQDFRPVSSI-PQDFRPVSSI-PQDFRPVSSI-PQDFRPVSSI-PQDFRPVSSI
