contacts,cs,ce,Chain,Length,designed_receptor_seq,native_receptor_seq,designed_binder_seq,native_binder_seq
13.0,116,126,A,10,DTPCEPNEIFNYATKRCEPAGNLKRPIPIPV-AEPCQPNEIFDEASQRCVPCGLLRRPQPQPS-SHPCEPNQCFDLALKRCVDCGELEDPVPVPD-LTPCAPNHVFDYKTKRCVPAGTLKAPKPRPK-KTPCAPNETFDYATQACVPTGTLVEPEPTPE-DEPCKPNEVYDLEQKHCVPCGELKEPKPKPD-PRPCLPDHMFDFALKHCVPAGTLIEPQPAPE-SEPCEPNECFNFATQHCVPCGELKKPEPLPE-DTPCEPNYTYDFATKKCVPAGNLKKPKPKPK-SKPCAPNQCYNFATKHCVPCGLLKKPKPLPT,PTPCVPAECFDLLVRHCVACGLLRTPRPKPA-PTPCVPAECFDLLVRHCVACGLLRTPRPKPA-PTPCVPAECFDLLVRHCVACGLLRTPRPKPA-PTPCVPAECFDLLVRHCVACGLLRTPRPKPA-PTPCVPAECFDLLVRHCVACGLLRTPRPKPA-PTPCVPAECFDLLVRHCVACGLLRTPRPKPA-PTPCVPAECFDLLVRHCVACGLLRTPRPKPA-PTPCVPAECFDLLVRHCVACGLLRTPRPKPA-PTPCVPAECFDLLVRHCVACGLLRTPRPKPA-PTPCVPAECFDLLVRHCVACGLLRTPRPKPA,TKEEVKPVEI-PQRQEQPQAQ-PVEEIDPEEE-KKKKKVPKKK-PEPTPEPTPE-DKDKDKPKDK-PPVDIDPEAQ-PASTTTPAAS-PKQKVTPKKK-PPGFYDPTLC,ELQLAIPREN-ELQLAIPREN-ELQLAIPREN-ELQLAIPREN-ELQLAIPREN-ELQLAIPREN-ELQLAIPREN-ELQLAIPREN-ELQLAIPREN-ELQLAIPREN
18.0,20,30,B,10,STSDQLVLVANANTPVIHEDEWSFVPWSVDYKVGTALDEDDNKILVRQGGFYHIYGSVLFIDDTDTMGFAIEKLKPVIRGNESGLVTLFKGSVKMPKENPNHTIFISGNAYLEKGDKLRLAIPSEDAKISLDGSVTFFGAVRLP-MASDRLEMIADAGTPLIHENNFTYVPWKLNSQYGEALDMEDNTILIREGGVYFIYGQVLFTDPTSLEGFNIERLKPTVRGNESGLETLFGGGVSMPADNPNRALFVSGTAYLEKGDRLRMRIPDENAQVSLSGDVTFFGAVKLP-SMADSLYLTADSNKPLIHSNAFTYVPWKLRSQQGTALEMHENKILVKEGGVYFIAGQVLFQDPQQLEGFHIRRHKPKVYGQEESVETLFGGTVAMPADDPNRSIFIAGHAYLEKGDTLELAIPNQDAKVSLSGDVTFFGAVKLP-MNSDCLTLTADAGRPLIHEANYTYVPWSEGERIGDALDMDENRILVRRGGYYFIFGQVLFMDPDSMMGFDIRRLKPIVRGNESSLETLFGGYVLMPEDNPNNSITISGVAYLEEGDRLVLAIPKDNAKVSLRGDVTFFGAIQLP-RYNDSLELVADANVPLILSNEYTYVPWKLGYQYGKALDIQDNRILVREGGYYFIYGQVLFTDPSELEGFHIRKLKPVVRGNERSIENLFGGGVEMPEENPSRAIYIAGTAYLDEGDLLELAIPRENAKVSLDGSVTFFGAIKLP-MRNDRLVMVADAGTPLIKSNDYTYVPWSVGSQVGDALEMEDNRILVREGGYYFIYGQVLFTDPTTEKGFDIIRLKPRVSGNEKSVEVLFGGTVKMPLDEPNRSVFIAGVAYLEEGDRLQLAIPSDEAKVSLDGDVTFFGAEKLP-MNNDHLDLIADANTPLIHRNNYTFVPWSENSRFGEALDMDDNRILVRKGGIYFIAGRVRFIDPSFCEGFDIEKLKPVVFGDEEDIETLFSGRVSMPTSNPDNSVFIAGTAYLEKGDRLRLAIPREHAAVSLEGSVTFFGAVRLP-MPSDQLAMTANANTPLVHDDNFTYVPWSVAYQRGTALDMDDNKILVREGGVYFIFGSVLFTDPSDRMGFEIRRLKPTVHGNENSIETLFGGTVAMPANNPNRQLTIAGTAYLEKGDKLFLAIPRDNAAVSLDGNTTFFGAVKLP-EPEGHLELVADADVPLIHRDDYTYVPWKLNYSVGEALEMEDNSILVKEGGYYFIYGQVLFVDPTAERGFYIEKLKPVVHGNEDSVETLFGGRVAMPEKNPNNAIFIAGVAYLEKGDRLRLRLPTTDAKVSLDGDVTFFGAIRLP-MYNDCLQMTADSNTPLIHEADYTFVPWKLHYRFGDALEMSNNKILVRQGGYYFIAGQVLFVDPSNMEGFHIRKYKPVVLGDEAAVETLFGGVVAMPETEPNNSIYISGIAYLEEGDTLELAIPTDHAKVSLSGDVTFFYALKLP,VTQDCLQLIADSETPTIQKGSYTFVPWLLSFKRGSALEEKENKILVKETGYFFIYGQVLYTDKTYAMGHLIQRKKVHVFGDELSLVTLFRCIQNMPETLPNNSCYSAGIAKLEEGDELQLAIPRENAQISLDGDVTFFGALKLL-VTQDCLQLIADSETPTIQKGSYTFVPWLLSFKRGSALEEKENKILVKETGYFFIYGQVLYTDKTYAMGHLIQRKKVHVFGDELSLVTLFRCIQNMPETLPNNSCYSAGIAKLEEGDELQLAIPRENAQISLDGDVTFFGALKLL-VTQDCLQLIADSETPTIQKGSYTFVPWLLSFKRGSALEEKENKILVKETGYFFIYGQVLYTDKTYAMGHLIQRKKVHVFGDELSLVTLFRCIQNMPETLPNNSCYSAGIAKLEEGDELQLAIPRENAQISLDGDVTFFGALKLL-VTQDCLQLIADSETPTIQKGSYTFVPWLLSFKRGSALEEKENKILVKETGYFFIYGQVLYTDKTYAMGHLIQRKKVHVFGDELSLVTLFRCIQNMPETLPNNSCYSAGIAKLEEGDELQLAIPRENAQISLDGDVTFFGALKLL-VTQDCLQLIADSETPTIQKGSYTFVPWLLSFKRGSALEEKENKILVKETGYFFIYGQVLYTDKTYAMGHLIQRKKVHVFGDELSLVTLFRCIQNMPETLPNNSCYSAGIAKLEEGDELQLAIPRENAQISLDGDVTFFGALKLL-VTQDCLQLIADSETPTIQKGSYTFVPWLLSFKRGSALEEKENKILVKETGYFFIYGQVLYTDKTYAMGHLIQRKKVHVFGDELSLVTLFRCIQNMPETLPNNSCYSAGIAKLEEGDELQLAIPRENAQISLDGDVTFFGALKLL-VTQDCLQLIADSETPTIQKGSYTFVPWLLSFKRGSALEEKENKILVKETGYFFIYGQVLYTDKTYAMGHLIQRKKVHVFGDELSLVTLFRCIQNMPETLPNNSCYSAGIAKLEEGDELQLAIPRENAQISLDGDVTFFGALKLL-VTQDCLQLIADSETPTIQKGSYTFVPWLLSFKRGSALEEKENKILVKETGYFFIYGQVLYTDKTYAMGHLIQRKKVHVFGDELSLVTLFRCIQNMPETLPNNSCYSAGIAKLEEGDELQLAIPRENAQISLDGDVTFFGALKLL-VTQDCLQLIADSETPTIQKGSYTFVPWLLSFKRGSALEEKENKILVKETGYFFIYGQVLYTDKTYAMGHLIQRKKVHVFGDELSLVTLFRCIQNMPETLPNNSCYSAGIAKLEEGDELQLAIPRENAQISLDGDVTFFGALKLL-VTQDCLQLIADSETPTIQKGSYTFVPWLLSFKRGSALEEKENKILVKETGYFFIYGQVLYTDKTYAMGHLIQRKKVHVFGDELSLVTLFRCIQNMPETLPNNSCYSAGIAKLEEGDELQLAIPRENAQISLDGDVTFFGALKLL,EGRKIPIPEP-PGVEKPLPTP-YGVETPIPEP-LGQQIPIPTP-FGIAVPRPTP-TGRKRPEPTP-EGKEVPIPSP-VGSVAPVPAP-LGLDYPVPSP-AGEHHHHPLP,GLLRTPRPKP-GLLRTPRPKP-GLLRTPRPKP-GLLRTPRPKP-GLLRTPRPKP-GLLRTPRPKP-GLLRTPRPKP-GLLRTPRPKP-GLLRTPRPKP-GLLRTPRPKP
