contacts,cs,ce,Chain,Length,designed_receptor_seq,native_receptor_seq,designed_binder_seq,native_binder_seq
24.0,185,195,A,10,QEIRVFKNYRIVELCERVVGNRREFSVAFYHEGGRYVRCSKVDRGRRNSDSFEEMLQLLKLAYSTGALVTVTVESSPVRGEPGVCTAVTICPLGEFCP-HMVNVYTNHKVVEFCEYISGNKRKFSIALYKEGGSYVRASKVFRGDNDDNRFNNMLQFAKKAYETRSLVTVTVEEHPRPNTPGELLNLTICPLGKHCP-APKSTYSNFKITELCLYMDGEKRVFEIAAYKSGGRNVRCRKVFSGADDDGSFDRMLQKARRAYQSGRLVTIECEEVPEEGTPGTLTRLYICPEGGNCP-GPTATFTNVKVTELCLYQRGKKRAFAIAAYKKGSAYVRCSKIDEGKDKDKSFDKMLNYAKTAYKTGAKVSIKVEEHPVPGRPGRLVDLYICPLGSDCP-MPVSEYSNVTITEFCLFKQGNQLAFCVAFFKEGGEDVRACKVDDGNADDANFNAMLGFAQTAFATGSKVKVTVSQSPVPGQPGTLVKLEICPLGSDCP-QPTSVFRNYKVTSLCEYTDGSKRTFEIALYKEGGANVRCAKVADASGTGGSFDFMLQYAKLAFATNSLVTATVESSPTEGVPGTLKKLVICPLGSECP-SHMSVFDNYKITELCLRIDGTRRVFQVAFYYKGGRAVRASKVLPDNEDDDVFNEMLEQAKTAYKLKNKVRVWIDDDPKPNTPGSLRKLEICPLGGDCP-SPKRTFENVRITDLCLYQNGNRQTFEVAFWKDGQKNVRCKKQNRGTAASNAFGQMLGFAQLAFQTGALVKVTTEDTPVAGEPGRLTKMEICPLGGNCP-STTSTYDNYRIVELCDYRNGSTRTFEIAAWQQGGSFVRCKKVDDGSSSNSSFDSMLGLAKLAKTSGAYVRITCTSDPSTSSPGTLEKLEICPLGGYCP-GSTRIYKNHKIVELCLYSEGNKKTFSIALHKEGGEFIRCRKRDDGKDKDKSFNNMFELAKKAYLTGSLVEVTVEKNPKSNTPGSLTKLRICPLGQDCP,LPTHLYKNFTVQELALKLKGKNQEFCLTAFMSGRSLVRACLSDAGHEHDTWFDTMLGFAISAYALKSRIALTVEDSPYPGTPGDLLELQICPLNGYCE-LPTHLYKNFTVQELALKLKGKNQEFCLTAFMSGRSLVRACLSDAGHEHDTWFDTMLGFAISAYALKSRIALTVEDSPYPGTPGDLLELQICPLNGYCE-LPTHLYKNFTVQELALKLKGKNQEFCLTAFMSGRSLVRACLSDAGHEHDTWFDTMLGFAISAYALKSRIALTVEDSPYPGTPGDLLELQICPLNGYCE-LPTHLYKNFTVQELALKLKGKNQEFCLTAFMSGRSLVRACLSDAGHEHDTWFDTMLGFAISAYALKSRIALTVEDSPYPGTPGDLLELQICPLNGYCE-LPTHLYKNFTVQELALKLKGKNQEFCLTAFMSGRSLVRACLSDAGHEHDTWFDTMLGFAISAYALKSRIALTVEDSPYPGTPGDLLELQICPLNGYCE-LPTHLYKNFTVQELALKLKGKNQEFCLTAFMSGRSLVRACLSDAGHEHDTWFDTMLGFAISAYALKSRIALTVEDSPYPGTPGDLLELQICPLNGYCE-LPTHLYKNFTVQELALKLKGKNQEFCLTAFMSGRSLVRACLSDAGHEHDTWFDTMLGFAISAYALKSRIALTVEDSPYPGTPGDLLELQICPLNGYCE-LPTHLYKNFTVQELALKLKGKNQEFCLTAFMSGRSLVRACLSDAGHEHDTWFDTMLGFAISAYALKSRIALTVEDSPYPGTPGDLLELQICPLNGYCE-LPTHLYKNFTVQELALKLKGKNQEFCLTAFMSGRSLVRACLSDAGHEHDTWFDTMLGFAISAYALKSRIALTVEDSPYPGTPGDLLELQICPLNGYCE-LPTHLYKNFTVQELALKLKGKNQEFCLTAFMSGRSLVRACLSDAGHEHDTWFDTMLGFAISAYALKSRIALTVEDSPYPGTPGDLLELQICPLNGYCE,RCICSPGSVL-YCVCSPGGSL-SCFCSPGGTL-KCKCTPGSEM-GCIRSPGSNL-DCICLPGDSL-FCVRERGGTL-QCVCEPGSKL-DCTCSPGSSL-NCICSPGSKL,ISICNPGSSL-ISICNPGSSL-ISICNPGSSL-ISICNPGSSL-ISICNPGSSL-ISICNPGSSL-ISICNPGSSL-ISICNPGSSL-ISICNPGSSL-ISICNPGSSL
29.0,8,18,B,10,ALVVPPLEQLLAEPAPNGQCPARTRPLTVAELDASEAWQNWLRENAQGATEYALWDGVYKGGFFGGVVEEGTEGGAFDLERTICVKVRVETGLPPNDESYSDVIATQPRSAANSRLCYRFVKDGKPVVGACISPYQGLYTYKYAKLVEYLDFVYHNGIPVVVHVDKTQEFFDYFNATFPQYELTGIAIAEPGGPLN-EIVVPPLEALLSEPAPDGQCPDRSRPLTVNELENSTEWQQWFLENSTGYTTLALYDGTYAGGDYGGEIIPGEEGGSFDLELTVCVNIRLPTGLPPTEVTYENVIPTNIRTEERSRVAYEFVRDGEPVIGAFISPYFGRRTELYATLIRFLDFIYFNNIPVTVRVDKTERFFQYENATFPEYELVGIAISNPGSELN-MLVIPPLESILPQPAPNGECPDRTRPLTVNELNNSKDLQDYFKSNCKGNTKYALYDGVYECGSNGGKVIKGTPKGSYDLKYTICVKTLVETGLPPDLHKFENVVPTDPYTATNSRTCYTFTKDGKPVIRACISPYWGNYTEKYEKLIKFLTYVYENNIPVTVTVSKTTQYYDYYDATYDEYELVGIAISKPGSKSD-SIVVPPLTSLLETPSPNGKCPDQCTALTVKELEASEEWKKYLDENCEGWETYALYDGTYKCGDYGGEVVEGEEGGAFNLDLTICKHIWEVTGEDPEIVSYKDVIPTNPLSSENSCVAYEFVKDGKPVIGGFISPYFGNYTKYYSNLISYMETIYNLGIPVVVHVNKTEKSYMYKDATFEQYELVGIAVAKEGSELE-EYIVPPLAALLARPAPDGKCPDRARPLTVRELEASAPWMSWLKSHAKGNVRLALYDGEYRGGSFGGEVVPGTEGGSFDLEQTLCVKVIQPTGLPPKEHTFQDVVPTNPWTADKSATCFVFKRDGKPVIGGCISPYWGKYTDKYQALIRFLKFVTENNIPVTVTVDKTVLHYMYADATFEEYELVGIAVYKPGSKLA-TLIVPPLRQILTAPAPNGQCPDSARALTVAELQQSAAWQAYLRANCSGATTYALYDGTYACGSGGGAITAGTAGGAFNLAQTLCVRTLEETGAPPTLHTFTNVVATDPLTSSNSALCYRFNANGAPVVGACISPYFGTATAYYADLIKYMTYIHYNGIPVTVTVNRTQRYYQYYNATFDQYELVGIAVATPGGPLN-SLRIPPLNSLLSEPAPAGQCPDQARPLTVAELSASAPWQAFLRANGTGNVTLALLDGTYQYGAGGGVVVPGTAGGSYNLAQTVCIYIRQPTGAPPTLVTYENVVARTPLTQNNSRLSYMFTRGGQPVIGAYISPYSGDYTALYSTLQGFLSAVTQSGIPVTVTVARTIQSYQYANATFDQYELVGIAIVTPGSVSA-VIRVPPLQQILEEPAPEGKCPDRSTALTVEELRKSEDLQQYFKENCSGFSEYALYDGVYRCGFFGGKIEEGKEGGSFDLEKTICKTVIEETGKPPTQHTFENVVATEMWTSKNSALCATFVKDGKPVVNACISPYWGNYTYKFANLIKYLDYIYHNNIPVRVIVDKTIRSFQYENATYDQYELVGIAITEPGSELE-ELVVPPLKALLPEPAPNGQCPARHRPLTVQELSASEEWQQWLRANSAGWTQLALWDGTYAGGDYGGVVIPGTPGGSFDLDQTICVSVREPTGLPPVLHTYQDVVARNLWTARNSRVAAEFVRDGQPVVGAFISPYEGERTAAYANLIRYLTVITETGTPVTVTVDRTERSFMYEDATFPQYQLVGIAIAAPGGSLA-EIVVPPLESLLETPAPNGQCPDRTRPLTVRELEASEQWQRYFRENCTGWTSYALFDGVYNCGDYGGVVTPGEEGGAFNLDETICVRITEETGEPPDVVTYDDVVPTRPWSAENSSLSYEFRKDGKPVIRAYISPYWGDNTYKYEALVRMLKLVYERGIPVTVKVSRIQRSFQYENAVAEEFELVGISISKPGSSLE,GIVIPPQEQITQHGSPYGRCANKTRALTVAELRGSGDLQEYLRHVTRGWSIFALYDGTYLGGEYGGVIKDGTPGGAFDLKTTFCIMTTRNTGQPATDHYYSNVTATRLLSSTNSRLCAVFVRSGQPVIGACTSPYDGKYWSMYSRLRKMLYLIYVAGISVRVHVSKEEQYYDYEDATFETYALTGISICNPGSSLC-GIVIPPQEQITQHGSPYGRCANKTRALTVAELRGSGDLQEYLRHVTRGWSIFALYDGTYLGGEYGGVIKDGTPGGAFDLKTTFCIMTTRNTGQPATDHYYSNVTATRLLSSTNSRLCAVFVRSGQPVIGACTSPYDGKYWSMYSRLRKMLYLIYVAGISVRVHVSKEEQYYDYEDATFETYALTGISICNPGSSLC-GIVIPPQEQITQHGSPYGRCANKTRALTVAELRGSGDLQEYLRHVTRGWSIFALYDGTYLGGEYGGVIKDGTPGGAFDLKTTFCIMTTRNTGQPATDHYYSNVTATRLLSSTNSRLCAVFVRSGQPVIGACTSPYDGKYWSMYSRLRKMLYLIYVAGISVRVHVSKEEQYYDYEDATFETYALTGISICNPGSSLC-GIVIPPQEQITQHGSPYGRCANKTRALTVAELRGSGDLQEYLRHVTRGWSIFALYDGTYLGGEYGGVIKDGTPGGAFDLKTTFCIMTTRNTGQPATDHYYSNVTATRLLSSTNSRLCAVFVRSGQPVIGACTSPYDGKYWSMYSRLRKMLYLIYVAGISVRVHVSKEEQYYDYEDATFETYALTGISICNPGSSLC-GIVIPPQEQITQHGSPYGRCANKTRALTVAELRGSGDLQEYLRHVTRGWSIFALYDGTYLGGEYGGVIKDGTPGGAFDLKTTFCIMTTRNTGQPATDHYYSNVTATRLLSSTNSRLCAVFVRSGQPVIGACTSPYDGKYWSMYSRLRKMLYLIYVAGISVRVHVSKEEQYYDYEDATFETYALTGISICNPGSSLC-GIVIPPQEQITQHGSPYGRCANKTRALTVAELRGSGDLQEYLRHVTRGWSIFALYDGTYLGGEYGGVIKDGTPGGAFDLKTTFCIMTTRNTGQPATDHYYSNVTATRLLSSTNSRLCAVFVRSGQPVIGACTSPYDGKYWSMYSRLRKMLYLIYVAGISVRVHVSKEEQYYDYEDATFETYALTGISICNPGSSLC-GIVIPPQEQITQHGSPYGRCANKTRALTVAELRGSGDLQEYLRHVTRGWSIFALYDGTYLGGEYGGVIKDGTPGGAFDLKTTFCIMTTRNTGQPATDHYYSNVTATRLLSSTNSRLCAVFVRSGQPVIGACTSPYDGKYWSMYSRLRKMLYLIYVAGISVRVHVSKEEQYYDYEDATFETYALTGISICNPGSSLC-GIVIPPQEQITQHGSPYGRCANKTRALTVAELRGSGDLQEYLRHVTRGWSIFALYDGTYLGGEYGGVIKDGTPGGAFDLKTTFCIMTTRNTGQPATDHYYSNVTATRLLSSTNSRLCAVFVRSGQPVIGACTSPYDGKYWSMYSRLRKMLYLIYVAGISVRVHVSKEEQYYDYEDATFETYALTGISICNPGSSLC-GIVIPPQEQITQHGSPYGRCANKTRALTVAELRGSGDLQEYLRHVTRGWSIFALYDGTYLGGEYGGVIKDGTPGGAFDLKTTFCIMTTRNTGQPATDHYYSNVTATRLLSSTNSRLCAVFVRSGQPVIGACTSPYDGKYWSMYSRLRKMLYLIYVAGISVRVHVSKEEQYYDYEDATFETYALTGISICNPGSSLC-GIVIPPQEQITQHGSPYGRCANKTRALTVAELRGSGDLQEYLRHVTRGWSIFALYDGTYLGGEYGGVIKDGTPGGAFDLKTTFCIMTTRNTGQPATDHYYSNVTATRLLSSTNSRLCAVFVRSGQPVIGACTSPYDGKYWSMYSRLRKMLYLIYVAGISVRVHVSKEEQYYDYEDATFETYALTGISICNPGSSLC,GTIVQASLLE-ASIVEASALP-KKIVELSFRD-GKVVEASFKP-GEVTELSFQT-NTVTELSLRF-GAITELSARF-GEVVEAAFLE-GEVVEASFLL-GKVLELSFLD,FTVQELALKL-FTVQELALKL-FTVQELALKL-FTVQELALKL-FTVQELALKL-FTVQELALKL-FTVQELALKL-FTVQELALKL-FTVQELALKL-FTVQELALKL
