contacts,cs,ce,Chain,Length,designed_receptor_seq,native_receptor_seq,designed_binder_seq,native_binder_seq
22.0,24,34,A,10,SRAYDERVINLVIDKNKLTSKQIETINKFIGCWENKKDKNGIKINLGDEKSRDRFEISKINKDNEEIRFQAQNNKNTVYIFKYVNYMRIEGEKTGVKYLGVSKPLSYVRMN-EKKFDVTTINIVIDKSQLSKKKIKTINNFIGKWENEEEKKRIDIKIGDNSSKDKYDILKIDDKNETISFKREDDEETIHILKFIDKKTIEMMISLKSNQGTSTPTAFVKVG-GDVFYTQKINLVYNEATKSVENSNVINLFIGKWENTFNKTRIIIKKGDSTSLNRFNILDIDSSHKQIKFSSVLNSNSIYTLSYVNENDIEMQQSSATSFGISRPAKYIRIN-FRHFRTDYLNLVVNQNELSFEQQKTINYFIGSWENKDSYESENIRLGNDQSMNKYIINKIDIESKSIEFSPEDDSETVHVWNFVDKNKITWQMMDKTGAGTSAPVTFYRVN-MEDFGTEIINLVYNSSSLSKSELNTINLFIGEWENNKKKQSIIITLGNQYSSNQYKILRIDNINKEIMFTSINNEQTIYILRYINKNEIEKSSNNKYGIGKSKPMPYYKIN-GSTTSIQSINLVYLEEELSDTQLDVINKFIGTWENKVDKKKIVINLGGEASINKYIILKIDESTETIHFTREDDSNTVYILKYTNEDLIQMSIDRQYDVGESTPLSFVRIQ-GYRDFIQIINLIIDENKLDQISKNVINRFIGIWEDEKRREQIKISLGNENSSSRYFIDRIIKETQTIKFHSEGNQGIVYILKFVDSMEIQGQISERDKDGTSFPLSFFRIG-MSLEQTNTINLVYDAKNSSAKQLATIDMFVGEWSNKELKMRVNIKLGNDKSSNKYSILNVDDSKNQIEFTSVNNKDLVYNLNYVNESHIKLQISNRYGFGTSKPMDFRRTQ-GVFKKVQNINLVIDTMDLSKEQQEIINKFIGEWKNENERKSIVISLGNNNSENRYILDEVDVKNERIIFRSEGNKNLVFILNYVDKNHIKMSIDNRDGIGKSKPQTFSAVI-NKIDSVEKINLVVDSTAMTDSEIETVNKFIGDWENKKEKERIIIKLGNEKSEYRYFIREINNEKSEISFNSEYDMSTIYKLTYIDENTIQRQIASHSGQGKSLPLDYYRIN,GSMYQLQFINLVYDTTKLTHLEQTNINLFIGNWSNHQLQKSICIRHGDDTSHNQYHILFIDTAHQRIKFSSFDNEEIIYILDYDDTQHILMQTSSKQGIGTSRPIVYERLV-GSMYQLQFINLVYDTTKLTHLEQTNINLFIGNWSNHQLQKSICIRHGDDTSHNQYHILFIDTAHQRIKFSSFDNEEIIYILDYDDTQHILMQTSSKQGIGTSRPIVYERLV-GSMYQLQFINLVYDTTKLTHLEQTNINLFIGNWSNHQLQKSICIRHGDDTSHNQYHILFIDTAHQRIKFSSFDNEEIIYILDYDDTQHILMQTSSKQGIGTSRPIVYERLV-GSMYQLQFINLVYDTTKLTHLEQTNINLFIGNWSNHQLQKSICIRHGDDTSHNQYHILFIDTAHQRIKFSSFDNEEIIYILDYDDTQHILMQTSSKQGIGTSRPIVYERLV-GSMYQLQFINLVYDTTKLTHLEQTNINLFIGNWSNHQLQKSICIRHGDDTSHNQYHILFIDTAHQRIKFSSFDNEEIIYILDYDDTQHILMQTSSKQGIGTSRPIVYERLV-GSMYQLQFINLVYDTTKLTHLEQTNINLFIGNWSNHQLQKSICIRHGDDTSHNQYHILFIDTAHQRIKFSSFDNEEIIYILDYDDTQHILMQTSSKQGIGTSRPIVYERLV-GSMYQLQFINLVYDTTKLTHLEQTNINLFIGNWSNHQLQKSICIRHGDDTSHNQYHILFIDTAHQRIKFSSFDNEEIIYILDYDDTQHILMQTSSKQGIGTSRPIVYERLV-GSMYQLQFINLVYDTTKLTHLEQTNINLFIGNWSNHQLQKSICIRHGDDTSHNQYHILFIDTAHQRIKFSSFDNEEIIYILDYDDTQHILMQTSSKQGIGTSRPIVYERLV-GSMYQLQFINLVYDTTKLTHLEQTNINLFIGNWSNHQLQKSICIRHGDDTSHNQYHILFIDTAHQRIKFSSFDNEEIIYILDYDDTQHILMQTSSKQGIGTSRPIVYERLV-GSMYQLQFINLVYDTTKLTHLEQTNINLFIGNWSNHQLQKSICIRHGDDTSHNQYHILFIDTAHQRIKFSSFDNEEIIYILDYDDTQHILMQTSSKQGIGTSRPIVYERLV,LSVGNNVLSY-QEKSWSINSP-DGIFFDTSSG-EMNFDNVDDG-YKISYDQSSQ-HTLKNDVDSP-SSIGRDCEQP-YGIGFFNGEP-ESIEMSIVTP-AKIENTTLEP,EQQFDNSWAA-EQQFDNSWAA-EQQFDNSWAA-EQQFDNSWAA-EQQFDNSWAA-EQQFDNSWAA-EQQFDNSWAA-EQQFDNSWAA-EQQFDNSWAA-EQQFDNSWAA
36.0,93,103,B,10,GSHMYNFDNLNVSHINTLENFKIREIQGNNNWCAGFSLAALLNAVDNTDKYNARNIMKYLYEDVSEDDLPDMATYLNQMIEYAGSKGYNAVKKQGVLSYDDIQKLTDSRTGVQINARSINNDPNTKAYGHAMAMVGNAIIDDKKMLIYHDPWQAYLQGQPADSSILSLTKNVNVEWYSSIIGF-YTIEHKASNKKVSDENTLKYFAIQERQNNNQWCWGYSSAALLNAVDNTKNYNAHDLMKTLYPEVSDRDLPWMAGYKEQGVKLLKSKGHEGTYVDGVPSFDAINKLTNNNVGVMINADTINENPSEHKQGHAMSVIGNAIINDEKNIIYHNPWDDYIMIQDSNSPVMRLMDNINVNWTGSFVGY-TDVPRDVTDLRVSELNILHDFRIRERQTNSSWCWAFSNAALLNAVEHTTLFNAYSIMKTLYPSVSDKDLPWRATYREQGLRYLASQGHHGEYQDGVLSYDAVTQLTHDNVGIMIQAQSVCDEPTKQLNGHALAYVGNAVIDNQRKIIYWDPWMSGLRTQEATKDLLQLGEKRQFRWIGSWVGG-FEQPALSQQLQVSYVNTLQNFKIREVQGNSWHCAGFSMAGLLNAIKNTTNYNASAIMKWAYPKVSNTLLPWEATYQNQLIAFANSQGFNAINQNGVPSYDEVNRLTSQNIGIQILSRSISNNPSTSLLGHATAVVGNAIINNQKKLIYWNPWENMLCAQNSNSNLLNLVNQKSYIWTGSTVGF-GHMPIELKELKISEINMLDNFEITEQQGNNNWCAGFSLAALFNATDNTSDYNAYSIMRSLYPNVSDEDLPGMATYEEQMIDYSGTKGHKALWQDGVPSYDVINELTKANVGVMIVAHSISDDPNDPYQGHLLAVVGNAIINNEKMIIFWDPWSNGLMVQDANSNKLHLMYNEDFTWSGSMVGG-HHHHHHHMTRKISFQNVLEHFEILEQQKDDNWCWGYSVAALLNAVDNTKNYDEHSIMRTLYPNVSDQELPQKATYPDQMINYQKSKGKDAVYQSGVPTFDKVRKATEENKGVMIVSKSIALFPTSWFQGHAAALVGCAIVDDKKKLIYHDPWQMYLQTQDADSNEIVNFANDYYTWTGSMVGG-GSHMKSFEHFEVSELNTLKHFRILEQQGNDYWCGGYTIAHLLNAVDNSKQYNAQEIMHYAYSEVSDQDLPWQANFLQQAIDYQQSQGHHAMMQQGVLSYEKIKKLTNSNVGVMILAQSISNDPNQKTHGHALAVVGNAIINNEQMLIYHDPWERGLMIQPSGSPVLQLSRNINTIWTSSVVGG-GHHHHHHMAKEVTEINVLANFQIREKQGKNNWCCGFSAAALHNAVDNTTDYNAYTIMRELYPDVSDKDLPSRACYFNQMIMYNESKGHTATFKQGVPSFDEIKSLTNSNIGVMINAHSVNKDPNDANEGHALAVVGCAIIDDVKMIIYHNPWDDHLLVQSANSDKLNIPNDKTMIWTGSVVGL-AVVSVHSHEEEISELHVLKNFQIQEQQGNNQFCMGFSAAALLNAVDNTTDYNAFEIMQSLYSDVTNTDLPNQATFYDQMVNYSASQGYEASYQSGVPTFDQVKQLTNENIGISILSQSIARDEKLAHRGHALALVGNAVINDERQLVFWDPWERILRLQNANSPLLQLYEKTGHSWVGSIVGF-GSHMASTSGLKVSELNMLKNFEIQEIQDENWWCWGYSAAHLINAIDNTDDYNAHDVLKTLYPDVSDEDLPWKSTSLEQVINFAKSKGHTATYKNGVPSYEDIKALTNENVGVAIMAASVSNDPNDKLAGHVLALVGCAIVDNQKKIIYWDPGSDHLQVQDADTPTLNLLMNTDMNWTSSVVGW,GHHHHHHEFDQVQYENTLKNFKIREQQFDNSWAAGFSMAALLNATKNTDTYNAHDIMRTLYPEVSEQDLPNCATFPNQMIEYGKSQGRDIHYQEGVPSYNQVDQLTKDNVGIMILAQSVSQNPNDPHLGHALAVVGNAKINDQEKLIYWNPWDTELSIQDADSSLLHLSFNRDYNWYGSMIGY-GHHHHHHEFDQVQYENTLKNFKIREQQFDNSWAAGFSMAALLNATKNTDTYNAHDIMRTLYPEVSEQDLPNCATFPNQMIEYGKSQGRDIHYQEGVPSYNQVDQLTKDNVGIMILAQSVSQNPNDPHLGHALAVVGNAKINDQEKLIYWNPWDTELSIQDADSSLLHLSFNRDYNWYGSMIGY-GHHHHHHEFDQVQYENTLKNFKIREQQFDNSWAAGFSMAALLNATKNTDTYNAHDIMRTLYPEVSEQDLPNCATFPNQMIEYGKSQGRDIHYQEGVPSYNQVDQLTKDNVGIMILAQSVSQNPNDPHLGHALAVVGNAKINDQEKLIYWNPWDTELSIQDADSSLLHLSFNRDYNWYGSMIGY-GHHHHHHEFDQVQYENTLKNFKIREQQFDNSWAAGFSMAALLNATKNTDTYNAHDIMRTLYPEVSEQDLPNCATFPNQMIEYGKSQGRDIHYQEGVPSYNQVDQLTKDNVGIMILAQSVSQNPNDPHLGHALAVVGNAKINDQEKLIYWNPWDTELSIQDADSSLLHLSFNRDYNWYGSMIGY-GHHHHHHEFDQVQYENTLKNFKIREQQFDNSWAAGFSMAALLNATKNTDTYNAHDIMRTLYPEVSEQDLPNCATFPNQMIEYGKSQGRDIHYQEGVPSYNQVDQLTKDNVGIMILAQSVSQNPNDPHLGHALAVVGNAKINDQEKLIYWNPWDTELSIQDADSSLLHLSFNRDYNWYGSMIGY-GHHHHHHEFDQVQYENTLKNFKIREQQFDNSWAAGFSMAALLNATKNTDTYNAHDIMRTLYPEVSEQDLPNCATFPNQMIEYGKSQGRDIHYQEGVPSYNQVDQLTKDNVGIMILAQSVSQNPNDPHLGHALAVVGNAKINDQEKLIYWNPWDTELSIQDADSSLLHLSFNRDYNWYGSMIGY-GHHHHHHEFDQVQYENTLKNFKIREQQFDNSWAAGFSMAALLNATKNTDTYNAHDIMRTLYPEVSEQDLPNCATFPNQMIEYGKSQGRDIHYQEGVPSYNQVDQLTKDNVGIMILAQSVSQNPNDPHLGHALAVVGNAKINDQEKLIYWNPWDTELSIQDADSSLLHLSFNRDYNWYGSMIGY-GHHHHHHEFDQVQYENTLKNFKIREQQFDNSWAAGFSMAALLNATKNTDTYNAHDIMRTLYPEVSEQDLPNCATFPNQMIEYGKSQGRDIHYQEGVPSYNQVDQLTKDNVGIMILAQSVSQNPNDPHLGHALAVVGNAKINDQEKLIYWNPWDTELSIQDADSSLLHLSFNRDYNWYGSMIGY-GHHHHHHEFDQVQYENTLKNFKIREQQFDNSWAAGFSMAALLNATKNTDTYNAHDIMRTLYPEVSEQDLPNCATFPNQMIEYGKSQGRDIHYQEGVPSYNQVDQLTKDNVGIMILAQSVSQNPNDPHLGHALAVVGNAKINDQEKLIYWNPWDTELSIQDADSSLLHLSFNRDYNWYGSMIGY-GHHHHHHEFDQVQYENTLKNFKIREQQFDNSWAAGFSMAALLNATKNTDTYNAHDIMRTLYPEVSEQDLPNCATFPNQMIEYGKSQGRDIHYQEGVPSYNQVDQLTKDNVGIMILAQSVSQNPNDPHLGHALAVVGNAKINDQEKLIYWNPWDTELSIQDADSSLLHLSFNRDYNWYGSMIGY,GSASGIGTPA-HSENGWGTAY-FSTLGWGTSA-SSAYGWGKPY-PSETGWGTAA-SSKNGWGAAY-YSQRGIGTNA-CSDDGIGKAA-SSATGYGTPN-FSWDDWGTPR,SSKQGIGTSR-SSKQGIGTSR-SSKQGIGTSR-SSKQGIGTSR-SSKQGIGTSR-SSKQGIGTSR-SSKQGIGTSR-SSKQGIGTSR-SSKQGIGTSR-SSKQGIGTSR
