contacts,cs,ce,Chain,Length,designed_receptor_seq,native_receptor_seq,designed_binder_seq,native_binder_seq
19.0,62,72,A,10,MPILDKDGNELDADAFLAENPAGTRTLFDGLDGRPTYLRVTDDNEIADVGLDAVCTHLGCVVPWRGDEDAFVCPCHGSVFDRDGKVVRGPAPRSLPLARVEVDGDRITATRWTEDDFRTGERPFWP-MPLLDRDGGEIDAGAFLAEHPAGSRELFDGLDGRPTYLRVTADRALARYGLDAVCTHLGCVVPWRGEERAFVCPCHGSRFDADGRVVRGPAPRSLPLFEVREEGGRLRALRWTERDGRTGERPFWP-MPILDRNGNEINADEFLKTHPAGSRELFDGLDGKPTYLIVTEDKKIDKYGLNAVCTHLGCVVPWKGEEKAFVCPCHGSRFDADGKVVQGPAPRSLPLFKVEEKDGKLTAKKWEEKDFRTGEKPFWP-MPILDKDGKEIDAKKFLKENKKGSRKLFDGLDGKPTYIIVTDDNKIDKYGLNAVCTHLGCVVPWKGEEKAFVCPCHGSVFDETGKVIKGPAPKSLPLFKLEEKDGKLTAKKWTEKDFRTGEKPWWP-MPILDKDGKEIDAKKFLEKNPAGSRELFEGLDGKPTYLIVTEDKKIDKYGLNAVCTHLGCVVPWKGEEKAFVCPCHGSVFDETGKVVKGPAPFSLPLFKVEEKDGKITAKKWEEKDFRTGKKPFWP-MPILDKNGKEINADEFLKTHKKGDRSLYEGLDGKPTYIIVTDDNKIDKYGLNAVCTHLGCVVPWKGEEKAFVCPCHGSVFDIDGKVIKGPAPNSLPLFKVEEKDGKITAKKWTEKDFRTGKEPFWP-MPLLDRDGGEIDAAAFLAENPAGSRRLFDGLDGRPTYLRVTADNALADVGLDAVCTHLGCVVPWRGDERAFVCPCHGSRFDADGRVVRGPAPRSLPLARLRVDGDRLTAERWTERDGRTGERPFWP-MPLLDRDGGEIDAAAFLAEHPAGSRELFDGLDGRPTYLRVTADRALDRFGLDAVCTHLGCVVPWRGEERAFVCPCHGSRFDADGRVVRGPAPRSLPLFRVEEAGGRLRALAWTERDGRTGERPFWP-MPILDKDGNEINADEFLKTHPKGSRELFDGLDGKPTYIRVTDDNKIDKYGLNAVCTHLGCVVPWKGEEKAFVCPCHGSVFDETGKVVKGPAPNSLPLFKVEEKDGKLTAKKWTEKDFRTGEKPWWP-MPILDKDGKEIDAEKFLKENPAGTRKLFHGLDGKPTYLIVTEEKKIDKYGLNAVCTHLGCVVPWKGEEKAFVCPCHGSVFDETGKVIKGPAPKSLPLFKVEEKDGKLTAKKWEEKDFRTGEKPWWP,QAAKDALGNDIKAGEWLKTHLAGDRSLSQGLKGDPTYLIVTADSTIEKYGLNAVCTHLGCVVPWVAAENKFKCPCHGSQYNAEGKVVRGPAPLSLALAHCDVAEGLVTFSTWTETDFRTGLEPWWA-QAAKDALGNDIKAGEWLKTHLAGDRSLSQGLKGDPTYLIVTADSTIEKYGLNAVCTHLGCVVPWVAAENKFKCPCHGSQYNAEGKVVRGPAPLSLALAHCDVAEGLVTFSTWTETDFRTGLEPWWA-QAAKDALGNDIKAGEWLKTHLAGDRSLSQGLKGDPTYLIVTADSTIEKYGLNAVCTHLGCVVPWVAAENKFKCPCHGSQYNAEGKVVRGPAPLSLALAHCDVAEGLVTFSTWTETDFRTGLEPWWA-QAAKDALGNDIKAGEWLKTHLAGDRSLSQGLKGDPTYLIVTADSTIEKYGLNAVCTHLGCVVPWVAAENKFKCPCHGSQYNAEGKVVRGPAPLSLALAHCDVAEGLVTFSTWTETDFRTGLEPWWA-QAAKDALGNDIKAGEWLKTHLAGDRSLSQGLKGDPTYLIVTADSTIEKYGLNAVCTHLGCVVPWVAAENKFKCPCHGSQYNAEGKVVRGPAPLSLALAHCDVAEGLVTFSTWTETDFRTGLEPWWA-QAAKDALGNDIKAGEWLKTHLAGDRSLSQGLKGDPTYLIVTADSTIEKYGLNAVCTHLGCVVPWVAAENKFKCPCHGSQYNAEGKVVRGPAPLSLALAHCDVAEGLVTFSTWTETDFRTGLEPWWA-QAAKDALGNDIKAGEWLKTHLAGDRSLSQGLKGDPTYLIVTADSTIEKYGLNAVCTHLGCVVPWVAAENKFKCPCHGSQYNAEGKVVRGPAPLSLALAHCDVAEGLVTFSTWTETDFRTGLEPWWA-QAAKDALGNDIKAGEWLKTHLAGDRSLSQGLKGDPTYLIVTADSTIEKYGLNAVCTHLGCVVPWVAAENKFKCPCHGSQYNAEGKVVRGPAPLSLALAHCDVAEGLVTFSTWTETDFRTGLEPWWA-QAAKDALGNDIKAGEWLKTHLAGDRSLSQGLKGDPTYLIVTADSTIEKYGLNAVCTHLGCVVPWVAAENKFKCPCHGSQYNAEGKVVRGPAPLSLALAHCDVAEGLVTFSTWTETDFRTGLEPWWA-QAAKDALGNDIKAGEWLKTHLAGDRSLSQGLKGDPTYLIVTADSTIEKYGLNAVCTHLGCVVPWVAAENKFKCPCHGSQYNAEGKVVRGPAPLSLALAHCDVAEGLVTFSTWTETDFRTGLEPWWA,EDPWNFPEDA-ADPWRFPEEP-EDPWNFPEEE-KDPWKFPEKP-KDPFKFPEEE-ENPWKFPEKP-PDPWRFPEDA-ADPWRFPEEP-EDPWNFPEEK-ENPWEFPEEP,ANPFATPLEI-ANPFATPLEI-ANPFATPLEI-ANPFATPLEI-ANPFATPLEI-ANPFATPLEI-ANPFATPLEI-ANPFATPLEI-ANPFATPLEI-ANPFATPLEI
12.0,53,63,B,10,MKLPDWNDPELQALWAEGRGGWRFGWPFWPTFAVYGLPVVLLALLAGVVAVRVLRPARAGAPVDPDRTPERLLPPWYAAPVAHVRRVTPSRAVGRLLELAVPLGLLLVPWLTRADRETHPGRRPGLLAAVVAGGLVWLWLGVGYLFPVERALTLGL-MKLPDWNDPELQALAAEGRGYDRFGLPFFPTFAVYGLPVVLLAALAGVLAVRLLRPARRGAPFDPDHTPERLLPPWYAAPVWHVGRVTPSRRLGLLLALAVPLGALLVPWLTRADPHVHPGRRPGLLAAVVAGGFLVAWLGVGSLFPVERALTLGL-MKLPDLSDPELVALLEKGEGYDRFGYPFWPTFAVYGLPVVLLAVLVGVVAVRVTRPARRGAPLDPDRTPERLLPPWYAAPVWHVGRVTPSRVVGRLLALAVPLGLLLVPVLTRRDRETDPGRRPGLLAVVVAGGFVVVWLGVGSLFPVERALTLGL-MKLPDWNDPELQALAAEGRGYDRFGFPFFPTFAVYGLPVVLLALLAGVLAVRLLRPARAGAPFDPDHTPAVDLPPWYAAPVAHVRRTTPSRAVGRLLELAVPLGALLVPWLTRADRHDHPGRRPGLLAAVLAGGFVVVWLGVGYLFPVERALTLDL-MKLPDLSDPELVALLAEGRGYDRFGFPFWPTFAVYGLPVVLLAALAGVLAVRLLRPARRGAPFDPDRTPAVDLPPWYAAPVAHVRRTTPSRAVGRLLELAVPLGLLLVPVLTRADRHADPGRRPGLLAAVVAGGLVVVWLGVGYLFPAERALTLGL-MKLPDWNDPELQALAAKGEGGWRFGFPFWPTFAVYGLPVVLLAVLAGVLAVRVLRPARAGAPFDPNHTPEVDLPPWYAAPVWHVGRVTPSRAVGRLLALAVPLGALLVPWLTRADRHTHPGRRPGLLAAVVAGGFVVVWLGVGSLFPVERALTLGL-MKLPDWSDPELQALAAEGRGYDRFGFPFWPTFAVFGLPVVLLAALAGVVAVRVTRPARAGAPFDPDRTPERALPPWYAAPVWHVGRVTPSRAVGRLLALAVPLGLLLVPWLTRADPHDDPGRRPGLLAAVVAGGFVVAWLGVGSLFPRERALTLGL-MKLPDLSDPELVALLAEGRGYGRFGLPFFPTFAVFGLPVVLVAVFVGVRAVRRRFPARAGAPVDPDRTPAVDLPPWFAAPVAHVRRTTPSRVVGNLLALAVPVGLLLVPVLTRRDRETSPGRRPGLLAAVVAGGFVVVWLGVGYLFPVERALTLGL-MKLPDWNDPELQALAAEGRGYDRFGFPFWPTFAVWGLPVVLLAALAGVVAVRLTRPARAGAPFDPDHTPERLLPPWYAAPVWHVGRVTPSRAVGRLLALAVPLGALLVPWLTRADPHLDPGRRPGLLAAVVAGGFVVAWLGVGSLFPRERALTLGL-MKLPDLSDPELVALLAEGRGFDRFGLPFFPTFAVYGLPVVLLAALAGVLAVRLLRPARAGAPFDPAHTPERALPPWYAAPVWHVGRATPSRALGRLLALAVPLGALLVPWLTAADPHWHPGRRPGLLAAVVAGGFVVAFLGVGSLFPVERALTLGL,TKKPDLSDPVLKAKLAKGMGHNTYGEPAWPNDLLYMFPVVILGTFACVIGLSVLDPAAMGEPANPFATPLEILPEWYFYPVFQILRVVPNKLLGVLLMAAVPAGLITVPFIESINKFQNPYRRPIATILFLLGTLVAVWLGIGSTFPIDISLTLGL-TKKPDLSDPVLKAKLAKGMGHNTYGEPAWPNDLLYMFPVVILGTFACVIGLSVLDPAAMGEPANPFATPLEILPEWYFYPVFQILRVVPNKLLGVLLMAAVPAGLITVPFIESINKFQNPYRRPIATILFLLGTLVAVWLGIGSTFPIDISLTLGL-TKKPDLSDPVLKAKLAKGMGHNTYGEPAWPNDLLYMFPVVILGTFACVIGLSVLDPAAMGEPANPFATPLEILPEWYFYPVFQILRVVPNKLLGVLLMAAVPAGLITVPFIESINKFQNPYRRPIATILFLLGTLVAVWLGIGSTFPIDISLTLGL-TKKPDLSDPVLKAKLAKGMGHNTYGEPAWPNDLLYMFPVVILGTFACVIGLSVLDPAAMGEPANPFATPLEILPEWYFYPVFQILRVVPNKLLGVLLMAAVPAGLITVPFIESINKFQNPYRRPIATILFLLGTLVAVWLGIGSTFPIDISLTLGL-TKKPDLSDPVLKAKLAKGMGHNTYGEPAWPNDLLYMFPVVILGTFACVIGLSVLDPAAMGEPANPFATPLEILPEWYFYPVFQILRVVPNKLLGVLLMAAVPAGLITVPFIESINKFQNPYRRPIATILFLLGTLVAVWLGIGSTFPIDISLTLGL-TKKPDLSDPVLKAKLAKGMGHNTYGEPAWPNDLLYMFPVVILGTFACVIGLSVLDPAAMGEPANPFATPLEILPEWYFYPVFQILRVVPNKLLGVLLMAAVPAGLITVPFIESINKFQNPYRRPIATILFLLGTLVAVWLGIGSTFPIDISLTLGL-TKKPDLSDPVLKAKLAKGMGHNTYGEPAWPNDLLYMFPVVILGTFACVIGLSVLDPAAMGEPANPFATPLEILPEWYFYPVFQILRVVPNKLLGVLLMAAVPAGLITVPFIESINKFQNPYRRPIATILFLLGTLVAVWLGIGSTFPIDISLTLGL-TKKPDLSDPVLKAKLAKGMGHNTYGEPAWPNDLLYMFPVVILGTFACVIGLSVLDPAAMGEPANPFATPLEILPEWYFYPVFQILRVVPNKLLGVLLMAAVPAGLITVPFIESINKFQNPYRRPIATILFLLGTLVAVWLGIGSTFPIDISLTLGL-TKKPDLSDPVLKAKLAKGMGHNTYGEPAWPNDLLYMFPVVILGTFACVIGLSVLDPAAMGEPANPFATPLEILPEWYFYPVFQILRVVPNKLLGVLLMAAVPAGLITVPFIESINKFQNPYRRPIATILFLLGTLVAVWLGIGSTFPIDISLTLGL-TKKPDLSDPVLKAKLAKGMGHNTYGEPAWPNDLLYMFPVVILGTFACVIGLSVLDPAAMGEPANPFATPLEILPEWYFYPVFQILRVVPNKLLGVLLMAAVPAGLITVPFIESINKFQNPYRRPIATILFLLGTLVAVWLGIGSTFPIDISLTLGL,PDARTGRVVR-PCARCGAVLR-PCARCGAVVR-PCARCGRVVR-PCARCGRVVR-PDARTGRVVR-PCARCGAVVR-PCARCGRVVR-RCARCGAVVR-RCARCGAVVR,VCTHLGCVVP-VCTHLGCVVP-VCTHLGCVVP-VCTHLGCVVP-VCTHLGCVVP-VCTHLGCVVP-VCTHLGCVVP-VCTHLGCVVP-VCTHLGCVVP-VCTHLGCVVP
