contacts,cs,ce,Chain,Length,designed_receptor_seq,native_receptor_seq,designed_binder_seq,native_binder_seq
20.0,97,107,A,10,ALVQTPSSITKNVGESLTINNTVTNASYSLGSTCWYHKASSSGSWSTITLGGRYVETVNTSTKTFSLTVTNLTTADSGTYVGGLGVLGGYCDYSLCSSSYAVCGSGTSVTVN-ALVQTPSSVTKNVGESLTINNTVTNASYSLGSTCWYHKASGSGSWSTLTLGGRYVETVNTSTKTFSLTVTNLTTADSGTYVGGLGVLGGYCDYSLCSSSYSVCGSGTSVTVN-ALVQTPSSVTKNVGESLTINNTVTNASYALGSTCWYHKASGSGSWSTLTLGGRYVETVNTSTKTFSLTVTNLTTADSGTYVGGLGVLGGYCDYSLCSSSYSVCGSGTSVTVN-ALVQTPSSVTKNVGESLTINNTVTNASYSLGSTCWYHKASGSGSWSTITLGGKYVETVNTSTKTFSLTVTNLTTADSGTYVGGLGVLGGFCDYSLCSSSYSVCGSGTSVTVN-ALVQTPSSVTKNVGESLTINNTVTNASYALGSTCWYHKASGSGSWSTLTLGGRYVETVNTSTKTFSLTVTNLTTADSGTYVGGLGVLGGYCDYSLCSSSYSVCGSGTSVTVN-ALVQTPSSVTKNVGESLTINNTVTNASYSLGSTCWYHKASGSGSWSTITLGGRYVETVNTSTKTFSLTVTNLTTADSGTYVGGLGVLGGYCDYSLCSSSYSVCGSGTSVTVN-ALVQTPSSVTKNVGESLTINNTLTNASYSLGSTCWYHKASGSGSWSTLTLGGRYVETVNTSTKTFSLTVTNLTTSDSGTYVGGLGVLGGFCDYSLCSSSYSVCGSGTSVTVN-ALVQTPSSVTKNVGESLTINNTVTNASYSLGSTCWYHKASGSGSWSTLTLGGRYVETVNTSTKTFSLTVTNLTTADSGTYVGGLGVLGGYCDYSLCSSSYSVCGSGTSVTVN-ALVQTPSSVTKNVGESLTINNTVTNASYSLGSTCWYHKASGSGSWSTLTLGGRYVETVNSSTKTFSLTVTNLTTADSGTYVGGLGVLGGYCDYSLCSSSYAVCGSGTSVTVN-ALVQTPSSITKNVGESLTINNTVTNASYALGSTCWYHKAAGSGSWSTLTLGGRYVETVNTSTKTFSLTVTNLTTADSGTYVGGLGVLGGYCDYSLCSSSYSVCGSGTAVTVN,RVDQTPRSVTKETGESLTINCVLRDASYALGSTCWYRKKSGEGNEESISKGGRYVETVNSGSKSFSLRINDLTVEDGGTYRCGLGVAGGYCDYALCSSRYAECGDGTAVTVN-RVDQTPRSVTKETGESLTINCVLRDASYALGSTCWYRKKSGEGNEESISKGGRYVETVNSGSKSFSLRINDLTVEDGGTYRCGLGVAGGYCDYALCSSRYAECGDGTAVTVN-RVDQTPRSVTKETGESLTINCVLRDASYALGSTCWYRKKSGEGNEESISKGGRYVETVNSGSKSFSLRINDLTVEDGGTYRCGLGVAGGYCDYALCSSRYAECGDGTAVTVN-RVDQTPRSVTKETGESLTINCVLRDASYALGSTCWYRKKSGEGNEESISKGGRYVETVNSGSKSFSLRINDLTVEDGGTYRCGLGVAGGYCDYALCSSRYAECGDGTAVTVN-RVDQTPRSVTKETGESLTINCVLRDASYALGSTCWYRKKSGEGNEESISKGGRYVETVNSGSKSFSLRINDLTVEDGGTYRCGLGVAGGYCDYALCSSRYAECGDGTAVTVN-RVDQTPRSVTKETGESLTINCVLRDASYALGSTCWYRKKSGEGNEESISKGGRYVETVNSGSKSFSLRINDLTVEDGGTYRCGLGVAGGYCDYALCSSRYAECGDGTAVTVN-RVDQTPRSVTKETGESLTINCVLRDASYALGSTCWYRKKSGEGNEESISKGGRYVETVNSGSKSFSLRINDLTVEDGGTYRCGLGVAGGYCDYALCSSRYAECGDGTAVTVN-RVDQTPRSVTKETGESLTINCVLRDASYALGSTCWYRKKSGEGNEESISKGGRYVETVNSGSKSFSLRINDLTVEDGGTYRCGLGVAGGYCDYALCSSRYAECGDGTAVTVN-RVDQTPRSVTKETGESLTINCVLRDASYALGSTCWYRKKSGEGNEESISKGGRYVETVNSGSKSFSLRINDLTVEDGGTYRCGLGVAGGYCDYALCSSRYAECGDGTAVTVN-RVDQTPRSVTKETGESLTINCVLRDASYALGSTCWYRKKSGEGNEESISKGGRYVETVNSGSKSFSLRINDLTVEDGGTYRCGLGVAGGYCDYALCSSRYAECGDGTAVTVN,SSSDGIGSGG-SSSDGIGSGG-SSSDGIGSGG-GSSDGIGSGG-VTSDGIGSGA-TTTDGIGSGG-TTTDGIGSGG-SSSDGIGSGG-SSSDGIGSGG-TTTDGIGTGG,IVSDGNGMNA-IVSDGNGMNA-IVSDGNGMNA-IVSDGNGMNA-IVSDGNGMNA-IVSDGNGMNA-IVSDGNGMNA-IVSDGNGMNA-IVSDGNGMNA-IVSDGNGMNA
16.0,91,101,B,10,CVYGRCELAKALAAKGLDNYQGYPLGNWVCAAKYESGFNCRATRRNPDGSVDYGLFQINSRWWCDDGRTPNARNLCNVRCSALLSCDPTTSVECAKKIVSSGNGMGAWTAWVRHCRGTNVSAYVRGCNL-CTYGRCELAKALKAKGLDNYQGYALGNWVCAAKYESGFNCQATNANPDGSVDYGLFQINSRWWCDDGKTPNARNLCNVSCSSLLSCDPTTSVNCAKKIVSSGNGMGAWTAWVNNCKGTNVSSYTSGCNL-CVYGRCELAKAFAAKGLDNYEGYALGNWVCAAKYESGFNCSATNANPDGSVDYGLFQINSRWWCDDGKTPNARNLCNVSCSSLLSDDPTVSVECAKKIVSSGNGMGAWTAWVNNCKGTNVSSYVSGCNL-CTYGRCELAKAFAAKGLDNYQGYALGNWVCAAKYESGFNCQATNANPDGSVDYGLFQINSRWWCDDGNTPNARNLCNVSCSSLLSCDPTTSVNCAKKIVSSGNGMGAWTAWVNNCNGTNVSSYTSGCNL-CVYGRCELAKALKEKGLDNYQGYPLGNWVCAAKYESGFNCMATRRNPDGSVDYGLFQINSRWWCDDGKTPNARNLCNVSCSELLSCDPTKSVECAKKIVSSGNGMGAWTAWVNHCKGTNVSSYVKGCDL-CVFGRCELAKAFAKLGLDNYEGYPLGNWVCAAKYESGFNTKATNANPDGSVDYGLFQINSRWWCDDGKTPNAKNRCNISCSKLLSCDPTASVECAKKIVSSGNGMGAWTAWVNNCKGTDVGKYVEGCDL-CVYGRCELAKAFAAKGLDNYQGYALGNWVCAAKYESGFNCQATNANPDGSVDYGLFQINSRWWCDDGNTPNARNLCNVSCSSLLSCDPTTSVNCAKKIVSSGNGMGAWTAWVNNCNGTNVSSYTSGCNL-GVFGRCELAKELKEKGLDNYEGYPLGNWVCAAKYESGFNTKATNKNPDGSVDYGLFQINSKWWCDDGKTPNARNLCNVSCSELLSDDPTKSVECAKKIVSSGNGMGAWTAWVNNCKGTDVDKYVEGCDL-CVYGRCELAKAFAAKGLDNYQGYALGNWVCAAKYESGFNCSATNANPDGSVDYGLFQINSRWWCDDGNTPNARNLCNVSCSSLLSDDPTTSVNCAKKIVSSGNGMGAWTAWVNNCNGTNVGSYVSGCNL-CVYGRCELAKALAAKGLDNYQGYALGNWVCAAKYESGFNCQATNANPDGSVDYGLFQINSRWWCDDGKTPNALNRCNVSCSSLLSCDPTTSVNCAKKIVSSGNGMGAWTAWVNNCKGTNVSSYTQGCNL,KVFGRCELAAAMKRHGLDNYRGYSLGNWVCAAKFESNFNTQATNRNTDGSTDYGILQINSRWWCNDGRTPGSRNLCNIPCSALLSSDITASVNCAKKIVSDGNGMNAWVAWRNRCKGTDVQAWIRGCRL-KVFGRCELAAAMKRHGLDNYRGYSLGNWVCAAKFESNFNTQATNRNTDGSTDYGILQINSRWWCNDGRTPGSRNLCNIPCSALLSSDITASVNCAKKIVSDGNGMNAWVAWRNRCKGTDVQAWIRGCRL-KVFGRCELAAAMKRHGLDNYRGYSLGNWVCAAKFESNFNTQATNRNTDGSTDYGILQINSRWWCNDGRTPGSRNLCNIPCSALLSSDITASVNCAKKIVSDGNGMNAWVAWRNRCKGTDVQAWIRGCRL-KVFGRCELAAAMKRHGLDNYRGYSLGNWVCAAKFESNFNTQATNRNTDGSTDYGILQINSRWWCNDGRTPGSRNLCNIPCSALLSSDITASVNCAKKIVSDGNGMNAWVAWRNRCKGTDVQAWIRGCRL-KVFGRCELAAAMKRHGLDNYRGYSLGNWVCAAKFESNFNTQATNRNTDGSTDYGILQINSRWWCNDGRTPGSRNLCNIPCSALLSSDITASVNCAKKIVSDGNGMNAWVAWRNRCKGTDVQAWIRGCRL-KVFGRCELAAAMKRHGLDNYRGYSLGNWVCAAKFESNFNTQATNRNTDGSTDYGILQINSRWWCNDGRTPGSRNLCNIPCSALLSSDITASVNCAKKIVSDGNGMNAWVAWRNRCKGTDVQAWIRGCRL-KVFGRCELAAAMKRHGLDNYRGYSLGNWVCAAKFESNFNTQATNRNTDGSTDYGILQINSRWWCNDGRTPGSRNLCNIPCSALLSSDITASVNCAKKIVSDGNGMNAWVAWRNRCKGTDVQAWIRGCRL-KVFGRCELAAAMKRHGLDNYRGYSLGNWVCAAKFESNFNTQATNRNTDGSTDYGILQINSRWWCNDGRTPGSRNLCNIPCSALLSSDITASVNCAKKIVSDGNGMNAWVAWRNRCKGTDVQAWIRGCRL-KVFGRCELAAAMKRHGLDNYRGYSLGNWVCAAKFESNFNTQATNRNTDGSTDYGILQINSRWWCNDGRTPGSRNLCNIPCSALLSSDITASVNCAKKIVSDGNGMNAWVAWRNRCKGTDVQAWIRGCRL-KVFGRCELAAAMKRHGLDNYRGYSLGNWVCAAKFESNFNTQATNRNTDGSTDYGILQINSRWWCNDGRTPGSRNLCNIPCSALLSSDITASVNCAKKIVSDGNGMNAWVAWRNRCKGTDVQAWIRGCRL,PPELRRSAFW-PSDLASSAFY-PSDLASSAFY-PSDLSSSAFY-PSDLASSAFY-DPDLAKSAYC-PSDLASSAFY-PGDLASSAFY-PSDLASSAFY-PSSLASSAFY,DYALCSSRYA-DYALCSSRYA-DYALCSSRYA-DYALCSSRYA-DYALCSSRYA-DYALCSSRYA-DYALCSSRYA-DYALCSSRYA-DYALCSSRYA-DYALCSSRYA
