contacts,cs,ce,Chain,Length,designed_receptor_seq,native_receptor_seq,designed_binder_seq,native_binder_seq
27.0,233,243,A,10,GPLQGPLGPLPQYTPSEPLLYRTLTGENGAILSVNTTAANSALVALPLSASKQFGDIQNWKCERGNRPRTFRFINQKLGTCVEAKGDGLIHTECSDNDLRQEFELIPTDTGKVMIKSVAGGLCVTYNPQSSGPASTVTLSTCDGSQNPTRDQEWSLSPPHLEQVPVD-SELVGPSGPVPQYRPLAPDLFMTLRGSNGALLTVHDLEANNALYAYPLSASLHFGDVVNWRMERGKRPETYRFVNQRLGLCVEAYGDGLVHTVCSDDRLAQEFRLIPTDTGAVMIKSVAGGLCVTYNPQSDGPHSTVSLDVCDGSQEPLRDQRWLLAPPHMLAFPRD-GPLLGPSGPLPQFRPLEPLLFRTLQGQNGALLSVWLRTADNALYAFPLSASVHFGDVQNWRMEHGRDPQTFRFVNQALGTCVEASGDGLIHSVCSDDKLAQQFRLIPTDTGAVQIESVAGGLCVTYNPESEGPRSTVTLSVCDGSAAPDRNQQWLLAPPHLPQVSVE-MPLLGPNGPVPVYNPAEPDRYRTLTGRNGAIVTVYERDADNRLYAFPASRSERFGDVQNWEMRRGRDPATFRFVNQALGTCVEARADGLIHTQCSDDDLAQEFELIPTDRGLVRIRSVAGGLCVTYNPDSTGPYSLVTLDVCDGSTEPSRDQEWALSPPVLDRYPRA-GPLIGPHGPRPHYAPLEPDRYRTLTGVNGAILSVYRREADQRLYAYPLSRSTHFGDVQNWAMEPGRDAQTYRFRNQELGTCVEASGDGLIHTRCSEGKLAQEFELIPTDEGLVRIRSVAGGRCVTYNPRSHGPHSVVRLEACDGAQLPDRAQQWRLSPPHLVRYPRV-APLLGPLGPLPQYIPREPLLYRTLQGQNGALLSVYQRDANQSLYAYPLRTSRHFGDIQNWRMLPGRRPQTFRFVNQALGTCVEARGDGLVHTACSSGRLAQEFRLLPTDRGLVQIQSVAGGLCVTYNPDSGGPNSSVTLSACDGSRLPTRDQEWSLAPPVLPAFPLG-SNALGPTGPRPQWNPLEPDRYRTLTGRNGALLAVYNREANNRLYAYPLSAAGHFGDIQNWEMRRGKHPQTFRFVNQQLGLCVEARGDGLVHVTCSDNDLAQEFRLIPTETGRVMIESVAGGLCVDYNPTSDGPFSRVTLSACDGSQQPLRNQEWSLSPPVLFQVGRS-GPLVGPLGPVPRYLPLEPLGYRTLQGQNGALLTVKDRAADNLLYAYPYETSQSFGDIQNWRMERGRNTQTFRFVNQSLGLCVTAYGDGLIHTTCSEDDLAQEFELIPTDTGRVMIKSVAGGLCVTYNPQSDGPNSVVTLSECNGSQLPDRDQEWSLAPPVLPQHPLS-GPLLGPLGPLPQYQPAEPLLYRTLRGSNGALLTVYQGAANQRLYAFPLSASKHFGDVQNWRMELGKDPQTYRFINQKLGTCVEASGDGLIHNTCSADKLNQEFRLIPTDRGLVMIQSVAQGLCVTYNPESDGPYSVVSLERCDGSVLPNRSQEWSLAPPVLPRFPLS-GPLQGPLGPLPQWQPEEPDYYMTLQGRNGALLTVWQREADQRLYAFPLEESRHFGDVVNWQMLPGKRARTYRFINQQLGLCVEAAGNGLIHTSCSDDKLSQEFELIPTDDGLVQIRSVAGGLCVTYNPESNGPSSVVTLSECDGSQLPLRDQEWSLSPPHLPRVPRN,LNLLSSSGPNRQVLPSEPSNFMTLMGQNGALLTVWALAKRNWLWAYPNIYSQDFGNIRNWKMEPGKHREYFRFVNQSLGTCVEAYGNGLIHDICSLDKLAQEFELLPTDSGAVVIKSVSQGRCVTYNPVSTTFYSTVTLSVCDGATEPSRDQTWYLAPPVLEATAVN-LNLLSSSGPNRQVLPSEPSNFMTLMGQNGALLTVWALAKRNWLWAYPNIYSQDFGNIRNWKMEPGKHREYFRFVNQSLGTCVEAYGNGLIHDICSLDKLAQEFELLPTDSGAVVIKSVSQGRCVTYNPVSTTFYSTVTLSVCDGATEPSRDQTWYLAPPVLEATAVN-LNLLSSSGPNRQVLPSEPSNFMTLMGQNGALLTVWALAKRNWLWAYPNIYSQDFGNIRNWKMEPGKHREYFRFVNQSLGTCVEAYGNGLIHDICSLDKLAQEFELLPTDSGAVVIKSVSQGRCVTYNPVSTTFYSTVTLSVCDGATEPSRDQTWYLAPPVLEATAVN-LNLLSSSGPNRQVLPSEPSNFMTLMGQNGALLTVWALAKRNWLWAYPNIYSQDFGNIRNWKMEPGKHREYFRFVNQSLGTCVEAYGNGLIHDICSLDKLAQEFELLPTDSGAVVIKSVSQGRCVTYNPVSTTFYSTVTLSVCDGATEPSRDQTWYLAPPVLEATAVN-LNLLSSSGPNRQVLPSEPSNFMTLMGQNGALLTVWALAKRNWLWAYPNIYSQDFGNIRNWKMEPGKHREYFRFVNQSLGTCVEAYGNGLIHDICSLDKLAQEFELLPTDSGAVVIKSVSQGRCVTYNPVSTTFYSTVTLSVCDGATEPSRDQTWYLAPPVLEATAVN-LNLLSSSGPNRQVLPSEPSNFMTLMGQNGALLTVWALAKRNWLWAYPNIYSQDFGNIRNWKMEPGKHREYFRFVNQSLGTCVEAYGNGLIHDICSLDKLAQEFELLPTDSGAVVIKSVSQGRCVTYNPVSTTFYSTVTLSVCDGATEPSRDQTWYLAPPVLEATAVN-LNLLSSSGPNRQVLPSEPSNFMTLMGQNGALLTVWALAKRNWLWAYPNIYSQDFGNIRNWKMEPGKHREYFRFVNQSLGTCVEAYGNGLIHDICSLDKLAQEFELLPTDSGAVVIKSVSQGRCVTYNPVSTTFYSTVTLSVCDGATEPSRDQTWYLAPPVLEATAVN-LNLLSSSGPNRQVLPSEPSNFMTLMGQNGALLTVWALAKRNWLWAYPNIYSQDFGNIRNWKMEPGKHREYFRFVNQSLGTCVEAYGNGLIHDICSLDKLAQEFELLPTDSGAVVIKSVSQGRCVTYNPVSTTFYSTVTLSVCDGATEPSRDQTWYLAPPVLEATAVN-LNLLSSSGPNRQVLPSEPSNFMTLMGQNGALLTVWALAKRNWLWAYPNIYSQDFGNIRNWKMEPGKHREYFRFVNQSLGTCVEAYGNGLIHDICSLDKLAQEFELLPTDSGAVVIKSVSQGRCVTYNPVSTTFYSTVTLSVCDGATEPSRDQTWYLAPPVLEATAVN-LNLLSSSGPNRQVLPSEPSNFMTLMGQNGALLTVWALAKRNWLWAYPNIYSQDFGNIRNWKMEPGKHREYFRFVNQSLGTCVEAYGNGLIHDICSLDKLAQEFELLPTDSGAVVIKSVSQGRCVTYNPVSTTFYSTVTLSVCDGATEPSRDQTWYLAPPVLEATAVN,QAPPLDLLRR-PAPPLHLLRG-PSPPLHLLRS-PAPPLHLLRP-PRPALHLLRG-PTPPLHLLRR-PAPPLHLLRG-SAPPLHLLRG-PSPPLHLLRD-PRPPLHLLKR,ASLMLNQLRS-ASLMLNQLRS-ASLMLNQLRS-ASLMLNQLRS-ASLMLNQLRS-ASLMLNQLRS-ASLMLNQLRS-ASLMLNQLRS-ASLMLNQLRS-ASLMLNQLRS
21.0,61,71,B,10,SIADYKVATWNMEGSSSVNQSKWHTNVKELLKGELGADILTIQEGGDLPSDAKRTNTNYQNGGVPIEEYTWNLGTEENPDLVYIYYSNLDSGTNKENLMIVSRQKADKTYVVNSDDSSFGTRPAIGIQIGNNVFFTVHCLPNNGLDAVSLIANIHDTFKNSSEYQNYSYLVVGDFNQAPAALSDRLKAYPDVYQNTVIIAPTKPTHTSGNVLDYAIMHDANLPRNQQYATKICASNADYLRKSSIMSDHYPVQFVRKV-ELSAYKVATWNMNGSSSVNESKWNSNVKQLLQGSNGADILTIQEGGSLPSSATRTNYNYLSGGTPIEEYTWNLGTASNPDMVYIYYSGLDTGSGNRNLAIISRTKADRVYVVRSDASSRGTRPAIGIAIGDDVFFTVHCLPNGGVDSVSLVRNIHNTFKGSSSNSSYSYLIVGDFNQAPLSLQNALGSYPDVYNNTVIVAPTQPTHTSGNILDYAILHDAALPTNQQSQTQICASPAFYLAQSAVLSDHYPVAFVKNV-SLASYRVATWNLQGSKAVNEVKWNTNVRQLLEGEYGADILTVQEAGDLPSSAQRTSDVYQSGGVPIEKYTWNLGTDEKPDMVYIYYSNLDSGNNMRNLAIISRTKADKVYIIKSDESKYGTRPAVGIQIGRNVFFTVHNLPNGGVDSVTLIRNIHDTFLSDPSKKEYSYLVVGDFNQAPSTLKSRLGAYPDVYNNTVIVAPTKATHTSGNILDYAILHDADLPSNEQDRVKICASNAGGLLKSQVLSDHYPVAFIKKT-DISAYKVATWNMNGSATSNESKWNVNVKQLLSGSLGADILTIQEAGRLPSAAVRTTNNYQSGGVPIDEYTWNLGTASNPNLVYIYYSNLDTGSNRKNLAIVSRTAANKMYIVNSDSSSSGNRPAVGIQIGSDVFFTVHCLPNGGSDSVSLIRNIHNTFRNSSSFASYSWLVVGDFNQAPSTLSTALGAYPNVYNNTYIVSPTQPTHTSGNILDYAILHDASLPSLQQSQTQICASNADYLLNSTVQSDHYPVAFVKKN-ALSSYRVATWNLAGSSNVNTSKWNTNVKQLLEGSLGADILCIQEAGELPATAKKTDTNYQNGGTPIEEYTWNLGSDSNPDMVYIYYSNLDTGSNQRNLAIVSRTKADKVYVVHSDDSDLGTRPAIGIAIGNDVFFTVHTLPDGGIDSVSLVRNIHDTFYDNTSYKSYSYLIVGDFNQAPASLNTALGSYPEVYNNTVIIAPTQPTHTSGNILDYAILHDASLPSRQQSQTQICASPALHLLKSTVLSDHYPVAFVKQS-GIEDYFVSSWNLQGSSEINEVKWNVNVRQLLSGQNGSDILTVQEGGELPSSAVRTNVNYQNGGVPIEEYTWNLGSEDNPDMVYIYYSNLDTGKNKRNLAIISRRKADKVYVVNSDASSLGNRPAIGIQIGNDVFFTVHALPENGIDSVSLIRNIHDTFENNPENRSKSWLVVGDFNQAPSTLNTRLGSYPDVYNNTVIVSPTLPTHTSGNILDYAILHDARLPSNQQWRTRICASNAYYLQNSEILSDHLPVAFVRLR-SLASFNVCSWNLQGSTTTNQIKWHTNVRELLSGEQGCDILTVQEAGLLPSSAIRTDINLTNGGVPIEEYTWNLGTSSTPNLVYIYYSGLDQGTNRENLAIISRTAADQTFVVNADASSLGTRPAIGIAIGNNVFFTVHCLPNNGIDSVSLIRNIHDTFNTNPLYQSYSWLIVGDFNQAPASLDSALGAYPNVYNNTVIVAPTQPTHTSGNILDYAILHDASLPSNQQSQTQICASNAYNLMASTILSDHFPVSFIACN-SLSSYKVCSWNLRGSSSVNQSKWNVNVKQLLSGNLGCDILTVQEAGDLPSAAVRTSTNLQNGGVPIEEYTWNLGTVTNPDLVYIYYSALDTGSNQRNLAIISRTQADKTYIVHSDKSSLGSRPAVGIGIGNNVFFTVYCLPNNGIDSVSLVKNIHDTFKGSKERLVNSWLIVGDFNQAPSSLNSRLKSYPDVYRNTVIVAPSQPTHTSGNILDYAILHNASLPSRQQSKTRICASNAYYLLNSEILSDHYPVSFVKEK-TLDDFKVATWNLQGSTAVNEIKWNVNVRELLQGELGADILTIQEGGDLPSSAVRTNVNLQGGGTPIEEYTWNLGTALFPDMVYIYYSKLDTGKGQRNLAIISRTRADQTYVVHSDASNLGTRPAVGIAIGKDVFFTVHCLPSGGVDSVSLIRNIHDTFNNSLDRQSYSYLVVGDFNRAPNSLSVALRSYPDVYNNTVIVAPTLPTHRSGAILDYAILHDASLPSNEQYRTQICASNADHLLKSEVLSDHYPVAFVKRL-SISSYKIASWNLNGSSSSNTSKWNTNVKELLEGSNGADILTIQEAGNLPSSATLTSTNFQNGGTPISEYTWNLGSSSSPNMVYIYYSNLDSGNNQKNLAIISRTKADKVYVVNADSSSYGTRPAVGIAIGKNVFFTVHCLPSGGSDSVSLIKNIHDTFNNNSSYQSYSWLIVGDFNQAPSTLNTALGSYPNVYNNTVIIAPTLPTHNSGNILDYAILNDASLPSNQQSNTKICASNAYLLKNSTILSDHYPVSFVKAN,NLSDFKVATWNLQGSSAVNESKWNINVRQLLSGEQGADILMVQEAGSLPSSAVRTSRVIQHGGTPIEEYTWNLGTRSRPNMVYIYYSRLDVGANRVNLAIVSRRQADEAFIVHSDSSVLQSRPAVGIRIGTDVFFTVHALATGGSDAVSLIRNIFTTFNSPPERRVYSWMVVGDFNRAPANLEVALRQEPAVSENTIIIAPTEPTHRSGNILDYAILHDAHLPRREQARERIGASLMLNQLRSQITSDHFPVSFVRDR-NLSDFKVATWNLQGSSAVNESKWNINVRQLLSGEQGADILMVQEAGSLPSSAVRTSRVIQHGGTPIEEYTWNLGTRSRPNMVYIYYSRLDVGANRVNLAIVSRRQADEAFIVHSDSSVLQSRPAVGIRIGTDVFFTVHALATGGSDAVSLIRNIFTTFNSPPERRVYSWMVVGDFNRAPANLEVALRQEPAVSENTIIIAPTEPTHRSGNILDYAILHDAHLPRREQARERIGASLMLNQLRSQITSDHFPVSFVRDR-NLSDFKVATWNLQGSSAVNESKWNINVRQLLSGEQGADILMVQEAGSLPSSAVRTSRVIQHGGTPIEEYTWNLGTRSRPNMVYIYYSRLDVGANRVNLAIVSRRQADEAFIVHSDSSVLQSRPAVGIRIGTDVFFTVHALATGGSDAVSLIRNIFTTFNSPPERRVYSWMVVGDFNRAPANLEVALRQEPAVSENTIIIAPTEPTHRSGNILDYAILHDAHLPRREQARERIGASLMLNQLRSQITSDHFPVSFVRDR-NLSDFKVATWNLQGSSAVNESKWNINVRQLLSGEQGADILMVQEAGSLPSSAVRTSRVIQHGGTPIEEYTWNLGTRSRPNMVYIYYSRLDVGANRVNLAIVSRRQADEAFIVHSDSSVLQSRPAVGIRIGTDVFFTVHALATGGSDAVSLIRNIFTTFNSPPERRVYSWMVVGDFNRAPANLEVALRQEPAVSENTIIIAPTEPTHRSGNILDYAILHDAHLPRREQARERIGASLMLNQLRSQITSDHFPVSFVRDR-NLSDFKVATWNLQGSSAVNESKWNINVRQLLSGEQGADILMVQEAGSLPSSAVRTSRVIQHGGTPIEEYTWNLGTRSRPNMVYIYYSRLDVGANRVNLAIVSRRQADEAFIVHSDSSVLQSRPAVGIRIGTDVFFTVHALATGGSDAVSLIRNIFTTFNSPPERRVYSWMVVGDFNRAPANLEVALRQEPAVSENTIIIAPTEPTHRSGNILDYAILHDAHLPRREQARERIGASLMLNQLRSQITSDHFPVSFVRDR-NLSDFKVATWNLQGSSAVNESKWNINVRQLLSGEQGADILMVQEAGSLPSSAVRTSRVIQHGGTPIEEYTWNLGTRSRPNMVYIYYSRLDVGANRVNLAIVSRRQADEAFIVHSDSSVLQSRPAVGIRIGTDVFFTVHALATGGSDAVSLIRNIFTTFNSPPERRVYSWMVVGDFNRAPANLEVALRQEPAVSENTIIIAPTEPTHRSGNILDYAILHDAHLPRREQARERIGASLMLNQLRSQITSDHFPVSFVRDR-NLSDFKVATWNLQGSSAVNESKWNINVRQLLSGEQGADILMVQEAGSLPSSAVRTSRVIQHGGTPIEEYTWNLGTRSRPNMVYIYYSRLDVGANRVNLAIVSRRQADEAFIVHSDSSVLQSRPAVGIRIGTDVFFTVHALATGGSDAVSLIRNIFTTFNSPPERRVYSWMVVGDFNRAPANLEVALRQEPAVSENTIIIAPTEPTHRSGNILDYAILHDAHLPRREQARERIGASLMLNQLRSQITSDHFPVSFVRDR-NLSDFKVATWNLQGSSAVNESKWNINVRQLLSGEQGADILMVQEAGSLPSSAVRTSRVIQHGGTPIEEYTWNLGTRSRPNMVYIYYSRLDVGANRVNLAIVSRRQADEAFIVHSDSSVLQSRPAVGIRIGTDVFFTVHALATGGSDAVSLIRNIFTTFNSPPERRVYSWMVVGDFNRAPANLEVALRQEPAVSENTIIIAPTEPTHRSGNILDYAILHDAHLPRREQARERIGASLMLNQLRSQITSDHFPVSFVRDR-NLSDFKVATWNLQGSSAVNESKWNINVRQLLSGEQGADILMVQEAGSLPSSAVRTSRVIQHGGTPIEEYTWNLGTRSRPNMVYIYYSRLDVGANRVNLAIVSRRQADEAFIVHSDSSVLQSRPAVGIRIGTDVFFTVHALATGGSDAVSLIRNIFTTFNSPPERRVYSWMVVGDFNRAPANLEVALRQEPAVSENTIIIAPTEPTHRSGNILDYAILHDAHLPRREQARERIGASLMLNQLRSQITSDHFPVSFVRDR-NLSDFKVATWNLQGSSAVNESKWNINVRQLLSGEQGADILMVQEAGSLPSSAVRTSRVIQHGGTPIEEYTWNLGTRSRPNMVYIYYSRLDVGANRVNLAIVSRRQADEAFIVHSDSSVLQSRPAVGIRIGTDVFFTVHALATGGSDAVSLIRNIFTTFNSPPERRVYSWMVVGDFNRAPANLEVALRQEPAVSENTIIIAPTEPTHRSGNILDYAILHDAHLPRREQARERIGASLMLNQLRSQITSDHFPVSFVRDR,TELGTACETF-TTRGASCQTR-VRRGRYCETF-STLGTSCETC-VTLGTECETL-LTRGLDCETL-TTRGTSCETF-IVRGKKCETF-RVLGAQCEEF-ATYGTNCETI,MEPGKHREYF-MEPGKHREYF-MEPGKHREYF-MEPGKHREYF-MEPGKHREYF-MEPGKHREYF-MEPGKHREYF-MEPGKHREYF-MEPGKHREYF-MEPGKHREYF
