contacts,cs,ce,Chain,Length,designed_receptor_seq,native_receptor_seq,designed_binder_seq,native_binder_seq
12.0,7,17,A,10,EDFELRVVPYNPTISNGGSLLVRIETDCPDAKNIVLHTSLRQRLVDEGDGWKEYELTEIDRDAVILGGAYCNGVQIRGSSTITVRE-DNYELRVTPFNPTIENGGELLVTISTDCPNVENIVLFTSLDQELVDEGEGYKTYKLSNITENATIMGGAYCNGNMIIGTSNITIKD-MDYTLQVTPYNPVITSGGSLLVTISTNCPNAQNIVLITSLDKTLIASGNGYSTYNLTNITSNNTIYGGAYCNGVLITGSSNITVNT-DNYDLTVTPFNPVITNGGSLLVTISTQCPNAENITLDTSLNKELVEEGDGYATYKLTDINSNNTIFGGAFCNGQRIEGSSNITVIG-APYTLTVTPLNPTISNGGTLIVTISTTCPNAQNIQLITAADKELIASGNGYNTYRLSNLTSNLTILGTVKCYGQTISGSSNITVNN-ENYELSVSPFNPTITDGGTLNVTISTSCPDAQNIVLYTELDKELIDSGEGYATYNLSNITSDSVIYGGVYCNGELIVGSSNITINN-HHHHLEVKPFNPTITSGGSLLVTISTKCPNAKDIKLFTALKKELVEEGDGYATYKLTDIDKDETIVGGAYCDGKLITGKSDIKVID-KDYELIVSPFNPKIKNGGSLIVTISTNCPNAKDINLFTSLDKELIDEGDGWASYKLSNILKNEDIIGGAYCYGELIQGYSQITIEN-MPYELKVTPYNPIINNGGTLLVKIETDCPNAEFIELITSLEKELVEEGNGWKKYKLSNITSNSVIFGGAYCYGKKIYGSSVITVLD-EDYELIVTPKDPVIQNGGDLYVTISTDCPNAENITLHTSLDKQLVDSGDGWDKYLLTNITENTTIYGGAKCYGNWIYGKSDIKILN,QEFLLRVEPQNPVLSAGGSLFVNCSTDCPSSEKIALETSLSKELVASGMGWAAFNLSNVTGNSRILCSVYCNGSQITGSSNITVYG-QEFLLRVEPQNPVLSAGGSLFVNCSTDCPSSEKIALETSLSKELVASGMGWAAFNLSNVTGNSRILCSVYCNGSQITGSSNITVYG-QEFLLRVEPQNPVLSAGGSLFVNCSTDCPSSEKIALETSLSKELVASGMGWAAFNLSNVTGNSRILCSVYCNGSQITGSSNITVYG-QEFLLRVEPQNPVLSAGGSLFVNCSTDCPSSEKIALETSLSKELVASGMGWAAFNLSNVTGNSRILCSVYCNGSQITGSSNITVYG-QEFLLRVEPQNPVLSAGGSLFVNCSTDCPSSEKIALETSLSKELVASGMGWAAFNLSNVTGNSRILCSVYCNGSQITGSSNITVYG-QEFLLRVEPQNPVLSAGGSLFVNCSTDCPSSEKIALETSLSKELVASGMGWAAFNLSNVTGNSRILCSVYCNGSQITGSSNITVYG-QEFLLRVEPQNPVLSAGGSLFVNCSTDCPSSEKIALETSLSKELVASGMGWAAFNLSNVTGNSRILCSVYCNGSQITGSSNITVYG-QEFLLRVEPQNPVLSAGGSLFVNCSTDCPSSEKIALETSLSKELVASGMGWAAFNLSNVTGNSRILCSVYCNGSQITGSSNITVYG-QEFLLRVEPQNPVLSAGGSLFVNCSTDCPSSEKIALETSLSKELVASGMGWAAFNLSNVTGNSRILCSVYCNGSQITGSSNITVYG-QEFLLRVEPQNPVLSAGGSLFVNCSTDCPSSEKIALETSLSKELVASGMGWAAFNLSNVTGNSRILCSVYCNGSQITGSSNITVYG,EEEDTSIDKE-EETDTSIDIE-GNFDFTVDTK-PDIDISNDIK-PTTDNSIDTP-SLIDTSISKK-NYIDLSIEIK-KLDDISIEKK-FIIDTSLDKN-GITDISIENK,FLFDGSMSLQ-FLFDGSMSLQ-FLFDGSMSLQ-FLFDGSMSLQ-FLFDGSMSLQ-FLFDGSMSLQ-FLFDGSMSLQ-FLFDGSMSLQ-FLFDGSMSLQ-FLFDGSMSLQ
22.0,32,42,B,10,RGLVDLVFLFDGSRSLKPEEFERIIAFVKEIMRRLRDTNYQFAAVQFSTENTIEFNFNDYRRERNPERLLRRIRKQNTNTNTYGAINFVATQVFREELGSRPEAEKVLILITDGLATDGGNIRLANDIRRYIIGIGIHWNTEESQRQLARFASQPLEKYVGELDDARVLEVLFR-MGLVDLVFLFDGSRSLKPDEFEAIINFMKDIMKKLQNTTFQFAAVQFSTSNTMVFGFNDYEKEKDPEKLLENIEKANTLTNTYGAVNFVATEVFKEELGSRPEAKKVLILVTDGEATDSGNIEAAKDIERYIIGIGKHFDTDESKKSLAKFASKPEEKYICKLDDAKCLEKLFD-SGAVDLVFLFDGSKSLLPNEFKAIIDFMISIMKRLKDTNYQFAAVQFSTDNKIEFNFNDWKANQDPEKLLSKITFQNTKTNTYGAINYVAKEVFKVELGSRPEAQKVLILVTDGRATDKGNIDEASDIIRYIIGIGRHFNTKESQDSISKFSSKPESKYVCKLEDAKCLNSLFN-MGKKDLVFLFDGSRSLRPEEFRAILDFMRSVMRELKNTSYQFAAVQFSTDFDTVFNFNDYAAAKDPEALLAHIVRQNTLTNTYGAVNYVASQVFRESLGSRPDAEKILILITDGRATDRGNIKAADDITRYIIGIGIHWNTEESRAQLARFASQPAEKYVGKLENAEHLKRLYD-AGKVDLVFLFDGSKSLKPDEFQQILDFMKQVMRDLKNTSYQFAAVQFSSDNEIIFNFNDYKAKKDPDALLANVVKANRNTNTYGAINYVATQVFRVELGSDPQARKVLILVTDGLATDGGNITEAKDIERYIIGIGIHFNTAESRASLAKFASKPLSKYVGRLDNAAHLNVLYS-MGKVDCVFLFDGSNSLKPEEFSAILSFMKEVMKELKDTQFQFAAVQFSTDNKIEFDFNSYRQSKNPEKLLANVVKMNTATNTYGAINYVATQVFRVELGARPEAKKVLIIVTDGKTTDSGNIDAASNIERYIIGIGIHFNTDESKKSLAKFASKPLEKYVGKLDDAKHLKSLFN-MGKKDLVFLFDGSRSLLPEEFKKIISFMIEIMKELKDTEYTFAAVEFSTDNIIEFDFNDYKAKKDPEALLKNIKKQNTATNTYGAINFVATKVFKKELGADPEAKKILILITDGLATDSGNIKAAKDIERYIIGIGIHFTTEESKASLAKFASKPLEKYVGKLDDAKILKSLFE-GGAVDLVFLFDGSESLKPEEFASIISFMQEVMEELKNSNYQFAAVEFSTTQTTIFDFNDYRTARDPKALLANVVKQNSLTNTYGAINYVATQVFKVSKGARPDAKKVLILVTDGLATDSGNIDVASDIERYIIGIGIHFDTAESQAQLAKFASQPLSQYVGRLYDSKILKKLYS-GGSVDLVFLFDGSLSLLPSEFSAILNFMVQVMKQLKNTAYQFSAVQFATDNKIEFDFNDWKRSQDPEALLAKIVKQNSSTDTYGAVNFVATQVFKVEKGSRPDARKVLIIVTDGLSTDSGDIKAADDIERYIIGIGIHFDTAESQASLAKFASKPASKYVCRLDDAKCLQSLYR-DGLVDLVFLFDGSRSLRPEEFEAIIQFMIDVMDRLKDTEYQFAAVQFSTSNTMEFNFNDWKAKKDPKALLANVKKQETLTNTYGAINYVATEVFKVERGARPEAKKVLILITDGLSTDRGNIEEAQDIERYIIGIGIHYDTKESQESLAKFASKPAEKYVGKLDNADVLKTLYD,MGNVDLVFLFDGSMSLQPDEFQKILDFMKDVMKKLSNTSYQFAAVQFSTSYKTEFDFSDYVKWKDPDALLKHVKHMLLLTNTFGAINYVATEVFREELGARPDATKVLIIITDGEATDSGNIDAAKDIIRYIIGIGKHFQTKESQETLHKFASKPASEFVCILDTFECLKDLFT-MGNVDLVFLFDGSMSLQPDEFQKILDFMKDVMKKLSNTSYQFAAVQFSTSYKTEFDFSDYVKWKDPDALLKHVKHMLLLTNTFGAINYVATEVFREELGARPDATKVLIIITDGEATDSGNIDAAKDIIRYIIGIGKHFQTKESQETLHKFASKPASEFVCILDTFECLKDLFT-MGNVDLVFLFDGSMSLQPDEFQKILDFMKDVMKKLSNTSYQFAAVQFSTSYKTEFDFSDYVKWKDPDALLKHVKHMLLLTNTFGAINYVATEVFREELGARPDATKVLIIITDGEATDSGNIDAAKDIIRYIIGIGKHFQTKESQETLHKFASKPASEFVCILDTFECLKDLFT-MGNVDLVFLFDGSMSLQPDEFQKILDFMKDVMKKLSNTSYQFAAVQFSTSYKTEFDFSDYVKWKDPDALLKHVKHMLLLTNTFGAINYVATEVFREELGARPDATKVLIIITDGEATDSGNIDAAKDIIRYIIGIGKHFQTKESQETLHKFASKPASEFVCILDTFECLKDLFT-MGNVDLVFLFDGSMSLQPDEFQKILDFMKDVMKKLSNTSYQFAAVQFSTSYKTEFDFSDYVKWKDPDALLKHVKHMLLLTNTFGAINYVATEVFREELGARPDATKVLIIITDGEATDSGNIDAAKDIIRYIIGIGKHFQTKESQETLHKFASKPASEFVCILDTFECLKDLFT-MGNVDLVFLFDGSMSLQPDEFQKILDFMKDVMKKLSNTSYQFAAVQFSTSYKTEFDFSDYVKWKDPDALLKHVKHMLLLTNTFGAINYVATEVFREELGARPDATKVLIIITDGEATDSGNIDAAKDIIRYIIGIGKHFQTKESQETLHKFASKPASEFVCILDTFECLKDLFT-MGNVDLVFLFDGSMSLQPDEFQKILDFMKDVMKKLSNTSYQFAAVQFSTSYKTEFDFSDYVKWKDPDALLKHVKHMLLLTNTFGAINYVATEVFREELGARPDATKVLIIITDGEATDSGNIDAAKDIIRYIIGIGKHFQTKESQETLHKFASKPASEFVCILDTFECLKDLFT-MGNVDLVFLFDGSMSLQPDEFQKILDFMKDVMKKLSNTSYQFAAVQFSTSYKTEFDFSDYVKWKDPDALLKHVKHMLLLTNTFGAINYVATEVFREELGARPDATKVLIIITDGEATDSGNIDAAKDIIRYIIGIGKHFQTKESQETLHKFASKPASEFVCILDTFECLKDLFT-MGNVDLVFLFDGSMSLQPDEFQKILDFMKDVMKKLSNTSYQFAAVQFSTSYKTEFDFSDYVKWKDPDALLKHVKHMLLLTNTFGAINYVATEVFREELGARPDATKVLIIITDGEATDSGNIDAAKDIIRYIIGIGKHFQTKESQETLHKFASKPASEFVCILDTFECLKDLFT-MGNVDLVFLFDGSMSLQPDEFQKILDFMKDVMKKLSNTSYQFAAVQFSTSYKTEFDFSDYVKWKDPDALLKHVKHMLLLTNTFGAINYVATEVFREELGARPDATKVLIIITDGEATDSGNIDAAKDIIRYIIGIGKHFQTKESQETLHKFASKPASEFVCILDTFECLKDLFT,RDFVVTSEEL-QKTIVTAEDL-KNFTVSSEKP-AKKVVTSLIE-VNVVVTDKVL-KNVVVTSEKK-LNVVVTSKIG-KPVIVTAEKP-RNVVVTAEVP-VEVVVTAKVE,KIALETSLSK-KIALETSLSK-KIALETSLSK-KIALETSLSK-KIALETSLSK-KIALETSLSK-KIALETSLSK-KIALETSLSK-KIALETSLSK-KIALETSLSK
