contacts,cs,ce,Chain,Length,designed_receptor_seq,native_receptor_seq,designed_binder_seq,native_binder_seq
27.0,29,39,A,10,MLKGDAISAALMKRISGEVGVGTLSQDAANALANAVSEFLKLVIADAKMYMQHANRKTLMSADLAYALRH-GSVGAMITAEAMMSIAEKIGKGNLSLDAAKALADAVSAYLDAVSAEAARYCRNSRRKTLASSDILYALRI-MVKGNSVSAGAMKRIAGRIGSGRLADDTSCLLAGAVSEFSKDVVLRAAECSRHAKRTTLTKLDIDTALAS-MLDGKAISAAAQDTIAHEIGKGKLARSTSEALAGLVSAYAKRLVTKARQAQQSLRRDTLASADINLSLRT-MSLGGRVSSAACQKIAEGIGRGKLATNSSNVLAEATSEFLKDLLALAEAFMQHRERTELSDADIQIAAEH-GIDGVAISDEVMKVIAEQIGVGELGDKAAAALAGAVSEFSKSVILKAKEFMEKRKRKTLQKEDIQAALRE-SRTGGAFSASAMRRIAKSIGKGDLKSDTAKALAGTVSAFLEDLLNTARTYMNHNKRKTLTVRDIELAANT-DMEGLSVSDAAMVKIAEEIGVGKLSKEAAQSLAGTVSEFAKEVVDQAARYMKHARRNTLEKRDVQLSLNL-GLEGGQISKQAMKRIAREIGVGSLKNKTAEALAGAVSEYLERLISRAKAFMKHAKRSVLTESDVVIAAKT-SMGGTAIKAAAMRIIAKRVGKGDLSQNAAEALAGAVSEFLVQVARDANLFRNHAKRKTLQARDISMSLRT,MLYGSSISAESMKVIAESIGVGSLSDDAAKELAEDVSIKLKRIVQDAAKFMNHAKRQKLSVRDIDMSLKV-MLYGSSISAESMKVIAESIGVGSLSDDAAKELAEDVSIKLKRIVQDAAKFMNHAKRQKLSVRDIDMSLKV-MLYGSSISAESMKVIAESIGVGSLSDDAAKELAEDVSIKLKRIVQDAAKFMNHAKRQKLSVRDIDMSLKV-MLYGSSISAESMKVIAESIGVGSLSDDAAKELAEDVSIKLKRIVQDAAKFMNHAKRQKLSVRDIDMSLKV-MLYGSSISAESMKVIAESIGVGSLSDDAAKELAEDVSIKLKRIVQDAAKFMNHAKRQKLSVRDIDMSLKV-MLYGSSISAESMKVIAESIGVGSLSDDAAKELAEDVSIKLKRIVQDAAKFMNHAKRQKLSVRDIDMSLKV-MLYGSSISAESMKVIAESIGVGSLSDDAAKELAEDVSIKLKRIVQDAAKFMNHAKRQKLSVRDIDMSLKV-MLYGSSISAESMKVIAESIGVGSLSDDAAKELAEDVSIKLKRIVQDAAKFMNHAKRQKLSVRDIDMSLKV-MLYGSSISAESMKVIAESIGVGSLSDDAAKELAEDVSIKLKRIVQDAAKFMNHAKRQKLSVRDIDMSLKV-MLYGSSISAESMKVIAESIGVGSLSDDAAKELAEDVSIKLKRIVQDAAKFMNHAKRQKLSVRDIDMSLKV,CIRRLVSFCL-SIYDFVSRRI-LTNQVVRRVL-VMYHFVSYIL-DIFQFVSAIL-VVFQVVRQIL-FIQAFVSRIL-DITSFVTNVL-LIKKVVEHIL-FTFQTVRKIL,FTFRYVTSIL-FTFRYVTSIL-FTFRYVTSIL-FTFRYVTSIL-FTFRYVTSIL-FTFRYVTSIL-FTFRYVTSIL-FTFRYVTSIL-FTFRYVTSIL-FTFRYVTSIL
26.0,18,28,B,10,MRLQSYIKRVLARANVERYDPEVVNALQECARCFIERVMTDADKFAKHAKRNIIKRKDIQLATRLRGE-SVTEDLIKDILSEFRVNKFPPEIVKAIKDCTEAYIVSILEDARVFCMHARRKVIEKMDVLLATRLRGK-GYQARLIRDILKDFNVNRYPSDVVGVLLETYRAWTTEILNHAAILARHAKRKTIMRSDVQAATRLLDP-KKERSVIRDILRDEGVEKYPPTVVVALQEVLLAYTREILEDAKVFADHAKRKTIRRRDVQLATRIREG-MQRKDLIKRILREKNISRYKPEIVTCLQEALEAFIEDILEDAAIFARHAKRKTIEAKDVHLARRIREG-GSMEARIRRLLRESEVRRYHPKVVLALQEMLEYYVTDVLEDAKVFADHAKRKTIEKEDVQLAVRKRSR-QNLAARIRRLLRQGKVDRFPRQVVDELQEAAVEFLERILQDAKMFANHAKRKTIDTRDVLLALKRTGR-TYQARRIKRLMKKYNVEKYPEELVAILQDEKEAFLTEVLQDAKKFANHAKRKTIKKEDVLLATKIKKG-EEIKLIIKRILEDNKVARYPKEVVLVLEELLEEFAVEILSDAKIFADHAKRKTIKRRDVQLASRLSGK-MKLRSLIRKVLADNKVKRFPVEVVTALEELAVALAEHILSQAKIFAEHAKRKVIKRKDVQLAARVLNK,PKDAQVIMSILKELNVQEYEPRVVNQLLEFTFRYVTSILDDAKVYANHARKKTIDLDDVRLATEVTLD-PKDAQVIMSILKELNVQEYEPRVVNQLLEFTFRYVTSILDDAKVYANHARKKTIDLDDVRLATEVTLD-PKDAQVIMSILKELNVQEYEPRVVNQLLEFTFRYVTSILDDAKVYANHARKKTIDLDDVRLATEVTLD-PKDAQVIMSILKELNVQEYEPRVVNQLLEFTFRYVTSILDDAKVYANHARKKTIDLDDVRLATEVTLD-PKDAQVIMSILKELNVQEYEPRVVNQLLEFTFRYVTSILDDAKVYANHARKKTIDLDDVRLATEVTLD-PKDAQVIMSILKELNVQEYEPRVVNQLLEFTFRYVTSILDDAKVYANHARKKTIDLDDVRLATEVTLD-PKDAQVIMSILKELNVQEYEPRVVNQLLEFTFRYVTSILDDAKVYANHARKKTIDLDDVRLATEVTLD-PKDAQVIMSILKELNVQEYEPRVVNQLLEFTFRYVTSILDDAKVYANHARKKTIDLDDVRLATEVTLD-PKDAQVIMSILKELNVQEYEPRVVNQLLEFTFRYVTSILDDAKVYANHARKKTIDLDDVRLATEVTLD-PKDAQVIMSILKELNVQEYEPRVVNQLLEFTFRYVTSILDDAKVYANHARKKTIDLDDVRLATEVTLD,PGVGNLAPGA-QGVGKLSRAA-ISFGSLSLGA-FGVGLLSPSA-PGVGKLSRAA-NGVGSLSLGA-LGVGQLAKSA-PGVGKLAKTA-PEVGRLGKQA-PGVGFLAWQA,IGVGSLSDDA-IGVGSLSDDA-IGVGSLSDDA-IGVGSLSDDA-IGVGSLSDDA-IGVGSLSDDA-IGVGSLSDDA-IGVGSLSDDA-IGVGSLSDDA-IGVGSLSDDA
