contacts,cs,ce,Chain,Length,designed_receptor_seq,native_receptor_seq,designed_binder_seq,native_binder_seq
21.0,52,62,A,10,MEVFLKVELEAKLENIEYARKLVAEFVKKLNPSEEKLKAVMTVVSEAVSNAIRYGYEYDPNGKVKLELLIKDGVIYLVIEDNGKGIPDIESALKPGRASGLGFTIMKKLSDKVEVESKVNEGTKIKMKFLGE-KKIDFSLSLPAEVKNIELAMKTIAERVKILNPTQEQLKAVMTVVSEAVSNAIRYGFNNNPNGIVSLKLLIEDGIIYLTVSDNGRGIPNIEEALKPGNASGLGFLIMKTLSDEMNVYSEVNRGTKIELKFEGK-MSDIFRLSLPAKIENIEKARKTIADFAAQLNPSDEKLEAIKTVVSEAVSNAINYGYQNDPNGIVELELLIKDGIIYLTVRDNGVGIPDIEKAKIPGRHSGLGFVIMKKLSDNVEIESEVNKGTKINMVFKGN-MSLSYELSLPAKVENIKLCEETVAEFAKTLNPTDIELLKLMTVVSEAVSNAIRYGYEDDPNGIVRLKVLIENGIIFLTVEDNGIGIPNIEEALKPGKSSGLGFKIMEELSDKVEVFSEVNKGTKIEMLFEGK-SNATFKLSMSAKLDNIKAAERIIAEFAAQLNPTEEQLKDIMTVVSEAVTNAIRYGYENNPNGIVELSLLIENGIIHLIIKNNGKGIPDIEKELQPGKLSGLGFTIMKTLADKMDIFSEINKGTEIKMLFEGD-MSVELEIEMPARLENIKLAQKLIAEAAETLKPTEEELKALMTVVSEAVTNAIRYGYRDDPNGIVRLKLLIKDGIIYLTVEDNGVGIPDIEKALKPGRASGLGFKIMKTLSDKMEVESEVDKGTKIKMVFLGK-MEKNFSLEFDAKLENIEKARKEIAEFASELNPSDEKLYAIMTIVSEAVTNAIRYGYENDPNGKVKLEVLIKDGVIYLTVSDEGKGIPDIEKALKPGKVSGLGFTIMKILSDEVKVESEVNKGTKIEMKFLGE-SNAQLSIEFDAKLDNIKKAEKIVADFASILNPTDEKLADIKTVVSEAVSNAIRYGYDNNPNGIVKINLLIENGIIYLTVSDEGKGIPDIDAALKPGKHSGLGFSIMKTLSDEMKVESEINKGTKINLKFSGS-MSRELRLELEAKLENIEYARKEVARFAEELNPSIEELKALMTVVSEAVTNAIEYGYERDPRGIVKLSLIIKDGVIYLEVEDEGKGIPDIEEALKPGRASGLGFKIMRVLSDEMKVKSKVDVGTKIEMKFKGK-MSEELEISFSSKLENIKLAQSTVARFAEKLNPTEGQLEALKTVVSEAVSNAIRYGYEDDPNGIVKLKLKIKDGIIYLTVSDEGKGIPDIEKALKPGKHSGLGFEIMKKLSDKVEVFSEVDKGTKIEMLFKGK,MRNEMHLQFSARSENESFARVTVAAFVAQLDPTMDELTEIKTVVSEAVTNAIIHGYNNDPNGIVSISVIIEDGVVHLTVRDEGVGIPDIEEARQPLERSGMGFTIMENFMDEVIVESEVNKGTTVYLKKHGI-MRNEMHLQFSARSENESFARVTVAAFVAQLDPTMDELTEIKTVVSEAVTNAIIHGYNNDPNGIVSISVIIEDGVVHLTVRDEGVGIPDIEEARQPLERSGMGFTIMENFMDEVIVESEVNKGTTVYLKKHGI-MRNEMHLQFSARSENESFARVTVAAFVAQLDPTMDELTEIKTVVSEAVTNAIIHGYNNDPNGIVSISVIIEDGVVHLTVRDEGVGIPDIEEARQPLERSGMGFTIMENFMDEVIVESEVNKGTTVYLKKHGI-MRNEMHLQFSARSENESFARVTVAAFVAQLDPTMDELTEIKTVVSEAVTNAIIHGYNNDPNGIVSISVIIEDGVVHLTVRDEGVGIPDIEEARQPLERSGMGFTIMENFMDEVIVESEVNKGTTVYLKKHGI-MRNEMHLQFSARSENESFARVTVAAFVAQLDPTMDELTEIKTVVSEAVTNAIIHGYNNDPNGIVSISVIIEDGVVHLTVRDEGVGIPDIEEARQPLERSGMGFTIMENFMDEVIVESEVNKGTTVYLKKHGI-MRNEMHLQFSARSENESFARVTVAAFVAQLDPTMDELTEIKTVVSEAVTNAIIHGYNNDPNGIVSISVIIEDGVVHLTVRDEGVGIPDIEEARQPLERSGMGFTIMENFMDEVIVESEVNKGTTVYLKKHGI-MRNEMHLQFSARSENESFARVTVAAFVAQLDPTMDELTEIKTVVSEAVTNAIIHGYNNDPNGIVSISVIIEDGVVHLTVRDEGVGIPDIEEARQPLERSGMGFTIMENFMDEVIVESEVNKGTTVYLKKHGI-MRNEMHLQFSARSENESFARVTVAAFVAQLDPTMDELTEIKTVVSEAVTNAIIHGYNNDPNGIVSISVIIEDGVVHLTVRDEGVGIPDIEEARQPLERSGMGFTIMENFMDEVIVESEVNKGTTVYLKKHGI-MRNEMHLQFSARSENESFARVTVAAFVAQLDPTMDELTEIKTVVSEAVTNAIIHGYNNDPNGIVSISVIIEDGVVHLTVRDEGVGIPDIEEARQPLERSGMGFTIMENFMDEVIVESEVNKGTTVYLKKHGI-MRNEMHLQFSARSENESFARVTVAAFVAQLDPTMDELTEIKTVVSEAVTNAIIHGYNNDPNGIVSISVIIEDGVVHLTVRDEGVGIPDIEEARQPLERSGMGFTIMENFMDEVIVESEVNKGTTVYLKKHGI,LYAGALDAGK-FYANSLFAGY-LYAGSNHAGK-LYSNSKSAGR-GFAGSKKAGE-EFAGAKTFGE-KFAGANAAGK-SFAGASTAGK-KFCSARCAGR-KFCGSWCAGK,TFMDSSGLGV-TFMDSSGLGV-TFMDSSGLGV-TFMDSSGLGV-TFMDSSGLGV-TFMDSSGLGV-TFMDSSGLGV-TFMDSSGLGV-TFMDSSGLGV-TFMDSSGLGV
21.0,95,105,B,10,MLDINLAVKKDTLIVSLKGELDHHTSSELKDKVFKVLDENSIKNIVLDLGALTFMDSSGLGVILGRYKKIKEVGGRMVICSVSPQIEKLFKLTGLNKIIEIKDNKEEALESLGVL-SLKIDLNIKEDTLIVSLQGELDATTSEQLKKKVFAVLDQNEIKNIVLDMGQLTYMDSSGLGVLIGRYKKIKEVGGKMVVCSVSPQVDRLFKISGLDKIIQIKPNKVEALDSLGVV-SLDIKLNIRKDTLIVSLTGELDHHTAEELRERVFDVLEKNDIKNIVVDLGKLTYMDSSGLGVLLGRYKKIKEVGGEMVVCSVSPQIDRLFKLSGLDRIIKIKPNLEEALESLGVL-MLEIDLEVREDVLIVSLKGELDATTSVQLKEQVFEVLGKNDIKNVVIDMGKLTFMDSSGLGVILGRYKKIKEVGGEMVVCSVSPRVKELFEITGLDKIITIKDDKEEALKYLGVL-MLEINLSIKADTLIVSLTGELDSATARELREKVFSVLEENDIKNIIWNMGALSFMDSSGLGVLLGRYKKIKEVGGEMVVCSVSPQVKELFDLTGLNEIIKIEADEIEAAKSLGVV-MLDINLKIKDDVLIVSLKGELDITTSEELKEKVFNVLEKNEIKNIILDMGALTYMDSSGLGVILGRYKKVKEVGGEMVVCSVSPDIMKLFNITGLDKIIKIKKDKEEAAEFLGVA-MLNIDLAIKKDTLIVSLEGELDATTSEQLKKQVFEVLDTHDIRNIILDLGALTFMDSSGLGVLLGRYKKIKEVGGEMVVCSVSPSAKKLFDISGLDKIITIKKDKIEAAKYLGVA-MLNIDLAIKDNVLIVSLTGELDHHTSQQLKEQVFDVLGKHAIKNIILDMGALTYMDSSGLGVILGRYKEIQKRGGQMVVCSVSPKVLRLFNLSGLIKIITIEPDKFSAAVKLGVA-MLNIDLKIVKDTLIVSLTGELDHHTSEELKKKVFDVLKENDIKNIILDMGKLSFMDSSGLGVILGRYKEIKRRGGKMVVCSVSPQIMKLFNITGLDKIITIEKDKVNAAKLLGVI-MLDINLKIIKDTLIISLTGELDHHTSEQLKNKVFDVLNKNDIKNIVLNMGKLTYMDSSGLGVILGRYKKIKQVGGKMVVCSVSPEIMRLFNISGLDKIIEIKENENEALKSLGVL,SLAIDLEVKQDVLIVRLSGELDHHTAEELREQVTDVLENRAIRHIVLNLGQLTFMDSSGLGVILGRYKQIKNVGGQMVVCAVSPAVKRLFDMSGLFKIIRVEADEQFALQALGVA-SLAIDLEVKQDVLIVRLSGELDHHTAEELREQVTDVLENRAIRHIVLNLGQLTFMDSSGLGVILGRYKQIKNVGGQMVVCAVSPAVKRLFDMSGLFKIIRVEADEQFALQALGVA-SLAIDLEVKQDVLIVRLSGELDHHTAEELREQVTDVLENRAIRHIVLNLGQLTFMDSSGLGVILGRYKQIKNVGGQMVVCAVSPAVKRLFDMSGLFKIIRVEADEQFALQALGVA-SLAIDLEVKQDVLIVRLSGELDHHTAEELREQVTDVLENRAIRHIVLNLGQLTFMDSSGLGVILGRYKQIKNVGGQMVVCAVSPAVKRLFDMSGLFKIIRVEADEQFALQALGVA-SLAIDLEVKQDVLIVRLSGELDHHTAEELREQVTDVLENRAIRHIVLNLGQLTFMDSSGLGVILGRYKQIKNVGGQMVVCAVSPAVKRLFDMSGLFKIIRVEADEQFALQALGVA-SLAIDLEVKQDVLIVRLSGELDHHTAEELREQVTDVLENRAIRHIVLNLGQLTFMDSSGLGVILGRYKQIKNVGGQMVVCAVSPAVKRLFDMSGLFKIIRVEADEQFALQALGVA-SLAIDLEVKQDVLIVRLSGELDHHTAEELREQVTDVLENRAIRHIVLNLGQLTFMDSSGLGVILGRYKQIKNVGGQMVVCAVSPAVKRLFDMSGLFKIIRVEADEQFALQALGVA-SLAIDLEVKQDVLIVRLSGELDHHTAEELREQVTDVLENRAIRHIVLNLGQLTFMDSSGLGVILGRYKQIKNVGGQMVVCAVSPAVKRLFDMSGLFKIIRVEADEQFALQALGVA-SLAIDLEVKQDVLIVRLSGELDHHTAEELREQVTDVLENRAIRHIVLNLGQLTFMDSSGLGVILGRYKQIKNVGGQMVVCAVSPAVKRLFDMSGLFKIIRVEADEQFALQALGVA-SLAIDLEVKQDVLIVRLSGELDHHTAEELREQVTDVLENRAIRHIVLNLGQLTFMDSSGLGVILGRYKQIKNVGGQMVVCAVSPAVKRLFDMSGLFKIIRVEADEQFALQALGVA,IGESGFGKIL-GIDSGLGGIL-SGESGLGGIL-LGFSGLGEFL-GVDSGFGELV-EEKSGFGGII-KIKSGLGGIL-DVDSGLGEIL-LGYSFMGEII-DGDSGLGGLI,LERSGMGFTI-LERSGMGFTI-LERSGMGFTI-LERSGMGFTI-LERSGMGFTI-LERSGMGFTI-LERSGMGFTI-LERSGMGFTI-LERSGMGFTI-LERSGMGFTI
