contacts,cs,ce,Chain,Length,designed_receptor_seq,native_receptor_seq,designed_binder_seq,native_binder_seq
23.0,22,32,A,10,MEEKQDAIKEKLLEELKANG-MAKKAPSKKITAALAKAAKK-AERPVPEKQLEELVNKALEE-MKLYGIDPNLEEAIKKIKKG-MAATPKKSPASKAVTKLLKK-MELIKSKEEAEEALEEALEE-MIKKAVKKRTVEDILKYLDK-MVYEGVEAPLVERLAALRSA-MQVEVDAKAIRAAAEAALKK-GSSGSSGEAIRKEAARLLEA,VSTQAITSDERRFAYAVLEH-VSTQAITSDERRFAYAVLEH-VSTQAITSDERRFAYAVLEH-VSTQAITSDERRFAYAVLEH-VSTQAITSDERRFAYAVLEH-VSTQAITSDERRFAYAVLEH-VSTQAITSDERRFAYAVLEH-VSTQAITSDERRFAYAVLEH-VSTQAITSDERRFAYAVLEH-VSTQAITSDERRFAYAVLEH,EKIELVTVKG-KKITVKVVKK-GKVKAVVVDG-GKVEVKVVKV-GKVKVVKVKK-EEALAEEVEE-GEIKAIEINK-GSLAVIRVGA-KNIRIVEVNP-GNVEVVVKDG,LGHGAVTIDK-LGHGAVTIDK-LGHGAVTIDK-LGHGAVTIDK-LGHGAVTIDK-LGHGAVTIDK-LGHGAVTIDK-LGHGAVTIDK-LGHGAVTIDK-LGHGAVTIDK
31.0,0,10,B,10,MYQQLLQQFAAELDIPTITTNDKGEGFVTVQDIFVIGIQPVDEDHARVGMIAGPAPEGLIGELIEAGAIASPFPLDIKATLDENNNWYLYSELDVQATTGQDLATVITNLVLYAQNLN-MYTTLLQDFAKEANLPELKTDDEGLTYIQVQGKWFVGLKPIDEDHLIAFMTAGAVPNMLAIAKLNAMALDSEAAGTIHAALTDDLDWYLYSILDISATTGKDLLHVISSLVNVAAELS-MYQQLLQQMAQALQVPALPVDAKGRGYLVIDGQYIVALQPVDEQHLQASMRAGAVPDLGALGLINALQLPSALQGVVRAQLDEQQQWVLYTVLDVQQTTGEDLLGYIANLVQMAKILS-MYQQLLDQFAQELKLPALRTDEQGAGFVEVEGRYLVGLQPVDEDRLVAFMVAGPVPESADLAAINAAALFSPYAGQVRAALTADQQWQLFTTLAVADTTGEDLALAIESLVLNARALT-AYAQLLAEFAEVLGLPALQTNENGTTYLEVDGDYIVGIEPIDEESMIVSMMAGPIPEEMTLPALNAMALPSAFAGVIKAALNEENEFFLYSVEDIAATSGEDLALTITRLVDMAKALE-MYQELLRQFATANNVPEIATNAEGTGYLTVQERYQVMLQPISETEAQASMLCGYVPEGLTLELINKAAVPSAFGGNINVLLDENLNYYLYTTLDIEKTTGEDLLAYIQDLVNVCEQLT-MYRELLDDFATVLDIPKIELNDDGTGYLLVDGEYTVRLQPIDEARAIASMLAGPVPDDWRLAALNALNVPTLTAGGVKATLDDDGDYHLYTVVDIDATSGEDLAGFIASLVDAAIALN-MYAELIEQFAAAAELPKLETNEAGEAYILVDDEYYVALQPVDENSAEASMLAGDVADLGTVEAINATAQLSPFAGQVKAALNEENQWLLFTTLPIDLTTGEDLLRYINLLVDTAVELN-SYQQLLEQFAEATNLPALETNAAGETYILVDGQFYVGLQPVNAETAMAFMFAGPVDDDFALLAINLGNAASAFAGGVKAALNDEGEYVLYTVLDVAATSGEDLLAYIASLVDVAAMLN-MYDSLLADFAAATGLDSLSTDEQGRTFLRVDGEFFVALQRIDEESLVASMEAGPVPDGLTVSLVNALALDSALPGQVLVALNEDQRWFLFTVLPVEATTGQDLATAVQSLVAAARELE,TYSSLLEEFATELGLEEIETNELGHGAVTIDKIWVVHLAPINEKELVAFMRAGILTGQSQLYDILRKNLFSPLSGVIRCALDKDDHWLLWSQLNINDTSGTQLASVLTSLVDKAVTLS-TYSSLLEEFATELGLEEIETNELGHGAVTIDKIWVVHLAPINEKELVAFMRAGILTGQSQLYDILRKNLFSPLSGVIRCALDKDDHWLLWSQLNINDTSGTQLASVLTSLVDKAVTLS-TYSSLLEEFATELGLEEIETNELGHGAVTIDKIWVVHLAPINEKELVAFMRAGILTGQSQLYDILRKNLFSPLSGVIRCALDKDDHWLLWSQLNINDTSGTQLASVLTSLVDKAVTLS-TYSSLLEEFATELGLEEIETNELGHGAVTIDKIWVVHLAPINEKELVAFMRAGILTGQSQLYDILRKNLFSPLSGVIRCALDKDDHWLLWSQLNINDTSGTQLASVLTSLVDKAVTLS-TYSSLLEEFATELGLEEIETNELGHGAVTIDKIWVVHLAPINEKELVAFMRAGILTGQSQLYDILRKNLFSPLSGVIRCALDKDDHWLLWSQLNINDTSGTQLASVLTSLVDKAVTLS-TYSSLLEEFATELGLEEIETNELGHGAVTIDKIWVVHLAPINEKELVAFMRAGILTGQSQLYDILRKNLFSPLSGVIRCALDKDDHWLLWSQLNINDTSGTQLASVLTSLVDKAVTLS-TYSSLLEEFATELGLEEIETNELGHGAVTIDKIWVVHLAPINEKELVAFMRAGILTGQSQLYDILRKNLFSPLSGVIRCALDKDDHWLLWSQLNINDTSGTQLASVLTSLVDKAVTLS-TYSSLLEEFATELGLEEIETNELGHGAVTIDKIWVVHLAPINEKELVAFMRAGILTGQSQLYDILRKNLFSPLSGVIRCALDKDDHWLLWSQLNINDTSGTQLASVLTSLVDKAVTLS-TYSSLLEEFATELGLEEIETNELGHGAVTIDKIWVVHLAPINEKELVAFMRAGILTGQSQLYDILRKNLFSPLSGVIRCALDKDDHWLLWSQLNINDTSGTQLASVLTSLVDKAVTLS-TYSSLLEEFATELGLEEIETNELGHGAVTIDKIWVVHLAPINEKELVAFMRAGILTGQSQLYDILRKNLFSPLSGVIRCALDKDDHWLLWSQLNINDTSGTQLASVLTSLVDKAVTLS,VNFTVTAQEN-LPSVLSAAKL-LAVAAGEQAA-AAALPREAAW-VVRAAGAAEL-VLGNADSETA-PVALPEEFTF-VLEGPIAEDD-LTVDVGAAEK-VELDGVAEEL,VSTQAITSDE-VSTQAITSDE-VSTQAITSDE-VSTQAITSDE-VSTQAITSDE-VSTQAITSDE-VSTQAITSDE-VSTQAITSDE-VSTQAITSDE-VSTQAITSDE
