contacts,cs,ce,Chain,Length,designed_receptor_seq,native_receptor_seq,designed_binder_seq,native_binder_seq
23.0,2,12,A,10,NEFPAAATLFQAQKFYDWVIPFQVDGQPAPKLQWLHNGKVLEETKDIYSGYLKPLENTDVRYGCLVLKNPTWKQNGVYTLVATNPFGTATASVEATFEKGP-GNYPAEARLYEAEKWQDWCIPFEVNGYPMPTLRWLKNGTELKETDDVYSGFLDPEPDTDTRYGCLVLVQPTWRNNGTYTLIASNPYGTATASVEAVFEDGP-SNFPAGAVLYQAERRLNWAIPYVVDGNPAPTLRWLKNGTTLTETADVYTELLAPEANTNTRYGNLVLVSPTYQQNGTYTLVATNPFGTATASVQATFQAGP-VDYPATATLFQPVQYYNWGIPFEVDGYPEPTLTWLKNGTTLTETSDVYSQYLDPQPNTDTRFGDLVLVNPTCNNNGTYTLIATNPFGTATASVQATFEACP-TNYPAAAQLYQAVQRYDWRIPFVVSGNPAPTLTWLKDGQTLTETSDIYTEFLTPLANTDTRYGNLVLKNPTCSNNGTYTLVATNPFGTATASVQAVFETCP-ANFPAAARLYDAKKYANWGIPFVVDGYPFPVLTWLKDGSTLTETADIYTEYLSPRANSDTRYGNLVLVNPTAANNGTYTLVATNPFGTATASVQATFEDAP-DDYPAEVRLYQAEKYRDWRIPFSVDGNPAPTLRWLHNGRELKETDKVYTELLEPLPNTDTRYGNLVLVNPTCEQNGTYTLVATNPFGTATASVEAVFDKCP-SNFPATVSLSTPLNTLNWGIPFVVDGNPAPTLTWLKNGTTLNETSNVFTQYLAPLANSTVRYGNLILVNPTCGQNGTYTLQATNPFGTATASVQATFASCP-ADYPATVTLSAAKKYQDWRIPFTVDGYPAPTLKWLKNGTTLTETTDIYTQYLAPAANTDTRYGDLVLKNPTFKNNGTYTLQATNPFGTATASVQATFEKDP-MDYPATARLFQAEKYLNWGIPFRVDGNPQPTLKWLHNGSPLTETSSIYTEYLKPEANTDIRYGNLVLVNPTYRENGVYTLVATNPFGTATASVEAKFEAGP,VSFPASVQLHTAVEMHHWCIPFSVDGQPAPSLRWLFNGSVLNETSFIFTEFLEPAANETVRHGCLRLNQPTHVNNGNYTLLAANPFGQASASIMAAFMDNP-VSFPASVQLHTAVEMHHWCIPFSVDGQPAPSLRWLFNGSVLNETSFIFTEFLEPAANETVRHGCLRLNQPTHVNNGNYTLLAANPFGQASASIMAAFMDNP-VSFPASVQLHTAVEMHHWCIPFSVDGQPAPSLRWLFNGSVLNETSFIFTEFLEPAANETVRHGCLRLNQPTHVNNGNYTLLAANPFGQASASIMAAFMDNP-VSFPASVQLHTAVEMHHWCIPFSVDGQPAPSLRWLFNGSVLNETSFIFTEFLEPAANETVRHGCLRLNQPTHVNNGNYTLLAANPFGQASASIMAAFMDNP-VSFPASVQLHTAVEMHHWCIPFSVDGQPAPSLRWLFNGSVLNETSFIFTEFLEPAANETVRHGCLRLNQPTHVNNGNYTLLAANPFGQASASIMAAFMDNP-VSFPASVQLHTAVEMHHWCIPFSVDGQPAPSLRWLFNGSVLNETSFIFTEFLEPAANETVRHGCLRLNQPTHVNNGNYTLLAANPFGQASASIMAAFMDNP-VSFPASVQLHTAVEMHHWCIPFSVDGQPAPSLRWLFNGSVLNETSFIFTEFLEPAANETVRHGCLRLNQPTHVNNGNYTLLAANPFGQASASIMAAFMDNP-VSFPASVQLHTAVEMHHWCIPFSVDGQPAPSLRWLFNGSVLNETSFIFTEFLEPAANETVRHGCLRLNQPTHVNNGNYTLLAANPFGQASASIMAAFMDNP-VSFPASVQLHTAVEMHHWCIPFSVDGQPAPSLRWLFNGSVLNETSFIFTEFLEPAANETVRHGCLRLNQPTHVNNGNYTLLAANPFGQASASIMAAFMDNP-VSFPASVQLHTAVEMHHWCIPFSVDGQPAPSLRWLFNGSVLNETSFIFTEFLEPAANETVRHGCLRLNQPTHVNNGNYTLLAANPFGQASASIMAAFMDNP,NRVFRECDFK-NRIDTECDFA-NRIYTEGLFE-NPDFTNGIFC-NPDNTLGTFC-NPIDTLGTFN-YPGDRLGVFR-NPETTFGTFC-NPVDTLGEFR-NRGDSEGEFK,HPIFHRGEFS-HPIFHRGEFS-HPIFHRGEFS-HPIFHRGEFS-HPIFHRGEFS-HPIFHRGEFS-HPIFHRGEFS-HPIFHRGEFS-HPIFHRGEFS-HPIFHRGEFS
14.0,9,19,B,10,FEDPCLSEGVFPSCKSISTLEGDLRQAVDIRGRLVDVAGEVSEGGEKVRQLFQITRCKEPCRNVDARYFNSKCVTTTRFVPALVWDGRRWVRERIEIPSDCVCEYSCK-EEHPLFFTGIFPSCKSITWLNGNLRYAIDENGQEVEVAGEIRVNGQQLRQQFVETRCKGPCRGLDSRFYNSRCETTFSFVEALVYDGSKWVRKKIKIPSNCVCVLERK-PEDPCLVYGTKRSCKSETRLVGDLKTATDVDGREVQVAGFREVNGRLEKQLFVQTSCKDPCRGVDERYFNSRCETVTRHVPALVFDGKEWVRSEIEIPADCVCVFEGK-SEDPCHKFGVFPQCRSESRIVGNLRYAVDINGRRVFVAGYRRTGQRWERQQFLVTACRKPCYGVNRSQWLSRCETVFAYVQALVFDGKKWVRSLIKIPSSCVCVLREK-AEHPLLETGIFPRCESKTYLACDLTKATDINGREVDVYGTTTVKNKTIEQCFLETRCKEPCAGVDTEKWNSKCETVYKFVPALVFDGKKAVSADIKIPAACVCVLTGK-EDHPALTSGVFPNCNSVTWINGNLTKATDSNGQTVDVFGTVRVGNKTYKQKFLMTECKDPCRGVNAKKFNSRCETVYSFVEALVFDGKQAVRRKIKIPSNCVCILEGK-ELCPLEDSGVFPKCSSVTRVVGDLTSARDQQGRVVEVFGHCRHQGESMRQEFEVTECREPCRGVDRRRYNSRCETTYRYVQALVFDGSRAVWADIRVPSDCRCVLQGR-EADPCDELGFFRSCYDVTRLVGTLRVATDEAGRKVTVAGFVREGGRRRRQLFRVTKCKEPCRGVDRRRFLSHCETVYRYVKALVWDGRSWVDRRIKIPSDCRCVLRRK-DECPCDEQGVFPSCESESTLVGDLRFAQDSSGRTVAVYGFSSEGGRRRRQLFLQTRCRGPCRGVDARRWRSRCATVHRFVQALVFDGARSVRRQIRVDSDCRCILEGR-VDVPELENGEFPECESITRFVDNLTYAIDENGKLVVVYGRKKINGKEEKQVFRVTKCKGPCRNLNEQFYWGRCETVHKYVKALVFDGKRAVWSKIKIPSDCVCVLQGK,SSHPIFHRGEFSVCDSVSVWVGDKTTATDIKGKEVMVLGEVNINNSVFKQYFFETKCRDGCRGIDSKHWNSYCTTTHTFVKALTMDGKQAAWRFIRIDTACVCVLSRK-SSHPIFHRGEFSVCDSVSVWVGDKTTATDIKGKEVMVLGEVNINNSVFKQYFFETKCRDGCRGIDSKHWNSYCTTTHTFVKALTMDGKQAAWRFIRIDTACVCVLSRK-SSHPIFHRGEFSVCDSVSVWVGDKTTATDIKGKEVMVLGEVNINNSVFKQYFFETKCRDGCRGIDSKHWNSYCTTTHTFVKALTMDGKQAAWRFIRIDTACVCVLSRK-SSHPIFHRGEFSVCDSVSVWVGDKTTATDIKGKEVMVLGEVNINNSVFKQYFFETKCRDGCRGIDSKHWNSYCTTTHTFVKALTMDGKQAAWRFIRIDTACVCVLSRK-SSHPIFHRGEFSVCDSVSVWVGDKTTATDIKGKEVMVLGEVNINNSVFKQYFFETKCRDGCRGIDSKHWNSYCTTTHTFVKALTMDGKQAAWRFIRIDTACVCVLSRK-SSHPIFHRGEFSVCDSVSVWVGDKTTATDIKGKEVMVLGEVNINNSVFKQYFFETKCRDGCRGIDSKHWNSYCTTTHTFVKALTMDGKQAAWRFIRIDTACVCVLSRK-SSHPIFHRGEFSVCDSVSVWVGDKTTATDIKGKEVMVLGEVNINNSVFKQYFFETKCRDGCRGIDSKHWNSYCTTTHTFVKALTMDGKQAAWRFIRIDTACVCVLSRK-SSHPIFHRGEFSVCDSVSVWVGDKTTATDIKGKEVMVLGEVNINNSVFKQYFFETKCRDGCRGIDSKHWNSYCTTTHTFVKALTMDGKQAAWRFIRIDTACVCVLSRK-SSHPIFHRGEFSVCDSVSVWVGDKTTATDIKGKEVMVLGEVNINNSVFKQYFFETKCRDGCRGIDSKHWNSYCTTTHTFVKALTMDGKQAAWRFIRIDTACVCVLSRK-SSHPIFHRGEFSVCDSVSVWVGDKTTATDIKGKEVMVLGEVNINNSVFKQYFFETKCRDGCRGIDSKHWNSYCTTTHTFVKALTMDGKQAAWRFIRIDTACVCVLSRK,CPPREYLETC-GPLIRLKEII-CPLLEGLCLQ-CPLQRLARWV-PPKTQLLKYV-TPTMQLASSF-CPPKLYRHCE-CPPRLRERLI-CPPRRRRRRC-FPKIKLLKEF,HTAVEMHHWC-HTAVEMHHWC-HTAVEMHHWC-HTAVEMHHWC-HTAVEMHHWC-HTAVEMHHWC-HTAVEMHHWC-HTAVEMHHWC-HTAVEMHHWC-HTAVEMHHWC
