contacts,cs,ce,Chain,Length,designed_receptor_seq,native_receptor_seq,designed_binder_seq,native_binder_seq
32.0,45,55,A,10,SNAERLKRELEELERVLGLVSELLEAVAELERVRASLERLKQEARENPEALALLESLKLDGLKGGARKRFDHALNLLEEIARKL-SNAELREELLRRLERELELIRALARKVRDLDKLLEALEKLRRVSEADPRARALLERLERGFTEGEARRRLERALELLEEILRRA-GSHMDQLMQDYVLQRVLYLIDRIAFNIAQFDNVKNALELLKIQAMTDPEAAKRLDWLQKDFETGKARKRFEHARDLLEKIVESL-SNAELLDDLVERNQEINRLITDLLFEIKNMDRARNALLNLLEISKTDPAAKAAYDRLAKGFTNGEAKRRFDRARDLLLQIIDTA-SNAELEAQIEKARKRYDALIDALLANIEAYQNFKDSLDLIKEVAKTDPEARKALEAIIDDGTKGGAADRLRSARDKLNALLKSL-SNAQILSDLIRENRAIMDAINAISSKIATMDVLDGAMLRLVHVARSDPRAAAMLESALSGFTDGALRDDWLSARNKLDSILESV-EIARRIAEAVRVRDEVLGLIRAIALKAAEYENVAGALLRLVHEAERDPEAAARLLALIRGGTEGDLRRRWDSAANKLRALLFLL-SNADQLAELRRENAAINAAIARLAAKVTDYRDVRDALYLLVLRAQADPEARRALLALVDSGTRGAAKRTFDRARDLLDAIVRDG-SNARLEAEQARLRARLEALWTALAARLADETRLEAALLELARRAEADPAAAAKLNALIASGTSGELRRRLDGAAELLRALARAA-GMIDDLKNRIRELESILEAIKALENKIEELNNLLNLLNDLARVAITDPKARKRLNLIINGLTKGELRDKYEKAKNLLEEIIKSL,GIVSQTRNKELLDKKIRSEIEAIKKIIAEFDVVKESVNELSEKAKTDPQAAEKLNKLIEGYTYGEERKLYDSALSKIEKLIETL-GIVSQTRNKELLDKKIRSEIEAIKKIIAEFDVVKESVNELSEKAKTDPQAAEKLNKLIEGYTYGEERKLYDSALSKIEKLIETL-GIVSQTRNKELLDKKIRSEIEAIKKIIAEFDVVKESVNELSEKAKTDPQAAEKLNKLIEGYTYGEERKLYDSALSKIEKLIETL-GIVSQTRNKELLDKKIRSEIEAIKKIIAEFDVVKESVNELSEKAKTDPQAAEKLNKLIEGYTYGEERKLYDSALSKIEKLIETL-GIVSQTRNKELLDKKIRSEIEAIKKIIAEFDVVKESVNELSEKAKTDPQAAEKLNKLIEGYTYGEERKLYDSALSKIEKLIETL-GIVSQTRNKELLDKKIRSEIEAIKKIIAEFDVVKESVNELSEKAKTDPQAAEKLNKLIEGYTYGEERKLYDSALSKIEKLIETL-GIVSQTRNKELLDKKIRSEIEAIKKIIAEFDVVKESVNELSEKAKTDPQAAEKLNKLIEGYTYGEERKLYDSALSKIEKLIETL-GIVSQTRNKELLDKKIRSEIEAIKKIIAEFDVVKESVNELSEKAKTDPQAAEKLNKLIEGYTYGEERKLYDSALSKIEKLIETL-GIVSQTRNKELLDKKIRSEIEAIKKIIAEFDVVKESVNELSEKAKTDPQAAEKLNKLIEGYTYGEERKLYDSALSKIEKLIETL-GIVSQTRNKELLDKKIRSEIEAIKKIIAEFDVVKESVNELSEKAKTDPQAAEKLNKLIEGYTYGEERKLYDSALSKIEKLIETL,PEVLEEALRA-PETLEEALEA-PNVLEEALKS-SDKLREALEA-PGTLEEALKA-LGTLRSALQS-AGVLREALEA-LGALEEALAA-EGTLEAALAA-HDILMEALEA,LNLLTSARSD-LNLLTSARSD-LNLLTSARSD-LNLLTSARSD-LNLLTSARSD-LNLLTSARSD-LNLLTSARSD-LNLLTSARSD-LNLLTSARSD-LNLLTSARSD
31.0,71,81,B,10,GPLGSEKRDGRFDALVKLNELLKKLQSDEALREAIKELRDALKEVKEKSDKAKAAINELVDLLEGLSG-MGNRLKEKLGEFMALVELSKELEEFEETGLQLVLENIDALEDVEKVLILTEAALEVVELHEDLANLIG-GNKDLTTFLETYLAEVELLESLEETFDDDTEEALDDLEDLLDTFEEDVSALADAADAYETILDANEAG-SNANLEQLLQEHLRLLETLVEGIENGELREEEEKEEEREEEREEREEILEEHLRLLETLVEGIENGEL-GPLGSKERDAKRAAAIALLRQLEKLETTEKLEKEVKEIQAALREIEDTARKALADVDDALAYVTGLTG-GPLGSATQNGVLAALATTSALAAAAGAAGAAGAAGAAAAAAAAAAAAAAAAAAAAAAAAAAAAAAAAA-MPFDLKSYLGTWGAAVVVFVIGLATGLLGLIGLVVAALNIALFVVLLVSVAALRQVVDIYVFLKGLLG-AEKNFERELSDFRNRVELNAAGVKLVDAGAIAANVSALAARAAEVAGTAAEAAAAVAALLVKTKEELG-ADDNLIQKLQRFQEAVIYLKELEKEFATDEERAAFAAKLKELEERLNTLNTALDELDKALERLRKENG-GPLGSAEYDARFNALVELNREMDALNEEFKQSMEEARQVLEQKKFVETFNEAMRAVNAGLEQAREALG,DVIDLFNKLGVFQAAILFAYYQAQSDLNLTTTVNNSQLEIQQSNTLNLLTSARSDQSLQYRTISGISL-DVIDLFNKLGVFQAAILFAYYQAQSDLNLTTTVNNSQLEIQQSNTLNLLTSARSDQSLQYRTISGISL-DVIDLFNKLGVFQAAILFAYYQAQSDLNLTTTVNNSQLEIQQSNTLNLLTSARSDQSLQYRTISGISL-DVIDLFNKLGVFQAAILFAYYQAQSDLNLTTTVNNSQLEIQQSNTLNLLTSARSDQSLQYRTISGISL-DVIDLFNKLGVFQAAILFAYYQAQSDLNLTTTVNNSQLEIQQSNTLNLLTSARSDQSLQYRTISGISL-DVIDLFNKLGVFQAAILFAYYQAQSDLNLTTTVNNSQLEIQQSNTLNLLTSARSDQSLQYRTISGISL-DVIDLFNKLGVFQAAILFAYYQAQSDLNLTTTVNNSQLEIQQSNTLNLLTSARSDQSLQYRTISGISL-DVIDLFNKLGVFQAAILFAYYQAQSDLNLTTTVNNSQLEIQQSNTLNLLTSARSDQSLQYRTISGISL-DVIDLFNKLGVFQAAILFAYYQAQSDLNLTTTVNNSQLEIQQSNTLNLLTSARSDQSLQYRTISGISL-DVIDLFNKLGVFQAAILFAYYQAQSDLNLTTTVNNSQLEIQQSNTLNLLTSARSDQSLQYRTISGISL,PAEKLLEELL-HAKELLKKLK-DALDLLETLK-ESLELLEEHL-ASLDLLKKLE-AAAALLAALA-MALWLLVAIL-GARALLEKLR-KALDKLNELK-RAQALLEKLL,SALSKIEKLI-SALSKIEKLI-SALSKIEKLI-SALSKIEKLI-SALSKIEKLI-SALSKIEKLI-SALSKIEKLI-SALSKIEKLI-SALSKIEKLI-SALSKIEKLI
