contacts,cs,ce,Chain,Length,designed_receptor_seq,native_receptor_seq,designed_binder_seq,native_binder_seq
15.0,58,68,A,10,CGPNQYFDTLLNACVPCDLACNSGTPPASCQSFCRS-CGPNQYFDTLLNACVPCDLACNSGTPPASCQSYCQS-CGPNQYFDTLLNACVPCDLACNSGTPPAECRAYCRG-CGPNQYFDTLLNACVPCELACNSGTPPAECQAFCQG-CGPNQYYDTLLDACVPCELACNSGTPPAECQSYCQS-CGPNQYFDTLLNACVPCELACNSGTPPAECQSFCSS-CGPNQFYDTLLDACVPCDLACNSGTPPAECQAYCQG-CGPNQYFDTLLNACVPCDLACNSGTPPAECQSYCQS-CGPNQFFDTLLNACVPCDLACNSGTPPASCQAYCQG-CGPNQYFDTLLNACVPCDLACNSGTPPAECQSYCQS,CSQNEYFDSLLHACIPCQLRCSSNTPPLTCQRYCNA-CSQNEYFDSLLHACIPCQLRCSSNTPPLTCQRYCNA-CSQNEYFDSLLHACIPCQLRCSSNTPPLTCQRYCNA-CSQNEYFDSLLHACIPCQLRCSSNTPPLTCQRYCNA-CSQNEYFDSLLHACIPCQLRCSSNTPPLTCQRYCNA-CSQNEYFDSLLHACIPCQLRCSSNTPPLTCQRYCNA-CSQNEYFDSLLHACIPCQLRCSSNTPPLTCQRYCNA-CSQNEYFDSLLHACIPCQLRCSSNTPPLTCQRYCNA-CSQNEYFDSLLHACIPCQLRCSSNTPPLTCQRYCNA-CSQNEYFDSLLHACIPCQLRCSSNTPPLTCQRYCNA,SSPSPWSGSR-SSPSPWTGSR-GSPRPWGGSR-GSPVPWGGSR-SSPSPWTGSR-SSPSPWTGSR-SSPSPWTGSR-SSPSPWSGSR-GSPVFVGGSR-SSPSPWTGSR,HDVTFTMGQV-HDVTFTMGQV-HDVTFTMGQV-HDVTFTMGQV-HDVTFTMGQV-HDVTFTMGQV-HDVTFTMGQV-HDVTFTMGQV-HDVTFTMGQV-HDVTFTMGQV
22.0,18,28,B,10,MPEILLLVPTALESAADDDATTVVWKPVVQSGTGLQAVGNVVKVLETGVYLVYCQVSFHDTRYTVGHVVSKSGAGKKTVLFKGVQAMPSDPAKAYASVFNCGVFHLEKGDTLSVVVPHAKAKLSLSPTGTFFGFVKL-MPSILHLVPTALRSDADDDATTVDWTPVVQSGDGLAAVGDVVRVLETGVYLVYCQVSFHDTRPTVGHVVSRSGAGRRTVLFRGVQPMPADPAAAHASVFNSGVFLLRAGDTLSVVVPHAAARLSLDPAGTYFGFVRL-MPEILLLVPTALESKADDNATTVVWQPIVQSGSGLQAVGNVVKVLETGVYLVFCQVSFHDTRPTVGHVVSKSGAGKKTVLFTGTQAMPSDPAKAFASVFNCGVFLLKKGDTLSVVVPHANAKLSLSPTGTFFGFVKL-MPSILLLVPTALSSEADDDATTVDWAPVVQSGDGLQAVGSVVRVLETGVYLVFCQVSFHDTRPTVGHVVSRSGAGRRTVLFRGVQPMPSDPAAAYASVFNCGVFHLEAGDTLSVVVPHAAASLSLDPTGTFFGFVKL-MPSILLLVPTALSSEADDDATTVDWAPVVQSGTGLQAVGSVVRVLETGVYLVYCQVSFHDTRPTVGHVVSRSGAGRRTVLFRGVQPMPSDPAAAYASVFNSGVFHLEAGDTLSVVVPHAAARLSLDPTGTFFGFVKL-MPSILLLVPTALESEADSDETTVVWKPIVQSGDGLEAVGNVVKVKETGVYLVYCQVSFHDTRPTVGHVVSKSGDGKKTVLFTGKQAMPSDPEKAYASVFNCGVFLLKKGDTISVVVPHAKAKLSLSPTGTFFGFVKL-MPEILLLVPTALESREDDNATTVVWKPIVQSGTGLQAVGNVVRVLETGVYLVYCQVSFHDTRYWVGHVVSKSGRGRRTVLFTGRQPMPRDPEKAFASVFNCGVFHLEKGDTLSVVVPHADAKLSLSPTGTFFGFVKL-MPSILLLVPTALESKADDNATTVVWKPIVQSGDGLQAVGNVVKVLETGVYLVYCQVSFHDTRYWVGHVVSKSGDGKKTVLFTGRQAMPSDPEKAYASVFNCGVFHLKKGDTLSVVVPHANAKLSLSPTGTFFGFVKL-MPSILHLVPTALSSEAGDNATTVDWTAVVQSGTGLQAVGSVVRVLETGVYLVYCQVAFHDTRPTVGHVVSRSGAGRRTVLFRGTQAMPADPAAAYATVFNSGVFLLRAGDTLSVVVPHADARLSLDPAGTYFGFVKL-MPSILLLVPTALESEADSNETTVVWKPVVQSGSGLQAVGNVVKVLETGVYLVFCQVSFHDTRYWVGHVVSKSGAGKKTVLFKGLQRMPSDPAKAYASVFNCGVFELKKGDTISVVVPHADAKLSLSPTGTFFGFVKL,KHSVLHLVPVNITSKADSDVTEVMWQPVLRRGRGLEAQGDIVRVWDTGIYLLYSQVLFHDVTFTMGQVVSREGQGRRETLFRCIRSMPSDPDRAYNSCYSAGVFHLHQGDIITVKIPRANAKLSLSPHGTFLGFVKL-KHSVLHLVPVNITSKADSDVTEVMWQPVLRRGRGLEAQGDIVRVWDTGIYLLYSQVLFHDVTFTMGQVVSREGQGRRETLFRCIRSMPSDPDRAYNSCYSAGVFHLHQGDIITVKIPRANAKLSLSPHGTFLGFVKL-KHSVLHLVPVNITSKADSDVTEVMWQPVLRRGRGLEAQGDIVRVWDTGIYLLYSQVLFHDVTFTMGQVVSREGQGRRETLFRCIRSMPSDPDRAYNSCYSAGVFHLHQGDIITVKIPRANAKLSLSPHGTFLGFVKL-KHSVLHLVPVNITSKADSDVTEVMWQPVLRRGRGLEAQGDIVRVWDTGIYLLYSQVLFHDVTFTMGQVVSREGQGRRETLFRCIRSMPSDPDRAYNSCYSAGVFHLHQGDIITVKIPRANAKLSLSPHGTFLGFVKL-KHSVLHLVPVNITSKADSDVTEVMWQPVLRRGRGLEAQGDIVRVWDTGIYLLYSQVLFHDVTFTMGQVVSREGQGRRETLFRCIRSMPSDPDRAYNSCYSAGVFHLHQGDIITVKIPRANAKLSLSPHGTFLGFVKL-KHSVLHLVPVNITSKADSDVTEVMWQPVLRRGRGLEAQGDIVRVWDTGIYLLYSQVLFHDVTFTMGQVVSREGQGRRETLFRCIRSMPSDPDRAYNSCYSAGVFHLHQGDIITVKIPRANAKLSLSPHGTFLGFVKL-KHSVLHLVPVNITSKADSDVTEVMWQPVLRRGRGLEAQGDIVRVWDTGIYLLYSQVLFHDVTFTMGQVVSREGQGRRETLFRCIRSMPSDPDRAYNSCYSAGVFHLHQGDIITVKIPRANAKLSLSPHGTFLGFVKL-KHSVLHLVPVNITSKADSDVTEVMWQPVLRRGRGLEAQGDIVRVWDTGIYLLYSQVLFHDVTFTMGQVVSREGQGRRETLFRCIRSMPSDPDRAYNSCYSAGVFHLHQGDIITVKIPRANAKLSLSPHGTFLGFVKL-KHSVLHLVPVNITSKADSDVTEVMWQPVLRRGRGLEAQGDIVRVWDTGIYLLYSQVLFHDVTFTMGQVVSREGQGRRETLFRCIRSMPSDPDRAYNSCYSAGVFHLHQGDIITVKIPRANAKLSLSPHGTFLGFVKL-KHSVLHLVPVNITSKADSDVTEVMWQPVLRRGRGLEAQGDIVRVWDTGIYLLYSQVLFHDVTFTMGQVVSREGQGRRETLFRCIRSMPSDPDRAYNSCYSAGVFHLHQGDIITVKIPRANAKLSLSPHGTFLGFVKL,AAAAAGVPPA-PGAAAGVPPR-AYAAAGTPPA-PGAGTGVPPR-AAAAAGVPPR-KYENAGVPPK-PGLDSGVPPR-ADAAAGVPPA-PGAAAGTPPA-PGLDTGTPPK,LRCSSNTPPL-LRCSSNTPPL-LRCSSNTPPL-LRCSSNTPPL-LRCSSNTPPL-LRCSSNTPPL-LRCSSNTPPL-LRCSSNTPPL-LRCSSNTPPL-LRCSSNTPPL
