contacts,cs,ce,Chain,Length,designed_receptor_seq,native_receptor_seq,designed_binder_seq,native_binder_seq
28.0,35,45,A,10,GSMSEEILSELERRRRLEASIAALERMKGHRVTFGMRGGRTLSAVFEATDEAFEVFYVSELETPEGVVERAVIRVRDVLSVSYVD-GSMSEEIKSALEFLKNRKASVEALEKMKGHRVTFSMKGGKTTSAVFNATDDAFEVFYVSELETPEGVVKEAVIKVSDVLSVSYTD-GSMSEEILSELERRKRLEASIEALEKMKGHRVTFSLKGGKTTSAVFESTDEEFSVFYVSELETPEGVVEKAVIKVSDVLSVSYTP-GSMSEEIKREIERRKRLEAAIEALEKMKGHRVTFEMKGGRTTSAVFNATDEEFSVFYVSELETPEGVVEKAVIKVEDVKSVSFTD-GSMSEEIKSRLEFIKNRKASIEALEKMKGHKVTFSLKGGKTTSAVFNATDEKFEVFYVSELETPEGVVKEAVIKVSDVISVSYTD-GSMSEEVLSRLEFLKNREASIKALEEMKGHRVTFSLKGGKTTSAVFNATDDAFEVFYVSELETPEGVVKEAVIKVSDVKSVSYTP-GSMSEEILSELERRKNLEASIKALEEMKGHRVTFSMKGGKTTSAVFNATDEAFEVFYVSELETPEGVVKEAVIKVSDVISVSYTP-GSMSEEIKSLLEFQKNREAAIKALEEMKGHRVTFSLKGGKTTSAIFNATDDAFEVFYVSELETPEGVVKEAVIKVSDVISVSYTP-GSMSEEIKKELERRKRLEEAIKALEEMKGHRVTFEMKGGRTTSAVFNATDEEFSVFYVSELETPEGVVKEAVIKVEDVISVSYTP-GSMSDEIKSLLEFQKNYEASVKALEEMKGHKVTFTMKGGKTTSAVFNDTDLAFSKFYVSELETPEGVVKEAVIKVSDVKSVSYTP,AQESLESQEQRARAALRERYLRSLLAMVGHQVSFTLHEGVRVAAHFGATDLDVANFYVSQLQTPIGVQAEALLRCSDIISYTFKP-AQESLESQEQRARAALRERYLRSLLAMVGHQVSFTLHEGVRVAAHFGATDLDVANFYVSQLQTPIGVQAEALLRCSDIISYTFKP-AQESLESQEQRARAALRERYLRSLLAMVGHQVSFTLHEGVRVAAHFGATDLDVANFYVSQLQTPIGVQAEALLRCSDIISYTFKP-AQESLESQEQRARAALRERYLRSLLAMVGHQVSFTLHEGVRVAAHFGATDLDVANFYVSQLQTPIGVQAEALLRCSDIISYTFKP-AQESLESQEQRARAALRERYLRSLLAMVGHQVSFTLHEGVRVAAHFGATDLDVANFYVSQLQTPIGVQAEALLRCSDIISYTFKP-AQESLESQEQRARAALRERYLRSLLAMVGHQVSFTLHEGVRVAAHFGATDLDVANFYVSQLQTPIGVQAEALLRCSDIISYTFKP-AQESLESQEQRARAALRERYLRSLLAMVGHQVSFTLHEGVRVAAHFGATDLDVANFYVSQLQTPIGVQAEALLRCSDIISYTFKP-AQESLESQEQRARAALRERYLRSLLAMVGHQVSFTLHEGVRVAAHFGATDLDVANFYVSQLQTPIGVQAEALLRCSDIISYTFKP-AQESLESQEQRARAALRERYLRSLLAMVGHQVSFTLHEGVRVAAHFGATDLDVANFYVSQLQTPIGVQAEALLRCSDIISYTFKP-AQESLESQEQRARAALRERYLRSLLAMVGHQVSFTLHEGVRVAAHFGATDLDVANFYVSQLQTPIGVQAEALLRCSDIISYTFKP,GVNPVSNARF-GVDPVSNAKF-GVNPVSNAKF-GVNPISNAKF-VVNPVSNAKF-GVDPVSNAKF-AVNPISNAKF-VVDPVSNAKF-GVNPISNAKF-AVNPVSNAKF,TTDPVSANIV-TTDPVSANIV-TTDPVSANIV-TTDPVSANIV-TTDPVSANIV-TTDPVSANIV-TTDPVSANIV-TTDPVSANIV-TTDPVSANIV-TTDPVSANIV
30.0,74,84,B,10,GSHWKSLAPSELEKLKYKKVKVSATKDKEFEGWVLNVDPKTSDITLVNFNDDGTTSVTTIKGHSVETVEVLDEGDEEIKKKLEKLF-GSHWKSLAPSELEKLKYKKVKVSAKDDNEFEGWVLNVDPVTSDITLVNFNDDGTTSVTTIKGHSVETVEVLDEGDEEIKKKLEKLF-GSHWKSLAPSELEKLVYKKVKVSASKDNEFEGWVLNVDPKTSDITLVNFNDDGSVSVTTIKGHSVETVEVLDEGDEEIKEKLKKLS-GSHWKSLAPSELEKLVYKKVKVSASKDNEFEGWVLNVDPVTSDITLVNFNDDGSTSVTTIKGHSVETVEVLDEGDEEIKKKLEKLF-GSHWRSLAPSELEKLVYKKVKVTATEDNEFEGWVLRVDPVTSDITLVNFNDDGTTSVTTIKGHSVETVEVLDEGDEEIKEKLKKLK-GSHWKKLAPSELEKLVYKKVKVTATDDHEFEGWVLNVDPVTSDITLVNFNDDGTTSVTTIKGHSVETVEVLDEGDDEIKEKLKKLD-GSHWKSLAPSELEKLKYKKVKVTAKDDKKFEGWVLNVDPKTSDITLVNFNDDGTTTVTTIKGHSVETVEVLDEGDEEIKKKLEKLD-GSHWRSLAPSELEKLVYKKVKVSAKDDHEFEGWVLSVDPVTSDITLVNFNDDGTTTVTTIKGHAVETVEVLDEGDEEIKEKLKKLN-GSHWKSLAPSELEKLKYKKVKVSASKDNEFEGWVLSVDPKTSDIKLVNFNEDGSTSVTWIKGHSVETVEVLDEGDEEIKKKLEKLS-GSHWQKLAPSELEKLVYKKVKVSASKDKKFEGWVLNVDPKTKDITLVNFNEDGTTSVTTIKGHSVETVEVLDEGDEEIKEKLKKLS,MSEWMKKGPLEWQDYIYKEVRVTASEKNEYKGWVLTTDPVSANIVLVNFLEDGSMSVTGIMGHAVQTVETMNEGDHRVREKLMHLF-MSEWMKKGPLEWQDYIYKEVRVTASEKNEYKGWVLTTDPVSANIVLVNFLEDGSMSVTGIMGHAVQTVETMNEGDHRVREKLMHLF-MSEWMKKGPLEWQDYIYKEVRVTASEKNEYKGWVLTTDPVSANIVLVNFLEDGSMSVTGIMGHAVQTVETMNEGDHRVREKLMHLF-MSEWMKKGPLEWQDYIYKEVRVTASEKNEYKGWVLTTDPVSANIVLVNFLEDGSMSVTGIMGHAVQTVETMNEGDHRVREKLMHLF-MSEWMKKGPLEWQDYIYKEVRVTASEKNEYKGWVLTTDPVSANIVLVNFLEDGSMSVTGIMGHAVQTVETMNEGDHRVREKLMHLF-MSEWMKKGPLEWQDYIYKEVRVTASEKNEYKGWVLTTDPVSANIVLVNFLEDGSMSVTGIMGHAVQTVETMNEGDHRVREKLMHLF-MSEWMKKGPLEWQDYIYKEVRVTASEKNEYKGWVLTTDPVSANIVLVNFLEDGSMSVTGIMGHAVQTVETMNEGDHRVREKLMHLF-MSEWMKKGPLEWQDYIYKEVRVTASEKNEYKGWVLTTDPVSANIVLVNFLEDGSMSVTGIMGHAVQTVETMNEGDHRVREKLMHLF-MSEWMKKGPLEWQDYIYKEVRVTASEKNEYKGWVLTTDPVSANIVLVNFLEDGSMSVTGIMGHAVQTVETMNEGDHRVREKLMHLF-MSEWMKKGPLEWQDYIYKEVRVTASEKNEYKGWVLTTDPVSANIVLVNFLEDGSMSVTGIMGHAVQTVETMNEGDHRVREKLMHLF,GSDVISETWE-GDDVIYETWE-GSDVIYETWK-DEDVIYETWK-GSDVIYETWE-GSDVIYETWE-GSDVIYETWK-GKDVIYETWE-GEDVIYETWK-GSDVIYETWK,CSDIISYTFK-CSDIISYTFK-CSDIISYTFK-CSDIISYTFK-CSDIISYTFK-CSDIISYTFK-CSDIISYTFK-CSDIISYTFK-CSDIISYTFK-CSDIISYTFK
