contacts,cs,ce,Chain,Length,designed_receptor_seq,native_receptor_seq,designed_binder_seq,native_binder_seq
27.0,58,68,A,10,NELRHRLNQMRLTRQTDKMILNEFKDIFCKESLLPKEYFQEAMNRLEERLEKQDQLIMKYKNDLPGVQDTVWEIEQRIAEGYKQLKENRQKAKALRKRREEAEARAQKIRAEML-MEVYRRLITAKRRRDELHSYLDEFIGKENRDGALPAEHFEAILESLQAKLRELNELIEKLERELPGKDVTAQQRRDMIRMAEEQQELLEQKKRQVERQREELERRVREIERRNL-HHLAERLKEAQSKRNTNLKALHQFLNGEGEASLVPAQIYQDALNAYRALLTEQDQLIEALKAALPGREVSAEELNRRIAEKRERKKQLEKDLKAVNKKIIELEKEVDRLVDAKL-SGIASLLNDAKKHKDTFNSLYDDFKSLLKNDGVVPDDAYEKITKMLTDKLDRFNDLISKLEAALPGKNLSRKDLDKKINEGKEIEIERRKEERERERKKKELQKKIDALRKRGE-IDIYSILAVTRKVRQQEENLLQLFIEDEMNTSFVPIEFYQDVKSTLELELENLDIIIEILIKNLPGNNITDEELIGMIDEKRKQYKENNKERKLKIELRKQAMKEIQEMTDRGE-HHNFLALREARKERAEWKNKLDNFITEVCKNEMIPHEEFEKTKAEFEARLKDLDRKIAYLERQLPGRDITAVELLDELCHRDLERKAARAKKVRQKKERRRAEMEKKRLERMGI-MNTDGRLAEARARREMLVKKKNEFIGKIDKNKTIPPAVFNNTLSALNAAILEQDALIKNLEKALNGRKTTKAELLKEINVGKNEKIANRKIEKERNRLLEAINRQISYLEERGI-HHLHQQLQDARKKRDELYSALQDFLRQNNHSRTIPREFKENITKTLEEKIKEMDLLIAELEAKLPGANTTIEEIDNQINALVAEKLAKQKRLAEVTRQADKYNAYVDRQIRERK-HHFYELRRISEKNRELLEDILNIFREVPDKTGVLPKEAQDRVISRLEERLQEEDRHLKALEDQLPGKDITSEEAREMIDLNKENKKENEIKLKRQQEQLKAANDEVKRQIELEE-HHLYKELEDTRRRRNILEQKLDHFVNREASGKKIPKIEYKNLRSSYQKQLRDQDKLIQDLEMRLPGVDTSKEEGIRQINEGIKKLIEEFQERVKQLEQENKELKELKREIDKKG,TDRMTQLQICLDQMTEQFCATLNYIDKNHGFEVVPPEEFSNTIDELSTDIILKTRQINKLIDSLPGVDVSAEEQLRKIDMLQKKLVEVEDEKIEAIKKKEKLMRHVDSMIEDFV-TDRMTQLQICLDQMTEQFCATLNYIDKNHGFEVVPPEEFSNTIDELSTDIILKTRQINKLIDSLPGVDVSAEEQLRKIDMLQKKLVEVEDEKIEAIKKKEKLMRHVDSMIEDFV-TDRMTQLQICLDQMTEQFCATLNYIDKNHGFEVVPPEEFSNTIDELSTDIILKTRQINKLIDSLPGVDVSAEEQLRKIDMLQKKLVEVEDEKIEAIKKKEKLMRHVDSMIEDFV-TDRMTQLQICLDQMTEQFCATLNYIDKNHGFEVVPPEEFSNTIDELSTDIILKTRQINKLIDSLPGVDVSAEEQLRKIDMLQKKLVEVEDEKIEAIKKKEKLMRHVDSMIEDFV-TDRMTQLQICLDQMTEQFCATLNYIDKNHGFEVVPPEEFSNTIDELSTDIILKTRQINKLIDSLPGVDVSAEEQLRKIDMLQKKLVEVEDEKIEAIKKKEKLMRHVDSMIEDFV-TDRMTQLQICLDQMTEQFCATLNYIDKNHGFEVVPPEEFSNTIDELSTDIILKTRQINKLIDSLPGVDVSAEEQLRKIDMLQKKLVEVEDEKIEAIKKKEKLMRHVDSMIEDFV-TDRMTQLQICLDQMTEQFCATLNYIDKNHGFEVVPPEEFSNTIDELSTDIILKTRQINKLIDSLPGVDVSAEEQLRKIDMLQKKLVEVEDEKIEAIKKKEKLMRHVDSMIEDFV-TDRMTQLQICLDQMTEQFCATLNYIDKNHGFEVVPPEEFSNTIDELSTDIILKTRQINKLIDSLPGVDVSAEEQLRKIDMLQKKLVEVEDEKIEAIKKKEKLMRHVDSMIEDFV-TDRMTQLQICLDQMTEQFCATLNYIDKNHGFEVVPPEEFSNTIDELSTDIILKTRQINKLIDSLPGVDVSAEEQLRKIDMLQKKLVEVEDEKIEAIKKKEKLMRHVDSMIEDFV-TDRMTQLQICLDQMTEQFCATLNYIDKNHGFEVVPPEEFSNTIDELSTDIILKTRQINKLIDSLPGVDVSAEEQLRKIDMLQKKLVEVEDEKIEAIKKKEKLMRHVDSMIEDFV,HQANEVLQLL-YELDALLEAL-CNKCRELYIY-NDMMKLKNRM-KKLNELLEKL-PEIAQLLHEM-PRLCEILEII-AYKQEIINFG-AAANYEIYQG-HRMELLLNKL,QSRESLIMLL-QSRESLIMLL-QSRESLIMLL-QSRESLIMLL-QSRESLIMLL-QSRESLIMLL-QSRESLIMLL-QSRESLIMLL-QSRESLIMLL-QSRESLIMLL
18.0,68,78,B,10,SGLAMQRELQRLETRLDKALAMLNGDLYAPEHELSRLQIDIETIKQQMATIQARLDPYYFKQAQLNALNQAKLDAEGKRLQKEVDNLENDLDWKV-GGEKAIERLAFNQQRLAHAQKMLSGELPAHPEQRQILTNQIEQIREEQAQLRQQLEPFYELGDKLRALGDFAEARLGQFQARLQQSNDLLQAALP-MGKAIEYDLRHLEYYLADEQLKLSGLLAAKPENVERLKQNIARLKRDIAALKAVLDPLYQKLQILNQKGKALLEEKGKLITAINTEIDNIEDYVN-SGLEAVHRLGVLGSLLQEHQLMLSGHLDAKPENEEKLRKEIANIQQDINQLASRLVPWMDRKEQLRTQYEEFLSFKGRLDNKLESAIDAMLEMVP-HGERLEERLRLLGKRLEQAFREKIGVLEARPEEVAELEDRIARIRKEIAQIRQELLPVREKERRIEVLNKENFLRLGKMLEEIEKEIKKILEEEV-DFLLNKHRLGILGFRLRQEEARLSGDLFAHPKAVDLLKKNIQAIQQEMKDLEADMIPFYQLLDHLDLKNSAYVTSLGKELDEIDRIAKKFDELYQ-EGTMTKYRLGVLNKLLDKEILQYTGKLDSLPRDKESLLEKIETIKNKQAKLKQSLEPLFQKGAVINSRGKEVVAELGAQIQDLQAVYVQIEQEVL-GGEDLLFRLLELGKQLAEEQARLNGDAPAEPEKLEQLELNLAMIRQEEEEIVNMLVPYYKMLEALNHIGRSKVNDLGKIVDEVERQLKHLESLLN-SGSVLKSKLGYLGKKLEDAILKKTGKLKADPADMKSLEDLIANIQSQMDAAAEELAPYYQKLREIEAKGKALKARIGEIEKNIQQIESVSRRIVE-AGVEALSNLGDLFSLRSEFQAKLSGDLFAKPEAEADLNNSLSVITHQIEVISQSLNKYYDKKKQLGNMLDELHQDIGERTQRILQAIYELKDKIP,NYQYKIQELRKLLKSLLLNYLELIGVLSINPDMYERKVENIRTILVNIHHLLNEYRPHQSRESLIMLLEEQLEYKRGEIREIEQVCKQVHDKLTS-NYQYKIQELRKLLKSLLLNYLELIGVLSINPDMYERKVENIRTILVNIHHLLNEYRPHQSRESLIMLLEEQLEYKRGEIREIEQVCKQVHDKLTS-NYQYKIQELRKLLKSLLLNYLELIGVLSINPDMYERKVENIRTILVNIHHLLNEYRPHQSRESLIMLLEEQLEYKRGEIREIEQVCKQVHDKLTS-NYQYKIQELRKLLKSLLLNYLELIGVLSINPDMYERKVENIRTILVNIHHLLNEYRPHQSRESLIMLLEEQLEYKRGEIREIEQVCKQVHDKLTS-NYQYKIQELRKLLKSLLLNYLELIGVLSINPDMYERKVENIRTILVNIHHLLNEYRPHQSRESLIMLLEEQLEYKRGEIREIEQVCKQVHDKLTS-NYQYKIQELRKLLKSLLLNYLELIGVLSINPDMYERKVENIRTILVNIHHLLNEYRPHQSRESLIMLLEEQLEYKRGEIREIEQVCKQVHDKLTS-NYQYKIQELRKLLKSLLLNYLELIGVLSINPDMYERKVENIRTILVNIHHLLNEYRPHQSRESLIMLLEEQLEYKRGEIREIEQVCKQVHDKLTS-NYQYKIQELRKLLKSLLLNYLELIGVLSINPDMYERKVENIRTILVNIHHLLNEYRPHQSRESLIMLLEEQLEYKRGEIREIEQVCKQVHDKLTS-NYQYKIQELRKLLKSLLLNYLELIGVLSINPDMYERKVENIRTILVNIHHLLNEYRPHQSRESLIMLLEEQLEYKRGEIREIEQVCKQVHDKLTS-NYQYKIQELRKLLKSLLLNYLELIGVLSINPDMYERKVENIRTILVNIHHLLNEYRPHQSRESLIMLLEEQLEYKRGEIREIEQVCKQVHDKLTS,ETQAELDVRL-PGEAELKGLL-LGMSELNNML-LGADELEKLL-ENEAELERKI-FGRDDLFRLM-QGQDDLDRVL-YGEEALRDML-CGFAELDEII-INDANLEKII,VSAEEQLRKI-VSAEEQLRKI-VSAEEQLRKI-VSAEEQLRKI-VSAEEQLRKI-VSAEEQLRKI-VSAEEQLRKI-VSAEEQLRKI-VSAEEQLRKI-VSAEEQLRKI
