contacts,cs,ce,Chain,Length,designed_receptor_seq,native_receptor_seq,designed_binder_seq,native_binder_seq
39.0,14,24,A,10,MDEIEEAKKELTEEQIKEFKEAFNLFDKDGNGTISTKELGTVMRSLGQNPTEEELQEMINEVDADGSGTIDFEEFLVMMVKKMREEQRRERLEELREAFRIFDKDGNGYIDINELRHVMRSLGEKLTEEEVQELMREADVDGDGQINFEEFLRVMSGTP-MDEIKEAFEMLSKEQIEEFKEAFNLFDKDGDGSISTKELGTVMRSLGQNPTEEELQEMINEVDVDGSGTIDFEEFLVMMVKKMKEERERERREELKEAFKIFDKDGNGYISAAELRHVMRSLGEKLTEEEVQEVMREADVDGDGQINFEEFLRVMAGTP-SEEEEEAKKELTEEQIKEFKEAFNLFDKDGDGSITTKELGTVMRSLGQNPTEAELQDMINEVDADGSGTIDFAEFLVMMVRMKREEEERERREELKEAFKIFDKDGNGYISTAELRHVMTSLGEKLTEEEVDEVMREADVDGDGQINFEEFLRVMAGTP-SEEIEEAKKELTEEQIKEFKEAFNLFDKDGDGAISTKELGTVMRSLGQNPTEAELQDMINEVDADGSGTIDFEEFLVMMVKKMREERRRERLEELREAFRIFDKDGNGYIDTAELRHVMTSLGEKLTEEEVQEVMREADVDGDGQINFEEFLRMMAGTP-SEEELKAKEMLTEEQIGEFKEAFSLFDKDGDGSITTKELGTVMRSLGQNPTEAELQDMINEVDADGSGTIDFAEFLVMMVRMMKEKERREREEELREAFRIFDKDGNGYISTAELRHVMTSLGEKLTEEEVDEVMREADVDGDGQINFEEFLRVMAGTP-SDEIEEAKKELTEEQIGEFKEAFSLFDKDGDGAISTKELGTVMRSLGQNPTEAELQDMINEVDADGSGTIDFEEFLVMMVRKMREERRRERLEELREAFRIFDKDGNGYIDTAELRHVMTSLGEKLTEEEVQELMREADVDGDGQINFEEFLRVMAGTP-MEAIKEAFAELSEEQIKEFKEAFDLFDKDGDGSISTKELGTVMRSLGQNPTEEELQEMINEVDADGSGTIDFEEFLVMMVKKMKEERRREREEELREAFRIFDKDGNGYISAAELRHVMTSLGEKLTEEEVQEVMREADVDGDGQINFEEFLRVMAGTP-SEEIEEAKAELTEEQIGEFKEAFSLFDKDGDGTITTKELGTVMRSLGQNPTEAELQDMINEVDADGSGTIDFEEFLVMMVKKMREERRRERLEELREAFRIFDKDGNGYIDTAELRHVMTSLGEKLTEEEVQEVMREADVDGDGQINFEEFLRMMAGTP-SEEIEEAKKELTEEQIKEFKEAFNLFDKDGDGSITTKELGTVMRSLGQNPTEAELQDMINEVDADGSGTIDFEEFLVMMVRMMKEKERREELEELREAFRIFDKDGNGYISTAELRHVMTSLGEKLTEEEVQELMREADVDGDGQINFEEFLRVMAGTP-MEAIKEAFAELSKEQIEEFKEAFNLFDKDGDGSISTKELGTVMRSLGQNPTEEELQEMINEVDADGSGTIDFEEFLVMMVKKMREERRRERLEELREAFKIFDKDGNGYIDINELRRVMRSLGEKLTEEEVQEVMREADVDGDGQINFEEFLRMMSGTP,TDQQAEARAFLSEEMIAEFKAAFDMFDADGGGDISTKELGTVMRMLGQNPTKEELDAIIEEVDEDGSGTIDFEEFLVMMVRQMKEDAKGKSEEELANCFRIFDKNADGFIDIEELGEILRATGEHVTEEDIEDLMKDSDKNNDGRIDFDEFLKMMEGVQ-TDQQAEARAFLSEEMIAEFKAAFDMFDADGGGDISTKELGTVMRMLGQNPTKEELDAIIEEVDEDGSGTIDFEEFLVMMVRQMKEDAKGKSEEELANCFRIFDKNADGFIDIEELGEILRATGEHVTEEDIEDLMKDSDKNNDGRIDFDEFLKMMEGVQ-TDQQAEARAFLSEEMIAEFKAAFDMFDADGGGDISTKELGTVMRMLGQNPTKEELDAIIEEVDEDGSGTIDFEEFLVMMVRQMKEDAKGKSEEELANCFRIFDKNADGFIDIEELGEILRATGEHVTEEDIEDLMKDSDKNNDGRIDFDEFLKMMEGVQ-TDQQAEARAFLSEEMIAEFKAAFDMFDADGGGDISTKELGTVMRMLGQNPTKEELDAIIEEVDEDGSGTIDFEEFLVMMVRQMKEDAKGKSEEELANCFRIFDKNADGFIDIEELGEILRATGEHVTEEDIEDLMKDSDKNNDGRIDFDEFLKMMEGVQ-TDQQAEARAFLSEEMIAEFKAAFDMFDADGGGDISTKELGTVMRMLGQNPTKEELDAIIEEVDEDGSGTIDFEEFLVMMVRQMKEDAKGKSEEELANCFRIFDKNADGFIDIEELGEILRATGEHVTEEDIEDLMKDSDKNNDGRIDFDEFLKMMEGVQ-TDQQAEARAFLSEEMIAEFKAAFDMFDADGGGDISTKELGTVMRMLGQNPTKEELDAIIEEVDEDGSGTIDFEEFLVMMVRQMKEDAKGKSEEELANCFRIFDKNADGFIDIEELGEILRATGEHVTEEDIEDLMKDSDKNNDGRIDFDEFLKMMEGVQ-TDQQAEARAFLSEEMIAEFKAAFDMFDADGGGDISTKELGTVMRMLGQNPTKEELDAIIEEVDEDGSGTIDFEEFLVMMVRQMKEDAKGKSEEELANCFRIFDKNADGFIDIEELGEILRATGEHVTEEDIEDLMKDSDKNNDGRIDFDEFLKMMEGVQ-TDQQAEARAFLSEEMIAEFKAAFDMFDADGGGDISTKELGTVMRMLGQNPTKEELDAIIEEVDEDGSGTIDFEEFLVMMVRQMKEDAKGKSEEELANCFRIFDKNADGFIDIEELGEILRATGEHVTEEDIEDLMKDSDKNNDGRIDFDEFLKMMEGVQ-TDQQAEARAFLSEEMIAEFKAAFDMFDADGGGDISTKELGTVMRMLGQNPTKEELDAIIEEVDEDGSGTIDFEEFLVMMVRQMKEDAKGKSEEELANCFRIFDKNADGFIDIEELGEILRATGEHVTEEDIEDLMKDSDKNNDGRIDFDEFLKMMEGVQ-TDQQAEARAFLSEEMIAEFKAAFDMFDADGGGDISTKELGTVMRMLGQNPTKEELDAIIEEVDEDGSGTIDFEEFLVMMVRQMKEDAKGKSEEELANCFRIFDKNADGFIDIEELGEILRATGEHVTEEDIEDLMKDSDKNNDGRIDFDEFLKMMEGVQ,KIKAIIKEAK-KLKAIIKEAK-KLKAVIKEAK-KLRAIMKKIK-KLRAVMKEAM-KIRAVIKEAS-KLRAIMKAAK-KLRAIMKAVK-KIRAVIKEAK-KLKAIMKAIK,LKSAMLQLAV-LKSAMLQLAV-LKSAMLQLAV-LKSAMLQLAV-LKSAMLQLAV-LKSAMLQLAV-LKSAMLQLAV-LKSAMLQLAV-LKSAMLQLAV-LKSAMLQLAV
19.0,91,101,B,10,MGPLDRLKKELEEGKRKAEEEAARKALEEKRKAEEERRREEAARRYPEFKAPEGGEELLAALERAREEARRLEEERRRLEEERRRLEEERRRLEEELRRRYGELENPPLREEGRSLRELLEERFGELAEVEVREEEFREPE-MGPLDKLKKELEEGKRKAEEEAARKALEEKRKAEEERRREEAARRNPPLVLPEGGEELAALGRRLAEERKRLEEERKRLEEERKRLEEERRRLEEELRRRYGELENPPLRERGKSLREILEERFGERVEVRVREEEEVEPE-MGPLDRLREELREGERRAREEAARRALEERRREEEGRRREEAARRYPPLVLPEGGEELLRLLRELEEERRRLEEERRRLEEERRRLEEERRRLEEELRRRYGELENPPLREEGRSLRELLRERFGELAEVEVREEEEREPL-GGPLARLERLRGEGERRAREEAARREAERRREEERGREEEERRREEPPLELPEGGEELLRLLEERERERERLERERERLEEERRRLEEERRRLEEELRRRYGELENPPLEERGRSLRELLEERFGELAELELEEREEEEPP-MGPLDRLKKELEEGRRRAEEEAARERLEEVRREREGLRRELEALRRPPLVLPEGGEELLRLLEELERERERLEEERRRLEEERRRLEEERRRLEEELRRRFGELENPPLREEGRSLRELLEERFGELARLRVEEEEEEEPP-MGPLDKLKKELEEGLRKAEEEAARKALEERKREEEGRRREEAARRNPPFVAPEGGEELLAALVRAQEEARRLEEERRRLEEERRRLEEERRRLEEELRRRYGEVENPPLREEGRSLRELLRERFGERVEVEVREEEEVEPR-MGPLDRLKKEIEEGKRKAEEEAAKKALEEKRKAEEERRREEAARRNPPFVEPEGEEEKRALEEKLKAERERLEKEREELERERERLEAEIRRLEEELRRRYGELENPPLKERGKSLREILKERFGELARVEIREEEFREPE-MGKKAKKKAKAKQGKAKAAKEAARKAAEERAKAERGRQEEAAAKRNPPFVAPAGGDAAAAAAAAAAAAAAEREAERAAAEERAKAAKAEREAAAAAAAAAAGEVANPPLAERGKSVRELLKERFGDDVKVKVTKKKYVAPK-MGPLDRLREELERGRREAERRAARERLEEVRREREGLRRELERLRRPPLVLPEGGEELLRLLEELRRERERLEEERRRLEEELRRLEEELRRLEEELRRRFGELENPPLREEGRSLRELLEERFGELARLELREEEEEEPP-MGPLDRLKKELEEGRRRAEEEAARRELERRREEERGREEEERRREEPPLVLPEGGEELLRLLEERERERERLERERERLEEERRRLEEELRRLEEELRRRYGELENPPLREEGRSLRELLEERFGELARVEVREEEEEEPP,EEKKRRAATARRQHLKSAMLQLAVTEIEKEAAAKEVEKQNYLAEHSPPLSLPGSMQELQELSKKLHAKIDSVDEERYDTEVKLQKTNKELEDLSQKLFDLRGKFKRPPLRRVRMSADAMLRALLGSKHKVNMDLRANLKQV-EEKKRRAATARRQHLKSAMLQLAVTEIEKEAAAKEVEKQNYLAEHSPPLSLPGSMQELQELSKKLHAKIDSVDEERYDTEVKLQKTNKELEDLSQKLFDLRGKFKRPPLRRVRMSADAMLRALLGSKHKVNMDLRANLKQV-EEKKRRAATARRQHLKSAMLQLAVTEIEKEAAAKEVEKQNYLAEHSPPLSLPGSMQELQELSKKLHAKIDSVDEERYDTEVKLQKTNKELEDLSQKLFDLRGKFKRPPLRRVRMSADAMLRALLGSKHKVNMDLRANLKQV-EEKKRRAATARRQHLKSAMLQLAVTEIEKEAAAKEVEKQNYLAEHSPPLSLPGSMQELQELSKKLHAKIDSVDEERYDTEVKLQKTNKELEDLSQKLFDLRGKFKRPPLRRVRMSADAMLRALLGSKHKVNMDLRANLKQV-EEKKRRAATARRQHLKSAMLQLAVTEIEKEAAAKEVEKQNYLAEHSPPLSLPGSMQELQELSKKLHAKIDSVDEERYDTEVKLQKTNKELEDLSQKLFDLRGKFKRPPLRRVRMSADAMLRALLGSKHKVNMDLRANLKQV-EEKKRRAATARRQHLKSAMLQLAVTEIEKEAAAKEVEKQNYLAEHSPPLSLPGSMQELQELSKKLHAKIDSVDEERYDTEVKLQKTNKELEDLSQKLFDLRGKFKRPPLRRVRMSADAMLRALLGSKHKVNMDLRANLKQV-EEKKRRAATARRQHLKSAMLQLAVTEIEKEAAAKEVEKQNYLAEHSPPLSLPGSMQELQELSKKLHAKIDSVDEERYDTEVKLQKTNKELEDLSQKLFDLRGKFKRPPLRRVRMSADAMLRALLGSKHKVNMDLRANLKQV-EEKKRRAATARRQHLKSAMLQLAVTEIEKEAAAKEVEKQNYLAEHSPPLSLPGSMQELQELSKKLHAKIDSVDEERYDTEVKLQKTNKELEDLSQKLFDLRGKFKRPPLRRVRMSADAMLRALLGSKHKVNMDLRANLKQV-EEKKRRAATARRQHLKSAMLQLAVTEIEKEAAAKEVEKQNYLAEHSPPLSLPGSMQELQELSKKLHAKIDSVDEERYDTEVKLQKTNKELEDLSQKLFDLRGKFKRPPLRRVRMSADAMLRALLGSKHKVNMDLRANLKQV-EEKKRRAATARRQHLKSAMLQLAVTEIEKEAAAKEVEKQNYLAEHSPPLSLPGSMQELQELSKKLHAKIDSVDEERYDTEVKLQKTNKELEDLSQKLFDLRGKFKRPPLRRVRMSADAMLRALLGSKHKVNMDLRANLKQV,EEEEEEEEEL-EEEEEEGEEL-PPLEEEERRL-PPPPPPGEEL-PPLEEEGRRL-EEEEEEGEEL-EEEEEEGEEL-AAAEAAEAAL-PPLEEEEERL-PPLEERLREL,EEELANCFRI-EEELANCFRI-EEELANCFRI-EEELANCFRI-EEELANCFRI-EEELANCFRI-EEELANCFRI-EEELANCFRI-EEELANCFRI-EEELANCFRI
