contacts,cs,ce,Chain,Length,designed_receptor_seq,native_receptor_seq,designed_binder_seq,native_binder_seq
16.0,65,75,A,10,MDKKLLLEEIRRYQINIDVAEAYKDYDYVIELSEKLGRLRAKLAEMMGLIE-SNAALLESKIYEVLEKITAARQSGNQAEVQQLWHKYQGLLAERARQLGLIE-MRLELLDQAIIDVKLELMKALNRNYKERFLKLTRLLNRLVLVREKELGRVR-MEIQELKFRIEEVEKDIKKAKASGETKMVKKLATLKDNLVKALIKELGFTD-MDLRSLKSEIAWIQAELAKKRALNDKKSVERTEAKLQALLRRLSFMQGNII-MDLSLLEAEIEFVRLNLRLMRASGNAIEVARLEKRLQQLERLRLEQLGYIR-HMLELLRFHIEKEKEDLRKARKNKDKAKVEAIEVHLDNLLIALKVLEGQAD-PRTELLRDQILLVEEQIDAAVAGDDVAKVVELAQLYVALNIRLAFQEGLIQ-FLPEILDKEIESVRRQLDDAQRSGNAEMVRKLSQKLDNLEHMRRYMNGEIE-VRMALLYAQIAEVEKNIDELLAAGRVDDVIAARRLLANLRYAKLELVGEIR,IEEELLLQQIDNIKAYIFDAKQCGRLDEVEVLTENLRELKHTLAKQKGGTD-IEEELLLQQIDNIKAYIFDAKQCGRLDEVEVLTENLRELKHTLAKQKGGTD-IEEELLLQQIDNIKAYIFDAKQCGRLDEVEVLTENLRELKHTLAKQKGGTD-IEEELLLQQIDNIKAYIFDAKQCGRLDEVEVLTENLRELKHTLAKQKGGTD-IEEELLLQQIDNIKAYIFDAKQCGRLDEVEVLTENLRELKHTLAKQKGGTD-IEEELLLQQIDNIKAYIFDAKQCGRLDEVEVLTENLRELKHTLAKQKGGTD-IEEELLLQQIDNIKAYIFDAKQCGRLDEVEVLTENLRELKHTLAKQKGGTD-IEEELLLQQIDNIKAYIFDAKQCGRLDEVEVLTENLRELKHTLAKQKGGTD-IEEELLLQQIDNIKAYIFDAKQCGRLDEVEVLTENLRELKHTLAKQKGGTD-IEEELLLQQIDNIKAYIFDAKQCGRLDEVEVLTENLRELKHTLAKQKGGTD,EDYKSLIPLR-EHLIGMVPLF-YMKQDMLPLL-EVSTALMPLV-LRERKMIPLE-EKLQELRPLF-EQQQELKPLF-DDYEVLLPLM-IDFEGLVPFF-SRTAELRPLF,ERFRALAPMY-ERFRALAPMY-ERFRALAPMY-ERFRALAPMY-ERFRALAPMY-ERFRALAPMY-ERFRALAPMY-ERFRALAPMY-ERFRALAPMY-ERFRALAPMY
13.0,0,10,B,10,GSHMILLKVCLLGNAGVGKSSILTRFVENSFDPNSKPTIGASFLTKEITVSDMRVKFQLWDTAGQERYRSLCPLYYKGACSAIIVYDITKAETFADLQKWIQELRANTPPSVVIAIAGNKCDLKEIREVKQEDAAAYASSINAIYFETSAKDDINIDALFIEIAANVPL-GHMLQKIKVCLLGAAGVGKSSIVTRFVDDSFDPRSKPTIGAAFMTKEVIFDKKYQRFQIWDTAGQERFSSLRPLFYRGAHAAVIVYDITRLETFEDLKKWVKELNADTPPTVVIAIAGNKNDLKDIRQVKKEEALAYAQSINAIFFETSAKANINIEALFKEISRRVQV-SNANVKLKICLLGSAGVGKSAIVQRYVHNKFDPNSKPTVGASFLTKRVVCDQREYTFLIWDTAGQERYKGLKPLYYRGAHAIVIVYDITQEITFNDLKKYKNEIDSSCPPTIVIAIAGNKSDLKEIREVNTEEAKAYAESIGAIFFETSAKDNINIDSLFQEIVKNVRI-GSHMILLKVCLLGDSGVGKTSIINRFVNNQFDPDTKPTVGAEFMTKTVEYNKMSWKFMIWDTAGQEQYASLRPLYYRGAHAAVIVFDITKASTFDNLKTWVEELQQNTPPSIVIAIAGNKSDLQNIREVRFQEAQEYARSIHAIYFETSAKENINIDALFEEIAMRVPV-REDEIKMKICMMGAGGVGKSSIVLRLVDDTFDENSKPTIGANFLTKEVTIDSKKYTFHIWDTAGQEQYRSLAPLYFRGAQAAVIVYDITKSSTFEILKNWISELEANVPPSIVVAVAGNKCDLEEIREVETKEGKEYANSINAIFFETSAKENINIEDLFVEITRRVKT-MDPCIKLKVCFLGDTGVGKSSLVTRFVDNSFNPDSKPTVGAAYLTKSVTFHQRQFTFELWDTAGQERYKSLRPLYYRGSHAAVIVYDVTRASTFETLKNWIKELNSSCPPTIVIAIAGNKCDLMSSREVEKKDGEMYAKSINAIFFETSAKDAINVEELFKEITRRVPV-GSSLSNVKVCFLGASGVGKTSIVQRFVKDTFNPNVLPTLGASYLTKEVVFEDRKFKFLIWDTAGQERFRNLRPMFYRGSQAAVIVYDVTQAATFDILKKWIEELQADCPPSVVIAIAGNKCDLTKIREVHCQEAASYASSINAIFFETSAKDDINIEELFKEIVLKVNM-GSQLISLKVAFLGAAGVGKSSIVQRFVNDAFDPNSKPTIGAEFLTKTVRINDQQSRFALWDTAGQERYRSLAPMYYRGAHAAIIVFDITQSVTFEDLKKWIAELQAQTPPTMVIAIAGNKCDLQTTREVKREEAEAYARSINAIYFETSAMASVNIQELFDEIASRVKI-SNAMQQLKVCLLGASGVGKSSIVSRFVDNTFDPDSKPTVGAEFRTKVVTFDQKEYRFQIWDTSGAEKFRALSPLYYRGAHASIIVFDITRSVTFDDLKKWISELRAETPPSVVIAIAGNKCDMEDIREVEEEEGREYARSIGAIYFETSAKSNINVDDLFKEIVKRVPV-GSMVKKCKVCLLGESGVGKTSLLFRFVDERFDPNSKPTIGAEFLTKTVVVEDKQFTFQLWDTAGQERFRSLSPLYYRGSHAAIIVYDITRATTFDELKKWINELRQSEPPSIVIAIAGNKCDCEESREVKREEGARYADSINAIFFETSAMANINVEDLFIEIAKRIPV,GSALRELKVCLLGDTGVGKSSIMWRFVEDSFDPNINPTIGASFMTKTVQYQNELHKFLIWDTAGLERFRALAPMYYRGSAAAIIVYDITKEETFSTLKNWVRELRQHGPPSIVVAIAGNKCDLTDVREVMERDAKDYADSIHAIFVETSAKNAININELFIEISRRIPS-GSALRELKVCLLGDTGVGKSSIMWRFVEDSFDPNINPTIGASFMTKTVQYQNELHKFLIWDTAGLERFRALAPMYYRGSAAAIIVYDITKEETFSTLKNWVRELRQHGPPSIVVAIAGNKCDLTDVREVMERDAKDYADSIHAIFVETSAKNAININELFIEISRRIPS-GSALRELKVCLLGDTGVGKSSIMWRFVEDSFDPNINPTIGASFMTKTVQYQNELHKFLIWDTAGLERFRALAPMYYRGSAAAIIVYDITKEETFSTLKNWVRELRQHGPPSIVVAIAGNKCDLTDVREVMERDAKDYADSIHAIFVETSAKNAININELFIEISRRIPS-GSALRELKVCLLGDTGVGKSSIMWRFVEDSFDPNINPTIGASFMTKTVQYQNELHKFLIWDTAGLERFRALAPMYYRGSAAAIIVYDITKEETFSTLKNWVRELRQHGPPSIVVAIAGNKCDLTDVREVMERDAKDYADSIHAIFVETSAKNAININELFIEISRRIPS-GSALRELKVCLLGDTGVGKSSIMWRFVEDSFDPNINPTIGASFMTKTVQYQNELHKFLIWDTAGLERFRALAPMYYRGSAAAIIVYDITKEETFSTLKNWVRELRQHGPPSIVVAIAGNKCDLTDVREVMERDAKDYADSIHAIFVETSAKNAININELFIEISRRIPS-GSALRELKVCLLGDTGVGKSSIMWRFVEDSFDPNINPTIGASFMTKTVQYQNELHKFLIWDTAGLERFRALAPMYYRGSAAAIIVYDITKEETFSTLKNWVRELRQHGPPSIVVAIAGNKCDLTDVREVMERDAKDYADSIHAIFVETSAKNAININELFIEISRRIPS-GSALRELKVCLLGDTGVGKSSIMWRFVEDSFDPNINPTIGASFMTKTVQYQNELHKFLIWDTAGLERFRALAPMYYRGSAAAIIVYDITKEETFSTLKNWVRELRQHGPPSIVVAIAGNKCDLTDVREVMERDAKDYADSIHAIFVETSAKNAININELFIEISRRIPS-GSALRELKVCLLGDTGVGKSSIMWRFVEDSFDPNINPTIGASFMTKTVQYQNELHKFLIWDTAGLERFRALAPMYYRGSAAAIIVYDITKEETFSTLKNWVRELRQHGPPSIVVAIAGNKCDLTDVREVMERDAKDYADSIHAIFVETSAKNAININELFIEISRRIPS-GSALRELKVCLLGDTGVGKSSIMWRFVEDSFDPNINPTIGASFMTKTVQYQNELHKFLIWDTAGLERFRALAPMYYRGSAAAIIVYDITKEETFSTLKNWVRELRQHGPPSIVVAIAGNKCDLTDVREVMERDAKDYADSIHAIFVETSAKNAININELFIEISRRIPS-GSALRELKVCLLGDTGVGKSSIMWRFVEDSFDPNINPTIGASFMTKTVQYQNELHKFLIWDTAGLERFRALAPMYYRGSAAAIIVYDITKEETFSTLKNWVRELRQHGPPSIVVAIAGNKCDLTDVREVMERDAKDYADSIHAIFVETSAKNAININELFIEISRRIPS,FEQSLLEESK-VNQEVLKAQH-LEQNLHDDLK-AVKELLEKLY-LDSDLAKKLK-GDQEILEELY-TQNYLLEAQQ-ATQALKESLE-GNESLVKNLL-ANHKLCEAQR,IEEELLLQQI-IEEELLLQQI-IEEELLLQQI-IEEELLLQQI-IEEELLLQQI-IEEELLLQQI-IEEELLLQQI-IEEELLLQQI-IEEELLLQQI-IEEELLLQQI
