contacts,cs,ce,Chain,Length,designed_receptor_seq,native_receptor_seq,designed_binder_seq,native_binder_seq
16.0,139,149,A,10,LTREEREREIQQLTRRELAELVNDALRVTG-GSTVEQIERITKLSVEELRELNNDLLRTYL-ATRMDYVHRASQLTTAELLEAVEQLQRQHR-GTQAEEQQLIESLSRLEFAHLVQELRRLLN-GSHMEALEKIQGLSDAEMQEKIDQMILENG-ATKQEKKTAIEQLTAEQLAELVDELNVAHG-GHMIDELEEIEKLSFEELATRVSLLDTMDE-GSMLARIKAIKRLSRSELRDLVMQRQATKG-HGKKEREEAVTALSTQQLAKLVNDMKDKKL-GSHMEAEKSIMLMSDKELCLLVMELRAMRK,MTIDEIIEAIEKLTVSELAELVKKLEDKFG-MTIDEIIEAIEKLTVSELAELVKKLEDKFG-MTIDEIIEAIEKLTVSELAELVKKLEDKFG-MTIDEIIEAIEKLTVSELAELVKKLEDKFG-MTIDEIIEAIEKLTVSELAELVKKLEDKFG-MTIDEIIEAIEKLTVSELAELVKKLEDKFG-MTIDEIIEAIEKLTVSELAELVKKLEDKFG-MTIDEIIEAIEKLTVSELAELVKKLEDKFG-MTIDEIIEAIEKLTVSELAELVKKLEDKFG-MTIDEIIEAIEKLTVSELAELVKKLEDKFG,RLMDMLLKVR-ELAKQLFFHL-DLQKALSAVL-KLERQLQDEE-ENKLRLVGCM-ELKEVLKGYL-MLVKQLKSRM-ELKRDLQSFM-QLEAELKDVE-ELEELLKEEM,ELYAMLVGRV-ELYAMLVGRV-ELYAMLVGRV-ELYAMLVGRV-ELYAMLVGRV-ELYAMLVGRV-ELYAMLVGRV-ELYAMLVGRV-ELYAMLVGRV-ELYAMLVGRV
32.0,12,22,B,10,SELSVNAREFVVKDLTEEFGRTTLLQFADFRGFSAADMSELKQRLRDEFGDGAHFNVIKNTLLHMALDNANYSGYEEFLNGPTAVLYVRDGDPVKAVQLIWDFYKAKERDLTSLKGGFLEGQKFSSAEVEVLATLPSREVLKSKLSGVVMQPLSGAARSLTGVLGSFLRVVLAVLSIG-MALERQQVEERIRYLAETFQRVSLLQFVDFRGFTVNDVTELRKRLREEYGDGARFRVIKGRLLFLALKRAQYSGFEDFLEGPTAVLYVTKGDPIRAVQIIYNFYKKKGEDLSRLKGGFLEGERFSSEEVAVFSRLPTREVLKALSITARLAPVVGLFTALFGYLGMIATFIEFLFAVV-MRLTQELREAYIQRLTDIFKKVSLLLFADFRGFTITDLNELRRLLKEEFGNGAQFLVIKASLLHLALQNAEYTNFEDYLRGPTAVLWVTEGDPVPAVKIIYNFYLKKERDLKRLRGGFLEGRRFSAEEVAVIATLPTREALIAMLVGKVADPVAGTIRSLAGVLGAIARVVNLFVKYK-MPLTKAEKLKRYEELTQIFRKVKLLLFIDFRGFTVTDYTNLRRRLREKFGRGARFNVLKNTLLRLALKNANYSDFESFLVGPTAVLYVTEGDPVEAVKIIYNFYKEKGADLRRLKGGFLEGKRFTSEEVKLIALLPSREVLKAMAVGLILKPVTNLSYAVSGIFNVFIYVLLFIFKVF-GRVSRQSKDAVIKELTEEFRRVSLLEFVNFLGLTVEDEAELRRKLREKFGTGAHFIVVKATLLWFALRESEYTDFEEFLKGPTAVLYVTEGDPVEAVKIIYRFYEAKGLDLNRLKGGFLEGRKFSSEEVELIANLPSREVLLQLFVGKAASPAANVVAMISGIFGLIIRVTNYLISLV-NLRTKEEKEKNIEKLTQIFKKVTLLMFADFRGFSAKDASELRQKLREQYGSGAQFRVVKNRLLQLALEKADYTGFDDFLSGPTSVLYVTEGDPVKAVKIIYDFYKKKGQDLKRLRGGFLEGRRFSSEEVAILANLPSREVLRAMYTFAVLKPVAGLAFNLLGVFTIFVTVAILVQVFN-GPLTREQIELRVEFLTDTFKKVSLLLFADFRGLTVEDTEELRQALREVYGNGARFEVKKNTLLFMALRNANYQAFEDFLVGPTAVLYVTEGDPVSAVRIIYNFYKKKGLDLNRLKGGFLEGQKFTEKEVEVIALMPSKDALRAMAIGRRMAPIVGTFNSMLGIFNTIIRVLMALVQIN-GPLTPEQMNTIIEDLTETFKKVSLIEFVDFRGFTVADTSDLRKALRRKYGVGAKFNVIKNTLLKKALENAKYEGFEELLRGPTSVLYVESGDPIAAVKIIYNFYDSKGEDLDRLRGGFIEGEKFSSEEVKVIATLPSREVLKSMLVGAVAKPAAGFVAALSGIFNVFVRNKVRLLTTL-YQLKREQRLAMVQELTQIFQQVSLLLFVDFRGFTVEDLSLLRRKLREVFGLGAKFEVVKNTLLRLALSHANYTNFDEFLRGPTAVLYVTKGDPVVAVKIIWNFFEEKGADLDRLKGGFLEGQQFTSKEVEDLAHLPTRAVLKALLVSKKQAPAAGMVRALSGLITAAVYVLNFVLALS-MPLTKQQKQEKVKKLTEVFKKTSLLLFADFRGLTVEDTNNLRRKLREEFGTGAEFRVIKNNLLRLALRNAEYSGFEDFLNGPTAVLWVTEGDPVKAVTIIYEFYKEKGIDLNRLKGGFLEGEKFTAEEVEFIAKMPSREALKGMMIGKVANPMVGLAALLTGILGVIVLKRLDSLGGG,VMLTRQQKELIVKEMSEIFKKTSLILFADFLGFTVADLTELRSRLREKYGDGARFRVVKNTLLNLALKNAEYEGYEEFLKGPTAVLYVTEGDPVEAVKIIYNFYKDKKADLSRLKGGFLEGKKFTAEEVENIAKLPSKEELYAMLVGRVKAPITGLVFALSGILRNLVYVLNAIKEKK-VMLTRQQKELIVKEMSEIFKKTSLILFADFLGFTVADLTELRSRLREKYGDGARFRVVKNTLLNLALKNAEYEGYEEFLKGPTAVLYVTEGDPVEAVKIIYNFYKDKKADLSRLKGGFLEGKKFTAEEVENIAKLPSKEELYAMLVGRVKAPITGLVFALSGILRNLVYVLNAIKEKK-VMLTRQQKELIVKEMSEIFKKTSLILFADFLGFTVADLTELRSRLREKYGDGARFRVVKNTLLNLALKNAEYEGYEEFLKGPTAVLYVTEGDPVEAVKIIYNFYKDKKADLSRLKGGFLEGKKFTAEEVENIAKLPSKEELYAMLVGRVKAPITGLVFALSGILRNLVYVLNAIKEKK-VMLTRQQKELIVKEMSEIFKKTSLILFADFLGFTVADLTELRSRLREKYGDGARFRVVKNTLLNLALKNAEYEGYEEFLKGPTAVLYVTEGDPVEAVKIIYNFYKDKKADLSRLKGGFLEGKKFTAEEVENIAKLPSKEELYAMLVGRVKAPITGLVFALSGILRNLVYVLNAIKEKK-VMLTRQQKELIVKEMSEIFKKTSLILFADFLGFTVADLTELRSRLREKYGDGARFRVVKNTLLNLALKNAEYEGYEEFLKGPTAVLYVTEGDPVEAVKIIYNFYKDKKADLSRLKGGFLEGKKFTAEEVENIAKLPSKEELYAMLVGRVKAPITGLVFALSGILRNLVYVLNAIKEKK-VMLTRQQKELIVKEMSEIFKKTSLILFADFLGFTVADLTELRSRLREKYGDGARFRVVKNTLLNLALKNAEYEGYEEFLKGPTAVLYVTEGDPVEAVKIIYNFYKDKKADLSRLKGGFLEGKKFTAEEVENIAKLPSKEELYAMLVGRVKAPITGLVFALSGILRNLVYVLNAIKEKK-VMLTRQQKELIVKEMSEIFKKTSLILFADFLGFTVADLTELRSRLREKYGDGARFRVVKNTLLNLALKNAEYEGYEEFLKGPTAVLYVTEGDPVEAVKIIYNFYKDKKADLSRLKGGFLEGKKFTAEEVENIAKLPSKEELYAMLVGRVKAPITGLVFALSGILRNLVYVLNAIKEKK-VMLTRQQKELIVKEMSEIFKKTSLILFADFLGFTVADLTELRSRLREKYGDGARFRVVKNTLLNLALKNAEYEGYEEFLKGPTAVLYVTEGDPVEAVKIIYNFYKDKKADLSRLKGGFLEGKKFTAEEVENIAKLPSKEELYAMLVGRVKAPITGLVFALSGILRNLVYVLNAIKEKK-VMLTRQQKELIVKEMSEIFKKTSLILFADFLGFTVADLTELRSRLREKYGDGARFRVVKNTLLNLALKNAEYEGYEEFLKGPTAVLYVTEGDPVEAVKIIYNFYKDKKADLSRLKGGFLEGKKFTAEEVENIAKLPSKEELYAMLVGRVKAPITGLVFALSGILRNLVYVLNAIKEKK-VMLTRQQKELIVKEMSEIFKKTSLILFADFLGFTVADLTELRSRLREKYGDGARFRVVKNTLLNLALKNAEYEGYEEFLKGPTAVLYVTEGDPVEAVKIIYNFYKDKKADLSRLKGGFLEGKKFTAEEVENIAKLPSKEELYAMLVGRVKAPITGLVFALSGILRNLVYVLNAIKEKK,DSTFALAVRN-KSRFDLAQEI-LNTFQLAKFL-RTRFELFEWI-LNTWELARKI-LSTYELFVKL-KTRFELFLSN-SNTYELAKKN-PTTFELAKEL-LNTFELYKKV,LTVSELAELV-LTVSELAELV-LTVSELAELV-LTVSELAELV-LTVSELAELV-LTVSELAELV-LTVSELAELV-LTVSELAELV-LTVSELAELV-LTVSELAELV
