contacts,cs,ce,Chain,Length,designed_receptor_seq,native_receptor_seq,designed_binder_seq,native_binder_seq
25.0,86,96,A,10,SPEEQILGKLLAVHLIKLGASLEVLLEETELPRGEIERLWAELKGGRPPRRRHPVSTEYYFDRENRVHASLFANLWLELRRTGRYGGVEAIIEAYRGYLRACPSVEEGPLLSFARAWELVRFMREGRLELVRCRVCGGGYVAEADTPPGRFVCPPC-EPEEEEEEEELARRLIELGASLEVLLDETELPRGRLVELYRRLRGEEPPGEERPRSTDFFMDDENRVHASVFANYWRRLLSLRRYGGVEAVIEAYRRYLEESPRRREGPLLSFDRAWELVRFMEEGLLELVRCRRCGAGFVAEAETPPGEFRCPPC-QPQEQLLERLLAAQLIALGASLEVLLDETRLTPGQLRQLWKELKGGEPPREKTPRSVDWFLDEENRVHASVFMNFYRRLRESGKYGGVEAILRAYELYLQECPEKEEGPRLRFWQAWELVRFVERGELELVKCSVCGGGFVALAKTPPGAFRCPPC-PPEDEEEEEELARRLIELGASLQVGLEETELPPGELRRLWRELRGEEPPGRKRPRSVEFFLDEEARVHASVFANAFRKLLETGRYGGVEAVLEAYRRYLELCPEEEEGPLLRFDRAWELVRFMEEGKLQLVRCRRCGGGFVWREDTPPGEFVCPPC-PPEERVEGVLLAVRLIKLGASLQVGIRETKLSRGELVKLWRSVKGEEPPLRRVPKSVDFYLDSEHRVHASVFMNFWRLLRRSGRYGGVEAVVEAYRRYLEVCPREEEGPLLRFWRAWELVELVERGELELVECRECGAGFVTRRDTPPGSFRCPPC-SPEEKARERELAKRLIELGASLEVGLRETRLSRGELERLWKEIKGEEPPRKKRPRSVEFYMDERRRVHASVFANFYKKLKESGRYGGVEAILEAYRRYLEVEPEREEGPLLEFWRAWELVEFIEAGELELVRCRKCGGGFVRRADTPPEEFVCPPC-APAEDVAGEVLARVLIALGTSLQVGLEATSLSPGRLRQLWTALRGGEPPLEEKPESTDFFLEAENQVHASVFMNAWRRLRQSGRYGGVSAVLAAYSLYLDVCPVQKDGPLLSFSRAWELVRFVERGELELARCRRCGGGFVVRAATPAGAFRCAPC-SPLQERLEVLLAVGLILLGADLQVGVEETSLPVGELRSLYQLVKGGEPPSSARPRSVDYFMDEEARLHASVFANFWRQLRASGRYGGVEAILAAYAKYLEASPELEEGPLLRFSRAWELVQFMEAGRLELKECQECGGGFVVEAETPAGSFICPPC-SPEERAQGVELARRLIKLGASLEVGLSETHLSRGKLEKLWRALRKGPPPGRRRPKSTSWFLDSEARVHASVFVNAWERLLRSGRFGGVEAVLEAYRRYLEVSPKKEEGPLLRFDRAWELVRFREEGKLELVRCRRCGGGFVAPAKTPPGSFVCPPC-SPAEQQQELLLAVRLIALGASLEVGLAETRLPPGALRRLWRLLRGGEPPEEAVPASTEWYMTAEARVHASVFANYWRRLRESGEYGGVEAVLRAYELYLRACPQLEEGPLLRFDRAWELVRFMEEGRLELVRCRDCGGGFVELAETPPGSFVCPPC,SIVQEARDIQLAMELITLGARLQMLESETQLSRGRLIKLYKELRGSPPPKGMLPFSTDWFMTWEQNVHASMFCNAWQFLLKTGLCNGVDAVIKAYRLYLEQCPQAEEGPLLALTRAWTLVRFVESGLLQLSSCNCCGGNFITHAHQPVGSFACSLC-SIVQEARDIQLAMELITLGARLQMLESETQLSRGRLIKLYKELRGSPPPKGMLPFSTDWFMTWEQNVHASMFCNAWQFLLKTGLCNGVDAVIKAYRLYLEQCPQAEEGPLLALTRAWTLVRFVESGLLQLSSCNCCGGNFITHAHQPVGSFACSLC-SIVQEARDIQLAMELITLGARLQMLESETQLSRGRLIKLYKELRGSPPPKGMLPFSTDWFMTWEQNVHASMFCNAWQFLLKTGLCNGVDAVIKAYRLYLEQCPQAEEGPLLALTRAWTLVRFVESGLLQLSSCNCCGGNFITHAHQPVGSFACSLC-SIVQEARDIQLAMELITLGARLQMLESETQLSRGRLIKLYKELRGSPPPKGMLPFSTDWFMTWEQNVHASMFCNAWQFLLKTGLCNGVDAVIKAYRLYLEQCPQAEEGPLLALTRAWTLVRFVESGLLQLSSCNCCGGNFITHAHQPVGSFACSLC-SIVQEARDIQLAMELITLGARLQMLESETQLSRGRLIKLYKELRGSPPPKGMLPFSTDWFMTWEQNVHASMFCNAWQFLLKTGLCNGVDAVIKAYRLYLEQCPQAEEGPLLALTRAWTLVRFVESGLLQLSSCNCCGGNFITHAHQPVGSFACSLC-SIVQEARDIQLAMELITLGARLQMLESETQLSRGRLIKLYKELRGSPPPKGMLPFSTDWFMTWEQNVHASMFCNAWQFLLKTGLCNGVDAVIKAYRLYLEQCPQAEEGPLLALTRAWTLVRFVESGLLQLSSCNCCGGNFITHAHQPVGSFACSLC-SIVQEARDIQLAMELITLGARLQMLESETQLSRGRLIKLYKELRGSPPPKGMLPFSTDWFMTWEQNVHASMFCNAWQFLLKTGLCNGVDAVIKAYRLYLEQCPQAEEGPLLALTRAWTLVRFVESGLLQLSSCNCCGGNFITHAHQPVGSFACSLC-SIVQEARDIQLAMELITLGARLQMLESETQLSRGRLIKLYKELRGSPPPKGMLPFSTDWFMTWEQNVHASMFCNAWQFLLKTGLCNGVDAVIKAYRLYLEQCPQAEEGPLLALTRAWTLVRFVESGLLQLSSCNCCGGNFITHAHQPVGSFACSLC-SIVQEARDIQLAMELITLGARLQMLESETQLSRGRLIKLYKELRGSPPPKGMLPFSTDWFMTWEQNVHASMFCNAWQFLLKTGLCNGVDAVIKAYRLYLEQCPQAEEGPLLALTRAWTLVRFVESGLLQLSSCNCCGGNFITHAHQPVGSFACSLC-SIVQEARDIQLAMELITLGARLQMLESETQLSRGRLIKLYKELRGSPPPKGMLPFSTDWFMTWEQNVHASMFCNAWQFLLKTGLCNGVDAVIKAYRLYLEQCPQAEEGPLLALTRAWTLVRFVESGLLQLSSCNCCGGNFITHAHQPVGSFACSLC,RLWRALCTVT-GLCRALARES-GLLRALAEVS-ELWRYLREES-PLVRALLRVS-ELCRAIRKVS-GLLTYLRKVS-PLVEVLRATS-GLCEYILKVS-ELLEVLARES,QIHTGIMLST-QIHTGIMLST-QIHTGIMLST-QIHTGIMLST-QIHTGIMLST-QIHTGIMLST-QIHTGIMLST-QIHTGIMLST-QIHTGIMLST-QIHTGIMLST
23.0,72,82,B,10,GSHMNQIKYNNNIALLKKAKELINKNEKEACILLGINRAEAKNLKELTDDEIDKIAQSGEQVLENPIEDEKIEERLSKPDENAFLQGLNAGIELLSKRYNQLKT-GPLGSMIKYLENIGFLEVAKTLIKEDKKEACILLGINEKEADFLSRLTSAEMEKIASSGKDSFDNIFEDENVVKELLKDSKNIEEKLKGIEEKLLEKRLSELKQ-GAMFDELVYNANYSFLKQAKKLINKDKKMACVLLGINEKEAEEIARLEEDEITEIAKSGNLILKNPIEDEETIKELTEPGKNFLEKMRDIGDELLKKRLEELKK-MDKKNRLEYEKNLEFLLMAKDLLNKDEKYGMLLLGINRREAEKLKKLTEEEMREIAKSGKSITKDVIDDIKVIKELIEPTENIEEKLKKIGRELLKKRLEELEK-DPFLEALKYKKNKELLLIAKKLIKKDPEMGMILLGINEEEANKIKTLKEEEIEKIAKSGKGIYEFVFKDEKVIKRLTEPSEDLIKLLAEIDYEILKRIYEEKKK-GMSIKEKIYQQNLSALLIAKKLIKANKEEACVLLGINLRQAEELEKLSEEEAKRIAESGKNIFKNIFDDPRIILKLLEPSEDLRKKEEEVKFELLKKRYEELKE-EEFAKALVYAENLSYLLDAKKLIEQDKRLGCLLLGIDFEQAEKISKLEVSEIEKLASSGKKILEDVFKDENVIKELTEPTENIAEKIEKIGYYLRKRLLEELKK-GSSGSSEIYAQNLSFFLQAKKLLSEDVKKGCLLLGINEIQANELSKLSIEEMKKLAQSGKNILQNPIEDENILKELTQPSGKMEEQLKGIEEKLLEKRLTELKK-MGIKNEIILSRNRSFLERAKELIKKDIDKACLLLGINEEQAKEISELEEEEIEKISKSGEEIFEYVIDDPRIVEYLTKPSDKLEEINELLVNELLRKRLEELKS-MLHKQIKIFELNYKFLEDAKRLIKENKKKGCVLLGINYAEANRISSLSDEEIKQIAKSGKAIYDLPFEDSRVVEELTKPSENLDERVKKLGEELLKKRLDELKK,TSELLKHIYDINLSYLLLAQRLIVQDKASAMFRLGINEEMATTLAALTLPQMVKLAETNQLVCHFRFDSHQTITQLTQDSRVDDLQQIHTGIMLSTRLLNDVNQ-TSELLKHIYDINLSYLLLAQRLIVQDKASAMFRLGINEEMATTLAALTLPQMVKLAETNQLVCHFRFDSHQTITQLTQDSRVDDLQQIHTGIMLSTRLLNDVNQ-TSELLKHIYDINLSYLLLAQRLIVQDKASAMFRLGINEEMATTLAALTLPQMVKLAETNQLVCHFRFDSHQTITQLTQDSRVDDLQQIHTGIMLSTRLLNDVNQ-TSELLKHIYDINLSYLLLAQRLIVQDKASAMFRLGINEEMATTLAALTLPQMVKLAETNQLVCHFRFDSHQTITQLTQDSRVDDLQQIHTGIMLSTRLLNDVNQ-TSELLKHIYDINLSYLLLAQRLIVQDKASAMFRLGINEEMATTLAALTLPQMVKLAETNQLVCHFRFDSHQTITQLTQDSRVDDLQQIHTGIMLSTRLLNDVNQ-TSELLKHIYDINLSYLLLAQRLIVQDKASAMFRLGINEEMATTLAALTLPQMVKLAETNQLVCHFRFDSHQTITQLTQDSRVDDLQQIHTGIMLSTRLLNDVNQ-TSELLKHIYDINLSYLLLAQRLIVQDKASAMFRLGINEEMATTLAALTLPQMVKLAETNQLVCHFRFDSHQTITQLTQDSRVDDLQQIHTGIMLSTRLLNDVNQ-TSELLKHIYDINLSYLLLAQRLIVQDKASAMFRLGINEEMATTLAALTLPQMVKLAETNQLVCHFRFDSHQTITQLTQDSRVDDLQQIHTGIMLSTRLLNDVNQ-TSELLKHIYDINLSYLLLAQRLIVQDKASAMFRLGINEEMATTLAALTLPQMVKLAETNQLVCHFRFDSHQTITQLTQDSRVDDLQQIHTGIMLSTRLLNDVNQ-TSELLKHIYDINLSYLLLAQRLIVQDKASAMFRLGINEEMATTLAALTLPQMVKLAETNQLVCHFRFDSHQTITQLTQDSRVDDLQQIHTGIMLSTRLLNDVNQ,KLREEILKEI-ELKEEILKEI-ELVEEILKEI-ELREKILEKL-ELIEKIKEIL-ELKKKILEEL-ELDKEILELL-ELKKEILSLI-ELAKEILEAL-ELKKKILEEL,CNAWQFLLKT-CNAWQFLLKT-CNAWQFLLKT-CNAWQFLLKT-CNAWQFLLKT-CNAWQFLLKT-CNAWQFLLKT-CNAWQFLLKT-CNAWQFLLKT-CNAWQFLLKT
