contacts,cs,ce,Chain,Length,designed_receptor_seq,native_receptor_seq,designed_binder_seq,native_binder_seq
25.0,86,96,A,10,NPNALSHGVRMATQLIQLGAHRSVLVDETELTQGQLERMWHWLRGSEPPRYRAPVSVDWFQTLSHRLHASVFMNYWKVYRRRQAFRGNEAIQQAYAQYLTVEPLHRHGPLLEFHRARELNRFVEAGLLQLATCRFCGSGYVVEAHTPATSFTCPVC-SPMGDVEEYVVALQLTSMGWNLEVGLAATDVPHGTFVRLWKFLREEEPPSSLKPMSTHVYFENQRRVAASVFMNLWRYERSTGRFGDITTILAAYGGYLFMCPCSQAGPLLTFYRAWELVQFVSEGKLELVNCRKCFAGYIVSAQTPLGTHVCPPC-NPLEVKAGRALAEELIRLGADIDLGLALTALDEGEYQVLWTELRKRLPPRSLEPRTTSWFMSQSNRVHASAFANFYQQIRDSPSYGGTEAIISAFRAYLTVEPQSLQGPALNFEKAYELVDFMREGVLDLRRCQVCGGGFVTASYSPPGRYSCEQC-SPAQQAMGEELARRLIQLGAAQAVLLDETHLPPGEIERLHAAMHRGSPPSFNLPASTLWFQSQWHRTHASVFLNAWAALLQSGERGGLDAILTAFEAYERTVPPSSKGPLLRFWRAKELHDFMAAGTLMLARCASCGGNFVTASDCEPGTYHCPPC-YPHSEIEGIMKAVVLILMGCGLDEGLAETNLKRGHLVLYWKNLRERDPPIAAKPNSTDWFLRAENNVEASIFYNYWRNLKNSGDYCQIDAVVEAFDRYLSASPAQLAGPLLSFSRAWELVQFADKGVLSLARCSGCGCGYIVPADTPPGLFSCAAC-ELERDTAGVTLAYCLIRLGASLDVLLRETNLTTGEGNRLWKKLRRGEPPRQAIPKEEAFYLCEDNQVHASVFLNHWRSFREEDLFRGVDAVVMAYACYQYVEPVATTGPLLRFSRAYELVEFVKRGVLELVQCERCGGGFVVKAKTPPGGFNCAHC-EPMRDFEEEALAAVLIKLGAELVVLEEETTLPKGRLVELWKKIKDGYPPAYFEPRSTRYFLEKKARIHASIFMNRYLRLLQSNKYGGVKAVLAAYSEYLEVTPRAESGPLLKFSRAWELVQFYKAGKLELVRCKKCGGGFVGSFHTESGSLECGPC-GPLGSLRGIYEALKLITLGSSLETGVEVTDLSVGKFMRLWQLLRQEEPPARTRPQTTSYFLRAERRIEATVFVNGWVKRLETGRYGGTEAVTSAYEEYLRRRPAATQGPLLSFDRAHELVELVAAGRLELVQCRSCGSGWVALRDSPPGSHACSTC-RPLDLRKKVQIATDLVVRGCSLKVLVRVTSLSPLLIRTLYKFLRGKEPPLSSVPESVDWYFNAKHRVEASAFMNFYMELRDRGGYNGVEAVLKAYKMYLEATPQLDKGPYLKFEKAYELVLFVEEGKLCLARCRTCGGYYVTKAEKPEGDYICPKC-RRLQREAQVMEARNLLDLGVDCQVGLKETSLPPGRFRSLWKKLRQGLPPNHSRPESIRFYLSAQHRVEASVFVNFWRSLMASGRFGGLEAVLRAYEEYLKCAPAGLQGPLLEFERAYELVEFIREGKLELAFCRICGRGYVVEAKTPEGAFQCGPC,SIVQEARDIQLAMELITLGARLQMLESETQLSRGRLIKLYKELRGSPPPKGMLPFSTDWFMTWEQNVHASMFCNAWQFLLKTGLCNGVDAVIKAYRLYLEQCPQAEEGPLLALTRAWTLVRFVESGLLQLSSCNCCGGNFITHAHQPVGSFACSLC-SIVQEARDIQLAMELITLGARLQMLESETQLSRGRLIKLYKELRGSPPPKGMLPFSTDWFMTWEQNVHASMFCNAWQFLLKTGLCNGVDAVIKAYRLYLEQCPQAEEGPLLALTRAWTLVRFVESGLLQLSSCNCCGGNFITHAHQPVGSFACSLC-SIVQEARDIQLAMELITLGARLQMLESETQLSRGRLIKLYKELRGSPPPKGMLPFSTDWFMTWEQNVHASMFCNAWQFLLKTGLCNGVDAVIKAYRLYLEQCPQAEEGPLLALTRAWTLVRFVESGLLQLSSCNCCGGNFITHAHQPVGSFACSLC-SIVQEARDIQLAMELITLGARLQMLESETQLSRGRLIKLYKELRGSPPPKGMLPFSTDWFMTWEQNVHASMFCNAWQFLLKTGLCNGVDAVIKAYRLYLEQCPQAEEGPLLALTRAWTLVRFVESGLLQLSSCNCCGGNFITHAHQPVGSFACSLC-SIVQEARDIQLAMELITLGARLQMLESETQLSRGRLIKLYKELRGSPPPKGMLPFSTDWFMTWEQNVHASMFCNAWQFLLKTGLCNGVDAVIKAYRLYLEQCPQAEEGPLLALTRAWTLVRFVESGLLQLSSCNCCGGNFITHAHQPVGSFACSLC-SIVQEARDIQLAMELITLGARLQMLESETQLSRGRLIKLYKELRGSPPPKGMLPFSTDWFMTWEQNVHASMFCNAWQFLLKTGLCNGVDAVIKAYRLYLEQCPQAEEGPLLALTRAWTLVRFVESGLLQLSSCNCCGGNFITHAHQPVGSFACSLC-SIVQEARDIQLAMELITLGARLQMLESETQLSRGRLIKLYKELRGSPPPKGMLPFSTDWFMTWEQNVHASMFCNAWQFLLKTGLCNGVDAVIKAYRLYLEQCPQAEEGPLLALTRAWTLVRFVESGLLQLSSCNCCGGNFITHAHQPVGSFACSLC-SIVQEARDIQLAMELITLGARLQMLESETQLSRGRLIKLYKELRGSPPPKGMLPFSTDWFMTWEQNVHASMFCNAWQFLLKTGLCNGVDAVIKAYRLYLEQCPQAEEGPLLALTRAWTLVRFVESGLLQLSSCNCCGGNFITHAHQPVGSFACSLC-SIVQEARDIQLAMELITLGARLQMLESETQLSRGRLIKLYKELRGSPPPKGMLPFSTDWFMTWEQNVHASMFCNAWQFLLKTGLCNGVDAVIKAYRLYLEQCPQAEEGPLLALTRAWTLVRFVESGLLQLSSCNCCGGNFITHAHQPVGSFACSLC-SIVQEARDIQLAMELITLGARLQMLESETQLSRGRLIKLYKELRGSPPPKGMLPFSTDWFMTWEQNVHASMFCNAWQFLLKTGLCNGVDAVIKAYRLYLEQCPQAEEGPLLALTRAWTLVRFVESGLLQLSSCNCCGGNFITHAHQPVGSFACSLC,PLLAELAKMT-GLIGFISLIS-DLLRALRIST-GLVAEIKAQT-GQVRAIREIQ-GLVESILRRS-GLLRAIESVT-GLLAWLHQES-EVEKILREVS-GLMKSLRRLS,QIHTGIMLST-QIHTGIMLST-QIHTGIMLST-QIHTGIMLST-QIHTGIMLST-QIHTGIMLST-QIHTGIMLST-QIHTGIMLST-QIHTGIMLST-QIHTGIMLST
23.0,72,82,B,10,NIVRNMNLIMDNLSEMIVKKSLLMQNKKCGCVLLGCSEKEANRLSGVEYEEALEIAVSDQGVMRDAVDNIGDHIKILKPDHQERLQNANLLYLHLRRIRENLES-DELEEEQVYQNNLGFLKKAKMLITDNKDIGCVLLGIHIDNAEVLAKLSDTEMENIAKSGNKIAVHVIDNPKDIWYLNHPNENEEEQIEEVSLRLLRRLYDQLIR-DNQKDAYRYAKNLFLLIVARYLINSDVDKACVLLGINKKEAEKLKALTDEEMDEIARSGIDGWDCVFNDPEVWEKLVEPTWFQDEKAKGFIDELLKNRLEEEKK-MISEELVKYRKSLGFLINAKKLIKQDKVKGCVILGINFEQAKEIEALKMENCNEIAKSGNQILKESFTVKSDIEELTLPSAHREWLMEMRKFKLRQMYLNHLKN-GSSYDRDQYNKSLSFFKAARFLLEKDPVLGMIVLGINRMEAGILSKLTDKQMEELAKSGKKITSNPYMDTNVLDELTEENGWGKARGIKIGVRFLERRYMLAIK-SVSLSMKQYADNYTALIMAQKMLRQDEIRGCIFLGIDRAQGEKIKHLSDDEKDSIAKSRNRIYDFIFDDEKIVEDLLSSSDDALFQNLQIGETVFKNFLNRLRE-MNKAHINTIEKNLGYLEIAKKIIEKNIKEGCSQLGINKKEALRLSKLEKNEKQKIAKSGLGNYKSIYNNEKEIYNLTHNTLLSIISKIGKEMEINKSTLNSFIN-TEFKEAITFSGNYLFFKIAQKLLKKDVKTGCILLGINKKEAKNIQNLEDNQIIDLATNTSQLYRLDLDNIEDLVDLSAWDKTEEERFFSLLEKRLEKLHNQLGK-SMAEQKEKFEKNYSFLTQAKKLITEDVEHACVLLGINHAEALRLKSLTTSEMAEISSSGQFVKEVAFEDVRDLVDLTLPGEDAEKLDRKLFDKLLQIHLERSRR-SNAMQKINFMNNFSHLKNAKAAIEKDISTACLVLGINTPEAAHCKALSTDAMEKIASSGETAFNNALYFDDQVAEILRPSADTKERRSMLLELLWQRQLEKRQQ,TSELLKHIYDINLSYLLLAQRLIVQDKASAMFRLGINEEMATTLAALTLPQMVKLAETNQLVCHFRFDSHQTITQLTQDSRVDDLQQIHTGIMLSTRLLNDVNQ-TSELLKHIYDINLSYLLLAQRLIVQDKASAMFRLGINEEMATTLAALTLPQMVKLAETNQLVCHFRFDSHQTITQLTQDSRVDDLQQIHTGIMLSTRLLNDVNQ-TSELLKHIYDINLSYLLLAQRLIVQDKASAMFRLGINEEMATTLAALTLPQMVKLAETNQLVCHFRFDSHQTITQLTQDSRVDDLQQIHTGIMLSTRLLNDVNQ-TSELLKHIYDINLSYLLLAQRLIVQDKASAMFRLGINEEMATTLAALTLPQMVKLAETNQLVCHFRFDSHQTITQLTQDSRVDDLQQIHTGIMLSTRLLNDVNQ-TSELLKHIYDINLSYLLLAQRLIVQDKASAMFRLGINEEMATTLAALTLPQMVKLAETNQLVCHFRFDSHQTITQLTQDSRVDDLQQIHTGIMLSTRLLNDVNQ-TSELLKHIYDINLSYLLLAQRLIVQDKASAMFRLGINEEMATTLAALTLPQMVKLAETNQLVCHFRFDSHQTITQLTQDSRVDDLQQIHTGIMLSTRLLNDVNQ-TSELLKHIYDINLSYLLLAQRLIVQDKASAMFRLGINEEMATTLAALTLPQMVKLAETNQLVCHFRFDSHQTITQLTQDSRVDDLQQIHTGIMLSTRLLNDVNQ-TSELLKHIYDINLSYLLLAQRLIVQDKASAMFRLGINEEMATTLAALTLPQMVKLAETNQLVCHFRFDSHQTITQLTQDSRVDDLQQIHTGIMLSTRLLNDVNQ-TSELLKHIYDINLSYLLLAQRLIVQDKASAMFRLGINEEMATTLAALTLPQMVKLAETNQLVCHFRFDSHQTITQLTQDSRVDDLQQIHTGIMLSTRLLNDVNQ-TSELLKHIYDINLSYLLLAQRLIVQDKASAMFRLGINEEMATTLAALTLPQMVKLAETNQLVCHFRFDSHQTITQLTQDSRVDDLQQIHTGIMLSTRLLNDVNQ,ELVKEILNSL-ELIQEILNYL-DLIQRIKEEI-RLKQEIHLFH-FLIFEIIKLM-ELVEKIEKIL-NLKKAIFILI-LLKIKILDVI-LLEKELLALF-VLRTEILSSM,CNAWQFLLKT-CNAWQFLLKT-CNAWQFLLKT-CNAWQFLLKT-CNAWQFLLKT-CNAWQFLLKT-CNAWQFLLKT-CNAWQFLLKT-CNAWQFLLKT-CNAWQFLLKT
