contacts,cs,ce,Chain,Length,designed_receptor_seq,native_receptor_seq,designed_binder_seq,native_binder_seq
19.0,67,77,A,10,GSSMADKLNRIDKNIRESLLIEDLKIEKCIGALNELEQLSITKEEAGKHRFLIATLRKIQQFYVSEEIMKKATELHNRFVTM-GSHMDSELSRIDEQIRDSLKIEDLKVNECIGALKRLNSLCVSRDDAQRHNRMKSTLKKYQFFTVSQEIMELSRDLFDLFNEM-GSHMQTTLEQIDTQIQTSLQVNNLQIDTAIYALNQLDSLDVSISQASEHKSMIKTLRSIRTFDVSEKIMELSGKLFTKFILQ-MTPMDSKLNNINERILESLKINELKVDKCISALKELQSLEVSLEEKQRHSSMMSTLNKIRNFAVSEQIMNLSRELHDRFKKM-GSMMDTSLERIDSDIRDALEIDDLRISQCLDALQEMESLSVSSSEAASHSRMIGTLERVQFFRVSQQIMASSSSLHARFSAR-AGPMDQKLNFIHYTILNSLTIDKLEVEKAKTALIELSKLDISQDEALHHTHMIQTLERIQFFEVSNEIMRLSKELHQRFTTM-NTDVDKTLNQIDADIRDALEISNLQIQKCIAALDQLNNLSVTRSEAEMHIKMINTLYDIQFFYVSKEISKKSLTLYHRYQKM-GSMQDVTLDRINDQIENALVVDNLQVDTAIDALAELENLAVTKDQAAKHTDMVTTLRRIEDFKVSKEIKEKAKNLFERFSKL-ASQADQTLERIDQTIQKSLQSHNLQVNLCIHALEELSSLQITREEAQSHQKMITVLAQICAFTVSKEIRQQAAVLVIKYMNT-GSHMDSKLNQIDSDIEMSLMSYTLDINKCIDALNALSNLDVTKAEANLHEDMLSTLKKIQNFIVSKEIMTKSKELYDHYKDN,GSSMDSRLQRIHAEIKNSLKIDNLDVNRCIEALDELASLQVTMQQAQKHTEMITTLKKIRRFKVSQVIMEKSTMLYNKFKNM-GSSMDSRLQRIHAEIKNSLKIDNLDVNRCIEALDELASLQVTMQQAQKHTEMITTLKKIRRFKVSQVIMEKSTMLYNKFKNM-GSSMDSRLQRIHAEIKNSLKIDNLDVNRCIEALDELASLQVTMQQAQKHTEMITTLKKIRRFKVSQVIMEKSTMLYNKFKNM-GSSMDSRLQRIHAEIKNSLKIDNLDVNRCIEALDELASLQVTMQQAQKHTEMITTLKKIRRFKVSQVIMEKSTMLYNKFKNM-GSSMDSRLQRIHAEIKNSLKIDNLDVNRCIEALDELASLQVTMQQAQKHTEMITTLKKIRRFKVSQVIMEKSTMLYNKFKNM-GSSMDSRLQRIHAEIKNSLKIDNLDVNRCIEALDELASLQVTMQQAQKHTEMITTLKKIRRFKVSQVIMEKSTMLYNKFKNM-GSSMDSRLQRIHAEIKNSLKIDNLDVNRCIEALDELASLQVTMQQAQKHTEMITTLKKIRRFKVSQVIMEKSTMLYNKFKNM-GSSMDSRLQRIHAEIKNSLKIDNLDVNRCIEALDELASLQVTMQQAQKHTEMITTLKKIRRFKVSQVIMEKSTMLYNKFKNM-GSSMDSRLQRIHAEIKNSLKIDNLDVNRCIEALDELASLQVTMQQAQKHTEMITTLKKIRRFKVSQVIMEKSTMLYNKFKNM-GSSMDSRLQRIHAEIKNSLKIDNLDVNRCIEALDELASLQVTMQQAQKHTEMITTLKKIRRFKVSQVIMEKSTMLYNKFKNM,IQELDAKVWL-DIYEKARLWR-TDPLKAYVWE-DVTLMNIMEA-SELMKARIWQ-HHHIQALVWE-VDIVNALRNT-GINLAARLNA-SYYLQAEIWT-REILEAIWWA,STTVKAACWW-STTVKAACWW-STTVKAACWW-STTVKAACWW-STTVKAACWW-STTVKAACWW-STTVKAACWW-STTVKAACWW-STTVKAACWW-STTVKAACWW
16.0,16,26,B,10,FPPGFWALDITHKDGLNILVAVHQASGYIEAAVIKSATGPETAAFLGKLSRRWRVKTVVTDNGAQFTSHVVQAACDNYGIDLIHTIPTTKSHLKEIINAVRHQHAKLKHAVQLAVHRHNTDGPNERILQLVNEYY-GPPGRWELDTTYLEGKVILLAVHVASGYIEAKVIGKATGRETAAFLEKLASEYAVEVVTTDNGSEFTSEVFKAACDHMGIKQRYSIETTNRRLKEIIGKVRDLAEELKTAVQLAVFVHNNQGRGEKLRQILGSTR-MSPGMWELDTTHDAGESILLACHIASGYIEADVIGAQTGPETAAFLERLARELPVHTVITDNGTEFTSNTVQAACAREGITQRFAITAKHNSLKSLINRVRNRAKELARAVHIAVEIWNNAGQLAAIERIQGEKS-SKPGLWALDFTYLDGETILVAVHLASGYIEAAVIPAATGRETAKFLDILAKRWPVDTVLTDNGSNFTSNIVKAACEKHGIKTEYTIDYTHQVLKEIIRKVRHRSKQLCHTVQIAVKIWNQRGAGKRIRKIVSAAQ-SYPGLWELDTTFKDSKTILVAIHVASGYIEASVISAETGRETAQFLKELASRWPVETVLTDNGTQFTSNTVQAACRDQGVQRQFSILREQVALHRTIEGVRCLSERLEHAVQDAVWIINHRGAGEKIAKIISEAS-SYPGVWELDTTYCDGKVILLAVHVASGFIDASVIPRQTGPETARALMDLASKHPVALVITDGGSQFTAKTVGAACKKYGIQQRFTIGSTQRTLKDVINDVRSSSTKLKSAVQKAVFIHNHKGEGQRIEEILRQFG-ERPGLFELDTTYLDGQDILVAVHVDSGYIEASVIPQKTGDETAAFLCDLARRFPVLTVVTDNGSEFTSNTVQAACRRDGISQRYSIQFVHTKLKQIIHRVRCLAQRLDKAVQLAVFIHNWRGRGVAIARIIEEAM-MYPGLWQLDTTHYEGKVILLAVHVVSGFIEARVIGRSTGMETAMFLLKLSKQFSVEVVITDNGSQFTSQTVGAACYAAGITTQYCIKAACERLHQIIRNVRSKSKKLKDAVQQAVFVHNHSGHGEQLINHIAKYL-SYPGLWELDTLYLDGQVILVAVHVKSGYIEAAVIPAQTGPETAEFLEMLAVRRPVHTVICDNGTNFTSSIVAAACRARGIRQKFTIHATNKALKEKIQRVRDQASELREAVQMAVREHNQAGHHEAIAQIIDRYH-MNPDFWELDTTYLFGECILVAVHVASGYIEASVISSETGPETAQFLRLLSKRWLVRTVQTDNGSNFTSNVVKAACQEEGISLTYRRKIVQKTLKQIIDQVRNLETRLHNAVQLAVWIHNHNGFQHRIKTILDEYH,CSPGIWQLDCTHLEGKVILVAVHVASGYIEAEVIPAETGQETAYFLLKLAGRWPVKTVHTDNGSNFTSTTVKAACWWAGIKQEFVIESMNKELKKIIGQVRDQAEHLKTAVQMAVFIHNKKSAGERIVDIIATDI-CSPGIWQLDCTHLEGKVILVAVHVASGYIEAEVIPAETGQETAYFLLKLAGRWPVKTVHTDNGSNFTSTTVKAACWWAGIKQEFVIESMNKELKKIIGQVRDQAEHLKTAVQMAVFIHNKKSAGERIVDIIATDI-CSPGIWQLDCTHLEGKVILVAVHVASGYIEAEVIPAETGQETAYFLLKLAGRWPVKTVHTDNGSNFTSTTVKAACWWAGIKQEFVIESMNKELKKIIGQVRDQAEHLKTAVQMAVFIHNKKSAGERIVDIIATDI-CSPGIWQLDCTHLEGKVILVAVHVASGYIEAEVIPAETGQETAYFLLKLAGRWPVKTVHTDNGSNFTSTTVKAACWWAGIKQEFVIESMNKELKKIIGQVRDQAEHLKTAVQMAVFIHNKKSAGERIVDIIATDI-CSPGIWQLDCTHLEGKVILVAVHVASGYIEAEVIPAETGQETAYFLLKLAGRWPVKTVHTDNGSNFTSTTVKAACWWAGIKQEFVIESMNKELKKIIGQVRDQAEHLKTAVQMAVFIHNKKSAGERIVDIIATDI-CSPGIWQLDCTHLEGKVILVAVHVASGYIEAEVIPAETGQETAYFLLKLAGRWPVKTVHTDNGSNFTSTTVKAACWWAGIKQEFVIESMNKELKKIIGQVRDQAEHLKTAVQMAVFIHNKKSAGERIVDIIATDI-CSPGIWQLDCTHLEGKVILVAVHVASGYIEAEVIPAETGQETAYFLLKLAGRWPVKTVHTDNGSNFTSTTVKAACWWAGIKQEFVIESMNKELKKIIGQVRDQAEHLKTAVQMAVFIHNKKSAGERIVDIIATDI-CSPGIWQLDCTHLEGKVILVAVHVASGYIEAEVIPAETGQETAYFLLKLAGRWPVKTVHTDNGSNFTSTTVKAACWWAGIKQEFVIESMNKELKKIIGQVRDQAEHLKTAVQMAVFIHNKKSAGERIVDIIATDI-CSPGIWQLDCTHLEGKVILVAVHVASGYIEAEVIPAETGQETAYFLLKLAGRWPVKTVHTDNGSNFTSTTVKAACWWAGIKQEFVIESMNKELKKIIGQVRDQAEHLKTAVQMAVFIHNKKSAGERIVDIIATDI-CSPGIWQLDCTHLEGKVILVAVHVASGYIEAEVIPAETGQETAYFLLKLAGRWPVKTVHTDNGSNFTSTTVKAACWWAGIKQEFVIESMNKELKKIIGQVRDQAEHLKTAVQMAVFIHNKKSAGERIVDIIATDI,QADYIWLLKP-RHCYITALAP-AEADIRDLHW-HPSNRFNLLP-RKSYIRALSP-PLQAVDSLCM-PNRAIHLLRP-ARYAITDLNP-VRDDIHNLSW-RRRQINNLNP,NSLKIDNLDV-NSLKIDNLDV-NSLKIDNLDV-NSLKIDNLDV-NSLKIDNLDV-NSLKIDNLDV-NSLKIDNLDV-NSLKIDNLDV-NSLKIDNLDV-NSLKIDNLDV
