contacts,cs,ce,Chain,Length,designed_receptor_seq,native_receptor_seq,designed_binder_seq,native_binder_seq
20.0,21,31,A,10,GPLFSLSPSYDPLEEEALARPEIESAVREGDRMRVVVKPTLTSVKENDKNLTLQDVYGKRLVYVLRYNGGVKYATTKTNEFLVDIELGKKYCFAVQAEIPERKTNKTSEWSPVVCD-GPLFSLSPSYNPLEEEELARPEIQSAVREGDRMRVVVKPTLTSVKENDKNLTLQDVYGDRLVYRLRYNGGVKYATTKTNEFLIDIELGKEYCFAVQAVIPSRKENATSEWSPVVCD-GPLFSLSPSYDPLEEEELARPEIESAVREGDRMRVVVKPTLTSVKENDKNLTLRDVYGERLVYRLRYNGGVKYAETKTDTFLVDIEEGKKYCFAVQAVIPSRKKNATSEWSPVVCD-GPLFSLSPSYNPLEEEKLARPEIESAVREGDRMRVVVKPTLTSYKENDKNLTLQDVYGDRLIYRLKYNGGVKYAETKTNTFLIDIELGKEYCFAVQAVIPERKENATSEWSPVVCD-GPLFSLSPSYNPLEEEALARPEIESAVREGNRMRVVVKPALTSVKENDKNLTLQDVYGDRLVYRLRYNGGVKYAETKTNEFLIDIEEGKEYCFAVQAVIPSRKENATSEWSPVVCD-GPLFSLSPSFNPLEEISLARPEIESAVREGDRMRVVVKPTLTSVKENDKNLTLRDVYGERLVYVLKYNGGVKYAVTKTNEFLIDIELGKEYCFAVQAEIPERKVNKTSEWSPVVCD-GPLFSLSPSFDPLEEEALARPVIQSATREGDRMRVVVAPALTSRRENDRRLTLRDVYGDRLVYRLRYDGGVRYAETRTDTFLVDIEAGRRYCFAVQAVVPSRRVNATSDWSPVVCD-GPLFSLSPSYNPLEEEKLARPEIESAVREGDRMRVVVKPTLTSVKENDKNLTLRDVYGDRLVYVLRYNGGVRYATTKTDTFLVDIELGKKYCFAVQAEIPERKENKTSEWSPVVCD-GPLFSLSPSYNPLEEEALARPEILSAVREGDRMRVVVKPTLTEYKENDKNLTLQDVYGDRLVYVLRYNGGVKYATTKTNEFLIDIELGKEYCFAVQAEIPERKENKTSEWSPVVCD-GPLFSESPSYNPLEEEELKRPVIESAVREGDRMRVVVKPTLTSVKENDKNLTLRDVYGDRLVYRLKYNGGVKYAETKTDTFLIDIELGKKYCFAVQAVIPERKKNATSEWSPVVCD,EPLYENSPEFTPYLETNLGQPTIQSFEQVGTKVNVTVEDERTLVRRNNTFLSLRDVFGKDLIYTLYYWSGKKTAKTNTNEFLIDVDKGENYCFSVQAVIPSRTVNRKSTDSPVECM-EPLYENSPEFTPYLETNLGQPTIQSFEQVGTKVNVTVEDERTLVRRNNTFLSLRDVFGKDLIYTLYYWSGKKTAKTNTNEFLIDVDKGENYCFSVQAVIPSRTVNRKSTDSPVECM-EPLYENSPEFTPYLETNLGQPTIQSFEQVGTKVNVTVEDERTLVRRNNTFLSLRDVFGKDLIYTLYYWSGKKTAKTNTNEFLIDVDKGENYCFSVQAVIPSRTVNRKSTDSPVECM-EPLYENSPEFTPYLETNLGQPTIQSFEQVGTKVNVTVEDERTLVRRNNTFLSLRDVFGKDLIYTLYYWSGKKTAKTNTNEFLIDVDKGENYCFSVQAVIPSRTVNRKSTDSPVECM-EPLYENSPEFTPYLETNLGQPTIQSFEQVGTKVNVTVEDERTLVRRNNTFLSLRDVFGKDLIYTLYYWSGKKTAKTNTNEFLIDVDKGENYCFSVQAVIPSRTVNRKSTDSPVECM-EPLYENSPEFTPYLETNLGQPTIQSFEQVGTKVNVTVEDERTLVRRNNTFLSLRDVFGKDLIYTLYYWSGKKTAKTNTNEFLIDVDKGENYCFSVQAVIPSRTVNRKSTDSPVECM-EPLYENSPEFTPYLETNLGQPTIQSFEQVGTKVNVTVEDERTLVRRNNTFLSLRDVFGKDLIYTLYYWSGKKTAKTNTNEFLIDVDKGENYCFSVQAVIPSRTVNRKSTDSPVECM-EPLYENSPEFTPYLETNLGQPTIQSFEQVGTKVNVTVEDERTLVRRNNTFLSLRDVFGKDLIYTLYYWSGKKTAKTNTNEFLIDVDKGENYCFSVQAVIPSRTVNRKSTDSPVECM-EPLYENSPEFTPYLETNLGQPTIQSFEQVGTKVNVTVEDERTLVRRNNTFLSLRDVFGKDLIYTLYYWSGKKTAKTNTNEFLIDVDKGENYCFSVQAVIPSRTVNRKSTDSPVECM-EPLYENSPEFTPYLETNLGQPTIQSFEQVGTKVNVTVEDERTLVRRNNTFLSLRDVFGKDLIYTLYYWSGKKTAKTNTNEFLIDVDKGENYCFSVQAVIPSRTVNRKSTDSPVECM,EWKKLKEEAE-EWKELKEKAE-EWKELKEEAE-EWKKLKEEAE-EWKKLKEEAE-EWEELKKEAE-AWRRLAEEAR-KWKKLKEEAE-EWEKLKAEAE-EWKKLKEEAE,ARTKLFWISY-ARTKLFWISY-ARTKLFWISY-ARTKLFWISY-ARTKLFWISY-ARTKLFWISY-ARTKLFWISY-ARTKLFWISY-ARTKLFWISY-ARTKLFWISY
16.0,105,115,B,10,AEEEPVCEGVECGEDVCEFNDERDCEFQRAYFDGNDCASSPCQNGGTCTDLYSSYVCTCQPDYTGRNCEIDLNALDDCSNNNGGCQQLCVDHAGSTRTCACQAGYALQADGRSCAPTVANPPGVDPEQE-EEEEPEEEEEEEEEEEEEFEDEEEEEFEEAYFDGDDCESDPCQNGGTCTDLYDSYECECLPDFTGENCEIDLDELDDCSNNNGGCQQLCEDHEGSERTCHCEEGYELLEDGKSCAPTVENPPGVDPEEE-EEEEPVCEGVECGEDESDFSSEEELLFLRSYYDGDDCASEPCQNGGTCTDLYSSYECTCLPDYTGRNCEIDLNALDTCDNNNGGCQQLCVDHEGSERTCECEEGYELLEDGKSCAPTVDNPPGVDPETE-MDPCPDDPGCEPGEDECFFNDERDCDFQRAYFDGDDCASSPCQNGGTCTDLYSSYRCTCQPDFTGRNCEIDLNALDDCSNNNGGCQQLCVDHAGSTRTCACQAGYALQADGRSCAPTVASPPGVDPERE-AEEEPVDLSCEEGEDECYFNSTECEKFALAYYDGNECESDPCQNGGTCTDLYSSYVCTCQPDYTGRNCEIDLNELDTCDNNNGGCQQLCVDHEGSERTCECEEGYELLEDGKSCAPTVENPPGVDPEKD-AEEEPVCEGDEGCEDDSDFKDEEDEEFCRSYYDGDDCASDPCQNGGTCTDLYSSYVCTCQPDFTGRNCEIDLNALDDCSNNNGGCQQLCVDHAGSTRTCACNAGYALQADGRSCAPTVANPPGVDPEKE-EDEEPCDLGCEGGEDESCFSSEEEEEFLRSYYDGDDCASSPCQNGGTCTDLYSSYTCTCLPDYTGRNCEIDLDALDDCSNNNGGCQQLCVDHEGSERTCECEEGYELQEDGRSCVPTVDNPPGVDPETE-EEEEPEEEEEEEEEEEEEFESEEEEEFLEWYYDGDDCESDPCQNGGTCTDLYSSYECECLPDYEGENCEIDKSELDWCDNNNGGCQQLCVDHEGSERTCECEEGYELLEDGKSCAPTVENPPGVDPEEE-MDPCPSGYGCEGGEDECNFNDERDCEFAKAYYDGNDCASNPCQNGGTCTDLYDSYVCTCLPDYTGRNCEIDLNALDDCSNNNGGCQQLCVDHAGSTRTCECNAGYALQADGKSCVPTVANPPGVDPEKD-AEEEPVCEGLEGCEDDSDFQNEEELEFCKAYYDGDDCASDPCQNGGTCTDLYSSYVCTCLPDYTGRNCEIDLNALDTCDNNNGGCQQLCVDHEGSTRTCECEEGYELLEDGRSCAPTVENPPGVDPELE,FLLRPGSLRCKQCSFARIFKDARTKLFWISYSDGDQCASSPCQNGGSCKDQLQSYICFCLPAFEGRNCETHKDDQLICVNENGGCEQYCSDHTGTKRSCRCHEGYSLLADGVSCTPTVEYPCGKIPILE-FLLRPGSLRCKQCSFARIFKDARTKLFWISYSDGDQCASSPCQNGGSCKDQLQSYICFCLPAFEGRNCETHKDDQLICVNENGGCEQYCSDHTGTKRSCRCHEGYSLLADGVSCTPTVEYPCGKIPILE-FLLRPGSLRCKQCSFARIFKDARTKLFWISYSDGDQCASSPCQNGGSCKDQLQSYICFCLPAFEGRNCETHKDDQLICVNENGGCEQYCSDHTGTKRSCRCHEGYSLLADGVSCTPTVEYPCGKIPILE-FLLRPGSLRCKQCSFARIFKDARTKLFWISYSDGDQCASSPCQNGGSCKDQLQSYICFCLPAFEGRNCETHKDDQLICVNENGGCEQYCSDHTGTKRSCRCHEGYSLLADGVSCTPTVEYPCGKIPILE-FLLRPGSLRCKQCSFARIFKDARTKLFWISYSDGDQCASSPCQNGGSCKDQLQSYICFCLPAFEGRNCETHKDDQLICVNENGGCEQYCSDHTGTKRSCRCHEGYSLLADGVSCTPTVEYPCGKIPILE-FLLRPGSLRCKQCSFARIFKDARTKLFWISYSDGDQCASSPCQNGGSCKDQLQSYICFCLPAFEGRNCETHKDDQLICVNENGGCEQYCSDHTGTKRSCRCHEGYSLLADGVSCTPTVEYPCGKIPILE-FLLRPGSLRCKQCSFARIFKDARTKLFWISYSDGDQCASSPCQNGGSCKDQLQSYICFCLPAFEGRNCETHKDDQLICVNENGGCEQYCSDHTGTKRSCRCHEGYSLLADGVSCTPTVEYPCGKIPILE-FLLRPGSLRCKQCSFARIFKDARTKLFWISYSDGDQCASSPCQNGGSCKDQLQSYICFCLPAFEGRNCETHKDDQLICVNENGGCEQYCSDHTGTKRSCRCHEGYSLLADGVSCTPTVEYPCGKIPILE-FLLRPGSLRCKQCSFARIFKDARTKLFWISYSDGDQCASSPCQNGGSCKDQLQSYICFCLPAFEGRNCETHKDDQLICVNENGGCEQYCSDHTGTKRSCRCHEGYSLLADGVSCTPTVEYPCGKIPILE-FLLRPGSLRCKQCSFARIFKDARTKLFWISYSDGDQCASSPCQNGGSCKDQLQSYICFCLPAFEGRNCETHKDDQLICVNENGGCEQYCSDHTGTKRSCRCHEGYSLLADGVSCTPTVEYPCGKIPILE,GRDEPPPVVP-EEEEEEEVEE-EEEEEEPVCE-GQDEPPPVVP-GYTEPPPVVP-GTDEPPPVVP-EEEEEEPVVP-EEEEEEPVEE-GCSDPPPVVP-EEEEEEPVCE,RKSTDSPVEC-RKSTDSPVEC-RKSTDSPVEC-RKSTDSPVEC-RKSTDSPVEC-RKSTDSPVEC-RKSTDSPVEC-RKSTDSPVEC-RKSTDSPVEC-RKSTDSPVEC
