contacts,cs,ce,Chain,Length,designed_receptor_seq,native_receptor_seq,designed_binder_seq,native_binder_seq
17.0,22,32,A,10,MLHVLSRNPEVSNFAALQETLQAGDELLLMQDGVVAAEEGNHFLEALAKAPITVYALDADLRARALTGKVATWIKLIDYVDYVNLTNQAPHVNSW-GLHILTKSPTDTNFEKLLAQLQKGNELLLMENGVVAAVEGNKYLAKLQAAPIEVYALTHDLISRRLLQQVSAQIIKINYLDFVSLFIKNPKANSW-MLHILSQSPFLTNFAQLIETIKAGDELLLTQDGVTAAIQGNMFLAVLEEAPLKVYALTEDLQARGLLDKVSSSIVKIDYRDYVRLTEEHPKANTW-MLHTLAQSPYQTDFKALIEDLVEGDELLLWHEGVNASVSGNDFLKNLTNAPIKVYALSDDLNARGLSEKVAEEIILIDYKAFIKLMDKHPKVNWW-MLHTLNSSPWKTDFAALLETVQEGDELLLWDQGITAAVQGNQHLAALQEAPISVYALTDNLKARGLCGEVAACIKLIDYEDFVRLTEKHPRSRHW-MLHILTQSPYKTNWTALLSNLQTGDTLLLIEEGVNAAVTGNKYLQDLINAPITTYALTDDLNARGLLGQVSKQITLIDYTAFVNLTKAHPKIAWY-MLHTLSTSPSQTDWDALKDTLSEGDELLLFEEGVKAAVQGNRWLEALKQAPISVYALEADLIARGLMDRVDSSIIKIGYRDFVELTRKHPRNMAW-MLHTLTQSPYATDFAALLAQLQTGDELLLLQDGVNAAIEGNRYLQQLIAAPIKVYALTADLEARGLLGQVDAQFVKINYADFVHLMELSPHVNSW-MLHTIANSPNETDFAALLETLSKGDRLLLWQDGVLAAVEGNGFLDALKEAPIEVYALEADLEARGLSGQVSSDFERIDYTNFIKLMEKSPNINLW-MLHTINQSPWQTNFDALLKHLQEGDQLLLMEEGVLAAVEGNKYLEQLKQAPLRVYALTADLEARALLDQVDASFHLIGYEDFVDLTQASPKLANW,MLHTLHRSPWLTDFAALLRLLSEGDELLLLQDGVTAAVDGNRYLESLRNAPIKVYALNEDLIARGLTGQISNDIILIDYTDFVRLTVKHPSQMAW-MLHTLHRSPWLTDFAALLRLLSEGDELLLLQDGVTAAVDGNRYLESLRNAPIKVYALNEDLIARGLTGQISNDIILIDYTDFVRLTVKHPSQMAW-MLHTLHRSPWLTDFAALLRLLSEGDELLLLQDGVTAAVDGNRYLESLRNAPIKVYALNEDLIARGLTGQISNDIILIDYTDFVRLTVKHPSQMAW-MLHTLHRSPWLTDFAALLRLLSEGDELLLLQDGVTAAVDGNRYLESLRNAPIKVYALNEDLIARGLTGQISNDIILIDYTDFVRLTVKHPSQMAW-MLHTLHRSPWLTDFAALLRLLSEGDELLLLQDGVTAAVDGNRYLESLRNAPIKVYALNEDLIARGLTGQISNDIILIDYTDFVRLTVKHPSQMAW-MLHTLHRSPWLTDFAALLRLLSEGDELLLLQDGVTAAVDGNRYLESLRNAPIKVYALNEDLIARGLTGQISNDIILIDYTDFVRLTVKHPSQMAW-MLHTLHRSPWLTDFAALLRLLSEGDELLLLQDGVTAAVDGNRYLESLRNAPIKVYALNEDLIARGLTGQISNDIILIDYTDFVRLTVKHPSQMAW-MLHTLHRSPWLTDFAALLRLLSEGDELLLLQDGVTAAVDGNRYLESLRNAPIKVYALNEDLIARGLTGQISNDIILIDYTDFVRLTVKHPSQMAW-MLHTLHRSPWLTDFAALLRLLSEGDELLLLQDGVTAAVDGNRYLESLRNAPIKVYALNEDLIARGLTGQISNDIILIDYTDFVRLTVKHPSQMAW-MLHTLHRSPWLTDFAALLRLLSEGDELLLLQDGVTAAVDGNRYLESLRNAPIKVYALNEDLIARGLTGQISNDIILIDYTDFVRLTVKHPSQMAW,EKLKAARAAL-KELKAARLKM-PKLVQARIEM-KNAVSAQVAL-LKFVEAKAAL-QTFITARDQL-AIFTQARKDL-NKFKSARAAL-AAYYAAKLDG-QRFIQASLAN,FQFAQALIAD-FQFAQALIAD-FQFAQALIAD-FQFAQALIAD-FQFAQALIAD-FQFAQALIAD-FQFAQALIAD-FQFAQALIAD-FQFAQALIAD-FQFAQALIAD
23.0,77,87,B,10,MAKTFAIVVTGPANGDARSQLALRFAMALLQAGHNLASIFFYSPGVFCANARTRPAPEEADFVAAFQALHQQSGVRLLVCSAAAIRRGVVDAQRGQEMGLADDNLAAGFRLDGLGALAIASAETDRVIEL-MALNFALVITSPANGDEAADRAYAFALALLDAGHHLTQIYFYDPGVLCADARFKPKPWQANLVQAYHQLATQHGVALLVCISAALRRGIADAEQGHRLGLDNANLQAGFTLAGLGALVDATLTCDRVVTY-MSHRFGLIVNGPARGTERSATALRFAEALLAGGHQLESIYFYSPGVQCANAAFAPAPDEIDLVARFRALAQNHGVRLNVCVAAAVRRGVIDEELGRQLGLASSNLAAGFQMTGLGALVDMTLTTDRVVTL-DRKRFAIVVTTPAQGTRGAEQALRFAHALLESGHRLEAVFFYQNGVFNANRLQKPQAHQADLVAAYRELQQQQGVSLLVCAACAIRRGVVDETLGRVLGLSHSNLAEGFTMSGLGALVEATLTCDKVVRY-NAKVFGLVVTGPASGSQRSATAYQFAKALLADGHSLQQVFFYQDGVYNADDRNSPAAQQVDLVAAWRRLHDEHGVELKVCATAAVRRGVVDDALGRLLGLRKSNLAKGFQMCGLGALAVALVTQDRVVRV-MSLRYGVVVMSPSTGSDRAFNAYDFALALLGAGHELHAMFFYQDGVYNSDESEKPSDYEKDLVAAYRDLAARHGVRLLVCAQAAAVRGVVDSVFGGFLGLESSNLQDGFEMTGLGALVDMTLHADRVVQY-MAKQFGIVVVSPAEGTNASLLAYRLALAMLGAGHDLVDIFFYLPGVFNADSTTEPETHEFDLVRAFRNLNIQHGVRLAVCALAAARRGVLSEEFAGAMGFATHNLADGFTLTGLGALIDRTLTRDVVLRF-MSLRFGVVITTPAYGDAGSHFALKFAQALLADGHELDRVFFYNEGVFNADARSSPATDEDDLVAAYADLAREHGVDLLVCAQAARRRGVIDEEEAAELGLATHNLAEGFTMAGLGTLVDALADDDRVVSL-MSKRFGVVVVSPAYGEQSASEAYRFAQALLADGHELTEMFFYADGVFNADARQSPREDEADLVAAYRELHAAHGVALLVCAQCAIRRGVVDAAQGERMGLDADNLAPGFTMSGLGALVEMTLTRDRVAVF-PALRLGFVVTSPASGEAHATVMLEYARAALASGHELEQVYFYAEGVYCADDREAPAANQADLVESFRSLHDEHGVALLVCAQCAALRGVVDAEMAGLMGMTASNLAAGFTMSGLGALVSMMRTCDRVVRF,GSMRFAIVVTGPAYGTQQASSAFQFAQALIADGHELSSVFFYREGVYNANQLTSPASDEFDLVRAWQQLNAQHGVALNICVAAALRRGVVDETEAGRLGLASSNLQQGFTLSGLGALAEASLTCDRVVQF-GSMRFAIVVTGPAYGTQQASSAFQFAQALIADGHELSSVFFYREGVYNANQLTSPASDEFDLVRAWQQLNAQHGVALNICVAAALRRGVVDETEAGRLGLASSNLQQGFTLSGLGALAEASLTCDRVVQF-GSMRFAIVVTGPAYGTQQASSAFQFAQALIADGHELSSVFFYREGVYNANQLTSPASDEFDLVRAWQQLNAQHGVALNICVAAALRRGVVDETEAGRLGLASSNLQQGFTLSGLGALAEASLTCDRVVQF-GSMRFAIVVTGPAYGTQQASSAFQFAQALIADGHELSSVFFYREGVYNANQLTSPASDEFDLVRAWQQLNAQHGVALNICVAAALRRGVVDETEAGRLGLASSNLQQGFTLSGLGALAEASLTCDRVVQF-GSMRFAIVVTGPAYGTQQASSAFQFAQALIADGHELSSVFFYREGVYNANQLTSPASDEFDLVRAWQQLNAQHGVALNICVAAALRRGVVDETEAGRLGLASSNLQQGFTLSGLGALAEASLTCDRVVQF-GSMRFAIVVTGPAYGTQQASSAFQFAQALIADGHELSSVFFYREGVYNANQLTSPASDEFDLVRAWQQLNAQHGVALNICVAAALRRGVVDETEAGRLGLASSNLQQGFTLSGLGALAEASLTCDRVVQF-GSMRFAIVVTGPAYGTQQASSAFQFAQALIADGHELSSVFFYREGVYNANQLTSPASDEFDLVRAWQQLNAQHGVALNICVAAALRRGVVDETEAGRLGLASSNLQQGFTLSGLGALAEASLTCDRVVQF-GSMRFAIVVTGPAYGTQQASSAFQFAQALIADGHELSSVFFYREGVYNANQLTSPASDEFDLVRAWQQLNAQHGVALNICVAAALRRGVVDETEAGRLGLASSNLQQGFTLSGLGALAEASLTCDRVVQF-GSMRFAIVVTGPAYGTQQASSAFQFAQALIADGHELSSVFFYREGVYNANQLTSPASDEFDLVRAWQQLNAQHGVALNICVAAALRRGVVDETEAGRLGLASSNLQQGFTLSGLGALAEASLTCDRVVQF-GSMRFAIVVTGPAYGTQQASSAFQFAQALIADGHELSSVFFYREGVYNANQLTSPASDEFDLVRAWQQLNAQHGVALNICVAAALRRGVVDETEAGRLGLASSNLQQGFTLSGLGALAEASLTCDRVVQF,SFSELVEASL-KYEDFVKLAE-DFTDAVKQAL-QNKEAVRAFC-HYRDAVLAEL-TFHERVQAEV-SLSEAVETAM-RYVDRVHAAR-DPRADVHALL-KMVDAVGQAL,DYTDFVRLTV-DYTDFVRLTV-DYTDFVRLTV-DYTDFVRLTV-DYTDFVRLTV-DYTDFVRLTV-DYTDFVRLTV-DYTDFVRLTV-DYTDFVRLTV-DYTDFVRLTV
