contacts,cs,ce,Chain,Length,designed_receptor_seq,native_receptor_seq,designed_binder_seq,native_binder_seq
14.0,34,44,A,10,MPAELLELVEELEELEEEVEELEGELEELEEEDPEVLEVE-MPEELKELKEKLEELKKKLEELKGKLEELKKKNPEVLKVE-MPEELKELVEKLEELKKKVEELIGKLLKEVEENPEVLKVE-MPEELKELVEKLEELKKKVEELIGKLLEKVKENPEVLKVE-MPEELKKLKEELEKLKEELEKLKGELEKLKEENPEILKVE-MPEELKKLKEELEKLKEELEKLKGELEKLKEELPEVLKVE-MPEEEKEEEEEEEEEEEEEEEEEEEEEEEEEEEPEELEVE-MPEELKKLKEELEKLKEELEKLKGELEKLKEENPEILKVE-MPEELKELVEKLEELAEKLEELVGKLEELVEKNPEILKVE-MPEEVKKLIEELEKLKKEIEELIGKLLKEIEENPEILKIE,VSRDELEAIQKQEEINFRLQDYIDRIIVAIETNPSILEVK-VSRDELEAIQKQEEINFRLQDYIDRIIVAIETNPSILEVK-VSRDELEAIQKQEEINFRLQDYIDRIIVAIETNPSILEVK-VSRDELEAIQKQEEINFRLQDYIDRIIVAIETNPSILEVK-VSRDELEAIQKQEEINFRLQDYIDRIIVAIETNPSILEVK-VSRDELEAIQKQEEINFRLQDYIDRIIVAIETNPSILEVK-VSRDELEAIQKQEEINFRLQDYIDRIIVAIETNPSILEVK-VSRDELEAIQKQEEINFRLQDYIDRIIVAIETNPSILEVK-VSRDELEAIQKQEEINFRLQDYIDRIIVAIETNPSILEVK-VSRDELEAIQKQEEINFRLQDYIDRIIVAIETNPSILEVK,EEEEGEWWEE-KPLEGEYWKE-EEVVGVYWKE-EPLVGVYWKE-EPVEGKYWKE-EELEGEYWKE-EEEEGEEWEE-EPLEGKYWKE-EPLVGKYWKE-EPVIGVYWKE,KSTIGVEFAT-KSTIGVEFAT-KSTIGVEFAT-KSTIGVEFAT-KSTIGVEFAT-KSTIGVEFAT-KSTIGVEFAT-KSTIGVEFAT-KSTIGVEFAT-KSTIGVEFAT
14.0,18,28,B,10,MADYLYKIVLIGDSGVGKSNLLSRFTKDAFDANSKATIGVDFATRTIEIDGKKIKAQIWDTAGQERFGAVTSAYYRGAVGALIVYDISNGKTFENVAKWLKELDEHADDDIVKLIGNKSDLDDKRAVPTEEAKAYAEKNGLLFMETSAKDSTNVEEAFTTILKEIN-MADYLYKIVLIGDSGVGKSNLLSRFTKDAFDANSKATIGVDFATRTIEIDGKKIKAQIWDTAGQERFGAVTAAYYRGAVGALIVYDISNGKTFENVKKWLKELDEHADDDIVKLIGNKSDLDDKRAVPTEEAKAYAEKNGLLFIETSAKDTTNVEEAFTTILKEIN-MADYLYKIVLIGDSGVGKSNLLSRFTKDAFDANSKATIGVDFATRTIEIDGKKIKAQIWDTAGQERFGAVTAAYYRGAVGALIVYDISNGETFRNVAKWLEELRNHADKNIVKLIGNKSDLDDKRAVPTEEAKAFAEKNGLLFIETSAKDTTNVEEAFTTILKEIN-MADYLFKIVLIGDSGVGKSNLLSRFTKDAFDANSKATIGVDFATRTIEIDGKKIKAQIWDTAGQERFGAVTAAYYRGAVGALIVYDISNGKTFENVKRWLKELDEHADKNIVKLIGNKSDLDDKRAVPTEEAKAYAEKNGLLFMETSAKDSTNVEEAFTTILKEIN-MADYLFKIVLIGDSGVGKSNLLSRFTKDAFDANSKATIGVDFATRTIEIDGKKIKAQIWDTAGQERFGAITAAYYRGAVGALIVYDISNGKTFENVAKWLKELDEHADKDIVKLVGNKSDLDDKRAVPTEEAKAYAEKNGLLFIETSAKDSTNVEEAFTTILKKIN-MADYLYKIVLIGDSGVGKSNLLSRFTKDAFDANSKATIGVDFATRTIEIDGKKIKAQIWDTAGQERFGAVTSAYYRGAVGALIVYDISNGETFRNVAKWLEELRNHADKNIVTLVGNKSDLDDKRAVPTEEAKAFAEKNGMLFIETSAKDSTNVEEAFQTILKEIN-MADYLYKIVLIGDSGVGKTNLLSRFTRDAFDANSKATIGVDFATRTIEIDGKKIKAQIWDTAGQERFGAVTAAYYRGAVGALIVYDISNGETFRNVAKWLKELREHADDDIVTLVGNKSDLDDKRAVPTEEAKAFAEKNGMLFIETSAKDTTNVEEAFTTILRKIN-MADYLFKIVLIGDSGVGKSNLLSRFTKDAFDANSKATIGVDFATRTIEIDGKKIKAQIWDTAGQERFGAVTAAYYRGAVGALIVYDISNGKTFENVKKWLKELDEHADKDIVKLVGNKSDLDDKRAVPTEEAKAYAEKNGLLFIETSAKDTTNVEEAFTTILKEIN-MADYLFKIVLIGDSGVGKSNLLSRFTKDAFDANSKATIGVDFATRTIEIDGKKIKAQIWDTAGQERFGAVTAAYYRGAVGALIVYDISNGKTFENVAKWLKELDEHADDDIVKLIGNKSDLDDKRAVPTEEAKAYAEKNGLLFMETSAKDTTNVEEAFTTILKEIN-MADYLFKIVLIGDSGVGKSNLLSRFTKDAFDANSKATIGVEFATRTIEIDGKKIKAQIWDTAGQERFGNVTAAYYRGAVGALIVYDISNGKTFENVKKWLKELDEHADKNIVKLIGNKSDLEDKRAVPTEEAKAYAEKNGLLFIETSAKDTTNVEEAFTTILKEIN,EYDYLFKVVLIGDSGVGKSNLLSRFTRNEFNLESKSTIGVEFATRSIQVDGKTIKAQIWDTAGLERYRAITSAYYRGAVGALLVYDIAKHLTYENVERWLKELRDHADSNIVILVGNKSDLRHLRAVPTDEARAFAEKNGLSFIETSALDSTNVEAAFQTILTEIY-EYDYLFKVVLIGDSGVGKSNLLSRFTRNEFNLESKSTIGVEFATRSIQVDGKTIKAQIWDTAGLERYRAITSAYYRGAVGALLVYDIAKHLTYENVERWLKELRDHADSNIVILVGNKSDLRHLRAVPTDEARAFAEKNGLSFIETSALDSTNVEAAFQTILTEIY-EYDYLFKVVLIGDSGVGKSNLLSRFTRNEFNLESKSTIGVEFATRSIQVDGKTIKAQIWDTAGLERYRAITSAYYRGAVGALLVYDIAKHLTYENVERWLKELRDHADSNIVILVGNKSDLRHLRAVPTDEARAFAEKNGLSFIETSALDSTNVEAAFQTILTEIY-EYDYLFKVVLIGDSGVGKSNLLSRFTRNEFNLESKSTIGVEFATRSIQVDGKTIKAQIWDTAGLERYRAITSAYYRGAVGALLVYDIAKHLTYENVERWLKELRDHADSNIVILVGNKSDLRHLRAVPTDEARAFAEKNGLSFIETSALDSTNVEAAFQTILTEIY-EYDYLFKVVLIGDSGVGKSNLLSRFTRNEFNLESKSTIGVEFATRSIQVDGKTIKAQIWDTAGLERYRAITSAYYRGAVGALLVYDIAKHLTYENVERWLKELRDHADSNIVILVGNKSDLRHLRAVPTDEARAFAEKNGLSFIETSALDSTNVEAAFQTILTEIY-EYDYLFKVVLIGDSGVGKSNLLSRFTRNEFNLESKSTIGVEFATRSIQVDGKTIKAQIWDTAGLERYRAITSAYYRGAVGALLVYDIAKHLTYENVERWLKELRDHADSNIVILVGNKSDLRHLRAVPTDEARAFAEKNGLSFIETSALDSTNVEAAFQTILTEIY-EYDYLFKVVLIGDSGVGKSNLLSRFTRNEFNLESKSTIGVEFATRSIQVDGKTIKAQIWDTAGLERYRAITSAYYRGAVGALLVYDIAKHLTYENVERWLKELRDHADSNIVILVGNKSDLRHLRAVPTDEARAFAEKNGLSFIETSALDSTNVEAAFQTILTEIY-EYDYLFKVVLIGDSGVGKSNLLSRFTRNEFNLESKSTIGVEFATRSIQVDGKTIKAQIWDTAGLERYRAITSAYYRGAVGALLVYDIAKHLTYENVERWLKELRDHADSNIVILVGNKSDLRHLRAVPTDEARAFAEKNGLSFIETSALDSTNVEAAFQTILTEIY-EYDYLFKVVLIGDSGVGKSNLLSRFTRNEFNLESKSTIGVEFATRSIQVDGKTIKAQIWDTAGLERYRAITSAYYRGAVGALLVYDIAKHLTYENVERWLKELRDHADSNIVILVGNKSDLRHLRAVPTDEARAFAEKNGLSFIETSALDSTNVEAAFQTILTEIY-EYDYLFKVVLIGDSGVGKSNLLSRFTRNEFNLESKSTIGVEFATRSIQVDGKTIKAQIWDTAGLERYRAITSAYYRGAVGALLVYDIAKHLTYENVERWLKELRDHADSNIVILVGNKSDLRHLRAVPTDEARAFAEKNGLSFIETSALDSTNVEAAFQTILTEIY,KPGLVDKICC-KAGKKGKKKK-KAEKEEKEKK-KAGKKGKKKK-KPGLLGKLFG-KKEEEEKKKK-KPGLVGKICC-EEEKKEKEEL-KAGKKGKKKK-KKEEEEKKKK,LQDYIDRIIV-LQDYIDRIIV-LQDYIDRIIV-LQDYIDRIIV-LQDYIDRIIV-LQDYIDRIIV-LQDYIDRIIV-LQDYIDRIIV-LQDYIDRIIV-LQDYIDRIIV
