contacts,cs,ce,Chain,Length,designed_receptor_seq,native_receptor_seq,designed_binder_seq,native_binder_seq
31.0,16,26,A,10,MGYPLHEACRNNNLEKVKELLEKDPSLLFSRDKNGRIPLHWAVEYNNLEIVKELLERLKDASLDDFPDENGWTPFHIACAVGNLEIVKELFERPIKPNLDLQDKDGRTALHLVVGKNHFEVAKYLIEHGASVEVKDKDKRIPLHYAAYKGSLELVKELLGKGNASIDLQDKDGWTPLHWALKSGHWEVAKELVEKYGANPNLQDKDGRTALQLAKDEETKKYFLENT-MGYPLHEACRNNNFELVKLLLEKDPSLLLERDEDGRIPLHWAVEYNNLEIVKYLLERLKDVSLDDFPDKDGWTPFHIACAVGNLEIVKLLYERPKKPNLDLQDKDGRTALHLVVGKNHFEVAKFLIEHGASVHVKDKDNRIPLHYAAYIGSLELVKLLCGECKAEVDLQDKDGWTPLHWALKSGHWEVAKFLVEEYGANPNLQDKDGRTALQLAKDEETKKYFLENT-MGYPLHEACRNNNLEKVKELLEKDPSLLLERDENGRIPLHWAVEYNNLEIVKELLERLKDVSLDDFPDENGWTPFHIACAVGNLEIVKELFERPKKPNLDLQDENGRTALHLVVGKNHFEVAKFLIEHGASVEVKDENNRTPLHYAAYIGSLELVKELLGKGKASVDLQDKNGWTPLHWALESGHWEVAKELVEKYGANPNLQDKNGRTALQLAKDEETKKKFLEAT-SGFPLHEACRNNNLEKVKELLEKDPSLLLSRDENGRIPLHWAVEYNNLEIVKELLERLKDVSLDDFPDENGWTPFHIACAVGNLEIVKELFERPKKPNLDLQDKDGRTALHLVVGKNHFEVAKYLIEHGASVEVKDKDNRIPLHYAAYVGSLELVKELLGKGKASVDLQDKDGWTPLHWALKSGHWEVAKELVEKYGANPNLQDKDGRTALQLAKDEETKKKFLEAT-MGYPLHEACRNNNLEKVKELLEKDPSLLLERDEEGRIPLHWAVEYNNLEIVKELLERLKDVSLDDFPDKDGWTPFHIACAVGNLEIVKELFERPKKPNLDLQDKDGRTALHLVVGKNHFEVAKFLIEHGASVEVKDKDNRIPLHYAAYIGSLELVKELLGKGKASIDLQDKDGWTPLHWALKSGHWEVAKELVEKYGANPNLQDKDGRTALQLAKDEETKKYFLENT-MGYPLHEACRNNNFEKVKELLEKDPSLLLERDKDGRIPLHWAVEYNNLEIVKYLLEKLKDVSLDDFPDKDGWTPFHIACAVGNLEIVKLLYERPKKPNLDLQDKDGRTALHLVVGKNHFEVAKFLIEHGASVEVRDKDWRTPLHYAAYVGSLELVKLLCGECKASIDLQDKDGWTPLHWALKSGHWEVAKFLVEEYGANPNLQDKDGRTALQLAKDEETKKFFLENT-MGYPLHEACRQNNLEAVKLLLEKDPSLLLSRDEEGRIPLHWAVEYNNLEIVKYLLERLKDVSLDDFPDKDGWTPFHIACAVGNLEIVKLLYEQPKKPNLDLQDKDGRTALHLVVGKNHFEVAKFLIEHGASVEVKDKDDRTPLHYAAYVGSLELVKLLCGECKASVDLQDKDGWTPLHWALKSGHWEVAKFLVEEYGADPNLQDKDGRTALQLAKDEETKKYFLENT-SGFPLHEACRNNNLEKVKELLEKDPSLLLSRDSEGRIPLHWAVAYNNLEIVKELLERLKDVSLDDFPDKDGWTPFHIACAVGNLEIVKELFERPKKPNLDLQDKDGRTALHLVVGKNHFEVAKFLIEHGASVEVKDKDNRIPLHYAAYVGSLELVKELLGKGKASVDLQDKDGWTPLHWALSSGHWEVAKELVEKYGANPNLQDKDGRTALQLAKDEETKKKFLEAT-MGYPLHEACRNNNLEKVKELLEKDPSLLLERDEDGRIPLHWAVAYNNLEIVKELLERLKDVSLDDFPDKDGWTPFHIACAVGNLEIVKELFERPKKPNLDLQDKDGRTALHLVVGKNHFEVAKFLIEHGASVEVRDKDWRTPLHYAAYKGSLELVKELLGKGKASVDLQDKDGWTPLHWALSSGHWEVAKELVEKYGANPNLQDKDGRTALQLAKDEETKKKFLEAT-MGYPLHEACRNNNLEKVKELLEKDPSLLFERDEDGRIPLHWAVEYNNLEIVKELLERLKDASLDDFPDKDGWTPFHVACAVGNLEIVKELFERPKKPNLDLQDKDGRTALHLVVGKNHFEVAKFLIEHGASVEVKDKDNRIPLHYAAYVGSLELVKELLGKGKASVDLQDKDGWTPLHWALKSGHWEVAKELVEKYGANPNLQDKDGRTALQLAKDEETKKYFLENT,SNYPLHQACMENEFFKVQELLHSKPSLLLQKDQDGRIPLHWSVSFQAHEITSFLLSKMENVNLDDYPDDSGWTPFHIACSVGNLEVVKSLYDRPLKPDLNKITNQGVTCLHLAVGKKWFEVSQFLIENGASVRIKDKFNQIPLHRAASVGSLKLIELLCGLGKSAVNWQDKQGWTPLFHALAEGHGDAAVLLVEKYGAEYDLVDNKGAKAEDVALNEQVKKFFLNNV-SNYPLHQACMENEFFKVQELLHSKPSLLLQKDQDGRIPLHWSVSFQAHEITSFLLSKMENVNLDDYPDDSGWTPFHIACSVGNLEVVKSLYDRPLKPDLNKITNQGVTCLHLAVGKKWFEVSQFLIENGASVRIKDKFNQIPLHRAASVGSLKLIELLCGLGKSAVNWQDKQGWTPLFHALAEGHGDAAVLLVEKYGAEYDLVDNKGAKAEDVALNEQVKKFFLNNV-SNYPLHQACMENEFFKVQELLHSKPSLLLQKDQDGRIPLHWSVSFQAHEITSFLLSKMENVNLDDYPDDSGWTPFHIACSVGNLEVVKSLYDRPLKPDLNKITNQGVTCLHLAVGKKWFEVSQFLIENGASVRIKDKFNQIPLHRAASVGSLKLIELLCGLGKSAVNWQDKQGWTPLFHALAEGHGDAAVLLVEKYGAEYDLVDNKGAKAEDVALNEQVKKFFLNNV-SNYPLHQACMENEFFKVQELLHSKPSLLLQKDQDGRIPLHWSVSFQAHEITSFLLSKMENVNLDDYPDDSGWTPFHIACSVGNLEVVKSLYDRPLKPDLNKITNQGVTCLHLAVGKKWFEVSQFLIENGASVRIKDKFNQIPLHRAASVGSLKLIELLCGLGKSAVNWQDKQGWTPLFHALAEGHGDAAVLLVEKYGAEYDLVDNKGAKAEDVALNEQVKKFFLNNV-SNYPLHQACMENEFFKVQELLHSKPSLLLQKDQDGRIPLHWSVSFQAHEITSFLLSKMENVNLDDYPDDSGWTPFHIACSVGNLEVVKSLYDRPLKPDLNKITNQGVTCLHLAVGKKWFEVSQFLIENGASVRIKDKFNQIPLHRAASVGSLKLIELLCGLGKSAVNWQDKQGWTPLFHALAEGHGDAAVLLVEKYGAEYDLVDNKGAKAEDVALNEQVKKFFLNNV-SNYPLHQACMENEFFKVQELLHSKPSLLLQKDQDGRIPLHWSVSFQAHEITSFLLSKMENVNLDDYPDDSGWTPFHIACSVGNLEVVKSLYDRPLKPDLNKITNQGVTCLHLAVGKKWFEVSQFLIENGASVRIKDKFNQIPLHRAASVGSLKLIELLCGLGKSAVNWQDKQGWTPLFHALAEGHGDAAVLLVEKYGAEYDLVDNKGAKAEDVALNEQVKKFFLNNV-SNYPLHQACMENEFFKVQELLHSKPSLLLQKDQDGRIPLHWSVSFQAHEITSFLLSKMENVNLDDYPDDSGWTPFHIACSVGNLEVVKSLYDRPLKPDLNKITNQGVTCLHLAVGKKWFEVSQFLIENGASVRIKDKFNQIPLHRAASVGSLKLIELLCGLGKSAVNWQDKQGWTPLFHALAEGHGDAAVLLVEKYGAEYDLVDNKGAKAEDVALNEQVKKFFLNNV-SNYPLHQACMENEFFKVQELLHSKPSLLLQKDQDGRIPLHWSVSFQAHEITSFLLSKMENVNLDDYPDDSGWTPFHIACSVGNLEVVKSLYDRPLKPDLNKITNQGVTCLHLAVGKKWFEVSQFLIENGASVRIKDKFNQIPLHRAASVGSLKLIELLCGLGKSAVNWQDKQGWTPLFHALAEGHGDAAVLLVEKYGAEYDLVDNKGAKAEDVALNEQVKKFFLNNV-SNYPLHQACMENEFFKVQELLHSKPSLLLQKDQDGRIPLHWSVSFQAHEITSFLLSKMENVNLDDYPDDSGWTPFHIACSVGNLEVVKSLYDRPLKPDLNKITNQGVTCLHLAVGKKWFEVSQFLIENGASVRIKDKFNQIPLHRAASVGSLKLIELLCGLGKSAVNWQDKQGWTPLFHALAEGHGDAAVLLVEKYGAEYDLVDNKGAKAEDVALNEQVKKFFLNNV-SNYPLHQACMENEFFKVQELLHSKPSLLLQKDQDGRIPLHWSVSFQAHEITSFLLSKMENVNLDDYPDDSGWTPFHIACSVGNLEVVKSLYDRPLKPDLNKITNQGVTCLHLAVGKKWFEVSQFLIENGASVRIKDKFNQIPLHRAASVGSLKLIELLCGLGKSAVNWQDKQGWTPLFHALAEGHGDAAVLLVEKYGAEYDLVDNKGAKAEDVALNEQVKKFFLNNV,GRTPLHLAIE-GRTLLHYLKM-GRTLLHYALE-PSEVKIREKL-NPLPLFYLKL-GRTPLHYALL-GRTPLHYALH-PSEWKEYLEM-PSSWEEYLKL-GRTLLHYLKI,PEADLDSLII-PEADLDSLII-PEADLDSLII-PEADLDSLII-PEADLDSLII-PEADLDSLII-PEADLDSLII-PEADLDSLII-PEADLDSLII-PEADLDSLII
13.0,67,77,B,10,MDRETFYRIAERLNLHPDVDIERIINRRGNYSGAAVAAIFREAGILAARAGRKTILQEDLDEAYEKV-MDRETFERIAERLNLHPDVDLDRVIERRGDYSGAAVAAVFREAGLLAARAGRREILQEDLEEAYRRV-MDRETFEKIAEKLNLHPDVDIERIINRKGNYSGAAVAAIFKEAGILAARAGKKTIEQKHLDEAFEKV-MDRETFERIAERLNLHPDVDLERVIERRGNYSGAAVAAVFREAGILAARAGREEILQEDLEEAFERV-MDREAFEKIAERLNLHPDVDLDRLIERRGNYSGAAVAAIFREAGILAARAGRKEILQEDLEEAAKKV-MDRETFYRIAERLNLHPDVDIDRLINRRGNYSGAAVAAVFREAGILAARAGRKTILQEDLDEAAKKV-MDRETFEKIAERLNLHPDVDLDRLIERRGNYSGAAVAAVFREAGILAARAGRKTILQEDLDEAARRV-MDREAFEKIAEKLNLHPDVDLERVIERKGNYSGAAVAAIFKEAGILAARAGRKTILQEDLEEAYKKV-MDREAFEKIAEKLNLHPDVDLDRIINRKGDYSGAAVAAIFREAGLLAARAGKKRILQKHLDEAYEKV-MDRETFEKIAERLNLHPDVDLDRLIERKGNYSGAAVAAVFREAGILAARAGRKTILQEDLDEAYEKV,ERRLIFGTIASKMSLAPEADLDSLIIRNDSLSGAVIAAIMQEAGLRAVRKNRYVILQSDLEEAYATQ-ERRLIFGTIASKMSLAPEADLDSLIIRNDSLSGAVIAAIMQEAGLRAVRKNRYVILQSDLEEAYATQ-ERRLIFGTIASKMSLAPEADLDSLIIRNDSLSGAVIAAIMQEAGLRAVRKNRYVILQSDLEEAYATQ-ERRLIFGTIASKMSLAPEADLDSLIIRNDSLSGAVIAAIMQEAGLRAVRKNRYVILQSDLEEAYATQ-ERRLIFGTIASKMSLAPEADLDSLIIRNDSLSGAVIAAIMQEAGLRAVRKNRYVILQSDLEEAYATQ-ERRLIFGTIASKMSLAPEADLDSLIIRNDSLSGAVIAAIMQEAGLRAVRKNRYVILQSDLEEAYATQ-ERRLIFGTIASKMSLAPEADLDSLIIRNDSLSGAVIAAIMQEAGLRAVRKNRYVILQSDLEEAYATQ-ERRLIFGTIASKMSLAPEADLDSLIIRNDSLSGAVIAAIMQEAGLRAVRKNRYVILQSDLEEAYATQ-ERRLIFGTIASKMSLAPEADLDSLIIRNDSLSGAVIAAIMQEAGLRAVRKNRYVILQSDLEEAYATQ-ERRLIFGTIASKMSLAPEADLDSLIIRNDSLSGAVIAAIMQEAGLRAVRKNRYVILQSDLEEAYATQ,PKTGRTPEDL-GPAGRTPEDL-DENGNTPEDL-DRAGRTPEDL-RRAGLTPEDL-PRTGRTPEDL-PRTGRTPEDL-RASGRTPEDL-FFDGRTPEDL-PRTGRTPEDL,DDSGWTPFHI-DDSGWTPFHI-DDSGWTPFHI-DDSGWTPFHI-DDSGWTPFHI-DDSGWTPFHI-DDSGWTPFHI-DDSGWTPFHI-DDSGWTPFHI-DDSGWTPFHI
