contacts,cs,ce,Chain,Length,designed_receptor_seq,native_receptor_seq,designed_binder_seq,native_binder_seq
46.0,0,10,A,10,IVGGTECGKDSRPYMVSLNNGRHYCGGSLIDNRFVVSAAHCFRNNITVQIGVDDINKKNGREQNIKAKQAIRHPLYDPNTIDFDILLVEMKQNAQIGSAPVALPTKCGKSGTSCVAAGWGNTNAPGSTYPSNLQCVNMPILSRRRCESAYPGLITDNMMCAGYLEGGVDTCQGDSGGPLVCKGKLQGVVSWGVGCARKNKPGVYTRVCKFVDWINNTIRTN-NVGGYECGYATAPYQVSLNSGDHFCGGALIDKRFVLSAAHCYKSSITVVLGEHNVRVSDGREQRIRASRSIKHPHFNPRTLDSDIQLIELERQARTGIKPVCLPRRCARAGTICRATGWGNTEIPGREYPSTLQCLDLPIIARSRCAASYPGFVSSNMLCAGYLEGGQDTCQGDSGGPLVCNGELQGITSWGIGCARKNKPGVYTRVCRYVGWIRRTMARG-LVGGFECGRDKQPYQVSLNSGLHFCGGSLINKRFVVSAAHCFRQNITVVLGVHDKGRPEGDEQYIDAELAIPHPQFNPRTLDNDILMIRLKFAAKIKTSPVALPSRCAGAGTQCNATGWGNTKEPSTVFPDTLQCLRMPIISRDKCEKSYPGYISRTMFCAGFLEGGKDTCVGDSGGPLVCHGELQGIVSWGSGCAEKNKPGVYTRVCMYVSWLKKTIDKY-IVGGYRCGDQTRPWQVSLNNGHHYCGGSIINQRWVLSAAHCFRSNITVVAGIHDWQSNDGTEQLINAQRVIPHPQFNPQTLDSDIALVQLSRALRLNASPVALPSQCAAAGTRCVVSGWGNTDQHGEAYPQVLQCLTMPIISRAACEQSYPGSITHNMFCAGYMEGGKDACQGDSGGPAVCNGQLQGIVSWGTGCARVNKPGVYTRVCKFVGWIQQTMANN-IVGGFECGEGTNPYQVSLQSGNHYCGGSLINAQFVLSAAHCYQRSIMIKIGEYNILVDNGHEQWIPAEFAIPHPRFDPQTYNYDILIVRLKQPASLGISPVCLPSRCAASGTLCLASGWGNTSFRYTTIPQTLQCLEMPIISRSVCEASYPGRITDDMMCAGYLEGGKDTCQGDSGGPLVCRGQLQGIVSWGSGCARRNKPGVYTRVCNFVSWINQTMNHY-VVGGFECGENTRPYQVALTGGSHFCGGSLINENYVISAAHCYKDDVTVVLGEYDRTNDDGAEQRIAASHAIVHPDFNPDSLDNDIMVIKLQEPAQMNVSPVALPQDCGEAGTECMASGWGNTDENGNDYPSTLMCLNAPILDRDTCAASYPGKITDNMFCAGYMEGGKDTCKGDSGGPLVCNGTLQGIVSWGVGCARENKPGVYTRVCNFVDWINATIAST-LVGGFDCGKRKTPFQVSLVNGEHFCGGSLINQRYVVSAAHCYKSTITVVLGVHNIWKWEGDEQFIDAVKSIPHPNFNPTTLDNDILLIQLKRAASLGVAPVCLPSKCAQAGTMCLATGWGNTSEPGSQYPDTLQCLEMPIISRQACESAYPGLITENMFCAGYLEGGKDTCQGDSGGPLVCNGRLQGIVSWGTGCAKVNHPGVYTRVCRYVDWISATVASN-VVGGEECGVNQQPWQVSLHRGRHYCGGSLISNRFILSAAHCYRDNITVVLGVHNVNKDSGTEQMIRAERSIPHPNYDSRTLDHDILLVRLQHPAELTIAPVTLPTKCAASGTMCIATGWGNTKVPGSRLPRTLQCLWMPILPRNECESSYPGMISDNMFCAGYMEGGKDTCQGDSGGPLVCQGRLQGIVSWGVGCARKNKPGVYTRVCRYVPWIQRTMSSY-IVGGFECGEHTAPWQVSLTTGTHFCGGSLINARFVASAAHCYRSDIVVRLGEYDRSVDEGNEQSIQASEAVRHPNFNPKTLDHDIMLVRLSSAATLGMAPVGLPANCAAAGTECLATGWGNVDEHDIDYPSTLQCLRLPILDRSTCAQSYPGVITDNMFCAGYLEGGKDTCQGDSGGPLVCDGQLQGIVSWGVGCARVNKPGVYTRVCRFVSWLNSTMASR-LVGGYDCGQNTRPYQVSLDVGQHYCGGSLIDQRYVLSAAHCFQRRIVVHAGEYNRLLEEGTEQRIEAETSVRHPDYNPHTLDNDILLVKLSRALKSGVAPVALPDRCAQQGTWCTVSGWGNTLEYSFLYPDTLQCLRAPVLGREKCAAAYPGMITDRMFCAGYLEGGKDSCQGDSGGPLVCEGRLQGIVSWGVGCGRVNAPGVYTRVCRFVQWIRRTMEAV,IVGGYTCGANTVPYQVSLNSGYHFCGGSLINSQWVVSAAHCYKSGIQVRLGEDNINVVEGNEQFISASKSIVHPSYNSNTLNNDIMLIKLKSAASLNVASISLPTSCASAGTQCLISGWGNTKSSGTSYPDVLKCLKAPILSDSSCKSAYPGQITSNMFCAGYLEGGKDSCQGDSGGPVVCSGKLQGIVSWGSGCAQKNKPGVYTKVCNYVSWIKQTIASN-IVGGYTCGANTVPYQVSLNSGYHFCGGSLINSQWVVSAAHCYKSGIQVRLGEDNINVVEGNEQFISASKSIVHPSYNSNTLNNDIMLIKLKSAASLNVASISLPTSCASAGTQCLISGWGNTKSSGTSYPDVLKCLKAPILSDSSCKSAYPGQITSNMFCAGYLEGGKDSCQGDSGGPVVCSGKLQGIVSWGSGCAQKNKPGVYTKVCNYVSWIKQTIASN-IVGGYTCGANTVPYQVSLNSGYHFCGGSLINSQWVVSAAHCYKSGIQVRLGEDNINVVEGNEQFISASKSIVHPSYNSNTLNNDIMLIKLKSAASLNVASISLPTSCASAGTQCLISGWGNTKSSGTSYPDVLKCLKAPILSDSSCKSAYPGQITSNMFCAGYLEGGKDSCQGDSGGPVVCSGKLQGIVSWGSGCAQKNKPGVYTKVCNYVSWIKQTIASN-IVGGYTCGANTVPYQVSLNSGYHFCGGSLINSQWVVSAAHCYKSGIQVRLGEDNINVVEGNEQFISASKSIVHPSYNSNTLNNDIMLIKLKSAASLNVASISLPTSCASAGTQCLISGWGNTKSSGTSYPDVLKCLKAPILSDSSCKSAYPGQITSNMFCAGYLEGGKDSCQGDSGGPVVCSGKLQGIVSWGSGCAQKNKPGVYTKVCNYVSWIKQTIASN-IVGGYTCGANTVPYQVSLNSGYHFCGGSLINSQWVVSAAHCYKSGIQVRLGEDNINVVEGNEQFISASKSIVHPSYNSNTLNNDIMLIKLKSAASLNVASISLPTSCASAGTQCLISGWGNTKSSGTSYPDVLKCLKAPILSDSSCKSAYPGQITSNMFCAGYLEGGKDSCQGDSGGPVVCSGKLQGIVSWGSGCAQKNKPGVYTKVCNYVSWIKQTIASN-IVGGYTCGANTVPYQVSLNSGYHFCGGSLINSQWVVSAAHCYKSGIQVRLGEDNINVVEGNEQFISASKSIVHPSYNSNTLNNDIMLIKLKSAASLNVASISLPTSCASAGTQCLISGWGNTKSSGTSYPDVLKCLKAPILSDSSCKSAYPGQITSNMFCAGYLEGGKDSCQGDSGGPVVCSGKLQGIVSWGSGCAQKNKPGVYTKVCNYVSWIKQTIASN-IVGGYTCGANTVPYQVSLNSGYHFCGGSLINSQWVVSAAHCYKSGIQVRLGEDNINVVEGNEQFISASKSIVHPSYNSNTLNNDIMLIKLKSAASLNVASISLPTSCASAGTQCLISGWGNTKSSGTSYPDVLKCLKAPILSDSSCKSAYPGQITSNMFCAGYLEGGKDSCQGDSGGPVVCSGKLQGIVSWGSGCAQKNKPGVYTKVCNYVSWIKQTIASN-IVGGYTCGANTVPYQVSLNSGYHFCGGSLINSQWVVSAAHCYKSGIQVRLGEDNINVVEGNEQFISASKSIVHPSYNSNTLNNDIMLIKLKSAASLNVASISLPTSCASAGTQCLISGWGNTKSSGTSYPDVLKCLKAPILSDSSCKSAYPGQITSNMFCAGYLEGGKDSCQGDSGGPVVCSGKLQGIVSWGSGCAQKNKPGVYTKVCNYVSWIKQTIASN-IVGGYTCGANTVPYQVSLNSGYHFCGGSLINSQWVVSAAHCYKSGIQVRLGEDNINVVEGNEQFISASKSIVHPSYNSNTLNNDIMLIKLKSAASLNVASISLPTSCASAGTQCLISGWGNTKSSGTSYPDVLKCLKAPILSDSSCKSAYPGQITSNMFCAGYLEGGKDSCQGDSGGPVVCSGKLQGIVSWGSGCAQKNKPGVYTKVCNYVSWIKQTIASN-IVGGYTCGANTVPYQVSLNSGYHFCGGSLINSQWVVSAAHCYKSGIQVRLGEDNINVVEGNEQFISASKSIVHPSYNSNTLNNDIMLIKLKSAASLNVASISLPTSCASAGTQCLISGWGNTKSSGTSYPDVLKCLKAPILSDSSCKSAYPGQITSNMFCAGYLEGGKDSCQGDSGGPVVCSGKLQGIVSWGSGCAQKNKPGVYTKVCNYVSWIKQTIASN,RPVLPYVKMP-GKKTHQTLEP-GPLKSNIRQN-EDRSPYVFNG-LPYFTNVRLQ-EQSEHKIYSP-KKAVHFVYKD-SHLVAAVLQP-GPVRPAIRAP-GKYISMVKRD,DCACPRVLHR-DCACPRVLHR-DCACPRVLHR-DCACPRVLHR-DCACPRVLHR-DCACPRVLHR-DCACPRVLHR-DCACPRVLHR-DCACPRVLHR-DCACPRVLHR
16.0,165,175,B,10,MCDCTEELKPVCGSDTVTYANPCMLGCARAKGWPQAKELHAGPCPD-SAACNKSLEKVCASDNQTYRNPCQLGCARSEGAPDLKIVHGGPCRP-AGDCPLVQAEVCGTNYVTYMNPCVLGCAKQQGLPGLRQLHQGPCHP-DQCCRLTLERVCSSDGFTYDNPCTLECERQKGRPTLRQRHEGPCAP-SSRCMLTLESVCGSDSKTYDNPCTLDCYRKQRHPNLTQIQSGPCTP-MPSCPLIDDRVCGSDSVTYRNPCVLGSARFRGAPDLRMVHRGPCDP-CDECPQVCQRVCGSDLQTYSSPCTLQCARAIHNPLLQRLHYGPCQP-DCDCDLTLERVCGSDRQTYANPCVLGCARDEGLPNLVLVHSGPCES-APQCDMSRADVCASDGHTYSNPCVLLCHRKESAPNLRLVHTGPCAP-ECSCPLSLSLVCASTHQTFSNPCHLGCQRQEGEPNLVMVHQGPCDP,DCACPRVLHRVCGSDGNTYSNPCTLDCAKHEGKPDLVQVHEGPCDP-DCACPRVLHRVCGSDGNTYSNPCTLDCAKHEGKPDLVQVHEGPCDP-DCACPRVLHRVCGSDGNTYSNPCTLDCAKHEGKPDLVQVHEGPCDP-DCACPRVLHRVCGSDGNTYSNPCTLDCAKHEGKPDLVQVHEGPCDP-DCACPRVLHRVCGSDGNTYSNPCTLDCAKHEGKPDLVQVHEGPCDP-DCACPRVLHRVCGSDGNTYSNPCTLDCAKHEGKPDLVQVHEGPCDP-DCACPRVLHRVCGSDGNTYSNPCTLDCAKHEGKPDLVQVHEGPCDP-DCACPRVLHRVCGSDGNTYSNPCTLDCAKHEGKPDLVQVHEGPCDP-DCACPRVLHRVCGSDGNTYSNPCTLDCAKHEGKPDLVQVHEGPCDP-DCACPRVLHRVCGSDGNTYSNPCTLDCAKHEGKPDLVQVHEGPCDP,GQSLPSAGDC-PGHHKHPGDC-QGTTLAPGDG-PGVAAAPGSC-IDIDIDIGDH-PGVLPHPGHC-SGHRQRSGAG-GGASPSPGHG-PGAAPQPGAA-FSVTSAPGAA,GGKDSCQGDS-GGKDSCQGDS-GGKDSCQGDS-GGKDSCQGDS-GGKDSCQGDS-GGKDSCQGDS-GGKDSCQGDS-GGKDSCQGDS-GGKDSCQGDS-GGKDSCQGDS
