contacts,cs,ce,Chain,Length,designed_receptor_seq,native_receptor_seq,designed_binder_seq,native_binder_seq
6.0,158,168,A,10,GPAIISSGPQVVPPGSSVTISCKCQGFDFSKYRIHWWKQRPGQGLEWIGWIYDSSKTVYNAAYKDIATLTADVATSTAYLTFSSDLSATYYCKMLGPNYDDIWSAGTSVLVSNAKVTPPTVTPLTPPNTVPLGCLVSGYFPLDVTITWNDGALTTGVTVNPATVVNNLYTQYATVTVPSSYWPTQKVVCTVTHPASNTTTKTELVAP-GPAIISSGPQVVPPGSSVTISCKCQGFDFSKYRLHWWKQRPGQGLEWIGWIFDSSKTVYNSAYKNIATLTADVSKSTAYLTFSSSLSAVYYCKMLGPNYDDIWSAGTSVLVSNAKVTPPTVTPLTPPNQVPLGCLVSGYFPLDVGITFNDGVLSSGVSVYPAVVVNNLYDQYATVTVPASYWPSQKVVCTVTHPASNTTVKQELVLP-SPAIISSGPQVVPPGSSVTISCKCQGFDFSKYRIHWWKQRPGQGLEWIGWIFDSSKTVYNAAYKNIATLTADVSKSTAYLTFSSSLSATYYCKMLGPNYDDIWSAGTSVLVSSAKVTPPTVTPLTPGSTVPLGCLVSGYFPLDVTITWNDGVLSSGVSINPAVVVNNLYTQYATVTVPSSYWPSNSVVCTVTHPASNTTTKTQLVSP-GPEIISSGPQVVPPGASVTISCRCQGFDFSKYRIHWWKQRPGQGLEWIGWIYDSSRTVYNAAYRNIATLTADVATSTAYLTFSSSLSATYYAKMLGPNYTDIWSAGTSVLVSNATVTPPTVTPLTPPNTVPLGCLVSGYFPLDVTITWNDGVLTTGVTVNPAVVVNNLYTQYATVTVPASYWPTQSVTCTVTHPASNTTTKTTLTAP-GPAIISSGPQVVPPGASVTISCKCQGFDFSKYYIDWWKQRPGQGLEWIGRIFDSSKTVYNAAYKNIATLTADVATSTAYLTFTSALSATYYARMLGPNYDDIWSAGTSVLVSNAKVTPPTVTPLTNGTTVPLGCLVSGYFPLDVTITWNDGVLTTGVTTYPATVVNNLYTQYSTVTVPSSYWPTQSVVCTVTHPASNTTTKTTLTAP-GPAILSSGPQVVPPGSSVTISCKCQGFDFSKYRIHWWKQRPGQGLEWIGWIYDSSKTVYNAAYKDIATLTADVATSTAYLTFSSSLSATYYAKMLGPNYDDIWSSGTSVLVSNAKVTPPTVTPLTPPNTVPLGCLVSGYFPLDVTITWNDGVLTTGVTVNPAVVVNNLYTQDATVTVPSSYWPTQKVVCTVTHPASNTTVKQELVAP-GPAIISSGPQVVPPGSSVTISCQCQGFDFSKYRIHWWKQRPGQGLEWIGWIYDSSKTVYNAAYKNIATLTADVAKNTAYLTFSSSLSATYYAKMLGPNQTDIWSAGTSVLVSNAKVTPPTVTPLTPGSTVPLGCLVSGYFPLDVTITWNDGVLTTGVTTYPATVVNNLYTQYSTVTVPSSYWPTQKVVCTVTHPASNTTTKTELVAP-GPAIISSGPQVVPPGSSVTISCKCQGFDFSKYRIHWIKQRPGQGLEWIGWIFDSSKTVYNAAYKDIATLTADVSKSTAYLTFSSSLSAIYYAKMLGPNQTDIWSAGTSVLVSNAKVTPPTVTPLTPPNTVPLGCLVSGYFPLDVGITFNDGVLTTGVTVNPAVVVNNLYTQDATVTVPSSYWPTNKVVCTVTHPASNTTTKTELVAP-GPAIISSGPQVVPPGASVTISCKCQGFDFSKYRIHWIKQRPGQGLEWIGWIFDSSKTVYNAAYKDIATLTADVATSTAYLTFTAALSATYYARMLGPNQTDIWSAGTSVLVSNAKVTPPTVTPLTPGSTVPLGCLVSGYFPLDVTITWNDGVLTTGVTVNPATVVNNLYTQDATVTVPASYWPTQKVVCTVTHPASNTTTKTELVAP-GPAIISSGPQVVPPGSSVTISCKCQGFDFSKYRIHWWKQRPGQGLEWIGWIFDSSKTVYNAAYKDIATLTADVSKSTAYMTFTSDLSAVYYAKMLGPNQTDIWSAGTSVLVSNAKVTPPTVTPLTPPNTVPLGCLVSGYFPLDVTITWNDGVLSSGVTVNPAVVVNNLYTQDATVTVPSSFWPSQKVVCTVTHPASNTTTKTELVAP,GVKLQQSGPEVVKPGASVKISCKASGYSFTNFYIHWVKQRPGQGLEWIGWIFGSDNTEYNEKFKDKATLTADTSSSTAYMQLTSEDSAVYFCARWGPHWYDVWGQGTTVTVSSAKTTPPSVYPLAPNSMVTLGCLVKGYFPEPVTVTWNSGSLSSGVHTFPAVLQSDLYTLSSSVTVPSSTWPSETVTCNVAHPASSTKVDKKIAAA-GVKLQQSGPEVVKPGASVKISCKASGYSFTNFYIHWVKQRPGQGLEWIGWIFGSDNTEYNEKFKDKATLTADTSSSTAYMQLTSEDSAVYFCARWGPHWYDVWGQGTTVTVSSAKTTPPSVYPLAPNSMVTLGCLVKGYFPEPVTVTWNSGSLSSGVHTFPAVLQSDLYTLSSSVTVPSSTWPSETVTCNVAHPASSTKVDKKIAAA-GVKLQQSGPEVVKPGASVKISCKASGYSFTNFYIHWVKQRPGQGLEWIGWIFGSDNTEYNEKFKDKATLTADTSSSTAYMQLTSEDSAVYFCARWGPHWYDVWGQGTTVTVSSAKTTPPSVYPLAPNSMVTLGCLVKGYFPEPVTVTWNSGSLSSGVHTFPAVLQSDLYTLSSSVTVPSSTWPSETVTCNVAHPASSTKVDKKIAAA-GVKLQQSGPEVVKPGASVKISCKASGYSFTNFYIHWVKQRPGQGLEWIGWIFGSDNTEYNEKFKDKATLTADTSSSTAYMQLTSEDSAVYFCARWGPHWYDVWGQGTTVTVSSAKTTPPSVYPLAPNSMVTLGCLVKGYFPEPVTVTWNSGSLSSGVHTFPAVLQSDLYTLSSSVTVPSSTWPSETVTCNVAHPASSTKVDKKIAAA-GVKLQQSGPEVVKPGASVKISCKASGYSFTNFYIHWVKQRPGQGLEWIGWIFGSDNTEYNEKFKDKATLTADTSSSTAYMQLTSEDSAVYFCARWGPHWYDVWGQGTTVTVSSAKTTPPSVYPLAPNSMVTLGCLVKGYFPEPVTVTWNSGSLSSGVHTFPAVLQSDLYTLSSSVTVPSSTWPSETVTCNVAHPASSTKVDKKIAAA-GVKLQQSGPEVVKPGASVKISCKASGYSFTNFYIHWVKQRPGQGLEWIGWIFGSDNTEYNEKFKDKATLTADTSSSTAYMQLTSEDSAVYFCARWGPHWYDVWGQGTTVTVSSAKTTPPSVYPLAPNSMVTLGCLVKGYFPEPVTVTWNSGSLSSGVHTFPAVLQSDLYTLSSSVTVPSSTWPSETVTCNVAHPASSTKVDKKIAAA-GVKLQQSGPEVVKPGASVKISCKASGYSFTNFYIHWVKQRPGQGLEWIGWIFGSDNTEYNEKFKDKATLTADTSSSTAYMQLTSEDSAVYFCARWGPHWYDVWGQGTTVTVSSAKTTPPSVYPLAPNSMVTLGCLVKGYFPEPVTVTWNSGSLSSGVHTFPAVLQSDLYTLSSSVTVPSSTWPSETVTCNVAHPASSTKVDKKIAAA-GVKLQQSGPEVVKPGASVKISCKASGYSFTNFYIHWVKQRPGQGLEWIGWIFGSDNTEYNEKFKDKATLTADTSSSTAYMQLTSEDSAVYFCARWGPHWYDVWGQGTTVTVSSAKTTPPSVYPLAPNSMVTLGCLVKGYFPEPVTVTWNSGSLSSGVHTFPAVLQSDLYTLSSSVTVPSSTWPSETVTCNVAHPASSTKVDKKIAAA-GVKLQQSGPEVVKPGASVKISCKASGYSFTNFYIHWVKQRPGQGLEWIGWIFGSDNTEYNEKFKDKATLTADTSSSTAYMQLTSEDSAVYFCARWGPHWYDVWGQGTTVTVSSAKTTPPSVYPLAPNSMVTLGCLVKGYFPEPVTVTWNSGSLSSGVHTFPAVLQSDLYTLSSSVTVPSSTWPSETVTCNVAHPASSTKVDKKIAAA-GVKLQQSGPEVVKPGASVKISCKASGYSFTNFYIHWVKQRPGQGLEWIGWIFGSDNTEYNEKFKDKATLTADTSSSTAYMQLTSEDSAVYFCARWGPHWYDVWGQGTTVTVSSAKTTPPSVYPLAPNSMVTLGCLVKGYFPEPVTVTWNSGSLSSGVHTFPAVLQSDLYTLSSSVTVPSSTWPSETVTCNVAHPASSTKVDKKIAAA,TTTTTTTTGY-SSSSVISLGF-SSSSVIYDGW-TTTTTPNLGY-PPSQVIYLGW-PAANVIYDGF-PPSSVIYDGF-PAANVIALGW-PPSQVIYDGW-PPSQVIDLGF,ELENLPQNGR-ELENLPQNGR-ELENLPQNGR-ELENLPQNGR-ELENLPQNGR-ELENLPQNGR-ELENLPQNGR-ELENLPQNGR-ELENLPQNGR-ELENLPQNGR
9.0,48,58,B,10,EQCLSCDVSGNCSVETCPPGFTKCARTTVTVSGGQTLVSRSCTWSDEVNQTLSYRDGSRLVSYSKTVCGTTLCNSSSPLSCTSCGSENNDCENGNEQSLTCTNSSDLCLDVVNESPPRYLRGCGLLPGGSGSLGYHDHSRFRYLKSCSTTNCNSGPLLTLSNLSVNGMQCYSCSGTETNGCSPSQEYLINCRGPMYACITVTGTANNPNDSAKVRGCATDSMCSDSFFFNMRNANVSCCYTSGCNFPG-EQCLSCDTSGNCSVQTCPPGFTKCARVTTTVSGGQTLVSRDCTWDDEVNQTLSYRDGDRLVSYSQTVCGTTLCNASSPLTCTSCGSSTNSCENGNDQTLTCTDSNDLCLDIVNDPPPTYVRGCGLLPGGPGSLGYHDHSRFRYLKACNTTNCNSGPLLTLSNLSVNGMQCYSCSGTETNGCSPSQEFLINCRGPMYACITVTGTANNPNDAAKVRGCATDSMCSDSFFFQMRNANVSCCYTSGCNFPG-EQCLSCDVSGNCSVETCPPGFTKCARVTTTVSGGQTFVSRSCTWEDEVDQSLSYRDGDRLVSYSKTVCGTELCNASSPLSCTSCGSETNSCENGNDQTLTCTDPNDLCLDIVNESPPRYVRGCGLLPGGPGSLGYHDHSRFRYLKSCSTTNCNSGPLLTLSNLSENGMQCYSCSGTETNGCSPSEEFLINCRGPMYACITATGTAYPDNTAAKVRGCATDSMCSPSFFFNMRNVNVSCCYTSGCNFPG-EQCLSCDVSGNCSVETCPPGYTKCARTTVTVSGGTTLVSRSCTWSDAVNQTLSYTDGSTTVSYSQTVCGTTLCNSSSPLSCTSCGSSTNSCSNGNDQTLTCTNSSDLCLDIVNDSPPTYVRGCGLLPGGSGSLGYHDQSRFRYLKSCSTTNCNSGPILTLSNLSSNGMQCYSCSGTETSGCSPSQEYLINCRGPMYACITVTGTAYPPYTSAKVRGCATDSMCSSSFYFSMRNANVSCCYTSGCNYPG-EQCLSCDVSGNCSVETCPPGFTKCARTTVTVSGGQTLVSRSCTWSDEVDQTLSYRDGSTLVSYSKTVCGSSLCNSSSPLSCTSCGSATNSCENGNEQTLTCTDPNDLCLDVVNSSPPTYLRGCGLLPGGSGSLGYHDQSRFRWLKSCSTSNCNSGPLLTLSSLSSNGMQCYSCSGTESSGCSPSQEFLINCRGPMYACITVTGTAYPSSQSAKVRGCATDSMCSSSFFFNMRNANVSCCYTSGCNFPG-EQCLSCDVSGNCSVQTCPPGFTKCARTTVTVSGGTTYVSRDCTWSDEVNQTLSYRDGSTLVSYSRTVCGTTLCNSSSPLSCISCGSATNSCENGNQQTLTCTNSSDLCLDIVNSSPPTYTRGCGLLPGGSGSLGYHDQSRFRYLKSCNTTNCNSGPILTLSNLSANGMQCYSCSGTETNGCTPSQTFLINCRGPMYACITATGTSSPPNTAAKVRGCATDSMCSSSFFFNMRNVNVSCCYTSGCNFPG-EQCLSCDVSGNCSVQTCPPGFTKCARVTTTVSGGQTFVSRDCTWSDEVNQTLSYRDGSRLVSYSKTVCGSSLCNSSSPLSCTSCGSLTNSCENGNDQTLTCTNSSDLCLDIVNDPPPRYVRGCGLLPGGNGSLGYHDHSRFRYLKSCSSSNCNSGPLLTLSNLSVNGMQCYSCSGTESSGCSPSQEFLINCRGPMYACITATGTAYPPYTSAKVRGCATDSMCSSSFFFNMRNLNVSCCYTSGCNFPG-DQCESCDVSGNCSTETCPPGFTKCATTTVTVSGGQTFTSKSCTWSDAVNQTLSYKDGSTLVSYSQTVCGSSLCNSSSPLSCTSCGSSNSSCENGNEQTLTCTNSSDLCLTIVNDPPPTYTRGCGLLPGGSGSLGYHDQSSFRYLKSCNTTNCNSGPILTLSNLSVNGMQCYSCSGNETSGCSPSQEYLINCRGPMYACITATGTAYPPYTSAKVRGCATDSMCSSSFFFNMRNVNVSCCYTSGCNYPG-EQCEQCDVSGNCSTQTCPPGFTKCARTTVTVSGGQTLVSRSCTWSDEVNQTLSYRDGSRLVSYSRTVCGSSLCNSSSPLSCTSCGSLNNSCENGNEQTLTCTNSSDLCLDIVNDSPPTYVRGCGLLPGGSGSLGYHDQSRFRYLKSCNSTNCNSGPILTLSNLSVNGMQCYSCSGTESSGCSPSQEYLINCRGPMYACITVTGTANNSSDSAKVRGCATDSMCSSSFFFNMRNANVSCCYTSGCNFPG-EQCEKCDVSGNCSTQTCPPGFTKCARVTTTVSGGQTLVSRDCTWSDEVNQTLSYKDGSKLVSYSKTVCGTSLCNSSSPLSCTSCGSENNDCENGNEQTLTCTDSNDLCLTIVNDPPPKYLRGCGLLPGGPGSLGYHDHSRFRYLKSCNTTNCNSGPILTLSNLSANGMQCYSCSGTETNGCTPSQEYLINCRGPMYACITVTGTANNPNDAAKVRGCATDSMCSDSFFFQMRNANVSCCYTSGCNFPG,SRCMQCKTNGDCRVEECALGQDLCRTTIVRLWEELELVEKSCTHSEKTNRTLSYRTGLKITSLTEVVCGLDLCNQGNYLECISCGSSDMSCERGRHQSLQCRSPEEQCLDVVTHWDDRHLRGCGYLPGCPGSNGFHNNDTFHFLKCCNTTKCNEGPILELENLPQNGRQCYSCKGNSTHGCSSEETFLIDCRGPMNQCLVATGTHEPKNQSYMVRGCATASMCQLGDAFSMNHIDVSCCTKSGCNHPD-SRCMQCKTNGDCRVEECALGQDLCRTTIVRLWEELELVEKSCTHSEKTNRTLSYRTGLKITSLTEVVCGLDLCNQGNYLECISCGSSDMSCERGRHQSLQCRSPEEQCLDVVTHWDDRHLRGCGYLPGCPGSNGFHNNDTFHFLKCCNTTKCNEGPILELENLPQNGRQCYSCKGNSTHGCSSEETFLIDCRGPMNQCLVATGTHEPKNQSYMVRGCATASMCQLGDAFSMNHIDVSCCTKSGCNHPD-SRCMQCKTNGDCRVEECALGQDLCRTTIVRLWEELELVEKSCTHSEKTNRTLSYRTGLKITSLTEVVCGLDLCNQGNYLECISCGSSDMSCERGRHQSLQCRSPEEQCLDVVTHWDDRHLRGCGYLPGCPGSNGFHNNDTFHFLKCCNTTKCNEGPILELENLPQNGRQCYSCKGNSTHGCSSEETFLIDCRGPMNQCLVATGTHEPKNQSYMVRGCATASMCQLGDAFSMNHIDVSCCTKSGCNHPD-SRCMQCKTNGDCRVEECALGQDLCRTTIVRLWEELELVEKSCTHSEKTNRTLSYRTGLKITSLTEVVCGLDLCNQGNYLECISCGSSDMSCERGRHQSLQCRSPEEQCLDVVTHWDDRHLRGCGYLPGCPGSNGFHNNDTFHFLKCCNTTKCNEGPILELENLPQNGRQCYSCKGNSTHGCSSEETFLIDCRGPMNQCLVATGTHEPKNQSYMVRGCATASMCQLGDAFSMNHIDVSCCTKSGCNHPD-SRCMQCKTNGDCRVEECALGQDLCRTTIVRLWEELELVEKSCTHSEKTNRTLSYRTGLKITSLTEVVCGLDLCNQGNYLECISCGSSDMSCERGRHQSLQCRSPEEQCLDVVTHWDDRHLRGCGYLPGCPGSNGFHNNDTFHFLKCCNTTKCNEGPILELENLPQNGRQCYSCKGNSTHGCSSEETFLIDCRGPMNQCLVATGTHEPKNQSYMVRGCATASMCQLGDAFSMNHIDVSCCTKSGCNHPD-SRCMQCKTNGDCRVEECALGQDLCRTTIVRLWEELELVEKSCTHSEKTNRTLSYRTGLKITSLTEVVCGLDLCNQGNYLECISCGSSDMSCERGRHQSLQCRSPEEQCLDVVTHWDDRHLRGCGYLPGCPGSNGFHNNDTFHFLKCCNTTKCNEGPILELENLPQNGRQCYSCKGNSTHGCSSEETFLIDCRGPMNQCLVATGTHEPKNQSYMVRGCATASMCQLGDAFSMNHIDVSCCTKSGCNHPD-SRCMQCKTNGDCRVEECALGQDLCRTTIVRLWEELELVEKSCTHSEKTNRTLSYRTGLKITSLTEVVCGLDLCNQGNYLECISCGSSDMSCERGRHQSLQCRSPEEQCLDVVTHWDDRHLRGCGYLPGCPGSNGFHNNDTFHFLKCCNTTKCNEGPILELENLPQNGRQCYSCKGNSTHGCSSEETFLIDCRGPMNQCLVATGTHEPKNQSYMVRGCATASMCQLGDAFSMNHIDVSCCTKSGCNHPD-SRCMQCKTNGDCRVEECALGQDLCRTTIVRLWEELELVEKSCTHSEKTNRTLSYRTGLKITSLTEVVCGLDLCNQGNYLECISCGSSDMSCERGRHQSLQCRSPEEQCLDVVTHWDDRHLRGCGYLPGCPGSNGFHNNDTFHFLKCCNTTKCNEGPILELENLPQNGRQCYSCKGNSTHGCSSEETFLIDCRGPMNQCLVATGTHEPKNQSYMVRGCATASMCQLGDAFSMNHIDVSCCTKSGCNHPD-SRCMQCKTNGDCRVEECALGQDLCRTTIVRLWEELELVEKSCTHSEKTNRTLSYRTGLKITSLTEVVCGLDLCNQGNYLECISCGSSDMSCERGRHQSLQCRSPEEQCLDVVTHWDDRHLRGCGYLPGCPGSNGFHNNDTFHFLKCCNTTKCNEGPILELENLPQNGRQCYSCKGNSTHGCSSEETFLIDCRGPMNQCLVATGTHEPKNQSYMVRGCATASMCQLGDAFSMNHIDVSCCTKSGCNHPD-SRCMQCKTNGDCRVEECALGQDLCRTTIVRLWEELELVEKSCTHSEKTNRTLSYRTGLKITSLTEVVCGLDLCNQGNYLECISCGSSDMSCERGRHQSLQCRSPEEQCLDVVTHWDDRHLRGCGYLPGCPGSNGFHNNDTFHFLKCCNTTKCNEGPILELENLPQNGRQCYSCKGNSTHGCSSEETFLIDCRGPMNQCLVATGTHEPKNQSYMVRGCATASMCQLGDAFSMNHIDVSCCTKSGCNHPD,SWCRGSSACN-SWCRGSSDCN-SWCRGSSACN-SWCYGSSACN-SWCRGSSACN-SWCRGSSDCN-SWCRGSYACN-SWCRGSYDCN-SWCRGSSDCN-SWCRGSSDCN,GWIFGSDNTE-GWIFGSDNTE-GWIFGSDNTE-GWIFGSDNTE-GWIFGSDNTE-GWIFGSDNTE-GWIFGSDNTE-GWIFGSDNTE-GWIFGSDNTE-GWIFGSDNTE
