contacts,cs,ce,Chain,Length,designed_receptor_seq,native_receptor_seq,designed_binder_seq,native_binder_seq
19.0,92,102,A,10,PTVLLVGLDNSGKTTIFIQLLTGKFKTTVPTVGFNNASYVTNDEKGNVLTLTDLPGHPALRMKLFDKYISQAKAIVFVVDGADFSGKQEEIASLLYKVLKKAMEQENKPKLLILVNKQDLEKAMSAEEIKEKLEKKLDELRKNYKGINLGDEGKPFKFEQLPLEVKFLEASAQPANIEDLKKWLSDIS-MDVLLVGLDNSGKTTIFIQLLTGRYRKTTPTIGANFAEYTTDDDEGRVLTLTDLPGHPRYRMMLFDKYVSRARAIVFVVDGAEFPGRQVEVAGLLYDVLIRAMSLAERPTLLILVNKQDLSEAVSARGIREALEEALDRLRRERKGLELGDRGTPFAFAQLPLSVRFLEASAEPADIRELRRWLGEVA-SMVLLVGLENSGKTSLFIRLLTGQYAETVPTIGFNSADYTTDNEQGSVLTLVDLPGHPALRDTLRKAYLSQARGIVFVVDSAAFEGQQEDIATLLFGVLLDSMAQKERPVLAILCNKQDLADAKSAEDIKKELEAKLDELRVEREELELGDAGEPFSFEQLPLKVEFLEASAVPAKIDELQAWLAEIS-AAVLLVGLDNAGKTSLFIQLLTGRYSTTVPTVGFNFATYTTDEENGDELTLVDLPGQPRLRNFLFDAYISQAKGIVFVVDSNSFPRDLKDIAQYLFIVLRKAMAQKQTPVLLIACNKQDLEDAMSAEDIKTELEKELDKLRAEAEELELGDADEPFAFEQLPLEVRFLECSATPANIDDLKAWLSEIA-SQVLLVGLDNSGKTTIFIQLLTGQFQTTVPTVGFNFATYTTDDAAGNELVLTDLPGHPALRRRLFDLYLSQARAVVFVVDSAAFRGRVNEIASLLYEVLLACMAQEERPKLLILCNKQDLAQAMSAADIRQRLEEKLDELREEADELELGDEGEPFAFDQLPLEVRFLEASAEPADIAELKQWLSEIS-SQVLLVGLDNSGKTTIFIRLLTGGFQTTVPTVGFNNAEYTTSEKNGNKLTLVDLPGQPRLRNYLVDAYLSEAKGIIFVVDGASFTRNISDIAGYLFNILLKAMAQENRPVLAILVNKQDIEQALSAEDIQKQLEKQLDKLRNSANNIELGDENEPFTFEQLPLEVNFLEASATPAQIDGLKAWLSKIS-SMVLLVGLDNAGKTTIFIQLLTGRYATTIPTIGFNFATYTTEDEEGNQLTLCDLPGHPRFRMTLFDLYLDQARGIVFVVDGAAFSSRTEEIATLLYQVLIKAMKQEKRPTLLILVNKQDLSRAKSAQDIKKELEKKLDQLRKTSDKLVLGDDNEPFTFEQLPLRVDFLEASATPADIKELKKWLSQIS-MDVLLVGLDNAGKTTIFIRLLTGQFATTVPTIGFNFADYTTEEEEGNVLRLVDLPGQPRLRERLFDFFIERARAIVFVVDGAAFRGRQNEIARLLYKVLKKAMAQKRRPALLILVNKQDLKEAESAENIKKELEETLDILREEEEELELGDEGEPFRFSQLPLEVRFLEASAKPAEIEELQKWLSEIS-ARVLLVGLDNAGKTTLFIQLLTGRFATTVPTVGFNNAEYTTADEDGNVLNLVDLPGHPSLRKKLFTLYAAEAKAIVFVVDSNDFPGKTEEIAGLLYDVLLLSMELEERPTLLILCNKQDLEDAMSAEDIKQKLEEKLDELRESSDELRLGDEGEPFKFEQLPLQVDFLEASAVPAQISGLKEWLAAVA-MRVLLVGLDNSGKTTLFIRLLTGEYQTTVPTVGFNFATYTVPTEEGRQLLLVDLPGHPALRERLFDLYIQEALGIVFVVDGAAFPSRVTEIASLLYNVLLKAMSQRERPVLLILCNKQDLEEALSAEEIRERLEEELDRLRRERDELTLGEEGEPFRFEQLPLKVEFLEASAKPARIHELKEWLGEIA,RAVLFVGLCDSGKTLLFVRLLTGQYRDTQTSITDSSAIYKVNNNRGNSLTLIDLPGHESLRFQLLDRFKSSARAVVFVVDSAAFQREVKDVAEFLYQVLIDSMALKNSPSLLIACNKQDIAMAKSAKLIQQQLEKELNTLRVTRSPAQLGKKGKEFEFSQLPLKVEFLECSAKSADIQDLEKWLAKIA-RAVLFVGLCDSGKTLLFVRLLTGQYRDTQTSITDSSAIYKVNNNRGNSLTLIDLPGHESLRFQLLDRFKSSARAVVFVVDSAAFQREVKDVAEFLYQVLIDSMALKNSPSLLIACNKQDIAMAKSAKLIQQQLEKELNTLRVTRSPAQLGKKGKEFEFSQLPLKVEFLECSAKSADIQDLEKWLAKIA-RAVLFVGLCDSGKTLLFVRLLTGQYRDTQTSITDSSAIYKVNNNRGNSLTLIDLPGHESLRFQLLDRFKSSARAVVFVVDSAAFQREVKDVAEFLYQVLIDSMALKNSPSLLIACNKQDIAMAKSAKLIQQQLEKELNTLRVTRSPAQLGKKGKEFEFSQLPLKVEFLECSAKSADIQDLEKWLAKIA-RAVLFVGLCDSGKTLLFVRLLTGQYRDTQTSITDSSAIYKVNNNRGNSLTLIDLPGHESLRFQLLDRFKSSARAVVFVVDSAAFQREVKDVAEFLYQVLIDSMALKNSPSLLIACNKQDIAMAKSAKLIQQQLEKELNTLRVTRSPAQLGKKGKEFEFSQLPLKVEFLECSAKSADIQDLEKWLAKIA-RAVLFVGLCDSGKTLLFVRLLTGQYRDTQTSITDSSAIYKVNNNRGNSLTLIDLPGHESLRFQLLDRFKSSARAVVFVVDSAAFQREVKDVAEFLYQVLIDSMALKNSPSLLIACNKQDIAMAKSAKLIQQQLEKELNTLRVTRSPAQLGKKGKEFEFSQLPLKVEFLECSAKSADIQDLEKWLAKIA-RAVLFVGLCDSGKTLLFVRLLTGQYRDTQTSITDSSAIYKVNNNRGNSLTLIDLPGHESLRFQLLDRFKSSARAVVFVVDSAAFQREVKDVAEFLYQVLIDSMALKNSPSLLIACNKQDIAMAKSAKLIQQQLEKELNTLRVTRSPAQLGKKGKEFEFSQLPLKVEFLECSAKSADIQDLEKWLAKIA-RAVLFVGLCDSGKTLLFVRLLTGQYRDTQTSITDSSAIYKVNNNRGNSLTLIDLPGHESLRFQLLDRFKSSARAVVFVVDSAAFQREVKDVAEFLYQVLIDSMALKNSPSLLIACNKQDIAMAKSAKLIQQQLEKELNTLRVTRSPAQLGKKGKEFEFSQLPLKVEFLECSAKSADIQDLEKWLAKIA-RAVLFVGLCDSGKTLLFVRLLTGQYRDTQTSITDSSAIYKVNNNRGNSLTLIDLPGHESLRFQLLDRFKSSARAVVFVVDSAAFQREVKDVAEFLYQVLIDSMALKNSPSLLIACNKQDIAMAKSAKLIQQQLEKELNTLRVTRSPAQLGKKGKEFEFSQLPLKVEFLECSAKSADIQDLEKWLAKIA-RAVLFVGLCDSGKTLLFVRLLTGQYRDTQTSITDSSAIYKVNNNRGNSLTLIDLPGHESLRFQLLDRFKSSARAVVFVVDSAAFQREVKDVAEFLYQVLIDSMALKNSPSLLIACNKQDIAMAKSAKLIQQQLEKELNTLRVTRSPAQLGKKGKEFEFSQLPLKVEFLECSAKSADIQDLEKWLAKIA-RAVLFVGLCDSGKTLLFVRLLTGQYRDTQTSITDSSAIYKVNNNRGNSLTLIDLPGHESLRFQLLDRFKSSARAVVFVVDSAAFQREVKDVAEFLYQVLIDSMALKNSPSLLIACNKQDIAMAKSAKLIQQQLEKELNTLRVTRSPAQLGKKGKEFEFSQLPLKVEFLECSAKSADIQDLEKWLAKIA,EKKDFLEELN-EDESALGRLR-ELESYLEVLQ-EGESFLDFLK-AEDSFLGLLE-DLDDFKYFLK-VNRDARNALK-EEESYLGFLL-EEEDALAYLR-EEESALGLLK,QQQSALSLLN-QQQSALSLLN-QQQSALSLLN-QQQSALSLLN-QQQSALSLLN-QQQSALSLLN-QQQSALSLLN-QQQSALSLLN-QQQSALSLLN-QQQSALSLLN
22.0,27,37,B,10,MLVSYFEIFSKGGLTLWSYQGEKEKARGPEQALRDAIINNGSIGNLYLISSFDNENELVFEVGFENFMDSEFVKNLIEDVKKDFISTYNYAIKQDSMISRLTAKFDFDDTFKKLLEEQEKKRE-MLVHYFIIYSKEGIVLWEYQSEEEKAKGPEEALKNSVVDKGKKDLLFLISSFDNENNLVYEVGFSNIDRIEYVKKLIENVKEDFINKYNDAIKEDDIKSRLNAKFDYTDDFLKLLKEQEEIEK-MLVEYFVIYSKGGLVLWSYQGKKTESQGPKKALQEAVLNKGKKGKLYLIERFDEENNLVFEVGFIELERYKFVSELIDDVHKEFTSKYYEAIKGESLNNLKNAKFDFDETFLKLLEEQEKKLK-MLVSYFIIYSKGGLVLWEYQDKNSDSVGPAFALKEHVTNKKPKGSLHLVNKYDHENNLVYEVGFQDKATFKYVNKLIEKVHDYFTSKYNYAIKQNSIFSLVNAKFEFDDAFLELLEEQEKLLG-MLVSYFIIYSKGGDVLWSYQSEDENSKGPIEALKKSIIDKGKRGVLYLIQSYDNENNLVFEVGFPKLEDSKYVNNLIKNVKEKFISTYQEAIKDKSQKSLINAKFDFFDDFKTLKEEEEKKKG-MLVHYFIIYSKGGLVLWSYQDENTKAEGPGTALRNNVIKSEPEDILYLISSYNNKHNLVFEVGFVKRDEFRFVQQLINDTHAFFTEKYEEAIKKISIYSLINAKFSFDDAFLNLLKEQETKRK-MLVEYFIIYSMEGLILWEYQGENIKAEGPEKALKRFVVENLPKDELYLIKSYNFEKGLVYEVGFPKKERLKYVKDLINKVKKEFEEKYEEAIKKQSSYYRIFAKFDFDDTFLKLLKEEEKAVK-MLVDYFVIYSKEGLVLWEYQGEDRHAKGPTLAALESVVFRRGQGELFLVSSFDFERGLVYEVGFRDLTRSEYVEELIRRTKEVFVEKYEDAIKERSTLSRLNAKFDFDDVFLELLEEAEEEER-MLVSYFIIYSKGGLVLWSYQSDSIASRGPYEALQDEVIRTEPREILTLISKFDNDNGLVFEVGFRDISKLSHVNQLIDNVHSLFTSKYNKAISGESMNSRLNAVFDFDDDFLTLLKEAEKELN-MLVYYFVIYSKEGLVLWSYQGEEEESQGPELALLRGVVAKGKKPILHLIKKYDFENGLVFEVGFPEEERSEYVNKLIESVHSFFTKKYNDAIKEKSSESLLNAKFEFDDAFLKLKEEAEKEEK,HMVDFFTIFSKGGLVLWCFQGVSDSCTGPVNALIRSVLLQETHEALTLKYKLDNQFELVFVVGFQKILTLTYVDKLIDDVHRLFRDKYRTEIQQQSALSLLNGTFDFQNDFLRLLREAEESSK-HMVDFFTIFSKGGLVLWCFQGVSDSCTGPVNALIRSVLLQETHEALTLKYKLDNQFELVFVVGFQKILTLTYVDKLIDDVHRLFRDKYRTEIQQQSALSLLNGTFDFQNDFLRLLREAEESSK-HMVDFFTIFSKGGLVLWCFQGVSDSCTGPVNALIRSVLLQETHEALTLKYKLDNQFELVFVVGFQKILTLTYVDKLIDDVHRLFRDKYRTEIQQQSALSLLNGTFDFQNDFLRLLREAEESSK-HMVDFFTIFSKGGLVLWCFQGVSDSCTGPVNALIRSVLLQETHEALTLKYKLDNQFELVFVVGFQKILTLTYVDKLIDDVHRLFRDKYRTEIQQQSALSLLNGTFDFQNDFLRLLREAEESSK-HMVDFFTIFSKGGLVLWCFQGVSDSCTGPVNALIRSVLLQETHEALTLKYKLDNQFELVFVVGFQKILTLTYVDKLIDDVHRLFRDKYRTEIQQQSALSLLNGTFDFQNDFLRLLREAEESSK-HMVDFFTIFSKGGLVLWCFQGVSDSCTGPVNALIRSVLLQETHEALTLKYKLDNQFELVFVVGFQKILTLTYVDKLIDDVHRLFRDKYRTEIQQQSALSLLNGTFDFQNDFLRLLREAEESSK-HMVDFFTIFSKGGLVLWCFQGVSDSCTGPVNALIRSVLLQETHEALTLKYKLDNQFELVFVVGFQKILTLTYVDKLIDDVHRLFRDKYRTEIQQQSALSLLNGTFDFQNDFLRLLREAEESSK-HMVDFFTIFSKGGLVLWCFQGVSDSCTGPVNALIRSVLLQETHEALTLKYKLDNQFELVFVVGFQKILTLTYVDKLIDDVHRLFRDKYRTEIQQQSALSLLNGTFDFQNDFLRLLREAEESSK-HMVDFFTIFSKGGLVLWCFQGVSDSCTGPVNALIRSVLLQETHEALTLKYKLDNQFELVFVVGFQKILTLTYVDKLIDDVHRLFRDKYRTEIQQQSALSLLNGTFDFQNDFLRLLREAEESSK-HMVDFFTIFSKGGLVLWCFQGVSDSCTGPVNALIRSVLLQETHEALTLKYKLDNQFELVFVVGFQKILTLTYVDKLIDDVHRLFRDKYRTEIQQQSALSLLNGTFDFQNDFLRLLREAEESSK,DKPPVIAAYA-KRKPITKGIK-KREPIVEEKS-TRKAIVSSFF-QKQAIIDTYE-RKEPIIESFG-KKEPIIKGYF-EREPIVEGRW-VRKSIIKSSQ-VREPIVEGFR,TQTSITDSSA-TQTSITDSSA-TQTSITDSSA-TQTSITDSSA-TQTSITDSSA-TQTSITDSSA-TQTSITDSSA-TQTSITDSSA-TQTSITDSSA-TQTSITDSSA
