contacts,cs,ce,Chain,Length,designed_receptor_seq,native_receptor_seq,designed_binder_seq,native_binder_seq
20.0,2,12,A,10,MPLAEVLAAGAEREEVRRALEALRECERRVREGEEVEEDCRRELLRALEAALEWVAERLEGYLE-MPLAKVLAEGAKEEEVKKALEELKKCLEEVKKKEEKEEKCEECLKKALEKALEKVAEKLEEYLE-MPLAKVLAAGAEREEVKAALEALAEAEKKVKEEKEKKEDVVAELKKALEAAFAYVAEVLEGYLK-MPLAKVLAAGAKEEAVKAAAEALAKAQAKVKAKKDTKEDVKAAALAALKEAFAYVAKVQDGYLK-MPLAEVLAAGAEHEAVRAAAEALAAAEAAVAAGEASDEDVAAAAAAALAELLAWVAEHLDGYLD-MPLAKVLAEGAKEEEVKKALEELKKCLEEVKKKEETKKDCKKELLKALEKAFEKVAEKLEEYLK-MPLAEVLAAGAEREEVRRALEALAEAERRVREAEETEEDVRAEALRALEAALEYVAEVLEGYLE-MPLAKVLAEGAKEEEVKKALEELAKCAEKVKKEKEKKEDCKKEALKALEKAFEKVAEKIEEYLK-MPLAKVLAEGAKEEEVKKALEELAKCAEKVKKEEKKEEDCKKELLKALEKAFEKVAEKLEEYLK-MPLAEVLAAGAEREEVRAALEALREALREVEAAEETEEDVVEALLEALEAALEYVAEVLEGYLE,DPLTTVREQCEQLEKCVKARERLELCDERVSSRSQTEEDCTEELLDFLHARDHCVAHKLFNSLK-DPLTTVREQCEQLEKCVKARERLELCDERVSSRSQTEEDCTEELLDFLHARDHCVAHKLFNSLK-DPLTTVREQCEQLEKCVKARERLELCDERVSSRSQTEEDCTEELLDFLHARDHCVAHKLFNSLK-DPLTTVREQCEQLEKCVKARERLELCDERVSSRSQTEEDCTEELLDFLHARDHCVAHKLFNSLK-DPLTTVREQCEQLEKCVKARERLELCDERVSSRSQTEEDCTEELLDFLHARDHCVAHKLFNSLK-DPLTTVREQCEQLEKCVKARERLELCDERVSSRSQTEEDCTEELLDFLHARDHCVAHKLFNSLK-DPLTTVREQCEQLEKCVKARERLELCDERVSSRSQTEEDCTEELLDFLHARDHCVAHKLFNSLK-DPLTTVREQCEQLEKCVKARERLELCDERVSSRSQTEEDCTEELLDFLHARDHCVAHKLFNSLK-DPLTTVREQCEQLEKCVKARERLELCDERVSSRSQTEEDCTEELLDFLHARDHCVAHKLFNSLK-DPLTTVREQCEQLEKCVKARERLELCDERVSSRSQTEEDCTEELLDFLHARDHCVAHKLFNSLK,EELEPPEFPP-EELEPPEFPE-EKLEPPKFPK-EKLEPPKFPK-AAAAPPAFPA-EELKPPKFPK-EELEPPEFPE-EEIKPPKFPK-EELKPPKFPK-EELEPPEFPE,LELHPPSYPW-LELHPPSYPW-LELHPPSYPW-LELHPPSYPW-LELHPPSYPW-LELHPPSYPW-LELHPPSYPW-LELHPPSYPW-LELHPPSYPW-LELHPPSYPW
21.0,38,48,B,10,GGSTITPPKYDWSFRGPFDKLDHEKIRLGVRVYLEVCQKCHSMPDTKFSDLVGTAFTEEEAKALAAKYKVKVKDPKTGEVKEKPGTLDDYLPKPYPTPEAAKAKNNGWLPPDMSKIVSKTEGGADYIYSFLTGFTKPPEGVKLDDKKYFNPYVPGWATGMKPPMDKLKLDGKDGKPVTKENLAWWVCTFLKWASDPTHDERKEKGKALEEGLGKAVPEAKAALDKELKKYKDAKFEFKPPG-GGSTITPPKYPWSFDGPFDKLDHEKIRLGVLVYLEVCSKCHAMPDTKFSDLVGTAFTEEEAKALAAKFKVKVKDPKTGEVKEKPGTLDDYLPKPFPTPEAAKAKNNGWLPPDMSKIVSKTEGGADYIYSFLTGFTKPPEGVKLDDKKYFNPYVPGWATGMKPPIDKLKLDLGKGVPATKENLAWWVCTFLKWASDPTHDEKKEKGKKLEEGLGKAIPEAKAKLDAELKKYTEAKFEFKPPG-GGSTITPPKYPWTFDGPFDKLDHEKIRLGVRVYLEVCQKCHAMPDTKFSDLVGVAFTEEEAKALAAKFKVKVKDPKTGEVKEKPGTLDDYLPKPYPTPEAAKAKNNGWLPPDLSKIVSKTEGGADYIYSFLTGYTKPPEGVKLDDKKYFNPYVPGWATGMKPPIDKLKLDGKGGVPTTKENLAWWVTTFLKWASDPTHDERKEKGKKLEEGLGKAVPEAKAKLDAVMKKYTEAKFTFTPPG-GGSTITPPNYPWSFTGPFDKLDHEKIRLGVRVYLEVCQKCHAMPDTKFSDLVGVAFTEEEAKALAAKYKVKVKDPKTGEVKEKPGTLDDYLPKPYPTPEAAKAKNNGWLPPDLSKIVSKTEGGANYIYSFLTGFTKPPEGVKLDDKKFFNPYVPGWATGMKPPIDKLKLDGKDGKPLTKENLAWWVCTFLKWASDPTHDERKEKGKALEEGLGKAVPEAKAKVDELTKKYTEAKFTFTPPG-GGSTITPPKYDWSFRGPFDKLDHEKIRLGVLVYLEVCQKCHAMPDTKFSDLVGVAFTEEEAKALAAKFKVKVKDPKTGEVKEKPGTLDDYLPKPYPTPEAAKAKNNGWLPPDMSKIVSKTKGGADYIYSFLTGFTKPPEGVKLDDKKYFNPYVPGWATGMKPPIDKLKLDLGKGVPATKENLAWWVCTFLKWASDPTHDEKKEKGKKLEEELGKLKPEVEALKNKYLKKYKEAKFEFKPPG-GGSTITPPTYPWSFTGPFDKLDHDLIRLGVQVYLEVCQKCHAMPDTKFSDLVGVAFTEEEAKALAAKFTVEVEDPVTGEKKKVPGTLDDYLPKPYPTPEAAKAKNNGWLPPDMSKIVSKTEGGADYIYSFLTGYTKPPEGVKLDDKKYFNPYVPGWATGMKPPVDKLKLDLGDGTPATKENLAKWVCTFLKWASDPTHDERKEKGKALEEGLGKAIPEAKAALDKVTAKYTGAKFTFTPPG-GGSSITPPKYDWSFRGPFDKLDHEKIRLGVAVYLEVCSKCHSMKDTKFSDLVGTAFTEEEAKALAGKFKVKVKDPKTGEVKEAPGTLDDYLPKPYPTPEAAKAKNNGWLPPDLSKIVSKTEGGADYIYSFLTGYTKPPEGFKLDDKKYFNPYVPGWATGMKPPMDKLKLDLGKGEPATKENLAWWVCTFLKWASDPTHDEKKEKGKKLEEGLGKAVPEAKAALDKVTAKYKGAKLTFTPPG-GGSTITPPKYDWSFRGPFDKLDHEKIRLGVRVYLEVCQKCHAMKDTKFSDLVGVAFTEEEAKALAAKYKVKVKDPKTGEVKEKPGTLDDYLPKPYPTPEAAKAKNNGWLPPDLSKIVSKTEGGADYIYSFLTGYTKPPEGVKLDDKKYFNPYVPGWATGMKPPIDKLKLDLGDGTPATKENLAWWVCTFLKWASDPTHDERKEKGKKLEEGLGKAIPEAKAKLDELSKKYKDAKFEFKPPG-GGSTITPPKYPWSFDGPFDKLDHDKIRLGVRVYLEVCSKCHAMKDTKFSDLVGVAFTEEEAKALAAKYKVKVKDPKTGEVKEKPGTLDDYLPKPYPTPEAAKAKNNGWLPPDMSKIVSKTEGGADYIYSFLTGYTKPPEGVKLDDKKYFNPYVPGWATGMKPPMDKLKLDGKDGKPLTKENLAWWVCTFLKWASDPTHDERKEKGKKLEEGLGKAVPELQAKLDELSKKYKEAKFEFKPPG-GGSTITPPAYPWSFTGPFDKLDHDKIRLGVEVYLEVCMGCHGMPDTKFSDLVGTAYTEEEAKALAGKFTVTVEDPVTGEKKEAPGTLDDYLPKPYPTPEAAKAKNNGWLPPDLSKIVSQNAGGADYIYSFLTGYTEPPEGVTLDDKKYFNPYVPGWATGMKPPMDKLKLKGKDGKPLTKENLAWWVCTFLKWASDPTHDEKKEKGKALEEGLGKLVPELQAKVDEVMKKYTEAKFEFKPPG,SDLELHPPSYPWSHRGLLSSLDHTSIRRGFQVYKQVCSSCHSMDYVAYRHLVGVCYTEDEAKALAEEVEVQDGPNEDGEMFMRPGKLSDYFPKPYPNPEAARAANNGALPPDLSYIVRARHGGEDYVFSLLTGYCEPPTGVSLREGLYFNPYFPGQAIGMAPPIYNEVLEFDDGTPATMSQVAKDVCTFLRWAAEPEHDHRKRMGLKMLLMMGLLLPLVYAMKRHKWSVLKSRKLAYRPPK-SDLELHPPSYPWSHRGLLSSLDHTSIRRGFQVYKQVCSSCHSMDYVAYRHLVGVCYTEDEAKALAEEVEVQDGPNEDGEMFMRPGKLSDYFPKPYPNPEAARAANNGALPPDLSYIVRARHGGEDYVFSLLTGYCEPPTGVSLREGLYFNPYFPGQAIGMAPPIYNEVLEFDDGTPATMSQVAKDVCTFLRWAAEPEHDHRKRMGLKMLLMMGLLLPLVYAMKRHKWSVLKSRKLAYRPPK-SDLELHPPSYPWSHRGLLSSLDHTSIRRGFQVYKQVCSSCHSMDYVAYRHLVGVCYTEDEAKALAEEVEVQDGPNEDGEMFMRPGKLSDYFPKPYPNPEAARAANNGALPPDLSYIVRARHGGEDYVFSLLTGYCEPPTGVSLREGLYFNPYFPGQAIGMAPPIYNEVLEFDDGTPATMSQVAKDVCTFLRWAAEPEHDHRKRMGLKMLLMMGLLLPLVYAMKRHKWSVLKSRKLAYRPPK-SDLELHPPSYPWSHRGLLSSLDHTSIRRGFQVYKQVCSSCHSMDYVAYRHLVGVCYTEDEAKALAEEVEVQDGPNEDGEMFMRPGKLSDYFPKPYPNPEAARAANNGALPPDLSYIVRARHGGEDYVFSLLTGYCEPPTGVSLREGLYFNPYFPGQAIGMAPPIYNEVLEFDDGTPATMSQVAKDVCTFLRWAAEPEHDHRKRMGLKMLLMMGLLLPLVYAMKRHKWSVLKSRKLAYRPPK-SDLELHPPSYPWSHRGLLSSLDHTSIRRGFQVYKQVCSSCHSMDYVAYRHLVGVCYTEDEAKALAEEVEVQDGPNEDGEMFMRPGKLSDYFPKPYPNPEAARAANNGALPPDLSYIVRARHGGEDYVFSLLTGYCEPPTGVSLREGLYFNPYFPGQAIGMAPPIYNEVLEFDDGTPATMSQVAKDVCTFLRWAAEPEHDHRKRMGLKMLLMMGLLLPLVYAMKRHKWSVLKSRKLAYRPPK-SDLELHPPSYPWSHRGLLSSLDHTSIRRGFQVYKQVCSSCHSMDYVAYRHLVGVCYTEDEAKALAEEVEVQDGPNEDGEMFMRPGKLSDYFPKPYPNPEAARAANNGALPPDLSYIVRARHGGEDYVFSLLTGYCEPPTGVSLREGLYFNPYFPGQAIGMAPPIYNEVLEFDDGTPATMSQVAKDVCTFLRWAAEPEHDHRKRMGLKMLLMMGLLLPLVYAMKRHKWSVLKSRKLAYRPPK-SDLELHPPSYPWSHRGLLSSLDHTSIRRGFQVYKQVCSSCHSMDYVAYRHLVGVCYTEDEAKALAEEVEVQDGPNEDGEMFMRPGKLSDYFPKPYPNPEAARAANNGALPPDLSYIVRARHGGEDYVFSLLTGYCEPPTGVSLREGLYFNPYFPGQAIGMAPPIYNEVLEFDDGTPATMSQVAKDVCTFLRWAAEPEHDHRKRMGLKMLLMMGLLLPLVYAMKRHKWSVLKSRKLAYRPPK-SDLELHPPSYPWSHRGLLSSLDHTSIRRGFQVYKQVCSSCHSMDYVAYRHLVGVCYTEDEAKALAEEVEVQDGPNEDGEMFMRPGKLSDYFPKPYPNPEAARAANNGALPPDLSYIVRARHGGEDYVFSLLTGYCEPPTGVSLREGLYFNPYFPGQAIGMAPPIYNEVLEFDDGTPATMSQVAKDVCTFLRWAAEPEHDHRKRMGLKMLLMMGLLLPLVYAMKRHKWSVLKSRKLAYRPPK-SDLELHPPSYPWSHRGLLSSLDHTSIRRGFQVYKQVCSSCHSMDYVAYRHLVGVCYTEDEAKALAEEVEVQDGPNEDGEMFMRPGKLSDYFPKPYPNPEAARAANNGALPPDLSYIVRARHGGEDYVFSLLTGYCEPPTGVSLREGLYFNPYFPGQAIGMAPPIYNEVLEFDDGTPATMSQVAKDVCTFLRWAAEPEHDHRKRMGLKMLLMMGLLLPLVYAMKRHKWSVLKSRKLAYRPPK-SDLELHPPSYPWSHRGLLSSLDHTSIRRGFQVYKQVCSSCHSMDYVAYRHLVGVCYTEDEAKALAEEVEVQDGPNEDGEMFMRPGKLSDYFPKPYPNPEAARAANNGALPPDLSYIVRARHGGEDYVFSLLTGYCEPPTGVSLREGLYFNPYFPGQAIGMAPPIYNEVLEFDDGTPATMSQVAKDVCTFLRWAAEPEHDHRKRMGLKMLLMMGLLLPLVYAMKRHKWSVLKSRKLAYRPPK,KKVEELLKKL-GKVEELLKKL-AKVEELLKKL-EGVKELLKKL-DKIKELLKKL-AKVKELLEKL-DEVKKLLESL-DKIKELLKKL-DEIKKLLESL-DEVKKLLESL,DCTEELLDFL-DCTEELLDFL-DCTEELLDFL-DCTEELLDFL-DCTEELLDFL-DCTEELLDFL-DCTEELLDFL-DCTEELLDFL-DCTEELLDFL-DCTEELLDFL
