contacts,cs,ce,Chain,Length,designed_receptor_seq,native_receptor_seq,designed_binder_seq,native_binder_seq
55.0,4,14,A,10,APLLYQPPVQSAAVGSTVTLTCTLNPAYDIGGYAVLWYKQAPGQPPVFLLRYKSATDQARGAGVSPRYSGSIDVANNQGHLTISNLAPADSALYLCDVDSGSDPVDLSALA-APLLYQPPFQTAAVGSTVTLTCTLHPSYNIGGYAVLWYKQAPGQPPVFLLRYKSATDQARGANVSPRYSGSIDVANNQGHLTISNLAPSDSALYLCSVVSDAVVDVSALSS-APLLYQPPYQTAAQGSTVTLTCTLNPAYDIGGYDVLWYKQAPGQPPVFLLRYHSATDQQRGANVSPRYSGSIDVANNQGHLTISNLAPSDNALYLCDVYSRSTPVVDVNGN-APLLYQPPVQSAAVGSTVTLTCTLNPAFDIGGYDVLWYKQAPGQPPVFLLRYHSDTDKAMGANVSPRYSGSIDVANNQGLLTISNLAPADNALYLCDVDSHSLPVLAALAA-APLLYQPPYQTAAVGSTVTLTCTLNPAYDIGGYDVLWYKQAPGQPPVFLLRYHSATDQQRGANVSPRYSGSIDVANNQGHLTISNLAPSDSALYLCDVDSHATPAVAAAAA-APLLYQPPYQTAAVGSTVTLTCTLNPAYDIGGYAVLWYKQAPGQPPVFLLRYKSATDQQRGANVSPRYSGSIDVANNQGHLTISNLAPSDTALYLCSVDSGNDPVDLSSLS-APLLYQPPYQTAAQGSTVTLTCTLHPDYDIGGYSVLWYKQAPGQPPVFLLRYHSDTDRAMGANVSPRYSGSIDVAANQGHLTISNLAPSDNALYLCDVDSADDPDDDDDDD-APLLYQPPYQTAAQGSTVTLTCTLNPAYDIGGYDVLWYKQAPGQPPVFLLRYHSDTDKAYGANVSPRYSGSIDVANNQGHLTISNLAPSDNALYLCDVYSRNDPVDLSNLG-PPLLYQPPVQSAAVGSTVTLTCQLNPAYDIGGYAVLWYKQAPGQPPVFLLRYKSATDQARGANVSPRYSGSIDVANNLGHLTISNLAPSDSALYLCDVDSGADPVDLSSLS-APLLYQPPRQTAAVGSTVTLTCQLHPSFDIGGYAVLWYKQAPGQPPVFLLRYKSATDQQRGANVSPRYSGSIDVAANRGLLTISNLAPADSALYLCDVDSGSLPVLSALAA,QPVLHQPPAMSSALGTTIRLTCTLRNDHDIGVYSVYWYQQRPGHPPRFLLRYFSQSDKSQGPQVPPRFSGSKDVARNRGYLSISELQPEDEAMYYCAMGARSSEKEERERE-QPVLHQPPAMSSALGTTIRLTCTLRNDHDIGVYSVYWYQQRPGHPPRFLLRYFSQSDKSQGPQVPPRFSGSKDVARNRGYLSISELQPEDEAMYYCAMGARSSEKEERERE-QPVLHQPPAMSSALGTTIRLTCTLRNDHDIGVYSVYWYQQRPGHPPRFLLRYFSQSDKSQGPQVPPRFSGSKDVARNRGYLSISELQPEDEAMYYCAMGARSSEKEERERE-QPVLHQPPAMSSALGTTIRLTCTLRNDHDIGVYSVYWYQQRPGHPPRFLLRYFSQSDKSQGPQVPPRFSGSKDVARNRGYLSISELQPEDEAMYYCAMGARSSEKEERERE-QPVLHQPPAMSSALGTTIRLTCTLRNDHDIGVYSVYWYQQRPGHPPRFLLRYFSQSDKSQGPQVPPRFSGSKDVARNRGYLSISELQPEDEAMYYCAMGARSSEKEERERE-QPVLHQPPAMSSALGTTIRLTCTLRNDHDIGVYSVYWYQQRPGHPPRFLLRYFSQSDKSQGPQVPPRFSGSKDVARNRGYLSISELQPEDEAMYYCAMGARSSEKEERERE-QPVLHQPPAMSSALGTTIRLTCTLRNDHDIGVYSVYWYQQRPGHPPRFLLRYFSQSDKSQGPQVPPRFSGSKDVARNRGYLSISELQPEDEAMYYCAMGARSSEKEERERE-QPVLHQPPAMSSALGTTIRLTCTLRNDHDIGVYSVYWYQQRPGHPPRFLLRYFSQSDKSQGPQVPPRFSGSKDVARNRGYLSISELQPEDEAMYYCAMGARSSEKEERERE-QPVLHQPPAMSSALGTTIRLTCTLRNDHDIGVYSVYWYQQRPGHPPRFLLRYFSQSDKSQGPQVPPRFSGSKDVARNRGYLSISELQPEDEAMYYCAMGARSSEKEERERE-QPVLHQPPAMSSALGTTIRLTCTLRNDHDIGVYSVYWYQQRPGHPPRFLLRYFSQSDKSQGPQVPPRFSGSKDVARNRGYLSISELQPEDEAMYYCAMGARSSEKEERERE,VLSAGTQLHV-ALSAGTNLQV-VLSAGTNLQV-ALSAGTNLHV-ARSAGTNLQV-GLSAGTNLQV-DLSAGTWLHV-NLSAGTNLQV-LRSAGTNLHV-ALSAGTQLQV,VFGSGTQLTV-VFGSGTQLTV-VFGSGTQLTV-VFGSGTQLTV-VFGSGTQLTV-VFGSGTQLTV-VFGSGTQLTV-VFGSGTQLTV-VFGSGTQLTV-VFGSGTQLTV
32.0,2,12,B,10,GSSGSSGSGTTTYTLNRPYRLPTVTLTPPTAAELAAGKATYTCTVGNFYPGVLTVTWTRNGVPVTTNVTTTAPTLAADGYYNLTSTLALTPAEYTAGTTFQCVVTHNGATTTVTTTP-GSSGSSGSGTGVITLTKPFKLPTVTLTPPTEEELKAGKAVFTCTVKDFYPGVLTVTWKRNGKPITTNVTTTKPTLAADGYYSMTSTLEMTPAEYTAGTSFECVVTHEGATLTKTVTP-GSSGSSGSGTTTYTLTKPFALPTVTLTPPTAAELAAGKATYTCTIGNFYPGVLTVTWTRNGTPITTNVTTTAPTLAANGLYNLTSTLALTPAEVTAGTTFQCVVTHQGATLTVTATP-GSSGSSGKGTTVYTLNKPYKLPTVTLTPPTEEEFKNGKAVFTCTIKDFYPGVLTVTWKRNGKPITTNVTTTEPTLAADGYYSMTSTLEMTPEEYKAGTTFECVVTHEGATITKTVTP-GSSGSSGSGTGVITLTRPFRLPTVTLTPPTAAELAAGRAVFTCTVGDFYPGVLTVTWTRNGVPVTTGVTTTAPTLAADGYYRLTSTLTLTPAEYTAGTTFQCVVTHQGATLTVTATP-GSSGSSGSGTTTYTLTKPFALPTVTLTPPTAAELAAGKATYTCTVGNFYPGVLTVTWTRNGTPITTNVTTTAPTLAANGLYNLTSTLALTPAQVTAGTTFQCVVTHQGATLTVTATP-GSSGSSGSGTGVITLTKPFALPTVTLTPPTEEEFKAGKAVFTCTVGNFYPGVLTVTWKRNGKPITTNVTTSAPTLAANGLYNMTSTLEMTPAEYKAGTTFECVVTHEGATLTKTVTP-GSSGSSGSGTGVITLTKPFALPTVTLTPPTAAELAAGKATFTCTVGNFYPGVLTVTWKRNGVPVTTNVTTTAPTLAANGLYNMTSTLAMTPAEYTAGTTFECVVTHQGATLTVTKTP-GSSGSSGSGTGVITLTRPFRLPEVTLTPPTEEEFEAGRAVFTCRVRDFYPGVLSVTWRRNGEPVTEGVTESEPELAEDGLYSLESRLELTPEEFRAGDRFECVVEHEGARLTVTETP-GSSGSSGSGTGVITLTKPFALPKVTLTPPTEEELKAGKATFTCTVEDFYPGVLTVKWTRNGKPITTNVTTTEPTLAANGLYKMTSTLEMTPEEYKAGTTFECVVTHEGATLTKTVTP,SVTHVFGSGTQLTVLSQPKATPSVTLFPPSSEELQANKATLVCLMNDFYPGILTVTWKADGTPITQGVEMTTPSKQSNNKYAASSYLSLTPEQWRSRRSYSCQVMHEGSTVEKTVAP-SVTHVFGSGTQLTVLSQPKATPSVTLFPPSSEELQANKATLVCLMNDFYPGILTVTWKADGTPITQGVEMTTPSKQSNNKYAASSYLSLTPEQWRSRRSYSCQVMHEGSTVEKTVAP-SVTHVFGSGTQLTVLSQPKATPSVTLFPPSSEELQANKATLVCLMNDFYPGILTVTWKADGTPITQGVEMTTPSKQSNNKYAASSYLSLTPEQWRSRRSYSCQVMHEGSTVEKTVAP-SVTHVFGSGTQLTVLSQPKATPSVTLFPPSSEELQANKATLVCLMNDFYPGILTVTWKADGTPITQGVEMTTPSKQSNNKYAASSYLSLTPEQWRSRRSYSCQVMHEGSTVEKTVAP-SVTHVFGSGTQLTVLSQPKATPSVTLFPPSSEELQANKATLVCLMNDFYPGILTVTWKADGTPITQGVEMTTPSKQSNNKYAASSYLSLTPEQWRSRRSYSCQVMHEGSTVEKTVAP-SVTHVFGSGTQLTVLSQPKATPSVTLFPPSSEELQANKATLVCLMNDFYPGILTVTWKADGTPITQGVEMTTPSKQSNNKYAASSYLSLTPEQWRSRRSYSCQVMHEGSTVEKTVAP-SVTHVFGSGTQLTVLSQPKATPSVTLFPPSSEELQANKATLVCLMNDFYPGILTVTWKADGTPITQGVEMTTPSKQSNNKYAASSYLSLTPEQWRSRRSYSCQVMHEGSTVEKTVAP-SVTHVFGSGTQLTVLSQPKATPSVTLFPPSSEELQANKATLVCLMNDFYPGILTVTWKADGTPITQGVEMTTPSKQSNNKYAASSYLSLTPEQWRSRRSYSCQVMHEGSTVEKTVAP-SVTHVFGSGTQLTVLSQPKATPSVTLFPPSSEELQANKATLVCLMNDFYPGILTVTWKADGTPITQGVEMTTPSKQSNNKYAASSYLSLTPEQWRSRRSYSCQVMHEGSTVEKTVAP-SVTHVFGSGTQLTVLSQPKATPSVTLFPPSSEELQANKATLVCLMNDFYPGILTVTWKADGTPITQGVEMTTPSKQSNNKYAASSYLSLTPEQWRSRRSYSCQVMHEGSTVEKTVAP,TLTDPPLTFN-AITTPPLAFK-TLTDPPLTFT-PTYDPPLSFK-AAYDPPLAFA-TLTDPPLTFT-AITTPPLAFN-AITTPPLAFN-EEWEPPLAFE-AITTPPLAFK,VLHQPPAMSS-VLHQPPAMSS-VLHQPPAMSS-VLHQPPAMSS-VLHQPPAMSS-VLHQPPAMSS-VLHQPPAMSS-VLHQPPAMSS-VLHQPPAMSS-VLHQPPAMSS
