contacts,cs,ce,Chain,Length,designed_receptor_seq,native_receptor_seq,designed_binder_seq,native_binder_seq
32.0,24,34,A,10,SNYLISYQNDTDAPAEVAAANNALVSSILSNSRENLKPNVLTDSKLTHIRDTRKPFQLENWVAILCHVRNDYTGLDNDKMQFTINDLRVLLSEPVLPKEQVAGLTEKALQEYLNELKEPLTAVDIILFDAVWQLNNEAIKKAIPVLPEGIAKYIEKAQHM-MPYLISYSSNDNRPKEVQKALNTAISKILKNSSSSFSPKVEYESTQANIRDTSDPFFLTNPVAILRYVMNDYTGLDNKKMLFTLNELRTLLSYPELPQEQVQKLTQKAIDEYLSNLKGPLTATDIILFDAVYQLNNDQINAFVPKLPKDIEDYINKSKTE-MNYLISYDNDSGRPKEVREASNIAVSNILKNSTKDFKPKVNNDDLYASIRDTSKPFFLTNWVAILRNEMNDFSGIDNEKMQYALNELRVLLSYPVLPQEKVKELTKKAIDEYLNDLSGPLTAVDIILFDAVYRLNNELIKEKFPVLPENIKKAIEKFKNK-AKYLISYKGDTGAPAEVRAALNTAVSDILTNSNSAAAPVVETTSKTAYIRDTSDPFRLTNWDAILRYLMSDYTGLTDAKFQYQRDKLRVLLSYDTLPTARVQQLTQTATTTYLTSLTGPLTATDIILFDAVYQLNGTLIRTAYPTLPTGISQYIAQKQKP-MPYLISYENSSGRSEEVQAAENIAISRILSESSEDFKPVVDLDSKSAYIRDTTSPFSLSNWVAILCYTLKDFSGLDSEKFQYTRRELNTLLSYSVLPREKVSFLTEKALQEYLNDLDGPLTAQDIILFDAVYRLNNELIEKKFPKLPEGIASYIERRRKN-SNLLISYKNESNASEEVKKASNDFVSEILSKSSEEFKPKVDTTSSSAYLKNTAEPFSLTNAAAILRHVMNDYTGLTSEKFLYTRDKLRVLLSYPELPEEEVKEKTKIALDKYLKSLDGELTAVDIILFREVYLLNGELIKKAFPELPENISKYIEKAKNK-SNYLISFANNSSHSDEVRLASNTLVSNILKTSTADFAPKVNYSSNFFSIKNTNEPFSLSNWVAILRHERNDYSGLSDDKTLFALNDLRILLSYKILPLDKVKQLTQTAVQKYLKDLNGPLTATDIILFSAVYALDGELIKKSYPILPENIASALELAKDK-HHHHISYARNSNYPLEVREAINKAVDAVLKNSDRRFHPKVKFDDSEFSIRDTREPFHLTNWVAILRYVRNDYTGLDSEKERFTRDELRVLLSYPSLPQEEVQKLTSTALKKYLKNLPGPLTAVDLILFNAVYLLDNESIKKFKPTLPEDVAAYIKKAKTF-NNLKISFLENTNAPEEVKKAGNELVSNILKNSKKGFTPEVEYNSSYLSIRDTSEPFRLTNWVAILCHIRNDYTGLDNEKMNYTLEELRVLLSYPTLPQEKVENLTQTALDKYLKTLDGPLTAEDIILFDAVYRLNNELIKSSYPELPKNVDQFIAFFEKY-SNLLISYANDTNKPAEVKTAINNAVTEILRNSTADFSPEVQTDSTYASITDTRKPFSLTNWVAILRNEMNDYSGTTNEKMQYTLNSLRVLLSYPVLPAEIVNQLTKTALSKYLNNLSGPLSATDIILFDAVYKLNNDLVKTSYPTLPSGISSYISYAQYN,MSFLISFDKSKKHPAHLQLANNLKIALALEYASKNLKPEVDNDNAAMELRNTKEPFLLFDANAILRYVMDDFEGQTSDKYQFALASLQNLLYHKELPQQHVEVLTNKAIENYLVELKEPLTTTDLILFANVYALNSSLVHSKFPELPSKVHNAVALAKKH-MSFLISFDKSKKHPAHLQLANNLKIALALEYASKNLKPEVDNDNAAMELRNTKEPFLLFDANAILRYVMDDFEGQTSDKYQFALASLQNLLYHKELPQQHVEVLTNKAIENYLVELKEPLTTTDLILFANVYALNSSLVHSKFPELPSKVHNAVALAKKH-MSFLISFDKSKKHPAHLQLANNLKIALALEYASKNLKPEVDNDNAAMELRNTKEPFLLFDANAILRYVMDDFEGQTSDKYQFALASLQNLLYHKELPQQHVEVLTNKAIENYLVELKEPLTTTDLILFANVYALNSSLVHSKFPELPSKVHNAVALAKKH-MSFLISFDKSKKHPAHLQLANNLKIALALEYASKNLKPEVDNDNAAMELRNTKEPFLLFDANAILRYVMDDFEGQTSDKYQFALASLQNLLYHKELPQQHVEVLTNKAIENYLVELKEPLTTTDLILFANVYALNSSLVHSKFPELPSKVHNAVALAKKH-MSFLISFDKSKKHPAHLQLANNLKIALALEYASKNLKPEVDNDNAAMELRNTKEPFLLFDANAILRYVMDDFEGQTSDKYQFALASLQNLLYHKELPQQHVEVLTNKAIENYLVELKEPLTTTDLILFANVYALNSSLVHSKFPELPSKVHNAVALAKKH-MSFLISFDKSKKHPAHLQLANNLKIALALEYASKNLKPEVDNDNAAMELRNTKEPFLLFDANAILRYVMDDFEGQTSDKYQFALASLQNLLYHKELPQQHVEVLTNKAIENYLVELKEPLTTTDLILFANVYALNSSLVHSKFPELPSKVHNAVALAKKH-MSFLISFDKSKKHPAHLQLANNLKIALALEYASKNLKPEVDNDNAAMELRNTKEPFLLFDANAILRYVMDDFEGQTSDKYQFALASLQNLLYHKELPQQHVEVLTNKAIENYLVELKEPLTTTDLILFANVYALNSSLVHSKFPELPSKVHNAVALAKKH-MSFLISFDKSKKHPAHLQLANNLKIALALEYASKNLKPEVDNDNAAMELRNTKEPFLLFDANAILRYVMDDFEGQTSDKYQFALASLQNLLYHKELPQQHVEVLTNKAIENYLVELKEPLTTTDLILFANVYALNSSLVHSKFPELPSKVHNAVALAKKH-MSFLISFDKSKKHPAHLQLANNLKIALALEYASKNLKPEVDNDNAAMELRNTKEPFLLFDANAILRYVMDDFEGQTSDKYQFALASLQNLLYHKELPQQHVEVLTNKAIENYLVELKEPLTTTDLILFANVYALNSSLVHSKFPELPSKVHNAVALAKKH-MSFLISFDKSKKHPAHLQLANNLKIALALEYASKNLKPEVDNDNAAMELRNTKEPFLLFDANAILRYVMDDFEGQTSDKYQFALASLQNLLYHKELPQQHVEVLTNKAIENYLVELKEPLTTTDLILFANVYALNSSLVHSKFPELPSKVHNAVALAKKH,EAKEVEELVR-KALEVQELAK-RAIKVEKLAE-VAQTVETLTR-KALEVEELSK-KAEEVAKLVE-KALEVEKLAQ-KAREVESLSR-EAEKVEELAL-TAQQVESLAN,SAQAAQWESV-SAQAAQWESV-SAQAAQWESV-SAQAAQWESV-SAQAAQWESV-SAQAAQWESV-SAQAAQWESV-SAQAAQWESV-SAQAAQWESV-SAQAAQWESV
27.0,57,67,B,10,EGSLIKKFRSLPISEVPVKYSSYQAALRAEWRAILESGKVEPNLLVLNEILKNNKFIVDTDVPTITDVEVFTVALPIIKKILETSSDVEKTNEKYENILKWIKYMQKLLEVSEEERLKVS-MSLLTQKFYSLPISKTPIIYSKKQAAMREEWKSILTSGNIEPNLLYLNDILEKNKFIIDTEVPTITDVLVFEEALPIIKEILDTSENIEETYKKYKHILRWIKYMQDLLEISEADKLEYK-MSKLIEKFYSLPISKVPIKYTKRQKAIAKEWEAILESGKVEPNLLTLNEILKNNKFIVDTEVPTITDVKVFEVTLPIIKKILDESEDKEKTYKKYKNILKWIKYMQELLEVSEEDKLDIP-MSELIEKFYSLPISKVPIDFTSVQRARRIEWEAILLSGKVEPNLLYLNKILETNKFICNTDVPTLTDVMVFEVTLPIIKKILDESKNKEETYEKYKHILRWINFMQHLLEIDDENKLEIE-MSSLIEKFFSLPISQVPIEFTKRQAAMREEWRSILISGNVEPNLEKLNERLKNNKFICDTEVPQITDVLVFTVALPIIKEILDNSEDKEATFEKYKYTLRWIDYMQNLLEISEEDKLVIP-SSELIQKFYSLPISQVPIIYTTFQKALAIEWRSILFSGNIEPNLDRLNEILKYNKFIIDTDVPTITDVLVFTSALPIIKKILDESSDVEKTYEKYKYILKWIEYMQDLLDISEEDKLNIT-MSKLIERFYSLPISKVPIEFSKKQKAMKAEWEAILVSGNVEPNLLVLNEILKDNKFICDTEVPTITDVKVFEVALPIIKEILDTSKNKEETYKKYKNVLKWINYMQNLLEVSEEDSLKVE-MSTLLKKFYSLPISQVPIILSETQKAMAIEWKSILESGNIEPNLLTLNEILKHNKFIVDTKVPTITDVLVFEQTLPIIKKILDTSDNVVETQKKYANILKWIKYMQELLEVSEEDKLEVP-MSKLIEKFYSLPISKIPVKFTKRQEAMRKEWESILVSGNVKPNLDYLNEILKTNKFIIDTEVPQITDVLVFEVALPIIKKILEESDDKKKTNNKYKNILKWIKYMQELLEVSEEDKIEID-MSSLKTKFYSLPISKVPITFTKEQQAMRAEWTAILTSGKVEPNLLTLNKILKENKFICDTEVPLITDVEVFTVALPIIKKIIDTSNDKEKTYEKYSNILKWIKYMQDLLSVSEDDKLSLQ,MSDLVTKFESLIISKYPVSFTKEQSAQAAQWESVLKSGQIQPHLDQLNLVLRDNTFIVSTLYPTSTDVHVFEVALPLIKDLVASSKDVKSTYTTYRHILRWIDYMQNLLEVSSTDKLEIN-MSDLVTKFESLIISKYPVSFTKEQSAQAAQWESVLKSGQIQPHLDQLNLVLRDNTFIVSTLYPTSTDVHVFEVALPLIKDLVASSKDVKSTYTTYRHILRWIDYMQNLLEVSSTDKLEIN-MSDLVTKFESLIISKYPVSFTKEQSAQAAQWESVLKSGQIQPHLDQLNLVLRDNTFIVSTLYPTSTDVHVFEVALPLIKDLVASSKDVKSTYTTYRHILRWIDYMQNLLEVSSTDKLEIN-MSDLVTKFESLIISKYPVSFTKEQSAQAAQWESVLKSGQIQPHLDQLNLVLRDNTFIVSTLYPTSTDVHVFEVALPLIKDLVASSKDVKSTYTTYRHILRWIDYMQNLLEVSSTDKLEIN-MSDLVTKFESLIISKYPVSFTKEQSAQAAQWESVLKSGQIQPHLDQLNLVLRDNTFIVSTLYPTSTDVHVFEVALPLIKDLVASSKDVKSTYTTYRHILRWIDYMQNLLEVSSTDKLEIN-MSDLVTKFESLIISKYPVSFTKEQSAQAAQWESVLKSGQIQPHLDQLNLVLRDNTFIVSTLYPTSTDVHVFEVALPLIKDLVASSKDVKSTYTTYRHILRWIDYMQNLLEVSSTDKLEIN-MSDLVTKFESLIISKYPVSFTKEQSAQAAQWESVLKSGQIQPHLDQLNLVLRDNTFIVSTLYPTSTDVHVFEVALPLIKDLVASSKDVKSTYTTYRHILRWIDYMQNLLEVSSTDKLEIN-MSDLVTKFESLIISKYPVSFTKEQSAQAAQWESVLKSGQIQPHLDQLNLVLRDNTFIVSTLYPTSTDVHVFEVALPLIKDLVASSKDVKSTYTTYRHILRWIDYMQNLLEVSSTDKLEIN-MSDLVTKFESLIISKYPVSFTKEQSAQAAQWESVLKSGQIQPHLDQLNLVLRDNTFIVSTLYPTSTDVHVFEVALPLIKDLVASSKDVKSTYTTYRHILRWIDYMQNLLEVSSTDKLEIN-MSDLVTKFESLIISKYPVSFTKEQSAQAAQWESVLKSGQIQPHLDQLNLVLRDNTFIVSTLYPTSTDVHVFEVALPLIKDLVASSKDVKSTYTTYRHILRWIDYMQNLLEVSSTDKLEIN,IKEELAKKLL-IKEEKAIKLL-IKDEVAKEFY-ITDEIAIKKF-IENDLAKKLF-ITDKIAEKAY-IKDEFAKKLY-IFDEVAKKAL-IRDEIAKKYY-ITDSYAKELY,LFDANAILRY-LFDANAILRY-LFDANAILRY-LFDANAILRY-LFDANAILRY-LFDANAILRY-LFDANAILRY-LFDANAILRY-LFDANAILRY-LFDANAILRY
