contacts,cs,ce,Chain,Length,designed_receptor_seq,native_receptor_seq,designed_binder_seq,native_binder_seq
20.0,79,89,A,10,GSFYLKVYEGHVGPDGDEYIRFEFKPDGKLIYESNSNKNNRKRLVAETYVHKSVIGFIKKIIKDSRILDCSDEKWPPPNDRGRRVLEIKYGNIHKKFETSLIGSLEEVLSSKDPECLLIFYFLIGALWSVVNSLIGSRFLIKPE-GSFYLRYFEGHVGSDGDVYTEFEFKPDGTLKFRSHSQHKKEKDLKRQLKVHRLVIGFTKKIIDDSKIEDCSDALFPPPDDRGRVVLEIEDGDKKKKFETSLIGSMQDVQASPDPECLKVFYYLIGALKDLVNTLIGTAFDIDPA-SDFFLSVYRGHRGSSGDEFLRFEIKPNGRLEFEDHSHYKDEERVERSLFVHESVIGMTKEIIKNSKILDCSDESFPPPNQRGRRVLHIKDGETEKLFETSLIGDDKEVEASPDPECLRVFYFLEDALWSLVNALIGSAFDTLPE-STFYLRYFEGHTGFDGDVFREFEFRPDGHLYYADHSTLNNNNLRERDLWVHEAVIGMTQRIIAESKILQCSDALFPPPNDDGRVILEIRDGDVHKKFVTSLIGDEEEVSASPDPACLSVFYHLIGALNSLVDTLIGNAFDVDPV-SSFYLEYFEGHVDADGHEYLQFEFKPDGHLSYTSSSKYQNEDEVKRELYVHERVIGITKKIISDSKIMETTDKLWPPPNEDGETILRIRDGDTNKKFITSLIGDLEEVNKSPDPEGLEVFYNLIGKLRSLVDNLIGAAFDIDPG-SEFYLKYFEGHVGVDGHVYREFEFKPDGLLKYINHSKFRNSERKERELKVHESVIGFVKKIVDESKILDCSDEKFPPPNDRGEVRLEIKLGEKNKVFETSLIGSLEEVESSPDPECLRKFFFLVGRLNSLVDTLIGVAFDISPK-MSFYLRYFVGHVDKNGDVHTEFEFKPDGKLFFENNSEYNDAKKNVAELYVHESVIGYVKKIVDDSEILKCSDELFPPPNKDGRVELHIKYGEIEKKFECSLIGSEEEVDKSPDPKCLRVFYYLVGALNSLVFKLIGEKFEKDPG-MSFYLRFYEGHTGPAGDTFLEFEFKPDGLLSYIRNTRFRDEERDERSLYVHKSVIGILEEIIEKSKILDCSDEKYPPPNERGTVELEIEKGDEKKRFKTSLIGSEKEVEASPDPECLRVFYHLRRELWSLVNSLIGLKFFKDPK-NTFYLRYFEGHTGAAGREFREFEFKPNGRLSYEDHSEHRQSKKVTRSLYVHEAVIGFVKKVIDDSKILECSDEKFPPPDKRGEQILEITLGDEHKYFETSLIGDLSQVEASPDPECLRVFFELRKTLNSIVDTLIGVAFDTNPF-QTFYLSVYEGHTGDNGNEFLQFELKPDGLLTYESNSNYEDDKKVQQSLYVHEAVLGELKKIINDSQILECSDDLWPPPNDEGTSVLHIRLGDTDKHFETSLIGSVEEVEASPDPECLMVFYNLRGALLGVVNTLIGTAFDTNPE,SDFYLRYYVGHKGKFGHEFLEFEFRPDGKLRYANNSNYKNDVMIRKEAYVHKSVMEELKRIIDDSEITKEDDALWPPPDRVGRQELEIVIGDEHISFTTSKIGSLIDVNQSKDPEGLRVFYYLVQDLKCLVFSLIGLHFKIKPI-SDFYLRYYVGHKGKFGHEFLEFEFRPDGKLRYANNSNYKNDVMIRKEAYVHKSVMEELKRIIDDSEITKEDDALWPPPDRVGRQELEIVIGDEHISFTTSKIGSLIDVNQSKDPEGLRVFYYLVQDLKCLVFSLIGLHFKIKPI-SDFYLRYYVGHKGKFGHEFLEFEFRPDGKLRYANNSNYKNDVMIRKEAYVHKSVMEELKRIIDDSEITKEDDALWPPPDRVGRQELEIVIGDEHISFTTSKIGSLIDVNQSKDPEGLRVFYYLVQDLKCLVFSLIGLHFKIKPI-SDFYLRYYVGHKGKFGHEFLEFEFRPDGKLRYANNSNYKNDVMIRKEAYVHKSVMEELKRIIDDSEITKEDDALWPPPDRVGRQELEIVIGDEHISFTTSKIGSLIDVNQSKDPEGLRVFYYLVQDLKCLVFSLIGLHFKIKPI-SDFYLRYYVGHKGKFGHEFLEFEFRPDGKLRYANNSNYKNDVMIRKEAYVHKSVMEELKRIIDDSEITKEDDALWPPPDRVGRQELEIVIGDEHISFTTSKIGSLIDVNQSKDPEGLRVFYYLVQDLKCLVFSLIGLHFKIKPI-SDFYLRYYVGHKGKFGHEFLEFEFRPDGKLRYANNSNYKNDVMIRKEAYVHKSVMEELKRIIDDSEITKEDDALWPPPDRVGRQELEIVIGDEHISFTTSKIGSLIDVNQSKDPEGLRVFYYLVQDLKCLVFSLIGLHFKIKPI-SDFYLRYYVGHKGKFGHEFLEFEFRPDGKLRYANNSNYKNDVMIRKEAYVHKSVMEELKRIIDDSEITKEDDALWPPPDRVGRQELEIVIGDEHISFTTSKIGSLIDVNQSKDPEGLRVFYYLVQDLKCLVFSLIGLHFKIKPI-SDFYLRYYVGHKGKFGHEFLEFEFRPDGKLRYANNSNYKNDVMIRKEAYVHKSVMEELKRIIDDSEITKEDDALWPPPDRVGRQELEIVIGDEHISFTTSKIGSLIDVNQSKDPEGLRVFYYLVQDLKCLVFSLIGLHFKIKPI-SDFYLRYYVGHKGKFGHEFLEFEFRPDGKLRYANNSNYKNDVMIRKEAYVHKSVMEELKRIIDDSEITKEDDALWPPPDRVGRQELEIVIGDEHISFTTSKIGSLIDVNQSKDPEGLRVFYYLVQDLKCLVFSLIGLHFKIKPI-SDFYLRYYVGHKGKFGHEFLEFEFRPDGKLRYANNSNYKNDVMIRKEAYVHKSVMEELKRIIDDSEITKEDDALWPPPDRVGRQELEIVIGDEHISFTTSKIGSLIDVNQSKDPEGLRVFYYLVQDLKCLVFSLIGLHFKIKPI,LSIVEKVFVP-PKYVGKVFVP-PVAIERTFVP-PAVATAVFVP-QLIVEKVFVP-RVLTTAVFVP-PMEVSKVFVP-FVRVDRVFIP-PLVVSEIFVP-VSVTTEVFVP,PISVDWCFVR-PISVDWCFVR-PISVDWCFVR-PISVDWCFVR-PISVDWCFVR-PISVDWCFVR-PISVDWCFVR-PISVDWCFVR-PISVDWCFVR-PISVDWCFVR
28.0,47,57,B,10,MKPKQSKTGWVLFVQGVHRNATEQDIYDMFSKYGSILKIDLPLDRVTGRNLGFAFVEYETFESAEAARKGLNGKVLLGQPIRVDWMYVEGP-ARPKKSKTGWVLFVKGVHREATEQDIYDKFSQFGSIKDIRLPKDRSTGNNKGYVFVEYETFEAAEAAKKGLDGKLLLNRPITVAWMYVEGP-MAPKKSRNGWVLFVRGVDRFATEEDIYEVFSRYGNILDIVLPKDKKTGFNRGYVFVTYETYEEAESARRGLNGTMLLGRPIDVDWMYVEGP-KPPRRSRTGWVLFVKGVDRFATREDILQMFQAFGDILDIELPLDRKSGRNRGFVFVTYETYEAAEAARRGLNGKMLKGRPITVDWMFVEGP-SPPRRSKTGWELFVRGVDRHATEQDILDMFSEYGEVLDIILPKDKVTGLNKGYVFVTYSTYEEAEAARVGLNGQMLKGRPIEVDWKYVIGP-MAPKRSKTGWVLFVENVHKDAKEEDILKMFSKFGKILDIELVKDKETGKNKGFCLVEYETFEEAEAARKGLNGKMLKDQPIKVDWMYVEGP-TDPRRSKSGWVLFVKNIPRNATEKDIYDMFSKFGEILDIKLPKDKITGYNKGFAFVKYETYEEAEAARKGLNGKILKDQPIEVDWMYVVGP-KPPRRSKDGWVLFVRGVDRFATEEDILEKFSLFGEILDIKLPLNKKTGENQGYAFVTYKTYEEAKSALDGLNGQIMLGRPIEVDWMFVKGP-GPPRRTKTGWELFVEGVHETATEEDIYNKFSQFGDILDILLPKDKETGKNKGYAFVTYKTFEEAEAARKGLNGQILLDRPISVSWAYIEGP-RKPKRSKTGWRLFVRGIHRDATRDDIFEAFRQFGKILDIDLPLDRHTGLNRGYAFVQYETYEEAEAARTGLNGRVLLGQPIEVDWAYVEGP,PGPQRSVEGWILFVTGVHEEATEEDIHDKFAEYGEIKNIHLNLDRRTGYLKGYTLVEYETYKEAQAAMEGLNGQDLMGQPISVDWCFVRGP-PGPQRSVEGWILFVTGVHEEATEEDIHDKFAEYGEIKNIHLNLDRRTGYLKGYTLVEYETYKEAQAAMEGLNGQDLMGQPISVDWCFVRGP-PGPQRSVEGWILFVTGVHEEATEEDIHDKFAEYGEIKNIHLNLDRRTGYLKGYTLVEYETYKEAQAAMEGLNGQDLMGQPISVDWCFVRGP-PGPQRSVEGWILFVTGVHEEATEEDIHDKFAEYGEIKNIHLNLDRRTGYLKGYTLVEYETYKEAQAAMEGLNGQDLMGQPISVDWCFVRGP-PGPQRSVEGWILFVTGVHEEATEEDIHDKFAEYGEIKNIHLNLDRRTGYLKGYTLVEYETYKEAQAAMEGLNGQDLMGQPISVDWCFVRGP-PGPQRSVEGWILFVTGVHEEATEEDIHDKFAEYGEIKNIHLNLDRRTGYLKGYTLVEYETYKEAQAAMEGLNGQDLMGQPISVDWCFVRGP-PGPQRSVEGWILFVTGVHEEATEEDIHDKFAEYGEIKNIHLNLDRRTGYLKGYTLVEYETYKEAQAAMEGLNGQDLMGQPISVDWCFVRGP-PGPQRSVEGWILFVTGVHEEATEEDIHDKFAEYGEIKNIHLNLDRRTGYLKGYTLVEYETYKEAQAAMEGLNGQDLMGQPISVDWCFVRGP-PGPQRSVEGWILFVTGVHEEATEEDIHDKFAEYGEIKNIHLNLDRRTGYLKGYTLVEYETYKEAQAAMEGLNGQDLMGQPISVDWCFVRGP-PGPQRSVEGWILFVTGVHEEATEEDIHDKFAEYGEIKNIHLNLDRRTGYLKGYTLVEYETYKEAQAAMEGLNGQDLMGQPISVDWCFVRGP,RYVAESVLRA-VYKSKLVQED-RYVHRSVLRA-RYVHALVKRA-RYVHESVARN-INVDKLVEES-QFTSKLYEDS-RFVHRLVKES-KNVHQSVVKS-RYVSRLVRRS,AYVHKSVMEE-AYVHKSVMEE-AYVHKSVMEE-AYVHKSVMEE-AYVHKSVMEE-AYVHKSVMEE-AYVHKSVMEE-AYVHKSVMEE-AYVHKSVMEE-AYVHKSVMEE
