contacts,cs,ce,Chain,Length,designed_receptor_seq,native_receptor_seq,designed_binder_seq,native_binder_seq
6.0,8,18,A,10,PEDFENINDPRYIPRKGKFNKFDHQPPRTNGKYNAEKEKPKSKEELIAKYGYDIRN-PLAHEDETDPAYVPRGGAFNRRCRLPPRTNGGYRAEAERPPTRQALVAKYGRDIRS-PRRYEDKSDPAYKPRGGPHNTRCRNPPKTNGDYNADKHKPPTKEELVKKYGYDWRK-PKPWEDESDPRYVPREGEFNTLDRLPPKRRDHYDAAKHRPPSKEELVAKYGRDIRA-VSAKDDKESPDYIPRGGKFNKLDRLPPKTNGGYDAAKEQPASKEELVAKYGYDIRS-PRAWQDINDPRYRPRGGNFNRYCDLPPRTNGNYNAAGSQPASKEELVAKYGYDIRK-KRAYEDKRHPDYVPRGGRFNRRDDLPRGKNDGFDAKKSKPKSKEELIAEYGYDIRK-PRAWQDERHPAYIPMRGEHNTRHHGPPYTNGHYDAAKEKPPSREELVAKYGHDIRE-PSAKDDENDPAYKPRGGKFNKKCHKPPKTNGNFDAKKNKPPSKEELVKKYGKDIRA-PLPHQDPKDPRYVPRNGDFNKRCRLPPRKNDRYDAEKDKPPSKEELVAKYGRDIRK,LDDDEDRKNPAYIPRKGLFFEHDLRGRWEHDKFREDEQAPKSRQELIALYGYDIRS-LDDDEDRKNPAYIPRKGLFFEHDLRGRWEHDKFREDEQAPKSRQELIALYGYDIRS-LDDDEDRKNPAYIPRKGLFFEHDLRGRWEHDKFREDEQAPKSRQELIALYGYDIRS-LDDDEDRKNPAYIPRKGLFFEHDLRGRWEHDKFREDEQAPKSRQELIALYGYDIRS-LDDDEDRKNPAYIPRKGLFFEHDLRGRWEHDKFREDEQAPKSRQELIALYGYDIRS-LDDDEDRKNPAYIPRKGLFFEHDLRGRWEHDKFREDEQAPKSRQELIALYGYDIRS-LDDDEDRKNPAYIPRKGLFFEHDLRGRWEHDKFREDEQAPKSRQELIALYGYDIRS-LDDDEDRKNPAYIPRKGLFFEHDLRGRWEHDKFREDEQAPKSRQELIALYGYDIRS-LDDDEDRKNPAYIPRKGLFFEHDLRGRWEHDKFREDEQAPKSRQELIALYGYDIRS-LDDDEDRKNPAYIPRKGLFFEHDLRGRWEHDKFREDEQAPKSRQELIALYGYDIRS,GGYIGKYGEK-SGYHGRFGTC-KGHKCKYGEC-GGYVGKFGEY-IGYKGKFGEY-WGGFGKYGNW-KGYIGRFGRE-WGYIGKFGRV-EGYLGKCGKK-DGHICKFGEH,VGHKGKFGHE-VGHKGKFGHE-VGHKGKFGHE-VGHKGKFGHE-VGHKGKFGHE-VGHKGKFGHE-VGHKGKFGHE-VGHKGKFGHE-VGHKGKFGHE-VGHKGKFGHE
9.0,15,25,B,10,GMFFLRYFEGHEGKYGREYLEFEFRPDGTLRYVANSRYRDEKLIERELVVDENVIEKLKELVRKSRILKKSPEKFPPPNRIGANMLEIHLGEEKKRFRLSLIGDEEDVLASEDPGGLKVLYYLVGELRSMVYQIIGGHFAKPPR-EEFFLEYFSGHFGKYGAEYLRFVFEPDGTLRYEDHSEYRNGTLVTKELKVDEKVVEKLKELIKKSRILEKSPEKFPPPNRRGRNVLKIELGDEKKEFELSRIGNMDDVMAAEDPGGLMVLYFLIGDLKNMVFDLIGGHYEVKPP-MSFYLQYFSGAMGKYGDSYLRFEFRPDGTLIYESNSEYQNSKLVKKELKVDESVINRLKELIKASNILTKSPENFPPPDIIGKEELTIHLGDKKITFKLSLIGNEEDVYASEDPGGLDVFYHLVGELNSMVREIIGGAFATPPK-GSFYLRYFEGHHGKYGDEFLEFEFRPDGLLTFELNSEYLDSHKIEKELFVDESVIEKLKELIINSDILSKSPEKFPKPDKRGKNKLEIELGSKKITFELSLIGDEDDVLSSNDPGGLRVLYHLIGDLKSMVFSLIGGHYLSPPP-MSFFLRYFSGHRGRYGNEFLEFEFRPDGTLSFTSNSEYKDEKLIEKELKVEPSVIEKLKALIRDSRILETDPSGFPPPDDEGENKLEIELGDEKKVFRLGLIGDIEDVMSAEDPGGLFVFYNLVGELKSMVYQLIGGHFAEPPP-MSFYLKYYAGTCGKYGEEFLEFEFKPDGTLTYASNSEYMDGELVEKSLVVDTSVIDELKKLITDSNILETSPKNWPPPDDIGANRLEIHLGSEHKVFKCSLIGDWEDVEACEDPGGLEVFYHLVGDLNNMVSDLIGGHFDENPD-DDFFLSYFEGHHGKYGNEYLEFTFRPNGDLIYRANSEYQNGSLIERSLNVDENVINELKSLIIDSKILEKSPKNFPPPNKIGQQKLSIELGDKKVEFKCGLIGDEEDVESSEDPGGLKVFYYLVGDLKSMVNNIIGGHFETPIP-MSFFLRYYAGHHGKYGHEFLEFEFKPDGRLSYRSNSEFLDSKEVVRQLTVDTSVIDKLKSLIRESEITKTSPEKFPKPNRKGKNVLEIHLGDEKKRFELGLVGDLDDVISSEDPGGLKVLFFLIGDLKSMVYSIIGGHFDKNPS-MSFYLEYYSGHRGKYGHEFLRFCFQPDGKLSYESNSSYRNSKLVKKELTVNTTVIDELKTLIKDSNILSKSPEDFPPPDKTGANRLKIVLGNNKKEFTLGLIGDESDVKNSQNPGGLEVFFYLVGDLNSKVSDLIGNAFDRDPN-GMFYLSYFSGAYGKFGHEYLQFTFKPDGTLTYESNSEFKNSKLVKRELVVDSSVIEEMKKLIKDSKILEKSPEKFPKPNKAGANRLTIHLGDEKKTFELGLIGDKNDVESAEDPGGLKVFFDLVGKLNEMVNELIGGHFNVPRN,SDFYLRYYVGHKGKFGHEFLEFEFRPDGKLRYANNSNYKNDVMIRKEAYVHKSVMEELKRIIDDSEITKEDDALWPPPDRVGRQELEIVIGDEHISFTTSKIGSLIDVNQSKDPEGLRVFYYLVQDLKCLVFSLIGLHFKIKPI-SDFYLRYYVGHKGKFGHEFLEFEFRPDGKLRYANNSNYKNDVMIRKEAYVHKSVMEELKRIIDDSEITKEDDALWPPPDRVGRQELEIVIGDEHISFTTSKIGSLIDVNQSKDPEGLRVFYYLVQDLKCLVFSLIGLHFKIKPI-SDFYLRYYVGHKGKFGHEFLEFEFRPDGKLRYANNSNYKNDVMIRKEAYVHKSVMEELKRIIDDSEITKEDDALWPPPDRVGRQELEIVIGDEHISFTTSKIGSLIDVNQSKDPEGLRVFYYLVQDLKCLVFSLIGLHFKIKPI-SDFYLRYYVGHKGKFGHEFLEFEFRPDGKLRYANNSNYKNDVMIRKEAYVHKSVMEELKRIIDDSEITKEDDALWPPPDRVGRQELEIVIGDEHISFTTSKIGSLIDVNQSKDPEGLRVFYYLVQDLKCLVFSLIGLHFKIKPI-SDFYLRYYVGHKGKFGHEFLEFEFRPDGKLRYANNSNYKNDVMIRKEAYVHKSVMEELKRIIDDSEITKEDDALWPPPDRVGRQELEIVIGDEHISFTTSKIGSLIDVNQSKDPEGLRVFYYLVQDLKCLVFSLIGLHFKIKPI-SDFYLRYYVGHKGKFGHEFLEFEFRPDGKLRYANNSNYKNDVMIRKEAYVHKSVMEELKRIIDDSEITKEDDALWPPPDRVGRQELEIVIGDEHISFTTSKIGSLIDVNQSKDPEGLRVFYYLVQDLKCLVFSLIGLHFKIKPI-SDFYLRYYVGHKGKFGHEFLEFEFRPDGKLRYANNSNYKNDVMIRKEAYVHKSVMEELKRIIDDSEITKEDDALWPPPDRVGRQELEIVIGDEHISFTTSKIGSLIDVNQSKDPEGLRVFYYLVQDLKCLVFSLIGLHFKIKPI-SDFYLRYYVGHKGKFGHEFLEFEFRPDGKLRYANNSNYKNDVMIRKEAYVHKSVMEELKRIIDDSEITKEDDALWPPPDRVGRQELEIVIGDEHISFTTSKIGSLIDVNQSKDPEGLRVFYYLVQDLKCLVFSLIGLHFKIKPI-SDFYLRYYVGHKGKFGHEFLEFEFRPDGKLRYANNSNYKNDVMIRKEAYVHKSVMEELKRIIDDSEITKEDDALWPPPDRVGRQELEIVIGDEHISFTTSKIGSLIDVNQSKDPEGLRVFYYLVQDLKCLVFSLIGLHFKIKPI-SDFYLRYYVGHKGKFGHEFLEFEFRPDGKLRYANNSNYKNDVMIRKEAYVHKSVMEELKRIIDDSEITKEDDALWPPPDRVGRQELEIVIGDEHISFTTSKIGSLIDVNQSKDPEGLRVFYYLVQDLKCLVFSLIGLHFKIKPI,LGEEDDEDYL-VGEEDDLDYL-LGEKDMSDHR-LGEEDVIDWR-PGPEDERDYL-DGEDNIFDYL-VGDWNIYDIR-SGKKNITDHL-YGAENTADYL-KGAEYEYDVR,KGLFFEHDLR-KGLFFEHDLR-KGLFFEHDLR-KGLFFEHDLR-KGLFFEHDLR-KGLFFEHDLR-KGLFFEHDLR-KGLFFEHDLR-KGLFFEHDLR-KGLFFEHDLR
