contacts,cs,ce,Chain,Length,designed_receptor_seq,native_receptor_seq,designed_binder_seq,native_binder_seq
18.0,122,132,A,10,MKVKPGDILFKKEDGYPTKGYFEENGKLYVKYSGELVIYETKKKKYEYGVKPENEEEIKPKENEIIYAKVLEVDENKLKLEVLYIGKKPKLKELKGKAVIYKEDLSPKEKIPIKDIVKEGDIVKGKILEIDEKNKKIKISLKDEKLGVVEGICECGEKMEKISEYKYKCPKCGNIIKVKN-MKVKPGDVLFKKEDGYPTEGYYEEDGKLYAKYSGELVVYETEEGKKAYGVKPKEEEKPKPKENEIVEAKVLEVTDDKLKLEVLKVGKKPKLKRLKGRAVIHRSDLSPKSDIPVKDLVKEGDIVVGKVLEVDEEKKEIKISLKREDLGVKEGICECGEKMEKISEYKYKCPKCGNEIKVKN-MKVKPGDVLFKEGEGYPRYGEYWENGKLYARYGGELVVYETEKGKKAYGVKPEEEEEEEPKEGEIVVGRVLEVDEEKLRVEVLAVGEKPRLRRLKGRAVVYLEDLSPEEEIPVREVVRPGDIVVGRVLEVDEEKKEVRITLKREDLGVVEGVCECGCEMEPVSELEYRCPECGEVVRVKR-MYVKPGDVLFKEGEGYPEYGYYVEDGKLYALYGGELVVEETEEGKYRYGVKPEEEEEEEPEEGEIVEAVVLEVDEEELRLEVLRVGEEPLLEELEGRAVVRLEDLDPESEIPVEELVREGDVVVGRVLEVDEEEERVRVTLREEELGVVEGRCECGCEMEPVSEYEYECPECGERVRVKR-MKVKPGDVLFKVGEGYPEEGYFVENGKLIAKYGGELVVYETEKGKKKYGVKPKEKEKPKPKENEIVVGRVLEVDDEKLKVEVLSVGKKPKLKRLKGKAVIHREDLSPKEKIPVKELVKEGDIVVGRVLEVDEEKKEIKISLKSEKLGVVEGICECGEKMEKISEYKYKCPKCGNEIKVKA-MFVKPGDVLFKKEDGYPEFGEYIENGKLYVKYGGELVVYETEKGKYKYGVKPKEEEKPKPKENEIVYAKVLEVDENKLKLEVLYVGKKPKLKELKGKAVIYLKDLSPKSKIPVKELVKEGDIVRGKVLEVDEKKKIIKISLKDEKLGVVEGICKCGEKMEKISEYKYKCPKCGEEIKVKK-MYVKPGDTLFREGEGYPKYGYYVENGKLIAKYGGELVVYETEDGKKAYGVKPKEEEKPKPKENEIVYAKVLEVDENKLKLEVLKVGKKPKLKELKGRAVIYKEDLTPKTDIPVKELVKEGDIVVGKVLEVDEEKKEIKISLKEEKLGVVKGICKCGEEMEKISEYKYKCPKCGEEIKVKN-MKVKPGDVLFKKGEGYPSEGYYEENGKLYVRYAGELVVYETEKKKYRYGVKPEEEEKPKPKEGEIVYAKVLEVDEEKLKLEVLKVGKKPKLKELKGRVVVYKEDLSPYSDIPVKERVKEGDIVVGKVLEVDEEKKEIKVTLKKEELGVVEGICECGEKMEKISEYKYKCPKCGTEIKVKK-MKVKPGDIIAKIGDGYPEYGEYIENGKLYVKYGGELVVYETEKGKKKYGVKPENEEEIKPGENDIVYAKVLEVDENKLKLEVLSVGKKVKLKKLKGKVVIEKENLSPKSDIPVSKRVKEGDIIKGKILEVDEEKKEIKISLKDENLGVVEGICECGEKMEKISEYKYKCPKCGNEIEVKN-MEVKPGDVLFREGEGYPKYGEYIEDGKLIALYSGELVVEETEEGKKRYGVKPKEEEEEEPKEGEVVVGRVLEVDEEKLKVEVLSVGKLRRLKRLKGKAVVYKEDLSPEEEIPVEKVVREGDIVVGRVLEVDEEKKEVKISLKEEELGVVEGICECGEEMEPVSELEYECPKCGEKVKVKR,RYCIPGERLCNLEEGSPGSGTYTRHGYIFSSLAGCLMKSSENGALPVVSVVRETESQLLPDVGAIVTCKVSSINSRFAKVHILYVGSMPLKNSFRGTIRKEDVRATEKDKVEIYKSFRPGDIVLAKVISLGDAQSNYLLTTAENELGVVVAHSESGIQMVPISWCEMQCPKTHTKEFRKV-RYCIPGERLCNLEEGSPGSGTYTRHGYIFSSLAGCLMKSSENGALPVVSVVRETESQLLPDVGAIVTCKVSSINSRFAKVHILYVGSMPLKNSFRGTIRKEDVRATEKDKVEIYKSFRPGDIVLAKVISLGDAQSNYLLTTAENELGVVVAHSESGIQMVPISWCEMQCPKTHTKEFRKV-RYCIPGERLCNLEEGSPGSGTYTRHGYIFSSLAGCLMKSSENGALPVVSVVRETESQLLPDVGAIVTCKVSSINSRFAKVHILYVGSMPLKNSFRGTIRKEDVRATEKDKVEIYKSFRPGDIVLAKVISLGDAQSNYLLTTAENELGVVVAHSESGIQMVPISWCEMQCPKTHTKEFRKV-RYCIPGERLCNLEEGSPGSGTYTRHGYIFSSLAGCLMKSSENGALPVVSVVRETESQLLPDVGAIVTCKVSSINSRFAKVHILYVGSMPLKNSFRGTIRKEDVRATEKDKVEIYKSFRPGDIVLAKVISLGDAQSNYLLTTAENELGVVVAHSESGIQMVPISWCEMQCPKTHTKEFRKV-RYCIPGERLCNLEEGSPGSGTYTRHGYIFSSLAGCLMKSSENGALPVVSVVRETESQLLPDVGAIVTCKVSSINSRFAKVHILYVGSMPLKNSFRGTIRKEDVRATEKDKVEIYKSFRPGDIVLAKVISLGDAQSNYLLTTAENELGVVVAHSESGIQMVPISWCEMQCPKTHTKEFRKV-RYCIPGERLCNLEEGSPGSGTYTRHGYIFSSLAGCLMKSSENGALPVVSVVRETESQLLPDVGAIVTCKVSSINSRFAKVHILYVGSMPLKNSFRGTIRKEDVRATEKDKVEIYKSFRPGDIVLAKVISLGDAQSNYLLTTAENELGVVVAHSESGIQMVPISWCEMQCPKTHTKEFRKV-RYCIPGERLCNLEEGSPGSGTYTRHGYIFSSLAGCLMKSSENGALPVVSVVRETESQLLPDVGAIVTCKVSSINSRFAKVHILYVGSMPLKNSFRGTIRKEDVRATEKDKVEIYKSFRPGDIVLAKVISLGDAQSNYLLTTAENELGVVVAHSESGIQMVPISWCEMQCPKTHTKEFRKV-RYCIPGERLCNLEEGSPGSGTYTRHGYIFSSLAGCLMKSSENGALPVVSVVRETESQLLPDVGAIVTCKVSSINSRFAKVHILYVGSMPLKNSFRGTIRKEDVRATEKDKVEIYKSFRPGDIVLAKVISLGDAQSNYLLTTAENELGVVVAHSESGIQMVPISWCEMQCPKTHTKEFRKV-RYCIPGERLCNLEEGSPGSGTYTRHGYIFSSLAGCLMKSSENGALPVVSVVRETESQLLPDVGAIVTCKVSSINSRFAKVHILYVGSMPLKNSFRGTIRKEDVRATEKDKVEIYKSFRPGDIVLAKVISLGDAQSNYLLTTAENELGVVVAHSESGIQMVPISWCEMQCPKTHTKEFRKV-RYCIPGERLCNLEEGSPGSGTYTRHGYIFSSLAGCLMKSSENGALPVVSVVRETESQLLPDVGAIVTCKVSSINSRFAKVHILYVGSMPLKNSFRGTIRKEDVRATEKDKVEIYKSFRPGDIVLAKVISLGDAQSNYLLTTAENELGVVVAHSESGIQMVPISWCEMQCPKTHTKEFRKV,LEEGKEIKEI-AEEGKEIKEE-CEEGEEVEEE-CEEGEEVEEE-CKKGEEIKEL-AEEGKEIKEL-AEEGKEIKEL-CEEGKEIKEE-KKKGEEIKEE-AEEGEEIEEV,ADAGVEMYDL-ADAGVEMYDL-ADAGVEMYDL-ADAGVEMYDL-ADAGVEMYDL-ADAGVEMYDL-ADAGVEMYDL-ADAGVEMYDL-ADAGVEMYDL-ADAGVEMYDL
16.0,0,10,B,10,MARDERPLRPFRAEAGVLARAEGSGRVELGGTVVLAAVYGPRRAPRGRLAVEYREAPFAGERRRRPPRGRRERELAAALRAALGPAVDLDALPRAVVEVVVLALEAGGGALAAAVNAATLALLDAGLPLLDLLLACGVAVLPGPEPEVLLDPPAEEEAAARAGAALALLPRSRRLGLALLDRRGGDAAALAALLEAGPAGAAALAPALAAALLAARAARGAAP-MSRDASPLRPFVAEAGVLERADGSGRVELGGTRVLAAVRGPFRAPRGRLAVEYREAPFAGERRRRPPRGRRERELAAALRAALGPAVDLDALPRAVVEVDVLVLEAGGGARAAALNAAALALVDAGLPLRDLLLAAGVAVLPGPEPEVLLDPPEEEEAAARAGAALALLPRSRRLALAEAELRGGDAAALAALLEAGPAGAAALAPALAAALAAAAAARGAAP-MARDEFPLRPFEAVAGVLERAEGSGRVELGGTRVLAAVYGPRRDGRGRLAVEYREAPFAGERRRRPPRGRRERELAAALRAALGPAVDYDALPRSVVEVVVLALEAGGGALAAAVNAATLALVDAGLPVRDLLLACGVAVLPGPEPEVLLDPPAEEEAAARAGAALALLPRSRRLGLALLDRRGGDAAALAALLEAGPRGAAALAPALAAALAAAAAARGAAP-MARDARPLRPFEAVAGVLERADGSGRVELGGTRVLAAVYGPRRAPRGRLAVEYREAPFAGERRRRPPRGRRERELAAALRAALGPAVDLDALPRAQVDVVVLALEAGGGALAAAVNAATLALVDAGLPLRDLLLACGVQVLPGPEPEVLLDPPAEEEAAARAGAALALLPRSRRLALALADLRGGDAAALAALLEAGPAGAAALAPALAAALLAARAARGAAP-MARDERPLRPFRAEVGVLERADGSGRVELGGTVVLAAVYGPRRAPRGRLAVEYREAPFAGERRRRPPRGRRERELAAALRAALGPAVDLDALPRSVVEVVVLALEAGGGALAAAVNAATLALVDAGLPVRDLLLACGVQVLPGPEPEVLLDPPAEEEARARAGAALALLPRSRRLALALADLRGGDAAALAALLEAGPAGAAALAPALAAALAAARAARGAAP-MARDERPLRPFVAEAGVLERAEGSGYVELGGTRVVAAVYGPRVAPRGRLAVEYREAPFAGERRRRPPRGRRERELAAALRAALGPAVDLDALPRAQVDLVVLALEAGGGARAAALNAAALALVDAGLPLLDLLLACGVAVLPGPEPEVLLDPPAEEEAAARAGAALALLPRSRRLALALAEGRGGDAAAGAALLAAGPAGAAALAPALAAALAAAAAARGAAP-MARDERPLRPFRAEAGVLERAEGSGYVELGGTRVLAAVYGPRRAPRGRLAVEYREAPFAGERRRRPPRGRRERELAAALRAALGPAVDLDALPRAVVEVVVLALEAGGGARAAALNAAALALVDAGLPLRDLLLAAGVAVLPGPEPEVLLDPPAEEEAAARAGAALALLPRSRRLALAEAELRGGDAAALAALLEAGPAGAEALAPALAEALLAARARRGAAP-MARDETPLRPFRAEAGVLERADGSGRVELGGTVVLAAVRGPFRAPRGRLAVEYREAPFAGERRRRPPRGRRERELAAALRAALGPAVDLDALPRAQVEVLVLALEAGGGALAAAVNAATLALVDAGLPLRDLLLACGVQVLPGPEPEVLLDPPAEEEAAARAGAALALLPRSRRLALALADLRGGDAAALAALLEAGPRGAAALAPALAAALAAARAARGAAP-MARDERPLRPFEAVAGVLERADGSGRVELGGTRVLAAVYGPRRGPRGRLAVEYREAPFAGERRRRPPRGRRERELAAALRAALGPAVDLDALPRAVVEVLVLALEAGGGALAAALNAATLALVDAGLPLRDLLLACGVAVLPGPEPEVLLDPPAEEEAAARAGAALALLPRSRRLALALADLRGGDAAGLAALLEAGPAGAAALAPALAAALLAARAARGAAP-MARDASELRPFVAEAGVLERADGSGRVELGGTVVLAAVKGPFEAPRGRLAVEYREAPFAGERRRRPPRGRRERELAAALRAALGPAVDLDALPRAQVEVLVLALEAGGGALAAAVNAATLALVDAGLPLRDLLLACGVQVLPGPEPEVLLDPPAEEEAAARAGAALALLPRSRRLALALLDRRGGDAAALAALLEAGPAGAAALAPALAAALAAAAAARGAAP,GTRDPTRLRPVYARAGLLSQAKGSAYLEAGGTKVLCAVSGPRQALRGRLLCDFRRAPFAGRRRRAPPGGCEERELALALQEALEPAVRLGRYPRAQLEVSALLLEDGGSALAAALTAAALALADAGVEMYDLVVGCGLSLAPGPAPTWLLDPTRLEEERAAAGLTVALMPVLNQVAGLLGSGEGGLTESWAEAVRLGLEGCQRLYPVLQQSLVRAARRRGAAA-GTRDPTRLRPVYARAGLLSQAKGSAYLEAGGTKVLCAVSGPRQALRGRLLCDFRRAPFAGRRRRAPPGGCEERELALALQEALEPAVRLGRYPRAQLEVSALLLEDGGSALAAALTAAALALADAGVEMYDLVVGCGLSLAPGPAPTWLLDPTRLEEERAAAGLTVALMPVLNQVAGLLGSGEGGLTESWAEAVRLGLEGCQRLYPVLQQSLVRAARRRGAAA-GTRDPTRLRPVYARAGLLSQAKGSAYLEAGGTKVLCAVSGPRQALRGRLLCDFRRAPFAGRRRRAPPGGCEERELALALQEALEPAVRLGRYPRAQLEVSALLLEDGGSALAAALTAAALALADAGVEMYDLVVGCGLSLAPGPAPTWLLDPTRLEEERAAAGLTVALMPVLNQVAGLLGSGEGGLTESWAEAVRLGLEGCQRLYPVLQQSLVRAARRRGAAA-GTRDPTRLRPVYARAGLLSQAKGSAYLEAGGTKVLCAVSGPRQALRGRLLCDFRRAPFAGRRRRAPPGGCEERELALALQEALEPAVRLGRYPRAQLEVSALLLEDGGSALAAALTAAALALADAGVEMYDLVVGCGLSLAPGPAPTWLLDPTRLEEERAAAGLTVALMPVLNQVAGLLGSGEGGLTESWAEAVRLGLEGCQRLYPVLQQSLVRAARRRGAAA-GTRDPTRLRPVYARAGLLSQAKGSAYLEAGGTKVLCAVSGPRQALRGRLLCDFRRAPFAGRRRRAPPGGCEERELALALQEALEPAVRLGRYPRAQLEVSALLLEDGGSALAAALTAAALALADAGVEMYDLVVGCGLSLAPGPAPTWLLDPTRLEEERAAAGLTVALMPVLNQVAGLLGSGEGGLTESWAEAVRLGLEGCQRLYPVLQQSLVRAARRRGAAA-GTRDPTRLRPVYARAGLLSQAKGSAYLEAGGTKVLCAVSGPRQALRGRLLCDFRRAPFAGRRRRAPPGGCEERELALALQEALEPAVRLGRYPRAQLEVSALLLEDGGSALAAALTAAALALADAGVEMYDLVVGCGLSLAPGPAPTWLLDPTRLEEERAAAGLTVALMPVLNQVAGLLGSGEGGLTESWAEAVRLGLEGCQRLYPVLQQSLVRAARRRGAAA-GTRDPTRLRPVYARAGLLSQAKGSAYLEAGGTKVLCAVSGPRQALRGRLLCDFRRAPFAGRRRRAPPGGCEERELALALQEALEPAVRLGRYPRAQLEVSALLLEDGGSALAAALTAAALALADAGVEMYDLVVGCGLSLAPGPAPTWLLDPTRLEEERAAAGLTVALMPVLNQVAGLLGSGEGGLTESWAEAVRLGLEGCQRLYPVLQQSLVRAARRRGAAA-GTRDPTRLRPVYARAGLLSQAKGSAYLEAGGTKVLCAVSGPRQALRGRLLCDFRRAPFAGRRRRAPPGGCEERELALALQEALEPAVRLGRYPRAQLEVSALLLEDGGSALAAALTAAALALADAGVEMYDLVVGCGLSLAPGPAPTWLLDPTRLEEERAAAGLTVALMPVLNQVAGLLGSGEGGLTESWAEAVRLGLEGCQRLYPVLQQSLVRAARRRGAAA-GTRDPTRLRPVYARAGLLSQAKGSAYLEAGGTKVLCAVSGPRQALRGRLLCDFRRAPFAGRRRRAPPGGCEERELALALQEALEPAVRLGRYPRAQLEVSALLLEDGGSALAAALTAAALALADAGVEMYDLVVGCGLSLAPGPAPTWLLDPTRLEEERAAAGLTVALMPVLNQVAGLLGSGEGGLTESWAEAVRLGLEGCQRLYPVLQQSLVRAARRRGAAA-GTRDPTRLRPVYARAGLLSQAKGSAYLEAGGTKVLCAVSGPRQALRGRLLCDFRRAPFAGRRRRAPPGGCEERELALALQEALEPAVRLGRYPRAQLEVSALLLEDGGSALAAALTAAALALADAGVEMYDLVVGCGLSLAPGPAPTWLLDPTRLEEERAAAGLTVALMPVLNQVAGLLGSGEGGLTESWAEAVRLGLEGCQRLYPVLQQSLVRAARRRGAAA,PLPPPGAGGG-ALRPPGAGGG-ALAPPGAGGG-AAAPPGAGGG-PPPPPGAGGP-AAAPPGAGGG-ALRPPGAGGG-PLPPPGAGGP-PPPPPGAGGP-AAAPPGAGGG,RYCIPGERLC-RYCIPGERLC-RYCIPGERLC-RYCIPGERLC-RYCIPGERLC-RYCIPGERLC-RYCIPGERLC-RYCIPGERLC-RYCIPGERLC-RYCIPGERLC
