contacts,cs,ce,Chain,Length,designed_receptor_seq,native_receptor_seq,designed_binder_seq,native_binder_seq
27.0,88,98,A,10,MAYRMFSNDPDASIGFRQVMAKP-MASNGNWANPYKLDGHTHEQEDP-DLCNINQFDPNKLPGETVTIKNP-ALTESCKSDPNRCSGRTHQYEDP-AFSDYQADNPAKEAGFAEEVRNP-MEGLVNRNAPNKLDGRRISLLKP-DMNELNDKDPDLEHCHYHKYATP-KYFSLEKEDPNKLPGAEKQFLDP-TNLSVAKLCPKRKKGEIVLEEKK-NLGLANWADPYSAPGLAMVFENW,KFGDWDENNPSSADGYTHIFNKV-KFGDWDENNPSSADGYTHIFNKV-KFGDWDENNPSSADGYTHIFNKV-KFGDWDENNPSSADGYTHIFNKV-KFGDWDENNPSSADGYTHIFNKV-KFGDWDENNPSSADGYTHIFNKV-KFGDWDENNPSSADGYTHIFNKV-KFGDWDENNPSSADGYTHIFNKV-KFGDWDENNPSSADGYTHIFNKV-KFGDWDENNPSSADGYTHIFNKV,TTKQIFEPGD-GTKIQLTPIG-EYETLITPRF-PMSLLCTPLC-GDRRVRTPQY-DFHEEITPDR-KNKDIYKPCR-KKKCKFIPEP-LKQNAVMPLV-RRLVMIRPLY,SDTDAVTPLV-SDTDAVTPLV-SDTDAVTPLV-SDTDAVTPLV-SDTDAVTPLV-SDTDAVTPLV-SDTDAVTPLV-SDTDAVTPLV-SDTDAVTPLV-SDTDAVTPLV
46.0,10,20,B,10,MTHLPGPDVKLLDHFKQRMVGASRYADQEHMSPEWMERNSAMWIEVRKAGWKISRGGIETYADLLGEAMRFEASQLSGTAEQFLSYRKPEYRAITPIVPPYDDVIEDVITHPRSKTELWWDELYGTLKVRVFRQSAKIDGISIDLNNYFVATEKEYLTRRQRKLSELYGKEILRRHLTLFFPDRIEHTDARYIPVIMRYLDEIYRRMQEENLSKKELIRGISKLHFYAATTHFRQQGSGRMAEFCARAVAASHGITLPPFRRGIVAYVEARLRTEEEFVEKFEDLLDSKRV-GSALPGPARARLRRSRQALIGAERYPDQDWQSPEMRAHNSNMYEHVRRAGEEISRGGVRTFDQLWGKAQDHVLSTLGGERHKLASLMTPDTDAVTPIVPPLEYLRDRVVEHKGAYHEMWNDEWYGRLRVAKVEQKARIRGQEIQMNVFYVSVDQEYLTRKREQLRHRIGRAKLLEHLTREHPDRIVHTSAVNLPVLMSYLNEIYREMTRDTLSREERLRLIAQMHWYCATAHWYRDGSGRMARFCAYAVAAAHGEELPPFKIGVVASVAAMLHDQDEYISGFKHFLDADEK-MQHLPGPSIEELEPHRQALKGAAPYPDEEFMDPWQVERAKYQYNWIRKAGMLIANGGIKSFDELYGEAQRWQLSREKLLKEDYNSWRSEDTFAVTPIVPPFHDLRKRVVEHNGSYKDKLWDELFGVLKVSVYQQNAIIDGDNIEMDTFYVAEEEGYLTKKITELEKKIGKLKLHDHLKMYHPNRIYHCDAKYIPKIREYLNDLYKELTKSHLSYTELIQGIARLHWWSASMHPNRMGSGTKAEFAMRAIAAAHGIELPPYKNGIVSDIEARLEQENSFVEKFNDFLDNISQ-GNSLPGPSTDQLASWRQARIGASPYPSDHTTTPEERNRSMAMYTNVRQAGRSIARGGIKTYLDLYGKATAFLLETMSGKMAAYASYMDSATWGVTPIVPPYQDVRKKVILHDGGYTAIFSDNLYGQLKVKQFRQNAELNGKVIEMNIFYVAEDREYLKSREQELTTEIGVATLQEHLTYAYPHRIVHCEEKHIPQIMEHLNDIFKELTLDNLSLSDLINGIARLHWWQSTAHFQVNGSGRRADFCFRSVAAAHGIELPPFAFGMVSTHMAELKAEKEFMTEYKWLLDNATV-SMKLPGPSLRELEPEAQARIGASPYPDEPDQLPKYKAESESMYREVNRAGKKIANGGIRTFLQLLGEARTFVLSQIGKCRMEYDEWAEDDQVMVTPIVAPYVFVKKAVIEHPGARELVLNDELFGDLKVKLVQQTAKLEGRIIRMNNFFVSVTKEYLEKRRKELIREYGKERMAGHLTVEYPHRIEWTDAKYLPELIRYLENIYKKLRSKELSDEDLIRGIAEFHWWHATAHPYREGSGRKARFCSYAVAAAHGIQLPPFRKGVVPSVMAMLKASEEYISAFLNYLDLKQE-GMPLPGPSKESLCRYRQALVGAMRWPDSDIHTPVHRARSMDMYTEVRRAGEEIARGGIVRFEELYGRAKDWLVRLDRSRYAEFASFREADRQGVTPIVPPYDDVLTDVVQHREACDNVLYDEWYGSLRVRQVEQTSILDGQEIMMNAFYVALNRKFLRKKAEVLAKKIGADALHQHLQRYHPNRIVSCNARYLPVLLQHLDNLYRRLIRADLSREELMKGIAELFWWTSTAHFARSGSGRMARFCAYAVAAAHGLELPPFRDGVVAVAAAMLRAEKEFVNVFRDYLDDEED-MARLPGPSEDKLMDYRKARVGSAPLPDSHEELPQWIEYCKGMYDNVRRAGKKISEGGITTFGDLWGVATEWELKQNKDYKEAYASLREEEYDTVTPIVPPYYDLIEKVVSHSGAQEELLYDELYGMLKVRVYRQKAKIEGREIEMNTFYVATEKHYLVRKRHELELRYGKHELHRWERVHNPHRVIHTDAKYIPEIMKHLDDIYKKLREPQLSKKELLEGLARLHWWAATAHPTREGSGRRAEFSMRAVGASHGIELPPFKRGIVASTAAMLRQEDEYVREYMDLLDQANI-FMPLPGPSRRELDDHLKAMVGAQGYRDADIYLPEQEERCTSMYTQVRVTGERIARGEVRSFRHLFGEATAWLLKTTNEELEEYARWRKADKDAVIPIVPPYLDLVERVTTHEGAFLDLKDDKLLGKLMVRCFEQIAEIDGETITLNTFYVAVEEAYLQRRFKQLAERLGKKKLQDHLQMYHPNRIEMTRAANLPKLLHHLEEIYLQQTQAELSQEELMRGIARHHWYAATAHFNIEGSGRKARFSAHAISAAHGLELPPFRRGEVVDVMAMLRNEEEFVEQFRYLLAMNDN-SVKLPGPSSDELADFRKAHIGSAPDPDLNDDTPANKERNESLYKDIREAGKKISSGGIKTFRQLFGLAKENEISKTTRERDLYASERDIRLQAVTPIVPPFLDLRERVIRHKESEIRKEKDELFGELSVKVFQQKTIIDGKEIVMNVFYVAEDQSYLEKKTEELKSKIGKKELRKHLQMNYPDRIVHCNAEYIPVLIEHLDSIYDRLCVDTLSFEQKIRGIAELMWWFATAHFTAEGSGRKSRFCAYAVAAAHGVELPPFKKGVVFEIEAQLREKEEFIDSFKSLLDNDID-GHMLPGPSKNRLRDFDEARIGAENHADSWIMTQRWRNRSVGMYSDVREAGRKISKGDIKSARDLMGVAREWRNSRNSKIRSQYEAMARDDTRLVTPIVPPYDYLIEMVRKHAGSYTETFFDELYGELKVRKFEQVFIIDGETIKGNVFFVAEETGYLTRKRKELKEKYGEKDLRKHLQFDYPSRVVHTDRKHRPKIMAYLDDIYRTLLKANLTREERLKGIAKLHYFAATLHPDKDGSGVRAEFMMRAVAAAHGIELPPFREGSVASIEAMLQAEDNYVEKYREFLDNREE,FRALPGPSQRQLEVYDQCLIGAARWPDDKSNTPENRAYCQSMYNSIRSAGDEISRGGITSFEELWGRATEWRLSKLEPLYSAFASERTSDTDAVTPLVKPYKSVLARVVDHEDAHDEIMQDNLFGDLNVKVYRQTAYLHGNVIPLNTFRVATDTEYLRDRVAHLRTELGAKALKQHLQRYNPDRIDHTNASYLPIIKDHLNDLYRQAISSDLSQAELISLIARTHWWAASAMPDQRGSAAKAEFAARAIASAHGIELPPFRNGNVSDIEAMLSGEEEFVEKYRSLLDSDCF-FRALPGPSQRQLEVYDQCLIGAARWPDDKSNTPENRAYCQSMYNSIRSAGDEISRGGITSFEELWGRATEWRLSKLEPLYSAFASERTSDTDAVTPLVKPYKSVLARVVDHEDAHDEIMQDNLFGDLNVKVYRQTAYLHGNVIPLNTFRVATDTEYLRDRVAHLRTELGAKALKQHLQRYNPDRIDHTNASYLPIIKDHLNDLYRQAISSDLSQAELISLIARTHWWAASAMPDQRGSAAKAEFAARAIASAHGIELPPFRNGNVSDIEAMLSGEEEFVEKYRSLLDSDCF-FRALPGPSQRQLEVYDQCLIGAARWPDDKSNTPENRAYCQSMYNSIRSAGDEISRGGITSFEELWGRATEWRLSKLEPLYSAFASERTSDTDAVTPLVKPYKSVLARVVDHEDAHDEIMQDNLFGDLNVKVYRQTAYLHGNVIPLNTFRVATDTEYLRDRVAHLRTELGAKALKQHLQRYNPDRIDHTNASYLPIIKDHLNDLYRQAISSDLSQAELISLIARTHWWAASAMPDQRGSAAKAEFAARAIASAHGIELPPFRNGNVSDIEAMLSGEEEFVEKYRSLLDSDCF-FRALPGPSQRQLEVYDQCLIGAARWPDDKSNTPENRAYCQSMYNSIRSAGDEISRGGITSFEELWGRATEWRLSKLEPLYSAFASERTSDTDAVTPLVKPYKSVLARVVDHEDAHDEIMQDNLFGDLNVKVYRQTAYLHGNVIPLNTFRVATDTEYLRDRVAHLRTELGAKALKQHLQRYNPDRIDHTNASYLPIIKDHLNDLYRQAISSDLSQAELISLIARTHWWAASAMPDQRGSAAKAEFAARAIASAHGIELPPFRNGNVSDIEAMLSGEEEFVEKYRSLLDSDCF-FRALPGPSQRQLEVYDQCLIGAARWPDDKSNTPENRAYCQSMYNSIRSAGDEISRGGITSFEELWGRATEWRLSKLEPLYSAFASERTSDTDAVTPLVKPYKSVLARVVDHEDAHDEIMQDNLFGDLNVKVYRQTAYLHGNVIPLNTFRVATDTEYLRDRVAHLRTELGAKALKQHLQRYNPDRIDHTNASYLPIIKDHLNDLYRQAISSDLSQAELISLIARTHWWAASAMPDQRGSAAKAEFAARAIASAHGIELPPFRNGNVSDIEAMLSGEEEFVEKYRSLLDSDCF-FRALPGPSQRQLEVYDQCLIGAARWPDDKSNTPENRAYCQSMYNSIRSAGDEISRGGITSFEELWGRATEWRLSKLEPLYSAFASERTSDTDAVTPLVKPYKSVLARVVDHEDAHDEIMQDNLFGDLNVKVYRQTAYLHGNVIPLNTFRVATDTEYLRDRVAHLRTELGAKALKQHLQRYNPDRIDHTNASYLPIIKDHLNDLYRQAISSDLSQAELISLIARTHWWAASAMPDQRGSAAKAEFAARAIASAHGIELPPFRNGNVSDIEAMLSGEEEFVEKYRSLLDSDCF-FRALPGPSQRQLEVYDQCLIGAARWPDDKSNTPENRAYCQSMYNSIRSAGDEISRGGITSFEELWGRATEWRLSKLEPLYSAFASERTSDTDAVTPLVKPYKSVLARVVDHEDAHDEIMQDNLFGDLNVKVYRQTAYLHGNVIPLNTFRVATDTEYLRDRVAHLRTELGAKALKQHLQRYNPDRIDHTNASYLPIIKDHLNDLYRQAISSDLSQAELISLIARTHWWAASAMPDQRGSAAKAEFAARAIASAHGIELPPFRNGNVSDIEAMLSGEEEFVEKYRSLLDSDCF-FRALPGPSQRQLEVYDQCLIGAARWPDDKSNTPENRAYCQSMYNSIRSAGDEISRGGITSFEELWGRATEWRLSKLEPLYSAFASERTSDTDAVTPLVKPYKSVLARVVDHEDAHDEIMQDNLFGDLNVKVYRQTAYLHGNVIPLNTFRVATDTEYLRDRVAHLRTELGAKALKQHLQRYNPDRIDHTNASYLPIIKDHLNDLYRQAISSDLSQAELISLIARTHWWAASAMPDQRGSAAKAEFAARAIASAHGIELPPFRNGNVSDIEAMLSGEEEFVEKYRSLLDSDCF-FRALPGPSQRQLEVYDQCLIGAARWPDDKSNTPENRAYCQSMYNSIRSAGDEISRGGITSFEELWGRATEWRLSKLEPLYSAFASERTSDTDAVTPLVKPYKSVLARVVDHEDAHDEIMQDNLFGDLNVKVYRQTAYLHGNVIPLNTFRVATDTEYLRDRVAHLRTELGAKALKQHLQRYNPDRIDHTNASYLPIIKDHLNDLYRQAISSDLSQAELISLIARTHWWAASAMPDQRGSAAKAEFAARAIASAHGIELPPFRNGNVSDIEAMLSGEEEFVEKYRSLLDSDCF-FRALPGPSQRQLEVYDQCLIGAARWPDDKSNTPENRAYCQSMYNSIRSAGDEISRGGITSFEELWGRATEWRLSKLEPLYSAFASERTSDTDAVTPLVKPYKSVLARVVDHEDAHDEIMQDNLFGDLNVKVYRQTAYLHGNVIPLNTFRVATDTEYLRDRVAHLRTELGAKALKQHLQRYNPDRIDHTNASYLPIIKDHLNDLYRQAISSDLSQAELISLIARTHWWAASAMPDQRGSAAKAEFAARAIASAHGIELPPFRNGNVSDIEAMLSGEEEFVEKYRSLLDSDCF,PPADGATFIG-APAKGRTHIF-SPAEGFTHIG-AHASGFTSIY-AEAPGFTHTF-APANGRTHMR-PDASGWEHLG-APARGFTIYG-APAFGATHYI-PPAYGYTHVI,SSADGYTHIF-SSADGYTHIF-SSADGYTHIF-SSADGYTHIF-SSADGYTHIF-SSADGYTHIF-SSADGYTHIF-SSADGYTHIF-SSADGYTHIF-SSADGYTHIF
