contacts,cs,ce,Chain,Length,designed_receptor_seq,native_receptor_seq,designed_binder_seq,native_binder_seq
47.0,60,70,A,10,GPSEVERLTAAFTGGAPVGTGGLTLTVPAVAEDGRSVPVTVSAPGAVSVRLLASGNPDPAVATFNFGPTAADQTASTTIKLARTQDVIALARMPDGSVVEARARVEVRVGGC-GPSEVERLTAAFTGGAPVGTGGLTLSVPAVAEDGRSVPVTVSAPGAVSVRLLASGNPDPAVATFNFGPTAADQTASTTIKLARTQDVIALARMPDGSVVRAEARVEVRVGGC-GPSEVERLTAAFTGGAPVGTGGLTLTVPAVAEDGRSVPVTVSAPGAVAVRLLASGNPDPAVATFNFGPTAADQTASTTIRLARTQDVIALARMPDGSVVRAEARVEVRVGGC-GPSEVERLTAAFTGGAPTGTGGLTLTVPAVAEDGRSVPVTVSAPGAVSVRLLASGNPDPAVATFNFGPTAADQTASTTIKLARTQDVIALARMPDGSVVRASARVEVRTGGC-GPSEVERLTAAFTGGAPTGTGGLTLTVPAVAEDGRSVPVTVSAPGAVSVRLLASGNPDPAVATFNFGPTAADQTASTTIKLARTQDVIALARMPDGSVVRASARVEVRVGGC-GMTEVERLTEAFTGGAPTGTGGLTLTVPAVAEDGRSVPVTVSAPGAVAVRLLASGNPDPAVATFRFGPTAADQTASTTIRLAATQDVIALARMPDGSVVEARARVEVRVGGC-GMTEVERLTAAFTGGAPVGTGGLTLTVPAVAEDGRSVPVRVEAPGAVAVRLLASGNPDPAVATFRFGPTAADQTASTRIRLARTQDVIALARMPDGSVVEARARVEVRVGGC-GPSEVERLTAAFTGGAPVGTGGLTLTVPAVAEDGRCVPVTVSAPGAVAVRLLASGNPDPAVATFRFGPTAADQTASTRIRLARTQDVIALARMPDGSVVEARARVEVRVGGC-GPSEVERLTRAFTGGAPVGTGGLTLTVPAVAEDGRSVPVTVSAPGAVSVRLLASGNPDPAVATFNFGPTSADQTASTTIKLARTQDVIALARMPDGSVVRAEARVEVRVGGC-GPSEVERLTAAFTGGAPTGTGGLTLTVPAVAEDGRSVPVTVSAPGATAVRLLAAGNPDPAVATFRFGPTAADQTASTRIRLARTQDVIALARMPDGSVVRAEARVEVRVGGC,GSSTVDELTAAFTGGAATGEGGLTLTAPEIAENGNTVPIEVKAPGAVAIMLLAAGNPEPAVATFNFGPAAADQRAATRIRLAQTQDVIALAKMADGSVVKAQTTVKVTIGGC-GSSTVDELTAAFTGGAATGEGGLTLTAPEIAENGNTVPIEVKAPGAVAIMLLAAGNPEPAVATFNFGPAAADQRAATRIRLAQTQDVIALAKMADGSVVKAQTTVKVTIGGC-GSSTVDELTAAFTGGAATGEGGLTLTAPEIAENGNTVPIEVKAPGAVAIMLLAAGNPEPAVATFNFGPAAADQRAATRIRLAQTQDVIALAKMADGSVVKAQTTVKVTIGGC-GSSTVDELTAAFTGGAATGEGGLTLTAPEIAENGNTVPIEVKAPGAVAIMLLAAGNPEPAVATFNFGPAAADQRAATRIRLAQTQDVIALAKMADGSVVKAQTTVKVTIGGC-GSSTVDELTAAFTGGAATGEGGLTLTAPEIAENGNTVPIEVKAPGAVAIMLLAAGNPEPAVATFNFGPAAADQRAATRIRLAQTQDVIALAKMADGSVVKAQTTVKVTIGGC-GSSTVDELTAAFTGGAATGEGGLTLTAPEIAENGNTVPIEVKAPGAVAIMLLAAGNPEPAVATFNFGPAAADQRAATRIRLAQTQDVIALAKMADGSVVKAQTTVKVTIGGC-GSSTVDELTAAFTGGAATGEGGLTLTAPEIAENGNTVPIEVKAPGAVAIMLLAAGNPEPAVATFNFGPAAADQRAATRIRLAQTQDVIALAKMADGSVVKAQTTVKVTIGGC-GSSTVDELTAAFTGGAATGEGGLTLTAPEIAENGNTVPIEVKAPGAVAIMLLAAGNPEPAVATFNFGPAAADQRAATRIRLAQTQDVIALAKMADGSVVKAQTTVKVTIGGC-GSSTVDELTAAFTGGAATGEGGLTLTAPEIAENGNTVPIEVKAPGAVAIMLLAAGNPEPAVATFNFGPAAADQRAATRIRLAQTQDVIALAKMADGSVVKAQTTVKVTIGGC-GSSTVDELTAAFTGGAATGEGGLTLTAPEIAENGNTVPIEVKAPGAVAIMLLAAGNPEPAVATFNFGPAAADQRAATRIRLAQTQDVIALAKMADGSVVKAQTTVKVTIGGC,VDVAVGPNVS-VSVDVGPNVS-VRVDVGPNVA-VDVAVGPNVS-VSVDVGPNVS-VDVEVGPNVS-VDVEVGPNVA-VDVEVGPNVC-VDVEVGPNVS-VDVEVGPNVA,VDVAIDPAVS-VDVAIDPAVS-VDVAIDPAVS-VDVAIDPAVS-VDVAIDPAVS-VDVAIDPAVS-VDVAIDPAVS-VDVAIDPAVS-VDVAIDPAVS-VDVAIDPAVS
45.0,66,76,B,10,MADAIPRVTVPSSAKAGESVKVEAWITHPMRSGTEKDANGKLIPRNIIYRFTCTLNGKPVIDVDMGPDVPRNPYFSFYAKVDEAGEFVFTWYCDCGGVFTATKPIKVD-MADAVPRVEVPSSAKAGESVKVVANITHPMQSGTVKDANGKLIPRNIIYRFTCTLNGKPVIDVDMTPDVPKNPYFEFYAKVDKAGEFVFTWYDDDGGVYKATKPIKVD-TANATPKVTVPSSAKAGATVKVEANITHPMQSGTTKDANGKLIPRNIIYRFTCTLNGKPVIDVDMTPDVPKNPYFSFYAKVTEAGSFKFTWYDDDGGVYTATKPIKVD-MANATPKVTVPSSAKAGATVKVEAWITHPQRSGTVKDANGKLIPRNIIYRFTCTLNGKPVIDVDMYPDVPKNPYFSFYAKVTEAGKFVFTWYDDDGGVYKATKPIKVD-MADAVPRVEVPSSAKAGEEVKVVANITHPMRSGTVKDANGKLIPRNIIYRFTCTLNGKPVIDVKMYPDVPKNPYFEFYAKVDEAGEFVFTWYDDDGGVYKAVKPIKVD-TANATPKVTVPSSAKAGATVKVEANITHPMQSGTTKDANGKLIPRNIIYRFTCTLNGKPVIDVAMGPNVPKNPYFSFYAKVTAAGKFVFTWYDDNGGVYKATKPIKVA-TANATPKVTVPSSAKAGATVKVEAWITHPMQSGTVKDANGKLIPRNIIYRFTCTLNGKPVIDVDMTPDVPKNPYFSFYAKVTEAGSFKFTWYDDNGGVYTATKPIKVD-MANAVPKVTVPKSAKAGETVKVEAWISHPMQSGTVKDANGKLIPRNIIYRFTCTLNGEPVIDVDMYPNVPRNPYFSFYAKVDKAGEFVFTWYDDDGGVYKATVPIKVD-MKNAIPKVEVPSSAKAGESVKVVANITHPMRSGTEKDKDGKLIPRNIIYRFTCTLNGEPVIDVDMYPDVPKNPYFEFYAKVDKAGEFVFTWYDDDGGVYTATKPIKVD-MADAVPKVTVPSSAKAGETVKVEAWITHPMQSGTVKDANGKLIPRNIIYRFTCTLNGKPVIDVDMGPDVPKNPYFSFYAKVDKAGEFVFTWYDDDGGVYKATKPIKVD,ADDAKPRVKVPSSAKAGETVTVKALISHKMESGQRKDADGKLIPRSIINRFTCELNGVNVVDVAIDPAVSTNPYFEFDAKVDAAGEFKFTWYDDDGSVYEDVKPIAVA-ADDAKPRVKVPSSAKAGETVTVKALISHKMESGQRKDADGKLIPRSIINRFTCELNGVNVVDVAIDPAVSTNPYFEFDAKVDAAGEFKFTWYDDDGSVYEDVKPIAVA-ADDAKPRVKVPSSAKAGETVTVKALISHKMESGQRKDADGKLIPRSIINRFTCELNGVNVVDVAIDPAVSTNPYFEFDAKVDAAGEFKFTWYDDDGSVYEDVKPIAVA-ADDAKPRVKVPSSAKAGETVTVKALISHKMESGQRKDADGKLIPRSIINRFTCELNGVNVVDVAIDPAVSTNPYFEFDAKVDAAGEFKFTWYDDDGSVYEDVKPIAVA-ADDAKPRVKVPSSAKAGETVTVKALISHKMESGQRKDADGKLIPRSIINRFTCELNGVNVVDVAIDPAVSTNPYFEFDAKVDAAGEFKFTWYDDDGSVYEDVKPIAVA-ADDAKPRVKVPSSAKAGETVTVKALISHKMESGQRKDADGKLIPRSIINRFTCELNGVNVVDVAIDPAVSTNPYFEFDAKVDAAGEFKFTWYDDDGSVYEDVKPIAVA-ADDAKPRVKVPSSAKAGETVTVKALISHKMESGQRKDADGKLIPRSIINRFTCELNGVNVVDVAIDPAVSTNPYFEFDAKVDAAGEFKFTWYDDDGSVYEDVKPIAVA-ADDAKPRVKVPSSAKAGETVTVKALISHKMESGQRKDADGKLIPRSIINRFTCELNGVNVVDVAIDPAVSTNPYFEFDAKVDAAGEFKFTWYDDDGSVYEDVKPIAVA-ADDAKPRVKVPSSAKAGETVTVKALISHKMESGQRKDADGKLIPRSIINRFTCELNGVNVVDVAIDPAVSTNPYFEFDAKVDAAGEFKFTWYDDDGSVYEDVKPIAVA-ADDAKPRVKVPSSAKAGETVTVKALISHKMESGQRKDADGKLIPRSIINRFTCELNGVNVVDVAIDPAVSTNPYFEFDAKVDAAGEFKFTWYDDDGSVYEDVKPIAVA,GPAAAKDEIK-GPAAAKDYIG-GPAAGKKEIK-GAAAAKKVIK-GPAAAKDVVK-GAAAAKKVIG-GPAAGKNYIG-GPAAGKDVIG-GPAAAKDFVG-GDAAAKDYIG,GPAAADQRAA-GPAAADQRAA-GPAAADQRAA-GPAAADQRAA-GPAAADQRAA-GPAAADQRAA-GPAAADQRAA-GPAAADQRAA-GPAAADQRAA-GPAAADQRAA
