contacts,cs,ce,Chain,Length,designed_receptor_seq,native_receptor_seq,designed_binder_seq,native_binder_seq
16.0,63,73,A,10,MAEELKELAKELKEKGEKLLKELE-MIEELKELAKELKEKGEKLIKELK-MAEELVELAKELKEKGEKLIKEAK-MGEELKELAKKIKEAGEKLVKEAK-MGEELEKLAKELKEKLEKEIEELK-MEELLDELAKEIKEAGEKLKKELE-MEEELEKLAEELKKKLEEFIKNLE-MEEKLKELAKEIKEKGEKFIKELE-MGEELKELAKKIKEAGEKLKKELE-MAELLDELAKEIKEKGEKLIKELK,GSGTMENLSRRLKVTGDLFDIMSG-GSGTMENLSRRLKVTGDLFDIMSG-GSGTMENLSRRLKVTGDLFDIMSG-GSGTMENLSRRLKVTGDLFDIMSG-GSGTMENLSRRLKVTGDLFDIMSG-GSGTMENLSRRLKVTGDLFDIMSG-GSGTMENLSRRLKVTGDLFDIMSG-GSGTMENLSRRLKVTGDLFDIMSG-GSGTMENLSRRLKVTGDLFDIMSG-GSGTMENLSRRLKVTGDLFDIMSG,EEKKIVEELL-EEKKIIEELL-EEKEIVEKLL-EEKKKVEELV-EEKEKILKKL-EEKKKIEEKL-EEKKKIEELL-EEKEKILKLL-EEKKKVEELL-EEKEKILKKL,QSFEQVVNEL-QSFEQVVNEL-QSFEQVVNEL-QSFEQVVNEL-QSFEQVVNEL-QSFEQVVNEL-QSFEQVVNEL-QSFEQVVNEL-QSFEQVVNEL-QSFEQVVNEL
36.0,3,13,B,10,MEPLEKLVEKVVGEVLSSFGLHLSEEEAVKVALKGAMERFEEGFVKKYGPLEERLEITPENAYEIFKEVVEKLFEEGVNWEKIVAFYSFGEALKRYAVKNKLEELVEKIDEWVEEYYEKELKEWIEENGGWMKFVEEYGEE-MSPLKDLIEKTVGTLLSSKGLHLSEESAVETALKGACEIFEEGFNKKYGPLEKRLEITPENAYEIFKTVTEKLFKDGKNWEKIVAFYCFGNALKREAVKNKLEELVSKIDEWMKDYYKYELKDWIEENGGWMKFVEEYGKK-MKPLKELIEKTVGEALSSLGLHLSEEEAVKVALKGAREIFREGFEKKYGPLEERLEITPENAYEIFKEVVEKLFEKGVNWEKIVAFYSFGDALKEYSVKNKLEELVEKIEEWEKEYYEKELKEWIEKNGGWMKFVEEYGKK-MSPLKDLIEKTVGFLLSKKGLHLSEESAVETALKGAMEIFEEEFEKKYGPLEERLEITPENAYEIFKEVTEKLFEDGKNWEKIVAFYSFGKALKKYAVKNKLEELVEKIDEWMEEYYEKELKEWIEENGGWMKFVEEYGKK-MAPLKDLIEKTVGTLLSSQGLHLSEEAAVETALKGACEIFEEGFNKKYGPLSKRLKITPENAYEIFDTVTSLLFKDGVNWEKIVAFYCFGNALKEEAVRTKQEELVSKIEEWMNDYYSYELKDWIEENGGWMKFVELYGNK-MKPLKELIEKTVGELLSKKGLHLSEEEAVKTALKGAMEIFEEGFNKKYGPLEKRLEITPENAYEIFKEVTSLLFKDGVNWEKIVAFYSFGNALKRYAVENKLEELVEKIEEWMEEYYKKELKEWIEKNGGWMKFVEEYGKK-MEPLEELVERVVGELLSRRGLHLSEEEAVRVALRGARRRFREGFERRFGPLEERLEVTPENAYEIFREVVERLFREGVDWERVVAFYSFGDALVEYAVREGLEELAERIREWEREYYRRELREWIEENGGWMEFVRRYGRE-MEPLEKLVEEVVGELLSKLGLSLSEESAVKEALKGAKEIFREEFEKKYGPLEERLEITPENAYEIFKEVVEKLFEEGVNWRKIVAFYSFGDALKEYAVKNNLEELVEKIEEWEKEYYEKELKEWIEENGGWMEFVKEYGKK-MKPLKELIEETVGELLSKQGLHLSEESAVKEALKGAKEIFREGFEKKYGPIEERLEITPENAYEIFKEVTEKLFKDGVNWEKIVAFYSFGDALKKYAVKNKLEELVEKIDEWVEEYYEKELKDWIEENGGWMKFVEEYGKK-MKPLKDLIEETVGELLSKKGLHLSEEKAVEVALKGAMEIFEEEFEKKYGPLEKRLKITPENAYEIFKKVTEELFKDGVNWEKIVAFYSFGKALKKYAVENKLEELVEKIDEWMEEYYEKELKEWIEKNGGWMKFVEEYGKK,SQSNRELVVDFLSYKLSQKGYSWSQMAAVKQALREAGDEFELRYRRAFSDLTSQLHITPGTAYQSFEQVVNELFRDGVNWGRIVAFFSFGGALCVESVDKEMQVLVSRIAAWMATYLNDHLEPWIQENGGWDTFVELYGNN-SQSNRELVVDFLSYKLSQKGYSWSQMAAVKQALREAGDEFELRYRRAFSDLTSQLHITPGTAYQSFEQVVNELFRDGVNWGRIVAFFSFGGALCVESVDKEMQVLVSRIAAWMATYLNDHLEPWIQENGGWDTFVELYGNN-SQSNRELVVDFLSYKLSQKGYSWSQMAAVKQALREAGDEFELRYRRAFSDLTSQLHITPGTAYQSFEQVVNELFRDGVNWGRIVAFFSFGGALCVESVDKEMQVLVSRIAAWMATYLNDHLEPWIQENGGWDTFVELYGNN-SQSNRELVVDFLSYKLSQKGYSWSQMAAVKQALREAGDEFELRYRRAFSDLTSQLHITPGTAYQSFEQVVNELFRDGVNWGRIVAFFSFGGALCVESVDKEMQVLVSRIAAWMATYLNDHLEPWIQENGGWDTFVELYGNN-SQSNRELVVDFLSYKLSQKGYSWSQMAAVKQALREAGDEFELRYRRAFSDLTSQLHITPGTAYQSFEQVVNELFRDGVNWGRIVAFFSFGGALCVESVDKEMQVLVSRIAAWMATYLNDHLEPWIQENGGWDTFVELYGNN-SQSNRELVVDFLSYKLSQKGYSWSQMAAVKQALREAGDEFELRYRRAFSDLTSQLHITPGTAYQSFEQVVNELFRDGVNWGRIVAFFSFGGALCVESVDKEMQVLVSRIAAWMATYLNDHLEPWIQENGGWDTFVELYGNN-SQSNRELVVDFLSYKLSQKGYSWSQMAAVKQALREAGDEFELRYRRAFSDLTSQLHITPGTAYQSFEQVVNELFRDGVNWGRIVAFFSFGGALCVESVDKEMQVLVSRIAAWMATYLNDHLEPWIQENGGWDTFVELYGNN-SQSNRELVVDFLSYKLSQKGYSWSQMAAVKQALREAGDEFELRYRRAFSDLTSQLHITPGTAYQSFEQVVNELFRDGVNWGRIVAFFSFGGALCVESVDKEMQVLVSRIAAWMATYLNDHLEPWIQENGGWDTFVELYGNN-SQSNRELVVDFLSYKLSQKGYSWSQMAAVKQALREAGDEFELRYRRAFSDLTSQLHITPGTAYQSFEQVVNELFRDGVNWGRIVAFFSFGGALCVESVDKEMQVLVSRIAAWMATYLNDHLEPWIQENGGWDTFVELYGNN-SQSNRELVVDFLSYKLSQKGYSWSQMAAVKQALREAGDEFELRYRRAFSDLTSQLHITPGTAYQSFEQVVNELFRDGVNWGRIVAFFSFGGALCVESVDKEMQVLVSRIAAWMATYLNDHLEPWIQENGGWDTFVELYGNN,EKEELAEKLK-KKEELAKELE-KKEELAKELK-KKEELAKELK-EKEELAKELK-KKEELAKELK-EREELARRLR-EKEELAKKLK-EKEELAKRLK-EEEELAKELK,TMENLSRRLK-TMENLSRRLK-TMENLSRRLK-TMENLSRRLK-TMENLSRRLK-TMENLSRRLK-TMENLSRRLK-TMENLSRRLK-TMENLSRRLK-TMENLSRRLK
