contacts,cs,ce,Chain,Length,designed_receptor_seq,native_receptor_seq,designed_binder_seq,native_binder_seq
24.0,8,18,A,10,MRLQLMEMLDELVQLYEKHDQFQQWFDEHVETKSKDRQEIEAQWEREKAHLAQENRRWQREIEELEKKKIALAEELKKLDTLVAAALKEYPVYDSHSGAVFKAPTRGQAQLDNLGRLFSLLDTIVAKIQDMEKKGHISVQIKKAVDYALRKARHKVKAHIGHMLKPLS-DPEAQAREAEIVARIDRLKDKFEQYYEENLAALADKAAERNAAIDKQKAEYMLKQMKIEKLNEAARKKNEELERLLEALNAKLESLFKDTPKGSPLTGIRNINPTAGMEQMRLLRIAKEQYSDFVAQLEDSFANGSISQDIFDEVNASARAKGLKIDQHIESNTAPHT-PPPELQAQAEELEAAKQQRRDLERRHREEIAKQELLLEEKKELEHQRKQALKDENELLRERLRVEIQKLKSQEEYLVQEERRRSLLRAELKVYNPDEGYRYRAPSKGLMQRYLLVADSLTMEDLITRFEVFLALGLIPREVYEIVGVHLAIRQEIVKQHLKSMEEPLI-AKSQAKREADRLRRKRDEHNAKLKHHNEYVNVMSYSSSAIVANNKAYNKKFTVNANNSADDMALKRLEHTAKGVEKIAKDAKIKAKGIEDHWAVTDVGLFRKAKTAGEAQVESLKHDIIQSKNRRDEMLKQLAAGKITAAEYERNSKAVEADRVALVAHLNRIIAPLK-GAMDYNAEAFRRMEQALRQFKENLEYAENIAVLSNDKKSVIDYWDDWQEAKRRFEEDRATAEWERRQLEEAALKEEAERRRLLEQMAIDAELDDERYGRMIKAATLGWDQLDLLRYRYSKLGGQIAQLQEQLAAGIITRQTFLTTGQALRKEQQAVEKHIGQITAPLQ-MPLLLPLIFGALLYAGFIAFLGWRYYTQVVHTKKEGNRAWLASREEYFRRQTEAEAYYAAFHQERETFMESRARAEREMRKLTDAKRAFFDNANTNKVAARLAPTDGVRQIQQLRYKRRRSDEMISWYQAFHQEGIIPQSAFDQKSAELVQRKAEVEAWLNRMLSPLP-SNAMRWKAGWGLLCAGTLLGVGVYVYRTHIAIADRHSEQYRANLVKHNEQYLQEGEKYRAQVETDLAYLEAENKALDEREAKLNALYAEANTASINSREVAQAKTEGEQQIDDLIKQQIATVDAIRRDKIDLDNGKISQATFNTIGTKLSAYGTTVREWIDKMTAPYN-MPFLEKIERQAEKIRRERERIYEEQYKKYERVKDKNKEEKLQREIEEAKAREEEIRRLEHEAEIARKKAEEKAQILKEKERIYEEQLRYEDVGPEDIGEVLTAPTPGHEQLRLLMREVNIINDVIAYMEEALEAGAITQEAFDEAKAKWEKLREDVVKWIYSITKPLT-SNAERDIDRQAAIDRLLLQQQAEQLYNDEQKVRLANEEQRLEDLRTKVEQGKTAIERIETDREEHRRQQQEAEIARKAEEKALRKARETEKLHSSHKGKTWQAPTQGEAQIRDLVRANAKISGYIQFLTMHRDAGTIPQDRFNSENTRFSEIQRQVNKHIGIMLAPHP-IPMELRVEIDEMLARIQEAEKEIAFLNENVRIHMEDATKRIAQLERTLKRYEEEIEARKEAVRLLTQKVEELEKILQEKEIKVRALKEVIPITDWRVGYEKREPTAGAAQIRDLLWEIELLEKSIKVLEHAHKVGLIPRSVFETAKEDLERRYKLAKEHLKKILEPLR,PTNHHEMLQNLQTVVNELYREDVDYVADKILTRQTVMQESIARFHEIIAIDKNHLRAVEQAIEQTMHSLNAQIDVLTANRAKVQQFSSTSHVDDEDVNSIAVAKTDGLNQLYNLVAQDYALTDTIECLSRMLHRGTIPLDTFVKQGRELARQQFLVRWHIQRITSPLS-PTNHHEMLQNLQTVVNELYREDVDYVADKILTRQTVMQESIARFHEIIAIDKNHLRAVEQAIEQTMHSLNAQIDVLTANRAKVQQFSSTSHVDDEDVNSIAVAKTDGLNQLYNLVAQDYALTDTIECLSRMLHRGTIPLDTFVKQGRELARQQFLVRWHIQRITSPLS-PTNHHEMLQNLQTVVNELYREDVDYVADKILTRQTVMQESIARFHEIIAIDKNHLRAVEQAIEQTMHSLNAQIDVLTANRAKVQQFSSTSHVDDEDVNSIAVAKTDGLNQLYNLVAQDYALTDTIECLSRMLHRGTIPLDTFVKQGRELARQQFLVRWHIQRITSPLS-PTNHHEMLQNLQTVVNELYREDVDYVADKILTRQTVMQESIARFHEIIAIDKNHLRAVEQAIEQTMHSLNAQIDVLTANRAKVQQFSSTSHVDDEDVNSIAVAKTDGLNQLYNLVAQDYALTDTIECLSRMLHRGTIPLDTFVKQGRELARQQFLVRWHIQRITSPLS-PTNHHEMLQNLQTVVNELYREDVDYVADKILTRQTVMQESIARFHEIIAIDKNHLRAVEQAIEQTMHSLNAQIDVLTANRAKVQQFSSTSHVDDEDVNSIAVAKTDGLNQLYNLVAQDYALTDTIECLSRMLHRGTIPLDTFVKQGRELARQQFLVRWHIQRITSPLS-PTNHHEMLQNLQTVVNELYREDVDYVADKILTRQTVMQESIARFHEIIAIDKNHLRAVEQAIEQTMHSLNAQIDVLTANRAKVQQFSSTSHVDDEDVNSIAVAKTDGLNQLYNLVAQDYALTDTIECLSRMLHRGTIPLDTFVKQGRELARQQFLVRWHIQRITSPLS-PTNHHEMLQNLQTVVNELYREDVDYVADKILTRQTVMQESIARFHEIIAIDKNHLRAVEQAIEQTMHSLNAQIDVLTANRAKVQQFSSTSHVDDEDVNSIAVAKTDGLNQLYNLVAQDYALTDTIECLSRMLHRGTIPLDTFVKQGRELARQQFLVRWHIQRITSPLS-PTNHHEMLQNLQTVVNELYREDVDYVADKILTRQTVMQESIARFHEIIAIDKNHLRAVEQAIEQTMHSLNAQIDVLTANRAKVQQFSSTSHVDDEDVNSIAVAKTDGLNQLYNLVAQDYALTDTIECLSRMLHRGTIPLDTFVKQGRELARQQFLVRWHIQRITSPLS-PTNHHEMLQNLQTVVNELYREDVDYVADKILTRQTVMQESIARFHEIIAIDKNHLRAVEQAIEQTMHSLNAQIDVLTANRAKVQQFSSTSHVDDEDVNSIAVAKTDGLNQLYNLVAQDYALTDTIECLSRMLHRGTIPLDTFVKQGRELARQQFLVRWHIQRITSPLS-PTNHHEMLQNLQTVVNELYREDVDYVADKILTRQTVMQESIARFHEIIAIDKNHLRAVEQAIEQTMHSLNAQIDVLTANRAKVQQFSSTSHVDDEDVNSIAVAKTDGLNQLYNLVAQDYALTDTIECLSRMLHRGTIPLDTFVKQGRELARQQFLVRWHIQRITSPLS,NVKYESNRKA-YTDLSSIKGI-PELLEFCFIP-DKDFAEKVAV-EETLSITVEV-EAQFFYRRRY-DTNFDTARYK-EEYFLKTAGP-GKQFETRQNW-PMAYRTRMEF,SQLFHDEVPL-SQLFHDEVPL-SQLFHDEVPL-SQLFHDEVPL-SQLFHDEVPL-SQLFHDEVPL-SQLFHDEVPL-SQLFHDEVPL-SQLFHDEVPL-SQLFHDEVPL
24.0,149,159,B,10,PVVEREDVADEFSPLKHLWGATHSKRDVALIVVYGEMFALDMTMERIHNEYNAQRITRLVYRDKVDAIQISRSVLASRLSELGEGDTERIRQ-GDKINSDEKIEQALVNPLFNEHHTQKDVSIINAYGQLEAIIAAQNEVRAMKKANLISDAEFNKKIEDLTERKAQAEEEIKKLGKGDITILSK-GSMESKTRQILSLPERELFYHRTSERDRDLVITYGHLYAIDVTRDEVNREYEAKRITREQKSKILKDLNEEEKRWREKLIEVGKGDIVRLKG-MTSSEANLLEYTREYSGLLTSKHSEKDMRIILCRGTIYAIQERLLHIHRLKETNLISHQAYAEQVVHLERKMDLNREEEASLGKDDICNLKG-MVVDLQQVEKQWEPYKPLFGDKESNKDKEIISIHGLLYALDVLMDDLMYLFEREEIDYEEFGYKISIAQNMREDMLKDVDENGVNDLQRLKD-DRRLFSNRDILALPTHYLNNGDMTDRDKKIINTYGTLYAIMCEQGIVRQQYQNNEIEITELVQKLSEIKNDRIIAISKLEESGGGDIDRIKE-MLVASSEYAEEVLPMVGIFEDFHTSADIEIIIVNGGLYKIAGRLGEIESDYRNKLVSDETYELKTRDLNKQKIRLERSLQTSGRNDLDILKG-EAALNKIIQQAQKPQKGFLGREITLRDAKVVANYGELYALEKKRGELRKKFQNQEITVKEFESKMKDIENKYEQRNQHLLNLGEGNIARLRE-PLSMTKYVETDFKPRTSLFGKRHTADDIAVINAYAKLYEINATLTTINTDYNQRRIDDTEYNSKISFLQTKRELYLKTITSMNMNVVTKLKG-SVIQSIVNQIQNLPDTPIFNDHDTQQDKAIVAAHGLLYALDAEEKKKDKLYKAENINRTEYNTRMKKLRKERDKVEADIANLGLSDLQALKK,KLNQNQDISQLFHDEVPLFDNSITSKDKEVIETLSEIYSIVITLDHVEKAYLKDSIDDTQYTNTVDKLLKQFKVYLNSQNKEESNAITRLER-KLNQNQDISQLFHDEVPLFDNSITSKDKEVIETLSEIYSIVITLDHVEKAYLKDSIDDTQYTNTVDKLLKQFKVYLNSQNKEESNAITRLER-KLNQNQDISQLFHDEVPLFDNSITSKDKEVIETLSEIYSIVITLDHVEKAYLKDSIDDTQYTNTVDKLLKQFKVYLNSQNKEESNAITRLER-KLNQNQDISQLFHDEVPLFDNSITSKDKEVIETLSEIYSIVITLDHVEKAYLKDSIDDTQYTNTVDKLLKQFKVYLNSQNKEESNAITRLER-KLNQNQDISQLFHDEVPLFDNSITSKDKEVIETLSEIYSIVITLDHVEKAYLKDSIDDTQYTNTVDKLLKQFKVYLNSQNKEESNAITRLER-KLNQNQDISQLFHDEVPLFDNSITSKDKEVIETLSEIYSIVITLDHVEKAYLKDSIDDTQYTNTVDKLLKQFKVYLNSQNKEESNAITRLER-KLNQNQDISQLFHDEVPLFDNSITSKDKEVIETLSEIYSIVITLDHVEKAYLKDSIDDTQYTNTVDKLLKQFKVYLNSQNKEESNAITRLER-KLNQNQDISQLFHDEVPLFDNSITSKDKEVIETLSEIYSIVITLDHVEKAYLKDSIDDTQYTNTVDKLLKQFKVYLNSQNKEESNAITRLER-KLNQNQDISQLFHDEVPLFDNSITSKDKEVIETLSEIYSIVITLDHVEKAYLKDSIDDTQYTNTVDKLLKQFKVYLNSQNKEESNAITRLER-KLNQNQDISQLFHDEVPLFDNSITSKDKEVIETLSEIYSIVITLDHVEKAYLKDSIDDTQYTNTVDKLLKQFKVYLNSQNKEESNAITRLER,ALYRFLKNFK-SEAQFYTHFK-PYEKFLEDFQ-AQKQFLVYFR-SFIGYIKRFS-HYDEFIARFE-IIVKFLWDFR-PYQEFLDRFA-SYYLFITNFK-HYVDFLTSFK,ARQQFLVRWH-ARQQFLVRWH-ARQQFLVRWH-ARQQFLVRWH-ARQQFLVRWH-ARQQFLVRWH-ARQQFLVRWH-ARQQFLVRWH-ARQQFLVRWH-ARQQFLVRWH
