contacts,cs,ce,Chain,Length,designed_receptor_seq,native_receptor_seq,designed_binder_seq,native_binder_seq
24.0,8,18,A,10,SPEEAERLRQLEEENRELKRRLEEFYREHVEVLKEREEELRRLEEENRELERRLEEENRELERRLEEENRELERRLEELERRLEELRREVELEEPDLGKLVRAPTEGARQLLELLRRREELRELVELLEEALEEGLIPEEVFEEVREELEEERERVEEWIERMLEPLE-APAEAERLRQELERLEEEKRRLEEWYRREVEVLEREREELERRREELERRREELERRLEEEVRRLEEEVRRLEEELRRLEEEVRRLLEEVEVPEEDLGRLVRAPTEGARQLLELLRRREELERLVEELERLLEEGVIPEEVFREVRERLEEERERVEEWIRRMLEPLL-MPEELLELLNELERLKEENRRLEEFYRENVEVLKEKEEELKRLEEELKRLEEELKRLEEELKRLEEELKRLEEELKRLEEELKRLEEELKEKLEPLLGLLVRAPTEGALQLLLLLLLLELLEGLVEALEEALEEGLIPEEVFEEVKERLEEAKERVEEWIRRMLEPLE-SPEELERLREEVERLREEVERLREEYEREVRVLEERREELERLREEVERLREEVERLREELERLREELERLREELERLREELERLREELEERLRPELGLLVRAPTLGLEQLRLLLLLRELLEELVELLEEALREGRIPEEVFREVRERLEELRERVEEWIERMLRPLL-SPEEAERLRQLEEENRELKRRLEEFYREHIEVLKEKEEELRRLEEENRELERRLEEENRELERRLEEENRELERRLEELERRLEELRREVEVLEPDLGRLVRAPTEGARQLEELLRRREELRELVERLRELLEEGVIPEEVFEEVRERLEEERERVEEWIERMLEPLE-SPAEAERLRQLLEENERLKEELERLYREEVEVLKEREEERRRREEERRRREEEERRRREEEERRREEERRRREEERRRREEEERRRREEEEEVEEDLGRLVRAPTEGARQLLELLRRREELRELVEELRRLLEEGRIPEEVFREVGERLEEERRRVEEWIERMLRPLL-SPEEAERLRQELERLEEEKRRLEEWYREHVEVLREREEERRRLEEERRRLEEERRRLEEERRRLEEERRRLEEERRRLEEERRRLEEELRERGRPELGRLLRAPTEGAAQLRRLLEERERLRELVEELRRLLEEGRIPEEVFREVGERLEERLREVEEWIRRMLEPLL-SPEELEKLKEELERLKEELERLKEEYEKKVKVLEEKKEELEKLKEELERLKEELERLKEELERLKEELERLKEELERLKEELERLKEELEELEEEDLGKLIRAPTLGALQLRLLLLAREALEGLVEALEEALEEGLIPEEVFEEVKEELERLKEEVERWIEEMLEPLE-SPEEAERLRQLLEENEELKRRLEEFYREHVEVLEKDREELLRRLEEEVRRLEEEVRRLEEEVRRLEEEVRRLEEEVRRLEEEVRRLLEEVEVPEEDLGRLVRAPTEGARQLLELLRRREELRRLVEELERLLEEGVIPEEVFRRVREELERERERVEEWIRRMLEPLL-SPAEAERLRQLEEENRRLEEENRRLEEEFVRVLEEKKEELRRLEEENRRLEEENRRLEEENRRLEEENRRLEEENRRLEEENRRLEEENRRLEEENRGLLRRAPTEGAEQLRLLLERRDLLRELIELLREALEEGRIPEEVFEEVREEFEREREEVERHIEEMLRPLE,PTNHHEMLQNLQTVVNELYREDVDYVADKILTRQTVMQESIARFHEIIAIDKNHLRAVEQAIEQTMHSLNAQIDVLTANRAKVQQFSSTSHVDDEDVNSIAVAKTDGLNQLYNLVAQDYALTDTIECLSRMLHRGTIPLDTFVKQGRELARQQFLVRWHIQRITSPLS-PTNHHEMLQNLQTVVNELYREDVDYVADKILTRQTVMQESIARFHEIIAIDKNHLRAVEQAIEQTMHSLNAQIDVLTANRAKVQQFSSTSHVDDEDVNSIAVAKTDGLNQLYNLVAQDYALTDTIECLSRMLHRGTIPLDTFVKQGRELARQQFLVRWHIQRITSPLS-PTNHHEMLQNLQTVVNELYREDVDYVADKILTRQTVMQESIARFHEIIAIDKNHLRAVEQAIEQTMHSLNAQIDVLTANRAKVQQFSSTSHVDDEDVNSIAVAKTDGLNQLYNLVAQDYALTDTIECLSRMLHRGTIPLDTFVKQGRELARQQFLVRWHIQRITSPLS-PTNHHEMLQNLQTVVNELYREDVDYVADKILTRQTVMQESIARFHEIIAIDKNHLRAVEQAIEQTMHSLNAQIDVLTANRAKVQQFSSTSHVDDEDVNSIAVAKTDGLNQLYNLVAQDYALTDTIECLSRMLHRGTIPLDTFVKQGRELARQQFLVRWHIQRITSPLS-PTNHHEMLQNLQTVVNELYREDVDYVADKILTRQTVMQESIARFHEIIAIDKNHLRAVEQAIEQTMHSLNAQIDVLTANRAKVQQFSSTSHVDDEDVNSIAVAKTDGLNQLYNLVAQDYALTDTIECLSRMLHRGTIPLDTFVKQGRELARQQFLVRWHIQRITSPLS-PTNHHEMLQNLQTVVNELYREDVDYVADKILTRQTVMQESIARFHEIIAIDKNHLRAVEQAIEQTMHSLNAQIDVLTANRAKVQQFSSTSHVDDEDVNSIAVAKTDGLNQLYNLVAQDYALTDTIECLSRMLHRGTIPLDTFVKQGRELARQQFLVRWHIQRITSPLS-PTNHHEMLQNLQTVVNELYREDVDYVADKILTRQTVMQESIARFHEIIAIDKNHLRAVEQAIEQTMHSLNAQIDVLTANRAKVQQFSSTSHVDDEDVNSIAVAKTDGLNQLYNLVAQDYALTDTIECLSRMLHRGTIPLDTFVKQGRELARQQFLVRWHIQRITSPLS-PTNHHEMLQNLQTVVNELYREDVDYVADKILTRQTVMQESIARFHEIIAIDKNHLRAVEQAIEQTMHSLNAQIDVLTANRAKVQQFSSTSHVDDEDVNSIAVAKTDGLNQLYNLVAQDYALTDTIECLSRMLHRGTIPLDTFVKQGRELARQQFLVRWHIQRITSPLS-PTNHHEMLQNLQTVVNELYREDVDYVADKILTRQTVMQESIARFHEIIAIDKNHLRAVEQAIEQTMHSLNAQIDVLTANRAKVQQFSSTSHVDDEDVNSIAVAKTDGLNQLYNLVAQDYALTDTIECLSRMLHRGTIPLDTFVKQGRELARQQFLVRWHIQRITSPLS-PTNHHEMLQNLQTVVNELYREDVDYVADKILTRQTVMQESIARFHEIIAIDKNHLRAVEQAIEQTMHSLNAQIDVLTANRAKVQQFSSTSHVDDEDVNSIAVAKTDGLNQLYNLVAQDYALTDTIECLSRMLHRGTIPLDTFVKQGRELARQQFLVRWHIQRITSPLS,EEELEEEEEE-EERLRERVEE-EELLEEEEEE-EELLEERLPP-EEELRERVEE-EERLRERREE-EEELRERREE-EEELEEEREL-EERLRERVEE-EEELRERREL,SQLFHDEVPL-SQLFHDEVPL-SQLFHDEVPL-SQLFHDEVPL-SQLFHDEVPL-SQLFHDEVPL-SQLFHDEVPL-SQLFHDEVPL-SQLFHDEVPL-SQLFHDEVPL
24.0,149,159,B,10,GSHMSEELKKLFEPKKGLFGEEHTEEDKKIIIAYGKLYAIDKELEEIKKKYEEKEITEEEYNKKVEELKKEKEELEKKLEELGKGDLERLKE-GSHMSEELKKLFAPKKGLFGEKHTEKDKEIIIAYGKLYAIDKELEEIKKKYEEKKITEEEYNKKVEELEKEKEKLEKELEELGKGDIERLKE-GSHMSEELKKLFEPLKPLFGEEHTEEDKKIIIAHGKLYAIDKELEEIRKKYEEKKISEEEYNKKVEELEKEKEELEKKLEELGKGDIERLKG-GSHMDNLKELLNLPEKGLFGEKHTEKDKEIIIAYGKLYAIDKELEEINKKYENKEITEEEYNKKVEELKKEKEELEKKIEELGGGDIERLKE-GSHMAELEKLLNLPEKPLFGEKHTEKDKEIIIAYGKLYAIDKELEEIRKKYEEKEITEEEYNKKVEELEKEKEKLEKKIEELGEGDIERLKE-GSHMSEEIKKLFEPLKPLFGEKHTEKDKEIIIAHGKLYAIDKELEEIKKKYEEKKIDEKEYNEKVKKLEEEKKKLEEKLKELGKGDIERLKE-GSHMSGLEELLNLPEKPLFGEKHSEKDKEIIIAHGKLYAIDKELEEIKKKYEEKKITEEEYNKKVEELKKEKEKLEKKLKELGEGDIERLKG-GSHMSELEKLLNLPEKGLFGEEHSEEDKKIIIAHGKLYAIDKELEEIKKKYEEKEIDEKEYNEKVKELEKEKEKLEKELEELGKGDIERLKE-MEKLEKLKELLEKPKKGLFGEKHTEKDKEIIIAYGKLYAIDKELEEIKKKYEEKKITEEEYNKKVEELKKEKEKLEKKLKELGKGDLEKLKE-GSHMSELEKLLNLPEKGLFGEKHSEKDKEIIIAYGKLYAIDEELKEIKEKYNNKEITEEEYNKKVEELKKEKEKLEKKLEELGKGDIERLKG,KLNQNQDISQLFHDEVPLFDNSITSKDKEVIETLSEIYSIVITLDHVEKAYLKDSIDDTQYTNTVDKLLKQFKVYLNSQNKEESNAITRLER-KLNQNQDISQLFHDEVPLFDNSITSKDKEVIETLSEIYSIVITLDHVEKAYLKDSIDDTQYTNTVDKLLKQFKVYLNSQNKEESNAITRLER-KLNQNQDISQLFHDEVPLFDNSITSKDKEVIETLSEIYSIVITLDHVEKAYLKDSIDDTQYTNTVDKLLKQFKVYLNSQNKEESNAITRLER-KLNQNQDISQLFHDEVPLFDNSITSKDKEVIETLSEIYSIVITLDHVEKAYLKDSIDDTQYTNTVDKLLKQFKVYLNSQNKEESNAITRLER-KLNQNQDISQLFHDEVPLFDNSITSKDKEVIETLSEIYSIVITLDHVEKAYLKDSIDDTQYTNTVDKLLKQFKVYLNSQNKEESNAITRLER-KLNQNQDISQLFHDEVPLFDNSITSKDKEVIETLSEIYSIVITLDHVEKAYLKDSIDDTQYTNTVDKLLKQFKVYLNSQNKEESNAITRLER-KLNQNQDISQLFHDEVPLFDNSITSKDKEVIETLSEIYSIVITLDHVEKAYLKDSIDDTQYTNTVDKLLKQFKVYLNSQNKEESNAITRLER-KLNQNQDISQLFHDEVPLFDNSITSKDKEVIETLSEIYSIVITLDHVEKAYLKDSIDDTQYTNTVDKLLKQFKVYLNSQNKEESNAITRLER-KLNQNQDISQLFHDEVPLFDNSITSKDKEVIETLSEIYSIVITLDHVEKAYLKDSIDDTQYTNTVDKLLKQFKVYLNSQNKEESNAITRLER-KLNQNQDISQLFHDEVPLFDNSITSKDKEVIETLSEIYSIVITLDHVEKAYLKDSIDDTQYTNTVDKLLKQFKVYLNSQNKEESNAITRLER,AFKEFLKEFK-AFEEFLKEFK-AYKEFLKEFK-AFKEFLKKFK-AFEEFLKKFK-AFEEFLKKFK-AYEEFLKKFK-AFKEFLKEFK-AFEEFLKKFK-AYKKFLEEFK,ARQQFLVRWH-ARQQFLVRWH-ARQQFLVRWH-ARQQFLVRWH-ARQQFLVRWH-ARQQFLVRWH-ARQQFLVRWH-ARQQFLVRWH-ARQQFLVRWH-ARQQFLVRWH
