contacts,cs,ce,Chain,Length,designed_receptor_seq,native_receptor_seq,designed_binder_seq,native_binder_seq
24.0,18,28,A,10,FPKWLYLHEMALAGTGNDKFEAAEDIAHILHTEGRLEDVMHIKLSAYARGDYKKALENGTAVDYPMLEPSLALCNFKLGWTDELEARLLKMAKSDDDKIQVFVDGRVELG-MNDLSLMYMNALVGVGSDQHQEAKEIAQTLSFFGLKEEVMRITLADLNQGQHEAALQLGLAHDYPALQPLLAECEYNLGNDVALTSQLVIMEKSSDDLTQQFVAGYQQLM-SNVLTYQFNLALMGVHTNQTNQAKQIADQLNQEGYKEKVLLIELSSQSQGQFQESLDMGRQQDYQYLQPFLAIDEYNLGLNQELQQQLDKMRQSENPLMLQFVAGLNQLQ-QKEDEFLFALALIGTGNFAYEEAAFIADHLSTQGQFEKVLAIKLSAYNQGQNEIALKEGLAFPFNALRPLLAICQYQMGQTEELEGTLDEMAQSTDPNIQAFVEAKMQLE-GSHMEKLYLYAMYGTGTKQYEIAKDIADILNTQGEEEKVQAILLSALQQGNWQKALDYGLNKQYPKLAPYLALCEYQMGLVEELNKRLDILSKSDDNTIKNFVEGLESLN-FWCLPYLAEIALFGTGNKKHEEAERIAKLLEKYGLHEWVLYIKLSALNRGDFEESAKLGKANHYPKLQPFLALDDYNMGKVEALKARLKEMQKSKDPKIQTFVGGQGNLG-GKTLTAFFLLALVGTHTDHFDAAQRIADQLTAEGMHEKVQEIKLSAMNQGDYEGMLKEGLAEKFPELEPMLAVCAFELGKDLLLDSMLRTMEKSDDEHIQQFVTALDELE-MNELTRLFILALFGTGNKRYDEAYEIADLLEVKGHIENVMRIQLAAQAKGNYLGALVSGKQKEYDRLKPELALCEYLLNYRKELQESLELMKESDDVRIQKFVKGLEALE-AELDSFIYNFALYGVGNNQHERALTAAQWLEKTGLLERVMAIRLSSLSEGKYQEALELGESFPYPKLRPALALCEYKLGLKERLSENLEEMEKSDDPRIKLFVRGIESLR-NKIDTSMFELALFGTGSFNHNAAARIAEHLNKEGRDEWVQKIKLSALSMGFYEEALDHGEAVAYPLLQPELALCQYKLGKTEDLLASLTKLKASDDTIIQDFVKGIEALS,YKLNVLLAEIALIGTGNHYHEEANCIAEWLHLKGEEEAVQLIRLSSLNRGDYASALQQGNKLAYPDLEPWLALCEYRLGLGSALESRLNRLARSQDPRIQTFVNGREQLK-YKLNVLLAEIALIGTGNHYHEEANCIAEWLHLKGEEEAVQLIRLSSLNRGDYASALQQGNKLAYPDLEPWLALCEYRLGLGSALESRLNRLARSQDPRIQTFVNGREQLK-YKLNVLLAEIALIGTGNHYHEEANCIAEWLHLKGEEEAVQLIRLSSLNRGDYASALQQGNKLAYPDLEPWLALCEYRLGLGSALESRLNRLARSQDPRIQTFVNGREQLK-YKLNVLLAEIALIGTGNHYHEEANCIAEWLHLKGEEEAVQLIRLSSLNRGDYASALQQGNKLAYPDLEPWLALCEYRLGLGSALESRLNRLARSQDPRIQTFVNGREQLK-YKLNVLLAEIALIGTGNHYHEEANCIAEWLHLKGEEEAVQLIRLSSLNRGDYASALQQGNKLAYPDLEPWLALCEYRLGLGSALESRLNRLARSQDPRIQTFVNGREQLK-YKLNVLLAEIALIGTGNHYHEEANCIAEWLHLKGEEEAVQLIRLSSLNRGDYASALQQGNKLAYPDLEPWLALCEYRLGLGSALESRLNRLARSQDPRIQTFVNGREQLK-YKLNVLLAEIALIGTGNHYHEEANCIAEWLHLKGEEEAVQLIRLSSLNRGDYASALQQGNKLAYPDLEPWLALCEYRLGLGSALESRLNRLARSQDPRIQTFVNGREQLK-YKLNVLLAEIALIGTGNHYHEEANCIAEWLHLKGEEEAVQLIRLSSLNRGDYASALQQGNKLAYPDLEPWLALCEYRLGLGSALESRLNRLARSQDPRIQTFVNGREQLK-YKLNVLLAEIALIGTGNHYHEEANCIAEWLHLKGEEEAVQLIRLSSLNRGDYASALQQGNKLAYPDLEPWLALCEYRLGLGSALESRLNRLARSQDPRIQTFVNGREQLK-YKLNVLLAEIALIGTGNHYHEEANCIAEWLHLKGEEEAVQLIRLSSLNRGDYASALQQGNKLAYPDLEPWLALCEYRLGLGSALESRLNRLARSQDPRIQTFVNGREQLK,NSRVLSALDL-NAELREAMGL-GSNVIGALTL-GISAFEAVRI-NELVKNARLN-PAKVVDAVRF-GHKARTALYF-NEEIRAAIEI-EEEIATALLF-NYSVADAVLF,NSTIVRSKDL-NSTIVRSKDL-NSTIVRSKDL-NSTIVRSKDL-NSTIVRSKDL-NSTIVRSKDL-NSTIVRSKDL-NSTIVRSKDL-NSTIVRSKDL-NSTIVRSKDL
17.0,3,13,B,10,MIEEVKDVLREFEELLSIDEATEKRAERLGMFASIP-SRASVKELISQVASKLLVDAKHVSASATQGMNSQVP-ILDSLNTKIAKLKSKYNIDGNTVTNYKNQLALLTIP-DEIKLRDLINKFKTKKNIGDKEVGRITELFGFLTVP-ELQELQDRIDKFSSHFEVDGDTVAAVEFLQDLKNIP-LDAALQAVIDRWEALLDVDKATVDGAVNKTVVKGIP-TYAQLKTAIAAVPQEFDIDENTVQRALEKLELLKIP-IKDVLKEKIARFPSLFDVGDEAVKKLNSAKLLFGVS-KIEAAEKLVNKLSSILDIDGKEKDELKALDFFKEIP-MRERLLEKINAVSRRKNINGYQVLNWRFEDFIDRLN,LLADLQHSINKWSVIYNINSTIVRSKDLQGILQKFP-LLADLQHSINKWSVIYNINSTIVRSKDLQGILQKFP-LLADLQHSINKWSVIYNINSTIVRSKDLQGILQKFP-LLADLQHSINKWSVIYNINSTIVRSKDLQGILQKFP-LLADLQHSINKWSVIYNINSTIVRSKDLQGILQKFP-LLADLQHSINKWSVIYNINSTIVRSKDLQGILQKFP-LLADLQHSINKWSVIYNINSTIVRSKDLQGILQKFP-LLADLQHSINKWSVIYNINSTIVRSKDLQGILQKFP-LLADLQHSINKWSVIYNINSTIVRSKDLQGILQKFP-LLADLQHSINKWSVIYNINSTIVRSKDLQGILQKFP,KKRKKEELLL-IVTQLQDMVE-LQFACQEILN-EIQKCLEELT-EVKSWKKKCA-AGTLVKEKLI-QRDEIEEYLL-EERDLMVFLE-LREELIRLDI-EGRRALEVLE,NVLLAEIALI-NVLLAEIALI-NVLLAEIALI-NVLLAEIALI-NVLLAEIALI-NVLLAEIALI-NVLLAEIALI-NVLLAEIALI-NVLLAEIALI-NVLLAEIALI
