contacts,cs,ce,Chain,Length,designed_receptor_seq,native_receptor_seq,designed_binder_seq,native_binder_seq
24.0,62,72,A,10,MSITQEEIDLIPFFLKMTEMGNESLEAALKGEYVELKAKVEALRQKLNEALEAAKTNEEARLKAGEERAAKEAELAALAAKQALEDK-EKITQEEIDLIIYHRISLLNGVSSEEVKKIGGYEELKQRVEALEKDLLTAYEAAKEEAQKAEAEGKAKAEQEAAAKAAAEKAAAEKA-MAVTQEEIDLVPFYAYAQSLGRKSEAELRGAAYDDLKARVDALQTRLDAAYAEAVKAEQARLAEGAKRDAALAAAKARAEAEAAAAK-MAISQEQIDLIPFYAQRKLAGLADEATLAGQAYDELKAKVLALREPLLAARDAALAGKTAEEARGKLLAAAEAAREAALAEAERLSG-VEVTQEEVDMIDFYLKLREAGVRDLNELAGGEFEELKKKVEALKDKLEKAYEEAKKNAEAERERGLERERERERERERERERERERE-MKVTQEEIDLIPFFIDYLAGGIPDELERKGEEWVELKEQVEALRARLEAALAAAEAEAEAERRAREEAERRREAERRAREEAERRAR-MKITQEEVNLIPFYLMRLEKGIKSKEELEGGIYEELKKKVDALKEKLEEAYQEEIENLKAKEKAGEEAKRLLEAQRLAEEYKKKGEE-MAITQEEIDLIPFFAFAREAGKKSLEELAGGEYLQLKAKVEALEKPLLEAYQAALKGAEEERKAGEEARAAEEAAARLAELQAKLAE-SNVTDEEINLIPFYVLKQLANQPEEEMLAGDFYTELKKQVDELKAKLDAAHKAAEEGAQAAEAAGARAEQERQAELAAAQLAAVRAT-SSITNEQINLIPYFRYSMKSGMTDSEFVKGEEFEELKEKVDKLQSDLLTAYENKKKGLEEIKEKGVKLQELEEKARREVEELVKKYK,VDLSDEEKDSIYFASLVEKKSRPLNEILEDSKLQNLAQRVFASKARLNYALNDKAQKYNTLIENGKISEINIYDRLLEQQLQSINLS-VDLSDEEKDSIYFASLVEKKSRPLNEILEDSKLQNLAQRVFASKARLNYALNDKAQKYNTLIENGKISEINIYDRLLEQQLQSINLS-VDLSDEEKDSIYFASLVEKKSRPLNEILEDSKLQNLAQRVFASKARLNYALNDKAQKYNTLIENGKISEINIYDRLLEQQLQSINLS-VDLSDEEKDSIYFASLVEKKSRPLNEILEDSKLQNLAQRVFASKARLNYALNDKAQKYNTLIENGKISEINIYDRLLEQQLQSINLS-VDLSDEEKDSIYFASLVEKKSRPLNEILEDSKLQNLAQRVFASKARLNYALNDKAQKYNTLIENGKISEINIYDRLLEQQLQSINLS-VDLSDEEKDSIYFASLVEKKSRPLNEILEDSKLQNLAQRVFASKARLNYALNDKAQKYNTLIENGKISEINIYDRLLEQQLQSINLS-VDLSDEEKDSIYFASLVEKKSRPLNEILEDSKLQNLAQRVFASKARLNYALNDKAQKYNTLIENGKISEINIYDRLLEQQLQSINLS-VDLSDEEKDSIYFASLVEKKSRPLNEILEDSKLQNLAQRVFASKARLNYALNDKAQKYNTLIENGKISEINIYDRLLEQQLQSINLS-VDLSDEEKDSIYFASLVEKKSRPLNEILEDSKLQNLAQRVFASKARLNYALNDKAQKYNTLIENGKISEINIYDRLLEQQLQSINLS-VDLSDEEKDSIYFASLVEKKSRPLNEILEDSKLQNLAQRVFASKARLNYALNDKAQKYNTLIENGKISEINIYDRLLEQQLQSINLS,EAVLALWEKG-AEVLAVWKAG-GEVRRLWAEG-DAVLAAWQEA-GEVLEKWRKG-REVLALWEAG-GELLELWRKG-EEVLALWRMG-DQLLAVWQEG-GPVLDLWKVG,LSLRQVLANA-LSLRQVLANA-LSLRQVLANA-LSLRQVLANA-LSLRQVLANA-LSLRQVLANA-LSLRQVLANA-LSLRQVLANA-LSLRQVLANA-LSLRQVLANA
30.0,66,76,B,10,MVTAVEAKRKDIAALYAKLLAASKSGDKAAVKADPAIAALGAVKPLEPKIKALGDEAKAAAEAARAEAERERERERERERERER-MADDVYALRDDIKKLYDRLDAAAKAGDKAAVKADPAVKALGAVKPLEPKLAALGAEAAAKAEAEAKAEAEAKAKAEAEAKAAAD-QDDKLFALRGDVAELYAKLKAASESGDRAAVLADPAVQALGKVRPLEPLAAEIGRLEAEAAKLREEARRQEEARRQEEEARRQE-MQQLLQAKEGDINALYQRLLAASKTGDKAAVLADPAVAALGTVQPLAPLVAEYGKQRAEAAKAEAEAERARAEAERARAEAERA-MAEEIRAMQGDIEALYNRLKAAAEAGDTAAVLADPAVAAYGKVAPLKPLLDAAGAEAERAAQAEQAAREEAERAAQEEALRAEG-ADEAVRALRDDVRTLYNTLLAASKTGDKKAVLADPAVQALNRVRPLRPALAEYDKGVAEARQQELAAERAELERRLKELESRLP-MFEEVEKQRLNIGALYNRLKAAAATGERAAVLADPVVAALGAVEPLRPLVAKLGELEAEEARKKEEEERRREEEKRREEEERAP-GSHMVDALKDDIATLFERLKAAAASGNKAEVLADPAIKALNAVKPLEPQIAELGKRAEAEAKAKEEAARKAEEAARKAAEAARG-RLDKLNALKDDVAALHAKLSAAAKNGDKAAVLADPAVQAVGRVMPLKPALDALGKEAAEKAAKEALAAREAELAAKLEALKAQG-EIERIRALSDDINQLYDILATAAQTGDKAAVAADPAVKRLGAVEPLGPELAALGEQAAARAAEEAAAAEAERARAEAERARAEA,KEAIVFSQKTTIDQLHNSLNAASKTGNSNEVLQDPHIGDYGSVTPLRPQVTRLGKYAKEKEDLSLRQVLANAERSYNQLDRAAN-KEAIVFSQKTTIDQLHNSLNAASKTGNSNEVLQDPHIGDYGSVTPLRPQVTRLGKYAKEKEDLSLRQVLANAERSYNQLDRAAN-KEAIVFSQKTTIDQLHNSLNAASKTGNSNEVLQDPHIGDYGSVTPLRPQVTRLGKYAKEKEDLSLRQVLANAERSYNQLDRAAN-KEAIVFSQKTTIDQLHNSLNAASKTGNSNEVLQDPHIGDYGSVTPLRPQVTRLGKYAKEKEDLSLRQVLANAERSYNQLDRAAN-KEAIVFSQKTTIDQLHNSLNAASKTGNSNEVLQDPHIGDYGSVTPLRPQVTRLGKYAKEKEDLSLRQVLANAERSYNQLDRAAN-KEAIVFSQKTTIDQLHNSLNAASKTGNSNEVLQDPHIGDYGSVTPLRPQVTRLGKYAKEKEDLSLRQVLANAERSYNQLDRAAN-KEAIVFSQKTTIDQLHNSLNAASKTGNSNEVLQDPHIGDYGSVTPLRPQVTRLGKYAKEKEDLSLRQVLANAERSYNQLDRAAN-KEAIVFSQKTTIDQLHNSLNAASKTGNSNEVLQDPHIGDYGSVTPLRPQVTRLGKYAKEKEDLSLRQVLANAERSYNQLDRAAN-KEAIVFSQKTTIDQLHNSLNAASKTGNSNEVLQDPHIGDYGSVTPLRPQVTRLGKYAKEKEDLSLRQVLANAERSYNQLDRAAN-KEAIVFSQKTTIDQLHNSLNAASKTGNSNEVLQDPHIGDYGSVTPLRPQVTRLGKYAKEKEDLSLRQVLANAERSYNQLDRAAN,LALISYYEAL-LDKIALYEAL-LQFIALYERL-LDYIAIYQSL-LLFIQYFEKL-LERIELYASL-LEKLALYRAL-LANIELYRSL-LDKIGLYAKL-LANIALYRQL,ISEINIYDRL-ISEINIYDRL-ISEINIYDRL-ISEINIYDRL-ISEINIYDRL-ISEINIYDRL-ISEINIYDRL-ISEINIYDRL-ISEINIYDRL-ISEINIYDRL
