contacts,cs,ce,Chain,Length,designed_receptor_seq,native_receptor_seq,designed_binder_seq,native_binder_seq
28.0,141,151,A,10,GSPVKTLPLDYNKCDREDLVVLISRKLELLAKRNEEEGGPTVFDTPEPPKVSVYNYLIRLTKYLDIEPSVLMTTLWLVDLLESVDPAFRLNRLTQHRFLLTAVTVAQKGLCDVFGTNADAALVGGVSKTTLNNLELYFLEKTRFMIVPRDDTIERCLLAQPQVVTLVPEGGTEGVPNDGFTVLQRYYEKIVREVGGVDAVPVEARKVVYELPPE-GSPVKTLPLDYNKCDREDLVVLISRKLELLAKRNEESGGRTVFDLPEPSGVSVYNYLIRLTKYLNIEPSVLMTTLWLVDLLESVDPAFRLNRLTQHRFLLTAITVAQKGLCDTFGTNAEAAKVGGVSTSTLNNLERYFLRRTRFMIVPRDDTIERCLRAQPQVVTLVPQGGDEGVPNDGYTVLQRYYEEIVRTVGGVDSVPTDARRVVYELPPS-GSPVKTLPLDYNACDREDLVVLISRKLELLARKNEEEGGPTVFDLPEPSGVSVYDYLPRLTERLNIEPSVLMTTLWLVDLLESVDPAFRLNRLTQHRFLLTALTVAQKGLCDRFGTNAEAARVGGVSTSTLNRLELYFLERTRFMVVPRDDTLRRCLEAQPQEVLLVPEEGLEGVPNDGFTVLQRYYEKIVREVGGVEAVPEEARRVVYRLPPG-GSPVKTLPLDYNKCDREDLVVLISRKLELLAKRNEESGGRTVFDVPEPPKVSVYNYLIRLTKYLNIEPSVLMTTLWLVDLLESVDPAFVLNRYTQHRFLLTAVTVAQKGLCDVFGTNAEAAKVGGVSKTTLNNLELYFLEKTRFMIVPKDDTIERCLLAQPQEVTLVPQGGSEGVPNDGYTVLQKYYEKIVKEVGGVDSVPVEARKVVYKLPPS-MTPVKTLPLDYNKCDREDLVVLISRKLELLAKRNEEEGGPTVFDVPEPPKISVYNYLIRLTKYLNIEPSVLMTTLWLVDLLESVDPRFRLNRLTQHRFLLTAVTVAQKGLCDTFGTNADAAKVGGVSTSTLNNLEKYFLEKTNFMIVPRDDTIERCLLAQPQEETLVPVEGDEGVPNDGYTVLQRYYEKIVREVGGVESVPVEAKKVVYELPPE-GSPVKTLPLDYNKCDREDLVVLISRKLELLAKRNEEEGGRTVFDVPRPPRVSVYNYLIRLTKYLNIEPSVLMTTLWLVDLLESVDPRFRLNRLTQHRFLLTAVTVAQKGLCDTFGTNAEAARVGGVSKTTLNNLERYFLERTRFMIVPRDDTIARCLLAQPQEVTLVPQGGLEGVPNDGYTVLQRYYEKIVREVGGVEAVPVEARRVVYRLPPR-GSPVKTLPLDYNKCDREDLVVLISRKLELLAKRNEESGGRTVFDVPEPPKVSVYNYLINLTKNLNIEPSVLLTTLWLVDLLESVDPRFRLNRLTQHRFLLTAVTVAQKGLCDTFGTNAEAAKVGGVSKSTLNNLELYFLEKTRFMIVPKDDTIKRCLEAQPQLVTLVPEEGDEGVPNDGYTVLQKYYEKIVKEVGGVESVPVEARKVVYKLPPA-GSPVKTLPLDYNKCDREDLVVLISRKLEQLAYENEKNGGKTVFDTPEPPKISFYNYLIRLTKYLDIEPSVLLTTLWLVDLLESVDPDFVLNRLTQHRFLLTAVTVAQKGLCDVFHTNADAAKVGGVSKSTLNNLELYFLEKTRFMIVPKDDTIERCKKAQPQKKLLVEEEGDEDVPNDGYTVLQRYYEKIVKEVGGVDSVPKEARKVVYKLPPK-GSPVKTLPLDYNKCDREDLVVLISRKLEQLAYINEKKGGKTVFDTPEPPKVSVYNYLINLTKNLNIESSVLMTTLWLVDLLESVDPDFVLNRYTQHRFLLTAITVAQKGLCDVFHTNADAAKVGGVSKSTLSNLELYFLEKVRFMIVPKDDTIERCKEAQPQLVTLVPKEGYENVPNDGYTVLQKYYEKIVKEVGGVDSVPKEARKVVYKLPPS-GSPVKTLPLDYNKCDREDLVVLISRKLEQLALENEQKGGKTVFDLPEPSGISVYNYLIRLTKYLNIEPSVLMTTLWLVDLLESVDPAFTLNRYTQHRFLLTAITVAQKGLCDTFGTNAEAAKVGGVSKSTLSRLELYFLEKTRFMIVPKDDTIRRCQIAQPQLVLEEEEEGDEDVPNDGYTVLQRYYEKIVREVGGVDSVPVEARKVVYELPPS,GIPKVILPADFNKCSRTDLVVLISRMLVSLIAINENSITLTRYHSKIPPNISIFNYFIRLTKFSSLEHCVLMTSLYYIDLLQTVYPDFTLNSLTAHRFLLTATTVATKGLCDSFSTNAHYAKVGGVRCHELNILENDFLKRVNYRIIPRDHNITLCSIEQKQKKFVIDKNSYVNRPKSGYNVLDKYYRRIVQLVGSFNASPDKSRKVDYVLPPN-GIPKVILPADFNKCSRTDLVVLISRMLVSLIAINENSITLTRYHSKIPPNISIFNYFIRLTKFSSLEHCVLMTSLYYIDLLQTVYPDFTLNSLTAHRFLLTATTVATKGLCDSFSTNAHYAKVGGVRCHELNILENDFLKRVNYRIIPRDHNITLCSIEQKQKKFVIDKNSYVNRPKSGYNVLDKYYRRIVQLVGSFNASPDKSRKVDYVLPPN-GIPKVILPADFNKCSRTDLVVLISRMLVSLIAINENSITLTRYHSKIPPNISIFNYFIRLTKFSSLEHCVLMTSLYYIDLLQTVYPDFTLNSLTAHRFLLTATTVATKGLCDSFSTNAHYAKVGGVRCHELNILENDFLKRVNYRIIPRDHNITLCSIEQKQKKFVIDKNSYVNRPKSGYNVLDKYYRRIVQLVGSFNASPDKSRKVDYVLPPN-GIPKVILPADFNKCSRTDLVVLISRMLVSLIAINENSITLTRYHSKIPPNISIFNYFIRLTKFSSLEHCVLMTSLYYIDLLQTVYPDFTLNSLTAHRFLLTATTVATKGLCDSFSTNAHYAKVGGVRCHELNILENDFLKRVNYRIIPRDHNITLCSIEQKQKKFVIDKNSYVNRPKSGYNVLDKYYRRIVQLVGSFNASPDKSRKVDYVLPPN-GIPKVILPADFNKCSRTDLVVLISRMLVSLIAINENSITLTRYHSKIPPNISIFNYFIRLTKFSSLEHCVLMTSLYYIDLLQTVYPDFTLNSLTAHRFLLTATTVATKGLCDSFSTNAHYAKVGGVRCHELNILENDFLKRVNYRIIPRDHNITLCSIEQKQKKFVIDKNSYVNRPKSGYNVLDKYYRRIVQLVGSFNASPDKSRKVDYVLPPN-GIPKVILPADFNKCSRTDLVVLISRMLVSLIAINENSITLTRYHSKIPPNISIFNYFIRLTKFSSLEHCVLMTSLYYIDLLQTVYPDFTLNSLTAHRFLLTATTVATKGLCDSFSTNAHYAKVGGVRCHELNILENDFLKRVNYRIIPRDHNITLCSIEQKQKKFVIDKNSYVNRPKSGYNVLDKYYRRIVQLVGSFNASPDKSRKVDYVLPPN-GIPKVILPADFNKCSRTDLVVLISRMLVSLIAINENSITLTRYHSKIPPNISIFNYFIRLTKFSSLEHCVLMTSLYYIDLLQTVYPDFTLNSLTAHRFLLTATTVATKGLCDSFSTNAHYAKVGGVRCHELNILENDFLKRVNYRIIPRDHNITLCSIEQKQKKFVIDKNSYVNRPKSGYNVLDKYYRRIVQLVGSFNASPDKSRKVDYVLPPN-GIPKVILPADFNKCSRTDLVVLISRMLVSLIAINENSITLTRYHSKIPPNISIFNYFIRLTKFSSLEHCVLMTSLYYIDLLQTVYPDFTLNSLTAHRFLLTATTVATKGLCDSFSTNAHYAKVGGVRCHELNILENDFLKRVNYRIIPRDHNITLCSIEQKQKKFVIDKNSYVNRPKSGYNVLDKYYRRIVQLVGSFNASPDKSRKVDYVLPPN-GIPKVILPADFNKCSRTDLVVLISRMLVSLIAINENSITLTRYHSKIPPNISIFNYFIRLTKFSSLEHCVLMTSLYYIDLLQTVYPDFTLNSLTAHRFLLTATTVATKGLCDSFSTNAHYAKVGGVRCHELNILENDFLKRVNYRIIPRDHNITLCSIEQKQKKFVIDKNSYVNRPKSGYNVLDKYYRRIVQLVGSFNASPDKSRKVDYVLPPN-GIPKVILPADFNKCSRTDLVVLISRMLVSLIAINENSITLTRYHSKIPPNISIFNYFIRLTKFSSLEHCVLMTSLYYIDLLQTVYPDFTLNSLTAHRFLLTATTVATKGLCDSFSTNAHYAKVGGVRCHELNILENDFLKRVNYRIIPRDHNITLCSIEQKQKKFVIDKNSYVNRPKSGYNVLDKYYRRIVQLVGSFNASPDKSRKVDYVLPPN,EPEGIPVTRR-RPRGIPVTRR-PPRGIPHRRR-EPEGIPVTRR-EPEGIPVTRR-RPRGIPVTRR-EPEGIPVTRR-KPEGIPVTKK-KPEGIPYTRK-EDEGIPVTRR,RAFGIPVNTF-RAFGIPVNTF-RAFGIPVNTF-RAFGIPVNTF-RAFGIPVNTF-RAFGIPVNTF-RAFGIPVNTF-RAFGIPVNTF-RAFGIPVNTF-RAFGIPVNTF
26.0,107,117,B,10,MELVKKLGEGTYATVYKGRDKKTGEIVAIKKIKLEEEGVPSTAIREISLLKELRHPNIVRLYEVIETKLYLVFEYMDTDLKKYMKSRGKGLPPEEVKDYMWQILRGLAYCHEKRIMHRDLKPQNLLINKEGELKLADFGLARDIGIPVKMYTHEVVTLWYRAPEVLMGSRTYGTEVDMWSVGCVFAEMLTGKPLFPGDNEIDQLFKIFRILGTPNVEEWPEVKNLPDFNPNLEQLPPVDLKSVLQPHTKWPLDDDTLDFLRGLLQLNPKKRLTAKQALKHPWFADYE-MELVKKLGEGTYATVYKGRDKKTGEIVAIKKIKLEEEGVPSTAIREISLLKELKHPNIVQLYEVIEPKLYLVFEYMDTDLKKYMKSRKKGLPLDQVKDFTWQILRGLEYCHSKKIMHRDLKPQNLLIDKDGNLKLADFGLARDISIPVKMYTHEVVTLWYRAPEVLMGSRTYGTEVDMWSVGCVLAEMITGKPLFPGDNEIDQLFKIFKILGTPDVEKWPEVKNLPDFNPNIEQLPPVDLKSVLQPHTKEPLDDDLLDFLRGLLQLNPKKRLTAKEALKHPWFEDYK-MELEKKLGEGTYATVYKGRDKVTGEVVAIKKIKLEEEGVPSTAIREISLLKELRHPNIVRLYEVIETKLYLVFEYMDTDLKKYMKSRGKGLPPEEVKDYMWQILRGLAYCHSKRIIHRDLKPQNLLINKEGELKLADFGLARDIGIPVKMYTHEVVTLWYRAPEVLMGSRTYGTEVDMWSCGCVLAEMITGKPLFPGDNEIDQLFKIFSILGTPNVEEWPEVKNLPDFNPNIEQKPPVDLKSVLQPHTKWPLDDDLLDFLKGLLQLNPKKRLTAKEALKHPWFADYE-MELVKKLGEGTYAVVYKGRDKKTGEVVAIKKIKLEEEGVPSTAIREISLLKELRHPNIVRLYEVIETKLYLVFEYMDTDLKKYMKSRGKGLPPEEVKSYMWQILRGLEYCHSKKIMHRDLKPQNLLIDKDGNLKLADFGLARDISKPGRMYTHEVVTLWYRAPEVLMGSRTYGTEVDMWSCGCVLAEMITGKPLFPGDNEIDQLFKIFSILGTPDVEKWPEVKNLPDFNPNIKQLPPVDLKSVLQPHTKWPLDDDLLDFLKGLLQLNPKKRLTAKEALKHPWFKDYE-MELEKKLGEGTYATVYKGRDKKTGEVVAIKKIKLEEEGVPSTAIREISLLKELRHPNIVRLYEVIETKLYLVFEYMDTDLKKYMKSRKKGLPIDQVKDFMWQILRGLEYCHSKRIIHRDLKPQNLLIDKDGNLKLADFGLARDIGIPVKTYTHEVVTLWYRAPEVLMGSRTYGTEVDMWSCGCVLAEMITGKPLFPGDNEIDQLFKIFSILGTPNVEEWPEVKNLPDFNPNIEQLPPVDLKSVLQPHTPYPLDDDLLDFLKGLLQLNPKKRLTAKEALKHPWFKDYE-MELEKKLGEGTYATVYKGRDKKTGEVVAIKKIKLEEEGVPSTAIREISLLKELRHPNIVRLYEVIEPKLYLVFEYMDTDLKKYMKSRGKGLPPEEVKDYMWQILRGLAYCHKKRIIHRDLKPQNLLIDKDGNLKLADFGLARDIGIPVKMYTHEVVTLWYRAPEVLMGSRTYGTEVDMWSCGCVLAEMITGKPLFPGDNEIDQLFKIFRILGTPDVEKWPEVKGLPDFNPNLEQLPPVDLKSVLQPHTKWPLDDDLLDFLKGLLQLNPKKRLTAEEALKHPWFADYK-MELEKKLGEGTYAVVYKGRDKKTGEVVAIKKIKLEEEGVPSTAIREISLLKELRHPNIVRLYEVIEPKLYLVFEYMDTDLKKYMKSRKKGLPLDQVKDFMWQILKGLEYCHSKRIMHRDLKPQNLLIDKDGNLKLADFGLARDIGIPVKTYTHEVVTLWYRAPEVLMGSRTYGTEVDMWSCGCVLAEMLTGKPLFPGDNEIDQLFKIFQILGTPDVEKWPEVKNLPDFNPNLEKLPPVDLKSVLQPHTPYPLDDDLLDFLKGLLQLNPKKRMTAKEALKHPWFADYE-MELVKKLGEGTYATVYKGRDKVTGEVVAIKKIKLEEEGVPSTAIREISLLKELRHPNIVRLYEVIETKLYLVFEYMDTDLKKYMKSRKKGLPIEQVKDFMWQILRGLEYCHSKRIMHRDLKPQNLLIDKDGNLKLADFGLARDIGIPVKTYTHEVVTLWYRAPEVLMGSRTYGTEVDMWSCGCVLAEMITGKPLFPGDNEIDQLFKIFQILGTPDVEKWPEVKGLPDFNPNIEKLPPVDLKSVLQPHTKEPLDDDLLDFLRGLLQLNPKKRLTAKEALKHPWFADYE-MELEKKLGEGTYAVVYKGRDKKTGEVVAIKKIKKEEEGVPSTAIREISLLKELRHPNIVRLYEVIETKLYLVFEYMDTDLKKYMKSRGKGLPPEEVKSYMWQILKGLEYCHSKKIMHRDLKPQNLLIDKDGNLKLADFGLARDIGIPVKMYTHEVVTLWYRAPEVLMGSRTYGTEVDMWSCGCVLAEMITGKPLFPGDNEIDQLFKIFSILGTPDVEKWPEVKNLPDFNPNIKKLPPVDLKSVLQPHTKWPLDDDLLDFLKGLLQLNPKKRLTAKEALKHPWFADYE-MELEKKLGEGTYATVYKGRDKKTGEVVAIKKIKLEEEGVPSTAIREISLLKELRHPNIVRLYEVIETKLYLVFEYMDTDLKKYMKSRKKGLPLDQVKDFMWQILKGLAYCHSKKIMHRDLKPQNLLIDKDGNLKLADFGLARDISKPGEMYTHEVVTLWYRAPEVLMGSRTYGTEVDMWSCGCVLAEMITGKPLFPGDNEIDQLFKIFQILGTPDVEKWPEVKNLPDFNPNIEKLPPVDLKSVLQPHTPYPLDDDLLDFLKGLLQLNPKKRMTAKAALKHPWFADYE,FKQLEKLGNGTYATVYKGLNKTTGVYVALKEVKLSEEGTPSTAIREISLMKELKHENIVRLYDVIHNKLTLVFEFMDNDLKKYMDSRTRGLELNLVKYFQWQLLQGLAFCHENKILHRDLKPQNLLINKRGQLKLGDFGLARAFGIPVNTFSSEVVTLWYRAPDVLMGSRTYSTSIDIWSCGCILAEMITGKPLFPGTNDEEQLKLIFDIMGTPNESLWPSVTKLPKYNPNIQQRPPRDLRQVLQPHTKEPLDGNLMDFLHGLLQLNPDMRLSAKQALHHPWFAEYY-FKQLEKLGNGTYATVYKGLNKTTGVYVALKEVKLSEEGTPSTAIREISLMKELKHENIVRLYDVIHNKLTLVFEFMDNDLKKYMDSRTRGLELNLVKYFQWQLLQGLAFCHENKILHRDLKPQNLLINKRGQLKLGDFGLARAFGIPVNTFSSEVVTLWYRAPDVLMGSRTYSTSIDIWSCGCILAEMITGKPLFPGTNDEEQLKLIFDIMGTPNESLWPSVTKLPKYNPNIQQRPPRDLRQVLQPHTKEPLDGNLMDFLHGLLQLNPDMRLSAKQALHHPWFAEYY-FKQLEKLGNGTYATVYKGLNKTTGVYVALKEVKLSEEGTPSTAIREISLMKELKHENIVRLYDVIHNKLTLVFEFMDNDLKKYMDSRTRGLELNLVKYFQWQLLQGLAFCHENKILHRDLKPQNLLINKRGQLKLGDFGLARAFGIPVNTFSSEVVTLWYRAPDVLMGSRTYSTSIDIWSCGCILAEMITGKPLFPGTNDEEQLKLIFDIMGTPNESLWPSVTKLPKYNPNIQQRPPRDLRQVLQPHTKEPLDGNLMDFLHGLLQLNPDMRLSAKQALHHPWFAEYY-FKQLEKLGNGTYATVYKGLNKTTGVYVALKEVKLSEEGTPSTAIREISLMKELKHENIVRLYDVIHNKLTLVFEFMDNDLKKYMDSRTRGLELNLVKYFQWQLLQGLAFCHENKILHRDLKPQNLLINKRGQLKLGDFGLARAFGIPVNTFSSEVVTLWYRAPDVLMGSRTYSTSIDIWSCGCILAEMITGKPLFPGTNDEEQLKLIFDIMGTPNESLWPSVTKLPKYNPNIQQRPPRDLRQVLQPHTKEPLDGNLMDFLHGLLQLNPDMRLSAKQALHHPWFAEYY-FKQLEKLGNGTYATVYKGLNKTTGVYVALKEVKLSEEGTPSTAIREISLMKELKHENIVRLYDVIHNKLTLVFEFMDNDLKKYMDSRTRGLELNLVKYFQWQLLQGLAFCHENKILHRDLKPQNLLINKRGQLKLGDFGLARAFGIPVNTFSSEVVTLWYRAPDVLMGSRTYSTSIDIWSCGCILAEMITGKPLFPGTNDEEQLKLIFDIMGTPNESLWPSVTKLPKYNPNIQQRPPRDLRQVLQPHTKEPLDGNLMDFLHGLLQLNPDMRLSAKQALHHPWFAEYY-FKQLEKLGNGTYATVYKGLNKTTGVYVALKEVKLSEEGTPSTAIREISLMKELKHENIVRLYDVIHNKLTLVFEFMDNDLKKYMDSRTRGLELNLVKYFQWQLLQGLAFCHENKILHRDLKPQNLLINKRGQLKLGDFGLARAFGIPVNTFSSEVVTLWYRAPDVLMGSRTYSTSIDIWSCGCILAEMITGKPLFPGTNDEEQLKLIFDIMGTPNESLWPSVTKLPKYNPNIQQRPPRDLRQVLQPHTKEPLDGNLMDFLHGLLQLNPDMRLSAKQALHHPWFAEYY-FKQLEKLGNGTYATVYKGLNKTTGVYVALKEVKLSEEGTPSTAIREISLMKELKHENIVRLYDVIHNKLTLVFEFMDNDLKKYMDSRTRGLELNLVKYFQWQLLQGLAFCHENKILHRDLKPQNLLINKRGQLKLGDFGLARAFGIPVNTFSSEVVTLWYRAPDVLMGSRTYSTSIDIWSCGCILAEMITGKPLFPGTNDEEQLKLIFDIMGTPNESLWPSVTKLPKYNPNIQQRPPRDLRQVLQPHTKEPLDGNLMDFLHGLLQLNPDMRLSAKQALHHPWFAEYY-FKQLEKLGNGTYATVYKGLNKTTGVYVALKEVKLSEEGTPSTAIREISLMKELKHENIVRLYDVIHNKLTLVFEFMDNDLKKYMDSRTRGLELNLVKYFQWQLLQGLAFCHENKILHRDLKPQNLLINKRGQLKLGDFGLARAFGIPVNTFSSEVVTLWYRAPDVLMGSRTYSTSIDIWSCGCILAEMITGKPLFPGTNDEEQLKLIFDIMGTPNESLWPSVTKLPKYNPNIQQRPPRDLRQVLQPHTKEPLDGNLMDFLHGLLQLNPDMRLSAKQALHHPWFAEYY-FKQLEKLGNGTYATVYKGLNKTTGVYVALKEVKLSEEGTPSTAIREISLMKELKHENIVRLYDVIHNKLTLVFEFMDNDLKKYMDSRTRGLELNLVKYFQWQLLQGLAFCHENKILHRDLKPQNLLINKRGQLKLGDFGLARAFGIPVNTFSSEVVTLWYRAPDVLMGSRTYSTSIDIWSCGCILAEMITGKPLFPGTNDEEQLKLIFDIMGTPNESLWPSVTKLPKYNPNIQQRPPRDLRQVLQPHTKEPLDGNLMDFLHGLLQLNPDMRLSAKQALHHPWFAEYY-FKQLEKLGNGTYATVYKGLNKTTGVYVALKEVKLSEEGTPSTAIREISLMKELKHENIVRLYDVIHNKLTLVFEFMDNDLKKYMDSRTRGLELNLVKYFQWQLLQGLAFCHENKILHRDLKPQNLLINKRGQLKLGDFGLARAFGIPVNTFSSEVVTLWYRAPDVLMGSRTYSTSIDIWSCGCILAEMITGKPLFPGTNDEEQLKLIFDIMGTPNESLWPSVTKLPKYNPNIQQRPPRDLRQVLQPHTKEPLDGNLMDFLHGLLQLNPDMRLSAKQALHHPWFAEYY,EGVSYVYGEE-KGKYYIYGEV-EGEEYIYGEE-KGVSYVFGKK-KGTSYVYGEV-KGTSDVYGKE-EGEEYIYGEE-KGKYYIYGKK-KGTSYIYGEE-KGTSYISGKK,KGLCDSFSTN-KGLCDSFSTN-KGLCDSFSTN-KGLCDSFSTN-KGLCDSFSTN-KGLCDSFSTN-KGLCDSFSTN-KGLCDSFSTN-KGLCDSFSTN-KGLCDSFSTN
