contacts,cs,ce,Chain,Length,designed_receptor_seq,native_receptor_seq,designed_binder_seq,native_binder_seq
8.0,17,27,A,10,TAAVKIFKETSRANRKLSGAETAGILKFYDQQVARGVPNLQKAAFDYHRPVHEVVISEYLSATCPVQVARREENGKVRYRFG-GPHRRNKQQREKRNRVLNAREVNNILNKFAKWINRGEPLAGITDPKGRVSTVTEALEGYKANVIPVIVNRTNFDGNVDVVPV-GCTKPMFDLVRSRTEHLTPKEITNILMKGYEAQKKGTPIIFIEDKLAASEGLTEAFDKFTLAAVPTVIQTVGPDGHVFVMPL-GPDIFFVEQREKQMPRWDKQERADILKKMKKEVNDGTPIPAGVIVNGGSLTDEDAAAGFAKNVSPYTIVKKRKNGENVSLGM-GPHSKVSKQIGKTLLHENQEEMAEIVRCGKAAIQLGIPLYGISKDQHKDKPDQQVVSGYILRILPIIVERRRFDGVAITYER-QRLKPIRSFLILENSNFTRNEIQDLLRSYEKALDSGIPIVYLDAKDKDKASIYAVHYGYHLGVVPIVVNRSLADGIKISKKG-SPGFLRMVQLSGEAASWNNSEIDCIADLLTNRVEDGEPIGLDSLDAADVEKSTRVYYLLRRGDYPIIVHRTYANGIDVRNDG-GVNRRLSQNRHSLKEVLNGGELSLIVKHLSTWYGNGRPSQKIDNKDGTVVGKSRAEKLFNQGVYPISFKRILPDGTCITISR-MGKKIRWANQTDQRHTMNNRQVQAVIKKRQLEIENGHPARHLKNQRSIKSAEDQVAMELKKGNTPVRIKRVEKCGKVRERLM-EENSNLQRNLRRLEKDLDKFEKNCILQKLYTMLSEGTPRMDLSNKDELKTNAEKAKHMFDHGVYPITVKRVLPNGIVLTLRG,QDLHFNEVFISLWQNRLTRYEIARVISARALQLAMGAPALIDINNLSSTDVISIAEEEFRRGVLPITIRRRLPNGKIILLSL-QDLHFNEVFISLWQNRLTRYEIARVISARALQLAMGAPALIDINNLSSTDVISIAEEEFRRGVLPITIRRRLPNGKIILLSL-QDLHFNEVFISLWQNRLTRYEIARVISARALQLAMGAPALIDINNLSSTDVISIAEEEFRRGVLPITIRRRLPNGKIILLSL-QDLHFNEVFISLWQNRLTRYEIARVISARALQLAMGAPALIDINNLSSTDVISIAEEEFRRGVLPITIRRRLPNGKIILLSL-QDLHFNEVFISLWQNRLTRYEIARVISARALQLAMGAPALIDINNLSSTDVISIAEEEFRRGVLPITIRRRLPNGKIILLSL-QDLHFNEVFISLWQNRLTRYEIARVISARALQLAMGAPALIDINNLSSTDVISIAEEEFRRGVLPITIRRRLPNGKIILLSL-QDLHFNEVFISLWQNRLTRYEIARVISARALQLAMGAPALIDINNLSSTDVISIAEEEFRRGVLPITIRRRLPNGKIILLSL-QDLHFNEVFISLWQNRLTRYEIARVISARALQLAMGAPALIDINNLSSTDVISIAEEEFRRGVLPITIRRRLPNGKIILLSL-QDLHFNEVFISLWQNRLTRYEIARVISARALQLAMGAPALIDINNLSSTDVISIAEEEFRRGVLPITIRRRLPNGKIILLSL-QDLHFNEVFISLWQNRLTRYEIARVISARALQLAMGAPALIDINNLSSTDVISIAEEEFRRGVLPITIRRRLPNGKIILLSL,TMTNLAEKHA-KWVNKQQKRK-EGYLLIPYTK-IAALKLQANI-AYERQMVEEG-VDNKAVEKLL-VQENVENAFL-QLVKNLEEKS-AKAAKVAERR-EYDKLSQIFQ,DEAYKILKEL-DEAYKILKEL-DEAYKILKEL-DEAYKILKEL-DEAYKILKEL-DEAYKILKEL-DEAYKILKEL-DEAYKILKEL-DEAYKILKEL-DEAYKILKEL
13.0,0,10,B,10,HQPIQEDQYPEPRRGSIEEAEAIVKFHGCSVEDLQGASLASNTMKHLSCEVGDIVIVKQASNLTGYLYSILALQ-INPLEDSRLDEWFIGTGALAKAWIEEEGMDFERVPNALHSHPVLKAHGVIEGRVVVRSRPTVTTGEWLDIINPM-NKPYNDSDVPTWYLGETSVVENFLVWHGNGSDTLSIFRSDAPASQWLQWQAGHVAILRFYSEVDGYIWGMSFPA-GSPEFMGNLPTPEILTGKDADYIFAFYGKEQKDYPKCRASSPVASAMHASIGDVIGVSSFNSITGRYTTLHSLD-PQPAGFTESPSLWKGSVDEIEKLLDQEGKTIAQVNRAELSDPLTQWLELAPGEIIVISTQSRNYGQVWSIGVLK-QHPECIGPIPKLFILGGEESAQILHWYGVMRQQLIFHKLDSQVAKFYRVHPGHLVFLFRISETDGVSGLFMKPR-HHPITEQTLPHLFLGSNQEIEQILKFYGVEKRRLNLIREEDPVCQFMNVKKGDVLFRARMSQTTGHYLSFGIIK-ARPIGEKRWCLPRRGTEAQIAKFLEFCGVEKLKVGRFMVTDPSFAFMNAEPGDIVLLIAPSESAGVIARIGVLD-PEPVAEEEIPYPRVGNEEEINFLCEYEGVTLKEVRRHDLSSPWCQFWDIRHGKYIILEDKSELQGRITSVYYCV-MSPYSSENLPNPRIGTEEEINRFLEGEGRDIQRFPFIDLKNPTALWRNLRPGDYPIILRRSRTYGEYIAYGKPL,IDPRIHYLVPKHEVLNIDEAYKILKELGIRPEQLPWIRASDPVARSINAKPGDIIRIIRKSQLYGEVVSYRYVI-IDPRIHYLVPKHEVLNIDEAYKILKELGIRPEQLPWIRASDPVARSINAKPGDIIRIIRKSQLYGEVVSYRYVI-IDPRIHYLVPKHEVLNIDEAYKILKELGIRPEQLPWIRASDPVARSINAKPGDIIRIIRKSQLYGEVVSYRYVI-IDPRIHYLVPKHEVLNIDEAYKILKELGIRPEQLPWIRASDPVARSINAKPGDIIRIIRKSQLYGEVVSYRYVI-IDPRIHYLVPKHEVLNIDEAYKILKELGIRPEQLPWIRASDPVARSINAKPGDIIRIIRKSQLYGEVVSYRYVI-IDPRIHYLVPKHEVLNIDEAYKILKELGIRPEQLPWIRASDPVARSINAKPGDIIRIIRKSQLYGEVVSYRYVI-IDPRIHYLVPKHEVLNIDEAYKILKELGIRPEQLPWIRASDPVARSINAKPGDIIRIIRKSQLYGEVVSYRYVI-IDPRIHYLVPKHEVLNIDEAYKILKELGIRPEQLPWIRASDPVARSINAKPGDIIRIIRKSQLYGEVVSYRYVI-IDPRIHYLVPKHEVLNIDEAYKILKELGIRPEQLPWIRASDPVARSINAKPGDIIRIIRKSQLYGEVVSYRYVI-IDPRIHYLVPKHEVLNIDEAYKILKELGIRPEQLPWIRASDPVARSINAKPGDIIRIIRKSQLYGEVVSYRYVI,QLLSYASQKR-GTGLYFQKRR-TLGPVQDWLS-EEIGLLYTTH-KLFEKKGTSS-WIDQEKYRSY-KLKEYHTKRR-YLDTEIRTFL-SYGRSLMRIE-MGRTKAADHY,QDLHFNEVFI-QDLHFNEVFI-QDLHFNEVFI-QDLHFNEVFI-QDLHFNEVFI-QDLHFNEVFI-QDLHFNEVFI-QDLHFNEVFI-QDLHFNEVFI-QDLHFNEVFI
