contacts,cs,ce,Chain,Length,designed_receptor_seq,native_receptor_seq,designed_binder_seq,native_binder_seq
32.0,2,12,A,10,SRPYPSYEDALRPLAPEKLRELYEAVVSEGGASASAESTFNYAYGLLRSDDEEDIRLGRRLLLDLYRDHREWQSELLYYLTIAEMKLGNLDEAAAYINLLSSREAGNPLVNELRSLVYDELRRRRE-SQPYPTYEDINTPLAPETLKYLYDLVVSEGGETASADSTFNYAYGLLRSNEKENIKKGVYLLEQLYNNYAERQTELLYYLTMGNLKLGNVDKAKEYIDKLYQQNKNNPLVNALKTLVYNTYQSNNS-GEPYPTFEDANKPLAPEQLQGLYDKVVSEGGPTASADSTFNYAWGLLRSDNKDDIKQGVSLLEDLYNKNKDKQTELLYYLTIGNSKLGNLDKAKEYIDKLKAQDKNNPAVNALAKLIYDRIKELNT-ADVYPTYEDSLKPLKPEELEKLRQAVIAEGGPTASADSTFNYAYGLLRSDDKEDIKQGVSLLRVLYNEHEERQRELLYYLTIGNEKLGNLEEAKTYINTLLEADADNPLVNALAERVNNKIKALGE-GKPYPTYDDMLVPLEPEQLEGLRQRVVSEGGLSASADSTFNYAYGLLRSDDVEDVKEGKRRLRSLYNLYADRREELLYYLTMADMKLGELDAAAAHIDVLHEKEQGNPRVNALRELVYNTIFDRNA-GSPFPTYNDLNVPLAPEALQRLHDAVVAEGGDAASADSTFNYAYGLLRSNDTDDIKLGRALLERLYAEREDMRQELLFYLTGADMKLGNLSAAASYVDKLYAQAPGNPAVNALRNRIYNEIRRRNA-GRPFPSYEDMNIPLAPEELEKLRLAVVAEGGDKASAESTFNYAWGLLRSNDREDIKEGRRLLEKLYDEHEERRTELLYYLTMANMKLGKLDDAASYIEKLLEQEKGNPLVNALAALVYNEIRRREE-SSPYPTYGDALQPLAPAELEKAFQAVVAEGGPTASAENTFNYAYHLLRSNDRADIQQGKALLQRLYDQNSDLQTELLYYLTIADMKLGELDSAATHIDTLLSQQPNDPQVNDLHRLVYNTLSANSS-GKPYPTFEDALKPLAPEELEKLRQAVVAEGGEAASAENTFNYAYGLLRSENVEDQKEGKFRLQQLYDENKELQEELLYYLTIANLKLGDTAAAKSYIDELYEKRKNDPLVNELKKIVYDTIYAQES-GKPYPTYEDSLKPLQPQQLQQLYDQVVSEGGETASADSTFNYAYGLLRSNNVEHIKKGKLLLERLYNKHSEQRTELLYYLTIANKKLGELDQAAAYIDLLYQQNKDDPQVNELKNLVYQDIKTENR,VDFWPTLKDAYEPLYPQQLEILRQQVVSEGGPTATIQSRFNYAWGLIKSTDVNDERLGVKILTDIYKEAESRRRECLYYLTIGCYKLGEYSMAKRYVDTLFEHERNNKQVGALKSMVEDKIQKETL-VDFWPTLKDAYEPLYPQQLEILRQQVVSEGGPTATIQSRFNYAWGLIKSTDVNDERLGVKILTDIYKEAESRRRECLYYLTIGCYKLGEYSMAKRYVDTLFEHERNNKQVGALKSMVEDKIQKETL-VDFWPTLKDAYEPLYPQQLEILRQQVVSEGGPTATIQSRFNYAWGLIKSTDVNDERLGVKILTDIYKEAESRRRECLYYLTIGCYKLGEYSMAKRYVDTLFEHERNNKQVGALKSMVEDKIQKETL-VDFWPTLKDAYEPLYPQQLEILRQQVVSEGGPTATIQSRFNYAWGLIKSTDVNDERLGVKILTDIYKEAESRRRECLYYLTIGCYKLGEYSMAKRYVDTLFEHERNNKQVGALKSMVEDKIQKETL-VDFWPTLKDAYEPLYPQQLEILRQQVVSEGGPTATIQSRFNYAWGLIKSTDVNDERLGVKILTDIYKEAESRRRECLYYLTIGCYKLGEYSMAKRYVDTLFEHERNNKQVGALKSMVEDKIQKETL-VDFWPTLKDAYEPLYPQQLEILRQQVVSEGGPTATIQSRFNYAWGLIKSTDVNDERLGVKILTDIYKEAESRRRECLYYLTIGCYKLGEYSMAKRYVDTLFEHERNNKQVGALKSMVEDKIQKETL-VDFWPTLKDAYEPLYPQQLEILRQQVVSEGGPTATIQSRFNYAWGLIKSTDVNDERLGVKILTDIYKEAESRRRECLYYLTIGCYKLGEYSMAKRYVDTLFEHERNNKQVGALKSMVEDKIQKETL-VDFWPTLKDAYEPLYPQQLEILRQQVVSEGGPTATIQSRFNYAWGLIKSTDVNDERLGVKILTDIYKEAESRRRECLYYLTIGCYKLGEYSMAKRYVDTLFEHERNNKQVGALKSMVEDKIQKETL-VDFWPTLKDAYEPLYPQQLEILRQQVVSEGGPTATIQSRFNYAWGLIKSTDVNDERLGVKILTDIYKEAESRRRECLYYLTIGCYKLGEYSMAKRYVDTLFEHERNNKQVGALKSMVEDKIQKETL-VDFWPTLKDAYEPLYPQQLEILRQQVVSEGGPTATIQSRFNYAWGLIKSTDVNDERLGVKILTDIYKEAESRRRECLYYLTIGCYKLGEYSMAKRYVDTLFEHERNNKQVGALKSMVEDKIQKETL,TLFERFQRAL-SLYANFLKSL-TLYEKYLKAQ-SLYANYTKSL-SLYEEFVRAM-SLYQRYQRSL-SLFAKFTKAL-SLYARFTQSL-SLYENFLKSL-TLYARFKKAY,SLFQGFKSYL-SLFQGFKSYL-SLFQGFKSYL-SLFQGFKSYL-SLFQGFKSYL-SLFQGFKSYL-SLFQGFKSYL-SLFQGFKSYL-SLFQGFKSYL-SLFQGFKSYL
14.0,34,44,B,10,SNSLEEYAEMFWPEVEKMKE-EVSLQTLSNLFWPEAKKMLN-MVSLDAHRELFWPIARQKLK-SITLEEMASRLYPLLNELKQ-GTTLDEYRDLFWPVAEALRE-SVSLIEKAIEFYPKALELTK-MVSLKYYKDLFYPRLNELKT-SISLKALAELFWPEANKLEN-KRSLEEERRMFWPRYYASLN-EVSMEELAKEFWPRANELRR,ETSLFQGFKSYLPIAELAIE-ETSLFQGFKSYLPIAELAIE-ETSLFQGFKSYLPIAELAIE-ETSLFQGFKSYLPIAELAIE-ETSLFQGFKSYLPIAELAIE-ETSLFQGFKSYLPIAELAIE-ETSLFQGFKSYLPIAELAIE-ETSLFQGFKSYLPIAELAIE-ETSLFQGFKSYLPIAELAIE-ETSLFQGFKSYLPIAELAIE,TIVAKYIIDR-TAVTAFIVAN-TEILQYILRK-SAIAKYIVKK-SDIARYIVAR-TVVEEFIIAL-STILKYIIKE-TVVGRFIVAY-DEKLKYIVAD-TAALKYIVDA,TIQSRFNYAW-TIQSRFNYAW-TIQSRFNYAW-TIQSRFNYAW-TIQSRFNYAW-TIQSRFNYAW-TIQSRFNYAW-TIQSRFNYAW-TIQSRFNYAW-TIQSRFNYAW
