contacts,cs,ce,Chain,Length,designed_receptor_seq,native_receptor_seq,designed_binder_seq,native_binder_seq
33.0,41,51,A,10,SSILEEMRRFAEAYAVEKDLYFHKDLSVTARVIHGLAKNREELGAPLCPMVSYEHRKACVECTYWVEPCVPLREKLVCECKLFLRPTDREAGEEQYIPLETLKEVEASTG-SNTLKETREFAEAYAKKTKTFFNKDLAVTARVIHGLANNKEKLGAPLCPLVTYKFKEAEVKDTYWVEPCVPLREKLVCQAKLFLKPEEKEAGKEQIIPEETLKKVEASWG-METLEKTRKFCEEYAKKTNTYFHKDLSVTATVIYGLADNKEKLGVPLCPVVKYKHKEACAKCTYWVYPCVPLKEALFCEAELFLKPDHKKAGKKQEIPWETIKKVKESTG-MNILEETRKFAEEYAKETNTYFHKDLSVTAVVIYGLAENKKELGVPLCPTVTYKHKEACAECTYCVEPCVPLRKYKICRAKLWLRPDDEEAGDKQEIPYETLEKVRESIG-MEILEKTRKFAEEYAKENNTYFHKDLAVTARVIYGLAHNQEKLGVPLCPMVTYKHKEACAKCTYWVYPCEPLKKYKFCEAKLFLKPSDEEAGDKQYIPTETLERVRKSIG-SMILEETRQFCEAYAKERDTYFHKDLSVTARVIYGLAANKELLGAPLCPMVSYDHEKACVKCTYWVYPCYPLQTNLECEAKLLLKPDDEEAGSKQEIPEETLEKVRASFG-SDILKREKEFAEEYAKKTNTYFNKDLSVTARVIHGLAENKQTLGVPLCPVVEYKHKDACAKCTYCVEPCVPLRKYKICEAELWLKPDDKKAGNKQYIPEETLEKVKKSFE-SEILERERQFAEEYARKRDTYFHKNLAVTARVIYGLALNTEKLGAPLCPTVTYRYKEACVECTYWVEPCVPLREYLECEALLFLRPDDELAGEKQEIPWEVLEEVRESID-SNALEKERQFAEDYAKQTNTYFHKDLSVTARVIYGLAQNKQELGVPLCPTVSYKHEEAEAEDTFWVYPCVPLREHHYCEAQLFLKPDHEDAGDKQTIPMETLEKVRASIG-MDILEKERLFCEEYAKKTNTYFHKDLSVTAVVIYGLAKNKEELGAPLCPMVKYKNKEAEVKDTYWVEPCVPLRKYLICKAELFLKPTHEKAGTKQYIPKEKLEEVLKSFY,NKTLAAMKNFAEQYAKRTDTYFCSDLSVTAVVIEGLARHKEELGSPLCPCRHYEDKEAEVKNTFWNCPCVPMRERKECHCMLFLTPDNDFAGDAQDIPMETLEEVKASMA-NKTLAAMKNFAEQYAKRTDTYFCSDLSVTAVVIEGLARHKEELGSPLCPCRHYEDKEAEVKNTFWNCPCVPMRERKECHCMLFLTPDNDFAGDAQDIPMETLEEVKASMA-NKTLAAMKNFAEQYAKRTDTYFCSDLSVTAVVIEGLARHKEELGSPLCPCRHYEDKEAEVKNTFWNCPCVPMRERKECHCMLFLTPDNDFAGDAQDIPMETLEEVKASMA-NKTLAAMKNFAEQYAKRTDTYFCSDLSVTAVVIEGLARHKEELGSPLCPCRHYEDKEAEVKNTFWNCPCVPMRERKECHCMLFLTPDNDFAGDAQDIPMETLEEVKASMA-NKTLAAMKNFAEQYAKRTDTYFCSDLSVTAVVIEGLARHKEELGSPLCPCRHYEDKEAEVKNTFWNCPCVPMRERKECHCMLFLTPDNDFAGDAQDIPMETLEEVKASMA-NKTLAAMKNFAEQYAKRTDTYFCSDLSVTAVVIEGLARHKEELGSPLCPCRHYEDKEAEVKNTFWNCPCVPMRERKECHCMLFLTPDNDFAGDAQDIPMETLEEVKASMA-NKTLAAMKNFAEQYAKRTDTYFCSDLSVTAVVIEGLARHKEELGSPLCPCRHYEDKEAEVKNTFWNCPCVPMRERKECHCMLFLTPDNDFAGDAQDIPMETLEEVKASMA-NKTLAAMKNFAEQYAKRTDTYFCSDLSVTAVVIEGLARHKEELGSPLCPCRHYEDKEAEVKNTFWNCPCVPMRERKECHCMLFLTPDNDFAGDAQDIPMETLEEVKASMA-NKTLAAMKNFAEQYAKRTDTYFCSDLSVTAVVIEGLARHKEELGSPLCPCRHYEDKEAEVKNTFWNCPCVPMRERKECHCMLFLTPDNDFAGDAQDIPMETLEEVKASMA-NKTLAAMKNFAEQYAKRTDTYFCSDLSVTAVVIEGLARHKEELGSPLCPCRHYEDKEAEVKNTFWNCPCVPMRERKECHCMLFLTPDNDFAGDAQDIPMETLEEVKASMA,LDGRPVHCIG-YKGKPITREP-FKGKPVVCKG-YKGKPIECCG-YEGKPISCEG-FEGKPVECSG-YNGKPVCCCG-WKGRPVVCRP-YQGKPTTRCP-YKGKPVTACP,WQGRPISANL-WQGRPISANL-WQGRPISANL-WQGRPISANL-WQGRPISANL-WQGRPISANL-WQGRPISANL-WQGRPISANL-WQGRPISANL-WQGRPISANL
24.0,54,64,B,10,MEKGDVVEVTESVVVYHHPDHINQAYDLKGRIGVVKRVREKYQGVPIKADRPVLVEFEHKFEAAFKPEEIKKID-MQVGDTVVVVADVVVYHHPDHVDEAFDLKGMVGTVLRVRTEWEGVPVSCRYPVEVEFEDRFRADFRPEQIALLD-MKPGDKVEVTADVVVYSHPEHRNQAFNLKGLVGTVAAVSETYKGVPVKATRPVLVTFENSFTAAFRPDEITLIE-MKVGDVVEVTKSVVVLHHPEHRNKKFDLKGMVGTVEAIRTEYEGVPVYAQRPVIVRFEDDFTADFLPSEIKLIE-MKVGDKVKVTKDVVVYDHPEHLNKAYNLKGRTGTVKRVKEEYEGVPIEADRPVIVEFEDDYEAAFKPEEITLLE-MNVGDKVKVTASVVVYHHPDHVNQAFDLKGMVGTVKAVKVSYEGVPISAKTPVLVEFENKFEASFKPEEISLLD-MKPGDRVRVTADVVVYHHPEHVDEAYNLRGMVGTVEAVREEYEGVPIDDDKPVIVRFEDDFTAAFRPDQITRLG-MRVGDRVEVTADVVVYHHPEHEREAWNLKGRTGEVAAVREEYEGVPIHADRPVHVVFENDFEADFEPDEITLLG-MKVGDKVEVVADVVVYHHPRHVDQAFNLKGMVGTVKEVKETFEGVPITNDKPVLVEFEDDFTASFLPEEIRLLD-MKVGDTVEVTASVVVYHHPEHVNEAYDLKGRVGTVKSVRTEYEGVPITAKRPVLVAFDDDFTASFKPEEIRLLD,MNVGDRVRVTSSVVVYHHPEHKKTAFDLQGMEGEVAAVLTEWQGRPISANLPVLVKFEQRFKAHFRPDEVTLIE-MNVGDRVRVTSSVVVYHHPEHKKTAFDLQGMEGEVAAVLTEWQGRPISANLPVLVKFEQRFKAHFRPDEVTLIE-MNVGDRVRVTSSVVVYHHPEHKKTAFDLQGMEGEVAAVLTEWQGRPISANLPVLVKFEQRFKAHFRPDEVTLIE-MNVGDRVRVTSSVVVYHHPEHKKTAFDLQGMEGEVAAVLTEWQGRPISANLPVLVKFEQRFKAHFRPDEVTLIE-MNVGDRVRVTSSVVVYHHPEHKKTAFDLQGMEGEVAAVLTEWQGRPISANLPVLVKFEQRFKAHFRPDEVTLIE-MNVGDRVRVTSSVVVYHHPEHKKTAFDLQGMEGEVAAVLTEWQGRPISANLPVLVKFEQRFKAHFRPDEVTLIE-MNVGDRVRVTSSVVVYHHPEHKKTAFDLQGMEGEVAAVLTEWQGRPISANLPVLVKFEQRFKAHFRPDEVTLIE-MNVGDRVRVTSSVVVYHHPEHKKTAFDLQGMEGEVAAVLTEWQGRPISANLPVLVKFEQRFKAHFRPDEVTLIE-MNVGDRVRVTSSVVVYHHPEHKKTAFDLQGMEGEVAAVLTEWQGRPISANLPVLVKFEQRFKAHFRPDEVTLIE-MNVGDRVRVTSSVVVYHHPEHKKTAFDLQGMEGEVAAVLTEWQGRPISANLPVLVKFEQRFKAHFRPDEVTLIE,NEEAEKLERG-NPAAERKETG-NEAAEQLETG-NIEAELKETG-NEEAEELETG-NKEAEKKETY-AFAAEIRDTG-NWEAEMKETG-NEEAERKQKG-NPAAEKAQTG,DKEAEVKNTF-DKEAEVKNTF-DKEAEVKNTF-DKEAEVKNTF-DKEAEVKNTF-DKEAEVKNTF-DKEAEVKNTF-DKEAEVKNTF-DKEAEVKNTF-DKEAEVKNTF
