contacts,cs,ce,Chain,Length,designed_receptor_seq,native_receptor_seq,designed_binder_seq,native_binder_seq
40.0,87,97,A,10,MITHHLPDALLDAYARGALDEALELVAATHLALCPHDRAAFAARLAVHVRAARLAAPVPAPVGAAEARAAVRADGAGDPHVPGPLAALVGGDLDALTWTANGPGVRSAELPVGGAARATLLRIPAGAELPPHRHAGEELILVLTGAFADTDRLYRAGDLLHLTADDIHAPRALAGETCVLLAATA-MIEHHVPAELVAQYARGTLDEAFALVVAEHLARCPACRAAFEDELALLEGALAAATPVAAPAGYRSAVEAQLSPGGADPRVGGPLAEYVGDDLAALEWTVLGDGVRRAVLPVGGTATAALLDIPAGAALPEHAHHGVALTLILRGAFSDGRDRYEAGDLLYMRPGQTHRPVADAGERCVTLVATD-MIRHHVSAELIEAYAAGTLEEAFELVIATQLALCPEDRARLSGALALYAGRAAAAKPVALPEGALEAVLARLPADAADPAVGGPLAAYVGADLDALEWRDVGEGVRLAELPVGGEARAVLLDIPAGAAYPEHLHDGDELVLVLRGAFDDEDRRYEAGDLLYARPGDAHRPTALDGEGCVCLGAIA-MIAHHVSDALLDEYARGTLDEAFALVAATHLSLCPADRAAHRARLDVWRAAAAAAEPVPLPEGALAAALATLPAGEGDPAVGGPLARYVGADLDALEWEELGEGVRRAVLPVGGGAVAALLDIPEGAALPAHEHAGTELVLVLRGAFEDGDRRYEAGDLLVARPGDRHRPRALEGEGCVCLAAIE-MINHHLPDALVRAYAAGSLDEAFALVGATQLSLCPVCRAALADELAVLAHAHASATPVPLPEGWREALLARLPAAAGDPRVPGPLARYVGADLAALEWEALGAGVRVAVLPVGGDARAALLDIPAGAALPPHRHTGLELVLVLTGAFEDGARRYARGDLLVATAADEHRPTALDGEGCICLAAWS-MIEHHVPAELLAAYADGTLDEAFELVAATHLSLCPESRAALEALLARREAAARSTAPRPLPAGYAEALLALLPAEAADPAVRGPLAAYVGDDLAALDWRELGAGVRAAQLPVGGDGLAVLLDIPAGAALPPHRHAGVELSLVLRGAFRDGDRLFAAGDLLYLRPGDTHQPVALAGERCVLLSALL-MVEHHLSAAYVAAYAAGTLDEAFALVGAEQLARSPVDAAAWRAAGERLLGEAEAATPVPLPDGAEAALRAVLPAGAGDPRVGGPLAARVGADLAALAWTELGAGVRRAELPVGGAARAVLLDIPAGGALPAHRHAGRELVLVLEGAFEDGDRRYAAGDLLELDADDVHRPVALAGAGCVTLAAWD-MITHHVPQELLDAYAAGDLDEAFALVTATQLSLSPGDRAALEARLAVFLGAAAAAEPVPLPEGAVEAVLAVLPEGEGDPRVRGPLAERVGGDLAALDWVERGPGVREATLPVGGESVAVLLDIPAGASLPPHRHRGTELVLVLTGSFRDGDRLYAAGDLLHLDEDTVHEPTAVEGEGCVCLAAFT-MISHHVSGSLIEAYADGSLDEAFALVIATQLSLCPADRERLAGALERHLGAALAAEPTPLPAGALEAALARAASGAADPAVGGPLAALVGGDLDALAWQEFGAGVRLAELPVGGTATAVLLDIPAGAALPAHRHAGTELTLVLRGAFRDGEQLYRAGDLLVLDAATEHTPVAEAGAGCVCLAALA-GIRHHLSDAWLAAYADGTLDEAFALVGAERLALCPADRAALAARLEAREQAYAAETPVPLPAGAREAVLARLPAAEGDPRVPGPLARYVGGDLAALDWRTLGDGVRLAVLPVGGRALAALLDVPEGQAVPPHVHAGEELVLVLTGAFRDARELYRRGDLLHLRADEVHTPRALAGTGCVCLGALS,TIRHHVSDALLTAYAAGTLSEAFSLVVATHLSLCDECRARAGALDAVGGSLMEETAPVALSEGSLASVMAQLDRQIADPRAPAPLADYVGRRLEDVRWRTLGGGVRQAILPTGGEAIARLLWIPGGQAVPDHGHRGLELTLVLQGAFRDETDRFGAGDIEIADQELEHTPVAERGLDCICLAATD-TIRHHVSDALLTAYAAGTLSEAFSLVVATHLSLCDECRARAGALDAVGGSLMEETAPVALSEGSLASVMAQLDRQIADPRAPAPLADYVGRRLEDVRWRTLGGGVRQAILPTGGEAIARLLWIPGGQAVPDHGHRGLELTLVLQGAFRDETDRFGAGDIEIADQELEHTPVAERGLDCICLAATD-TIRHHVSDALLTAYAAGTLSEAFSLVVATHLSLCDECRARAGALDAVGGSLMEETAPVALSEGSLASVMAQLDRQIADPRAPAPLADYVGRRLEDVRWRTLGGGVRQAILPTGGEAIARLLWIPGGQAVPDHGHRGLELTLVLQGAFRDETDRFGAGDIEIADQELEHTPVAERGLDCICLAATD-TIRHHVSDALLTAYAAGTLSEAFSLVVATHLSLCDECRARAGALDAVGGSLMEETAPVALSEGSLASVMAQLDRQIADPRAPAPLADYVGRRLEDVRWRTLGGGVRQAILPTGGEAIARLLWIPGGQAVPDHGHRGLELTLVLQGAFRDETDRFGAGDIEIADQELEHTPVAERGLDCICLAATD-TIRHHVSDALLTAYAAGTLSEAFSLVVATHLSLCDECRARAGALDAVGGSLMEETAPVALSEGSLASVMAQLDRQIADPRAPAPLADYVGRRLEDVRWRTLGGGVRQAILPTGGEAIARLLWIPGGQAVPDHGHRGLELTLVLQGAFRDETDRFGAGDIEIADQELEHTPVAERGLDCICLAATD-TIRHHVSDALLTAYAAGTLSEAFSLVVATHLSLCDECRARAGALDAVGGSLMEETAPVALSEGSLASVMAQLDRQIADPRAPAPLADYVGRRLEDVRWRTLGGGVRQAILPTGGEAIARLLWIPGGQAVPDHGHRGLELTLVLQGAFRDETDRFGAGDIEIADQELEHTPVAERGLDCICLAATD-TIRHHVSDALLTAYAAGTLSEAFSLVVATHLSLCDECRARAGALDAVGGSLMEETAPVALSEGSLASVMAQLDRQIADPRAPAPLADYVGRRLEDVRWRTLGGGVRQAILPTGGEAIARLLWIPGGQAVPDHGHRGLELTLVLQGAFRDETDRFGAGDIEIADQELEHTPVAERGLDCICLAATD-TIRHHVSDALLTAYAAGTLSEAFSLVVATHLSLCDECRARAGALDAVGGSLMEETAPVALSEGSLASVMAQLDRQIADPRAPAPLADYVGRRLEDVRWRTLGGGVRQAILPTGGEAIARLLWIPGGQAVPDHGHRGLELTLVLQGAFRDETDRFGAGDIEIADQELEHTPVAERGLDCICLAATD-TIRHHVSDALLTAYAAGTLSEAFSLVVATHLSLCDECRARAGALDAVGGSLMEETAPVALSEGSLASVMAQLDRQIADPRAPAPLADYVGRRLEDVRWRTLGGGVRQAILPTGGEAIARLLWIPGGQAVPDHGHRGLELTLVLQGAFRDETDRFGAGDIEIADQELEHTPVAERGLDCICLAATD-TIRHHVSDALLTAYAAGTLSEAFSLVVATHLSLCDECRARAGALDAVGGSLMEETAPVALSEGSLASVMAQLDRQIADPRAPAPLADYVGRRLEDVRWRTLGGGVRQAILPTGGEAIARLLWIPGGQAVPDHGHRGLELTLVLQGAFRDETDRFGAGDIEIADQELEHTPVAERGLDCICLAATD,LRLGPQPAPA-LRSGPQPAPA-LRSGPQPRPA-LRLGPQPAPD-LRAGPQPGPA-LRAGLAPAPD-LRSGPQPAPA-LRAGPQPTPD-LRSGAQPAPA-LRAGAQPAPA,LRKDRQPEPE-LRKDRQPEPE-LRKDRQPEPE-LRKDRQPEPE-LRKDRQPEPE-LRKDRQPEPE-LRKDRQPEPE-LRKDRQPEPE-LRKDRQPEPE-LRKDRQPEPE
47.0,42,52,B,10,MSDKDFVALMYDIRDHADDEALKHVRNYFAPRVEAFLMRCGWDEATAKQEASAVMSRVWRDADEFRPDRYGVASWIWGIAINRQIKEQQDGPAPSGPVLRWGDGPRPPEDLVAAMQEAYAALDEAVADLPEEQLAVLERYFYGAGRRFDLPAELDLPLGELRELRQRALRVLREHN-MTQDDFVALMRAIRERDDDAALRLVTAHFEPRVEAYLMRRGYERREAQRAAQEVMARVRTEAAAYRPDQASVATWIWGIADNRRVAALQHDWKPRGPVLAWGEDPDPPAELVEAMQAAHRQLGQAIAALPADERAVLESYFDGADDDFDVKAQLGLPLGTISRLRARAVAVLREHL-MTATDFVELMRRIRDHDDAAALRHVGSHFQPRVTAFLMRCGWERDDAEDAARRVMAAVAERSEEFRPDLASVATWIYGIAVNRQVAEARDGPRPSPKVYRWGADREPPATLVAAMQQANAALAEAIAALPDDERALLERYFYGANAKDDIRAQLALPLGEIAELRRTALAALREAQ-ADKHDFVELMRRVRRENDAAALDLLRTHFEPRVTAFLMRCGYEEKAARAEARRVMAEVWRDADDYDPSLASVATWIYGIAANRRIAAERDGPRPRGPVLRWGPGEEPPAELVERMQQAHAELRQALAALPEEQRARLERYFFGEGRAYDLPAELDLPLEPLRELRREALAVLREHQ-GSHMDFVSLMRRIRDENDAVAMEHLRSHFEPRVTAFLMRRGMDAETAQEAASEVMLDVWRDSDEYRPDLWSVATWIYGLAINRRIAAERDGPKPTGPVLRWSETDTPPEELVARMQAANRELGEAIAALPADELARVEAFFYGADESYDVRAETDLPLGRIERLRKEALAVRKAAL-MSATDYVELMRRIRDDGDVDAFRYVRSYFEPRVTAFLMARGHDEKTARAEAQAVMGDVWDRRAEFRPDLDTVATWIYGLAVDRRIEAERDGARPRGPVARWPADALPPEALVAAMQQAGAALRAAIAALPADELAVLRRYYTGAGDAFDLPALTGLPLGPLRRLKTEAARVRRERL-MSETDYVALMERVRRAGDKAAMRRLRNHFAPRVEAFLMRRGYDARSARAAATRVMDAVWARAADYRPDTHSVATWIFGLANNRRVESERDGYKPSGPVLAWAEGSEPPAELVAAMQEAEAELDRAIAALPADERAVLERFFYGADADFDLRAVMDLPLGRIAKLRTDALRVYREAH-MNERNYTELMYRIKNDNDEAAYRLIANHFQPRVTAHLMRRGMEEAAAEDAAAEVMLEVYRDAEAYDPSLNSVATWVWGIAANRQVAEERDGRKPSPALHRWGADSTPPEELVRAMQKAYARLNAAIAALPEDELALVERYFYGDDRRYDLAAETGLPLGPLRQLRLRALRVHHEQT-SNAEDYVALMRRIRERQDEAAYDLVARHYQPRVTAFLMARGWDAERAQAAATEVMREVRRQAATFDPSRLSVAAWIYGLAVNRRVEAESAGPRPSPPVRRWGEGLEPPAELVAAMQAAHARLGEAIAALPEDELAVVRRFFYGADEAFDLAAVTDLPLGEIRDLRARAAAVWEAEN-MTADDFVDLMFRIRDDDDRQALRYVRNYFQPRVTAFLVKCGWEKRDATKAATRVMASVWREADRFRPDLDSVATWIYGLAMRRRVAELSDGERPYPPILAYGSGERPPEELVAAMQAADRRLREALKALPAAERAQLERFFYDTGAAFDLPAQLGLPLGELRRLRQRSLAVLRERH,SDRTDWVALMRAIRDHRDEAAFAELFQHFAPKVKGFLMKSGSVASQAEECAQDVMATVWQKAHLFDPSRASVATWIFTIARNRRIDGLRKDRQPEPEDLFWGPDSEPDQADVYEMQQENARLGRAIARLPEAQRALIERAFFGDLTHRELAAETGLPLGTIKSRIRLALDRLRQHM-SDRTDWVALMRAIRDHRDEAAFAELFQHFAPKVKGFLMKSGSVASQAEECAQDVMATVWQKAHLFDPSRASVATWIFTIARNRRIDGLRKDRQPEPEDLFWGPDSEPDQADVYEMQQENARLGRAIARLPEAQRALIERAFFGDLTHRELAAETGLPLGTIKSRIRLALDRLRQHM-SDRTDWVALMRAIRDHRDEAAFAELFQHFAPKVKGFLMKSGSVASQAEECAQDVMATVWQKAHLFDPSRASVATWIFTIARNRRIDGLRKDRQPEPEDLFWGPDSEPDQADVYEMQQENARLGRAIARLPEAQRALIERAFFGDLTHRELAAETGLPLGTIKSRIRLALDRLRQHM-SDRTDWVALMRAIRDHRDEAAFAELFQHFAPKVKGFLMKSGSVASQAEECAQDVMATVWQKAHLFDPSRASVATWIFTIARNRRIDGLRKDRQPEPEDLFWGPDSEPDQADVYEMQQENARLGRAIARLPEAQRALIERAFFGDLTHRELAAETGLPLGTIKSRIRLALDRLRQHM-SDRTDWVALMRAIRDHRDEAAFAELFQHFAPKVKGFLMKSGSVASQAEECAQDVMATVWQKAHLFDPSRASVATWIFTIARNRRIDGLRKDRQPEPEDLFWGPDSEPDQADVYEMQQENARLGRAIARLPEAQRALIERAFFGDLTHRELAAETGLPLGTIKSRIRLALDRLRQHM-SDRTDWVALMRAIRDHRDEAAFAELFQHFAPKVKGFLMKSGSVASQAEECAQDVMATVWQKAHLFDPSRASVATWIFTIARNRRIDGLRKDRQPEPEDLFWGPDSEPDQADVYEMQQENARLGRAIARLPEAQRALIERAFFGDLTHRELAAETGLPLGTIKSRIRLALDRLRQHM-SDRTDWVALMRAIRDHRDEAAFAELFQHFAPKVKGFLMKSGSVASQAEECAQDVMATVWQKAHLFDPSRASVATWIFTIARNRRIDGLRKDRQPEPEDLFWGPDSEPDQADVYEMQQENARLGRAIARLPEAQRALIERAFFGDLTHRELAAETGLPLGTIKSRIRLALDRLRQHM-SDRTDWVALMRAIRDHRDEAAFAELFQHFAPKVKGFLMKSGSVASQAEECAQDVMATVWQKAHLFDPSRASVATWIFTIARNRRIDGLRKDRQPEPEDLFWGPDSEPDQADVYEMQQENARLGRAIARLPEAQRALIERAFFGDLTHRELAAETGLPLGTIKSRIRLALDRLRQHM-SDRTDWVALMRAIRDHRDEAAFAELFQHFAPKVKGFLMKSGSVASQAEECAQDVMATVWQKAHLFDPSRASVATWIFTIARNRRIDGLRKDRQPEPEDLFWGPDSEPDQADVYEMQQENARLGRAIARLPEAQRALIERAFFGDLTHRELAAETGLPLGTIKSRIRLALDRLRQHM-SDRTDWVALMRAIRDHRDEAAFAELFQHFAPKVKGFLMKSGSVASQAEECAQDVMATVWQKAHLFDPSRASVATWIFTIARNRRIDGLRKDRQPEPEDLFWGPDSEPDQADVYEMQQENARLGRAIARLPEAQRALIERAFFGDLTHRELAAETGLPLGTIKSRIRLALDRLRQHM,AVMALGGALL-AVGALGGALL-PVGALGGALL-ARDALGGGLL-AVGAIGGGLM-AVGALGGALL-AVGALGGGLL-AIGAIGGGLL-AITAIGGGLL-AVGALGGGLL,ALDAVGGSLM-ALDAVGGSLM-ALDAVGGSLM-ALDAVGGSLM-ALDAVGGSLM-ALDAVGGSLM-ALDAVGGSLM-ALDAVGGSLM-ALDAVGGSLM-ALDAVGGSLM
