contacts,cs,ce,Chain,Length,designed_receptor_seq,native_receptor_seq,designed_binder_seq,native_binder_seq
17.0,125,135,A,10,GSMPGPIHAIALTAKLQAQKDEKKRLTEEKRLDEIEAEAQRRYGP-GSSPGPAHEVAEKARQLAEKVRTLDQTVLVEQDQIEKGAKELFGE-GAVPGPAAIGAVTQALKDARDRAREETESVLEKLVLEKAQELYGP-GSLPGPAAAGALSAALAAGLVVWVFLTGLRRQREVLEEAQRRFGG-GSHMGPADQYAKNLKELKEKVEKIEKTELKKLEEIVEKAKEKFGN-GVVPGPVHALALSLLLLAVLVAVYHLTLRRKQARVLERAEALYGP-GAMPGPEHIRALSEELERERLQRMQDTERVRQEDILARAQQAFGP-GSLPGPSSVYAETRKLISQLVKKKDETELVELEQIVKDAEVRYGR-GAMPGPEHAGALSKALLAEKVAKVDRTGLAKLKKIVAAAKKAFGD-GSHMGPSAAGALMAALLALFVLTNQLTLRRLQQLELQGARLAFGQ,TTAPGPIHLLELCDQKLMEFLCNMDNKDLVWLEEIQEEAERMFTR-TTAPGPIHLLELCDQKLMEFLCNMDNKDLVWLEEIQEEAERMFTR-TTAPGPIHLLELCDQKLMEFLCNMDNKDLVWLEEIQEEAERMFTR-TTAPGPIHLLELCDQKLMEFLCNMDNKDLVWLEEIQEEAERMFTR-TTAPGPIHLLELCDQKLMEFLCNMDNKDLVWLEEIQEEAERMFTR-TTAPGPIHLLELCDQKLMEFLCNMDNKDLVWLEEIQEEAERMFTR-TTAPGPIHLLELCDQKLMEFLCNMDNKDLVWLEEIQEEAERMFTR-TTAPGPIHLLELCDQKLMEFLCNMDNKDLVWLEEIQEEAERMFTR-TTAPGPIHLLELCDQKLMEFLCNMDNKDLVWLEEIQEEAERMFTR-TTAPGPIHLLELCDQKLMEFLCNMDNKDLVWLEEIQEEAERMFTR,EVAAKIQKLK-EVKKKIIELK-EVRAKVEELR-FVAAAVRALR-DVEKQIEELK-WVRARIRELR-EVRQQVTALA-DVVKEVIKLK-KVKAEIKKLK-LVRLQVERLR,KVRRAIEQLA-KVRRAIEQLA-KVRRAIEQLA-KVRRAIEQLA-KVRRAIEQLA-KVRRAIEQLA-KVRRAIEQLA-KVRRAIEQLA-KVRRAIEQLA-KVRRAIEQLA
18.0,34,44,B,10,GMHPFLQPWFKEYRISTFKNWPFKENSACTPENMAKAGFIHIPTENKPDLTQCFFCFTEISGWKPTDIPIERHKENDSDCKFLKVKKKLEDLTEEEFEALFKIKRKNYVDKRLFDIKKDFEDTAKEIDKAILDLKNI-GMDDFLRPWFKEYRISTFNNWPFKDNSNCTPENMAEAGFIHIPTKNRPDLTQCFFCFTEIDGWEPTDVPIEKHKENDSNCSFLKVEKKLESLTDDEFKALFKIKAQNFLDKKLDEKKQEILDAQKRIKAAIERLKKV-GMNPAFKPLLKDYRISTFKNWPFTENSACTPENMAEAGFIHIPTENLPDLTMCFFCFKEITGWKPEDIPIEKHKENDAECHFLNVKKKFEDLTIDEFNELFEIKAKNYIDKKTEEEINKFKKAKKMIDEAIVLLKDI-GMNPALKPWFKEYRISTFKDWPFQNNSACTPENMAEAGFIHVPTENQPDLTQCFFCFTEISGWKPEDIPSERHAEKSAGCAFLKVKKKLEQLSDDEFKALFKIKKANYLDKKLKEEKEKYEKAKKYIDEAVEFLKNQ-GPPPELAPWEKEYRISTFKDWPFKEGSKCTPEAMAEAGFIHIPTENNPDLSMCFHCFTEISGWKPEDVPADKHKENDAGCHFLKVKKKLEELTEDEWKALYKIKEKNKKDLLLENEKNKILDAQKKIEAAIEILKDT-GLPPELQPWFKEYRESTFKNWPFQENAKCTPENMAEAGFIHIPTKNQPDLSQCFFCFTQLTGWRPEDKPEKRHAENDADCSFLKVKKRFEDLSIEEFEALYEIRRKNHLDMTMEKTRQMFLDARKQIDKAIEYLKKQ-GLPPFLLPWQKDYRVSTFKDWPFKNNSTCTPENMAEAGFVHRPTEKKPDLTQCFFCFTELEGWKPTDVPLQQHAKNDADCSFLKVKKVLENLTEEEFQALNKIRYQNLLDKKMEDLQQKVEDAQKLIDRAIELLKNV-GPPPALQPWFKDYRISTFKNWPFQDNCNCTPENMAEAGFIHIPTKDNPDLSQCFFCFTELTGWKPTDIPIEKHKENSKDCSFLKVQKKLENLSEEEFNSLYKIKAKNFVDKKLKEIEDCFKTAQKNIDKAIELLKNI-GAPPELQPWFKDFRISTFQNWPFEDDSHCTPENMAEAGFVHIPTEDEPDLTQCFFCFTQIQGWKPTHIPSEKHRENDGDCDFLKVKKRLEDLTDDEFWKLYRIKAYNLIKKKTRDIQNDIKTASKLISQAIIALKNL-GPPPELQPWFKDYRISTFKDWPFKDNSKCTPENMAEAGFIHIPTENKPDLTECFFCFKRLSGWKPTDVPSEKHKENDNNCSFLKIKKSLNELTEEEFKALDKIRTQNLIDLLLEQIRQKKERAEKLIDEAIELLKKT,TLPPAWQPFLKDHRISTFKNWPFLEGCACTPERMAEAGFIHCPTENEPDLAQCFFCFKELEGWEPDDDPIEEHKKHSSGCAFLSVKKQFEELTLGEFLKLDRERAKNKIAKETNNKKKEFEETAKKVRRAIEQLAAM-TLPPAWQPFLKDHRISTFKNWPFLEGCACTPERMAEAGFIHCPTENEPDLAQCFFCFKELEGWEPDDDPIEEHKKHSSGCAFLSVKKQFEELTLGEFLKLDRERAKNKIAKETNNKKKEFEETAKKVRRAIEQLAAM-TLPPAWQPFLKDHRISTFKNWPFLEGCACTPERMAEAGFIHCPTENEPDLAQCFFCFKELEGWEPDDDPIEEHKKHSSGCAFLSVKKQFEELTLGEFLKLDRERAKNKIAKETNNKKKEFEETAKKVRRAIEQLAAM-TLPPAWQPFLKDHRISTFKNWPFLEGCACTPERMAEAGFIHCPTENEPDLAQCFFCFKELEGWEPDDDPIEEHKKHSSGCAFLSVKKQFEELTLGEFLKLDRERAKNKIAKETNNKKKEFEETAKKVRRAIEQLAAM-TLPPAWQPFLKDHRISTFKNWPFLEGCACTPERMAEAGFIHCPTENEPDLAQCFFCFKELEGWEPDDDPIEEHKKHSSGCAFLSVKKQFEELTLGEFLKLDRERAKNKIAKETNNKKKEFEETAKKVRRAIEQLAAM-TLPPAWQPFLKDHRISTFKNWPFLEGCACTPERMAEAGFIHCPTENEPDLAQCFFCFKELEGWEPDDDPIEEHKKHSSGCAFLSVKKQFEELTLGEFLKLDRERAKNKIAKETNNKKKEFEETAKKVRRAIEQLAAM-TLPPAWQPFLKDHRISTFKNWPFLEGCACTPERMAEAGFIHCPTENEPDLAQCFFCFKELEGWEPDDDPIEEHKKHSSGCAFLSVKKQFEELTLGEFLKLDRERAKNKIAKETNNKKKEFEETAKKVRRAIEQLAAM-TLPPAWQPFLKDHRISTFKNWPFLEGCACTPERMAEAGFIHCPTENEPDLAQCFFCFKELEGWEPDDDPIEEHKKHSSGCAFLSVKKQFEELTLGEFLKLDRERAKNKIAKETNNKKKEFEETAKKVRRAIEQLAAM-TLPPAWQPFLKDHRISTFKNWPFLEGCACTPERMAEAGFIHCPTENEPDLAQCFFCFKELEGWEPDDDPIEEHKKHSSGCAFLSVKKQFEELTLGEFLKLDRERAKNKIAKETNNKKKEFEETAKKVRRAIEQLAAM-TLPPAWQPFLKDHRISTFKNWPFLEGCACTPERMAEAGFIHCPTENEPDLAQCFFCFKELEGWEPDDDPIEEHKKHSSGCAFLSVKKQFEELTLGEFLKLDRERAKNKIAKETNNKKKEFEETAKKVRRAIEQLAAM,RLQGAIKRYG-NLKEAIKKYG-GLEEAIKKYL-GLAGAIKKYL-GLKGAIEKYG-GLKGAIKKYL-GLKGAAKKYG-GLKGAILKYC-NLENAIKKYG-GLKEAIREYL,IQEEAERMFT-IQEEAERMFT-IQEEAERMFT-IQEEAERMFT-IQEEAERMFT-IQEEAERMFT-IQEEAERMFT-IQEEAERMFT-IQEEAERMFT-IQEEAERMFT
