contacts,cs,ce,Chain,Length,designed_receptor_seq,native_receptor_seq,designed_binder_seq,native_binder_seq
29.0,11,21,A,10,GSSEFKVRKTLCLAVLRRYFPHIQAIIDVAFNVSVFLNSTETRVTGPFFLVKDTDNKVGYVILNQNSPLDIYKAIERPEDVHIVKKYLVVSKNAHEILNFYFSGINDSKRIYNIIHNSLEG-GMAMEEIKREKCLEVLKSRYPNIKEIICRATRVALYDKMKKTKIEGPFFLVRDNDNKVGFVILNKNSETNLYLYVLKKEDVMIENNYLVLTHAKRNTFFLLFQNKNDLKKVFKAIHESLRG-GGGSSSHKRSIMLQVLQNKYPSINSIICTAPLVGEYKNQQKTETIGPFFLVQDQNNDVGYVILNRNSLEDTYLYIRFPSDVEINQKFLVHTVSKDKIRHYKFLDRAELDRIYKQIHESLNG-GKSKQENANKICLDVLKSRYPNIQSIISIAEHVEVYRNKQKTGIEGTFFLVCNQQSQVGFVILNKNSPLDIYCNIAHPSDVKIESNYLEHTTGQLETDYYRFENSLDLSRIFHMIRRSLDG-MGSSEKKKKQKELQVLQKYYPDIKAIITVAGKVEVFKNQNRTKIRGPFFLVRDINDRVGFVILNQNSPMDAYLFIEDKENVVIQDEFLVMKKEKEDINYLFFSNEEDLERMYDFINNSLQG-GSMASRLKMAVELKALQAHYPNIRSIICVAPSVAVYKVPKRTAIVGVFFLVRDEYHNVGFVILNKNNPIDIYKYITNPASVQIIAQYLEQRRQGNEIVRLLFYNQHDLAYIFQAIQESLLQ-GSHMEDMIKKKQLAALQSLYPSIESIISIARDVQVYENNDKTDIEGIFFLVRDKDNTIGFVILNKNSPKNLRQDILKPSDVTIDARFLVHSLENETILYYRCFSDADRQKILDIVHKSLFG-SNAKQRNERRQALQVLQSRYPDIREIIGIAPDVSEYWLSHKTAIYGVFFLIEDEEGRIGYVILNKNSPNDLRQWISDKDDVQIKREYLVHTEGDVIVNQLLFHNEKWRAYIYRQINESLAG-GAMKSIERKEKALSVLQQHYPDIQEIITVAKDVSVFKRGEKTIIQGVFFLIREKDEMVGYVILNKNSPQDLCLFVSKKDDVHIDKNYLVLTQQQEDISKLFFHQNDDLAFIYDEICQSLEG-ERAEKIEHKRIALFVLRNHYPFIKDIITIAEDVSVFIEHRKTEIEGPFFLVRDEENRIGFVILNRNSPLDLFNYIYRQDDVKIVDRYLVHRRALDTELFFDFDRHEDRERIFREINVSLCG,MEDENILRNAVNLQVLKFHYPEIESIIDIASHVAVYQFWLKTSIEGTFFLVKDQRARVGYVILNRNSPENLYLFINHPSNVHLVDRYLIHRTENQHVVGLWMFDPNDMSRIFNIVKESLLR-MEDENILRNAVNLQVLKFHYPEIESIIDIASHVAVYQFWLKTSIEGTFFLVKDQRARVGYVILNRNSPENLYLFINHPSNVHLVDRYLIHRTENQHVVGLWMFDPNDMSRIFNIVKESLLR-MEDENILRNAVNLQVLKFHYPEIESIIDIASHVAVYQFWLKTSIEGTFFLVKDQRARVGYVILNRNSPENLYLFINHPSNVHLVDRYLIHRTENQHVVGLWMFDPNDMSRIFNIVKESLLR-MEDENILRNAVNLQVLKFHYPEIESIIDIASHVAVYQFWLKTSIEGTFFLVKDQRARVGYVILNRNSPENLYLFINHPSNVHLVDRYLIHRTENQHVVGLWMFDPNDMSRIFNIVKESLLR-MEDENILRNAVNLQVLKFHYPEIESIIDIASHVAVYQFWLKTSIEGTFFLVKDQRARVGYVILNRNSPENLYLFINHPSNVHLVDRYLIHRTENQHVVGLWMFDPNDMSRIFNIVKESLLR-MEDENILRNAVNLQVLKFHYPEIESIIDIASHVAVYQFWLKTSIEGTFFLVKDQRARVGYVILNRNSPENLYLFINHPSNVHLVDRYLIHRTENQHVVGLWMFDPNDMSRIFNIVKESLLR-MEDENILRNAVNLQVLKFHYPEIESIIDIASHVAVYQFWLKTSIEGTFFLVKDQRARVGYVILNRNSPENLYLFINHPSNVHLVDRYLIHRTENQHVVGLWMFDPNDMSRIFNIVKESLLR-MEDENILRNAVNLQVLKFHYPEIESIIDIASHVAVYQFWLKTSIEGTFFLVKDQRARVGYVILNRNSPENLYLFINHPSNVHLVDRYLIHRTENQHVVGLWMFDPNDMSRIFNIVKESLLR-MEDENILRNAVNLQVLKFHYPEIESIIDIASHVAVYQFWLKTSIEGTFFLVKDQRARVGYVILNRNSPENLYLFINHPSNVHLVDRYLIHRTENQHVVGLWMFDPNDMSRIFNIVKESLLR-MEDENILRNAVNLQVLKFHYPEIESIIDIASHVAVYQFWLKTSIEGTFFLVKDQRARVGYVILNRNSPENLYLFINHPSNVHLVDRYLIHRTENQHVVGLWMFDPNDMSRIFNIVKESLLR,LFKNVTYSLI-KYLEVRFSLV-AFYLARYILW-GMDLVRNAIY-ILQEVIFELY-LFKLVRFVLY-QMEEVRYSLF-TYDIVRFDLF-ASKLVRYQLY-LYEEVKFVAY,DDLSARFILN-DDLSARFILN-DDLSARFILN-DDLSARFILN-DDLSARFILN-DDLSARFILN-DDLSARFILN-DDLSARFILN-DDLSARFILN-DDLSARFILN
21.0,9,19,B,10,VFKRRSFSEILLYLAVRFLYNLPADERGSVCVLNSQVHSAHIHYSQQIIAENRSLPRLDFVTFSRMLFTFDPLLWRVARVKKEAFDAYEG-MFKDASLKQIYLYLSDTFLYSLPETEKKKVYVLHHRIIEAHEFYLKQVIAENKELPKKNEKTFKEQIFKWNPKIWKLSKVEQSNYRNFEG-HMKNWKKEQVLDYLGVKFIDNLPKTQKHSVSKLDQQLWNAWTDYNDKMRQQNSNLPSENFAIFMAKIFEHDHNYWNWSEVQKQHYENYIG-TWNRKSFEQVLDHLSVLFLRNLPKTSRSSVSFLKSRLKQAHTYYRRELRSQNSELPKLDFKTFANRIFNHDPLLWHVSQVKRQSYALHFN-SAFNASLDQIFDYLIVKFIENQPIENKKNVQTLSKKLKDAHVYYREELIARREDLPELDFATFAQKIFKHNPDNWTKAKVKQKAWEQYTG-AFAKATFSEILLCLSVLFLDGLPALKRKSVTYLNDQLRKAHLFYSECVRQQNRRMPKLEFHEFSRKVFEHNPFLLKFTEVKKTDFEAAVG-HFQNMTFDQCLDYLAVRFLRNLPKEQTGNVLHLNACVWCAHQDYSHHLLSQNKDLPRLNYTTFREQMFLREPNLMKVTQVKSSAYNEALG-EMYQLSLEQCFDLLTVLFLDNLPASQKSSVSTLDMRIYRAHIFYSAKLREQNSSLPRLDFVEFARKLFQHDPQNWNRSKVEKKQYQAFIG-TFNGKTLSQVLDFLQVRFLNGLPSVEKRHVHYLNDKLEAAHIHYLTEIRKQNKKMPDLKFITFCDEVLEHNPENWRVTRVEREKYNAYIG-MYAELSLEEILDYLSVKFLYNLPPVDRFSVNRLHNRLTEAHVDYEVNIRAENSDLPSLDEYEFYERIFSHNPDLYDLSQVRKRRFNAHVN,SFTNATFSQVLDDLSARFILNLPAEEQSSVERLCFQIEQAHWFYEDFIRAQNDQLPSLGLRVFSAKLFAHCPLLWKWSKVHEEAFDDFLR-SFTNATFSQVLDDLSARFILNLPAEEQSSVERLCFQIEQAHWFYEDFIRAQNDQLPSLGLRVFSAKLFAHCPLLWKWSKVHEEAFDDFLR-SFTNATFSQVLDDLSARFILNLPAEEQSSVERLCFQIEQAHWFYEDFIRAQNDQLPSLGLRVFSAKLFAHCPLLWKWSKVHEEAFDDFLR-SFTNATFSQVLDDLSARFILNLPAEEQSSVERLCFQIEQAHWFYEDFIRAQNDQLPSLGLRVFSAKLFAHCPLLWKWSKVHEEAFDDFLR-SFTNATFSQVLDDLSARFILNLPAEEQSSVERLCFQIEQAHWFYEDFIRAQNDQLPSLGLRVFSAKLFAHCPLLWKWSKVHEEAFDDFLR-SFTNATFSQVLDDLSARFILNLPAEEQSSVERLCFQIEQAHWFYEDFIRAQNDQLPSLGLRVFSAKLFAHCPLLWKWSKVHEEAFDDFLR-SFTNATFSQVLDDLSARFILNLPAEEQSSVERLCFQIEQAHWFYEDFIRAQNDQLPSLGLRVFSAKLFAHCPLLWKWSKVHEEAFDDFLR-SFTNATFSQVLDDLSARFILNLPAEEQSSVERLCFQIEQAHWFYEDFIRAQNDQLPSLGLRVFSAKLFAHCPLLWKWSKVHEEAFDDFLR-SFTNATFSQVLDDLSARFILNLPAEEQSSVERLCFQIEQAHWFYEDFIRAQNDQLPSLGLRVFSAKLFAHCPLLWKWSKVHEEAFDDFLR-SFTNATFSQVLDDLSARFILNLPAEEQSSVERLCFQIEQAHWFYEDFIRAQNDQLPSLGLRVFSAKLFAHCPLLWKWSKVHEEAFDDFLR,ALRQDALQQI-KRVIARRRME-WRPLKVEKAL-SVQQKVLELL-VAPEDVLLLL-QRQLRFLKMM-SLRQRVESLL-RREIRVRRLL-RLKKIVKGLI-IAEDEVKRLL,AVNLQVLKFH-AVNLQVLKFH-AVNLQVLKFH-AVNLQVLKFH-AVNLQVLKFH-AVNLQVLKFH-AVNLQVLKFH-AVNLQVLKFH-AVNLQVLKFH-AVNLQVLKFH
