contacts,cs,ce,Chain,Length,designed_receptor_seq,native_receptor_seq,designed_binder_seq,native_binder_seq
16.0,33,43,A,10,GPLVMASIEDLQKVLSGFDEDKKRQVLLDRFDAVMGEVKKVFLEIYEEVFKAIEAARDELIRIVELAEKREKELEEIRKYYTQFKKASLF-AALVSLSDEELMKILKDRSDIEIAATLNERKSKIEALEKAKKEQFQVIEKEHNQLKTERLKEKVEKLQKIAETKKEKVEKIREEKEKWQK-EDLVKATDDDLEKRMEGLSKEEKKKIYDLRRLMKNYFSKIYREMWEVLERLAISKRRKLLEMEVLEKLKLEYKRRKEELDSEVIDVERFM-ERLRTLSEEDLHELLLDLNDNEILEILKERKRLLEEDLERLRERLKVLRKKALEAAKREQESIIAELEHENARREKIEFELRLREELKKK-SELVLDSDEGLARKLSAMTDEQREALLKERDRLVRYECIKIFEARQEAIREALKEAHTEDLRIVEQARAINKREKKQKAAASVKLAQKGD-DKLIEMTEEELNKALKDYSDEEKEFLYNLREKLRDKELKKRYYQAKQDEYKRKKLEEEINKKILALLEQQRIKERKLNLEVSIENIQQEI-ELLASYSDEELREIMRDYTDEQIRELLDERKRRLEKEARKWKERAKRLKRQALLELKKLQQKVLEKLKALARERAAEMERLLREKRAALE-AKLRDMEWNDLFKELTGMDRNQIREILNERRDRINADIRLEANAAMEALRAKIDKLSLDNRKALHLALTQKKRLMEELETAEIEKRAKKT-KKLCNSTDQELREKTSGLTDEEKARLFNLRKRLKNMFFAMNFYERRKQLEVAIETQVSYNKKRRAVLKRLKACYNNLLRAENEKRLAEIK-SALKSSTGRDLKKSLAHFSTPEKDEIYAEREKLLDKEHKKQQERVAKLLEQLLLSEEQLLKKIRDEKLDEKIKNRFDREESLRMEAFSQN,DQLVSMSVRELNRHLRGFTKDEVIRLKQKRRTLKNRGYAQSCRYKRVQQKHHLENEKTQLIQQVEQLKQEVSRLARERDAYKVKSEKLAN-DQLVSMSVRELNRHLRGFTKDEVIRLKQKRRTLKNRGYAQSCRYKRVQQKHHLENEKTQLIQQVEQLKQEVSRLARERDAYKVKSEKLAN-DQLVSMSVRELNRHLRGFTKDEVIRLKQKRRTLKNRGYAQSCRYKRVQQKHHLENEKTQLIQQVEQLKQEVSRLARERDAYKVKSEKLAN-DQLVSMSVRELNRHLRGFTKDEVIRLKQKRRTLKNRGYAQSCRYKRVQQKHHLENEKTQLIQQVEQLKQEVSRLARERDAYKVKSEKLAN-DQLVSMSVRELNRHLRGFTKDEVIRLKQKRRTLKNRGYAQSCRYKRVQQKHHLENEKTQLIQQVEQLKQEVSRLARERDAYKVKSEKLAN-DQLVSMSVRELNRHLRGFTKDEVIRLKQKRRTLKNRGYAQSCRYKRVQQKHHLENEKTQLIQQVEQLKQEVSRLARERDAYKVKSEKLAN-DQLVSMSVRELNRHLRGFTKDEVIRLKQKRRTLKNRGYAQSCRYKRVQQKHHLENEKTQLIQQVEQLKQEVSRLARERDAYKVKSEKLAN-DQLVSMSVRELNRHLRGFTKDEVIRLKQKRRTLKNRGYAQSCRYKRVQQKHHLENEKTQLIQQVEQLKQEVSRLARERDAYKVKSEKLAN-DQLVSMSVRELNRHLRGFTKDEVIRLKQKRRTLKNRGYAQSCRYKRVQQKHHLENEKTQLIQQVEQLKQEVSRLARERDAYKVKSEKLAN-DQLVSMSVRELNRHLRGFTKDEVIRLKQKRRTLKNRGYAQSCRYKRVQQKHHLENEKTQLIQQVEQLKQEVSRLARERDAYKVKSEKLAN,ELLERLTKLM-QLNEEIRRLW-DLEEKLKELL-ELKTKREMLN-ELEKQIEMLR-ELEERIEKLR-ELEKLIKLLE-QLQKRIAALL-PLLSKISRLR-TLRQQIASAK,QLEDEKSALQ-QLEDEKSALQ-QLEDEKSALQ-QLEDEKSALQ-QLEDEKSALQ-QLEDEKSALQ-QLEDEKSALQ-QLEDEKSALQ-QLEDEKSALQ-QLEDEKSALQ
16.0,61,71,B,10,AKLRKTKELLKENEALAREFANLKKKLTDMDLSLNDVIERSLKELIELKTRYETELNEQAAEV-GKWDEQCEQLRHQVGLSQQNQKLKEFRQSQEESIQRRLKSLLMDEIACLTREHTQSQEKLAHE-AALASHKAQNSALQAHHKALQAAQEKLRALSEDLDNVTISLHKDIGSILHLQLDYWKQVMAAF-EARKKAEKTDRRLYNISVAEAEHKKLSEEAKREYARELEKALRIAIAEAEDEQRYNLEVLLRE-ISDEEIQSRNKRLEKILALEKKLQRKKGAKAKSDNEVKASQLKLKIGQTITENRQGWQAGMSL-GAMGERLDRLEADVVASKEKAKLEAEKENLKKQLLLVEAEALRRKINILNSFFEYHERVVASK-RKLQQLKLQLQIGLNKLETRRGNLKQKMAKKSKLYQRKRSKLISRIEELESDYENRRLKLQSH-AAVNRARQISAESEKLAVLAKDRELELKQASKALWQVLKSFLEEQIEDNLRDTLEEFEIKAAR-DALEKKLEENTKRIEESMEKARKLEELLERARQKENQRIEKLKELLLDLASLYEHYQTVAEEE-GAMTQLKDELSLKTSLLTENIKLKHQLDAKVSQANKIRASMLNDYIEMLQEELWFNYDVGKSN,EKRRIRRERNKMAAAKCRNRRRELTDTLQAETDQLEDEKSALQTEIANLLKEKEKLEFILAAH-EKRRIRRERNKMAAAKCRNRRRELTDTLQAETDQLEDEKSALQTEIANLLKEKEKLEFILAAH-EKRRIRRERNKMAAAKCRNRRRELTDTLQAETDQLEDEKSALQTEIANLLKEKEKLEFILAAH-EKRRIRRERNKMAAAKCRNRRRELTDTLQAETDQLEDEKSALQTEIANLLKEKEKLEFILAAH-EKRRIRRERNKMAAAKCRNRRRELTDTLQAETDQLEDEKSALQTEIANLLKEKEKLEFILAAH-EKRRIRRERNKMAAAKCRNRRRELTDTLQAETDQLEDEKSALQTEIANLLKEKEKLEFILAAH-EKRRIRRERNKMAAAKCRNRRRELTDTLQAETDQLEDEKSALQTEIANLLKEKEKLEFILAAH-EKRRIRRERNKMAAAKCRNRRRELTDTLQAETDQLEDEKSALQTEIANLLKEKEKLEFILAAH-EKRRIRRERNKMAAAKCRNRRRELTDTLQAETDQLEDEKSALQTEIANLLKEKEKLEFILAAH-EKRRIRRERNKMAAAKCRNRRRELTDTLQAETDQLEDEKSALQTEIANLLKEKEKLEFILAAH,ERVERLKLLH-KEVQELEKAR-PEKSLLDKKS-GTVKKLEEEA-EVVQLLEKEL-EEVEDLEKAC-YTVRNLQKQV-AEVEELRKRM-NVVELLERKI-DEVSTLQKKC,QQVEQLKQEV-QQVEQLKQEV-QQVEQLKQEV-QQVEQLKQEV-QQVEQLKQEV-QQVEQLKQEV-QQVEQLKQEV-QQVEQLKQEV-QQVEQLKQEV-QQVEQLKQEV
