contacts,cs,ce,Chain,Length,designed_receptor_seq,native_receptor_seq,designed_binder_seq,native_binder_seq
14.0,104,114,A,10,QDPALARAQFLARWGDGTEFAHCE-MDFKELRDKFYELFGDGSEYAWLE-MNEEELLKKFFEIFGDGSEFAYEK-DDPDKLLAEYYAKYGDGSEFAWLR-VDEEKIKAIEKEIWGDGSEYLWRD-LNLLLELEKFFEKFGDGSEYEYLQ-MDLNEALKEFYKIFGDGSEFSFLE-SNAEEIKKKVLSILGDGSEFAYLD-VDIALLFKEFLKVFGDGSEYKYLE-GHMLLRLLEHLATYGDGTEFLHEL,IDYGDRDSLFFEIFGTGEEYRYVL-IDYGDRDSLFFEIFGTGEEYRYVL-IDYGDRDSLFFEIFGTGEEYRYVL-IDYGDRDSLFFEIFGTGEEYRYVL-IDYGDRDSLFFEIFGTGEEYRYVL-IDYGDRDSLFFEIFGTGEEYRYVL-IDYGDRDSLFFEIFGTGEEYRYVL-IDYGDRDSLFFEIFGTGEEYRYVL-IDYGDRDSLFFEIFGTGEEYRYVL-IDYGDRDSLFFEIFGTGEEYRYVL,VAAYHASICP-KFEFWLSIKP-KFLFWKSIEP-VNELWASIEP-KYELWLSIEP-KFEFWQSIKP-KFQRWQLIKP-KEEFWELIKP-KEQLWESIKP-KLEYWKSIKP,KIVYFYSINP-KIVYFYSINP-KIVYFYSINP-KIVYFYSINP-KIVYFYSINP-KIVYFYSINP-KIVYFYSINP-KIVYFYSINP-KIVYFYSINP-KIVYFYSINP
20.0,10,20,B,10,GSMNEQALGLYKRMQDIYDADNANMKQGKPANGKINNISTIASELKSEELEQALLDKGILLQIRNWLSPHPNETLPDIAVQIELLNVLETLNIKYNHLVKSGIGKIVYYYSINPGESESVRAMAQKLVDKWKKELDG-GAMDELAKSLYKQMQDIVLQDRAAVKRGDPATGKIDNIARIAELLRSKELEQALLNNGILNEIRGWLSPYPDESMPNVVVQRRLLEVLSLLDIKKEHLVNSGIGKIVGWYSRNPGESEEIRAMAQALVEKWKQELTG-GSVNAIALGLRKEMEDIVNTDRENVQRGTPATGKIENISRIAKLLKSKELQQALLDEGILIEIKNWLSPNPDGSMPNIKVQKELLDVLETLDIKYDHLVSSGVGKIVFFYSIDPGQTEEVKAKAIRLVEKWKKELTG-GSVYAKALGLYSEMEAIWLKDNENNEKGTPATGRIENIDRIAEQLKSKELQQALLDEGILDQIRNWLSPYPDKSLPDDRVRYKLLEVLAELDIKYDHLVNSGVGKIVYWYSIDPNETEEVREMAKKLVEKWKGTLKG-GAMDTVATTLREKMRNITEDDNRNVSEGKPATGRVDNIETIAAQLNSKDLQQALLDNGILVEIRNWLSPYPDKSLPDIRVRRRLLDVLSTLDIKLDHLIGSGVGEIVYWYSIDPGETAEVRAMAQNLVKKWQGELTG-GAVNAQAQELYDRMQAIFDADNANVQNGTPATGRLQNIDGIAAELRSKELQQALLDNGILNQIRNWLSPWPDKSMPDIRVQTRLLQVLTTLDIKYDDLVNSGVGKIVYHYSINPGETEEVRNMAKALVNKWKGELTG-GSMDAKALKLYRTMQEIVLADRANNLRGLPANGKINNIEGIASELRSKELQQALLNKGILVEIKNWLSPWPDKSLPDIRIQTKLLDVLSLLDIKYDHLVESGVGKIVYWYSINPGASKEIRDKAKRLVEKWKGTLTG-GSIFAKARSLHQQMQDIVEKDNLNNETGKPFTGKVDNIDRIAAQLKSKTLQQSLLDEGILVEIKNWLSPNPNKSWPDQKVQTKLLEVLQTLDIKKAHLINSGVGKIVYQYSVDPGESKSIKQQAKLLVEKWKGQLKG-GSVNATATSLYNQMKAITAADNANNKKGTPADGKVNNIDTIASTLNSSSLQQALLNNGILVQIRNWLSPNPDGSMPDVVVQKKLLDVLATLKVKYDHLVGSGVGKIVYWYSIDPGESAEIRQQAKALVDKWKGELKG-GMVDAVAKGLKKQMQDIYKQDCANVEKGTPANGKVENIDRIAKLLRSKKLEKSLLDNGILDEIRNWLSPNPDKSLPDERVEKKLLDVLEELNIRYDHLVKSGIGRIVRFYSIDPGCSEEIRKMAQRLVDKWKEELKG,GTVLEISRSLKKRMQDILKKDNANNLEGRPATGKIENVEEISDILMSKALQESLLDEGILDEIKGWLEPLPDKSMPNIKIRKRLLDVLKTMKIHKEHLVTSGVGKIVYFYSINPKESKEVRASAKALVQKWTNEVFK-GTVLEISRSLKKRMQDILKKDNANNLEGRPATGKIENVEEISDILMSKALQESLLDEGILDEIKGWLEPLPDKSMPNIKIRKRLLDVLKTMKIHKEHLVTSGVGKIVYFYSINPKESKEVRASAKALVQKWTNEVFK-GTVLEISRSLKKRMQDILKKDNANNLEGRPATGKIENVEEISDILMSKALQESLLDEGILDEIKGWLEPLPDKSMPNIKIRKRLLDVLKTMKIHKEHLVTSGVGKIVYFYSINPKESKEVRASAKALVQKWTNEVFK-GTVLEISRSLKKRMQDILKKDNANNLEGRPATGKIENVEEISDILMSKALQESLLDEGILDEIKGWLEPLPDKSMPNIKIRKRLLDVLKTMKIHKEHLVTSGVGKIVYFYSINPKESKEVRASAKALVQKWTNEVFK-GTVLEISRSLKKRMQDILKKDNANNLEGRPATGKIENVEEISDILMSKALQESLLDEGILDEIKGWLEPLPDKSMPNIKIRKRLLDVLKTMKIHKEHLVTSGVGKIVYFYSINPKESKEVRASAKALVQKWTNEVFK-GTVLEISRSLKKRMQDILKKDNANNLEGRPATGKIENVEEISDILMSKALQESLLDEGILDEIKGWLEPLPDKSMPNIKIRKRLLDVLKTMKIHKEHLVTSGVGKIVYFYSINPKESKEVRASAKALVQKWTNEVFK-GTVLEISRSLKKRMQDILKKDNANNLEGRPATGKIENVEEISDILMSKALQESLLDEGILDEIKGWLEPLPDKSMPNIKIRKRLLDVLKTMKIHKEHLVTSGVGKIVYFYSINPKESKEVRASAKALVQKWTNEVFK-GTVLEISRSLKKRMQDILKKDNANNLEGRPATGKIENVEEISDILMSKALQESLLDEGILDEIKGWLEPLPDKSMPNIKIRKRLLDVLKTMKIHKEHLVTSGVGKIVYFYSINPKESKEVRASAKALVQKWTNEVFK-GTVLEISRSLKKRMQDILKKDNANNLEGRPATGKIENVEEISDILMSKALQESLLDEGILDEIKGWLEPLPDKSMPNIKIRKRLLDVLKTMKIHKEHLVTSGVGKIVYFYSINPKESKEVRASAKALVQKWTNEVFK-GTVLEISRSLKKRMQDILKKDNANNLEGRPATGKIENVEEISDILMSKALQESLLDEGILDEIKGWLEPLPDKSMPNIKIRKRLLDVLKTMKIHKEHLVTSGVGKIVYFYSINPKESKEVRASAKALVQKWTNEVFK,LEIFGDGSEA-AEIFGDGSEV-KDIFADGTEL-GDIFGDGSEI-EQIFAGGTEL-GAIFGNGAEV-TAIFANGSEL-KAIFGDGKEL-AEIFDNGKYK-KEIFGDGTEL,FEIFGTGEEY-FEIFGTGEEY-FEIFGTGEEY-FEIFGTGEEY-FEIFGTGEEY-FEIFGTGEEY-FEIFGTGEEY-FEIFGTGEEY-FEIFGTGEEY-FEIFGTGEEY
