contacts,cs,ce,Chain,Length,designed_receptor_seq,native_receptor_seq,designed_binder_seq,native_binder_seq
13.0,61,71,A,10,GSHMGILENLRKDLESVLDELEK-GSHMGILENIRKDLEEVLKELEK-GSHMGILENIRKDLKSVLDELEK-GSHMGELEELRKNLKSVLEELEK-GSHMGELENLRKELKSVLEELEK-GSHMGKLENLRKELKSVLEELEK-GSHMGELEELRKSLESVLEELEK-GSHMGILENIRKDLEEVLKKLEE-GSHMGILENIRKDLESVLDELEK-GSHMGELEELRKSLKSVLEELEK,SEDEEEEEEALEAMQSRLATLRS-SEDEEEEEEALEAMQSRLATLRS-SEDEEEEEEALEAMQSRLATLRS-SEDEEEEEEALEAMQSRLATLRS-SEDEEEEEEALEAMQSRLATLRS-SEDEEEEEEALEAMQSRLATLRS-SEDEEEEEEALEAMQSRLATLRS-SEDEEEEEEALEAMQSRLATLRS-SEDEEEEEEALEAMQSRLATLRS-SEDEEEEEEALEAMQSRLATLRS,ELEELRKYIG-ELEELRKYIG-ILEILKKYIE-LLEILKKYIG-ELEELRKYIG-ELEELREVIG-ELEELRKWIG-ELEELRKYIG-LLEILKKYIG-ELEELRKYIG,YNKYITLFIE-YNKYITLFIE-YNKYITLFIE-YNKYITLFIE-YNKYITLFIE-YNKYITLFIE-YNKYITLFIE-YNKYITLFIE-YNKYITLFIE-YNKYITLFIE
24.0,12,22,B,10,GSSEDVSIPPEERVKALSGIGSQVSVDPNVPPIEYFYAGKDIINEAAVYEKQGDIETAFILYNKYLTLFVKELPKHKDYKSSKIPEEKETLKKMKEVAFPKAEELKGKLLGKYTEEYEKYKEKQRIEKEKEIKERLINPEK-GSSEDISIPPEERVKYLSGLGSQVSIDPNVPPVEYFYAGKDIINEAAVYEKQGNIEEAFILYNKYLTLFVKELPKHKDYASSKIPEEKETLKKLKEVAFPKAEELKGKLLGKFSEEYEKYKEEQRIKAEKERINKLINPEK-MDYKDISIPPEERVKYLSGLGSEVSVDPNVPPIEYFYAGKDIINEAAVYEKEGNIEEAFILYNKYLTLFVKELPKHKDYKSSKIPEEKETLKKLKEVAFPKAEELKGKLLGKYSEEYEKYKEKERIEKEKEIKNLLINPEK-ADSTDVSIPPEERVKALSGIGSEVSVDPNVPPVDYFYAGKDIINEAAVKEKEGDIETAFVLYTKYLTLFVKELPKHKDYASSKIPEEKATKERMKNEAFPKAEELKGKLLGKYTEEYEKYKAEQKRKAEEERRKKLIDPSK-MDYRDISIPPEERVKALSGIGSDVSIDPNVPPIEYFYAGRDIINEAAVYEKQGDIETAFILYNKYLTLFVKELPKHKDYASSKIPEREATEKEMKEVAFPRAEELKGKLLGQFTEEYEKYKAEQKRKAEEERRKKLIDPSK-GSSEDVSIPPEERVKALSGIGSDVSVDPNVPPADYFRAGVDIVNEAAVKEKEGDIETAFVLYNKYLTLFVKELPKHKDYASSKIPEREATDKAMKEVAFPKAEELKGKLLGKYGEEYEKYKAEQKRKAEEEARKKRIDPSK-GSSEDVSIPPEERVKALSGLGSEVSVDPNVPPADYFRAGKDIVNEAAVKEKEGDIETAFVLYTKYLTLFVDKLPKHKDYASSKIPEEKETKKKMKEVAFPKAEELKGKLLGKYGEEYEKYKEKQRIEAEKKRLEELIDPSK-GSSEDVSIPPEERVKALSGIGSQVSVDPNVPPIEYFRAGVSIVNEAAVKEKEGDIETAFVLYTQYLTLFVKELPKHKDYASSKIPEEKETKRRMKEVAFPRAEELKGKLLGKFGEEYEKYKEEQRRKAEEERRKKLIDPSK-ADSTDVSIPPEERVKALSGLGSQVSVDPNVPPVEYFYAGRDIVNEAAVKEKEGDIETAFVLYNQYLTLFVKELPKHKDYASSKIPEEKDTKKRMKEVAFPKAEELKGKLLGKYGEEYEKYKAEQKRKAEEERRKKLIDPSK-GSSEDVSIPPEERVKALSGIGSQVSVDPNVPPVEYFKAGKDIINEAAVFEKQGNIEEAFVLYNKYLTLFVKELPKHKDYASSKIPEEKETKKKMKEVAFPKAEELKGKLLGKYGEEYKKYKEKQKKEAEEKKRKEEIKPEE,SDHGDVSLPPEDRVRALSQLGSAVEVNEDIPPRRYFRSGVEIIRMASIYSEEGNIEHAFILYNKYITLFIEKLPKHRDYKSAVIPEKKDTVKKLKEIAFPKAEELKAELLKRYTKEYTEYNEEKKKEAEELARNMAIQQEL-SDHGDVSLPPEDRVRALSQLGSAVEVNEDIPPRRYFRSGVEIIRMASIYSEEGNIEHAFILYNKYITLFIEKLPKHRDYKSAVIPEKKDTVKKLKEIAFPKAEELKAELLKRYTKEYTEYNEEKKKEAEELARNMAIQQEL-SDHGDVSLPPEDRVRALSQLGSAVEVNEDIPPRRYFRSGVEIIRMASIYSEEGNIEHAFILYNKYITLFIEKLPKHRDYKSAVIPEKKDTVKKLKEIAFPKAEELKAELLKRYTKEYTEYNEEKKKEAEELARNMAIQQEL-SDHGDVSLPPEDRVRALSQLGSAVEVNEDIPPRRYFRSGVEIIRMASIYSEEGNIEHAFILYNKYITLFIEKLPKHRDYKSAVIPEKKDTVKKLKEIAFPKAEELKAELLKRYTKEYTEYNEEKKKEAEELARNMAIQQEL-SDHGDVSLPPEDRVRALSQLGSAVEVNEDIPPRRYFRSGVEIIRMASIYSEEGNIEHAFILYNKYITLFIEKLPKHRDYKSAVIPEKKDTVKKLKEIAFPKAEELKAELLKRYTKEYTEYNEEKKKEAEELARNMAIQQEL-SDHGDVSLPPEDRVRALSQLGSAVEVNEDIPPRRYFRSGVEIIRMASIYSEEGNIEHAFILYNKYITLFIEKLPKHRDYKSAVIPEKKDTVKKLKEIAFPKAEELKAELLKRYTKEYTEYNEEKKKEAEELARNMAIQQEL-SDHGDVSLPPEDRVRALSQLGSAVEVNEDIPPRRYFRSGVEIIRMASIYSEEGNIEHAFILYNKYITLFIEKLPKHRDYKSAVIPEKKDTVKKLKEIAFPKAEELKAELLKRYTKEYTEYNEEKKKEAEELARNMAIQQEL-SDHGDVSLPPEDRVRALSQLGSAVEVNEDIPPRRYFRSGVEIIRMASIYSEEGNIEHAFILYNKYITLFIEKLPKHRDYKSAVIPEKKDTVKKLKEIAFPKAEELKAELLKRYTKEYTEYNEEKKKEAEELARNMAIQQEL-SDHGDVSLPPEDRVRALSQLGSAVEVNEDIPPRRYFRSGVEIIRMASIYSEEGNIEHAFILYNKYITLFIEKLPKHRDYKSAVIPEKKDTVKKLKEIAFPKAEELKAELLKRYTKEYTEYNEEKKKEAEELARNMAIQQEL-SDHGDVSLPPEDRVRALSQLGSAVEVNEDIPPRRYFRSGVEIIRMASIYSEEGNIEHAFILYNKYITLFIEKLPKHRDYKSAVIPEKKDTVKKLKEIAFPKAEELKAELLKRYTKEYTEYNEEKKKEAEELARNMAIQQEL,ELKERLKKLN-ELEERLKKLL-GLEERLKKLL-PLEERLKKLL-DLKERLKKLL-DLKARLEKLN-ELEERLKKLK-KLKERLKELL-DLGKRLEELR-KFEERLKKLN,AMQSRLATLR-AMQSRLATLR-AMQSRLATLR-AMQSRLATLR-AMQSRLATLR-AMQSRLATLR-AMQSRLATLR-AMQSRLATLR-AMQSRLATLR-AMQSRLATLR
