contacts,cs,ce,Chain,Length,designed_receptor_seq,native_receptor_seq,designed_binder_seq,native_binder_seq
13.0,61,71,A,10,GAMDNLLENLRQQLQPVLDALLA-SNASGKRDLLRRQLRSVLRQLES-GSHMGTALRLRENLKSVLDKLEE-GPLSGILEEVRKDLVEVLEVLEA-SNALNKAQKLREDLKAVLDDIER-GSHMGKLENLRQQLKEVLDKLLA-GSDTGRLENLRRKLQDVLEELEK-GSHMDTALSLRQDLESVLDTLES-SVLKGIAESIREDLKQVLDELES-GSHMGFLENIREDLKEVLKEAEK,SEDEEEEEEALEAMQSRLATLRS-SEDEEEEEEALEAMQSRLATLRS-SEDEEEEEEALEAMQSRLATLRS-SEDEEEEEEALEAMQSRLATLRS-SEDEEEEEEALEAMQSRLATLRS-SEDEEEEEEALEAMQSRLATLRS-SEDEEEEEEALEAMQSRLATLRS-SEDEEEEEEALEAMQSRLATLRS-SEDEEEEEEALEAMQSRLATLRS-SEDEEEEEEALEAMQSRLATLRS,LIRLLRRVIG-LLSLLRRYID-ALDFLRKYIG-ALEFLRKYIG-LLSFLKKYIG-LLKLLKEYIE-LLDFLKKYIK-LLDILRDYIS-ALEVLKKYIG-LLSILKKYIE,YNKYITLFIE-YNKYITLFIE-YNKYITLFIE-YNKYITLFIE-YNKYITLFIE-YNKYITLFIE-YNKYITLFIE-YNKYITLFIE-YNKYITLFIE-YNKYITLFIE
24.0,12,22,B,10,GMAEDISIQPELRVKELSKKGSQVSVDPNIPPIVYFEAGIEIINEAEIKEKQGDIEEAFVLYNRYITLFVEKLPKHKDYAKSVIPEETATRMRLEQIAFPKAEELKGKLLGKYTEEYQNYKKEQERRAKEEAERKRRDPSK-ADSTDISIPPAERVKYLSGLGSQVSVDPNVPPADYFRAGKAIVGEAAVKEKEGDIETAFILYNKFITLFVKELPKHKDYAKSKIPEMAQTLKDLENKAFPRAEELKGKLLGQYTEEYKGYKAKQEAERKAKEEGERKAPER-ANYQDKAIPPEQRVKFLSGIGSQVSIDNNIPPINYFRAGVSIINEAAVYEKMGDIETAFILYNQYLTLFVSELPKHKDYASSIIPEAEATDSKLKEIAFPRAEELKGKLLGKYGEEFEKFKAEQKRKEEIKKLNEKIDEKK-GSSEDISIPPEERVRHLSGIGSAVSVDPDIPPVDYFYAGEDIIDQAAVYEDQGDIETAFVLYNQYLTLFVDRLPQHPDYAKSEIPEMEQTLDNMEEIAFPRAEELKGQLLGRYGEEYQEYQRRQELERERERERERERERE-ADYRDVSLPPEQRVKALSGIGSQVNIDPNVPPSQYFQQGIQIINEAKVYENQGDIETAFILYTQYLTLFVRELPKHKDYRSAKIPAEEQTRTNMKEVAFPRAEELKGKLLNRFTKEYEEYKEKQRIEREKKILNELVDVDK-MDYRDKSIPPEERVKYLSGIGSLVSVDPDVPPVQYYLAGESIVGEASIYEQLGNIEKAFILYNKYITLFVQELPKHKDYEKSRIPERKQMEKNLSQIAFPKAEELKGKLLEKYGLEYENYKKEKEEKDLKKLIGELEDENK-SNAEDKSIPPEQRVQALSGMGSQVQVDPNVPPRQYYLAGEDIINRAAVYKQQGDIETAFILYNQYLTLFVRELPKHPDYASSVIPEETAMRQRMEQTAFPEAEKLKGELLGKFGTEYEAYRAEQKRIAELERRGRELKPEL-MDSRDVSIPPEERVKELSNIGSDVSIDPNVPPIEYFYAGVDILNEAEVYEQEGDIETAFILYNQFLTLFVDKLPKHKDYASAEIPEREKTLENLEETAFPRAEELKGTLLGKYGEEYEEYKKKQQQEEEEKKKEEEINPWD-GSSEDISIPPEERVRFLSGVGSEISVDPNIPPIEYFQSGTSIINEAKIYEEQGDIETAFVLYNRYLTLFVRELPKHKDYASSYIPEKEATDINLEEIAFPRAEELKGKLLGKYTAEFENYNRKQKIEAEKKMKELLIDPSK-ADSTDISIDPNLRVKALSGVGSEVSIDPNVPPIEYYKSGVKIINEAAVYEQQGDIETAFVLYTQFLTLFIRELPKHKDYASAKIPEEKQTRNNMKNIAFPRAEKLKGQLLGKFQEEYDKFNAEQKKAAEEKLKNELIDPSK,SDHGDVSLPPEDRVRALSQLGSAVEVNEDIPPRRYFRSGVEIIRMASIYSEEGNIEHAFILYNKYITLFIEKLPKHRDYKSAVIPEKKDTVKKLKEIAFPKAEELKAELLKRYTKEYTEYNEEKKKEAEELARNMAIQQEL-SDHGDVSLPPEDRVRALSQLGSAVEVNEDIPPRRYFRSGVEIIRMASIYSEEGNIEHAFILYNKYITLFIEKLPKHRDYKSAVIPEKKDTVKKLKEIAFPKAEELKAELLKRYTKEYTEYNEEKKKEAEELARNMAIQQEL-SDHGDVSLPPEDRVRALSQLGSAVEVNEDIPPRRYFRSGVEIIRMASIYSEEGNIEHAFILYNKYITLFIEKLPKHRDYKSAVIPEKKDTVKKLKEIAFPKAEELKAELLKRYTKEYTEYNEEKKKEAEELARNMAIQQEL-SDHGDVSLPPEDRVRALSQLGSAVEVNEDIPPRRYFRSGVEIIRMASIYSEEGNIEHAFILYNKYITLFIEKLPKHRDYKSAVIPEKKDTVKKLKEIAFPKAEELKAELLKRYTKEYTEYNEEKKKEAEELARNMAIQQEL-SDHGDVSLPPEDRVRALSQLGSAVEVNEDIPPRRYFRSGVEIIRMASIYSEEGNIEHAFILYNKYITLFIEKLPKHRDYKSAVIPEKKDTVKKLKEIAFPKAEELKAELLKRYTKEYTEYNEEKKKEAEELARNMAIQQEL-SDHGDVSLPPEDRVRALSQLGSAVEVNEDIPPRRYFRSGVEIIRMASIYSEEGNIEHAFILYNKYITLFIEKLPKHRDYKSAVIPEKKDTVKKLKEIAFPKAEELKAELLKRYTKEYTEYNEEKKKEAEELARNMAIQQEL-SDHGDVSLPPEDRVRALSQLGSAVEVNEDIPPRRYFRSGVEIIRMASIYSEEGNIEHAFILYNKYITLFIEKLPKHRDYKSAVIPEKKDTVKKLKEIAFPKAEELKAELLKRYTKEYTEYNEEKKKEAEELARNMAIQQEL-SDHGDVSLPPEDRVRALSQLGSAVEVNEDIPPRRYFRSGVEIIRMASIYSEEGNIEHAFILYNKYITLFIEKLPKHRDYKSAVIPEKKDTVKKLKEIAFPKAEELKAELLKRYTKEYTEYNEEKKKEAEELARNMAIQQEL-SDHGDVSLPPEDRVRALSQLGSAVEVNEDIPPRRYFRSGVEIIRMASIYSEEGNIEHAFILYNKYITLFIEKLPKHRDYKSAVIPEKKDTVKKLKEIAFPKAEELKAELLKRYTKEYTEYNEEKKKEAEELARNMAIQQEL-SDHGDVSLPPEDRVRALSQLGSAVEVNEDIPPRRYFRSGVEIIRMASIYSEEGNIEHAFILYNKYITLFIEKLPKHRDYKSAVIPEKKDTVKKLKEIAFPKAEELKAELLKRYTKEYTEYNEEKKKEAEELARNMAIQQEL,GMEARLKALR-PLEEKLKALR-NFEKKLQKLR-RERERLRELR-GMEARLEKLS-ENKERLKKLL-ENAQRLQTLQ-EMEDRLKELR-EKKEKLKKLR-ANKDRLKALL,AMQSRLATLR-AMQSRLATLR-AMQSRLATLR-AMQSRLATLR-AMQSRLATLR-AMQSRLATLR-AMQSRLATLR-AMQSRLATLR-AMQSRLATLR-AMQSRLATLR
