contacts,cs,ce,Chain,Length,designed_receptor_seq,native_receptor_seq,designed_binder_seq,native_binder_seq
19.0,71,81,A,10,GSLVSGVPFCAMATPVQPVVVDGRPWPFVAPAQPQDPNG-GSHMSTTPESLTLKPEKPIVVDGKPFPFVKPAEPQDPFG-GSHMSLMPNNTVKVPKEPIVVDGRPYPFIKPKSPKYPNG-GSHMSRVPLEDIEIPVEPVVVDGKPFPLIMPRTPVDPNG-GSHMASLPLSLLLLPLQPVVVDGRPFPYLAPAQPADPGG-GSHMASIPSSILVKPEEPIIVDGKPFPYVKYASPKDPNG-GSHMDDIPESLFLEPREPVIVDGKPFPYWPKAEPTDPNG-GSHMSRIPSALEVKPEEPIVVDGKPFPELKPEEPKDPDG-GSHMSSLPESDRLEPQKPLVVDGKPYPYWEPAEPKDPNG-GSHMAALPEALRLEPVEPVVIDGKPFPYVEPCEPEDPDG,PEVTSFFPESLLITPFLPVVAFGRPLPKLAPQNFELPWL-PEVTSFFPESLLITPFLPVVAFGRPLPKLAPQNFELPWL-PEVTSFFPESLLITPFLPVVAFGRPLPKLAPQNFELPWL-PEVTSFFPESLLITPFLPVVAFGRPLPKLAPQNFELPWL-PEVTSFFPESLLITPFLPVVAFGRPLPKLAPQNFELPWL-PEVTSFFPESLLITPFLPVVAFGRPLPKLAPQNFELPWL-PEVTSFFPESLLITPFLPVVAFGRPLPKLAPQNFELPWL-PEVTSFFPESLLITPFLPVVAFGRPLPKLAPQNFELPWL-PEVTSFFPESLLITPFLPVVAFGRPLPKLAPQNFELPWL-PEVTSFFPESLLITPFLPVVAFGRPLPKLAPQNFELPWL,GWQAWYAPLA-NWNEFVAPIG-EEKAFLAPFG-GWKAWAKPLG-RWRALVEPVG-KWKEFVEPLN-LWEAYKEPLE-GEKAYLEPLG-GWKAWFEPRG-GWREYFEPLN,ITFDYTLPLV-ITFDYTLPLV-ITFDYTLPLV-ITFDYTLPLV-ITFDYTLPLV-ITFDYTLPLV-ITFDYTLPLV-ITFDYTLPLV-ITFDYTLPLV-ITFDYTLPLV
30.0,19,29,B,10,SIVIDIPDVLRRRLQFHRRMVEEERRRVRLPRARNIDTILDEYLVRFERGARARTSLDNVARARVMLEGLRVAFDRTLPRVLLYPEERAQLVAVLDVRDDRPPEPSALFGAEELLRLFVELPRILEQSPFEERSLAALLKHHDQFLEFLAERAGEFFPDADFVAG-MITIAIPQTLANRLQYDATMVEQQHRLVRLPRAKNIDTILDEYLVYRRQNAANSGASQSVARTKVMLQGLRVTFDKALPLVLLLPEEKTQLTALLAKPGNEPPKPSVLFGAWELLRLFTALPEILEQSPFKKKHLESLLRHHEQFLQWLAERAGQLFPDTDYVEG-SLVIKIPEALQQRLAFDKQMVEVENKRVKLPAKKNITTILADYLKYKEENAAKKNKKDNVARHKVMLDGLKILFNRALPKVLLYPEEKEQLKAALAKKNNAPPLPSTIYGAQELLKLFVKLPKILEEAPFQERSLTSLLTDHNNFLKYLAKYEDEFFPETAYTEG-MIKIDIPEALQQQLAYHHQMVNERNQRVKLPAARNITSILEEYQAYFAEGAAKAGKAKNVKRCKVMLDGLKIAFDKALPQILLYPEEQAELTAVLATKAKQPPKPSQLFGAWELLRLFVKLPEILEQTPFKKRTLESLLLQHQQFLQYLAKYKDKFFPDSAYVAE-AIQIKIPSTLQKRLEEDKQMISEQNKRVVLPRKRNIVSILDSFELQFTEGAAKNGSSNNVERCRIMLKGLQICFDKALPKILLYPEEKSQLEKVLQKRDNSPPKPSSLFGAWELLRLFVKLPEILEKSKFKKSSLSTLLKHFDLFLEYMAANEGQWFPESDYYEG-ALEIKIPEELEAKLAYHKEMVENKNKYVILPAKENIESILDRYLVYFEQGAKKKGKNSDVAFASVMLKGLKIIFNKALPKVLLYPEEKEQLKKIIAKKKKEPPKPSALFGAWDLLRLFVKLPEILEKSPFKKSTLASLLSHHDRFLKFMAANADEFFPKEQFSSE-GITIEIPDELKRELEFHRRMVEEEKRRVVLPAKININRILDDYLEYKEENARLRGRKSNVANAKVMLRGLRIAFDKALPTILLYPEEEEQYKKVISRKKKEPPKPSTLFGAWELLRLFVSLPEILEQSPFKKRSLSSLLTHHQHFLKFMAKYKDEYFPKEAYSQE-PLKIKIPKELEDRLEFHKEMVEKKRKLVRLPRKRNINSILDEYLKYKEEYAKKSGKAADVAQAKVFLTGLKIAFDKALPKILLYPEEEEQYKKITEKKKNEPPKPSSLWGAWELLRLFVKLPEILEKSPFGKRYLAGLLKHHELFLEYLAKYKDKFFPDSDYVKG-MIVIEIPSALAEQLQFDREMRETRHLRVRLPAARNIDTILDSYLVFFERGAADSAASGNVRACRRMLKGLKVIFDLALPQILLYPEERAQYTAVTATLDNQPPLPSQLFGAEELLRLFVKLPSILEQSPFEERSLATLLRHYELFLAWLAEFADAFFPRESYLAN-MIIINIPDVLKQRLAFDKKMIETDNKRVKLPRKRNINTILDEYLVYKKEGAKKLSASQNVDREKVMLAGLRIVFNKALPLILLYPEEKSQLKKIQSKKNKKPPKPSVLFGANELLRLFVKLPEILEKSPFTKSYLIALLKNHDNFLKYLAKYEGYFFPEEDFEEI,TITIEIPEVLKKQLEDDCYYINRRKRLVKLPCQTNIITILESYVKHFAINAAFSAAEKNVDLCKEMVDGLRITFDYTLPLVLLYPYEQAQYKKVTSSEFDQPPPPSYIYGAQHLLRLFVKLPEILGKMSFSEKNLKALLKHFDLFLRFLAEYHDDFFPESAYVAA-TITIEIPEVLKKQLEDDCYYINRRKRLVKLPCQTNIITILESYVKHFAINAAFSAAEKNVDLCKEMVDGLRITFDYTLPLVLLYPYEQAQYKKVTSSEFDQPPPPSYIYGAQHLLRLFVKLPEILGKMSFSEKNLKALLKHFDLFLRFLAEYHDDFFPESAYVAA-TITIEIPEVLKKQLEDDCYYINRRKRLVKLPCQTNIITILESYVKHFAINAAFSAAEKNVDLCKEMVDGLRITFDYTLPLVLLYPYEQAQYKKVTSSEFDQPPPPSYIYGAQHLLRLFVKLPEILGKMSFSEKNLKALLKHFDLFLRFLAEYHDDFFPESAYVAA-TITIEIPEVLKKQLEDDCYYINRRKRLVKLPCQTNIITILESYVKHFAINAAFSAAEKNVDLCKEMVDGLRITFDYTLPLVLLYPYEQAQYKKVTSSEFDQPPPPSYIYGAQHLLRLFVKLPEILGKMSFSEKNLKALLKHFDLFLRFLAEYHDDFFPESAYVAA-TITIEIPEVLKKQLEDDCYYINRRKRLVKLPCQTNIITILESYVKHFAINAAFSAAEKNVDLCKEMVDGLRITFDYTLPLVLLYPYEQAQYKKVTSSEFDQPPPPSYIYGAQHLLRLFVKLPEILGKMSFSEKNLKALLKHFDLFLRFLAEYHDDFFPESAYVAA-TITIEIPEVLKKQLEDDCYYINRRKRLVKLPCQTNIITILESYVKHFAINAAFSAAEKNVDLCKEMVDGLRITFDYTLPLVLLYPYEQAQYKKVTSSEFDQPPPPSYIYGAQHLLRLFVKLPEILGKMSFSEKNLKALLKHFDLFLRFLAEYHDDFFPESAYVAA-TITIEIPEVLKKQLEDDCYYINRRKRLVKLPCQTNIITILESYVKHFAINAAFSAAEKNVDLCKEMVDGLRITFDYTLPLVLLYPYEQAQYKKVTSSEFDQPPPPSYIYGAQHLLRLFVKLPEILGKMSFSEKNLKALLKHFDLFLRFLAEYHDDFFPESAYVAA-TITIEIPEVLKKQLEDDCYYINRRKRLVKLPCQTNIITILESYVKHFAINAAFSAAEKNVDLCKEMVDGLRITFDYTLPLVLLYPYEQAQYKKVTSSEFDQPPPPSYIYGAQHLLRLFVKLPEILGKMSFSEKNLKALLKHFDLFLRFLAEYHDDFFPESAYVAA-TITIEIPEVLKKQLEDDCYYINRRKRLVKLPCQTNIITILESYVKHFAINAAFSAAEKNVDLCKEMVDGLRITFDYTLPLVLLYPYEQAQYKKVTSSEFDQPPPPSYIYGAQHLLRLFVKLPEILGKMSFSEKNLKALLKHFDLFLRFLAEYHDDFFPESAYVAA-TITIEIPEVLKKQLEDDCYYINRRKRLVKLPCQTNIITILESYVKHFAINAAFSAAEKNVDLCKEMVDGLRITFDYTLPLVLLYPYEQAQYKKVTSSEFDQPPPPSYIYGAQHLLRLFVKLPEILGKMSFSEKNLKALLKHFDLFLRFLAEYHDDFFPESAYVAA,TFWGRPFPEL-VAWGVPLPEF-TAWGVPLPEF-MAWGRPLPDF-KAWGVPLPKF-IAWGVPLPEF-EFWGKPYPAF-KFWGVPYPEF-MAWGRPLPVL-IFWGVPYPEF,VAFGRPLPKL-VAFGRPLPKL-VAFGRPLPKL-VAFGRPLPKL-VAFGRPLPKL-VAFGRPLPKL-VAFGRPLPKL-VAFGRPLPKL-VAFGRPLPKL-VAFGRPLPKL
