contacts,cs,ce,Chain,Length,designed_receptor_seq,native_receptor_seq,designed_binder_seq,native_binder_seq
18.0,87,97,A,10,GSHMLEGDLNGDGKIDIEDLKILASKYGKDGKIDIEDVKIFAKNYGKTD-SNAQLPGDLNNDGKIDIADLQILAGKYGKDGKIDIADVQIFAQNYGKTD-SNAQLPGDLNNDGKIDIADLKILASKYGKDGKIDIADVKIFAKNYGKDG-SNAQLPGDLNNDGKIDINDLKILSSKYGKDGKIDINDVKIFSKNYGKDS-GSHMLEGDLNNDGKIDIEDLKILASKYGKDGKIDIEDVKIFAKNYGKTD-SNAQLPGDLNNDGKIDINDLKILASKYGKDGKIDINDVKIFAKNYGKDG-GSHMLEGDLNNDGKIDIDDLKILASKYGKDGKIDIDDVKIFAKNYGKTD-GSHMLEGDLNNDGKIDIEDLKILAKKYGKDGKIDIEDVKIFAKNYGKTD-GSHMLEGDLNNDGKIDIEDLKILAKKYGKDGKIDIEDVKIFAKNYGKKY-GSHMLEGDLNNDGKIDIEDLKILAKKYGKDGKIDIEDVKIFAKKYGKTS,MFVKLKGDLNGDGVINMADVMILAQSFGKDGVINSDDAIILAQYFGKTK-MFVKLKGDLNGDGVINMADVMILAQSFGKDGVINSDDAIILAQYFGKTK-MFVKLKGDLNGDGVINMADVMILAQSFGKDGVINSDDAIILAQYFGKTK-MFVKLKGDLNGDGVINMADVMILAQSFGKDGVINSDDAIILAQYFGKTK-MFVKLKGDLNGDGVINMADVMILAQSFGKDGVINSDDAIILAQYFGKTK-MFVKLKGDLNGDGVINMADVMILAQSFGKDGVINSDDAIILAQYFGKTK-MFVKLKGDLNGDGVINMADVMILAQSFGKDGVINSDDAIILAQYFGKTK-MFVKLKGDLNGDGVINMADVMILAQSFGKDGVINSDDAIILAQYFGKTK-MFVKLKGDLNGDGVINMADVMILAQSFGKDGVINSDDAIILAQYFGKTK-MFVKLKGDLNGDGVINMADVMILAQSFGKDGVINSDDAIILAQYFGKTK,DLGSIDIKDL-LAGSININKP-KDGKIDIADL-KIDIIDIKKP-DISIIDIKKP-KIDVIDIKKP-KKDSIDIKKP-KDASIDIKKK-KEAEIDIKKK-SKASIDIKKK,NFGRLYMNLS-NFGRLYMNLS-NFGRLYMNLS-NFGRLYMNLS-NFGRLYMNLS-NFGRLYMNLS-NFGRLYMNLS-NFGRLYMNLS-NFGRLYMNLS-NFGRLYMNLS
30.0,15,25,B,10,MGKVLTSIDKNKLKVGDIVTLTISVDNIANFAGYEFSIKYDTTYLEPWDTVANKAYTNTTMPADGTLLTGAYDATDYANHDLANGVLHFGRYYKDLAAYKASGTPESTGAISKVSFKVIKEIPAAGIQLATFTNDSTMSDAVDGTRLFDNNGNEYPADKYTVVQPGKIYPA-MGKVYTSIDKNKLKVGEIVTLTINVDNIANFAGYEFSIKYDTTYLEPWDTTANKAYTNTTMPADGTLLTGNYNATDYANHNLAGGVLHFGRYYKDLAAYKASGKPESTGAIAKVSFKVIKEIPAAGIQLATFTNDSTMSDAVAGTRLFDNNGNVYPANKYTVVQPGKIYPA-MAKVYTSIDKNKLKVGEIVTLTINVDNIANFAGYEFSIKYDTTYLEPWDTTANAAYTNTTMPADGTLLTGAYDATDYANHDLANGVLHFGRYYKDLAAYKASGTPESTGAIAKVSFKVIKAIPAAGIQLATFTNDSTMSDAVDGTRLFDDNGNEYPADKYTVVQPGKIYPD-MAKVYTSIDKNKLKVGEIVTLTINVDNIANFAGYEFSIKYDTTYLEPWDTTANKAYTNTTMPADGTLLTGAYDSTDYANHDLANGVLHFGRYYKDLAAYKASGTPESTGAISKVSFKVIKEIPAAGIQLATFTNDSTMSDAVDGTRLFDNNGNEYPADKYTVVQPGKIYPA-MAKVYTSIDKNKLKVGDIVTLTINVDNIANFAGYEFSIKYDTTYLEPWDTTANAAYTNTTMPADGTLLTGAYDATDYANHDLANGVLHFGRYYKDLAAYKASGTPESTGAIAKVSFKVIKEIPAAGIQLATFTNDSTMSDAVDGTRLFDNNGNVYPADKYTVVQPGKIYPA-MAKVYTSIDKNKLAVGDIVTLTINVDNIANFAGYEFSIKYDTTYLEPWDTTANAAYTNTTMPADGTLLTGAYNATDYANHDLANGVLHFGRYYNDLAAYKASGTPESTGAIAKVSFKVIATIPAAGIQLATFTNNSTMSDATNGTRLFDNNGNEYPADKYTVVQPGKIYPA-MAKVYTSIDKNKLKVGEIVTLTINVDNIENFAGYEFSIKYDTTYLEPWDTTANKKYTNTTMPAKGTLLTGNYNSTDYANHDLANGVLHFGRYYKDLAAYKASGKPESTGAIAKVSFKVIKEIPAAGIQLATFENDSTMSDAVDGTRLFDNNGNEYPADKYTVVQPGKIYPA-MAKVLTSIDKNKLKVGDIVTLTISVDNIANFAGYEFSIKYDTTYLEPWDTVANKAYTNTTMPADGTLLTGNYDATDYANHDLANGVLHFGRYYKDLAAYKASGKPESTGAIAKVSFKVIKEIPAAGIQLATFTNDSTMSDATDGTRLFDNNGNVYPADKYTVVQPGKIYPA-MAKVKTSIDKNKLKVGDIVTLTISVENIENFAGYEFSIKYDTTYLEPWDTVANKKYTNTTMPAAGTLLTGNYNSTDYANHNLSGGVLHFGRYYKDLAAYKASGKPESTGDIAKVSFKVIKEIPAAGIQLATFENDSTMSDAVDGTRLFDNNGNEYPSDKYTVVQPGKIYPA-MAKVYTSIDKNKVKVGDIVTLTINVDNIANFAGYEFSIKYDTTYLEPWDTTANKKYTNTTMPADGTLLTGNYDATDYANHDLANGVLHFGRYYKDLAAYKASGKPESTGAISKVSFKVIKEIPAAGIQLATFTNDSTMSDAVNGTRLFDNNGNEYPADKYTVVQPGKIYPA,SGSVLTAIDNDKVAVGDKVTLTINVDKITNFSGYQFNIKYNTTYLQPWDTIADEAYTDSTMPDYGTLLQGRFNATDMSKHNLSQGVLNFGRLYMNLSAYRASGKPESTGAVAKVTFKVIKEIPAEGIKLATFENGSSMNNAVDGTMLFDWDGNMYSSSAYKVVQPGLIYPK-SGSVLTAIDNDKVAVGDKVTLTINVDKITNFSGYQFNIKYNTTYLQPWDTIADEAYTDSTMPDYGTLLQGRFNATDMSKHNLSQGVLNFGRLYMNLSAYRASGKPESTGAVAKVTFKVIKEIPAEGIKLATFENGSSMNNAVDGTMLFDWDGNMYSSSAYKVVQPGLIYPK-SGSVLTAIDNDKVAVGDKVTLTINVDKITNFSGYQFNIKYNTTYLQPWDTIADEAYTDSTMPDYGTLLQGRFNATDMSKHNLSQGVLNFGRLYMNLSAYRASGKPESTGAVAKVTFKVIKEIPAEGIKLATFENGSSMNNAVDGTMLFDWDGNMYSSSAYKVVQPGLIYPK-SGSVLTAIDNDKVAVGDKVTLTINVDKITNFSGYQFNIKYNTTYLQPWDTIADEAYTDSTMPDYGTLLQGRFNATDMSKHNLSQGVLNFGRLYMNLSAYRASGKPESTGAVAKVTFKVIKEIPAEGIKLATFENGSSMNNAVDGTMLFDWDGNMYSSSAYKVVQPGLIYPK-SGSVLTAIDNDKVAVGDKVTLTINVDKITNFSGYQFNIKYNTTYLQPWDTIADEAYTDSTMPDYGTLLQGRFNATDMSKHNLSQGVLNFGRLYMNLSAYRASGKPESTGAVAKVTFKVIKEIPAEGIKLATFENGSSMNNAVDGTMLFDWDGNMYSSSAYKVVQPGLIYPK-SGSVLTAIDNDKVAVGDKVTLTINVDKITNFSGYQFNIKYNTTYLQPWDTIADEAYTDSTMPDYGTLLQGRFNATDMSKHNLSQGVLNFGRLYMNLSAYRASGKPESTGAVAKVTFKVIKEIPAEGIKLATFENGSSMNNAVDGTMLFDWDGNMYSSSAYKVVQPGLIYPK-SGSVLTAIDNDKVAVGDKVTLTINVDKITNFSGYQFNIKYNTTYLQPWDTIADEAYTDSTMPDYGTLLQGRFNATDMSKHNLSQGVLNFGRLYMNLSAYRASGKPESTGAVAKVTFKVIKEIPAEGIKLATFENGSSMNNAVDGTMLFDWDGNMYSSSAYKVVQPGLIYPK-SGSVLTAIDNDKVAVGDKVTLTINVDKITNFSGYQFNIKYNTTYLQPWDTIADEAYTDSTMPDYGTLLQGRFNATDMSKHNLSQGVLNFGRLYMNLSAYRASGKPESTGAVAKVTFKVIKEIPAEGIKLATFENGSSMNNAVDGTMLFDWDGNMYSSSAYKVVQPGLIYPK-SGSVLTAIDNDKVAVGDKVTLTINVDKITNFSGYQFNIKYNTTYLQPWDTIADEAYTDSTMPDYGTLLQGRFNATDMSKHNLSQGVLNFGRLYMNLSAYRASGKPESTGAVAKVTFKVIKEIPAEGIKLATFENGSSMNNAVDGTMLFDWDGNMYSSSAYKVVQPGLIYPK-SGSVLTAIDNDKVAVGDKVTLTINVDKITNFSGYQFNIKYNTTYLQPWDTIADEAYTDSTMPDYGTLLQGRFNATDMSKHNLSQGVLNFGRLYMNLSAYRASGKPESTGAVAKVTFKVIKEIPAEGIKLATFENGSSMNNAVDGTMLFDWDGNMYSSSAYKVVQPGLIYPK,DMTGKMATAK-NMTGLMATAK-DMTGYMATAK-GMTGLMATAK-DMTGRMAAAK-DMTGLMATAK-NMTGLMATAK-NMTGLMATAK-NMTGLMATAK-NMTGLMATAK,NMADVMILAQ-NMADVMILAQ-NMADVMILAQ-NMADVMILAQ-NMADVMILAQ-NMADVMILAQ-NMADVMILAQ-NMADVMILAQ-NMADVMILAQ-NMADVMILAQ
