contacts,cs,ce,Chain,Length,designed_receptor_seq,native_receptor_seq,designed_binder_seq,native_binder_seq
18.0,87,97,A,10,EGIELSGDLDNDGRIDIHDLKLLMDRYGTNGGVDLSDVARFMRSYGRTM-ANVNLPGDYNSDGIIDVNDLKVLSSLFGANGKIDEQDVKLFMTHYGRKY-SNGSLKGDFNSDGVVDMGDAYILAQDYGADGVCDDDDFDWFSESFGKTK-EFIRLEGDYNLDGFIDVADAELMRRQAGDDGFIDHADLAVFNEFYGDDV-GPNVLEGDFNQDGVIDFSDMENLANQAGADGILDFSDLENLANQAGTDS-MAIKLRGDLNNDGIIDVDDLIILRDEYGLAMFIDETDVIHFEKNYGKRA-KGIKLVGDYNNDGKIDVADVQELAIRYGSDGKIDTGDIDIWWKHFGEVA-TSDVLIGDLNQDGVVDMGDFLLYAGRLGANGVIDSDDLLVWSSCFGMVE-GTLNLVGDYNDDGKIDGEDFDLLRAEYGADGKINGEDLKEFQESYGNKF-SNANLIGDFNLDGNINIDDLLLFGAAYGAMGNINIFDVIDFNKFFGTTN,MFVKLKGDLNGDGVINMADVMILAQSFGKDGVINSDDAIILAQYFGKTK-MFVKLKGDLNGDGVINMADVMILAQSFGKDGVINSDDAIILAQYFGKTK-MFVKLKGDLNGDGVINMADVMILAQSFGKDGVINSDDAIILAQYFGKTK-MFVKLKGDLNGDGVINMADVMILAQSFGKDGVINSDDAIILAQYFGKTK-MFVKLKGDLNGDGVINMADVMILAQSFGKDGVINSDDAIILAQYFGKTK-MFVKLKGDLNGDGVINMADVMILAQSFGKDGVINSDDAIILAQYFGKTK-MFVKLKGDLNGDGVINMADVMILAQSFGKDGVINSDDAIILAQYFGKTK-MFVKLKGDLNGDGVINMADVMILAQSFGKDGVINSDDAIILAQYFGKTK-MFVKLKGDLNGDGVINMADVMILAQSFGKDGVINSDDAIILAQYFGKTK-MFVKLKGDLNGDGVINMADVMILAQSFGKDGVINSDDAIILAQYFGKTK,NRGAIDWGRG-GTYSIPIKIG-ATGTMTVTLK-SFTSIPIGAM-FTDNIVFPVA-IVTERSVRLR-ISKELKIATP-GTGIIDSIVP-NAKKIDFKVN-NICSINLDLK,NFGRLYMNLS-NFGRLYMNLS-NFGRLYMNLS-NFGRLYMNLS-NFGRLYMNLS-NFGRLYMNLS-NFGRLYMNLS-NFGRLYMNLS-NFGRLYMNLS-NFGRLYMNLS
30.0,15,25,B,10,MAKVQTAVDKSSLDVGEIVTLTIAVVDVANFSGYQFDMKYNTDYLMPWDVVNNTEYSDTTMPEKGNLLTGDYTSVNFADHNLADGILNFGRRYFDLDAKKASGKAEDTGTIAKVAFKVVKKIPDEGIQLAAFENNTFMDDTTDGTELFNDAGNVYAAENYSVVQPGKIYSD-YGKVNTEINNNKLAIGDIVTLTINVENIIDFAGYEFNIKFNTTYLQPWDIINNDAYTNTTVPNAGVLLVGDYNITDYAFHDLGGGVLSFGRHYNNLQNKKNSGEPESTGSISKISFKVVAAIPAAGIQLANFENGPVQLDDDFGTALFDMNGDVYADDKYNVIQPGYIYPQ-FGEVMTNVNNTYRNVGDIVTLKVHVRNIKDFSGFEFSIKYNTYYLRPWDQQNKSSYTNSSMPQDGTLLQNQYVSLNYASHNLNNGVLHFGRLYLDLSGKLLSGKPQSTGSITEITFKVVNSIPAVGIQLARFANDSKMSYANNGTELFDNNGRMYPGTLYYVQQPGKIYPK-GGSVRCIVDSKYLSVGDVVTLTVYVQNVRRFAGYEFNIRYNTTYLQPWDVSAQSNYTSGTMPASGNLLGRAFDAWNYAYHDLKRGVLSFGRAYFDLENYKNSGKPQSTGAITKVAFKVIKKIPSAGIQLCTFENDTYMSHANNGTLLYDDSGNVYPVYTYDVVQPGQIYPS-EGQVLTQIDHSRLKVGEIVTLSIHVNNINNFSGYEFSMQFNTEYLKPYDVVKDKEFTETTIPESGDLLTHPFDSMNVAKHNLENGVLHFGRYYYNLKEYEDSGMPESTGDITKVAFKVIKELPEKGIQLARFENDEFQYQAKAGTLLFDNKGNQFPNSDFSVVQPGKIFQE-AGRIYNSVDKTNVSVGDIVTLTVNVDNIKNFAGFQFSIKYDTDYLEPWDTTALKKYTDTTIPKNGSLLDKPYAATDYAVHDLKNGVLFFGKYYYDLKKFNASGDAESDGSITKISFKVVKKIPASGIYLARFSNNSFMSDDEEGTALFDNNGNIYKSDYYTVVQPGKIYAD-VGEVKTEINNQFADVGDLVTLSVFVVNIEKFAGYQFSIAYNTIYLEPFDTVANQEYTNTTMPSLGGLLTQNYNSVNYAHHNLENGVLHFGRYYKDLKAYKASGQPEQTGEITRVTFKVVREIPEEGIQLAKFENDSTQWYSASGTNLFDDEGNKFPHDYYSVVQPGKIFPK-YGEVKTEVDATRLKVGEVVTLTIDVVNVKDFAGYEFSMAYDKTYLKPWDVVNQKSYTDKTMPQPGNLLTGPFDSTTFANHDLTAGYLFFGRMYSDLKKYKNSGQPQSTGAITKVAFKVVQKIPAAGIQLATFKNADDLSYANNGTLLFDNNGKEFSVSNYTVVQPGKIYTG-MASVNTAIDRSNVAVGELVSLEVNVAAVESFAGYEFSMRYETAFLSPWDTIANTAYTPTTMPAAGILLTGNYNAANFAHHNLAGGVLRFGRYYHNLTDFQASGNPQSTGAIAVVTFKVIKAIPAGGIQLASFVNSAKMSNRVQGTSLYDDGGNEYPDDKFTVEQPGKIYPD-EGVVDTRIDKDYVDVGDVTTLTISVTRIDNFAGYRFSEKYDTKYLEPWDTLKSTSYTEKTMPKEGELLTGTYLTTDMANHDLDSGVLNYGRAYANLTNARASKKPQDTGDITKVAFKVIKKIPKEGIKLATFTNNTTMSDAVDGTRLFDNRGNLYPSDKYDVKQPGKIYPS,SGSVLTAIDNDKVAVGDKVTLTINVDKITNFSGYQFNIKYNTTYLQPWDTIADEAYTDSTMPDYGTLLQGRFNATDMSKHNLSQGVLNFGRLYMNLSAYRASGKPESTGAVAKVTFKVIKEIPAEGIKLATFENGSSMNNAVDGTMLFDWDGNMYSSSAYKVVQPGLIYPK-SGSVLTAIDNDKVAVGDKVTLTINVDKITNFSGYQFNIKYNTTYLQPWDTIADEAYTDSTMPDYGTLLQGRFNATDMSKHNLSQGVLNFGRLYMNLSAYRASGKPESTGAVAKVTFKVIKEIPAEGIKLATFENGSSMNNAVDGTMLFDWDGNMYSSSAYKVVQPGLIYPK-SGSVLTAIDNDKVAVGDKVTLTINVDKITNFSGYQFNIKYNTTYLQPWDTIADEAYTDSTMPDYGTLLQGRFNATDMSKHNLSQGVLNFGRLYMNLSAYRASGKPESTGAVAKVTFKVIKEIPAEGIKLATFENGSSMNNAVDGTMLFDWDGNMYSSSAYKVVQPGLIYPK-SGSVLTAIDNDKVAVGDKVTLTINVDKITNFSGYQFNIKYNTTYLQPWDTIADEAYTDSTMPDYGTLLQGRFNATDMSKHNLSQGVLNFGRLYMNLSAYRASGKPESTGAVAKVTFKVIKEIPAEGIKLATFENGSSMNNAVDGTMLFDWDGNMYSSSAYKVVQPGLIYPK-SGSVLTAIDNDKVAVGDKVTLTINVDKITNFSGYQFNIKYNTTYLQPWDTIADEAYTDSTMPDYGTLLQGRFNATDMSKHNLSQGVLNFGRLYMNLSAYRASGKPESTGAVAKVTFKVIKEIPAEGIKLATFENGSSMNNAVDGTMLFDWDGNMYSSSAYKVVQPGLIYPK-SGSVLTAIDNDKVAVGDKVTLTINVDKITNFSGYQFNIKYNTTYLQPWDTIADEAYTDSTMPDYGTLLQGRFNATDMSKHNLSQGVLNFGRLYMNLSAYRASGKPESTGAVAKVTFKVIKEIPAEGIKLATFENGSSMNNAVDGTMLFDWDGNMYSSSAYKVVQPGLIYPK-SGSVLTAIDNDKVAVGDKVTLTINVDKITNFSGYQFNIKYNTTYLQPWDTIADEAYTDSTMPDYGTLLQGRFNATDMSKHNLSQGVLNFGRLYMNLSAYRASGKPESTGAVAKVTFKVIKEIPAEGIKLATFENGSSMNNAVDGTMLFDWDGNMYSSSAYKVVQPGLIYPK-SGSVLTAIDNDKVAVGDKVTLTINVDKITNFSGYQFNIKYNTTYLQPWDTIADEAYTDSTMPDYGTLLQGRFNATDMSKHNLSQGVLNFGRLYMNLSAYRASGKPESTGAVAKVTFKVIKEIPAEGIKLATFENGSSMNNAVDGTMLFDWDGNMYSSSAYKVVQPGLIYPK-SGSVLTAIDNDKVAVGDKVTLTINVDKITNFSGYQFNIKYNTTYLQPWDTIADEAYTDSTMPDYGTLLQGRFNATDMSKHNLSQGVLNFGRLYMNLSAYRASGKPESTGAVAKVTFKVIKEIPAEGIKLATFENGSSMNNAVDGTMLFDWDGNMYSSSAYKVVQPGLIYPK-SGSVLTAIDNDKVAVGDKVTLTINVDKITNFSGYQFNIKYNTTYLQPWDTIADEAYTDSTMPDYGTLLQGRFNATDMSKHNLSQGVLNFGRLYMNLSAYRASGKPESTGAVAKVTFKVIKEIPAEGIKLATFENGSSMNNAVDGTMLFDWDGNMYSSSAYKVVQPGLIYPK,GMMAQMKTAA-PMRGRMVYAN-PISWLMSLAK-GIIEKMAMAK-NMLKFMETAK-GMRDLMKLAN-GMDGEMKDAV-VMRRRANGAA-SMRNLMVKAR-NLITSMSLAK,NMADVMILAQ-NMADVMILAQ-NMADVMILAQ-NMADVMILAQ-NMADVMILAQ-NMADVMILAQ-NMADVMILAQ-NMADVMILAQ-NMADVMILAQ-NMADVMILAQ
