contacts,cs,ce,Chain,Length,designed_receptor_seq,native_receptor_seq,designed_binder_seq,native_binder_seq
30.0,178,188,A,10,EEGKQGLEGASAAQFEKLLSGVILPMIHENENRVKQYKGYDEVPPFVRFKSDRVMFQDFKWDNGDKCEHYNPQVNPRSYGFVG-QIGFHGEFGESTVGWAFCFFGAILPSLAICVLFVVAHWGQKETPDFKPNPKDMKINNLFQWDNGIHCANYNKKTQPLRQGYED-MDGEPDEVGPSFADLIETLVSDIVPAHATIKELYNKIDGDVEVNEFVPEPSRWRLSEYFAWDDGRRPKLYNKLCQPLQHGYEG-DAGKVGAVGADKKFWNWVFNEVILPVFKILLKYLNKNAGPKQVKKFVPLKSLRHIKAKYDWFDGISPTYWNPLVNPLQDGYTK-GSGSSGARGIPLLQWLFFLLVVYVPCALAVWFGNRMVCGKKQVPEFLPERDLRQLKAPFSWGDGIHPSNYNPEWNPLRDGYDE-SLGRAGSEGNLRASSEWMESFVLQPLMAEMDFLQEQIEGPVPVPEFQPRSDFLKLKKRYDWGNGLEPENFNPEVNPLKNGFYG-GAGHMASDGMDTQLCTELMQGLLLPLIEERRQLLSQSLGPLKIPEFTPKSDLRQLIHMFDWGDGKHCSRYNPKVNPLRDGYDE-SCGKGGDDLSVTLEGLEETFGRTIPIIATYAQASFKYAGPKAVPAFEPLPERYRSVKAFKWRDGESCRFFNPRVNPKITGYEG-MDGTAGLGGLGFVELLRYLFTVITPIRAFEILGFAFIAGAATTPVFYPWDKTNLVDKPRPWRDGVLPEYFNPDVNPRSGGYMD-AAELEGNEGAEIEDWKRIYNGVLVPILKEEIRRNNAKIGPLKTKDFKPTPARELLKRPHHHANGKLCRHCNPRVNPTRSGYEG,ASAAKGDHGGGARTWRFLTFGLALPSVALCTLNSWLHSGHRERPAFIPYHHLRIRTKPFSWGDGNHTFFHNPRVNPLPTGYEK-ASAAKGDHGGGARTWRFLTFGLALPSVALCTLNSWLHSGHRERPAFIPYHHLRIRTKPFSWGDGNHTFFHNPRVNPLPTGYEK-ASAAKGDHGGGARTWRFLTFGLALPSVALCTLNSWLHSGHRERPAFIPYHHLRIRTKPFSWGDGNHTFFHNPRVNPLPTGYEK-ASAAKGDHGGGARTWRFLTFGLALPSVALCTLNSWLHSGHRERPAFIPYHHLRIRTKPFSWGDGNHTFFHNPRVNPLPTGYEK-ASAAKGDHGGGARTWRFLTFGLALPSVALCTLNSWLHSGHRERPAFIPYHHLRIRTKPFSWGDGNHTFFHNPRVNPLPTGYEK-ASAAKGDHGGGARTWRFLTFGLALPSVALCTLNSWLHSGHRERPAFIPYHHLRIRTKPFSWGDGNHTFFHNPRVNPLPTGYEK-ASAAKGDHGGGARTWRFLTFGLALPSVALCTLNSWLHSGHRERPAFIPYHHLRIRTKPFSWGDGNHTFFHNPRVNPLPTGYEK-ASAAKGDHGGGARTWRFLTFGLALPSVALCTLNSWLHSGHRERPAFIPYHHLRIRTKPFSWGDGNHTFFHNPRVNPLPTGYEK-ASAAKGDHGGGARTWRFLTFGLALPSVALCTLNSWLHSGHRERPAFIPYHHLRIRTKPFSWGDGNHTFFHNPRVNPLPTGYEK-ASAAKGDHGGGARTWRFLTFGLALPSVALCTLNSWLHSGHRERPAFIPYHHLRIRTKPFSWGDGNHTFFHNPRVNPLPTGYEK,SVKRRWCQHC-SWNNPITICW-RHDDRYSVEH-EFKWLWTIAD-SWDKAFSPEW-WDRSSYTVYT-KQDAQTCHAW-NEQSYLTINC-KRTCWRTPDS-NFTDRHTRNC,YYEAPFTISD-YYEAPFTISD-YYEAPFTISD-YYEAPFTISD-YYEAPFTISD-YYEAPFTISD-YYEAPFTISD-YYEAPFTISD-YYEAPFTISD-YYEAPFTISD
25.0,9,19,B,10,MSNNTYFKKPKSPWPYIGGLSMILVLVGVWANLYSDTQMFLFIGVGLFLLYIAGYHYSLIKAWVEEGQFTPEVEKQAKRNMIMFIASLVIFFGVFFYSYFADSQVPPPSTGGIWPPVGITPLDPYLTPLLMTIVLFFSGITVEAAHRALEEGNQKRFLYNLGLTIVAGGTFSVLQAIEWHRATFTINSGTYGNDFFITTGIHLFHVIIGDLWLLVCFFMGLRKYFTKDKHIFFTQAKYFWYFVVAIWVAIYIGIYLLGS-AANDEYFAKPPSLWPWLGAFSAVLVITGLVFMWLEDTAAALVAGVGLAIASTYWFYDAVRRASVDEGKYSPAVETIAIFAANVSIGFELVFFGSFFWYYFAVASNPPPEAGGVWPPKGIDPVDPLAAPLLNTLIILASSVTVTAAQYALEEGNDRRFRWSLLVTISLGVTFLVVQAVEWNDAVFRLSNGFYGSSYFILTGFHALHVLFGATFLLVCFFQGLNKAFTATHHITFSVAVYFWHFVGAVWVVIFLSVYWLGG-MSHDHTFSVPLSPWPLVGTLSWLLVIIGVDYLLFHNNSLALWIGVGLHLLCIYFFVDDLDKAWINEGHYSPEVNAQFKQFMSVFIATMVLSFGSLFTLYFMRSLSPPPEYGGQWPPKGIKPVNPLFLPFINTLVVLASSITVEAARRALMEGRQAEFRIALLFTIILGLYFSVLQAVEWYMANFHLNDGTFGSSYFTLTGIHMFHVIIGTFFLVICYFRAQAKAFSSENHPLFDMSAWYWHFVSFIWLIIYLSIYTIGD-MENDMMENRKPSPWPHIGSAAMVLCTLGIYFFLFKDDGTWLILGILVSVLFVAFDLARVVMASYGQGNWSTAVESQFKLFTWLFIVSLCLAFGTFFNVYFLYSGTPPPSEGGVWPPQGITPLDPFQVPFLNTWVLLLSSITVTAAHRSLEEGEKTRFLNALSTTILLGVLFTVLQFYEWQMSTFRRSDGSFGLVYFITTGLHFLHVVVGTTWLVLCFFLGLSNAFTKDKHIFFSAAGYYWHFVIIVWIIIFLGMYTIGS-GMHNQTFTVNNSPWPFLGFVAIILTTTGAYQWLYKDTTFYLWIGITVLCLFIFGALSEFLHWSAKKGNLTPQVEAGYRVGSVLMIFSMVMFFGIFFINYVEKSARPPPISGGQWPPIGINPSNPFSWPLVQTLVLVLSGITVTAAEHALMEGNHKEFQKALLLTCILGLLFLLLQILEWVEADYRIDSGEYGSSFFITTGFHALHVLIGLSFLIVCFWLGNAKYFTSHKHPFFKFSMAYWHFVILVWIVIYVTLFYIGD-MGNDEKYEFPSSIWPYIGFLSLLLVTVGSWMAYFRDSYFWLVIGFSTALLAIYFWFDQIVDATVHEGKWSQLTESYEQVRMKTFIISCLLMFFTQFFSYFYWSLDPPPGTGGVWPPVGITPLDPLAIPFINTLILLLSGVTVTAARRSLQEGKRKSFLTALLITITLGMFFLTCQAIEWVRADFRITDGMYGTTYFVLTGFHGWHVAVGSLFLIICFFMGLNDYFTSDQHFGFSAAVYYWHFVIFTWILIYISIYLVGS-GSHMELFKEPLSPFPYIGFLSCILVSVGAFMKNYHDGGGWLILGGATCLISVFYHFKGIYRDSYKKGLWTPSVERFYKVFFYLLILSLAAFFGLGFYEYFFKSLKPDPSTGGKWPPIGIVPVNPLLKPMVNTLVLFSSGVTIQAAAFALEEGKKKLFLIALGITILLGYTFYQLQADLMRQSTFRITDGSYGSVFFTVTGLHATFIIIGTSFLVICFFMGLQDHFTKDKHGGFSMAVCFWHFGVTVWILIYATIYLIGN-TGYTELFHMEPSPFPTTGAIAFALVCYGIYEWKFQHTINALKLGNGTSILSLLGQINNFIRAGVFLGQYTPEVVHFLNLFVKFFILSEIVAFGIFFFQFFWQSSNPPPYTGSQWPPVGIQPANPFFNPLINTVVLLWSGITCMACQRSLEEGKIKRFQLMLFITITAGLTFIIIQAVEWVQSTYSIHDGEYGTAFFVLTGFHLLHVVGGTLFLIICYFMGRNNFFSKKKHPAFRAAIYYWHFVIFVWLLIYVSLYFLGD-SNADLTYDVAPDPWPVIGLVSIVLVTWGLYKKLWQQDNVLLKLGVWFSLLSVFGYWYNHVQAWWERGTFTPAVEAAHQWALYLAIGSMIFFFGLGLYFYFEKAQHPPPESGSVWPPVGIHPENPMGVPLVNTFILLSAGVTVEAARRALEEGNAKKFLLALGLTILLGLLFTILQVKDFIDATYKLRDGLYGSAYFLTTGIHLWHVILGTTWLIICFFWGLRKYFTEHKHPLFRFAAYFWHFVCIVWLIIYLTIYLWGS-GPMNNTFDVPPSPWPLTGLLATALVTAGTWRYVYEGECGLLVLGALVFVAFIAGFVQGLVHADVEKGRFTPSVEAFERRAMYLFIVSLVVLFGSGFWHYTSISSHPPESSGGRWPPDGITPLDPMGIPFINTLILFSSSVTVTAADRSLREGIKQRFLTALGATILLGLVFTILQVVEWKLSTFTIHDGPYGSSFFVTTGIHGSHVVGGVTYLVMCFWMGLRQHFTAKRHFGFRAAVMYWHFVIAVWIIIYVTIYLVGG,HQTHAYHMVNPSPWPLTGALSALLMTSGLTMWFHFNSMTLLMIGLTTNMLTMYQWWRDVIRESTFQGHHTPAVQKGLRYGMILFIISEVLFFTGFFWAFYHSSLAPTPELGGCWPPTGIHPLNPLEVPLLNTSVLLASGVSITWAHHSLMEGDRKHMLQALFITITLGVYFTLLQASEYYEAPFTISDGVYGSTFFVATGFHGLHVIIGSTFLIVCFFRQLKFHFTSNHHFGFEAAAWYWHFVDVVWLFLYVSIYWWGS-HQTHAYHMVNPSPWPLTGALSALLMTSGLTMWFHFNSMTLLMIGLTTNMLTMYQWWRDVIRESTFQGHHTPAVQKGLRYGMILFIISEVLFFTGFFWAFYHSSLAPTPELGGCWPPTGIHPLNPLEVPLLNTSVLLASGVSITWAHHSLMEGDRKHMLQALFITITLGVYFTLLQASEYYEAPFTISDGVYGSTFFVATGFHGLHVIIGSTFLIVCFFRQLKFHFTSNHHFGFEAAAWYWHFVDVVWLFLYVSIYWWGS-HQTHAYHMVNPSPWPLTGALSALLMTSGLTMWFHFNSMTLLMIGLTTNMLTMYQWWRDVIRESTFQGHHTPAVQKGLRYGMILFIISEVLFFTGFFWAFYHSSLAPTPELGGCWPPTGIHPLNPLEVPLLNTSVLLASGVSITWAHHSLMEGDRKHMLQALFITITLGVYFTLLQASEYYEAPFTISDGVYGSTFFVATGFHGLHVIIGSTFLIVCFFRQLKFHFTSNHHFGFEAAAWYWHFVDVVWLFLYVSIYWWGS-HQTHAYHMVNPSPWPLTGALSALLMTSGLTMWFHFNSMTLLMIGLTTNMLTMYQWWRDVIRESTFQGHHTPAVQKGLRYGMILFIISEVLFFTGFFWAFYHSSLAPTPELGGCWPPTGIHPLNPLEVPLLNTSVLLASGVSITWAHHSLMEGDRKHMLQALFITITLGVYFTLLQASEYYEAPFTISDGVYGSTFFVATGFHGLHVIIGSTFLIVCFFRQLKFHFTSNHHFGFEAAAWYWHFVDVVWLFLYVSIYWWGS-HQTHAYHMVNPSPWPLTGALSALLMTSGLTMWFHFNSMTLLMIGLTTNMLTMYQWWRDVIRESTFQGHHTPAVQKGLRYGMILFIISEVLFFTGFFWAFYHSSLAPTPELGGCWPPTGIHPLNPLEVPLLNTSVLLASGVSITWAHHSLMEGDRKHMLQALFITITLGVYFTLLQASEYYEAPFTISDGVYGSTFFVATGFHGLHVIIGSTFLIVCFFRQLKFHFTSNHHFGFEAAAWYWHFVDVVWLFLYVSIYWWGS-HQTHAYHMVNPSPWPLTGALSALLMTSGLTMWFHFNSMTLLMIGLTTNMLTMYQWWRDVIRESTFQGHHTPAVQKGLRYGMILFIISEVLFFTGFFWAFYHSSLAPTPELGGCWPPTGIHPLNPLEVPLLNTSVLLASGVSITWAHHSLMEGDRKHMLQALFITITLGVYFTLLQASEYYEAPFTISDGVYGSTFFVATGFHGLHVIIGSTFLIVCFFRQLKFHFTSNHHFGFEAAAWYWHFVDVVWLFLYVSIYWWGS-HQTHAYHMVNPSPWPLTGALSALLMTSGLTMWFHFNSMTLLMIGLTTNMLTMYQWWRDVIRESTFQGHHTPAVQKGLRYGMILFIISEVLFFTGFFWAFYHSSLAPTPELGGCWPPTGIHPLNPLEVPLLNTSVLLASGVSITWAHHSLMEGDRKHMLQALFITITLGVYFTLLQASEYYEAPFTISDGVYGSTFFVATGFHGLHVIIGSTFLIVCFFRQLKFHFTSNHHFGFEAAAWYWHFVDVVWLFLYVSIYWWGS-HQTHAYHMVNPSPWPLTGALSALLMTSGLTMWFHFNSMTLLMIGLTTNMLTMYQWWRDVIRESTFQGHHTPAVQKGLRYGMILFIISEVLFFTGFFWAFYHSSLAPTPELGGCWPPTGIHPLNPLEVPLLNTSVLLASGVSITWAHHSLMEGDRKHMLQALFITITLGVYFTLLQASEYYEAPFTISDGVYGSTFFVATGFHGLHVIIGSTFLIVCFFRQLKFHFTSNHHFGFEAAAWYWHFVDVVWLFLYVSIYWWGS-HQTHAYHMVNPSPWPLTGALSALLMTSGLTMWFHFNSMTLLMIGLTTNMLTMYQWWRDVIRESTFQGHHTPAVQKGLRYGMILFIISEVLFFTGFFWAFYHSSLAPTPELGGCWPPTGIHPLNPLEVPLLNTSVLLASGVSITWAHHSLMEGDRKHMLQALFITITLGVYFTLLQASEYYEAPFTISDGVYGSTFFVATGFHGLHVIIGSTFLIVCFFRQLKFHFTSNHHFGFEAAAWYWHFVDVVWLFLYVSIYWWGS-HQTHAYHMVNPSPWPLTGALSALLMTSGLTMWFHFNSMTLLMIGLTTNMLTMYQWWRDVIRESTFQGHHTPAVQKGLRYGMILFIISEVLFFTGFFWAFYHSSLAPTPELGGCWPPTGIHPLNPLEVPLLNTSVLLASGVSITWAHHSLMEGDRKHMLQALFITITLGVYFTLLQASEYYEAPFTISDGVYGSTFFVATGFHGLHVIIGSTFLIVCFFRQLKFHFTSNHHFGFEAAAWYWHFVDVVWLFLYVSIYWWGS,WNSDFFEYLA-PTMDFWEMLG-RTRARWLLYS-GSAAFWLFSA-ESMTLWLALA-FDATRYQFFS-GNSDFWIFCS-ISSAYWEYLG-NGKDFWIFFS-FSADMWLFFS,GGARTWRFLT-GGARTWRFLT-GGARTWRFLT-GGARTWRFLT-GGARTWRFLT-GGARTWRFLT-GGARTWRFLT-GGARTWRFLT-GGARTWRFLT-GGARTWRFLT
