contacts,cs,ce,Chain,Length,designed_receptor_seq,native_receptor_seq,designed_binder_seq,native_binder_seq
21.0,219,229,A,10,SNAPTDEEKATGLLRRIMDDAKEGKDNYGLFLPEASEGTEEDPNLVPSRGDKVTVGCLCEEGDEEVHLFELHKGEPQQCPHCGTWFKLVPGGG-DSVPTDEEKATGLLRRIMDDAKEGKDNYGLFLPEASEGTEEDPNLVPSRGDKVVVGCLCEEGDEEVHLFDLHEGEPQQCPECGTWFKLVPGGG-SNAPTDEEKATSLLRRIMDDAKEGKDNYGLFLPERTEGTEEDPNLVPSRGDKVVVGCRCKEGDEEVHWFWLHKGEPQQCPHCGTWFKLVPGGG-SNAPTDEEKATGLVRRIMDDAKEGKDNYGLFLPEASEGTEEDPNLVPSRGDKVVVGCQCEEGDEEVHLFDLHEGEPQQCPECGTWFKLVPGGG-SNAPTDEEKATGLVRRIMDDAKEGKDNYGLFLPEASEGTEEDPNLVPSRGDKVTVGCRCKEGDEEVHWFELHKGEPQQCPNCGTWFKLVPGGG-SNAPTDEEKATGLVRRIMDDAKEGKDNYGLFLPEASEGTEEDPNLVPSRGDKVVVGCRCKEGDEEVHWFWLHKGEPQQCPHCGTWFKLVPGGG-SNAPTDEEKATGLLRRIMDDAKEGKDNYGLFLPEPTEGTEENPNLVPSRGDKVVVGCLCKEGDEEVHLFDLHKGEPQQCPKCGTWFKLVPGGG-SNAPTDEEKATGLLRRIMDAAKEGKDPYGLFLPEASEGTEEDPNLVPSRGDRVVVGCRCEEGDEEVHLFDLHEGEPQQCPECGTWFQLVPGGG-SNAPTDEEKATGLVRRIMDAAKEGKDPYGLFLPEATEGTEEDPNLVPSRGDKVVVGCRCKEGDEEVHWFWLHKGEPQQCPKCGTWFKLVPGGG-SNAPTDEEKATGLLRKIMDDAKEGKDNYGLFLPEPTEGTEENPNLVPSRGDKVVVGCRCKEGDEEVHWFDLHKGEPQQCPKCGVWFKLVPGGG,GGVPTDEEQATGLEREVMLAARKGQDPYNILAPKATSGTKEDPNLVPSITNKRIVGCICEEDNSTVIWFWLHKGEAQRCPSCGTHYKLVPHQL-GGVPTDEEQATGLEREVMLAARKGQDPYNILAPKATSGTKEDPNLVPSITNKRIVGCICEEDNSTVIWFWLHKGEAQRCPSCGTHYKLVPHQL-GGVPTDEEQATGLEREVMLAARKGQDPYNILAPKATSGTKEDPNLVPSITNKRIVGCICEEDNSTVIWFWLHKGEAQRCPSCGTHYKLVPHQL-GGVPTDEEQATGLEREVMLAARKGQDPYNILAPKATSGTKEDPNLVPSITNKRIVGCICEEDNSTVIWFWLHKGEAQRCPSCGTHYKLVPHQL-GGVPTDEEQATGLEREVMLAARKGQDPYNILAPKATSGTKEDPNLVPSITNKRIVGCICEEDNSTVIWFWLHKGEAQRCPSCGTHYKLVPHQL-GGVPTDEEQATGLEREVMLAARKGQDPYNILAPKATSGTKEDPNLVPSITNKRIVGCICEEDNSTVIWFWLHKGEAQRCPSCGTHYKLVPHQL-GGVPTDEEQATGLEREVMLAARKGQDPYNILAPKATSGTKEDPNLVPSITNKRIVGCICEEDNSTVIWFWLHKGEAQRCPSCGTHYKLVPHQL-GGVPTDEEQATGLEREVMLAARKGQDPYNILAPKATSGTKEDPNLVPSITNKRIVGCICEEDNSTVIWFWLHKGEAQRCPSCGTHYKLVPHQL-GGVPTDEEQATGLEREVMLAARKGQDPYNILAPKATSGTKEDPNLVPSITNKRIVGCICEEDNSTVIWFWLHKGEAQRCPSCGTHYKLVPHQL-GGVPTDEEQATGLEREVMLAARKGQDPYNILAPKATSGTKEDPNLVPSITNKRIVGCICEEDNSTVIWFWLHKGEAQRCPSCGTHYKLVPHQL,EEEGEETEES-EEEGELTEES-EEEGEETEES-EEEGEETEES-EEEGEETEES-EEEGEETEES-EEEGEETEES-EEEGEETEEE-EEEGEETEEE-EEEGEETEES,QLKFHFTSNH-QLKFHFTSNH-QLKFHFTSNH-QLKFHFTSNH-QLKFHFTSNH-QLKFHFTSNH-QLKFHFTSNH-QLKFHFTSNH-QLKFHFTSNH-QLKFHFTSNH
26.0,1,11,B,10,GMNDEWFKEPVSIWPVVGAVSLVLCVWGIYQLAFENNAGALLVGLFTLVVSLYFFFREIVHAGVEEGKFTEAVEKRFRWGMILFIGSEILFFATLFIAYFYYSLNPPPESGGVWPPVGITPVNPLLIPLLNTFVLAASSVTVQFAERALKKGKYKSFLIWLGITILLGLVFILLQAYEWYASPYTIHDGMYGTTFFITTGFHFLHVVVGTIWLVVCFFLGLKKAFTSKKHFGFTAAKAYWIFVVVIWFVIYGSIYLLGS-GMNDEYFKEPLSIWPLVGFISLILCTWGIYQLAFNNNYGLLGIGLFTLVVSLYFYFKEIVNAGVKEGKFTEAVEKKGKLAMILFIGTEILFFATLFIDYFTYSLNPPPEYGGQWPPVGITPVNPLEIPFLNTLVLLSSSVTVQFAEKALKNGNYKNFLIWLGITILLGLIFILLQAYEWYASPYTIYDGMYGTTFFITTGFHLLHVIVGTIWLVICFFMGLKKYFTNKKHFGFTAAKAYWIFVVLIWLVIYGSIYLLGS-GMNDEWFERPVSIWPVVGAVSLVLCTWGIYQLAFENNAGLLIVGLFTLVVSLYFYFREIVHAGVEEGKFTEAVEKFGRYAMIFFIGSEVLFFATLFIDYFTRSLNPPPESGGVWPPVGITPVNPLEIPLLNTFVLLSSSVTVQFARRALERGEYRSFLRWLGITIALGALFIGLQAWEWYASPYTIHDGTYGSTFFITTGFHFLHVVVGTIWLVVCFFMGLRRYFTRKKHLGFTAAMAFWHFVVFIWLVIYGSIYLLGS-GMNDEWFKEPKSIWPLVGALSLVLCVWGIYQLAFHNNAGLLLVGLFTLVVSLYFYFREIVHASVEEGKLTEAVEKKGRLFMILGIGTEVLFFATLFIAYFYYSLNPPPESGGVWPPVGITPVNPLLIPFLNTLVLLSSSVTVQFARRALEKGKYKSFLRWLGITILLGLLFILLQAYEWYASPYTIFDGMYGTTFFITTGFHFLHVVVGTIWLVVCFFMGLKKYFTSKKHFGFTAAMLFWHFVVIIWLVIYGSIYLLGS-GMNDETFKEPFSIWPLVGAVSLVLCVWGIYQLAFENNAGLLLVGLFTLVVSLYFWFREIVHAGVEEGKFTEAVEKKGKLFMILFIGTEVLFFATLFIDYFTFSLNPPPESGGVWPPVGITPANPLLIPFLNTLVLAASSVTVQFAERALKKGDYKNFLRWLSITILLGLIFILLQAYEWYASPFTIHDGMYGTTFFITTGFHFLHVVVGTIWLVVCFFMGLRKYFTSKKHFGFTAAKAYWIFVVVIWFVIYGSIYLLGS-GMNDEWMKRPVSIWPVVGAVSLVLCVWGIYELAFHNNAGLLIVGLFTLVVSLYFYFREIVHLGVEEGKFTEAVEKKGRLGMILFIGTEVLFFATLFIDYFTYSLNPPPESGGVWPPVGITPVNPLLIPLINTFVLAASSVTVQFAERALKKGDYKNFLKWLGITILLGAVFILLQAYEWYASPYTIHDGMYGTTFFITTGFHFLHVVVGTIWLVVCFFMGLKKYFTSKKHFGFTAAKAYWHFVVIIWLVIYGSIYLLGS-GMNDEYFKEPKSIWPLVGALSLVLCVWGIYDFAFHNNTGLLIVGLFTLVVSLYFYFKEIVDAGVKEGKFTEAVEKKGKLAMILFIGTEILFFATLFIDYFTYSLNPPPESGGVWPPVGITPVNPLEIPLLNTFVLLSSSVTVQFARKALEKGNYKNFLRWLGITILLGLLFILLQAYEWYASPYTIHDGMYGTTFFITTGFHLLHVIVGTIWLVICFFMGLKKYFTNKKHFGFTAAMYYWHFVVIIWLVIYGSIYLLGS-GMNDEYFKEPKSIWPLIGALSLVLCTWGIYQLAFENNAGLLLIGLFTLVVSLYFYFREIVHAGVEEGKFTEAVEKKGKLFMILGIGTEILFFATLFIAYFYYSLNPPPESGGVWPPVGITPVNPLLIPFLNTLVLLSSSVTVQFARRALEKGNYKNFLKWLGITILLGALFILLQAYEWYASPYTIHDGMYGTTFFITTGFHLLHVIVGTIWLVVCFFMGLKKYFTSKKHFGFTAALAFWHFVVIIWLVIYGSIYLLGS-GMNDEWMKKPFSIWPLVGAVSLVLCVWGIYQLAFENNAGLLIVGLFTLVVSLYFYFREIVHLGVEEGKFTEAVEKKGKLAMILFIGTEVLFFATLFIDYFTYSLNPPPESGGVWPPVGITPVNPLLIPLLNTFVLAASSVTVQFARRALEKGEYKNFLRWLGITILLGAVFILLQAYEWYASPYTIHDGMYGTTFFVTTGFHFLHVVVGTIWLVVCFFMGLKKYFTSKKHFGFTAAMAFWHFVVIIWLVIYGSIYLLGS-GMNDEWFKEPKSIWPLLGFISLILCTWGIYQFAFENNTGLLIIGLITLVISLYFWFREIVHAGVEEGKFTEAVEKKFKLLMILFIGTEILFFGTLFVDYFTKSLNPPPESGGVWPPVGITPVNPLEIPFLNTLVLLTSSVTVQFAEKALKKGKYKSFLIWLGITILLGLIFILLQAYEWYASPYTIHDGTYGSTFFITTGFHFLHVVVGTIWLVICFFMGLKKYFTSKKHFGFTAAKLYWHFVVIIWLVIYGSIYLLGS,HQTHAYHMVNPSPWPLTGALSALLMTSGLTMWFHFNSMTLLMIGLTTNMLTMYQWWRDVIRESTFQGHHTPAVQKGLRYGMILFIISEVLFFTGFFWAFYHSSLAPTPELGGCWPPTGIHPLNPLEVPLLNTSVLLASGVSITWAHHSLMEGDRKHMLQALFITITLGVYFTLLQASEYYEAPFTISDGVYGSTFFVATGFHGLHVIIGSTFLIVCFFRQLKFHFTSNHHFGFEAAAWYWHFVDVVWLFLYVSIYWWGS-HQTHAYHMVNPSPWPLTGALSALLMTSGLTMWFHFNSMTLLMIGLTTNMLTMYQWWRDVIRESTFQGHHTPAVQKGLRYGMILFIISEVLFFTGFFWAFYHSSLAPTPELGGCWPPTGIHPLNPLEVPLLNTSVLLASGVSITWAHHSLMEGDRKHMLQALFITITLGVYFTLLQASEYYEAPFTISDGVYGSTFFVATGFHGLHVIIGSTFLIVCFFRQLKFHFTSNHHFGFEAAAWYWHFVDVVWLFLYVSIYWWGS-HQTHAYHMVNPSPWPLTGALSALLMTSGLTMWFHFNSMTLLMIGLTTNMLTMYQWWRDVIRESTFQGHHTPAVQKGLRYGMILFIISEVLFFTGFFWAFYHSSLAPTPELGGCWPPTGIHPLNPLEVPLLNTSVLLASGVSITWAHHSLMEGDRKHMLQALFITITLGVYFTLLQASEYYEAPFTISDGVYGSTFFVATGFHGLHVIIGSTFLIVCFFRQLKFHFTSNHHFGFEAAAWYWHFVDVVWLFLYVSIYWWGS-HQTHAYHMVNPSPWPLTGALSALLMTSGLTMWFHFNSMTLLMIGLTTNMLTMYQWWRDVIRESTFQGHHTPAVQKGLRYGMILFIISEVLFFTGFFWAFYHSSLAPTPELGGCWPPTGIHPLNPLEVPLLNTSVLLASGVSITWAHHSLMEGDRKHMLQALFITITLGVYFTLLQASEYYEAPFTISDGVYGSTFFVATGFHGLHVIIGSTFLIVCFFRQLKFHFTSNHHFGFEAAAWYWHFVDVVWLFLYVSIYWWGS-HQTHAYHMVNPSPWPLTGALSALLMTSGLTMWFHFNSMTLLMIGLTTNMLTMYQWWRDVIRESTFQGHHTPAVQKGLRYGMILFIISEVLFFTGFFWAFYHSSLAPTPELGGCWPPTGIHPLNPLEVPLLNTSVLLASGVSITWAHHSLMEGDRKHMLQALFITITLGVYFTLLQASEYYEAPFTISDGVYGSTFFVATGFHGLHVIIGSTFLIVCFFRQLKFHFTSNHHFGFEAAAWYWHFVDVVWLFLYVSIYWWGS-HQTHAYHMVNPSPWPLTGALSALLMTSGLTMWFHFNSMTLLMIGLTTNMLTMYQWWRDVIRESTFQGHHTPAVQKGLRYGMILFIISEVLFFTGFFWAFYHSSLAPTPELGGCWPPTGIHPLNPLEVPLLNTSVLLASGVSITWAHHSLMEGDRKHMLQALFITITLGVYFTLLQASEYYEAPFTISDGVYGSTFFVATGFHGLHVIIGSTFLIVCFFRQLKFHFTSNHHFGFEAAAWYWHFVDVVWLFLYVSIYWWGS-HQTHAYHMVNPSPWPLTGALSALLMTSGLTMWFHFNSMTLLMIGLTTNMLTMYQWWRDVIRESTFQGHHTPAVQKGLRYGMILFIISEVLFFTGFFWAFYHSSLAPTPELGGCWPPTGIHPLNPLEVPLLNTSVLLASGVSITWAHHSLMEGDRKHMLQALFITITLGVYFTLLQASEYYEAPFTISDGVYGSTFFVATGFHGLHVIIGSTFLIVCFFRQLKFHFTSNHHFGFEAAAWYWHFVDVVWLFLYVSIYWWGS-HQTHAYHMVNPSPWPLTGALSALLMTSGLTMWFHFNSMTLLMIGLTTNMLTMYQWWRDVIRESTFQGHHTPAVQKGLRYGMILFIISEVLFFTGFFWAFYHSSLAPTPELGGCWPPTGIHPLNPLEVPLLNTSVLLASGVSITWAHHSLMEGDRKHMLQALFITITLGVYFTLLQASEYYEAPFTISDGVYGSTFFVATGFHGLHVIIGSTFLIVCFFRQLKFHFTSNHHFGFEAAAWYWHFVDVVWLFLYVSIYWWGS-HQTHAYHMVNPSPWPLTGALSALLMTSGLTMWFHFNSMTLLMIGLTTNMLTMYQWWRDVIRESTFQGHHTPAVQKGLRYGMILFIISEVLFFTGFFWAFYHSSLAPTPELGGCWPPTGIHPLNPLEVPLLNTSVLLASGVSITWAHHSLMEGDRKHMLQALFITITLGVYFTLLQASEYYEAPFTISDGVYGSTFFVATGFHGLHVIIGSTFLIVCFFRQLKFHFTSNHHFGFEAAAWYWHFVDVVWLFLYVSIYWWGS-HQTHAYHMVNPSPWPLTGALSALLMTSGLTMWFHFNSMTLLMIGLTTNMLTMYQWWRDVIRESTFQGHHTPAVQKGLRYGMILFIISEVLFFTGFFWAFYHSSLAPTPELGGCWPPTGIHPLNPLEVPLLNTSVLLASGVSITWAHHSLMEGDRKHMLQALFITITLGVYFTLLQASEYYEAPFTISDGVYGSTFFVATGFHGLHVIIGSTFLIVCFFRQLKFHFTSNHHFGFEAAAWYWHFVDVVWLFLYVSIYWWGS,LVPTDEEQRK-EVPTDEEQRK-GVPTDEEQRR-EVPTDEEQRK-EVPTDEEQRK-AVPTDEEQRK-IVPTDEEKLK-EVPTDEEQRK-LVPTDEEQRK-EVPTDEEQRK,GVPTDEEQAT-GVPTDEEQAT-GVPTDEEQAT-GVPTDEEQAT-GVPTDEEQAT-GVPTDEEQAT-GVPTDEEQAT-GVPTDEEQAT-GVPTDEEQAT-GVPTDEEQAT
