contacts,cs,ce,Chain,Length,designed_receptor_seq,native_receptor_seq,designed_binder_seq,native_binder_seq
25.0,45,55,A,10,MTFRQTKEEEMIPNLTPYELRELVIKLGNNIKAEAINIVEEYTSPRGKECKIDLDTGEIE-MKVVLSLENRMIPLLTEQEHEDMRKQYNEWVELRDRGIIDYYNSPRNALAIKDPDTGKYY-MSQVLSFEHKKIPKLSDQEHEDLINDLEYEQEYFRRRLYDKNSSPLNAPCRVDMETGKVA-MKTILSIENQEIPLLSDQEVADLILDFSVALATRTLGDVRKIQDPRNNGHQLNLATGEEI-SKYELCKNKKLVRKLSEQEIQRLIEEDQEYRKMAYQNHIDKYTSPKNQKCEIDLTTGLIL-AENILSHENLWIPMLTKRQLEYMEIARDIAENLKRRERIAKIAKPSNKMCFINPKTGEEI-AEYVLSEQDTWIPKLTSDELEVLKDWDNIGTDLVKINRYLRFSSPWNKECIVDESSGKIC-TNYVLSHSIELIPELTTEEIKYLRIERDITNKIITIGRIARWGSSTNRKSTIDAVTGEEI-LLYELSNENQMIPKLTPQEAWEAVKKHKVDCARNAEETIARYLSPMDLACTVDASSGLLQ-MSFVLSKENKLIPQLSNAELQWLREALERSSAEEAQRLREFFSSPFNQEAVMDIATGEVV,VVYIMSKENRLIPKLSDEEVMERHKKADENMKRVWSQIIQKYESIDNQGDVIDLQTGEVI-VVYIMSKENRLIPKLSDEEVMERHKKADENMKRVWSQIIQKYESIDNQGDVIDLQTGEVI-VVYIMSKENRLIPKLSDEEVMERHKKADENMKRVWSQIIQKYESIDNQGDVIDLQTGEVI-VVYIMSKENRLIPKLSDEEVMERHKKADENMKRVWSQIIQKYESIDNQGDVIDLQTGEVI-VVYIMSKENRLIPKLSDEEVMERHKKADENMKRVWSQIIQKYESIDNQGDVIDLQTGEVI-VVYIMSKENRLIPKLSDEEVMERHKKADENMKRVWSQIIQKYESIDNQGDVIDLQTGEVI-VVYIMSKENRLIPKLSDEEVMERHKKADENMKRVWSQIIQKYESIDNQGDVIDLQTGEVI-VVYIMSKENRLIPKLSDEEVMERHKKADENMKRVWSQIIQKYESIDNQGDVIDLQTGEVI-VVYIMSKENRLIPKLSDEEVMERHKKADENMKRVWSQIIQKYESIDNQGDVIDLQTGEVI-VVYIMSKENRLIPKLSDEEVMERHKKADENMKRVWSQIIQKYESIDNQGDVIDLQTGEVI,MDLYAEHLVH-LELHMRKRRP-IGALKAKRFL-LNLLAERKVS-WAAHKAKLCC-IDLWRQRRLN-NDKWGESKAS-LSLHEKRHVH-VLEHMQHRTK-ITLLGERKTK,LLALHAKRIT-LLALHAKRIT-LLALHAKRIT-LLALHAKRIT-LLALHAKRIT-LLALHAKRIT-LLALHAKRIT-LLALHAKRIT-LLALHAKRIT-LLALHAKRIT
16.0,3,13,B,10,TVWHPFERLVKRIAKKHKISIKKEAIEELQRSAENEIVEKLEQTRLLADHASRTLISRRDLDLARLSK-MNKSPFIKNIEIKIKELGLDLETNTINSLLNSSEKYIVSLLEETSELALIDKRIIVTKSDLEISKRLE-MKKDPFLKLLYTVVREENLEVNGDGVQLLMTSSEAYLEGLLRDTAKLALHSKRTVILKEDFDLVERII-MTKQPFRKLVKVLAKEMDADFRDEAIAAMRDAAEEYLIGKAVDTARLAREAKRSTVARSDAELVDRLG-MSKKPFTKLCNIIRDLNADEFKSGSISALKDATEAYLIGKLVETSNLAEDANSTTVRVKHLDAVLKKT-MARVPFQRLLKTAIKQLDRELSGGAITALQELTEANIRELLDDTCLLAEHAERLIVTSDDVRLARRFP-MSKTPFREMAYELLSTLEFDLAKGALTSLQDASEKYLIGFLEETKNLALHGNRLVVTKEDLDRATDDE-MLRSPFQRLIRKVLKTNDSLLSGGAIDAMLQETELFIESILIETAKLARHKKRKTVTREDLEEVKRGK-MAKAPFSKLCSKILKNCTKDLLSGDIELLKNASEAYIKGLLIDSSNLALHARREVILNEDITQVLKSE-MEKKPFERLVNDIASELVFSFDSETITALKNETEKTLVDYTVETSKLALDRKRKTVTKEDLQLAKRIK,ISRMPFARLVKEVTDQFTLRWQSMAIMALQEASEAYLVGLLEHTNLLALHAKRITIMRKDMQLARRIR-ISRMPFARLVKEVTDQFTLRWQSMAIMALQEASEAYLVGLLEHTNLLALHAKRITIMRKDMQLARRIR-ISRMPFARLVKEVTDQFTLRWQSMAIMALQEASEAYLVGLLEHTNLLALHAKRITIMRKDMQLARRIR-ISRMPFARLVKEVTDQFTLRWQSMAIMALQEASEAYLVGLLEHTNLLALHAKRITIMRKDMQLARRIR-ISRMPFARLVKEVTDQFTLRWQSMAIMALQEASEAYLVGLLEHTNLLALHAKRITIMRKDMQLARRIR-ISRMPFARLVKEVTDQFTLRWQSMAIMALQEASEAYLVGLLEHTNLLALHAKRITIMRKDMQLARRIR-ISRMPFARLVKEVTDQFTLRWQSMAIMALQEASEAYLVGLLEHTNLLALHAKRITIMRKDMQLARRIR-ISRMPFARLVKEVTDQFTLRWQSMAIMALQEASEAYLVGLLEHTNLLALHAKRITIMRKDMQLARRIR-ISRMPFARLVKEVTDQFTLRWQSMAIMALQEASEAYLVGLLEHTNLLALHAKRITIMRKDMQLARRIR-ISRMPFARLVKEVTDQFTLRWQSMAIMALQEASEAYLVGLLEHTNLLALHAKRITIMRKDMQLARRIR,MLSQELETIP-RKSLERRNIT-ALSLENRVIP-ALSLENERIE-QLSKEMTLIP-RLSLEVQVIP-RMSKEKQKIQ-ILSLELEIIP-EKSLEDKTIP-ILSVEKERIP,IMSKENRLIP-IMSKENRLIP-IMSKENRLIP-IMSKENRLIP-IMSKENRLIP-IMSKENRLIP-IMSKENRLIP-IMSKENRLIP-IMSKENRLIP-IMSKENRLIP
