contacts,cs,ce,Chain,Length,designed_receptor_seq,native_receptor_seq,designed_binder_seq,native_binder_seq
22.0,7,17,A,10,MVKVRGQPAQIGGESGQDIMISIDVFKDDG-WQLTLGEPLSPGGSKGADKLYCQYHYLQPS-GSFVLGRPLVAAGNAGSSSAKEIEFFVQKG-GSQTLGSPKRTGGYNGANGLTMEAYYPNPV-DNESIGLPVIEGGFSGLTSRIFVKEFYVPA-GNSTNGIPVVAGGTAGVNQVMKVAIYYDKD-GSAVAGNPVFLGGSAGFLNQYNVTVYFDPQ-GETTAGQPAYVGGATGEESLYVIASFINDS-ANIIVGQPTIVGGHSGADGLHKVVFEFEPG-STTTTGRPEHYIGVAGIKTLQSKVVFRKDY,DVMVVGEPTLMGGEFGDEDERLITRLENTQ-DVMVVGEPTLMGGEFGDEDERLITRLENTQ-DVMVVGEPTLMGGEFGDEDERLITRLENTQ-DVMVVGEPTLMGGEFGDEDERLITRLENTQ-DVMVVGEPTLMGGEFGDEDERLITRLENTQ-DVMVVGEPTLMGGEFGDEDERLITRLENTQ-DVMVVGEPTLMGGEFGDEDERLITRLENTQ-DVMVVGEPTLMGGEFGDEDERLITRLENTQ-DVMVVGEPTLMGGEFGDEDERLITRLENTQ-DVMVVGEPTLMGGEFGDEDERLITRLENTQ,YGNDWMVGWW-GGQKSMLDDC-GASEPNVRHY-GNCSVSKSSS-GKTYRQWIAW-GTKRYSIRWE-GGNEIKIDYN-GGDTIYITAL-GNTLWNVRYD-GVTTWNVKYY,IGDRYFLKAI-IGDRYFLKAI-IGDRYFLKAI-IGDRYFLKAI-IGDRYFLKAI-IGDRYFLKAI-IGDRYFLKAI-IGDRYFLKAI-IGDRYFLKAI-IGDRYFLKAI
42.0,1,11,B,10,SQGCNKRIGEAVFSEAYDLVWHEDCLKCRDCGEALTEKGLKSYFKDGQVLCESDFFKKYGQNLTCSSCRKTIYANEWIMGIEQHVYHESCFHCAMCYKSFKKGDQLYLVKNKIVCSSDFASYARKM-CGGCEQKIEEDNYLIALNKHWHEDCLVCSQCQKELGHEDKVIHEREGQVLCSKDYLNLYGKDLKCSACEKKIEASEKIMKLNDDVYHLACFSCSICSKQFEQGDSFLLVAGYKICSEDWDIFNKNF-TNGCDMDTGSTQYLEALNSTWDIDCLACDNCGVNLGLRPREVFVRDGEVLCDDDYRKLYGKSLVCDTCQKEINGEEDVMVLNDCIFHCDCFVCVVCKKKFNKGDKLYLISDEIVCSDDVDIFLVTR-SGGSSETIEGEDYLRAFDHTWHLRCLACDECGRLLGLYPFKLHEKEGRKLCKHDYLLMFGKDSVCSRCEACINADELVMRIDEDIYHTECFKCEVCKKTYTEGDELYLMDSKIVCETDVIAWNEFK-MAGCNTCIQSKIFATGFAKTWHLDCFACDACGRNLGETPLVGYNRAGKILCDDCYHAFYGEDLTCSACRNIIAAQVFVYKLDNEVFHVSCWNCAICRTAYEEGDKLHLINGKLICNQNISTFKSTK-SQGCDKEILRQKFVEALSNVWHKKCLKCFECGTSLGEKGRTVYNKDGKVLCEKCFKKLFGQSLTCNACNKEISASENVIRLEDYSYHEKCFKCAVCSKFFTDGDLFYLSKSIIVCDADKDTFKWLN-TVGCNREIGKAFFLQGLENSWHMDCLKCDSCGSDLGCKDSHFFHEQGKILCDKDFKRRYGKRLTCSSCQRKIAAAAWVYKEYDTVYHVSCFKCSNCKKKFHEGDNFYLVEDEIICDEDIDIFRKNA-CAGCSKEIGANFFLQALNERWHERCFKCSFCGVTLGESPHFSYLREGKVLCSQDYKKAFGDNLTCSKCLRNISASKFVMTLDDFVYHIDCFKCALCERHFREGDQFYLINRTVVCSQDLEAFLAEH-SAGCESTLGRKEYLTALCHSWHEECFSCADCGKCLGRQGHTAYNKEGKVLCLTDYNALFGPSFVCDKCSDVIAAEKMVYRSQELIFHESCFCCEECRTKFNEGDEFFLIEKRVVCRNDIQSFQEDY-SGGSSEKMNELLFIQAMEETWHRQCLVCDNCGTKLGDKPMKVFHHEGQVLCTDCYLSRFGQSLVCGKCEQTIKASSEVHRLLEAIYHLECFKCSVCSKRFTEGDEFWLVERTIVCSEDIQNYMNSS,CGGCQQNIGDRYFLKAIDQYWHEDCLSCDLCGCRLGEVGRRLYYKLGRKLCRRDYLRLFGQDGLCASCDKRIRAYEMTMRVKDKVYHLECFKCAACQKHFCVGDRYLLINSDIVCEQDIYEWTKIN-CGGCQQNIGDRYFLKAIDQYWHEDCLSCDLCGCRLGEVGRRLYYKLGRKLCRRDYLRLFGQDGLCASCDKRIRAYEMTMRVKDKVYHLECFKCAACQKHFCVGDRYLLINSDIVCEQDIYEWTKIN-CGGCQQNIGDRYFLKAIDQYWHEDCLSCDLCGCRLGEVGRRLYYKLGRKLCRRDYLRLFGQDGLCASCDKRIRAYEMTMRVKDKVYHLECFKCAACQKHFCVGDRYLLINSDIVCEQDIYEWTKIN-CGGCQQNIGDRYFLKAIDQYWHEDCLSCDLCGCRLGEVGRRLYYKLGRKLCRRDYLRLFGQDGLCASCDKRIRAYEMTMRVKDKVYHLECFKCAACQKHFCVGDRYLLINSDIVCEQDIYEWTKIN-CGGCQQNIGDRYFLKAIDQYWHEDCLSCDLCGCRLGEVGRRLYYKLGRKLCRRDYLRLFGQDGLCASCDKRIRAYEMTMRVKDKVYHLECFKCAACQKHFCVGDRYLLINSDIVCEQDIYEWTKIN-CGGCQQNIGDRYFLKAIDQYWHEDCLSCDLCGCRLGEVGRRLYYKLGRKLCRRDYLRLFGQDGLCASCDKRIRAYEMTMRVKDKVYHLECFKCAACQKHFCVGDRYLLINSDIVCEQDIYEWTKIN-CGGCQQNIGDRYFLKAIDQYWHEDCLSCDLCGCRLGEVGRRLYYKLGRKLCRRDYLRLFGQDGLCASCDKRIRAYEMTMRVKDKVYHLECFKCAACQKHFCVGDRYLLINSDIVCEQDIYEWTKIN-CGGCQQNIGDRYFLKAIDQYWHEDCLSCDLCGCRLGEVGRRLYYKLGRKLCRRDYLRLFGQDGLCASCDKRIRAYEMTMRVKDKVYHLECFKCAACQKHFCVGDRYLLINSDIVCEQDIYEWTKIN-CGGCQQNIGDRYFLKAIDQYWHEDCLSCDLCGCRLGEVGRRLYYKLGRKLCRRDYLRLFGQDGLCASCDKRIRAYEMTMRVKDKVYHLECFKCAACQKHFCVGDRYLLINSDIVCEQDIYEWTKIN-CGGCQQNIGDRYFLKAIDQYWHEDCLSCDLCGCRLGEVGRRLYYKLGRKLCRRDYLRLFGQDGLCASCDKRIRAYEMTMRVKDKVYHLECFKCAACQKHFCVGDRYLLINSDIVCEQDIYEWTKIN,NFLVLEPRKN-MFEVGEPEKN-EVTVGSVKKS-KVEVGKPQTN-DVVVGDPVVN-AAVVGKKENN-RKRVGKPRYN-EMVVGEVTIN-AVKVGAPSSA-RAEVGTPVQN,VMVVGEPTLM-VMVVGEPTLM-VMVVGEPTLM-VMVVGEPTLM-VMVVGEPTLM-VMVVGEPTLM-VMVVGEPTLM-VMVVGEPTLM-VMVVGEPTLM-VMVVGEPTLM
