contacts,cs,ce,Chain,Length,designed_receptor_seq,native_receptor_seq,designed_binder_seq,native_binder_seq
28.0,8,18,A,10,VVSCFGELQRWRDELVRRSVEELLGFLLEEEGPSRRDEAEVPLELLEGVAMAWGVYSPEKWRPRGRVNSVDRELAKVLAKLLEEPLRTRGGVLLREEVYREVNALLRKTQLTPDQLYDAAIHMASLWLPLHLVETTSGVKMLRLRGYDPRMLVRRAQRIVEERGAVDAPTFAQIVGMSRTYAQELLELGARLGYLERCTSKLGVYYHPNWWASGA-MGILEQVKEFQSKFRRLAEAEAEARALAEAVPRDPRKKPSARELAMADRLLLLGLEVPDELKERLKITVTEAKNAMVLSLMLEAPLEGKGGVLLFEEVFDHVNGALGSNRFTEQQMLDAALILGRENLPIHYAETDNGDKYLLLATFNPDEAEEFAEQVVAEEGFMTAEEFAAVFKMSRKRAFEMLKLAARKGKLEMEVSDAGVYYSVNKYKEQG-GMLYLAEELLQQAWEHGSQLEQQVWQLALSVDFQQLFGQLDVVQALRELCVDLGMLSSEFLQAHGLTSSYEENLSKRLALFLREPLRAVGGIMLFQEVLQLVNERFQHHALEEAELLRATVQLKRWGLPLEFETTESGNRWIRLEDWDPLESVYEMERVVRENGQLTAPQYADVKSMALVQAFEYLRLGRQVGLLEIDRSLRGTFYVVNTAALNA-GAHMQFLVGTKEIASFKSYIEQMVSESLRSIKKNLKKDKEEELAILVSLCSGLGAQITQEELREIIGSDENKKLSSLLSDLLKRPLMQNGGIMLQEEVFRYVNAIDTKKKLRLLDLLNATSILNEQKLPIKAEVTKCGTRIIMLQNTDPRKFVNSVFNIVKTHGSLTALEMANKIKMSYIRARELLELAREKGYLTIESSRKGIYYHVNYRLTSL-GEDAELFEGIEKAKEDFVKAKEGFHDFLESYNHLSSKDKDEFLAYVRDYAKDLGVFNLDNLNKRGYPTPYLRKLAFELAEILKKPLAERGGRMLLDEVDGFVNSRYSIRKLSRKELNGACEELDELGLQIKKQVTKTGTTIIRLNRFDEDKEKRKVYKIVEKNGRLTAKELSNILNMSLEYAKILLERAKEKGLLMLSHDSNGVFYHPNFKAIEG-KDYIQALEQLYEREQKEEAQVQALQERLDLLNRDSHLKDETHLSLIKEDAIALGIEAHKAAALGGRLASQSFLLATVLERMLQEELRKRGGIMLLEEVSELINSRYEEKKLSEEDLRQALLLLDRYNLDIHWCRTDNGKQYVRLRSVNPDDGLIFVYRAVKRFGRLKPDQYAAVMGIDLGYARHLLRKAEQVGVLRREVSGRGVFYHPNERLRSG-DETDRRDRARSIEEYARLLEALIFDVIEREVRDSHRQKPLKSARELDDLGRLSGKLNQAVRVKYGLPLTRGEKLARDMSERLLAPLRRRGGIMRFEDAHQLLNDEDSEDKLSADDFYAAAKELNEMNLPLVMERTAMGDEYLKTSEYDPVVEVKAALNIVESHGCLTAGQFSKVSKCSRARANEILLLARRKGFLQIEDSSWGTFYCPNWSAQMQ-SNAELTQSARQARQALYRRQIALLDALQTQLRNGDASAATDLAEQFVELAVKAGVLEPSVLEPLGFSATHLERLAKKLASQLQEPLVNRGGYLLLDEVQRLVNAATGIDRLTHEDLVGACQVMSPQALPLRFVTTRNGDRFIRGQRTQPDQMLKEIWAIVQDNGRLNAAEASTKLSMTPLFSKELLNLAREKGLLMMERSAAGNFHVIHHLALGR-TDPLSIIEQQAERQKLLHQATIDVEQALQDAKVEGSDSPSVRLVILQELLEQLGQKDQFLAAGQPLPTKGELTLAQLLSEVLSLPLMLDGGVRLREDVYNEVNALRQNSWLSIQQLIEACELLNNLLLPHELWRAESGNTFVRQDTENIETKEISALSVVRANGHLTAAQYANERNISLNWAAQELRNCEKAGFLEAEESDLGRYYNVNFRLHSR-MRELARLTNALISERNRLVREILLNQQIAEATRVESVALRLGLEELAEEAAKEGLLRPSTIAGLAETLTKYRALATALADLLQEPLEERGGELLLEEVMELVNSYFREKKLSREDLLQAAEVMGEQGLPAHWAEFASGRKILLLQHVEPVRLVKEALALVQEHGYLSADELAGKMKMSRERALELLEIARDGGFLQLGVSMRGRWYYPNRRAMGL,KNISEAFEDLSKLMIKAKEMVELSKSIANKIKDKQGDITEDETIRFKSYLLSMGIANPVTRETYGSGTQYHMQLAKQLAGILQVPLEERGGIMSLTEVYCLVNRARGMELLSPEDLVNACKMLEALKLPLRLRVFDSGVMVIELQSHKEEEMVASALETVSEKGSLTSEEFAKLVGMSVLLAKERLLLAEKMGHLCRDDSVEGLRFYPNLFMTQS-KNISEAFEDLSKLMIKAKEMVELSKSIANKIKDKQGDITEDETIRFKSYLLSMGIANPVTRETYGSGTQYHMQLAKQLAGILQVPLEERGGIMSLTEVYCLVNRARGMELLSPEDLVNACKMLEALKLPLRLRVFDSGVMVIELQSHKEEEMVASALETVSEKGSLTSEEFAKLVGMSVLLAKERLLLAEKMGHLCRDDSVEGLRFYPNLFMTQS-KNISEAFEDLSKLMIKAKEMVELSKSIANKIKDKQGDITEDETIRFKSYLLSMGIANPVTRETYGSGTQYHMQLAKQLAGILQVPLEERGGIMSLTEVYCLVNRARGMELLSPEDLVNACKMLEALKLPLRLRVFDSGVMVIELQSHKEEEMVASALETVSEKGSLTSEEFAKLVGMSVLLAKERLLLAEKMGHLCRDDSVEGLRFYPNLFMTQS-KNISEAFEDLSKLMIKAKEMVELSKSIANKIKDKQGDITEDETIRFKSYLLSMGIANPVTRETYGSGTQYHMQLAKQLAGILQVPLEERGGIMSLTEVYCLVNRARGMELLSPEDLVNACKMLEALKLPLRLRVFDSGVMVIELQSHKEEEMVASALETVSEKGSLTSEEFAKLVGMSVLLAKERLLLAEKMGHLCRDDSVEGLRFYPNLFMTQS-KNISEAFEDLSKLMIKAKEMVELSKSIANKIKDKQGDITEDETIRFKSYLLSMGIANPVTRETYGSGTQYHMQLAKQLAGILQVPLEERGGIMSLTEVYCLVNRARGMELLSPEDLVNACKMLEALKLPLRLRVFDSGVMVIELQSHKEEEMVASALETVSEKGSLTSEEFAKLVGMSVLLAKERLLLAEKMGHLCRDDSVEGLRFYPNLFMTQS-KNISEAFEDLSKLMIKAKEMVELSKSIANKIKDKQGDITEDETIRFKSYLLSMGIANPVTRETYGSGTQYHMQLAKQLAGILQVPLEERGGIMSLTEVYCLVNRARGMELLSPEDLVNACKMLEALKLPLRLRVFDSGVMVIELQSHKEEEMVASALETVSEKGSLTSEEFAKLVGMSVLLAKERLLLAEKMGHLCRDDSVEGLRFYPNLFMTQS-KNISEAFEDLSKLMIKAKEMVELSKSIANKIKDKQGDITEDETIRFKSYLLSMGIANPVTRETYGSGTQYHMQLAKQLAGILQVPLEERGGIMSLTEVYCLVNRARGMELLSPEDLVNACKMLEALKLPLRLRVFDSGVMVIELQSHKEEEMVASALETVSEKGSLTSEEFAKLVGMSVLLAKERLLLAEKMGHLCRDDSVEGLRFYPNLFMTQS-KNISEAFEDLSKLMIKAKEMVELSKSIANKIKDKQGDITEDETIRFKSYLLSMGIANPVTRETYGSGTQYHMQLAKQLAGILQVPLEERGGIMSLTEVYCLVNRARGMELLSPEDLVNACKMLEALKLPLRLRVFDSGVMVIELQSHKEEEMVASALETVSEKGSLTSEEFAKLVGMSVLLAKERLLLAEKMGHLCRDDSVEGLRFYPNLFMTQS-KNISEAFEDLSKLMIKAKEMVELSKSIANKIKDKQGDITEDETIRFKSYLLSMGIANPVTRETYGSGTQYHMQLAKQLAGILQVPLEERGGIMSLTEVYCLVNRARGMELLSPEDLVNACKMLEALKLPLRLRVFDSGVMVIELQSHKEEEMVASALETVSEKGSLTSEEFAKLVGMSVLLAKERLLLAEKMGHLCRDDSVEGLRFYPNLFMTQS-KNISEAFEDLSKLMIKAKEMVELSKSIANKIKDKQGDITEDETIRFKSYLLSMGIANPVTRETYGSGTQYHMQLAKQLAGILQVPLEERGGIMSLTEVYCLVNRARGMELLSPEDLVNACKMLEALKLPLRLRVFDSGVMVIELQSHKEEEMVASALETVSEKGSLTSEEFAKLVGMSVLLAKERLLLAEKMGHLCRDDSVEGLRFYPNLFMTQS,NCPLRHPQPQ-PNCLKTVQPQ-QPWLLTYQPQ-NPPDFTVQPF-VPPSLTKQPQ-RPSMYTPQPY-NPPYYTVQPK-WPPKSTPQPH-HPPHYTPQRL-IPESRTVQPY,FPPFFTLQPN-FPPFFTLQPN-FPPFFTLQPN-FPPFFTLQPN-FPPFFTLQPN-FPPFFTLQPN-FPPFFTLQPN-FPPFFTLQPN-FPPFFTLQPN-FPPFFTLQPN
20.0,195,205,B,10,GMKTPAWDFPPFFTEDSNEDARSRQLEVWGNELILGYRKEGWQSLRREEIRHLPLFTHFESELTLPAQSVGEILRYLENEGYLTRENRTQGFYALTA-GPWDDAWYDPAFWTAQPDEEQWKQQLEDWGSQLKDFYMSEHEHYFMQRELASLPVFWNQDDRLSMCGVEQMTVIDVLLYNGNLERLNHAEGRYALLK-MQASSWWSYPPFFTRQSFREENNLQMDIWGKAVLEHVRSSCTFQFDYFNLEHLPVFSDLDGNGVIPGNYLHQVMDQLRMRGHLSKFDSRGTRYVLHA-PPRHRYYHWDPFYTEPADVELQSKWIRIWGSYLLRYLREYNVRKFTRAELLNDPIFNSYKLKQMLREHFVSLVLQKLENAGHLRKEDKGHGEYWLLP-SKWPPEYLSDPFFTRQPDQETREEQMKVRCKAVREFYRQTGIRKLTMLVLRKLPIFCNFADRSNLNGKYIQMILQKLKEEGYLHQHDDEYHEYYLTK-GPLEPLLYEPPFYTKDPSKFIRSQRIEKLCKALLSFCKEKQIIEFTRSDVIDMPIFSNKGQDLQMADTTIQEVLEALQEEGHLDERDKYRYTFYFFK-MNLPSYYFHPPFFTKDPDKSVQEAQLLIWCSYIESYYLDLGENDFDYQSISMKPIFANFKDGTDVPAGYINQILEYLLETGKLEQVDLEGKKYILSL-NQLDPYYNEQPFYTLHPDSKVRKKQMERWEEELIRLKEYKDVSLFDMREVLNEYVFSSGQVERTLPNITLHEVLVSLENRGLISDVKAGSNKYRLIT-MRYPDSYRQPWFFTKQPDIDLKEKQMQILCSYVLDYFQFNNMTKLSHEELRDMPIFNNTDQNLSLPGDYIKSVIKKLQEIGYVTKRDTKGKSYYVYE-ADRPAQMHFPPFFTRQPDERLLRQQLKVWGDWARKWFCEHRVTTLNMRELLRQPIFFNRRAKLSLPYDDVGIILRQLIQQGLVQEREKSGKHYKLIQ,FEWPWQYRFPPFFTLQPNVDTRQKQLAAWCSLVLSFCRLHKQSSMTVMEAQESPLFNNVKLQRKLPVESIQIVLEELRKKGNLEWLDKSKSSFLIMW-FEWPWQYRFPPFFTLQPNVDTRQKQLAAWCSLVLSFCRLHKQSSMTVMEAQESPLFNNVKLQRKLPVESIQIVLEELRKKGNLEWLDKSKSSFLIMW-FEWPWQYRFPPFFTLQPNVDTRQKQLAAWCSLVLSFCRLHKQSSMTVMEAQESPLFNNVKLQRKLPVESIQIVLEELRKKGNLEWLDKSKSSFLIMW-FEWPWQYRFPPFFTLQPNVDTRQKQLAAWCSLVLSFCRLHKQSSMTVMEAQESPLFNNVKLQRKLPVESIQIVLEELRKKGNLEWLDKSKSSFLIMW-FEWPWQYRFPPFFTLQPNVDTRQKQLAAWCSLVLSFCRLHKQSSMTVMEAQESPLFNNVKLQRKLPVESIQIVLEELRKKGNLEWLDKSKSSFLIMW-FEWPWQYRFPPFFTLQPNVDTRQKQLAAWCSLVLSFCRLHKQSSMTVMEAQESPLFNNVKLQRKLPVESIQIVLEELRKKGNLEWLDKSKSSFLIMW-FEWPWQYRFPPFFTLQPNVDTRQKQLAAWCSLVLSFCRLHKQSSMTVMEAQESPLFNNVKLQRKLPVESIQIVLEELRKKGNLEWLDKSKSSFLIMW-FEWPWQYRFPPFFTLQPNVDTRQKQLAAWCSLVLSFCRLHKQSSMTVMEAQESPLFNNVKLQRKLPVESIQIVLEELRKKGNLEWLDKSKSSFLIMW-FEWPWQYRFPPFFTLQPNVDTRQKQLAAWCSLVLSFCRLHKQSSMTVMEAQESPLFNNVKLQRKLPVESIQIVLEELRKKGNLEWLDKSKSSFLIMW-FEWPWQYRFPPFFTLQPNVDTRQKQLAAWCSLVLSFCRLHKQSSMTVMEAQESPLFNNVKLQRKLPVESIQIVLEELRKKGNLEWLDKSKSSFLIMW,ALVKNNSGTW-LKLVSVGGTR-IKKVDSKGVD-PLSRRSSGLR-RVIKNEDGVL-VTYISKKGTH-IYTIGPSGVH-EQHIDENGIL-YYKESKEGNR-VYVVTKEGQE,CRDDSVEGLR-CRDDSVEGLR-CRDDSVEGLR-CRDDSVEGLR-CRDDSVEGLR-CRDDSVEGLR-CRDDSVEGLR-CRDDSVEGLR-CRDDSVEGLR-CRDDSVEGLR
