contacts,cs,ce,Chain,Length,designed_receptor_seq,native_receptor_seq,designed_binder_seq,native_binder_seq
34.0,101,111,A,10,MGLAEILRDAVLERAIAEGVFTREDLETWRAYVATLGPEPAARLVARAWLDPEYERLCLEDGVAASRAVGVDWVETPPSKRGEPWAHTRLRVLGDSPERRHVVVNSGCFACPILGLPPAWYKSATFRRRLPVEPREVLAEFGLEVPDDVEVVVTDETRDERHIVLPVRPEGTEGWSEDELAAIVTRDCLIGVALPEPGVTEDRARGVVAAAAPA-MTAAEILRRAVLDRAIAEGVFTAEDLETWEAYYATLGPEPAARLVARAWLDPAYRGLCAADGVAAAKAVGVDWVETPPSKGGEPWAHTDLRVLVDSPDHVHVVVNSGCFACPILGRPPAWYKSATFRRRLPVEPREVLAEFGLTVPDDVRVTVVDETRDRRYIVLPTRPAGTEGASEDELAAIVTRDCLIGVARPEPGVTEDRARGVVEAAAPA-MGLAEILRKAVLDEAIRRGIFTREDLETWRAYVATLGPEPAARLVARAWLDPEYEGLCLRDGVAASKAVGVDWVETPPSKRGEPWAHTDLRVLGDSPERRYVVVNSGCFACPILGLPPAWYKSATFRRRLPVEPREVLAEFGLRVPDDVEVVVVDETRDRRYIVLPVRPEGTEGWTEEELAAIVTRDCLIGVALPEPGRTEDRERGVVLAAAPP-MTAAEILRRAVLDEAIRRGVFTAEDLETWEAYYATLGPEPAARLVARAWLDPEYERLCLEDGVAASRAVGVDWVETPPSKRGEPWAHTDLRVLGDSPDHVHVVVNSGCFACPILGLPPAWYKSATFRRDLPRRPREVLAEFGLTVPDDVRVTVVDETRDRRYIVLPTRPAGTEGWTEDELAAIVTRDCLIGVARPEPGVTEDRARGVVEAAAPA-MTAAEILRKAVLDRAIAEGVFTAEDLETWEAYYATLGPEPAARLVARAWLDPEYEGLCLADGVAASKAVGVDWVETPPTKGGEPWAHTDLRVLGDSPDHVHVVVNSGCFACPILGRAPAWYKSATFRRDLPFVPREVLAEFGLTVPDDVRVTVVDETRDRRHIVLPTRPAGTEGWSEDELAAIVTRDCLIGVARPEPGVTEDAARGVVEAAAPA-MTAAEILRDAVLDRAIAEGVFSREDLETWRAYVATLGPEPAARLVARAWLDPEYERLCLEDGVAASRAVGVDWVETPPSKGGEPWAHTDLRVLGDSPDRRYVVVNSGCFACPILGLPPAWYKSARFRRELPVRPREVLAEFGLTVPDDVEVVVVDETRDRRYIVLPTRPAGTEGWSEDELAAIVTRDCLIGVAEPRPGVTEDRARGVVEAAAPA-MTAAEILRKAVLDRAIAEGVFTAEDLETWRAYVATLGPEPAARLVARAWLDPEYEGLCLADGVAAAKAVGVDWVNTPPSKGGEPWAHTDLRVLGDSPDHVHVVVNSGCFACPILGEAPAWYKSATFRRDLPFRPREVLAEFGLTVPDDVRVTVVDETADRRHIVLPTRPAGTEGATEDELAAIVTRDCLIGVARPEPGVTEDRARGVVEAAAPA-MTAAEILRKAVLDRAIELGIFTEEDLETWRAYYATLGPEPAARLVARAWLDPEYEGLCLADGVAASKAVGVDWVETPPSKGGEPWAHTDLRVLGDSPDHRHVIVNSGCFACPILGAPPAWYKSATFRRRLPVEPREVLAEFGLTVPDDVRVTVVDETRDRRYIVLPTRPAGTEGWSEDELAAIVTRDCLIGVAEPRPGVTEDAARGVVEAAAPA-MTAAEILRRAVLERAIAEGVFTAEDLETWEAYYATLGPEPAARLVARAWLDPEYERLCLEDGVAASRAVGVDWVETPPSKGGEPWAHTDLRVLGDSPERRHVVVNSGCFACPILGLAPAWYKSATFRRRLPREPREVLAEFGLEVPADVEVVVTDETRDRRHIVLPVRPEGTEGWSEEELAAIVTRDCLIGVAEPRPGVTEDRARGVVEAAAPA-MTAAEILRRAVLERAIAEGVFTAEDLETWRAYVATLGPEPAARLVARAWLDPEYERLCLEDGVAASRAVGVDWVETPPTKRGEPWAHTRLRVLGDSPDRRYVVVNSGCFACPILGLPPAWYKSATFRRRLPREPREVLAEFGLRVPDDVEVVVVDETRDERHIVLPVRPAGTEGWSEDELAAIVTRDCLIGVAEPRPGVTEDRARGVVAAAAPA,VSDFEILEMAVRELAIEKGLFSAEDHRVWKDYVHTLGPLPAARLVAKAWLDPEYKKLCIEDGVEASKAVGVNWVTSPPTQFGTPSDYCNLRVLADSPTLKHVVVCTLSYPRPILGQSPEWYRSPNYRRRLVRWPRQVLAEFGLQLPSEVQIRVADSNQKTRYIVMPVRPEGTDGWTEDQLAEIVTRDCLIGVAVPKPGITVNAKRPVLKANRPV-VSDFEILEMAVRELAIEKGLFSAEDHRVWKDYVHTLGPLPAARLVAKAWLDPEYKKLCIEDGVEASKAVGVNWVTSPPTQFGTPSDYCNLRVLADSPTLKHVVVCTLSYPRPILGQSPEWYRSPNYRRRLVRWPRQVLAEFGLQLPSEVQIRVADSNQKTRYIVMPVRPEGTDGWTEDQLAEIVTRDCLIGVAVPKPGITVNAKRPVLKANRPV-VSDFEILEMAVRELAIEKGLFSAEDHRVWKDYVHTLGPLPAARLVAKAWLDPEYKKLCIEDGVEASKAVGVNWVTSPPTQFGTPSDYCNLRVLADSPTLKHVVVCTLSYPRPILGQSPEWYRSPNYRRRLVRWPRQVLAEFGLQLPSEVQIRVADSNQKTRYIVMPVRPEGTDGWTEDQLAEIVTRDCLIGVAVPKPGITVNAKRPVLKANRPV-VSDFEILEMAVRELAIEKGLFSAEDHRVWKDYVHTLGPLPAARLVAKAWLDPEYKKLCIEDGVEASKAVGVNWVTSPPTQFGTPSDYCNLRVLADSPTLKHVVVCTLSYPRPILGQSPEWYRSPNYRRRLVRWPRQVLAEFGLQLPSEVQIRVADSNQKTRYIVMPVRPEGTDGWTEDQLAEIVTRDCLIGVAVPKPGITVNAKRPVLKANRPV-VSDFEILEMAVRELAIEKGLFSAEDHRVWKDYVHTLGPLPAARLVAKAWLDPEYKKLCIEDGVEASKAVGVNWVTSPPTQFGTPSDYCNLRVLADSPTLKHVVVCTLSYPRPILGQSPEWYRSPNYRRRLVRWPRQVLAEFGLQLPSEVQIRVADSNQKTRYIVMPVRPEGTDGWTEDQLAEIVTRDCLIGVAVPKPGITVNAKRPVLKANRPV-VSDFEILEMAVRELAIEKGLFSAEDHRVWKDYVHTLGPLPAARLVAKAWLDPEYKKLCIEDGVEASKAVGVNWVTSPPTQFGTPSDYCNLRVLADSPTLKHVVVCTLSYPRPILGQSPEWYRSPNYRRRLVRWPRQVLAEFGLQLPSEVQIRVADSNQKTRYIVMPVRPEGTDGWTEDQLAEIVTRDCLIGVAVPKPGITVNAKRPVLKANRPV-VSDFEILEMAVRELAIEKGLFSAEDHRVWKDYVHTLGPLPAARLVAKAWLDPEYKKLCIEDGVEASKAVGVNWVTSPPTQFGTPSDYCNLRVLADSPTLKHVVVCTLSYPRPILGQSPEWYRSPNYRRRLVRWPRQVLAEFGLQLPSEVQIRVADSNQKTRYIVMPVRPEGTDGWTEDQLAEIVTRDCLIGVAVPKPGITVNAKRPVLKANRPV-VSDFEILEMAVRELAIEKGLFSAEDHRVWKDYVHTLGPLPAARLVAKAWLDPEYKKLCIEDGVEASKAVGVNWVTSPPTQFGTPSDYCNLRVLADSPTLKHVVVCTLSYPRPILGQSPEWYRSPNYRRRLVRWPRQVLAEFGLQLPSEVQIRVADSNQKTRYIVMPVRPEGTDGWTEDQLAEIVTRDCLIGVAVPKPGITVNAKRPVLKANRPV-VSDFEILEMAVRELAIEKGLFSAEDHRVWKDYVHTLGPLPAARLVAKAWLDPEYKKLCIEDGVEASKAVGVNWVTSPPTQFGTPSDYCNLRVLADSPTLKHVVVCTLSYPRPILGQSPEWYRSPNYRRRLVRWPRQVLAEFGLQLPSEVQIRVADSNQKTRYIVMPVRPEGTDGWTEDQLAEIVTRDCLIGVAVPKPGITVNAKRPVLKANRPV-VSDFEILEMAVRELAIEKGLFSAEDHRVWKDYVHTLGPLPAARLVAKAWLDPEYKKLCIEDGVEASKAVGVNWVTSPPTQFGTPSDYCNLRVLADSPTLKHVVVCTLSYPRPILGQSPEWYRSPNYRRRLVRWPRQVLAEFGLQLPSEVQIRVADSNQKTRYIVMPVRPEGTDGWTEDQLAEIVTRDCLIGVAVPKPGITVNAKRPVLKANRPV,ARANDRLERP-ARANDRLERP-PRRNDRLERP-ARRHDRLERP-ARANDRLERP-ARRNDRLLRP-ARANDRLERP-ARANDRLERP-ARANDRLERP-ARRNDRLERP,TFANDTLETE-TFANDTLETE-TFANDTLETE-TFANDTLETE-TFANDTLETE-TFANDTLETE-TFANDTLETE-TFANDTLETE-TFANDTLETE-TFANDTLETE
42.0,150,160,B,10,MPEIDITAFAERAKGIGIPECYAGQAGEAKFKVGDKVTIKNLPGEKFTNVLEFTWGKTGTIIELTYEAPAAEDFAFGNTDKVEHHYKIRFKKADLFPEWSEEFKDDTVETEIPERYLEKA-MPIIDITAFAERAKGIGIPECYAGQAGEAKFNVGDKVTIKNLPGENFTNVLEMFRGKTGTIIELTYEAPAAEDAAFGNTDKVEHHYRIRFKKADLFPEWSAEFKDDTVETEVPERYLEKA-MPEIDFTAFAKRAEGIGIPECYAGQAGEAKFKVGDKVTIKNLPGEDFTNVYEFTHGKTGTIIELTYEAPAAEDFMFGDTSKVEHHYKIRFKKADLFPEWSEEFKDDTVETEIPERYLEKA-MPVIDITAFAEKAKGVGIPECYAGQAGEAKFKVGDKVTIKDLPGEHFTNVLDFTRGKTGTIIELTYEAPAAEDFSFGDTSKVEHHYKIRFKKADLFPEWSAEFKDDTVETEVPERYLEKA-MPVIDITAFAKRAEGIGIPECYAGQAGEAKFKVGDKVTIKNLPGEDFTNVYEFTWGKTGTIIELTYEAPAAEDFAFGDTSKVEHHYRIRFKKADLFPEWSEEFKDDTVETEIPERYLEKA-MPVIDITAFAERAKGIGIPECYAGQAGEAKFKVGDKVTIKNLPGEFFTNVLEFTRGKTGTIIELTYEAPAAEDFAFGNTDKVEHHYRIRFKKADLFPEWSAEYKDDTVETEVPERYLEKA-MPVIDITAFAKRAEGIGIPECYAGQAGEAKFKVGDKVTIKNLPGEKFTNVLEFTRGKTGTIIELTYEAPAFEDFAFGNTDKVEHHYRIRFKKADLFPEWSAEYKDDTVETEIPERYLEKA-MPEIDITAFAERAKGIGIPECYAGEAGEAKFKVGDKVTIKDLPGEFFTNVYEFTRGKTGTIIELTYEAPAAEDFAFGDTSKVEHHYRIRFKKADLFPEWSEEFKDDTVETEIPERYLEKA-MPKIDITAFAKRAEGIGIPECYAGEAGEAKFKVGDKVTIKNLPGEKFTNVLEFTRGKTGTIVELTYEAPAFEDFAFGDTSKVEHHYRIRFKKADLFPEWSKEFENDTVETEIPERYLEKA-MPEIDITAFAEKAKGIGIPECYAGQAGEAKFKVGDKVTIKDLPGEKFTNVLEFTRGKTGTIIELTHEAPAAEDFMFGDTSKVEHHYKIRFKKADLFPEWSEEFKDDTVETEIPERYLEKA,KPVWDRTHHAKMATGIGDPQCFKGMAGKSKFNVGDRVRIKDLPDLFYTRTMTYTRGATGTIVRLVYESPAAEDEAFGNEENVEWFYSIVFAQKDLWPEYSDTFANDTLETEIPERYLEKA-KPVWDRTHHAKMATGIGDPQCFKGMAGKSKFNVGDRVRIKDLPDLFYTRTMTYTRGATGTIVRLVYESPAAEDEAFGNEENVEWFYSIVFAQKDLWPEYSDTFANDTLETEIPERYLEKA-KPVWDRTHHAKMATGIGDPQCFKGMAGKSKFNVGDRVRIKDLPDLFYTRTMTYTRGATGTIVRLVYESPAAEDEAFGNEENVEWFYSIVFAQKDLWPEYSDTFANDTLETEIPERYLEKA-KPVWDRTHHAKMATGIGDPQCFKGMAGKSKFNVGDRVRIKDLPDLFYTRTMTYTRGATGTIVRLVYESPAAEDEAFGNEENVEWFYSIVFAQKDLWPEYSDTFANDTLETEIPERYLEKA-KPVWDRTHHAKMATGIGDPQCFKGMAGKSKFNVGDRVRIKDLPDLFYTRTMTYTRGATGTIVRLVYESPAAEDEAFGNEENVEWFYSIVFAQKDLWPEYSDTFANDTLETEIPERYLEKA-KPVWDRTHHAKMATGIGDPQCFKGMAGKSKFNVGDRVRIKDLPDLFYTRTMTYTRGATGTIVRLVYESPAAEDEAFGNEENVEWFYSIVFAQKDLWPEYSDTFANDTLETEIPERYLEKA-KPVWDRTHHAKMATGIGDPQCFKGMAGKSKFNVGDRVRIKDLPDLFYTRTMTYTRGATGTIVRLVYESPAAEDEAFGNEENVEWFYSIVFAQKDLWPEYSDTFANDTLETEIPERYLEKA-KPVWDRTHHAKMATGIGDPQCFKGMAGKSKFNVGDRVRIKDLPDLFYTRTMTYTRGATGTIVRLVYESPAAEDEAFGNEENVEWFYSIVFAQKDLWPEYSDTFANDTLETEIPERYLEKA-KPVWDRTHHAKMATGIGDPQCFKGMAGKSKFNVGDRVRIKDLPDLFYTRTMTYTRGATGTIVRLVYESPAAEDEAFGNEENVEWFYSIVFAQKDLWPEYSDTFANDTLETEIPERYLEKA-KPVWDRTHHAKMATGIGDPQCFKGMAGKSKFNVGDRVRIKDLPDLFYTRTMTYTRGATGTIVRLVYESPAAEDEAFGNEENVEWFYSIVFAQKDLWPEYSDTFANDTLETEIPERYLEKA,RTIYIPNYWN-FTLYIPNTWN-FTLYIPNYWN-NTVYIPNYWN-RTVYIPNYWN-RTIYIPNYWG-RTLYIPNYWN-FTLYIPNYWG-FTLYIPNYWG-FTLYIPNYWN,IRVADSNQKT-IRVADSNQKT-IRVADSNQKT-IRVADSNQKT-IRVADSNQKT-IRVADSNQKT-IRVADSNQKT-IRVADSNQKT-IRVADSNQKT-IRVADSNQKT
