contacts,cs,ce,Chain,Length,designed_receptor_seq,native_receptor_seq,designed_binder_seq,native_binder_seq
22.0,37,47,A,10,MEPASFDEVYQGRRIQGRPALFHPQPYLVYIDGVELVVKRLADGRWVSEVNFDTPVPTPRAAAQAAVDALHGRDLRPW-SEPSSFDEIYKGRRIVGRPASWWGQPYRVWIDGVELVVKRLADGSWVSRVNFDTPVPTPRAAARAAVDALKGRALKPF-TEPASFDEVYKGRRIVGAPSGWHNQDYRVWIDGVELVVKRLADGRWVSRVNFDNPVPTPRAAAQAAVDALKGRALRPT-MEPESFDEIYQGRRIQGEPAEHHDQPYRVYVDGVELVVKRLADGTWISEVNPDTPVPTPRAAAQAAVDALHGAALKPS-GPPPSFDEVYRGRRIQGRPAESWPQPYRVWIDDVELHVKRLADGRWVSEVRFDTPVPTPRAAAQAAVDALQGRSLKPT-MEPPSFDETYRGRRIVGEPTGHHGQPYRVWIDGVELVVKRLADGSWISRVRPFTPVPTPRAAAQAAVDALQGRALAPT-NEPASFDETYKGRRIVGKPSAAHPHPYEVYIDGVELHVKRLADGRWVSEVNFTTPVPTPRAAARAAVDALKGRDLKPT-GPPASFDEVYKGRRIQGRPATWYPQPYLVFIDGVELVVKRLADGRWVSRVNFDTPVPTPRAAARAAVDALQGRALVPT-SMPASFDEIYKGRRIQGRPAAWHPGGYVVYIDGVELHVKRLADGRWVSEVNPWTPVPTPRAAAQAAVDRLRGRPLRPT-SAPASFSEIYKGRRIEGSPAGWHDHPYRVWIDGVELHVKRLADGRWVSEVNFFTPVPTPRAAAQAAVDALKGEALKPT,AAPESFDEVYKGRRIQGRPAHEHGGGYEVFVDGVQLHVMRNADGSWISVVSHYDPVPTPRAAARAAVDELQGAPLLPF-AAPESFDEVYKGRRIQGRPAHEHGGGYEVFVDGVQLHVMRNADGSWISVVSHYDPVPTPRAAARAAVDELQGAPLLPF-AAPESFDEVYKGRRIQGRPAHEHGGGYEVFVDGVQLHVMRNADGSWISVVSHYDPVPTPRAAARAAVDELQGAPLLPF-AAPESFDEVYKGRRIQGRPAHEHGGGYEVFVDGVQLHVMRNADGSWISVVSHYDPVPTPRAAARAAVDELQGAPLLPF-AAPESFDEVYKGRRIQGRPAHEHGGGYEVFVDGVQLHVMRNADGSWISVVSHYDPVPTPRAAARAAVDELQGAPLLPF-AAPESFDEVYKGRRIQGRPAHEHGGGYEVFVDGVQLHVMRNADGSWISVVSHYDPVPTPRAAARAAVDELQGAPLLPF-AAPESFDEVYKGRRIQGRPAHEHGGGYEVFVDGVQLHVMRNADGSWISVVSHYDPVPTPRAAARAAVDELQGAPLLPF-AAPESFDEVYKGRRIQGRPAHEHGGGYEVFVDGVQLHVMRNADGSWISVVSHYDPVPTPRAAARAAVDELQGAPLLPF-AAPESFDEVYKGRRIQGRPAHEHGGGYEVFVDGVQLHVMRNADGSWISVVSHYDPVPTPRAAARAAVDELQGAPLLPF-AAPESFDEVYKGRRIQGRPAHEHGGGYEVFVDGVQLHVMRNADGSWISVVSHYDPVPTPRAAARAAVDELQGAPLLPF,GAWTRLRHPR-RIVRMTIHHR-RALRLTLKPW-QLWRMKKVYR-RARRLSKTDW-TRIVERVHPR-LRWRMTRRDW-PILLMTLHPG-WRRRLWRHPD-GAVIRTVHWR,NEFIMSDTDS-NEFIMSDTDS-NEFIMSDTDS-NEFIMSDTDS-NEFIMSDTDS-NEFIMSDTDS-NEFIMSDTDS-NEFIMSDTDS-NEFIMSDTDS-NEFIMSDTDS
29.0,45,55,B,10,SVRKDAASLTAAEKRDLVSAILELRRSGVYDRFVLTFAVFEGSDAPWGRRVATISPSFIPWHRRFLLDFETALRSVDSSVTLPYWDFTRDNTTASPLWSPDFLGGSGRSSDGEVTDGPFAGATGRWPITVRTSADTVLRRGLGKSTPALPTRAQLDSVLAIRAYDTSPYNSESAGFVNHLEGSVGVSLANRVHVWVGGQMRRITSPNDPSFFLIFAWVDRQFAEWQRRHPDSTYTPTGGTPNVVSLDDTMPPWNDVRPADLLDHTRFWTYDALAATGP-MIRKDFYDLTAEEKRRFVAAVLELKRSGVYDRFVRTYAEFEMSDHPDGLRVASISPSTIPWHRRFLLDFETALRSVDPEVTLPYWDFTRWNTRDSPLWSPDFLGGTGRPEDGIVEDGPFAGATGRWPIEVRIDDDDRLRRGLGRDTPRLPTRAELEAVLAIREYDQPPYNDRSEGFVNHLEGSRGISLANRVHVWVGGQMRRVDCPNDPLFWALWMFVSRCHDEWRRRHPDSDYVPRGGTPNVVSLDEPMRPWNDVRPADLLDHSRFWSWDALEDSGP-MTRKNFANLTDEEKKRLVAAILELNRSGAYDEFVRQFAEHEGSDHPDGLRVASISSSNIPWHRQFLLDFETALRSVDSSVTLPYWDFTAENTKDSPLWSPDFLGGTGRAEDGEVADGPFAGATGRWPITVRLDDDDRLRRGLGKDVPSLPTRAELDAVLAIREYDRPPYNDESEGFTNHLEGSVGVSLANRVHVWVGGQMRRIDCPNDPIFWAVWAWVDRCHAEWRRRHPDSDYVPRGGTPNVVSLDEPMPPWQNVRPADLLDHSRFWTWDALAPSRP-MIRKNFATLTADEKRRFVEAVLELKRSGVYDSFVRTYAQFEGGDHPSGIRVASISPSYIPWHRRFLLDFETALRSVDSTVTLPYWDFTADNTSSSPLWAPDFLGGTGRAADGEVTDGPFAGATGRWPITVRQGPEDKLRRGLGAAVPKLPSRAELDAVLAIRDYDTAPYNNQSAGFVNHLEGSRGVSFAHRVHVWVGGQMARVTCPNDPIFFAVWSYVDKCFDQWRARHPDSDYVPRGGTPNVVSLDDTMAPWNDVKPADLLDHSKFWTWDSLAATGP-MIRKDYATLSAEEKRRWVAAVLELKRSGTYDTFVALYAAHALSDKPDGTRVANISPSFIPWHRRFLLDYERALRSVDPSVTLPYWDFTRYATTESPLWSPDFYGGTGRAADGVVADGPFAGSTGRWPITVRNAPDTRLRRGLGRDVPALPTRAELDSVLAIKEYDQEPYNQFSNGFVNHLEGSRGVSFALRVHVWVGGQQRRVDAPNDPLFYAIEAYVDRCHAEWRRRHPDSDYVPRGGTPNIVSYDDPMAPWGDVRPADLLDHSRYWTYDSLAATGA-MIRKNYANLTAEEKRRLIAAILELKKNGTYDEFVRTFAQFENADNNNGVRIASISPSHIPWHRKWLLDFETALRGVDASVTLPYWDYTKDNTKDSPLWSPDFLGGTGRATDQVVTDGPFAGSTGKWPITVRNSAQTTLRRGLGLNTPDLPTRAQLDAVLAIADYDTSPYNSASAGFVNHLEGSVGVSIANRVHVWIGGQMATTVSPNDPSFFALLAFVDRCHDEWRRRHPDSDYVPKGGTPNVVSLNDTMAPWGNVKPADLLDHSKFWSWDALAASST-MTRKNAITLTAEEKKRLVAAVLELRKSGRYDLFVAQYAAHENGDHWRGRREASTSPSFIPWHRRFLLDFETALQSVDPSVTLPYWDFTKHSTKESPLWSPDFLGGTGRDKDGEVIDGPFAGATGRWPITVRNDEVDFLRRGLGKYTPALPTRAQLDAVLAIREYDQAPYNDKSAGFVNHLEGSVGVSLAHRVHVWIGGQMARTTCPNDPLFFAVWAWVDRCHAEWRRRHPDSDYVPRGGTPNVTSLDDPMSPWHDVKPADLLDHSRFWTYDELAASRP-MVRKNWATLTAEEKRDLVNAILELRRTGVYDTFVETFAKFEGNDHPLGNRVATISPSFIPWHRKFLLDFETALQSVNPKVTLPYWDFTKDNTKESPLWAPDFLGGTGRSSDGVVTDGPFAGKTGKWPITVRLDATDYLQRGLGRDVPTLPTKAQLDSVLAIKEYDSPPYNSSSSGFTNHLEGSVGVSLANRVHVWVGGQMRRVDCPNDPRFFALWAFVDKCHAEWRKRHPDSDYVPRGGTPNVVSYDDTMSPWNNVKPADLLDHTKFYTYDHLADTKP-RVRKDAINLTAAEKKAFVAAVLELKKSGKYDTFVKQYAQFTTADHPDGKRIASISPSHIPWHHKFLLDFETALQSVDSSVTLPYWDFTKYNTADSPLWSPDFLGGTGRASDDIVTDGPFAASTGKWPIIVRTSPNTGLRRGLGKYTPRLPTRAEADAVLAIKDYDTAPYNSQSAGFTNHLEGSQGVSIAYRVHVWIGGQMRTVVCPNDPVFFAMWAWVDRLYDEWRKRHPDSDYVPTGNTPNVVSLNDTMAPWNNVKPADLLDHSKFFTYDALAPTSA-SVRKDYAKLTAAEKQRLVAAILELKRSGTYDTFVLQYAQHELADTNSGRRIASISPSTIPWHRRFLLDFETALQSVDSSVTLPYWDFTKYNTTASPLWAPDFLGGTGRAADGEVQDGPFAGATGKWPITVRTDAVKTLRRGLGRYTPALPTAAQREAVLAIKNFDTAPYNSASAGFVNHLEGSRGVSFNNRVHVWVGGQMAQVTAPNDPIFFAVWAFTDRLDAEWRARHPDSSYVPTGNTPNVVSLNDTMAPWNNVRPADLLDHSKFWTYDSLAATGA,TVRKNQATLTADEKRRFVAAVLELKRSGRYDEFVRTHNEFIMSDTDSGERTGHRSPSFLPWHRRFLLDFEQALQSVDSSVTLPYWDWSADRTVRASLWAPDFLGGTGRSTDGRVMDGPFAASTGNWPINVRVDSRTYLRRSLGGSVAELPTRAEVESVLAISAYDLPPYNSASEGFRNHLEGWRGVNLHNRVHVWVGGQMATGVSPNDPVFWLHHAYVDKLWAEWQRRHPDSAYVPTGGTPDVVDLNETMKPWNTVRPADLLDHTAYYTFDALEHHHH-TVRKNQATLTADEKRRFVAAVLELKRSGRYDEFVRTHNEFIMSDTDSGERTGHRSPSFLPWHRRFLLDFEQALQSVDSSVTLPYWDWSADRTVRASLWAPDFLGGTGRSTDGRVMDGPFAASTGNWPINVRVDSRTYLRRSLGGSVAELPTRAEVESVLAISAYDLPPYNSASEGFRNHLEGWRGVNLHNRVHVWVGGQMATGVSPNDPVFWLHHAYVDKLWAEWQRRHPDSAYVPTGGTPDVVDLNETMKPWNTVRPADLLDHTAYYTFDALEHHHH-TVRKNQATLTADEKRRFVAAVLELKRSGRYDEFVRTHNEFIMSDTDSGERTGHRSPSFLPWHRRFLLDFEQALQSVDSSVTLPYWDWSADRTVRASLWAPDFLGGTGRSTDGRVMDGPFAASTGNWPINVRVDSRTYLRRSLGGSVAELPTRAEVESVLAISAYDLPPYNSASEGFRNHLEGWRGVNLHNRVHVWVGGQMATGVSPNDPVFWLHHAYVDKLWAEWQRRHPDSAYVPTGGTPDVVDLNETMKPWNTVRPADLLDHTAYYTFDALEHHHH-TVRKNQATLTADEKRRFVAAVLELKRSGRYDEFVRTHNEFIMSDTDSGERTGHRSPSFLPWHRRFLLDFEQALQSVDSSVTLPYWDWSADRTVRASLWAPDFLGGTGRSTDGRVMDGPFAASTGNWPINVRVDSRTYLRRSLGGSVAELPTRAEVESVLAISAYDLPPYNSASEGFRNHLEGWRGVNLHNRVHVWVGGQMATGVSPNDPVFWLHHAYVDKLWAEWQRRHPDSAYVPTGGTPDVVDLNETMKPWNTVRPADLLDHTAYYTFDALEHHHH-TVRKNQATLTADEKRRFVAAVLELKRSGRYDEFVRTHNEFIMSDTDSGERTGHRSPSFLPWHRRFLLDFEQALQSVDSSVTLPYWDWSADRTVRASLWAPDFLGGTGRSTDGRVMDGPFAASTGNWPINVRVDSRTYLRRSLGGSVAELPTRAEVESVLAISAYDLPPYNSASEGFRNHLEGWRGVNLHNRVHVWVGGQMATGVSPNDPVFWLHHAYVDKLWAEWQRRHPDSAYVPTGGTPDVVDLNETMKPWNTVRPADLLDHTAYYTFDALEHHHH-TVRKNQATLTADEKRRFVAAVLELKRSGRYDEFVRTHNEFIMSDTDSGERTGHRSPSFLPWHRRFLLDFEQALQSVDSSVTLPYWDWSADRTVRASLWAPDFLGGTGRSTDGRVMDGPFAASTGNWPINVRVDSRTYLRRSLGGSVAELPTRAEVESVLAISAYDLPPYNSASEGFRNHLEGWRGVNLHNRVHVWVGGQMATGVSPNDPVFWLHHAYVDKLWAEWQRRHPDSAYVPTGGTPDVVDLNETMKPWNTVRPADLLDHTAYYTFDALEHHHH-TVRKNQATLTADEKRRFVAAVLELKRSGRYDEFVRTHNEFIMSDTDSGERTGHRSPSFLPWHRRFLLDFEQALQSVDSSVTLPYWDWSADRTVRASLWAPDFLGGTGRSTDGRVMDGPFAASTGNWPINVRVDSRTYLRRSLGGSVAELPTRAEVESVLAISAYDLPPYNSASEGFRNHLEGWRGVNLHNRVHVWVGGQMATGVSPNDPVFWLHHAYVDKLWAEWQRRHPDSAYVPTGGTPDVVDLNETMKPWNTVRPADLLDHTAYYTFDALEHHHH-TVRKNQATLTADEKRRFVAAVLELKRSGRYDEFVRTHNEFIMSDTDSGERTGHRSPSFLPWHRRFLLDFEQALQSVDSSVTLPYWDWSADRTVRASLWAPDFLGGTGRSTDGRVMDGPFAASTGNWPINVRVDSRTYLRRSLGGSVAELPTRAEVESVLAISAYDLPPYNSASEGFRNHLEGWRGVNLHNRVHVWVGGQMATGVSPNDPVFWLHHAYVDKLWAEWQRRHPDSAYVPTGGTPDVVDLNETMKPWNTVRPADLLDHTAYYTFDALEHHHH-TVRKNQATLTADEKRRFVAAVLELKRSGRYDEFVRTHNEFIMSDTDSGERTGHRSPSFLPWHRRFLLDFEQALQSVDSSVTLPYWDWSADRTVRASLWAPDFLGGTGRSTDGRVMDGPFAASTGNWPINVRVDSRTYLRRSLGGSVAELPTRAEVESVLAISAYDLPPYNSASEGFRNHLEGWRGVNLHNRVHVWVGGQMATGVSPNDPVFWLHHAYVDKLWAEWQRRHPDSAYVPTGGTPDVVDLNETMKPWNTVRPADLLDHTAYYTFDALEHHHH-TVRKNQATLTADEKRRFVAAVLELKRSGRYDEFVRTHNEFIMSDTDSGERTGHRSPSFLPWHRRFLLDFEQALQSVDSSVTLPYWDWSADRTVRASLWAPDFLGGTGRSTDGRVMDGPFAASTGNWPINVRVDSRTYLRRSLGGSVAELPTRAEVESVLAISAYDLPPYNSASEGFRNHLEGWRGVNLHNRVHVWVGGQMATGVSPNDPVFWLHHAYVDKLWAEWQRRHPDSAYVPTGGTPDVVDLNETMKPWNTVRPADLLDHTAYYTFDALEHHHH,PTTPVSHYNP-RRRPDSYFNP-ATSPVAHHDP-PRGPLSFFNP-GRSPTDHYNP-PRTPTSHFNP-PRGPRSHFNP-PTSPDNYFNP-PATPTDHFNP-AATPSSRFDP,WISVVSHYDP-WISVVSHYDP-WISVVSHYDP-WISVVSHYDP-WISVVSHYDP-WISVVSHYDP-WISVVSHYDP-WISVVSHYDP-WISVVSHYDP-WISVVSHYDP
