contacts,cs,ce,Chain,Length,designed_receptor_seq,native_receptor_seq,designed_binder_seq,native_binder_seq
16.0,8,18,A,10,GSHMEELKKLKEELEKLEKELEELKKLKEELEKLEEELEKLKEELEKLEEELEKLEEELEK-GSHMEELKKLKEELEKLEKELEELKKLKEELEKLKEELEKLKEELEKLEEELEKLKEELEK-GSHMEELKKLKEELEKLEKELEELKKLKEELEKLKEELEKLKEELEKLEKELEELKEELEK-GSHMAELEKLKAELEKLEAELEKLKAEIEKLKAEVEKLKAELEKAKAELEKAKAELEKAKA-GSHMEELKKLKEELEKLEKELEELKKLKEELEKLKEELEKLKEELEKLEEELEKLKEELEK-GSHMEELKKLKEELEKLEKELEELKKLKEELEKLEEELEKLKEELEKLEEELEKLEKELEK-GSHMEELKELKERLEKLEKELEELKKRIEELEKLKEELEELKEKLEKLEEELEKLEKELEE-GSHMAELEKLKADLEKKEAELARLKEEIARLEEEKVRLEEERARLEEENRRLEEEVRRLEE-GSHMAELEKLKAELEKLEAELEKLKAEIERLKAEVERLKAELEKAKAELEKAKAELEKAKA-GSHMAELERLKAELERLEAELERLRAEVERLEAEVERLRAELEREVERLEAELERLEAELE,ETLQRCLEENQELRDAIRQSNQILRERCEELLHFQASQREEKEFLMCKFQEARKLVERLGL-ETLQRCLEENQELRDAIRQSNQILRERCEELLHFQASQREEKEFLMCKFQEARKLVERLGL-ETLQRCLEENQELRDAIRQSNQILRERCEELLHFQASQREEKEFLMCKFQEARKLVERLGL-ETLQRCLEENQELRDAIRQSNQILRERCEELLHFQASQREEKEFLMCKFQEARKLVERLGL-ETLQRCLEENQELRDAIRQSNQILRERCEELLHFQASQREEKEFLMCKFQEARKLVERLGL-ETLQRCLEENQELRDAIRQSNQILRERCEELLHFQASQREEKEFLMCKFQEARKLVERLGL-ETLQRCLEENQELRDAIRQSNQILRERCEELLHFQASQREEKEFLMCKFQEARKLVERLGL-ETLQRCLEENQELRDAIRQSNQILRERCEELLHFQASQREEKEFLMCKFQEARKLVERLGL-ETLQRCLEENQELRDAIRQSNQILRERCEELLHFQASQREEKEFLMCKFQEARKLVERLGL-ETLQRCLEENQELRDAIRQSNQILRERCEELLHFQASQREEKEFLMCKFQEARKLVERLGL,EELKEALEKL-EELKKALEEL-EELKKALEEL-KAYEEAKAAL-EELKKALEEL-EKLKEALEKL-EELEEALEKL-EELEEARRRL-KAYEEALKAY-AELERARARL,AEAHNLCTLL-AEAHNLCTLL-AEAHNLCTLL-AEAHNLCTLL-AEAHNLCTLL-AEAHNLCTLL-AEAHNLCTLL-AEAHNLCTLL-AEAHNLCTLL-AEAHNLCTLL
16.0,18,28,B,10,GMSEEEYQKLLEEAKRRNEEKKRLIEEKAAENPLLEDHSGLG-SLSEEEYQQLLEKAKEANENKKKEIEEKAAKSPLLEDHSGLG-GMTEEEYQKLLEEAKRRNEEKKRREEEERAKDPRLEDHSGLG-GMSEEEYQQLLAEAKRRNAEKKAAIERAAAESPLLDDHSGLG-GMSEEEYQQLLEEARKANEEKKRLIEERAAENPLLEDHSGLG-GMSEEEYQALLAEARRRNAEKKAAIERAAAESPLLDDHSGLG-GLSEEEYQELLRLAEEANRLKKENIELRNSLSPLNLDLSGLG-GMTEEEYQALLAELKRRNAEKKAAIEAAAAESPLLDDHSGLG-GMTEEEYQALLAELRRRNAEKKAAIEAAAAESPLLDDHSGLG-GMTEEEYQKLLAEAKRRNAEKKAAIEEAAAKSPADEDHSWLG,AKKSEELVAEAHNLCTLLENAIQDTVREQDQSFTALDWSWLQ-AKKSEELVAEAHNLCTLLENAIQDTVREQDQSFTALDWSWLQ-AKKSEELVAEAHNLCTLLENAIQDTVREQDQSFTALDWSWLQ-AKKSEELVAEAHNLCTLLENAIQDTVREQDQSFTALDWSWLQ-AKKSEELVAEAHNLCTLLENAIQDTVREQDQSFTALDWSWLQ-AKKSEELVAEAHNLCTLLENAIQDTVREQDQSFTALDWSWLQ-AKKSEELVAEAHNLCTLLENAIQDTVREQDQSFTALDWSWLQ-AKKSEELVAEAHNLCTLLENAIQDTVREQDQSFTALDWSWLQ-AKKSEELVAEAHNLCTLLENAIQDTVREQDQSFTALDWSWLQ-AKKSEELVAEAHNLCTLLENAIQDTVREQDQSFTALDWSWLQ,LELEKLLEEN-EELKKLLEEN-EELKRLLEEN-LELERLLAEN-EELRELLEAN-LELERLLAAN-EELKKLLEEN-LEALRLLLAN-LEALRLLLAN-EELKALLEAN,QSNQILRERC-QSNQILRERC-QSNQILRERC-QSNQILRERC-QSNQILRERC-QSNQILRERC-QSNQILRERC-QSNQILRERC-QSNQILRERC-QSNQILRERC
