contacts,cs,ce,Chain,Length,designed_receptor_seq,native_receptor_seq,designed_binder_seq,native_binder_seq
18.0,150,160,A,10,MEELYKKAIEEYYKTGKLHELLK-MEEEFRRAIEEYLRTGKLHELLK-MEEEFRRAIEEYYKTGKLHELLK-MEEEFRKAIEEYYKTGKLHELLK-MEEEFKKAIEEYYKTGKLSELLK-MEEEFRKAIEEYYKTGKLSELLK-MEEEFKKAIEEYYKTGKLSELLK-MEEEFKKAIEEYYKTGKLSELLK-MEEEFKKAIEEYYKTGKLSELLK-MEEEFRKAIEEYIKTGKLSELLK,NANQMLTDILSFMKSGKRAAALE-NANQMLTDILSFMKSGKRAAALE-NANQMLTDILSFMKSGKRAAALE-NANQMLTDILSFMKSGKRAAALE-NANQMLTDILSFMKSGKRAAALE-NANQMLTDILSFMKSGKRAAALE-NANQMLTDILSFMKSGKRAAALE-NANQMLTDILSFMKSGKRAAALE-NANQMLTDILSFMKSGKRAAALE-NANQMLTDILSFMKSGKRAAALE,KPLHKDEPKF-VPLHEEEPEF-KPLHKDQPKF-KPLHPDQPKF-KPLHKDQPKF-KPLHKDEPEF-KPLHKDQPKF-KPLHKDEPEF-KPLHKDQPKF-KPLHKDQPKF,HPMNEEQPWI-HPMNEEQPWI-HPMNEEQPWI-HPMNEEQPWI-HPMNEEQPWI-HPMNEEQPWI-HPMNEEQPWI-HPMNEEQPWI-HPMNEEQPWI-HPMNEEQPWI
28.0,4,14,B,10,MLELYLIGSVPAERLAEVVSAMKEKLGGPTEVLDYVVVYKPKPPDPSKYLRLRADISKVDVNDENWYKKVTWEVYLKGYSLPFLENLPGIRPVYKATVKEGDVLEKVKELGYEFDREYVVYGLEFKEYGVTARISLVLKPSKKFSVKPPFLPFSLDQPAILYVYTLVKDEKDEEAVKKAEENLGKLKELLSSFVELKNVGV-MLELYLIGSVPAERLAEVVSALKEKLGGPEDVLDYVVVYKPKPPDPSKYLRLRADISKVDKNDENWYKNVEWEVYLKGYSLPFLENRPGIRPVYKAVVKEGDVLEKVKELGYEFDREYVVYGLRFREYGVTAEIYLVLKPSKEFSIKPPFLPFSLDQPAILYVYTIVEDENDEEAVEKAEKNLEKLKELLSEFVELKNVGV-MLELYLIGSVPEEKLEEVVSKLKEKLGGPEEVLDYVVVFKPKPPDPSKYLRLRADISKVDVNDENWYKNVEWEVYLKGYSLPFLENLPGARPVFKATVKEGDVLEKVKELGYEFDREYVVLGLKFKEYGVTVEIYKVLKPSKEFSIKPPFLPFSLDQPWILYVYTIVEDEKDEEAVKKAVENLEKVKELLSEFVELKNVGV-MLELYLIGSVPEEKLKEVVSNLKEKLGGPTEVLDYYVVFKPKPPDPSKYLRLRADISKVDVNDKNWYKKVKWEVYLKGYSLPFLENLPGIRPVFKAEVEEGDVLEKVKELGYEFDREFVVLGLEFKEYGTTTRISLVLKPSKKFSIKPPFLPFSLDQPWILYVYTIVEDEKDEEAVEKAKENLEKVKELLSEFVELKNVGF-MLELYLIGSVPEEKLEEVVSKLKEKLEGPKEVLDYYVVFKPKPPDPSKYLRLRANILEVDENDENWYKNVEWEVYLKGYSLPFLENRPGIRPVFKATVKEGDVLEKVKELGYEFDREFVEYGLEFEEFGTKTRISLVLKPSKKFSIKPPFLPFSLDQPWILYVYTIVEDENDEEAVEKAKENLEKVKELLSEFVELKNVER-MLELYLIGSVPESEYKDVVSALKEKLGGPTDVLDYVVVYKPKPPDPSKYLRLRADISKVDVNDENWYKNVTWEVYLKGYSLPFLENKPGIRPVYKATVKDGDVLEKVKELGYEFDREYVVYGLEFKEYGTTTRISLVLKPSKKFSIKPPFLPFSLDQPWILYVYTIVEDEKDEEAVEKAKENLEKVKELLSDFVELKNVGF-MLELYLIGSVPESELEEVVSKLKEKLGGPTEVLDYYVVFKPKPPDPSKYLRLRADISKVDVNDENWYKNVTWEVYLKGYSLPFLEDKPGIRPVYKATVKEGDVLEKVKELGYEFDKEFVVYGLEFKKYGTTTRIYLVLKPSKKFSIKPPFLPFSLDQPAILYVYTIVEDENDEEAVEKAKENLEKVKELLSDFVELKNVGF-MLELYLIGSVPEERLAEVVEELKRRLGGPREVLDYYVVFKPKPPDPSKYLRLRADISKVDVNDEDWYSKVEWEVYLKGYSLPFLEDLPGIRPVYKATVKEGNVLELVKKLGYEFDREFVVYGLEFEEFGVKVKIYKVLKPSKEFSVKPPFLPFSLDQPWILYVYTLVEDEKDEEAVEKAKENLEKVKELLSDFVELKNVGF-MLELYLIGSVPEEDYEKVVEEMKRLLGGPEEVLDYYVVFKPKPPDPSKYLRLRADISKVDVNDENWYKNVEWEVYLKGYSLPFLENRPGIRPVYKAVVKEGDVLEKVKELGYEFDKEFVVYGLRFKKYGVTAEIFLVLKPSKKFSVKPPFLPFSLDQPWILYVYTIVEDESDEEAVEKAEKNLEKLKELLSKFVELKNVGF-MLELYLIGSVPEEKLEEVVEKLKEKLGGPKEVLDYFVVFKPKPPDPSKYLRLRADISKVDKNDKDWYKKVEWEVYLKGYSLPFLENKPGIRPVFKATVKEGDVLEKVKELGYEFDKEFVVYGLEFEEYGTTTRIYLVLKPSKKFSIKPPFLPFSLDQPAILYVYTIVEDEKDEEAVEKAKENLEKVKELLSEFVELKNVGF,MQELYLLGVVPSRRFEAVVNSLSKTLDGPKTILEFWVVYRPKPRQPDSWLRLCSNIESHDETDTEWSKNTQWSMYLEGNSEPKREDKCGIRPVNRAKLTNGSVTEFVEKMGYEFSHEYIIQGLEYFFFDTTVRIYQTLIPSQQRSIKPPFHPMNEEQPWILHVYTHVADASNQVAMAKAEANLTKVKTLLSAFCDLKNVRL-MQELYLLGVVPSRRFEAVVNSLSKTLDGPKTILEFWVVYRPKPRQPDSWLRLCSNIESHDETDTEWSKNTQWSMYLEGNSEPKREDKCGIRPVNRAKLTNGSVTEFVEKMGYEFSHEYIIQGLEYFFFDTTVRIYQTLIPSQQRSIKPPFHPMNEEQPWILHVYTHVADASNQVAMAKAEANLTKVKTLLSAFCDLKNVRL-MQELYLLGVVPSRRFEAVVNSLSKTLDGPKTILEFWVVYRPKPRQPDSWLRLCSNIESHDETDTEWSKNTQWSMYLEGNSEPKREDKCGIRPVNRAKLTNGSVTEFVEKMGYEFSHEYIIQGLEYFFFDTTVRIYQTLIPSQQRSIKPPFHPMNEEQPWILHVYTHVADASNQVAMAKAEANLTKVKTLLSAFCDLKNVRL-MQELYLLGVVPSRRFEAVVNSLSKTLDGPKTILEFWVVYRPKPRQPDSWLRLCSNIESHDETDTEWSKNTQWSMYLEGNSEPKREDKCGIRPVNRAKLTNGSVTEFVEKMGYEFSHEYIIQGLEYFFFDTTVRIYQTLIPSQQRSIKPPFHPMNEEQPWILHVYTHVADASNQVAMAKAEANLTKVKTLLSAFCDLKNVRL-MQELYLLGVVPSRRFEAVVNSLSKTLDGPKTILEFWVVYRPKPRQPDSWLRLCSNIESHDETDTEWSKNTQWSMYLEGNSEPKREDKCGIRPVNRAKLTNGSVTEFVEKMGYEFSHEYIIQGLEYFFFDTTVRIYQTLIPSQQRSIKPPFHPMNEEQPWILHVYTHVADASNQVAMAKAEANLTKVKTLLSAFCDLKNVRL-MQELYLLGVVPSRRFEAVVNSLSKTLDGPKTILEFWVVYRPKPRQPDSWLRLCSNIESHDETDTEWSKNTQWSMYLEGNSEPKREDKCGIRPVNRAKLTNGSVTEFVEKMGYEFSHEYIIQGLEYFFFDTTVRIYQTLIPSQQRSIKPPFHPMNEEQPWILHVYTHVADASNQVAMAKAEANLTKVKTLLSAFCDLKNVRL-MQELYLLGVVPSRRFEAVVNSLSKTLDGPKTILEFWVVYRPKPRQPDSWLRLCSNIESHDETDTEWSKNTQWSMYLEGNSEPKREDKCGIRPVNRAKLTNGSVTEFVEKMGYEFSHEYIIQGLEYFFFDTTVRIYQTLIPSQQRSIKPPFHPMNEEQPWILHVYTHVADASNQVAMAKAEANLTKVKTLLSAFCDLKNVRL-MQELYLLGVVPSRRFEAVVNSLSKTLDGPKTILEFWVVYRPKPRQPDSWLRLCSNIESHDETDTEWSKNTQWSMYLEGNSEPKREDKCGIRPVNRAKLTNGSVTEFVEKMGYEFSHEYIIQGLEYFFFDTTVRIYQTLIPSQQRSIKPPFHPMNEEQPWILHVYTHVADASNQVAMAKAEANLTKVKTLLSAFCDLKNVRL-MQELYLLGVVPSRRFEAVVNSLSKTLDGPKTILEFWVVYRPKPRQPDSWLRLCSNIESHDETDTEWSKNTQWSMYLEGNSEPKREDKCGIRPVNRAKLTNGSVTEFVEKMGYEFSHEYIIQGLEYFFFDTTVRIYQTLIPSQQRSIKPPFHPMNEEQPWILHVYTHVADASNQVAMAKAEANLTKVKTLLSAFCDLKNVRL-MQELYLLGVVPSRRFEAVVNSLSKTLDGPKTILEFWVVYRPKPRQPDSWLRLCSNIESHDETDTEWSKNTQWSMYLEGNSEPKREDKCGIRPVNRAKLTNGSVTEFVEKMGYEFSHEYIIQGLEYFFFDTTVRIYQTLIPSQQRSIKPPFHPMNEEQPWILHVYTHVADASNQVAMAKAEANLTKVKTLLSAFCDLKNVRL,PLEEILKFIR-PLLEILKYIR-KLEEILKFIR-PLLEILKYIR-KLKEILKFIR-PLLEILKYIR-PLLKILAYIR-KLEEILKFIR-KLEEILKFIR-KLLEILKFIR,MLTDILSFMK-MLTDILSFMK-MLTDILSFMK-MLTDILSFMK-MLTDILSFMK-MLTDILSFMK-MLTDILSFMK-MLTDILSFMK-MLTDILSFMK-MLTDILSFMK
