contacts,cs,ce,Chain,Length,designed_receptor_seq,native_receptor_seq,designed_binder_seq,native_binder_seq
18.0,150,160,A,10,RRRGFKKDIDEFIKTGKKSERLR-HLDAYREDIRRFVETGERSRRLH-MEEMFRREIEEYYRTGRRSRRLK-MEALYRVAIEEFHRTGHLHSLLQ-DEAEFVKAIEEYRKTGTKAAILE-KEEKFKEMIELYYKTGKLHSSLR-AQREYEGALRNYYTTGKKPKLLQ-EEEKWREAILEYIRTGKLHEDLR-MEKAFRRAIEEYHKTGHVAELLK-MEERFKAAIEEYFKTGKLAALLK,NANQMLTDILSFMKSGKRAAALE-NANQMLTDILSFMKSGKRAAALE-NANQMLTDILSFMKSGKRAAALE-NANQMLTDILSFMKSGKRAAALE-NANQMLTDILSFMKSGKRAAALE-NANQMLTDILSFMKSGKRAAALE-NANQMLTDILSFMKSGKRAAALE-NANQMLTDILSFMKSGKRAAALE-NANQMLTDILSFMKSGKRAAALE-NANQMLTDILSFMKSGKRAAALE,KPLHRSQPKF-SPLHPEEPRF-RPLHEDEPEM-VPLHSNQPSF-KPLHKDQPEF-RPLHDNQPKF-KPLAKDQPDF-RPLHEDEPEF-KPLHKDQPKF-KPLHDEQPDF,HPMNEEQPWI-HPMNEEQPWI-HPMNEEQPWI-HPMNEEQPWI-HPMNEEQPWI-HPMNEEQPWI-HPMNEEQPWI-HPMNEEQPWI-HPMNEEQPWI-HPMNEEQPWI
28.0,4,14,B,10,MIELYLIGSVPARELRDVVSSLERLLEGPREVLDYFVVFKPKPSSPEKDLVLKANILERNSEDEDWFSKTSWKVYWRGYSLPLLESRPGIRPVYEAVVKRGNVLELVEKLGYEYKREFIVLGLEFEDFGCTVRISKTLVPSKEFSIKPPFFPLDLEQPWILYVYTIVENFKDEEAVKKAEENLEKVKRLLSSFVELKNVEW-MLELYLIGEVPASQLAAVVSAMRELLGGPTDVLDYFVVYRPAPSDPSRWLRLRANILDRDVTDANWYARTTWEVYLRGWSLPHLENRPGARPVFRARLTRGNVLDLVRSLGYEFAREFVEEGLEFRRFGCTVKISRVLMPSRPLSIEPPFLPMDREQPWILFVYTLVENEEDEEAVERAEKNLGLLKRLCSRFVELRNVGY-MLELYLIGSVPEKDYEAVVKSLEEKLGGPTKVLDYVVVYKPNPPDPSKWKRLRADISKVDAQDENWYSKVKWEVYLKGYSLPFLENKPGIRPVYKATISEGNVLEKIKEEGYEFDREFIVYGLEFEKYGMTSRIYRVLEPSKRFSVKPPFFPFSLDQPWILYVYGIVDDFDDDEAVEKMKEGLGKVKELLSDFVDLKNVGI-MIELYLIGSVPSEKFKDVVEDLKQLLDGPTPVLDYVVVYKPKPPNPSKHKRLRADISKVDVNDKDWYSKTTWKVYLRGYSEPNLEKMPGIRPVFESTISDGNVLEIVKEMGYEFDKEFVIYGLEFKEFGCTVKIYKVLQPSTAFSIKPPFLPFSLDQPYILYVYTKVKDENDMKAVEKARKNLNKVKELLSSFVNLKNVGS-MIELYLIGTVPREKLTEVVQKLKEKLGGPTEVLDYFVVYKPNPPDPSKYLKLRANILSVDENDENWYKNVEWEVYLKGWSLPLLENQPGIRPNFKVTVKEGDVLKKIEELGYEFDREYVIYGLEFRDFGCIVRIYLILKPSEEFSIKPPFYPFSLDQPWILYVYTLVEDESDDEAVKKAEENLGKVKELLSEFVGLKNVEY-MTELYLIGSVPEKDYEKVVSDMERLLGGPDRVLDYYVVFKPKPPDPSRYLRLRADISKVDVKDKNWWARVEWDVYLKGYSLPNLEDAPGVRPVLKASVKSGDVLERVKELGYEFDREFVVYGLKFRKFGCTIEISRVLKPNELFSIKPPFLPFDEDQPYILFVYTRVEDENDEKAMEEARENLEKVKELLSSFVELKNVGF-MIELYLIGEVPEEKLKAVVQEMKKHLGGPTDVLDYVVVFRPKPKNPSRYLRLKADISKVDVNDEDWYKKTTWEVYLRGYSLPFLDDQPGIRPVFKAVVEKGDVLEVVKGLGYEFDREFIEYGLEFKKHGVTAKIYKILKPNQDMSIKPPFLPFSLDQPWILHVYTVVEDENDEEAVKKAEENLNKLKELLSQFVGLRNVGR-MLELYLVGSVPAERFADVVSSLESKLGGPTKVLDYLVVFKPNPPDPSKWLKLRANILHVDRADENWWKKVTWEVYLKGYSFPNLENSPGVRPVFKTTVSDGDVLSKVEELGYKFSREFVVFGLEFREFGCTVKVSKVLRPSKEFSVKPPFLPFSLDQPWILYVYTIVENASDEEAVEKAEKNLEKVKELLSSFVSLENVGF-MEELYLIGSIPEADFVAVVQDMKELLDGPTDVLDYIVVFKPNPPDPSKYLRLRADISKVDENDADWRSKVSWSMYLIGDSVPLLEDQPGRRPVSEVVVTSGDVLDLVKKLGFEFDHEYVVLGLEFRKFGCTVRISKVLKPNKDFSIKPPFLPFSEDQPWILHVYTLVEDVSDEEAVEKAEKNLEKVKELMSKFVTLKNVKR-MLELYLIGSVPASDYTAVVENLRSKLGGPTEVLDYNVVYKPKPPNPSLYLNLRANISTVSVDDENWYEKVSWDVYLRGYSLPFLEHQPGLRPVYKVTITSGNVLESIKDLGYEFDKEYITFGLEFTDYGCVTKISLVLKPNTVFSIKPPFYPFSLDQPWILYVYTLVKDATDDEAVEKAKKNLGKVKELLSSFVELKNVDY,MQELYLLGVVPSRRFEAVVNSLSKTLDGPKTILEFWVVYRPKPRQPDSWLRLCSNIESHDETDTEWSKNTQWSMYLEGNSEPKREDKCGIRPVNRAKLTNGSVTEFVEKMGYEFSHEYIIQGLEYFFFDTTVRIYQTLIPSQQRSIKPPFHPMNEEQPWILHVYTHVADASNQVAMAKAEANLTKVKTLLSAFCDLKNVRL-MQELYLLGVVPSRRFEAVVNSLSKTLDGPKTILEFWVVYRPKPRQPDSWLRLCSNIESHDETDTEWSKNTQWSMYLEGNSEPKREDKCGIRPVNRAKLTNGSVTEFVEKMGYEFSHEYIIQGLEYFFFDTTVRIYQTLIPSQQRSIKPPFHPMNEEQPWILHVYTHVADASNQVAMAKAEANLTKVKTLLSAFCDLKNVRL-MQELYLLGVVPSRRFEAVVNSLSKTLDGPKTILEFWVVYRPKPRQPDSWLRLCSNIESHDETDTEWSKNTQWSMYLEGNSEPKREDKCGIRPVNRAKLTNGSVTEFVEKMGYEFSHEYIIQGLEYFFFDTTVRIYQTLIPSQQRSIKPPFHPMNEEQPWILHVYTHVADASNQVAMAKAEANLTKVKTLLSAFCDLKNVRL-MQELYLLGVVPSRRFEAVVNSLSKTLDGPKTILEFWVVYRPKPRQPDSWLRLCSNIESHDETDTEWSKNTQWSMYLEGNSEPKREDKCGIRPVNRAKLTNGSVTEFVEKMGYEFSHEYIIQGLEYFFFDTTVRIYQTLIPSQQRSIKPPFHPMNEEQPWILHVYTHVADASNQVAMAKAEANLTKVKTLLSAFCDLKNVRL-MQELYLLGVVPSRRFEAVVNSLSKTLDGPKTILEFWVVYRPKPRQPDSWLRLCSNIESHDETDTEWSKNTQWSMYLEGNSEPKREDKCGIRPVNRAKLTNGSVTEFVEKMGYEFSHEYIIQGLEYFFFDTTVRIYQTLIPSQQRSIKPPFHPMNEEQPWILHVYTHVADASNQVAMAKAEANLTKVKTLLSAFCDLKNVRL-MQELYLLGVVPSRRFEAVVNSLSKTLDGPKTILEFWVVYRPKPRQPDSWLRLCSNIESHDETDTEWSKNTQWSMYLEGNSEPKREDKCGIRPVNRAKLTNGSVTEFVEKMGYEFSHEYIIQGLEYFFFDTTVRIYQTLIPSQQRSIKPPFHPMNEEQPWILHVYTHVADASNQVAMAKAEANLTKVKTLLSAFCDLKNVRL-MQELYLLGVVPSRRFEAVVNSLSKTLDGPKTILEFWVVYRPKPRQPDSWLRLCSNIESHDETDTEWSKNTQWSMYLEGNSEPKREDKCGIRPVNRAKLTNGSVTEFVEKMGYEFSHEYIIQGLEYFFFDTTVRIYQTLIPSQQRSIKPPFHPMNEEQPWILHVYTHVADASNQVAMAKAEANLTKVKTLLSAFCDLKNVRL-MQELYLLGVVPSRRFEAVVNSLSKTLDGPKTILEFWVVYRPKPRQPDSWLRLCSNIESHDETDTEWSKNTQWSMYLEGNSEPKREDKCGIRPVNRAKLTNGSVTEFVEKMGYEFSHEYIIQGLEYFFFDTTVRIYQTLIPSQQRSIKPPFHPMNEEQPWILHVYTHVADASNQVAMAKAEANLTKVKTLLSAFCDLKNVRL-MQELYLLGVVPSRRFEAVVNSLSKTLDGPKTILEFWVVYRPKPRQPDSWLRLCSNIESHDETDTEWSKNTQWSMYLEGNSEPKREDKCGIRPVNRAKLTNGSVTEFVEKMGYEFSHEYIIQGLEYFFFDTTVRIYQTLIPSQQRSIKPPFHPMNEEQPWILHVYTHVADASNQVAMAKAEANLTKVKTLLSAFCDLKNVRL-MQELYLLGVVPSRRFEAVVNSLSKTLDGPKTILEFWVVYRPKPRQPDSWLRLCSNIESHDETDTEWSKNTQWSMYLEGNSEPKREDKCGIRPVNRAKLTNGSVTEFVEKMGYEFSHEYIIQGLEYFFFDTTVRIYQTLIPSQQRSIKPPFHPMNEEQPWILHVYTHVADASNQVAMAKAEANLTKVKTLLSAFCDLKNVRL,KLKEILEYVR-KLKRILEFIR-DLVKILAFIR-NLMEILNFIR-KLKEILDFIR-KLEKILEFIR-ELERILEYVR-DLLKILSFIR-ELRRILDYIR-KLKAILEFIR,MLTDILSFMK-MLTDILSFMK-MLTDILSFMK-MLTDILSFMK-MLTDILSFMK-MLTDILSFMK-MLTDILSFMK-MLTDILSFMK-MLTDILSFMK-MLTDILSFMK
