contacts,cs,ce,Chain,Length,designed_receptor_seq,native_receptor_seq,designed_binder_seq,native_binder_seq
18.0,150,160,A,10,SQQAFQRAIDSYYETGFMPKDLR-ERRSWLRAISKYKSSGERSEMLQ-EIEHFFQDIRAFVDTGCLSTRLQ-RENKYFEYIEQYHETGELADILK-RERLYRAALVHFYRSGYVCETLR-MAVWHKRSLEEFCETGDRSAKLV-VRDELRGNIEAFVKTGYKHHILK-DKQQFLKDCQLWIKTGTQADRLI-LSLSMARSIRAYYQRGWLEASLN-EEQRWQADIRNFYLTGNISASLV,NANQMLTDILSFMKSGKRAAALE-NANQMLTDILSFMKSGKRAAALE-NANQMLTDILSFMKSGKRAAALE-NANQMLTDILSFMKSGKRAAALE-NANQMLTDILSFMKSGKRAAALE-NANQMLTDILSFMKSGKRAAALE-NANQMLTDILSFMKSGKRAAALE-NANQMLTDILSFMKSGKRAAALE-NANQMLTDILSFMKSGKRAAALE-NANQMLTDILSFMKSGKRAAALE,KKLNRNQPHF-RLLHDEEPAH-VPLSDACPSF-SPLDSKQPDF-RRLDQRQPLF-KKFNINQPKY-IHLQKKCPWY-NPLHDAMPVV-RVLDSREPVF-QPLSAGEPKF,HPMNEEQPWI-HPMNEEQPWI-HPMNEEQPWI-HPMNEEQPWI-HPMNEEQPWI-HPMNEEQPWI-HPMNEEQPWI-HPMNEEQPWI-HPMNEEQPWI-HPMNEEQPWI
28.0,4,14,B,10,ALEAYLIGTVPSEHFATIVHRMKQVLQGPTRKLDYVVVYQPKPTNPSKDRRLVADIKSRNGSERHWSSTVSWNVYRVGYSLPYLQDRPGLRPVYKNSVSLSNVNETVKAEGYEYSRDYITQGLVFHHHGTTTEIYLVMQPHKPMSIKPPWLPFETDQPAILHVYTIVSDLFDRQAVGAAFHGLSIMKRTCSTFVKLENRHT-HIEIYLIGSVPQEDLETVVQNLERHLGGPKNILDYNVIYEPVPQDPSKHLNLKSNILQVNDEDENWYQHQSWKMYLTGYSVPTLENQPGIRPVFITESQEGNVLSKIENLGYKFKKEFVVDGLQFTHSGCIAMIHRILQPHKTFSIKPPFFPFSQQQPYILHVYTIVKDSSDEKAYKLAKNNLELLRNKLSQFVTLENQHI-MIELFLKGSVPKERYAEVVESLRQKLGGPRALLNYRVRFSPEPESPERYKALFADISKVKTDEKSWWARVTWDVHLVGNSMPYLREQPGLRPKFEAKLKAGNVLQWIEEMGYSFDHEYVQFGLLYEAHGMLAEIFRNLKPSKAFSVKPPFLPFEEDQPWILFVYTKVESVLDLKSVEKAIFNLNKVKSLLASFCGLKNVYH-ITELYLIGEIPTKNFKDVVRDMKHNLDGPKNVLDYFIVYRPKPIDPSTWLRLRARIERRRFSDLNWWNNCTWNIYLIGHSAPFLVNQPGCRPTYRLSAKFGDVRSKFEKLGYVFHREFVTEGLMFRDYGTITRISLVLIPNKKFSITPPFFPMCSEQPYLLYNYVIVEDENDLKAMERAKAGLGKVKSLLSKFVRLQNVGY-MLELYLVGSIPESKKFAVVKRMCEELGGPREVLSYVVVFRPLPPKPEEFRRLRADISVVKSDEECWWENCSWKVYLKGRSYPRLERLPGIRPEYTSIVKKGSVLDFIVSQGYIFEKEFIVTGLIFEKHGLQVEISRMMKPNQKFSVKPPFYPLEDNQPHLLHVYGIVKNAQDFEAVAKLRDNLGKVKRLLSAFVNLDNVEF-MIELYLIGSVPDHQYESAIKSMNEKLSGPTNVLDYYVVFEPRVHRPEDYANCVANILKVDGSDESWWSKQGWDMFLKGYSFPLLQDSPGIRPVWKLRIDRGSILTEIESFGYKHKREYVVEGLEFEEHGCVAKVYRILNPSKVLSTTPPFYPTSLDQPWILYVYTMVDFELDDNAVEEAIKNLDLLRSELASFVTLSNTGW-MLELFLIGTIPAAKLTDVVREMEEKLDGPRKVLEYNVIYRPDPPDPSQNKRLTANILRVDWREDEWYKRVKWDVFWEGKSFPELERYPGMKPLSESSVTYGTVQKIVEQFGYEFDKEYVTDGLEFFKHGCVCKIYKCLRPSELKSVKPPFIPMDEEQPWILHMYTLVDDLQNMEAVQEAEENLEKVKELMKDFVKLRNVGF-MIECFLIGSVPASQFKTVVDKMRELLEGPEDVLDFDVVYKPRPDRPSEWLRLRADILRCDTDDRNWFSRVKWEVFLKGFSLPWLADLPGVRPTYVAQMSNGDVTLYIEHLGYEYAREFVTYGLQFTEYGQKTKISRTLKPSSQLSIEPPFLPHSKEQPWLLYVYGQVLQADDSEAMTKVQENLALLRTKMSEFVSLENVRE-MLENFLLGSVPASELDRTISDMKELLEGPTEVLEYRTVFMPSPPNPSLWLNLVADISQVSSSNLRWHRNVTWRTYLRGWSLPFLTNEPGLKPEFSVTTDKLDTLEFVRDLGYVYAKEDVKLGYQFHAYNCVSEIYLNLQPSKPFSVKPPFYPRSMSQPAILFVFTTVADATDTRAVEEAKKNLGKLRNLMSSFCTLGNVGI-MLEKYLIGSVPEKEYSKIVEALKRLLDGPSQVLDYFVVYKPKPSKPEKHKKLRADISKVDASDAHWFDKVDWEIGLKGYSLPFLNNKPGIRPVLNIKLNKKSVLSEIEDEGYKFDREYITYGLRFFDNGVKVEITRFLIPNKDFSVKPPFWPASGNQPYILFVYGLVKEASNKKAVEKINENLSILKSKLASFAILRNVGW,MQELYLLGVVPSRRFEAVVNSLSKTLDGPKTILEFWVVYRPKPRQPDSWLRLCSNIESHDETDTEWSKNTQWSMYLEGNSEPKREDKCGIRPVNRAKLTNGSVTEFVEKMGYEFSHEYIIQGLEYFFFDTTVRIYQTLIPSQQRSIKPPFHPMNEEQPWILHVYTHVADASNQVAMAKAEANLTKVKTLLSAFCDLKNVRL-MQELYLLGVVPSRRFEAVVNSLSKTLDGPKTILEFWVVYRPKPRQPDSWLRLCSNIESHDETDTEWSKNTQWSMYLEGNSEPKREDKCGIRPVNRAKLTNGSVTEFVEKMGYEFSHEYIIQGLEYFFFDTTVRIYQTLIPSQQRSIKPPFHPMNEEQPWILHVYTHVADASNQVAMAKAEANLTKVKTLLSAFCDLKNVRL-MQELYLLGVVPSRRFEAVVNSLSKTLDGPKTILEFWVVYRPKPRQPDSWLRLCSNIESHDETDTEWSKNTQWSMYLEGNSEPKREDKCGIRPVNRAKLTNGSVTEFVEKMGYEFSHEYIIQGLEYFFFDTTVRIYQTLIPSQQRSIKPPFHPMNEEQPWILHVYTHVADASNQVAMAKAEANLTKVKTLLSAFCDLKNVRL-MQELYLLGVVPSRRFEAVVNSLSKTLDGPKTILEFWVVYRPKPRQPDSWLRLCSNIESHDETDTEWSKNTQWSMYLEGNSEPKREDKCGIRPVNRAKLTNGSVTEFVEKMGYEFSHEYIIQGLEYFFFDTTVRIYQTLIPSQQRSIKPPFHPMNEEQPWILHVYTHVADASNQVAMAKAEANLTKVKTLLSAFCDLKNVRL-MQELYLLGVVPSRRFEAVVNSLSKTLDGPKTILEFWVVYRPKPRQPDSWLRLCSNIESHDETDTEWSKNTQWSMYLEGNSEPKREDKCGIRPVNRAKLTNGSVTEFVEKMGYEFSHEYIIQGLEYFFFDTTVRIYQTLIPSQQRSIKPPFHPMNEEQPWILHVYTHVADASNQVAMAKAEANLTKVKTLLSAFCDLKNVRL-MQELYLLGVVPSRRFEAVVNSLSKTLDGPKTILEFWVVYRPKPRQPDSWLRLCSNIESHDETDTEWSKNTQWSMYLEGNSEPKREDKCGIRPVNRAKLTNGSVTEFVEKMGYEFSHEYIIQGLEYFFFDTTVRIYQTLIPSQQRSIKPPFHPMNEEQPWILHVYTHVADASNQVAMAKAEANLTKVKTLLSAFCDLKNVRL-MQELYLLGVVPSRRFEAVVNSLSKTLDGPKTILEFWVVYRPKPRQPDSWLRLCSNIESHDETDTEWSKNTQWSMYLEGNSEPKREDKCGIRPVNRAKLTNGSVTEFVEKMGYEFSHEYIIQGLEYFFFDTTVRIYQTLIPSQQRSIKPPFHPMNEEQPWILHVYTHVADASNQVAMAKAEANLTKVKTLLSAFCDLKNVRL-MQELYLLGVVPSRRFEAVVNSLSKTLDGPKTILEFWVVYRPKPRQPDSWLRLCSNIESHDETDTEWSKNTQWSMYLEGNSEPKREDKCGIRPVNRAKLTNGSVTEFVEKMGYEFSHEYIIQGLEYFFFDTTVRIYQTLIPSQQRSIKPPFHPMNEEQPWILHVYTHVADASNQVAMAKAEANLTKVKTLLSAFCDLKNVRL-MQELYLLGVVPSRRFEAVVNSLSKTLDGPKTILEFWVVYRPKPRQPDSWLRLCSNIESHDETDTEWSKNTQWSMYLEGNSEPKREDKCGIRPVNRAKLTNGSVTEFVEKMGYEFSHEYIIQGLEYFFFDTTVRIYQTLIPSQQRSIKPPFHPMNEEQPWILHVYTHVADASNQVAMAKAEANLTKVKTLLSAFCDLKNVRL-MQELYLLGVVPSRRFEAVVNSLSKTLDGPKTILEFWVVYRPKPRQPDSWLRLCSNIESHDETDTEWSKNTQWSMYLEGNSEPKREDKCGIRPVNRAKLTNGSVTEFVEKMGYEFSHEYIIQGLEYFFFDTTVRIYQTLIPSQQRSIKPPFHPMNEEQPWILHVYTHVADASNQVAMAKAEANLTKVKTLLSAFCDLKNVRL,KLTKVLDFVR-PLHDMLRFIR-SLYDIRAYLF-ILSRVLDFIR-ALHALIEYSR-ELRSIGAFIR-KLEDILEYIR-NLLDILAYIR-NLVTTLAYTK-ELLKILDYIR,MLTDILSFMK-MLTDILSFMK-MLTDILSFMK-MLTDILSFMK-MLTDILSFMK-MLTDILSFMK-MLTDILSFMK-MLTDILSFMK-MLTDILSFMK-MLTDILSFMK
