contacts,cs,ce,Chain,Length,designed_receptor_seq,native_receptor_seq,designed_binder_seq,native_binder_seq
15.0,13,23,A,10,AIHDRLNAFVVWCDITQHCPRKGAKGQDLPALQAGRGVLDSESDGRFITGGMARPDDKPDGNFLEVGYKICGGYLRRLVWPAVNTQKAVQPSGKLLPADELRLSFYDGVKWKDAWKHKTEVPAAVKRFHSPDIGTVEEYWLLRGPG-GIEFDEAGRMLQKDLTTPRPRKGRYGEALPALEAGEGILNSQSEGMFVRGGQQNPTGQPSDNLLQVGYKIEDGYLVRLVWPAIDCPSAVKPASKLLPAVSLKMRFHDGARWQDEWGDYKAVPVAVQEFVSPGHGKVVSYWALRGAQ-AEVVDAFAYVLDEDICTAIPVKGNRGEAKPALTAGVGVLGSESHGQFVQGGISDPDGKPGSGYLRVGYAIEDGYLVRYLWPDIDVNGSTQPSMRLIPANDLQLEFYNGSTWIKYWSHHTETPVAIRRLVSPRIGTVIRYYSTRGDH-TWARTNRELIFEEDLTRSMPIRDQDGSSAPALLAGRGVLGSQSDGRWVRGGLTSPGGTPLSTYLEVGYRIQGGFIVRLTWPAINTNKSVKPTRTLMPAIRLEMQWYDGSNWQTSWSHFTSVPAAIRRLVSPDRGLLQRYYRTSGPN-STLSSILEVLWEADITCSVPRRDSSGGLVPALLAGRGVLESESEGMFVHGGLVDPAGAPRSDMLQTGYKICNGYLVRLLWPDINASSKVEPSLKLLPARQLTLEFYDGARWQKTWESTISVPKAIRLFNSPKTGRVERYFMTKGPF-GSHMLQGEEFLEWDITRNTPVKNSQGDDAPALQAGEGVLNSESQGRMVRGGVQDPVAAPRGNQLEVGYAIKDGRLVRMTWPSVNQSDTVQPTDQLMPAVKLELQFYNGVEWEDTWNEFERVPKAVRMYISPDLGTVIEFYLTDGES-GSGSSEEAEHLEEDIQRDVPKLGMQGQPMPALLAGKGVLNSESDGMFVRGGVQDPRGRPREGFLTVGYLIRDGFLNRLIWPRINQSSYVSPMKKLLPATSLYLEFFDGERWQKTWDFYKKTPKAIRGFESPLYGNIVKYYDLRGVD-GSYKRLNTTVLRACLTCNRPKQGADGEARPALEAGRGVLGSESDGCWVHGGMADPLGQPMGESLETGYAIEGGYLVRLVWPDINADERVRPTFRLEPAQGLHLYFFDGQHWRSGWHETAKVPVAVWEYLSPENGAVTAVHLLHGPH-MAEELFEARHLVHDITNDYPRLGENGEALPALEAGHGVLNSESDGMFVRGGVFNPFQEPATDYLTVGYRIRGGYLERLVWPAIDADQEVLPLTILLPASELRLEFYDGHHWERTWDHYILVPKAIRKFHSPLFGEITLYYGLKGAD-DVQRFQAANQLQNDLTHARPRKGAHGEAAPSLEAGRGVLGSESDGMFVMGGIAAPSGDPGSDFLTAGYLIWMGHLVRLLWPAIDVDSASMPTYKLVPASNLELEFYNGTDWGKTWGAMNSIPVAIRQFTSPDIGRERKYYMLRGAV,QKLNLQQTSFLTHDLTQPRPVRGDQGQREPALLAGAGVLASESEGRFVRGGVVNPLRLPRSNLLTVGYRIHDGYLERLAWPLTDAAGSVKPTQKLIPADSLRLQFYDGTRWQESWSSVQAIPVAVRTLHSPQWGEIERIWLLRGPQ-QKLNLQQTSFLTHDLTQPRPVRGDQGQREPALLAGAGVLASESEGRFVRGGVVNPLRLPRSNLLTVGYRIHDGYLERLAWPLTDAAGSVKPTQKLIPADSLRLQFYDGTRWQESWSSVQAIPVAVRTLHSPQWGEIERIWLLRGPQ-QKLNLQQTSFLTHDLTQPRPVRGDQGQREPALLAGAGVLASESEGRFVRGGVVNPLRLPRSNLLTVGYRIHDGYLERLAWPLTDAAGSVKPTQKLIPADSLRLQFYDGTRWQESWSSVQAIPVAVRTLHSPQWGEIERIWLLRGPQ-QKLNLQQTSFLTHDLTQPRPVRGDQGQREPALLAGAGVLASESEGRFVRGGVVNPLRLPRSNLLTVGYRIHDGYLERLAWPLTDAAGSVKPTQKLIPADSLRLQFYDGTRWQESWSSVQAIPVAVRTLHSPQWGEIERIWLLRGPQ-QKLNLQQTSFLTHDLTQPRPVRGDQGQREPALLAGAGVLASESEGRFVRGGVVNPLRLPRSNLLTVGYRIHDGYLERLAWPLTDAAGSVKPTQKLIPADSLRLQFYDGTRWQESWSSVQAIPVAVRTLHSPQWGEIERIWLLRGPQ-QKLNLQQTSFLTHDLTQPRPVRGDQGQREPALLAGAGVLASESEGRFVRGGVVNPLRLPRSNLLTVGYRIHDGYLERLAWPLTDAAGSVKPTQKLIPADSLRLQFYDGTRWQESWSSVQAIPVAVRTLHSPQWGEIERIWLLRGPQ-QKLNLQQTSFLTHDLTQPRPVRGDQGQREPALLAGAGVLASESEGRFVRGGVVNPLRLPRSNLLTVGYRIHDGYLERLAWPLTDAAGSVKPTQKLIPADSLRLQFYDGTRWQESWSSVQAIPVAVRTLHSPQWGEIERIWLLRGPQ-QKLNLQQTSFLTHDLTQPRPVRGDQGQREPALLAGAGVLASESEGRFVRGGVVNPLRLPRSNLLTVGYRIHDGYLERLAWPLTDAAGSVKPTQKLIPADSLRLQFYDGTRWQESWSSVQAIPVAVRTLHSPQWGEIERIWLLRGPQ-QKLNLQQTSFLTHDLTQPRPVRGDQGQREPALLAGAGVLASESEGRFVRGGVVNPLRLPRSNLLTVGYRIHDGYLERLAWPLTDAAGSVKPTQKLIPADSLRLQFYDGTRWQESWSSVQAIPVAVRTLHSPQWGEIERIWLLRGPQ-QKLNLQQTSFLTHDLTQPRPVRGDQGQREPALLAGAGVLASESEGRFVRGGVVNPLRLPRSNLLTVGYRIHDGYLERLAWPLTDAAGSVKPTQKLIPADSLRLQFYDGTRWQESWSSVQAIPVAVRTLHSPQWGEIERIWLLRGPQ,YGNEAVRTTL-AFNERVLQTL-RGNSIVMQTL-AGNSQVLKTL-LGNLNVLRLL-AGNVTVLHHL-DGDTRVLSGL-AEDEAVLRLL-EHNKHVLTHL-EGNRSVLETM,AENQTALLYL-AENQTALLYL-AENQTALLYL-AENQTALLYL-AENQTALLYL-AENQTALLYL-AENQTALLYL-AENQTALLYL-AENQTALLYL-AENQTALLYL
19.0,131,141,B,10,AATSTEIYEAGIVADNQTAQLYQSVARVQEEQSGTEQTDNTWYWKTVPIDTEDPTLGAEIQVSENEDYSDIVVSFTATFPR-GYISCLKTRADGVAENQSVLLYSDAGKIAIEQRGMQTDALFWYWRTIPVATGDPIQSVSIEVSQFANFSDVVVRRLAVFPS-QEEIEEKFIAGNVAANKTAKAYCYWEAAAKEQKGEETAGRTWYWRMTPKSNEENVAAVDVEVSKNRDFSDVAIVRSAQFPR-KELDNNKYVAGIVAENKTAKLYQTADNTAKVLSGEEQANQTWYWRTTPISSGTAILQTDVQVSANADFSNIVVSNTASFPK-MEEAAQIYFAGNVAHNEMVRGYHTESQIRQVQSGKEEVEQTWYWRTVPYGTENPILGQKVQISRNADFSQVVVKMDAEFPQ-TSEEKLIEEAGYIAENQTVLLYKDKTGRLTVQSGKVRFNREFYWRTVPQTCGDPELTVSIEVSLYEDFSDIVVKRAAKFPN-MNQQRQETIAGEVASNQTVLLYGTADRVKQIQQGLEDPSDTWYWRTVPYANSTNTLGVQIQVSAYKDFRDIVVTRAATYPN-PAEIQEIYQAGSVASNQTTMLYHNVGNNKKEQSGKVEFGKTWYYRTIPIVEKKPLMANQIEVSKSEDFSDVIVKMLTFYPN-MQQQKIARDAGEIASNMTVLLYKTAEDRAQVQRGSLLSGDTWYWRTTPEHTGGARERVTVEVSRYQDYRDIVVSMTADFAN-TLEQQERFEAGMVADNKTVLLFTSDGARAEEQSGSEQSNMTWYWRTVPEECGTSTLAANVQVSRYEDFSDIIVTRKAFFDN,QHVLEEKTVAGWVAENQTALLYLTRGQRAVRQQGESDAGSRWYWRTTPLSTGNALQAVDIEVSLHEDFSSVIQSRRAWFSA-QHVLEEKTVAGWVAENQTALLYLTRGQRAVRQQGESDAGSRWYWRTTPLSTGNALQAVDIEVSLHEDFSSVIQSRRAWFSA-QHVLEEKTVAGWVAENQTALLYLTRGQRAVRQQGESDAGSRWYWRTTPLSTGNALQAVDIEVSLHEDFSSVIQSRRAWFSA-QHVLEEKTVAGWVAENQTALLYLTRGQRAVRQQGESDAGSRWYWRTTPLSTGNALQAVDIEVSLHEDFSSVIQSRRAWFSA-QHVLEEKTVAGWVAENQTALLYLTRGQRAVRQQGESDAGSRWYWRTTPLSTGNALQAVDIEVSLHEDFSSVIQSRRAWFSA-QHVLEEKTVAGWVAENQTALLYLTRGQRAVRQQGESDAGSRWYWRTTPLSTGNALQAVDIEVSLHEDFSSVIQSRRAWFSA-QHVLEEKTVAGWVAENQTALLYLTRGQRAVRQQGESDAGSRWYWRTTPLSTGNALQAVDIEVSLHEDFSSVIQSRRAWFSA-QHVLEEKTVAGWVAENQTALLYLTRGQRAVRQQGESDAGSRWYWRTTPLSTGNALQAVDIEVSLHEDFSSVIQSRRAWFSA-QHVLEEKTVAGWVAENQTALLYLTRGQRAVRQQGESDAGSRWYWRTTPLSTGNALQAVDIEVSLHEDFSSVIQSRRAWFSA-QHVLEEKTVAGWVAENQTALLYLTRGQRAVRQQGESDAGSRWYWRTTPLSTGNALQAVDIEVSLHEDFSSVIQSRRAWFSA,DTGVRRIYTQ-GWGEVAIYEL-ARGNITSYSL-SSGSITQYKN-ATGQVKIYVD-TNGIIYINYQ-TQGLRVTYSG-ELGIEEIFML-QDGDIIRYEL-GYGDVVRYDK,QWGEIERIWL-QWGEIERIWL-QWGEIERIWL-QWGEIERIWL-QWGEIERIWL-QWGEIERIWL-QWGEIERIWL-QWGEIERIWL-QWGEIERIWL-QWGEIERIWL
