contacts,cs,ce,Chain,Length,designed_receptor_seq,native_receptor_seq,designed_binder_seq,native_binder_seq
10.0,72,82,A,10,MAKKAKKAKKAKKGKKKAKKAKKAKKAGGKKAKKAKKAAKAAGKAAGKAAGKAAGKAAA-SNAALDDLRRRTEGLRRAQALARGAEAGGGGARAAAERAAEAEAAFREAADAVLAGLDP-EEREEEEEEEEEEEEEEEEEEEEEEEEEEEEEEEEEEEEEEEEEEEEEEEEEEEEEEEE-SNALEQLRLLLEEGKKEEDELRRLKEELGGLEKELEELKEELEELYEELKGLLEELKEE-GPLSALERALSEEGRRLQELLEQGRRLGGELEELLSQEERRLGEAFLRALGALEALREE-MIAELEALAASIEGLKNELAELRGEVEGLKKEVEDLKKEVEDLKAALEAAGKAVEEVKE-MADIDSLKKKVDALKAEFDKLKDEAKKLGDEAKKLKDEAEALGNALKDALNAVLDGVKT-DLAAERARLAELEGERERRRLEELRERGGELEARLRELEERLGELALRLLRALEEAAAR-MEIAEAQARAAEAGAAEARAVEAGAAEGRARAAEAAEAAEAAEAAAAEAAGAAEAAEAA-MDVAKLLQEKIQAGLAGLQKALDGLKAAGAEAARLSAEAEAAEKALLELAGALVAEVKQ,QQHSVQVDQLRMQGQSVEAALRMERQAASEEKRKLAQLQVAYHQLFQEYDNHIKSSVVG-QQHSVQVDQLRMQGQSVEAALRMERQAASEEKRKLAQLQVAYHQLFQEYDNHIKSSVVG-QQHSVQVDQLRMQGQSVEAALRMERQAASEEKRKLAQLQVAYHQLFQEYDNHIKSSVVG-QQHSVQVDQLRMQGQSVEAALRMERQAASEEKRKLAQLQVAYHQLFQEYDNHIKSSVVG-QQHSVQVDQLRMQGQSVEAALRMERQAASEEKRKLAQLQVAYHQLFQEYDNHIKSSVVG-QQHSVQVDQLRMQGQSVEAALRMERQAASEEKRKLAQLQVAYHQLFQEYDNHIKSSVVG-QQHSVQVDQLRMQGQSVEAALRMERQAASEEKRKLAQLQVAYHQLFQEYDNHIKSSVVG-QQHSVQVDQLRMQGQSVEAALRMERQAASEEKRKLAQLQVAYHQLFQEYDNHIKSSVVG-QQHSVQVDQLRMQGQSVEAALRMERQAASEEKRKLAQLQVAYHQLFQEYDNHIKSSVVG-QQHSVQVDQLRMQGQSVEAALRMERQAASEEKRKLAQLQVAYHQLFQEYDNHIKSSVVG,AAAAAAAAAA-GLDPAFVAAA-EEDEEEEEEE-ELDPEWEERQ-ELDPEFLEKA-GVNPALAKLL-TVDPAFAKKL-GLRPEFVRAA-AADAAAAAAA-GLSGAFLGKL,HLDPRFLERH-HLDPRFLERH-HLDPRFLERH-HLDPRFLERH-HLDPRFLERH-HLDPRFLERH-HLDPRFLERH-HLDPRFLERH-HLDPRFLERH-HLDPRFLERH
18.0,41,51,B,10,ADLQRLKKIAEALSENDREVVLFLLDSFIPSPTLEELYGTLKELVEKGELTRPLLVEALFVAGREDLLEKELEVDPAFLKELLEKRESRFSPFQLTVIYVHKTLSERDRELLVRLTEGLPGSEGRPRSFLEWVYWMERLELLGPEDVRVLAYLLRVLGREDLLERVLERMGE-GSMKTLRAIAESLDKRGREVLLFLLDAYVPSPTQEELFGTLQELAESGELTLPKLAEALFVAGRKDLLESQLSLDPAFLEEFFEEREPFFSPFQLTVIDVHYSLEEEDLARLEEMTRDLPGAEGAPRDFLEWVHELRRRGELGPEDVSRLIEELELLGRDDLAERVLEAMGR-SEEERLREIAEALGEGDREVVLFLLDEYIPNPSKEELFGALLTLRREGRLTVPRLAEVLYVAGRRDLLERILHLDPEFLERLLGSVEPFFSPFQLAVIFVHKRLREEDLERLRELTRDLPGARGLPRSFLEWVYYQERLGRLGPEDVEVLLRELVLLGRRDLAEAVLRRMGL-STEEEIVEIAKSLGPGDREVLLFLLDSFLPRPTTGELVGTLLRLRSSGRLTRPLLAECLFRAGREDLLERILGVDPEFLSEHLSRVKPFFSPYQLTVLFVAGSLQEEDLKFLQELSRSLPGSSGAPRSFLDWVYEMEKLGLLGPEDVSALVEILELLGRHDLAELVLERMGR-AEEEQIRAIAQELGEGDKEVMLFLLDSFIPRPTLEQLWGTLRQLKQSGRLTRPLLAEVLYRAGRRDLLESLLRLNPKFLEQFLKSRQPFFSPYQLTVLDIHYSLTQQDREELVRRSADLPGDTGKPSSFLEWVYHMEKLGQLGPDNTEALEQMLVELGRRDLAEKVRGLMGK-REEKLVQSIAQSLTLRGREVVLFLLDSFIPSPTDAEMLETLLNLRRSGKLTLPLLTEALYTAGRKDLLESQLLVDPQFLEKFLQQTTPYFSPFQRTVIYVDRKLTLRDREWLISASQNLPGSKGRPRSFLEWVHDQQQLGKLGPEDVEELVEVLEAGGREDLARAVREEMGL-MELEVLRRIAEELDVGGREVALFLLDEFIPSPDDGELIGALERLALEGRLTRPRLAEVLFVAGREDLLERELRLEPEFLREFLERVEPYFSPFQLTIVGVHYRLRARDRERLRELTRRLPGATRRPRSFLEWVYEAERLGLLGPEDVEVLEELLRRLGREDLAEEVRRRMGL-SDIDTLKAIAEALSVDDKEVALFLLRAFTPRPSKEEMYGTLRRLYDTGELTRPLLAEVLFEVGRKDLLETKLNLEPERLEKFLGERESYFSKFQRTILYVNRELTDADKEALVKMTADLPGAKSAPTSFLEWVYEMEKLDRLGPEDYSVLAEVLRVLGREDLVKAVAERMGR-SDDEVIRRIAESLSYGDREVALFLLDEFIPNPSVGELYGALKELRSSGKLTVPLLAEVLYRCGREDLLEEELELEPEFLGQLLAEREPYFSPFQLTVLGVANSLEAEDLERLRELTAELPGSEGGPHSFLEWVYWMERLELLGPEDVEALVELLQLLGREDLAEWVLERMGE-MDEETLRSIAESLSSGDREVVLFLLDAYIPRPTFGEMYGVLSRLRNSGRLTLPRLAEVLYVAGRDDLLETELRLDPAFLRDLMQRREPYFSPFKLTIIYVHDSLRSEDIERLKALTEDLPGARRRPRTFLEWVYEMERLGRLGPEDIRRLGELLRILGREDLARAVAEMMGR,ATYEVLCEVARKLGTDDREVVLFLLNVFIPQPTLAQLIGALRALKEEGRLTFPLLAECLFRAGRRDLLRDLLHLDPRFLERHLAGTMSYFSPYQLTVLHVDGELCARDIRSLIFLSKDTIGSRSTPQTFLHWVYCMENLDLLGPTDVDALMSMLRSLSRVDLQRQVQTLMGL-ATYEVLCEVARKLGTDDREVVLFLLNVFIPQPTLAQLIGALRALKEEGRLTFPLLAECLFRAGRRDLLRDLLHLDPRFLERHLAGTMSYFSPYQLTVLHVDGELCARDIRSLIFLSKDTIGSRSTPQTFLHWVYCMENLDLLGPTDVDALMSMLRSLSRVDLQRQVQTLMGL-ATYEVLCEVARKLGTDDREVVLFLLNVFIPQPTLAQLIGALRALKEEGRLTFPLLAECLFRAGRRDLLRDLLHLDPRFLERHLAGTMSYFSPYQLTVLHVDGELCARDIRSLIFLSKDTIGSRSTPQTFLHWVYCMENLDLLGPTDVDALMSMLRSLSRVDLQRQVQTLMGL-ATYEVLCEVARKLGTDDREVVLFLLNVFIPQPTLAQLIGALRALKEEGRLTFPLLAECLFRAGRRDLLRDLLHLDPRFLERHLAGTMSYFSPYQLTVLHVDGELCARDIRSLIFLSKDTIGSRSTPQTFLHWVYCMENLDLLGPTDVDALMSMLRSLSRVDLQRQVQTLMGL-ATYEVLCEVARKLGTDDREVVLFLLNVFIPQPTLAQLIGALRALKEEGRLTFPLLAECLFRAGRRDLLRDLLHLDPRFLERHLAGTMSYFSPYQLTVLHVDGELCARDIRSLIFLSKDTIGSRSTPQTFLHWVYCMENLDLLGPTDVDALMSMLRSLSRVDLQRQVQTLMGL-ATYEVLCEVARKLGTDDREVVLFLLNVFIPQPTLAQLIGALRALKEEGRLTFPLLAECLFRAGRRDLLRDLLHLDPRFLERHLAGTMSYFSPYQLTVLHVDGELCARDIRSLIFLSKDTIGSRSTPQTFLHWVYCMENLDLLGPTDVDALMSMLRSLSRVDLQRQVQTLMGL-ATYEVLCEVARKLGTDDREVVLFLLNVFIPQPTLAQLIGALRALKEEGRLTFPLLAECLFRAGRRDLLRDLLHLDPRFLERHLAGTMSYFSPYQLTVLHVDGELCARDIRSLIFLSKDTIGSRSTPQTFLHWVYCMENLDLLGPTDVDALMSMLRSLSRVDLQRQVQTLMGL-ATYEVLCEVARKLGTDDREVVLFLLNVFIPQPTLAQLIGALRALKEEGRLTFPLLAECLFRAGRRDLLRDLLHLDPRFLERHLAGTMSYFSPYQLTVLHVDGELCARDIRSLIFLSKDTIGSRSTPQTFLHWVYCMENLDLLGPTDVDALMSMLRSLSRVDLQRQVQTLMGL-ATYEVLCEVARKLGTDDREVVLFLLNVFIPQPTLAQLIGALRALKEEGRLTFPLLAECLFRAGRRDLLRDLLHLDPRFLERHLAGTMSYFSPYQLTVLHVDGELCARDIRSLIFLSKDTIGSRSTPQTFLHWVYCMENLDLLGPTDVDALMSMLRSLSRVDLQRQVQTLMGL-ATYEVLCEVARKLGTDDREVVLFLLNVFIPQPTLAQLIGALRALKEEGRLTFPLLAECLFRAGRRDLLRDLLHLDPRFLERHLAGTMSYFSPYQLTVLHVDGELCARDIRSLIFLSKDTIGSRSTPQTFLHWVYCMENLDLLGPTDVDALMSMLRSLSRVDLQRQVQTLMGL,EELEFVEEWL-ELEAFRREWE-EGERFVREWL-EQEAFEREWL-EGAAFEREWR-EGEAFVQLYQ-EEERFVREWL-EFEAFVEEAG-REERFRELWR-SFRAFVELYE,YHQLFQEYDN-YHQLFQEYDN-YHQLFQEYDN-YHQLFQEYDN-YHQLFQEYDN-YHQLFQEYDN-YHQLFQEYDN-YHQLFQEYDN-YHQLFQEYDN-YHQLFQEYDN
