contacts,cs,ce,Chain,Length,designed_receptor_seq,native_receptor_seq,designed_binder_seq,native_binder_seq
15.0,0,10,A,10,SIETIMLISRSGTLRYCLSIIGNDTGLPAALKAVLATNLFNASKFALLMNPEKKEAPNDEKAVGAPMFSDFAITDSDGLQQLQTDTAMFLFYKTASNISVVVATRQTHQAQSYDGWCVAHHIHGVYASQARFDPHYQPNQPIDSHMLHFGVTEIIKLYE-VIHEVMIISVRGRLLFWHGKNSKKKNLNVRSLGALAAANFTSSVIINSAHHRSPEVPTCELSWRLPVKEEKKTVNEGSKQMVETPRFVAILYEDQKGLCVVVYSTSSDKSFKDTAFCMATYISGLLDIHIRYNVMFEKNQPIQSFELKSHLLSAVDHFN-MIVLTLIVGKDGGLKFYRYWPGMAPEADYATVNRMAAAVAGLSAAVYRLAPAGSPTAGALEGVRLAGEDAWQLTDERKLACIRTSSFSAYLWQTLTGLKVVSVWRTSSADALSGARQLLRAIWTIYQAVGITNPFYEPSQPLESQIFGLFVEALLVRAG-DLRVVEIVGQQGARLYRLQATGTQLGINEKEEAVLAGVQWVGNTIGQVMATKDSNYESRKTAKGASQSFKFKKSNRKGLQMVETDKQTLFLDTSMSGLKIVINSENETSEAALICVEVADEIASMISTFGTSDVRYEKEQPVRSQMLNKALEATVKTFD-APMRVMIISAEGCCVYSKDFCTDKKDWSKEEEMLCAGMLYGTSRAICALKPGRGMVKTSFGMKPNDNDEYKYYFPKKYLQAIETGEGILILHKHINGLMIVVYDNSTNADEFERGIEVSAVIHSFIIEVVLENLNYVPEQPIASDVLDEVVLKSLDSKN-SMIRIAVINRNGSLNLWRNCYPDVDKLSEDFKKIMAATSYCSRTLAQELSLTKKTNKNKLDTMKLHSKDQFIINDKNSLGMVDSESHVLCLYMTNTNLVIVCDYEEDLELVRDEHIEMAKYIFNLYMSYVTRHFGYVKNQPILLTEFDDAVDEAIIAVE-SLTHVMIISNDGLLVYNRKFDDTEKRITKIEQAVLASGIAGGSKAASVIRRSLSAQPVQEKAMWEAFKDGKVMLDGDTLVKISDENYTLYLHTTVAGLLIVGLNATDGEEIEQLCAQGLTMMHDVFVQTVQKMPFFMPGQPILSEYFDKVLSSAIESQR-GISTTMIISRDGILLYDDFDVSHKPLVAAEERNLLAAALWSLSSMLTATAPDSAGSSVLTRWSNLPFEKKFKVDDKNRLNILKTSENTYYLHQNISGLTIVLMAEKTSKDVISTGQGLARTLLHVYDEVVRGNLLYRDNQPVKSKLLDVFIYQAIQQHD-SLKQVCVISPRGMLVYDRNLKGKRKTVDERTRRLMAGVARSLSRLTQVWEPEKEQGADGQGVLNPAFQQPFPLVNQQRLQSIRTSAFIACLYETITGFTFVSDYEEESEDLLQRSFEGLNYLWEVYKREQLEHIFYVPNQPILSEELEEVVEKAIEYIE-VISDVLLVSKTGSLRFAKHIPNRNIQQSAEILQAIAATLAAMTASCKTFLPTKNELDNQFDGLINYSSKDFAFIRLDQLSEISGDKVTLILVTNLTGLAFVAIYNDCHESVVRKGRCLCNYIIDLYSINVHGDLSYEPEQPIMSDILDRYIEETIDAIN,AIETILVINKSGGLIYQRNFTNDEQKLNSNEYLILASTLHGVFAIASQLTPKALIPYIPYVGMDDFFKEPFTNWNKSGLRQLCTDQFTMFIYQTLTGLKFVAISSSVMNLAIQIADNFLRKVYCLYSDYVMKDPSYSMEMPIRSNLFDEKVKKMVENLQ-AIETILVINKSGGLIYQRNFTNDEQKLNSNEYLILASTLHGVFAIASQLTPKALIPYIPYVGMDDFFKEPFTNWNKSGLRQLCTDQFTMFIYQTLTGLKFVAISSSVMNLAIQIADNFLRKVYCLYSDYVMKDPSYSMEMPIRSNLFDEKVKKMVENLQ-AIETILVINKSGGLIYQRNFTNDEQKLNSNEYLILASTLHGVFAIASQLTPKALIPYIPYVGMDDFFKEPFTNWNKSGLRQLCTDQFTMFIYQTLTGLKFVAISSSVMNLAIQIADNFLRKVYCLYSDYVMKDPSYSMEMPIRSNLFDEKVKKMVENLQ-AIETILVINKSGGLIYQRNFTNDEQKLNSNEYLILASTLHGVFAIASQLTPKALIPYIPYVGMDDFFKEPFTNWNKSGLRQLCTDQFTMFIYQTLTGLKFVAISSSVMNLAIQIADNFLRKVYCLYSDYVMKDPSYSMEMPIRSNLFDEKVKKMVENLQ-AIETILVINKSGGLIYQRNFTNDEQKLNSNEYLILASTLHGVFAIASQLTPKALIPYIPYVGMDDFFKEPFTNWNKSGLRQLCTDQFTMFIYQTLTGLKFVAISSSVMNLAIQIADNFLRKVYCLYSDYVMKDPSYSMEMPIRSNLFDEKVKKMVENLQ-AIETILVINKSGGLIYQRNFTNDEQKLNSNEYLILASTLHGVFAIASQLTPKALIPYIPYVGMDDFFKEPFTNWNKSGLRQLCTDQFTMFIYQTLTGLKFVAISSSVMNLAIQIADNFLRKVYCLYSDYVMKDPSYSMEMPIRSNLFDEKVKKMVENLQ-AIETILVINKSGGLIYQRNFTNDEQKLNSNEYLILASTLHGVFAIASQLTPKALIPYIPYVGMDDFFKEPFTNWNKSGLRQLCTDQFTMFIYQTLTGLKFVAISSSVMNLAIQIADNFLRKVYCLYSDYVMKDPSYSMEMPIRSNLFDEKVKKMVENLQ-AIETILVINKSGGLIYQRNFTNDEQKLNSNEYLILASTLHGVFAIASQLTPKALIPYIPYVGMDDFFKEPFTNWNKSGLRQLCTDQFTMFIYQTLTGLKFVAISSSVMNLAIQIADNFLRKVYCLYSDYVMKDPSYSMEMPIRSNLFDEKVKKMVENLQ-AIETILVINKSGGLIYQRNFTNDEQKLNSNEYLILASTLHGVFAIASQLTPKALIPYIPYVGMDDFFKEPFTNWNKSGLRQLCTDQFTMFIYQTLTGLKFVAISSSVMNLAIQIADNFLRKVYCLYSDYVMKDPSYSMEMPIRSNLFDEKVKKMVENLQ-AIETILVINKSGGLIYQRNFTNDEQKLNSNEYLILASTLHGVFAIASQLTPKALIPYIPYVGMDDFFKEPFTNWNKSGLRQLCTDQFTMFIYQTLTGLKFVAISSSVMNLAIQIADNFLRKVYCLYSDYVMKDPSYSMEMPIRSNLFDEKVKKMVENLQ,RTHLTIICEE-SAENVSVIEK-ESLTLHTKHA-EFTTITIIQS-QVHNVEVKKL-DTNFIYHLKI-DIAEIDFLQL-RIQHIIKTEL-RDLVVVQDMN-GVKHIIVIRD,EYDYLFKLLL-EYDYLFKLLL-EYDYLFKLLL-EYDYLFKLLL-EYDYLFKLLL-EYDYLFKLLL-EYDYLFKLLL-EYDYLFKLLL-EYDYLFKLLL-EYDYLFKLLL
18.0,28,38,B,10,GMSSEFKIIFVGASGVGKSSLLSRFTNGPITTIGVDFKIKSHKMDDKEIKMQIWDTAGQERYRLIRPLYYRGAMGVIMVYDITNEETFQQLRQWIQEIERYADENVMMVLFGNKRDLTDRGRIRASEVKSFAESKEIPYHENNAKDGDSGLEAVIRLAQDVFERKG-DLDVLVKVCLIGKSGVGKSAVVLRFNEGSSSTIGVDFKVKTMIVDGKKLQILIWDVSGQERFKSVTPIYYRGAQGIVIVYDVTNPSSYDEIEKLLLLNRRFSKPEVVKLLLGNKEDVPENRKISRKEVHKQAESLNIPFYETSALDETVFYTALTQLGMVCKKKDI-EGEYLLKMTFIGTKNTGKTAILLSFTKGMFITVGVDFKIKSISMNDNEVKVQIWDLGGQDKIRTLWPRYYQGTHGILVVFSIDSPQSFERIAHWAKEITRNALKNTCILLFGNKSDLEDNKNVSRDEVKQFAKDNSIPYLEFSADTGINVEESFVMIAKNVIEREK-MTDHVLKILLFGQSGVGKSSIILRYIDGEFKSTTIEHAVRRVQLDGKLVDVQIWDTAGQEDFDALTPMYYRGTIGALLVYSMDDPSTFDAIEKWMEHLKIHNDPTVVLYLLGNKRDVDMVRAVSYETTKEFAKMNKIPFGETSALKGASLEELVVKAVKDSFAREA-EDERQFKFCIVGLDAAGKTTLIRIFADGQLPTLGVDFGIKKYEIKNKKVHIVIWDLAGQERFTVIQPIYYRGAMGIILVYDVNKREAFEYVTKWMEEVKEYCDPNVVIYLFGNKIDLAESRDIEKRDVLKFADSCGIPYFEASAVNGLNLKLVFEEAAESVVAREE-HMQVRLKAVIIGDGTVGKTCLLTVYANKSNVTIGVNFKIKTYQLNGQQLQMSIWDTAGQERFKVLRPLYYRGAIGILLVYDITHTESFEALDRWLEEARKHCGPDIMKLLLGNKQDLESQRGVQAEDAQSLAERWGIPFYETSAKAGTDLYQAFLTLATMALNKLT-MADYLFKVILIGDSGVGKTSLLKPWAEGYVSTIGVDFRVRRVDIDGEPVFIAIWDTAGQERFQTVIPIYYRGAAGIILVYSISEFETFNSIKRWREEIAIYCSKDVQVLLMGNKFDLENLQAVSFEVIKEFANSNKISYLASSAKSGDNVERAFLQIAKAALKKIA-EIEYYIKIMPVGHVDHGKTALLDTFTAGYIQTIGVNFKIKSFPLEGKLCQIQIWDTAGQERFKSLTPLYYRGAEGILMVYDLTSQASFEAIKYWYQDVRKYAKPWVKLLLMGNKKDLEENSSVDLQAVLKFAKEHKIPFLQADAKDGADGLTIVKTLAEWLIKSRG-CIKHRIKLAMIGDGGVGKTSILLPFTFGNLDPTIEDSYLRSVSINGREIRIQIFDTAGQEDFPTLRPLNYRGTQGILLVYSLENPGSFENIREYLENVRIYATNDVMLLLFGNKCDKDNDSQVDSDTIEALAEEWGIPYQEFKAKEGDNIYQQFVKLAEDIVTRHE-DTDLKLKVIMIGDSGVGKSCLLLRFTDGKTKPTIGDFKIKTAPIDGKLVEMQIWDIAGQEDFNRLRPLSYPQAMGILIVFSLVDPNTFEKLQNWLAEIVQFGNPHTHLLLCGNKKDLESEIQITEQEIIEYAMKNNIPYAPTSDVKDANVYTLFEMLAKYMIEKKN,EYDYLFKLLLIGNSGVGKSCLLLRFSDDYISTIGVDFKIKTVELDGKTVKLQIWDTAGQERFRTITSSYYRGSHGIIIVYDVTDQESFNGVKMWLQEIDRYATSTVLKLLVGNKCDLKDKRVVEYDVAKEFADANKMPFLETSALDSTNVEDAFLTMARQIKESMS-EYDYLFKLLLIGNSGVGKSCLLLRFSDDYISTIGVDFKIKTVELDGKTVKLQIWDTAGQERFRTITSSYYRGSHGIIIVYDVTDQESFNGVKMWLQEIDRYATSTVLKLLVGNKCDLKDKRVVEYDVAKEFADANKMPFLETSALDSTNVEDAFLTMARQIKESMS-EYDYLFKLLLIGNSGVGKSCLLLRFSDDYISTIGVDFKIKTVELDGKTVKLQIWDTAGQERFRTITSSYYRGSHGIIIVYDVTDQESFNGVKMWLQEIDRYATSTVLKLLVGNKCDLKDKRVVEYDVAKEFADANKMPFLETSALDSTNVEDAFLTMARQIKESMS-EYDYLFKLLLIGNSGVGKSCLLLRFSDDYISTIGVDFKIKTVELDGKTVKLQIWDTAGQERFRTITSSYYRGSHGIIIVYDVTDQESFNGVKMWLQEIDRYATSTVLKLLVGNKCDLKDKRVVEYDVAKEFADANKMPFLETSALDSTNVEDAFLTMARQIKESMS-EYDYLFKLLLIGNSGVGKSCLLLRFSDDYISTIGVDFKIKTVELDGKTVKLQIWDTAGQERFRTITSSYYRGSHGIIIVYDVTDQESFNGVKMWLQEIDRYATSTVLKLLVGNKCDLKDKRVVEYDVAKEFADANKMPFLETSALDSTNVEDAFLTMARQIKESMS-EYDYLFKLLLIGNSGVGKSCLLLRFSDDYISTIGVDFKIKTVELDGKTVKLQIWDTAGQERFRTITSSYYRGSHGIIIVYDVTDQESFNGVKMWLQEIDRYATSTVLKLLVGNKCDLKDKRVVEYDVAKEFADANKMPFLETSALDSTNVEDAFLTMARQIKESMS-EYDYLFKLLLIGNSGVGKSCLLLRFSDDYISTIGVDFKIKTVELDGKTVKLQIWDTAGQERFRTITSSYYRGSHGIIIVYDVTDQESFNGVKMWLQEIDRYATSTVLKLLVGNKCDLKDKRVVEYDVAKEFADANKMPFLETSALDSTNVEDAFLTMARQIKESMS-EYDYLFKLLLIGNSGVGKSCLLLRFSDDYISTIGVDFKIKTVELDGKTVKLQIWDTAGQERFRTITSSYYRGSHGIIIVYDVTDQESFNGVKMWLQEIDRYATSTVLKLLVGNKCDLKDKRVVEYDVAKEFADANKMPFLETSALDSTNVEDAFLTMARQIKESMS-EYDYLFKLLLIGNSGVGKSCLLLRFSDDYISTIGVDFKIKTVELDGKTVKLQIWDTAGQERFRTITSSYYRGSHGIIIVYDVTDQESFNGVKMWLQEIDRYATSTVLKLLVGNKCDLKDKRVVEYDVAKEFADANKMPFLETSALDSTNVEDAFLTMARQIKESMS-EYDYLFKLLLIGNSGVGKSCLLLRFSDDYISTIGVDFKIKTVELDGKTVKLQIWDTAGQERFRTITSSYYRGSHGIIIVYDVTDQESFNGVKMWLQEIDRYATSTVLKLLVGNKCDLKDKRVVEYDVAKEFADANKMPFLETSALDSTNVEDAFLTMARQIKESMS,ETQAVIDTYN-DTWYVRDQIL-SGKELLNLLN-DTEIIVQRIY-ALDEMKAVLR-ETQALVEENL-KGEEIKELLL-RLFELVGNVS-EEEEELEMMY-SIEQLQKQVL,SNEYLILAST-SNEYLILAST-SNEYLILAST-SNEYLILAST-SNEYLILAST-SNEYLILAST-SNEYLILAST-SNEYLILAST-SNEYLILAST-SNEYLILAST
