contacts,cs,ce,Chain,Length,designed_receptor_seq,native_receptor_seq,designed_binder_seq,native_binder_seq
38.0,283,293,A,10,GSHPMAGKVEIPGNSEEIDPDPKQGFSVSTKPISVERVLSGLEFDTTNPTIDPEAYEAKLKVEERVDKMKLFPVTLEKDDKGLGISIQGKPAGLDGGAEYLLILVKEVKEGGAAARNGQIKKDDVLVKVDGVSLVGVTQEFAAKVLKDSKGKVKFIIGRE-GGNPRGGVIFIPGFRELASPDPNQRFSVSTAPIAVMRIASGAELDTTNRLIDPAADERVRKVEEEVRKMELFPVTLEKDDEGLGISIVGRPGGNDGGDDFLAIFVEKVEEGGAAAREGTIQVDDLLVEVDGQSLVGVTEAFATEVLENARGNVKFVIGRK-GSHPEFGVVEVPGYQEQKDPDPTQGFYVSTKPIQVRRTLSGAEFNADDASVDPEADEAIKKVQEVVKKYKLFPVVLKKDEKGLGIKIKGRGAGRKVGRDYLLILVEEVVKGGAADVEGKIKVNDALVKVDGVSLVGVTQAYAEKVLKEAKGDVKFIIGRE-GSMPEFGVVFVPGNSALVNPDPTQLSSISTKPIAVMRVLSGEEFDASDKTVNPVADSQIASVKAVVDKLSLFPVTLQKDASGLGISIRGKPAGVDGGDNFLLILVKEVVEGGAADKEGKIQVNDVLVEVEGVSLVGVTESYATKVLKNCKGEVKFVIGRN-GSHPHMGTIFVPGNAEEDDPDPNQLFSVSTKPIAVRRTKSGAENNVNNDKIDPAADMAKLKVEEEVKKLKLFPVTLRKDENGLGIAIVGRSAGKKGGKDYLEIRVKEVVEGGSAAKEGKIKVDDLLVEVDGKSLVGVTEKFAKKVLDNAKGEVKFKIGRK-GGAPMGGVRYIPGNKVRTDPDPTQKFSVSNEPIAVMRTLSGEELDITDTTIDPVSEEAVKKVQEKVDKFKLFPVVLNKDEDGLGISIKGVPGGDNGGDEYLLIVVAEVVEGGSADRNGAIKVNDILVEVDGVSLVGVTESYATEVLKNAKGRVKFIIGRD-GGIPNFGVKYVPGNEVQKNPSPDAQDSVSTAPIAVMRTFSGIEYNATNSSIDPAADKARAAVEKVVEKMTLFPVTLDKDENGLGIDIKGVGAGENTGSEHLLIFVKNVVEGGAADVEGTIKVNDLLVEVDGESLVGVTESFAAEVLANAKGKVKFLIGRG-GGEPTFGIRYVPGFKKLKDPDPNQGFSVSNEPIAVMKVFSGEEFDRSDNSVDPKMDEAKEKISKEVEKLKLFPVVLNKDEKGLGISIKGIGAGEKTGRDALGIYVKTVVKGGAADKDGTIKVNDLLVKVDGVSLVGVTEAYAAKVLKNAKGKVKFVIGRN-GGKPEFGVRYIPGNEESESPDPEQHFSVSTKPIAVCRIYSDEEFDRSNKDIDPEAEKAKQRVREIVDKMELFPVVLEKDEKGLGIRIKGRPAGKKGGTDFLLILVRNVVEGGAADIEGTIKVDDVLVEVDGKSLVGVTESFAQKVLKECKGKVKFVIGRD-GGAPEFGVKYVPGFKKEENPDPEKKFSVSTEPIAVLKTLSNEEYDTSDASIDPESEKAKLKVEKEIDEYKLFPVTLEKDEKGLGIKIKGVGGGKKVGNEYLLIMVKEVVEGGAADKQGKIKVNDVLVEVDGESLVGVTESYAKKVLKDAKGKVKFTIGRN,PYEPESGCVEIPGLSEEEDPAPSRKIHFSTAPIQVFSTYSNEDYDRRNEDVDPMAASAEYELEKRVERLELFPVELEKDSEGLGISIIGMGAGADMGLEKLGIFVKTVTEGGAAHRDGRIQVNDLLVEVDGTSLVGVTQSFAASVLRNTKGRVRFMIGRE-PYEPESGCVEIPGLSEEEDPAPSRKIHFSTAPIQVFSTYSNEDYDRRNEDVDPMAASAEYELEKRVERLELFPVELEKDSEGLGISIIGMGAGADMGLEKLGIFVKTVTEGGAAHRDGRIQVNDLLVEVDGTSLVGVTQSFAASVLRNTKGRVRFMIGRE-PYEPESGCVEIPGLSEEEDPAPSRKIHFSTAPIQVFSTYSNEDYDRRNEDVDPMAASAEYELEKRVERLELFPVELEKDSEGLGISIIGMGAGADMGLEKLGIFVKTVTEGGAAHRDGRIQVNDLLVEVDGTSLVGVTQSFAASVLRNTKGRVRFMIGRE-PYEPESGCVEIPGLSEEEDPAPSRKIHFSTAPIQVFSTYSNEDYDRRNEDVDPMAASAEYELEKRVERLELFPVELEKDSEGLGISIIGMGAGADMGLEKLGIFVKTVTEGGAAHRDGRIQVNDLLVEVDGTSLVGVTQSFAASVLRNTKGRVRFMIGRE-PYEPESGCVEIPGLSEEEDPAPSRKIHFSTAPIQVFSTYSNEDYDRRNEDVDPMAASAEYELEKRVERLELFPVELEKDSEGLGISIIGMGAGADMGLEKLGIFVKTVTEGGAAHRDGRIQVNDLLVEVDGTSLVGVTQSFAASVLRNTKGRVRFMIGRE-PYEPESGCVEIPGLSEEEDPAPSRKIHFSTAPIQVFSTYSNEDYDRRNEDVDPMAASAEYELEKRVERLELFPVELEKDSEGLGISIIGMGAGADMGLEKLGIFVKTVTEGGAAHRDGRIQVNDLLVEVDGTSLVGVTQSFAASVLRNTKGRVRFMIGRE-PYEPESGCVEIPGLSEEEDPAPSRKIHFSTAPIQVFSTYSNEDYDRRNEDVDPMAASAEYELEKRVERLELFPVELEKDSEGLGISIIGMGAGADMGLEKLGIFVKTVTEGGAAHRDGRIQVNDLLVEVDGTSLVGVTQSFAASVLRNTKGRVRFMIGRE-PYEPESGCVEIPGLSEEEDPAPSRKIHFSTAPIQVFSTYSNEDYDRRNEDVDPMAASAEYELEKRVERLELFPVELEKDSEGLGISIIGMGAGADMGLEKLGIFVKTVTEGGAAHRDGRIQVNDLLVEVDGTSLVGVTQSFAASVLRNTKGRVRFMIGRE-PYEPESGCVEIPGLSEEEDPAPSRKIHFSTAPIQVFSTYSNEDYDRRNEDVDPMAASAEYELEKRVERLELFPVELEKDSEGLGISIIGMGAGADMGLEKLGIFVKTVTEGGAAHRDGRIQVNDLLVEVDGTSLVGVTQSFAASVLRNTKGRVRFMIGRE-PYEPESGCVEIPGLSEEEDPAPSRKIHFSTAPIQVFSTYSNEDYDRRNEDVDPMAASAEYELEKRVERLELFPVELEKDSEGLGISIIGMGAGADMGLEKLGIFVKTVTEGGAAHRDGRIQVNDLLVEVDGTSLVGVTQSFAASVLRNTKGRVRFMIGRE,ERSEVVYLPE-EFSSVVFLPE-KIFEVVFQPD-LVFNVVLKPK-VEKEVVNKPV-EITTVVFRPR-EGYSIVFRPG-LGFSVVLKPR-KYFKVVFKPR-KMAMVVLKPG,MCSFQILKPA-MCSFQILKPA-MCSFQILKPA-MCSFQILKPA-MCSFQILKPA-MCSFQILKPA-MCSFQILKPA-MCSFQILKPA-MCSFQILKPA-MCSFQILKPA
37.0,31,41,B,10,GMLDSIIDRLLDVEGSRPGTPVNLSHDEILSLCTTARKIFLSQPILLSLKSPLTICGDIHGQYYDLLDLFRYGGYPPQTRYLFLGDYVDRGYQSLETICLLLAYKIKYPDDFFLLRGNHECAQINRVYGFYDECKRRYNVKLWKAFTACFDCLPLAAIVDNKIFCCHGGLSPELNDFNQIRIIKRPTEIPDSGLVCDLLWSDPDENVEGWGDNPRGVSYTFGSDVVSKFLKRHNLSLICRSHQVVMNGYEFFADRKLVTLFSAPNYCGEFNNAGAIMSVDNDMNCSFKIFRPAP-GMLDEIIDRLLDVRGSRPGKPVLLSHSEIVSLCETSKKIFLSQPILLELESPLKICGDLHGQYYDLLDIFRYGGFPPESRYLFLGDYVDRGYQSLETICLLLAYKIKYPDSFFLLRGNHECAQVNRIYGFYDECKRRYNIKLWKKFCECFDCLPLAAIVDNKIFCCHGGLSPELHDFSQIKEIRRPTDVPDSGLVCDLLWSDPDANVEGWGENPRGVSYTFGSNVVTDFLKKHNLDLICRAHQVVEEGYKFFANRKLVTLFSAPNYCGEYNNAGAIMSVDSNMNCTFEIFRPSP-SNLDRIIDRLLEVEGSRPGRPVKLSYEEIVSLCEEAKRIFLSQPILLELKSPLTICGDLHGQYFDLLDIFRWGGFPPESRYLFLGDYVDRGYQSLETICLLLAYKIKYPDEFFLLRGNHECAQINRVYGFYDECKRRYNVKLWKVFCKCFDCLPLAAIVDDKIFCCHGGLSPELHDFSQIRVIKRPTEVPDSGLVCDLLWSDPDENVEGWGENPRGVSYTFGADVVREFLKKHDLELICRSHQVVQNGYEFFADRNLVTLFSAPNYCGEFDNAGAIMKVDEDMNCSFEIFRPTR-GMLDSIISRLLEVEGSVPGKPVKLSYEEILALCSTAKEIFLSQPILLELSSPLKIAGDIHGQYYDLLDIFRYGGFPPEARYLFLGDYVDRGKQSLETICLLLAYKIKYPDNFFLLRGNHECAQINRVYGFYDECKRRYNVKLWKAFQACFDCLPLAAIVDNKIFCCHGGLSPELNDFSQIKVIKRPTDVPDSGLVCDLLWSDPDENVEGWGENPRGVSYTFGAEVVKEFLKRHNLELICRSHQVVHNGYEFFADRKLVTLFSAPNYCGEYNNAGAIMSVDENMNCSFEIFRPAK-GMLDTIIHRLLKVEGSKPGKPVILSYEEILALCETAKKIFLSQPILLELEAPIKICGDLHGQYYDLLDIFKYGGFPPETNYLFLGDYVDRGFQSLETICLILAYKIKYPDNFFVLRGNHECAQINRVYGFYDECKRRYNVKLWKAFCKCFDCLPLAAIVDDKIFCCHGGLSPELNDFSQIKIIERPTDVPEEGLVCDLLWSDPDANVEGWGENPRGVSFTFGANVVEEFLKKHNLELICRAHQVVEEGYKFFADRKLVTLFSAPNYCDEFNNAGAIMSVDEDMNCSFDIFRPSP-GDLDTIIDRLLEIEGAKPGKPVKLSKEEVLALCEEARKIFLSQPILLELKAPLKICGDIHGQYYDLLRLFRYGGYPPEARYLFLGDYVDRGLQSLETICLLLAYKIKYPENFFLLRGNHEDPSVNKIYGFYDECKRRYSVKLWKAFGKCFDCLPLAAIVDDKIFCCHGGLSPELNDFKQIEEIKRPTDVPDEGLVCDLLWSDPDDNVEGWGENPRGVSYTFGSNVVKEFLEKHNLELICRAHQVVEDGYEFFAERKLVTLFSAPNYCGEFDNAGAIMSVDEEMNCSFEIFRPSP-SDLDKIIDRLLEVEGSRPGKPVVLSEEEILSLCETSKKIFLSQPILLELKAPLKICGDIHGQYYDLLDLFKYGGFPPKSRYLFLGDYVDRGYQSLETICLLLAYKIKYPDDFFLLRGNHECRQINRVYGFYDECKRRYNVRLWKAFCECFDCLPLAAIVDEKIFCCHGGLSPDLKDFSQIKEIKRPTDVPDSGLVCDLLWSDPDENVEGWGENPRGVSYTFGAEVVKEFLKKHNLELICRAHQVVEEGYEFFADKLLVTLFSAPNYCGEFDNAGAIMSVDSDLNCSFEVFRPSP-GMLEEIIERLLRVEGERPGKPVRLTEEEIESLCSTAKKIFLSQPILLELQAPLKICGDIHGQFYDLLKLFKYGGYPPEAKYLFLGDYVDRGYQSLETICLLLAYKIKYPEDFFLLRGNHECASINRIYGFYDECKRRYNVKLWKIFCECFDCLPLAAIVDDKIFCMHGGLSPELNDFSQIEVIKRPTDVPDSGLVCDLLWSDPDANVEGWGENPRGVSYTFGAEVVRNFLEKHNLDLICRAHQVVDKGYEFFADKNLVTLFSAPNYCGEFDNAGAFMSVDKDMNCSFTIMRPSD-GMLDEIIDRLLEIRGSKPGKPVILTEEEIRSLCSEAKKIFLSQPILLSLSAPLKICGDLHGQYYDLLRLFEYGGFPPSSRYLFLGDYVDRGKQSLETICLLLAYKIKYPESFFLLRGNHECAQINRIYGFYDECKRRYNVKLWKIFTECFDCLPLAAIVDDKIFCCHGGLSPELNDFEQIKVIERPTDVPDSGLVCDLLWSDPDENVEGWGENPRGVSFTFGAEVVKKFLKKHDLELICRAHQVVEEGYEFFANRKLVTLFSAPNYCGEFNNAGAIMSVDEDMNCSFEVFRPAS-GMLDSIIDRLLEVEGSKPGKPVILSEQEIVALCETSKKIFLSQPILLELEAPLKICGDIHGQYYDLLKLFRYGGYPPQSRYLFLGDYVDRGYQSLETICLLLAYKIKYPEDFFLLRGNHECAQINRIYGFYDECKRRYNVKLWKIFTECFDCLPLAAIVDEKIFCCHGGLSPELNDFSQIKEIKRPTDVPESGLVCDLLWSDPDANVEGWGENPRGVSYTFGAEVVEKFLKKHDLELICRAHQVVERGYEFFAKRKLVTLFSAPNYCGEFNNAGAIMSVDEEMNCSFEIFSPSP,LNLDSIIGRLLEVQGSRPGKNVQLTENEIRGLCLKSREIFLSQPILLELEAPLKICGDIHGQYYDLLRLFEYGGFPPESNYLFLGDYVDRGKQSLETICLLLAYKIKYPENFFLLRGNHECASINRIYGFYDECKRRYNIKLWKTFTDCFNCLPIAAIVDEKIFCCHGGLSPDLQSMEQIRRIMRPTDVPDQGLLCDLLWSDPDKDVQGWGENDRGVSFTFGAEVVAKFLHKHDLDLICRAHQVVEDGYEFFAKRQLVTLFSAPNYCGEFDNAGAMMSVDETLMCSFQILKPAD-LNLDSIIGRLLEVQGSRPGKNVQLTENEIRGLCLKSREIFLSQPILLELEAPLKICGDIHGQYYDLLRLFEYGGFPPESNYLFLGDYVDRGKQSLETICLLLAYKIKYPENFFLLRGNHECASINRIYGFYDECKRRYNIKLWKTFTDCFNCLPIAAIVDEKIFCCHGGLSPDLQSMEQIRRIMRPTDVPDQGLLCDLLWSDPDKDVQGWGENDRGVSFTFGAEVVAKFLHKHDLDLICRAHQVVEDGYEFFAKRQLVTLFSAPNYCGEFDNAGAMMSVDETLMCSFQILKPAD-LNLDSIIGRLLEVQGSRPGKNVQLTENEIRGLCLKSREIFLSQPILLELEAPLKICGDIHGQYYDLLRLFEYGGFPPESNYLFLGDYVDRGKQSLETICLLLAYKIKYPENFFLLRGNHECASINRIYGFYDECKRRYNIKLWKTFTDCFNCLPIAAIVDEKIFCCHGGLSPDLQSMEQIRRIMRPTDVPDQGLLCDLLWSDPDKDVQGWGENDRGVSFTFGAEVVAKFLHKHDLDLICRAHQVVEDGYEFFAKRQLVTLFSAPNYCGEFDNAGAMMSVDETLMCSFQILKPAD-LNLDSIIGRLLEVQGSRPGKNVQLTENEIRGLCLKSREIFLSQPILLELEAPLKICGDIHGQYYDLLRLFEYGGFPPESNYLFLGDYVDRGKQSLETICLLLAYKIKYPENFFLLRGNHECASINRIYGFYDECKRRYNIKLWKTFTDCFNCLPIAAIVDEKIFCCHGGLSPDLQSMEQIRRIMRPTDVPDQGLLCDLLWSDPDKDVQGWGENDRGVSFTFGAEVVAKFLHKHDLDLICRAHQVVEDGYEFFAKRQLVTLFSAPNYCGEFDNAGAMMSVDETLMCSFQILKPAD-LNLDSIIGRLLEVQGSRPGKNVQLTENEIRGLCLKSREIFLSQPILLELEAPLKICGDIHGQYYDLLRLFEYGGFPPESNYLFLGDYVDRGKQSLETICLLLAYKIKYPENFFLLRGNHECASINRIYGFYDECKRRYNIKLWKTFTDCFNCLPIAAIVDEKIFCCHGGLSPDLQSMEQIRRIMRPTDVPDQGLLCDLLWSDPDKDVQGWGENDRGVSFTFGAEVVAKFLHKHDLDLICRAHQVVEDGYEFFAKRQLVTLFSAPNYCGEFDNAGAMMSVDETLMCSFQILKPAD-LNLDSIIGRLLEVQGSRPGKNVQLTENEIRGLCLKSREIFLSQPILLELEAPLKICGDIHGQYYDLLRLFEYGGFPPESNYLFLGDYVDRGKQSLETICLLLAYKIKYPENFFLLRGNHECASINRIYGFYDECKRRYNIKLWKTFTDCFNCLPIAAIVDEKIFCCHGGLSPDLQSMEQIRRIMRPTDVPDQGLLCDLLWSDPDKDVQGWGENDRGVSFTFGAEVVAKFLHKHDLDLICRAHQVVEDGYEFFAKRQLVTLFSAPNYCGEFDNAGAMMSVDETLMCSFQILKPAD-LNLDSIIGRLLEVQGSRPGKNVQLTENEIRGLCLKSREIFLSQPILLELEAPLKICGDIHGQYYDLLRLFEYGGFPPESNYLFLGDYVDRGKQSLETICLLLAYKIKYPENFFLLRGNHECASINRIYGFYDECKRRYNIKLWKTFTDCFNCLPIAAIVDEKIFCCHGGLSPDLQSMEQIRRIMRPTDVPDQGLLCDLLWSDPDKDVQGWGENDRGVSFTFGAEVVAKFLHKHDLDLICRAHQVVEDGYEFFAKRQLVTLFSAPNYCGEFDNAGAMMSVDETLMCSFQILKPAD-LNLDSIIGRLLEVQGSRPGKNVQLTENEIRGLCLKSREIFLSQPILLELEAPLKICGDIHGQYYDLLRLFEYGGFPPESNYLFLGDYVDRGKQSLETICLLLAYKIKYPENFFLLRGNHECASINRIYGFYDECKRRYNIKLWKTFTDCFNCLPIAAIVDEKIFCCHGGLSPDLQSMEQIRRIMRPTDVPDQGLLCDLLWSDPDKDVQGWGENDRGVSFTFGAEVVAKFLHKHDLDLICRAHQVVEDGYEFFAKRQLVTLFSAPNYCGEFDNAGAMMSVDETLMCSFQILKPAD-LNLDSIIGRLLEVQGSRPGKNVQLTENEIRGLCLKSREIFLSQPILLELEAPLKICGDIHGQYYDLLRLFEYGGFPPESNYLFLGDYVDRGKQSLETICLLLAYKIKYPENFFLLRGNHECASINRIYGFYDECKRRYNIKLWKTFTDCFNCLPIAAIVDEKIFCCHGGLSPDLQSMEQIRRIMRPTDVPDQGLLCDLLWSDPDKDVQGWGENDRGVSFTFGAEVVAKFLHKHDLDLICRAHQVVEDGYEFFAKRQLVTLFSAPNYCGEFDNAGAMMSVDETLMCSFQILKPAD-LNLDSIIGRLLEVQGSRPGKNVQLTENEIRGLCLKSREIFLSQPILLELEAPLKICGDIHGQYYDLLRLFEYGGFPPESNYLFLGDYVDRGKQSLETICLLLAYKIKYPENFFLLRGNHECASINRIYGFYDECKRRYNIKLWKTFTDCFNCLPIAAIVDEKIFCCHGGLSPDLQSMEQIRRIMRPTDVPDQGLLCDLLWSDPDKDVQGWGENDRGVSFTFGAEVVAKFLHKHDLDLICRAHQVVEDGYEFFAKRQLVTLFSAPNYCGEFDNAGAMMSVDETLMCSFQILKPAD,EVSVFTVRSK-GVNVHTVRSP-GILVHAVRKP-DIKIHTVRSP-GIKIHEVRAK-AVSVHVVEAP-KVQVHTVSRK-KIRVETVRSP-LVNIHQVERP-QVKVHRVHAP,PIQVFSTYSN-PIQVFSTYSN-PIQVFSTYSN-PIQVFSTYSN-PIQVFSTYSN-PIQVFSTYSN-PIQVFSTYSN-PIQVFSTYSN-PIQVFSTYSN-PIQVFSTYSN
