contacts,cs,ce,Chain,Length,designed_receptor_seq,native_receptor_seq,designed_binder_seq,native_binder_seq
27.0,42,52,A,10,GSHMAVLVPSLTIEKSKDTFHASGGVIVKPEFSFMYWLAKDESSSEPTKFISDLGEGIKEEAPVRTESGGVTTLTQTLHVTDKDKFANYTFTAVLSTVQGVSTKDVKL-GAMVSVTVPNLSIVTSANSFHASGSVAYNPNQSTMYWLGKDTSSNSPTKFIDQLGSGIYEEAPVRTSSNGITTLTQILHVTDQNKFSQYTFTAVIATTEGVSTLNVTL-GANVAVTVPALKITKATDQFHASGSVATAPSQSFMYWLAKDENSSQPTKLIDQLGAGIKQDAPVRSEAEGITTLTQVLNVTDQNKFKNYTFTAVLSTTEGVSTLKTTL-GSHMAVLVPNLKIDKSANKFHASGSVKFLPGFSFMYWLAKDTASNEPTKFIEDLGDGISEEDPVRTESNGITTLSQVLNVTDQNKFANYQFTAVLSTVQGVSTRDVTL-GAATAVVVPALSIVGSTDTFLASGAVAVNPNSSFMYWLAKDTNSSDPTKFIGDLGSGIYEENPVRTTANGITTLSQKLNVTDENKFANYTFTAVLSTVQGVSTLNTKL-GSHMAVVVPNLKIDTSENKFLASGSVKVEPAKSFMYWLAKDTASNEPTRFIEDLGEGIYEEDPVRTESDGITTLSQTLNVTDKNKFKNYKFTAVIATVEGVSTKDVTL-GADTVVVVPALSIRKSANRFHASGSVRFAPGLSFMYWLAKDDASDSPTKFIGDLGSGIKEDAPVRTEAFGVTTLSQVLNVTDTQKFADYTFTAVLATVQGVSTLDTKL-GANTAVSTPALTIAKSTNKFHATGSVATLPASSFMYWLAKDTASNSPTKFITNLGSGISEDAAVRTTASGITTLSKVLNVTDTSKFSNYTFTAVLATVQGVSTLNTTL-GSHMAVIVPNLKIEQSDGKFHASGSVKTLPGFSFMYWLAKDESSDEPTKFIEELGEGIREEDPVRTSSNGVTTLTQVLHVTDKEKFADYTFTAVLATIAGVSTLDVKP-GAMTDVVVPNMKIETSENTFHASGSVKKNPEQSFMYWLAKDTASNEPTKLIEELGEGIYAEEPVRTEADGITTLTQKLNVTDQKKFANYTFTAVLATVEGVSTKDVTL,GAMVETKCPNLDIVTSSGEFHCSGCVEHMPEFSYMYWLAKDMKSDEDTKFIEHLGDGINEDETVRTTDGGITTLRKVLHVTDTNKFAHYRFTCVLTTLDGVSKKNIWL-GAMVETKCPNLDIVTSSGEFHCSGCVEHMPEFSYMYWLAKDMKSDEDTKFIEHLGDGINEDETVRTTDGGITTLRKVLHVTDTNKFAHYRFTCVLTTLDGVSKKNIWL-GAMVETKCPNLDIVTSSGEFHCSGCVEHMPEFSYMYWLAKDMKSDEDTKFIEHLGDGINEDETVRTTDGGITTLRKVLHVTDTNKFAHYRFTCVLTTLDGVSKKNIWL-GAMVETKCPNLDIVTSSGEFHCSGCVEHMPEFSYMYWLAKDMKSDEDTKFIEHLGDGINEDETVRTTDGGITTLRKVLHVTDTNKFAHYRFTCVLTTLDGVSKKNIWL-GAMVETKCPNLDIVTSSGEFHCSGCVEHMPEFSYMYWLAKDMKSDEDTKFIEHLGDGINEDETVRTTDGGITTLRKVLHVTDTNKFAHYRFTCVLTTLDGVSKKNIWL-GAMVETKCPNLDIVTSSGEFHCSGCVEHMPEFSYMYWLAKDMKSDEDTKFIEHLGDGINEDETVRTTDGGITTLRKVLHVTDTNKFAHYRFTCVLTTLDGVSKKNIWL-GAMVETKCPNLDIVTSSGEFHCSGCVEHMPEFSYMYWLAKDMKSDEDTKFIEHLGDGINEDETVRTTDGGITTLRKVLHVTDTNKFAHYRFTCVLTTLDGVSKKNIWL-GAMVETKCPNLDIVTSSGEFHCSGCVEHMPEFSYMYWLAKDMKSDEDTKFIEHLGDGINEDETVRTTDGGITTLRKVLHVTDTNKFAHYRFTCVLTTLDGVSKKNIWL-GAMVETKCPNLDIVTSSGEFHCSGCVEHMPEFSYMYWLAKDMKSDEDTKFIEHLGDGINEDETVRTTDGGITTLRKVLHVTDTNKFAHYRFTCVLTTLDGVSKKNIWL-GAMVETKCPNLDIVTSSGEFHCSGCVEHMPEFSYMYWLAKDMKSDEDTKFIEHLGDGINEDETVRTTDGGITTLRKVLHVTDTNKFAHYRFTCVLTTLDGVSKKNIWL,IKADAVPTGI-VTADANPTGY-LTADTNPTGL-FKADTKPEGL-FSADTTPTGI-VKADANPSGL-VTKDANPSGL-FTADTNPSGF-YTADTEPTGL-FEKQTDPKGL,MYKDSQPRGM-MYKDSQPRGM-MYKDSQPRGM-MYKDSQPRGM-MYKDSQPRGM-MYKDSQPRGM-MYKDSQPRGM-MYKDSQPRGM-MYKDSQPRGM-MYKDSQPRGM
20.0,91,101,B,10,GSYTRKNSRNIVIKNINDEYLYIDSNNKPKFENKSNQIFNVTVYDDSNPRGMAVTISVKVGSTYTLSSKNRKVSFEEKNPPDTISENESDIIFYMYTVPGAEGKRMFESSMYKGYYLASSNEENLTLQKNTSAGNENIMFSVLDI-GAFQKAFSLYTFIFNEKRHILYIDSNNKPRFAPNGNQVFRITFYTDTDPRGMAVTISVEVGSVKTLSSKNRRVQFLEMNPPDTIPETRSDIIFYMRTVPGHEGKRSFESSQYKGFFLASQDDNWLTLRKLVISGDKSVHFAVLSI-GSYMKQFTQSRKIFNKDNEILYIDDNNQPKFAPSNNQIFNITVYSDTEPRGMAVTISVNVGSTYTLSSEGKVIKFLEMNPPDTISEERSNIIFYERTVPGYSGRKMYESSMYPGYYLASQDGVNLILQKNISAGDSSIMFNVVDV-GSFTKRQSFTTEILNYNNQQLFIDENNRPRFSNQENRLFNITVYSDSKPRGMAVTISVNVGSTYTLSSKGRNISFLEMNPPSTIPEERSEIIFYMRTVPGASGKRSFESSMYPGYYLASQDGDYLVLKKNTEVGDKSIMFNVKFV-GSFSKEFSQNVLIKNYNDEYLYIDENNKPRFIKNNNEKFEITCYSDTNPEGLAVTISVNVGSTFTLSSENRKIKFLEMNPPDKINENKSDIIFYMNTVPGSENKMMFESSMYKGMYLASEKNKNLVLKKNTTIGDKSIEFSVNSV-GSYHKLHSFSRIIKNYRNQTLFIDGNNRPRFSPDNNQIFIITVYSDSDPRGMAVTISVEVGSTFTLSSRGKKVKFENMNPPDTINENQSYTIFYERTVPGDEGKRMFESSMYPGYYLSSSSPVYLTLKKNTTVGDKSIMFSVESI-GSFTKQDSQNKYIYNEDNQVLYIDGNNRPKFMPGNNGLFIITKYSDSNPRGMAVTISVMVGSCFTLSSKNKKISFERMYPPESIPQNKSDIIFYEYTVPGFNGKRSFESSMYPGYYLASSSPSDLVLKKNTTKGDKSIMFTVKSA-GSHMKKESQNVLIFNFNDEVLFIDKKNQPRFAPSENSVFKITIYSDSEPAGMAVTISVDVGSTFTLSSRGRKISFLEMEPPEEIPEERSDIIFYMRKVPGAEGKRMFESSRYKGYYLAAKGKNDLVLKKETKEGDKSIMFDVRKV-GAFSKKDSVQTEIYNYLDQVLFIDGNNQPRFKPSNNQVFNITFYSDTNPAGMAVTISVDVGSTYTLSSKGKLISFLEMEPPAVIPEEKSDIIFYMNTVPGYDGKRMFESSQYPGYYLASSNPSLLVLKKLDTVGDESIMFSVLDV-GMFEQQASEQRRIYNEDNEKLYIDENNEPRFSKDDNEIFTITFYADSQPRGMAVTISIETGSIYTLSSKNESISFLNMDPPKTINQTTSDIIFYMYTVPGHEGRRMFESSQYPGKYLASKNPKNLVLKENTSAGDKSIMFSVVSV,GYFGKLESKLSVIRNLNDQVLFIDQGNRPLFEDAPRTIFIISMYKDSQPRGMAVTISVKSEKISTLSSENKIISFKEMNPPDNIKDTKSDIIFFQRSVPGHDNKMQFESSSYEGYFLASEKLFKLILKKEDELGDRSIMFTVQNE-GYFGKLESKLSVIRNLNDQVLFIDQGNRPLFEDAPRTIFIISMYKDSQPRGMAVTISVKSEKISTLSSENKIISFKEMNPPDNIKDTKSDIIFFQRSVPGHDNKMQFESSSYEGYFLASEKLFKLILKKEDELGDRSIMFTVQNE-GYFGKLESKLSVIRNLNDQVLFIDQGNRPLFEDAPRTIFIISMYKDSQPRGMAVTISVKSEKISTLSSENKIISFKEMNPPDNIKDTKSDIIFFQRSVPGHDNKMQFESSSYEGYFLASEKLFKLILKKEDELGDRSIMFTVQNE-GYFGKLESKLSVIRNLNDQVLFIDQGNRPLFEDAPRTIFIISMYKDSQPRGMAVTISVKSEKISTLSSENKIISFKEMNPPDNIKDTKSDIIFFQRSVPGHDNKMQFESSSYEGYFLASEKLFKLILKKEDELGDRSIMFTVQNE-GYFGKLESKLSVIRNLNDQVLFIDQGNRPLFEDAPRTIFIISMYKDSQPRGMAVTISVKSEKISTLSSENKIISFKEMNPPDNIKDTKSDIIFFQRSVPGHDNKMQFESSSYEGYFLASEKLFKLILKKEDELGDRSIMFTVQNE-GYFGKLESKLSVIRNLNDQVLFIDQGNRPLFEDAPRTIFIISMYKDSQPRGMAVTISVKSEKISTLSSENKIISFKEMNPPDNIKDTKSDIIFFQRSVPGHDNKMQFESSSYEGYFLASEKLFKLILKKEDELGDRSIMFTVQNE-GYFGKLESKLSVIRNLNDQVLFIDQGNRPLFEDAPRTIFIISMYKDSQPRGMAVTISVKSEKISTLSSENKIISFKEMNPPDNIKDTKSDIIFFQRSVPGHDNKMQFESSSYEGYFLASEKLFKLILKKEDELGDRSIMFTVQNE-GYFGKLESKLSVIRNLNDQVLFIDQGNRPLFEDAPRTIFIISMYKDSQPRGMAVTISVKSEKISTLSSENKIISFKEMNPPDNIKDTKSDIIFFQRSVPGHDNKMQFESSSYEGYFLASEKLFKLILKKEDELGDRSIMFTVQNE-GYFGKLESKLSVIRNLNDQVLFIDQGNRPLFEDAPRTIFIISMYKDSQPRGMAVTISVKSEKISTLSSENKIISFKEMNPPDNIKDTKSDIIFFQRSVPGHDNKMQFESSSYEGYFLASEKLFKLILKKEDELGDRSIMFTVQNE-GYFGKLESKLSVIRNLNDQVLFIDQGNRPLFEDAPRTIFIISMYKDSQPRGMAVTISVKSEKISTLSSENKIISFKEMNPPDNIKDTKSDIIFFQRSVPGHDNKMQFESSSYEGYFLASEKLFKLILKKEDELGDRSIMFTVQNE,KIVTTTLSGV-ENVTTTLEGV-GIVQTTYSGV-NNITTSLKGV-EKVVTSLTGV-TLVVTTYDGV-SNTITTLSGV-SSVVTTLEGV-KLVMTTLYGV-GSVTTTLEGV,TCVLTTLDGV-TCVLTTLDGV-TCVLTTLDGV-TCVLTTLDGV-TCVLTTLDGV-TCVLTTLDGV-TCVLTTLDGV-TCVLTTLDGV-TCVLTTLDGV-TCVLTTLDGV
