contacts,cs,ce,Chain,Length,designed_receptor_seq,native_receptor_seq,designed_binder_seq,native_binder_seq
24.0,35,45,A,10,GSSGSPPFEVQYFTEENLAKLPEYLKKREEGEVKEDLDYLVPPPPPDESGKLPGVVP-GSSGSPPFEVQYFTDENLAKLPEYLKKLEEGKVEGDLDYLVPPPPPDESGKLPGLDL-GSSGSPPFEVQFFTEENLAKLPEYLKKLEEGKVEGDLDYLVPPPPPDESGKLPGFDP-GSSGSPPFEVQYFTEENLAKLPEYLKKLEEEGVKEDLDYLVPPPPPDESGKLPGLLP-GSSGSPPFEVQYFTEENLAKLPEYLKKLEEGKVEGDLDYLVPPPPPDESGKLPGFDP-GSSGSPPFEVQFFTEENLAKLPEYLKKLEEGKVEGDLDYLVPPPPPDESGKLPGFVP-GSSGSPPFEVQYFTEENLAKLPEYLKELEKGKVTGPLDYLVPPPPPDESGKLPGFDP-GSSGSPPFEVQYFTDENLAKLPEYLKKLEEGEVKEDLDYLIPPPPPDESGKLPGFVP-GSSGSPPFEVQYFTEENLAKLPEYLKKLEEGKVEGDLDYLVPPPPPDESGKLPGFDP-GSSGSPPFEVQYFTDENLAKLPEYLKKRAEGEVKEDLDYLVPPPPPDESGKAPGFVP,SLYPPPPPYVKFFTQSNLEKLPKYKEKKAAEEITCALDYLIPPPPKNQQYRAFGSIW-SLYPPPPPYVKFFTQSNLEKLPKYKEKKAAEEITCALDYLIPPPPKNQQYRAFGSIW-SLYPPPPPYVKFFTQSNLEKLPKYKEKKAAEEITCALDYLIPPPPKNQQYRAFGSIW-SLYPPPPPYVKFFTQSNLEKLPKYKEKKAAEEITCALDYLIPPPPKNQQYRAFGSIW-SLYPPPPPYVKFFTQSNLEKLPKYKEKKAAEEITCALDYLIPPPPKNQQYRAFGSIW-SLYPPPPPYVKFFTQSNLEKLPKYKEKKAAEEITCALDYLIPPPPKNQQYRAFGSIW-SLYPPPPPYVKFFTQSNLEKLPKYKEKKAAEEITCALDYLIPPPPKNQQYRAFGSIW-SLYPPPPPYVKFFTQSNLEKLPKYKEKKAAEEITCALDYLIPPPPKNQQYRAFGSIW-SLYPPPPPYVKFFTQSNLEKLPKYKEKKAAEEITCALDYLIPPPPKNQQYRAFGSIW-SLYPPPPPYVKFFTQSNLEKLPKYKEKKAAEEITCALDYLIPPPPKNQQYRAFGSIW,PPQLELYYKY-SPQLERYLKS-PPNLELYYKS-PPQLELYYKS-PPQLENYLKY-PPQLELYYKS-PPNLELYYKS-PPQLENYLKY-PPNLENYYKY-PPNLENYYKY,SPNFKNYLKY-SPNFKNYLKY-SPNFKNYLKY-SPNFKNYLKY-SPNFKNYLKY-SPNFKNYLKY-SPNFKNYLKY-SPNFKNYLKY-SPNFKNYLKY-SPNFKNYLKY
31.0,5,15,B,10,GSPEPTLFEELLDFVQSLADPPYVNSLLTSREIWKTPQFRRFLVFLRIWEEPPFVDHIRKPECLVRLGELVSFEKATVDEDGTLVELKDLP-GSPEPTLFEELLDFVQSLADPPYVNSLLTSKEIWKTPQFRRFLVFLRIFEKPPFVDHIKKPECLVYLGRLVSFEKATVEEDGTLKELKDLP-GSPEPTLFEELLDFVQSLADPPFVNSLLTSKEIWKTPQFRRFLVFLQIWSKPPFVDHIKKPECLKYLGELVSFEKVEVEEDGTLKQLKDLP-GSPPPTEFEILLDFVQSLADPPFVNSLLTSKEIWKTPQFRRFLIFLRIFEKPPFVDHIKKPECLVRLGELVSFEKATVEEDGTLAELKDLP-GSPEPTLFEELLDFVQSLADPPFVDSLLFSKEIWKTPQFRRFLIFLRIWEKPPFVDHIKKPECLKRLGELVSFEKATVEEDGTLKELKDLP-GSPEPTLFEELLDFVQSLADPPYVNSLLTSREIWKTPQFRRFLVFLRIWEEPPFVDHIKKPECLVRLGELVSFEKATVEEDGTLKELKDLP-GSPEPTLFEELLDFVQSLADPPYVNSLLTSREIWKTPQFRRFLVFLQIWSKPPYVDHIKKPECLVYLGKLVSFEKATVEEDGTLKELKDLP-GSPPPTLFEELLDFVQSLADPPFVNSLLTSREIWKTPQFRRFLVFLRIFEEPPFVDHIKKPECLVRLGELVSFEKAKVAEDGTLLELEDLP-GSPEPTLFEELLEFVQSLADPPYVQSLLTSKEIWKTPQFRRFLVFLQIWSKPPFVDHIKKPECLVRLGELVSFEKATVEEDGTLKELKDLP-GSPEPTLFEELLEFVQSLADPPYVQSLLTSREIWKTPQFRRFLVFLRIWEEPPFVDHIEKPECLERLGLLVSFEKARVEEDGTLAELKDLP,QNPLPTRFEVELEFIQSLANIQYVTYLLTQQQIWKSPNFKNYLKYLEYWCNPPYSQCIVYPNCLFILKLLNGFESAIVNEDGLLEGLDELP-QNPLPTRFEVELEFIQSLANIQYVTYLLTQQQIWKSPNFKNYLKYLEYWCNPPYSQCIVYPNCLFILKLLNGFESAIVNEDGLLEGLDELP-QNPLPTRFEVELEFIQSLANIQYVTYLLTQQQIWKSPNFKNYLKYLEYWCNPPYSQCIVYPNCLFILKLLNGFESAIVNEDGLLEGLDELP-QNPLPTRFEVELEFIQSLANIQYVTYLLTQQQIWKSPNFKNYLKYLEYWCNPPYSQCIVYPNCLFILKLLNGFESAIVNEDGLLEGLDELP-QNPLPTRFEVELEFIQSLANIQYVTYLLTQQQIWKSPNFKNYLKYLEYWCNPPYSQCIVYPNCLFILKLLNGFESAIVNEDGLLEGLDELP-QNPLPTRFEVELEFIQSLANIQYVTYLLTQQQIWKSPNFKNYLKYLEYWCNPPYSQCIVYPNCLFILKLLNGFESAIVNEDGLLEGLDELP-QNPLPTRFEVELEFIQSLANIQYVTYLLTQQQIWKSPNFKNYLKYLEYWCNPPYSQCIVYPNCLFILKLLNGFESAIVNEDGLLEGLDELP-QNPLPTRFEVELEFIQSLANIQYVTYLLTQQQIWKSPNFKNYLKYLEYWCNPPYSQCIVYPNCLFILKLLNGFESAIVNEDGLLEGLDELP-QNPLPTRFEVELEFIQSLANIQYVTYLLTQQQIWKSPNFKNYLKYLEYWCNPPYSQCIVYPNCLFILKLLNGFESAIVNEDGLLEGLDELP-QNPLPTRFEVELEFIQSLANIQYVTYLLTQQQIWKSPNFKNYLKYLEYWCNPPYSQCIVYPNCLFILKLLNGFESAIVNEDGLLEGLDELP,PPPIVKYFTE-PPPIVKYFTE-PPPIVKYFTE-PPPIVKYFTE-PPPIVKYFTE-PPPIVEYFTD-PPPIVKYFTD-PPPIVEYFTD-PPPIVEYFTE-PPPIVEYFTD,PPPYVKFFTQ-PPPYVKFFTQ-PPPYVKFFTQ-PPPYVKFFTQ-PPPYVKFFTQ-PPPYVKFFTQ-PPPYVKFFTQ-PPPYVKFFTQ-PPPYVKFFTQ-PPPYVKFFTQ
