contacts,cs,ce,Chain,Length,designed_receptor_seq,native_receptor_seq,designed_binder_seq,native_binder_seq
14.0,86,96,A,10,ALPRQYFQDPRVRQAAYQLAALARQRDTNRDVVLIDARLVEGVAAEDAWQLMRLCLEFWLTEVALPQRGEYQPEMSVVVPWLEGLREKLSPLQTNVSRLQQTVRTLGENGKRRAIGEVYDLFSALERATT-ELPQSFFSDPQTKQAAFDLAARAQAEVTHRNIWLIDVELVRGVTREQRSELMRRVLQFWLEEVALPERGKFQPEMATVVPWLEQAARALEPLDANVERVRRTVRLLGEHGRKLAVGELDRIFDALRKATT-PLPLEMFTDPEVVRDAYEMARLARSQYTRRDVVLIDDSLFAGVSRADYPRLMFLVNDYWLSSVAVPNRGHYQPYMERVVPWLERCREELRGLDANVERMRRTVERLGEEGVKLAIAETDLLFEALRAASL-MLSREFFEDPEIRRAAFEMAQLANERYRNRNVVLIGAELYEGVSAEDRHLVMKRVLRFWLEAVYRPARGEYQPYMSKVVPWLEEAARELEGLEERVAAVEELVERLGEEGVLRAVGEVGRLYEALREATT-SLPDSFFEDPTVRQAVYQLSFEASKLDSFKDISLISSRLFRGISIADRCQLCRLVLGFWLEEIAIPNRGEFQPYMEIVEPWLAEAEEKLKDLRENVDRVRETVRRLGTNGMIRAVGEMWDLYRALEHACR-SLPVDFFEDPEVRQAVYDLARAALSRVNDRETVLIDEALQQGVSAADKHKLMKLVLDFWLTEVARPNAGAYQPYMARVVPWLERAAAELGDLRQNVQRLEQEVRRLGEQGYQLAVGEVDRLWRALEQATT-SLAEDFFNDPAVIDAAYRLSFQASLQDTLRDVVLIDETLTAGITAADRPQLMAAVLRFWLEKVALPNRGQYQPEMAVVEPWLTRAATALEPLDANVDRVTQTVETLGEQGARRAVGEVWLLFDALRKASN-GLPRSFFEDPVVREAAYRMAAAASAKCTTRDVVLVNGDLFRGVSKERQCVVMRGVINFWLAEVAVPNRGEFQPEMSLVVPWLERCAVLLEPLDENLDRVRQLVRDLGEQGRQLCIGETDRLYRALERACT-GLPPSFFRDPEVRAAVFQLADAARRRDRHRDVTLIGAELFEGVTRAERPRLMRGCLRYWLDRVAVPLRGAFQPEMATVVPWLERAARELAGLDENLQRVEQEVDRLGTEGQRRAVAEAWELYRALEEACV-DLPREFFEDPEVKNAVFQMAKQASLLDTRRDLVLIDHRLFLGVSQDDRDELMRRVLHLWLEEVALPRRGEFQPWMSTVEPWFRRASETLDDLEVNVRRVRDLIRRLGDRGDIRAVGEADELFRALQQAST,RLDKSNFQQPYITNRTFMLAKEASLADNNTDVRLIGEKLFHGVSMSERCYLMKQVLNFTLEEVLFPQSDRFQPYMQEVVPFLARLSNRLSHIQRNVQKLKDTVKKLGESGEIKAIGELDLLFMSLRNACI-RLDKSNFQQPYITNRTFMLAKEASLADNNTDVRLIGEKLFHGVSMSERCYLMKQVLNFTLEEVLFPQSDRFQPYMQEVVPFLARLSNRLSHIQRNVQKLKDTVKKLGESGEIKAIGELDLLFMSLRNACI-RLDKSNFQQPYITNRTFMLAKEASLADNNTDVRLIGEKLFHGVSMSERCYLMKQVLNFTLEEVLFPQSDRFQPYMQEVVPFLARLSNRLSHIQRNVQKLKDTVKKLGESGEIKAIGELDLLFMSLRNACI-RLDKSNFQQPYITNRTFMLAKEASLADNNTDVRLIGEKLFHGVSMSERCYLMKQVLNFTLEEVLFPQSDRFQPYMQEVVPFLARLSNRLSHIQRNVQKLKDTVKKLGESGEIKAIGELDLLFMSLRNACI-RLDKSNFQQPYITNRTFMLAKEASLADNNTDVRLIGEKLFHGVSMSERCYLMKQVLNFTLEEVLFPQSDRFQPYMQEVVPFLARLSNRLSHIQRNVQKLKDTVKKLGESGEIKAIGELDLLFMSLRNACI-RLDKSNFQQPYITNRTFMLAKEASLADNNTDVRLIGEKLFHGVSMSERCYLMKQVLNFTLEEVLFPQSDRFQPYMQEVVPFLARLSNRLSHIQRNVQKLKDTVKKLGESGEIKAIGELDLLFMSLRNACI-RLDKSNFQQPYITNRTFMLAKEASLADNNTDVRLIGEKLFHGVSMSERCYLMKQVLNFTLEEVLFPQSDRFQPYMQEVVPFLARLSNRLSHIQRNVQKLKDTVKKLGESGEIKAIGELDLLFMSLRNACI-RLDKSNFQQPYITNRTFMLAKEASLADNNTDVRLIGEKLFHGVSMSERCYLMKQVLNFTLEEVLFPQSDRFQPYMQEVVPFLARLSNRLSHIQRNVQKLKDTVKKLGESGEIKAIGELDLLFMSLRNACI-RLDKSNFQQPYITNRTFMLAKEASLADNNTDVRLIGEKLFHGVSMSERCYLMKQVLNFTLEEVLFPQSDRFQPYMQEVVPFLARLSNRLSHIQRNVQKLKDTVKKLGESGEIKAIGELDLLFMSLRNACI-RLDKSNFQQPYITNRTFMLAKEASLADNNTDVRLIGEKLFHGVSMSERCYLMKQVLNFTLEEVLFPQSDRFQPYMQEVVPFLARLSNRLSHIQRNVQKLKDTVKKLGESGEIKAIGELDLLFMSLRNACI,PPPPPFRPAP-PPPPPYYPEP-APRPRVYPRP-PPPPWFDPEP-PPPPLVYPEP-PPPPLVVPEP-PPPPRVIPSP-PPPPVEVPEP-PPPPPEDPVP-PPPPRVVPEP,SMTPRFTPWW-SMTPRFTPWW-SMTPRFTPWW-SMTPRFTPWW-SMTPRFTPWW-SMTPRFTPWW-SMTPRFTPWW-SMTPRFTPWW-SMTPRFTPWW-SMTPRFTPWW
17.0,23,33,B,10,MDNFEPSNVRIKCVNYHVILQWEPGPSVNKTFNVQYRKKGDAQWKNDHQCNGTTALSCDLTAKMMDIRQDYYGRVTATANGVTSKWSYTLVTRPYDDCIISPPTLKKSNGKYTLTLPDLPYDNVANKTQTNAQFYELEFEVWKNGQLVYKGQTTYSGSSVTARVVQPALNQSSSWS-MPNFKPENVRVKCENYHSTLEWDPGPKKDRTYHVEWRKYGDKEWKVDRRCNGTTKLSCDLTDKMRDIKAPYYGRVRAEADGKKSDWAYTDVHIPWEDCKISPPTLKVKDGKYTLTLPELPVDSYPNKTKSSADYYELEYEVWKDGKLVYSGKKDSKDKKVTARVKDPARNKTSGWS-MDSKTPTNVKIECVNYYSILEWDPGASGTQTYDVYYRKRGDTSWTVNTTCNGTTATKCDLTSQMNDIKADYYGRVRANTNGTYSSWSATNVFTPFKNCTISPPTLTVSGNNYTCTLPNLPYDNIPGRTTTVAAYYQLDFEVYKNGTLVYSGTTSTSSATYSARVKDPVRNYNSSWS-MPDFRPTNTRIQCKNYFAILQFDPGANVDQTYEVQYRKFGDKNWTTDNNCNGTTALSCDLTKQMLDIKANYLGRVKSVANGVYSDWSSTDVFTPYIDCIVSPPTLTIQNGQATCTLPDLIHNNIPNKTQTVAEYYELDFEIYENGNLVFSGKTNAKNVTYTARIYQPSLNKYSEWS-MDDFRPERTRIVCTNYHCILTWEPGENVQRQFEVQYRKVGDSEWHTDHGCNGTTKNSCDLTDKMMEINTDYEGRVRSRANGIYSGWSSTIRFTPHTNCKIDPPTLVVTPPLYTCYLPNLPSDNIPNKTKSIAEQYKLEFEVYQNGTLIYSGTKSSGTANVTARVKDPVRNIYSSWS-KDEFRPTRTRVECVNYHSILQWEPGEAAEATYHVQWRRKGDEAWHNDWRCNGTTALSCDLTEQMMEIRADYLGRVSREEAGVYSEWSTTRIFRPYEACEFSPPTLRVEPGRYTLLLPDMPEDDVPGKEESVAEFYELDFEVWRDGRLVYKGKESVADAEVVARVVHPRLDRSSPWS-MPDFRPTNVRILCENYHCILEWEPGGQSPRTFEAQYRKAGDKTWKDDTACNGSTALSCDLTDKMYDIKAPYYGRVKAVADGVASAWAWTDVFVPYQDCKISPPTLTTSNGQYTCTLPELPEDSRPNKDKTVAEFYELQVEVWKNGVLVYSGTTNTTDTTVTARVVRTDLNKTSAWS-ADEFLPKNVRIQCVNYHNILQWEPGEGAEKTYEVQYRVRGDTEWKEDTNCNGTKALSCDLTEKMRDIKACYYGRVRAVENGKYSAWSTTKIFSPWEDCIFSPPTLQKSDNEYTCKLPDVIQDDVEKKKTTVAEFLNLEYEIYQNNKLIYRGKTTTTNKTYTARVVDTVRNKTSDWS-DNDDNPTNTAISCVNYHAILQWDPGENEEKTYKVQYRRKGDSEWKDDTDCNGTTENYCDLTDQMKEIRADYYGRVSSESNGKESGWASTEVFRPFENCKISPPTLTISDGVYTCTLPDVIQDKVPGKSKTVAEYYQLQFQVMKDGKVIYKGDTSAKNAEVTARVVDPERNRSSAWS-MESFRPTDVKVECTNYHSILTWKPGREVPMTYEVEYRAYGQKDWKKDEACNGTSDLSCDLTEKMMDIKQNYYGRVRAVADGVKSEWSETSIHVPAEDCKISPPTLKVDDNKATVTLPEVPYNNKPGKKLTVAEYYELDFVVYRDGKEVYRGKNTTSNASYTARVLRPSLNKESEWS,HESLKPQRVQFQSRNFHNILQWQPGRANSSVYFVQYKIYGQRQWKNKEDCWGTQELSCDLTSETSDIQEPYYGRVRAASAGSYSEWSMTPRFTPWWETKIDPPVMNITQLLVILHAPNLPYRYQKEKNVSIEDYYELLYRVFIIEQKVYEGAHRAVEYCVVAEIYQPMLDRRSQRS-HESLKPQRVQFQSRNFHNILQWQPGRANSSVYFVQYKIYGQRQWKNKEDCWGTQELSCDLTSETSDIQEPYYGRVRAASAGSYSEWSMTPRFTPWWETKIDPPVMNITQLLVILHAPNLPYRYQKEKNVSIEDYYELLYRVFIIEQKVYEGAHRAVEYCVVAEIYQPMLDRRSQRS-HESLKPQRVQFQSRNFHNILQWQPGRANSSVYFVQYKIYGQRQWKNKEDCWGTQELSCDLTSETSDIQEPYYGRVRAASAGSYSEWSMTPRFTPWWETKIDPPVMNITQLLVILHAPNLPYRYQKEKNVSIEDYYELLYRVFIIEQKVYEGAHRAVEYCVVAEIYQPMLDRRSQRS-HESLKPQRVQFQSRNFHNILQWQPGRANSSVYFVQYKIYGQRQWKNKEDCWGTQELSCDLTSETSDIQEPYYGRVRAASAGSYSEWSMTPRFTPWWETKIDPPVMNITQLLVILHAPNLPYRYQKEKNVSIEDYYELLYRVFIIEQKVYEGAHRAVEYCVVAEIYQPMLDRRSQRS-HESLKPQRVQFQSRNFHNILQWQPGRANSSVYFVQYKIYGQRQWKNKEDCWGTQELSCDLTSETSDIQEPYYGRVRAASAGSYSEWSMTPRFTPWWETKIDPPVMNITQLLVILHAPNLPYRYQKEKNVSIEDYYELLYRVFIIEQKVYEGAHRAVEYCVVAEIYQPMLDRRSQRS-HESLKPQRVQFQSRNFHNILQWQPGRANSSVYFVQYKIYGQRQWKNKEDCWGTQELSCDLTSETSDIQEPYYGRVRAASAGSYSEWSMTPRFTPWWETKIDPPVMNITQLLVILHAPNLPYRYQKEKNVSIEDYYELLYRVFIIEQKVYEGAHRAVEYCVVAEIYQPMLDRRSQRS-HESLKPQRVQFQSRNFHNILQWQPGRANSSVYFVQYKIYGQRQWKNKEDCWGTQELSCDLTSETSDIQEPYYGRVRAASAGSYSEWSMTPRFTPWWETKIDPPVMNITQLLVILHAPNLPYRYQKEKNVSIEDYYELLYRVFIIEQKVYEGAHRAVEYCVVAEIYQPMLDRRSQRS-HESLKPQRVQFQSRNFHNILQWQPGRANSSVYFVQYKIYGQRQWKNKEDCWGTQELSCDLTSETSDIQEPYYGRVRAASAGSYSEWSMTPRFTPWWETKIDPPVMNITQLLVILHAPNLPYRYQKEKNVSIEDYYELLYRVFIIEQKVYEGAHRAVEYCVVAEIYQPMLDRRSQRS-HESLKPQRVQFQSRNFHNILQWQPGRANSSVYFVQYKIYGQRQWKNKEDCWGTQELSCDLTSETSDIQEPYYGRVRAASAGSYSEWSMTPRFTPWWETKIDPPVMNITQLLVILHAPNLPYRYQKEKNVSIEDYYELLYRVFIIEQKVYEGAHRAVEYCVVAEIYQPMLDRRSQRS-HESLKPQRVQFQSRNFHNILQWQPGRANSSVYFVQYKIYGQRQWKNKEDCWGTQELSCDLTSETSDIQEPYYGRVRAASAGSYSEWSMTPRFTPWWETKIDPPVMNITQLLVILHAPNLPYRYQKEKNVSIEDYYELLYRVFIIEQKVYEGAHRAVEYCVVAEIYQPMLDRRSQRS,TGTTGTTGTT-KAKKADYKKG-WSSNTSWTSG-QSTDTTYKVF-ADKDINWKIG-DAVDDRWWRR-ETDTVDRTTG-CSTDKNFKNC-EKKRTDYTKY-AITDKNYKKK,SLADNNTDVR-SLADNNTDVR-SLADNNTDVR-SLADNNTDVR-SLADNNTDVR-SLADNNTDVR-SLADNNTDVR-SLADNNTDVR-SLADNNTDVR-SLADNNTDVR
