contacts,cs,ce,Chain,Length,designed_receptor_seq,native_receptor_seq,designed_binder_seq,native_binder_seq
14.0,86,96,A,10,SLPPEFFQDPEVRRAAYELARLASSRDTRRDVVLIGEELFEGVSEEERCELMRRVLRFWLEEVARPRRGEYQPYMERVVPWLERAAEELEGLEENVERVRETVRRLGEEGVVRAVGEVWRLYDALRRACC-MLPKEFFEDPEVRRAAYELARLASERYRRRDVVLIGEELFEGVSREERCELMRRVLRFWLEEVARPNRGRYQPYMERVVPWLERAAEELEGLEENVERVRETVRRLGEEGRVLAVGEVWRLYRALEEACC-MLSKEFFEDPEVREAAFRMAREASRRVRRRDVVLIGEELFEGVSREERCELMRRVLRFWLEEVARPNRGRYQPYMERVVPWLERAAEELEGLEENVERVREEVERLGEEGRLLAVGEVWRLYRALEEACC-MLSKEFFEDPEVRRAAYELAREASRRVTRRDVVLIDDSLFEGVSEEERCELMRRVLEFWLEEVARPNRGRYQPYMERVVPWLERAAEELEGLEENVERVRETVRRLGEEGVELAVGEVWRLYDALRRACC-MLPASFFEDPEVRRAAFELARLASERDTRRDVVLIGEELFEGVSEAERPELMRRVLRFWLEEVARPRRGEFQPYMARVVPWLERAAEELEGLEENVERVRETVRRLGEEGVVRAVGEVWRLYEALREATT-MLPREFFEDPEVRRAAYELARLASERYTRRDVVLIGEELFEGVSEEERCELMRRVLRFWLEEVARPRRGEFQPYMERVVPWLERAAEELEGLEENVERVRETVRRLGEEGVVLAVGEVWRLYRALEEACC-MLPASFFEDPEVRRAAYELARLASERDTRRDVVLIDESLFEGVSEEERPELMRRVLRFWLEEVARPRRGEFQPWMERVVPWLERAAEELEGLEENVERVREEVERLGEEGVRRAVGEVWELYRALREATT-MLPESFFQDPEVRRAAYELARLASERDTRRDVVLIGEELFEGVSREERCELMRRVLRFWLEEVARPRRGEFQPWMERVVPWLERAAEELEGLEERVERVREEVERLGEEGVVRAVGEVWELWRALEEACC-MLPREFFEDPEVRRAAYEMARLASERYTRRDVVLIDERLFEGVSREERCELMRRVLRFWLEEVARPRRGEFQPYMERVVPWLERAAEELEGLEENVERVRETVRRLGEEGVVLAVGEVWRLYEALREACC-MLPESFFEDPEVRRAAYELARLASSRVTRRDVVLIGEELFEGVSEEERCELMRRVLRFWLEEVARPRRGEFQPWMERVVPWLEEAARRLEGLEENVERVRETVRRLGEEGVLLAVGEVWELYRALREACC,RLDKSNFQQPYITNRTFMLAKEASLADNNTDVRLIGEKLFHGVSMSERCYLMKQVLNFTLEEVLFPQSDRFQPYMQEVVPFLARLSNRLSHIQRNVQKLKDTVKKLGESGEIKAIGELDLLFMSLRNACI-RLDKSNFQQPYITNRTFMLAKEASLADNNTDVRLIGEKLFHGVSMSERCYLMKQVLNFTLEEVLFPQSDRFQPYMQEVVPFLARLSNRLSHIQRNVQKLKDTVKKLGESGEIKAIGELDLLFMSLRNACI-RLDKSNFQQPYITNRTFMLAKEASLADNNTDVRLIGEKLFHGVSMSERCYLMKQVLNFTLEEVLFPQSDRFQPYMQEVVPFLARLSNRLSHIQRNVQKLKDTVKKLGESGEIKAIGELDLLFMSLRNACI-RLDKSNFQQPYITNRTFMLAKEASLADNNTDVRLIGEKLFHGVSMSERCYLMKQVLNFTLEEVLFPQSDRFQPYMQEVVPFLARLSNRLSHIQRNVQKLKDTVKKLGESGEIKAIGELDLLFMSLRNACI-RLDKSNFQQPYITNRTFMLAKEASLADNNTDVRLIGEKLFHGVSMSERCYLMKQVLNFTLEEVLFPQSDRFQPYMQEVVPFLARLSNRLSHIQRNVQKLKDTVKKLGESGEIKAIGELDLLFMSLRNACI-RLDKSNFQQPYITNRTFMLAKEASLADNNTDVRLIGEKLFHGVSMSERCYLMKQVLNFTLEEVLFPQSDRFQPYMQEVVPFLARLSNRLSHIQRNVQKLKDTVKKLGESGEIKAIGELDLLFMSLRNACI-RLDKSNFQQPYITNRTFMLAKEASLADNNTDVRLIGEKLFHGVSMSERCYLMKQVLNFTLEEVLFPQSDRFQPYMQEVVPFLARLSNRLSHIQRNVQKLKDTVKKLGESGEIKAIGELDLLFMSLRNACI-RLDKSNFQQPYITNRTFMLAKEASLADNNTDVRLIGEKLFHGVSMSERCYLMKQVLNFTLEEVLFPQSDRFQPYMQEVVPFLARLSNRLSHIQRNVQKLKDTVKKLGESGEIKAIGELDLLFMSLRNACI-RLDKSNFQQPYITNRTFMLAKEASLADNNTDVRLIGEKLFHGVSMSERCYLMKQVLNFTLEEVLFPQSDRFQPYMQEVVPFLARLSNRLSHIQRNVQKLKDTVKKLGESGEIKAIGELDLLFMSLRNACI-RLDKSNFQQPYITNRTFMLAKEASLADNNTDVRLIGEKLFHGVSMSERCYLMKQVLNFTLEEVLFPQSDRFQPYMQEVVPFLARLSNRLSHIQRNVQKLKDTVKKLGESGEIKAIGELDLLFMSLRNACI,EEEEEEEPEP-EEEEEEEPEP-EEEEEEEPEP-EEEEEEEPEP-PPPPRVVPEP-EEEEEEEPEP-EPPPREVPEP-EEEEEEEPEP-EEEEEEEPEP-EEEEEEEPEP,SMTPRFTPWW-SMTPRFTPWW-SMTPRFTPWW-SMTPRFTPWW-SMTPRFTPWW-SMTPRFTPWW-SMTPRFTPWW-SMTPRFTPWW-SMTPRFTPWW-SMTPRFTPWW
17.0,23,33,B,10,MDTFKPTNTRIECVNYHSILQWDPGPGEDKTYDVEYRKRGDKEWKKDTACNGTTALSCDLTEQMNDIKADYYGRVRATANGVKSDWSYTDVFTPYKDCKISPPTLTVSNNKYTLTLPDLPYDKKPNKTKTVAEYYDLEFEVYKNGKLVYKGTTSTTDATYTARVVDPKRNKTSDWS-MDTTKPTNTRIICVNYHSILEWDPGTSGTKTYHVEYRKYGDTTWHTDTACNGTTATSCDLTAQMNDIKAYYYGRVRAEENGVYSDWSYTDRFNPWEACTISPPTLTVSGNTYTLTLPDLPYDNKPNKTKTVAEYYNLDFEVYKNGTLVYSGTTSTTSDTYTARVVDPVRNKTSSWS-EDEFKPTNVRIECVNYHSILKWDPGPGEEKTYEVEYRKYGDKEWKKDEACNGTKELSCDLTDKMKDIKAKYYGRVRAVANGKASEWSYTDVFTPWDDCKISPPTLEVKDGKYTCTLPDLPYDKKPDKKKTVAEYYDLEFEVIKDGKVVYKGTKSTKDAKYTARVVDPKRKKTSEWS-MDTFKPTNTRIECVNYHSILKWDPGPGEDKTYEVEYRKYGDKEWKKDEACNGTKALSCDLTEQMKDIKAKYYGRVRAVANGKASDWSYTDVFTPWEDCKISPPTLEVKDNKYTCTLPDLPYDKKPDKKETVAEYYNLEFEVIKDGKVVYKGTKSTDDAKYTARVVDPERNKSSEWS-MDTTKPTNTRIECVNYHSILKWDPGPGTDKTYHVQYRKYGDTEWKDDTACNGTTALSCDLTAQMNDIKAYYYGRVKAEANGVESDWSYTDRFNPYEACKISPPTLTVSGNTYTLTLPDLPYDNKPNKTKTVAEYYNLQYEVWKDGKLIYSGTTSTTDATVTARVVDPVRNKTSDWS-MDDFKPTNTRIECVNYHSILKWDPGPGTNKTYHVQYRKYGDKEWKDDKACNGTTKLECDLTDQMKDIKAKYYGRVKAEANGVESDWSYTDVFVPYDDCKISPPTLEVKDGKYTCTLPDLPYDKKPNKKETVAEYYDLQFEVYKDGKLVYKGTKSTKDAKVTARVVDPKRKKSSEWS-MDDFKPTNTRIECVNYHSILKWDPGPGGDKTYHVEYRKRGDKEWKKDTACDGTTALSCDLTDKMRDIKADYYGRVKAEVNGKESDWSYTDVFTPYKDCKISPPTLEVKDGKYTCTLPDLPYDKKPDKKKTVAEYYDLEFEVYKDGKLVYKGTKSTKDAKVTARVVDPKLNKTSDWS-EDEFKPTNTRIECVNYHSILKWDPGPGEEKTYHVEYRKYGDKEWKKDEACNGTKELSCDLTEQMKDIKAKYYGRVRAEANGKKSEWSYTDVFVPYEDCKISPPTLEVKDGKYTCKLPDLPYDKKPEKKETVAEYYDLEFEIWKDGKLVYKGKKSTKDAKYTARVVDPKRKKTSEWS-MDTFKPTNTRIECVNYHSILTWDPGPGTNKTYHVQYRKRGDTKWHNDTACNGTTALSCDLTAQMNDIKADYYGRVTAEANGVKSDWSYTDVFTPYKDCKISPPTLTVSNGKYTCTLPDLPYDNKPNKTKTVAEYYNLQFEVWKNGKLVYSGTTSTTDATYTARVVDPVRNKTSAWS-MDTFKPTNTRIECVNYHSILRWDPGPGEDKTYEVEYRKYGDTEWKKDTACNGTTALSCDLTDKMKDIKADYYGRVRAVANGVYSDWSYTDVFTPWKDCKISPPTLTVSGNKYTLTLPDLPYDKKPNKTKTVAEYYNLEFEVYKNGKLVYKGTTTTTDATYTARVVDPERNYSSSWS,HESLKPQRVQFQSRNFHNILQWQPGRANSSVYFVQYKIYGQRQWKNKEDCWGTQELSCDLTSETSDIQEPYYGRVRAASAGSYSEWSMTPRFTPWWETKIDPPVMNITQLLVILHAPNLPYRYQKEKNVSIEDYYELLYRVFIIEQKVYEGAHRAVEYCVVAEIYQPMLDRRSQRS-HESLKPQRVQFQSRNFHNILQWQPGRANSSVYFVQYKIYGQRQWKNKEDCWGTQELSCDLTSETSDIQEPYYGRVRAASAGSYSEWSMTPRFTPWWETKIDPPVMNITQLLVILHAPNLPYRYQKEKNVSIEDYYELLYRVFIIEQKVYEGAHRAVEYCVVAEIYQPMLDRRSQRS-HESLKPQRVQFQSRNFHNILQWQPGRANSSVYFVQYKIYGQRQWKNKEDCWGTQELSCDLTSETSDIQEPYYGRVRAASAGSYSEWSMTPRFTPWWETKIDPPVMNITQLLVILHAPNLPYRYQKEKNVSIEDYYELLYRVFIIEQKVYEGAHRAVEYCVVAEIYQPMLDRRSQRS-HESLKPQRVQFQSRNFHNILQWQPGRANSSVYFVQYKIYGQRQWKNKEDCWGTQELSCDLTSETSDIQEPYYGRVRAASAGSYSEWSMTPRFTPWWETKIDPPVMNITQLLVILHAPNLPYRYQKEKNVSIEDYYELLYRVFIIEQKVYEGAHRAVEYCVVAEIYQPMLDRRSQRS-HESLKPQRVQFQSRNFHNILQWQPGRANSSVYFVQYKIYGQRQWKNKEDCWGTQELSCDLTSETSDIQEPYYGRVRAASAGSYSEWSMTPRFTPWWETKIDPPVMNITQLLVILHAPNLPYRYQKEKNVSIEDYYELLYRVFIIEQKVYEGAHRAVEYCVVAEIYQPMLDRRSQRS-HESLKPQRVQFQSRNFHNILQWQPGRANSSVYFVQYKIYGQRQWKNKEDCWGTQELSCDLTSETSDIQEPYYGRVRAASAGSYSEWSMTPRFTPWWETKIDPPVMNITQLLVILHAPNLPYRYQKEKNVSIEDYYELLYRVFIIEQKVYEGAHRAVEYCVVAEIYQPMLDRRSQRS-HESLKPQRVQFQSRNFHNILQWQPGRANSSVYFVQYKIYGQRQWKNKEDCWGTQELSCDLTSETSDIQEPYYGRVRAASAGSYSEWSMTPRFTPWWETKIDPPVMNITQLLVILHAPNLPYRYQKEKNVSIEDYYELLYRVFIIEQKVYEGAHRAVEYCVVAEIYQPMLDRRSQRS-HESLKPQRVQFQSRNFHNILQWQPGRANSSVYFVQYKIYGQRQWKNKEDCWGTQELSCDLTSETSDIQEPYYGRVRAASAGSYSEWSMTPRFTPWWETKIDPPVMNITQLLVILHAPNLPYRYQKEKNVSIEDYYELLYRVFIIEQKVYEGAHRAVEYCVVAEIYQPMLDRRSQRS-HESLKPQRVQFQSRNFHNILQWQPGRANSSVYFVQYKIYGQRQWKNKEDCWGTQELSCDLTSETSDIQEPYYGRVRAASAGSYSEWSMTPRFTPWWETKIDPPVMNITQLLVILHAPNLPYRYQKEKNVSIEDYYELLYRVFIIEQKVYEGAHRAVEYCVVAEIYQPMLDRRSQRS-HESLKPQRVQFQSRNFHNILQWQPGRANSSVYFVQYKIYGQRQWKNKEDCWGTQELSCDLTSETSDIQEPYYGRVRAASAGSYSEWSMTPRFTPWWETKIDPPVMNITQLLVILHAPNLPYRYQKEKNVSIEDYYELLYRVFIIEQKVYEGAHRAVEYCVVAEIYQPMLDRRSQRS,ATATATATTG-TTTTTTYTTG-KKKDKKWEKK-DKKDKKWWDG-TTTTTTYTTG-KKKKKKYEKG-AKKDKKWWKG-EKKEEKWWEG-TTTTTTYTTG-TTTTTTYTTG,SLADNNTDVR-SLADNNTDVR-SLADNNTDVR-SLADNNTDVR-SLADNNTDVR-SLADNNTDVR-SLADNNTDVR-SLADNNTDVR-SLADNNTDVR-SLADNNTDVR
