contacts,cs,ce,Chain,Length,designed_receptor_seq,native_receptor_seq,designed_binder_seq,native_binder_seq
39.0,23,33,A,10,GSHMDEEFYYKDEYVDSTKPEELEKLYEKCRNDILNGKMPVSFEDACKFGGYGCQIEFGPCKEDVHKPGFLKLEDYLPKKYVDREGAEEKIFEYHKKQGNKSKIEAMVEYVLLARSLKTYGVTFFEVEKKKKGKNEWVPRLFGVSKTSVMFVDPETCDVLWTAPLSQLKRWAYSPTTFTLDFGDHRKELFTVRTTQGKEISELIKGNIEKLVEKKKK-GSHMDEEFYYKDEYVDSTKPEELEKQYQKCRNDILNGKMPVSFEDACKFGGYLCQIRFGPCKEDIHKPGFLKLEDYLPKKYVNRKGAEEKIFEYHKKCGNMSKIEAMVKFVLLAHSLPTYGVTFFEVEKKAKGKNEWVPRLFGVSKTSVMFVDPETCDVLWTAPLSQLKRFGYSPTSFTLDFGEHRKELFTVRTTQGEKIANLIKGNIEVLKQKKEK-GSDPFTEFYYKDEYVDSTKPEELEKLYEKCRNDILNGKMPVSFEDACKFGGYLCQIKFGPCKEDIHKPGFLKLEDYLPKKYVNRKGAEEKIFEYHKKQGNMSKIEAMVKFVLLAHSLPTYGVTFFEVEKKAKGKNEWVPRLFGVSKTSVMFVDPETCDVLWTAPLTQLKRFGYSPTTFTLDFGDHRKELFTVRTTQGKEIANLIKGNIEKLVEKKKE-GSHMDEEFYYKDEYVDSTKPEELEKLYEKCRNDILNGKMPVSFEDACKFGGYGCQIKFGPCKEDIHKPGFLKLEDYLPKKYVNRKGAEEKIFEYHKKQGNMSKIEAMVRFVLLAHSLKTYGVTFFEVEKKAKGKNEWVPRLFGVSETSVMFVDPETCDVLWTAPLSQLKRWGYSPTTFTLDFGEHRDKLFTVRTTQGKEISELIKGNIEKLVQKKKK-GSHMDEEFYYKDEYVDSTKPEELEKQYEKCRNDILNGKMPVSFEDACKFGGYLCQIRFGPCKEDVHKPGFLKLEDYLPKKYVNRKGAEEKIFEHHKKQGDMSKTEAMVKFVLLAHSLETYGVTFFEVEKKAKGKNEWVPRLFGVSKTSVMFVDPETCDVLWTAPLTQLKRWGYSPTTFTLDFGEHRKELFTVKTTQGKEISNLIKGNIKKLEEEKKK-GSHMDEEFYYKDEYVDSTKPEELEKQYEKCRNDILNGKMPVSFEDACKFGGYGCQIRFGPCKEDIHKPGFLKLEDYLPKKYVNRKGAEEKIFEYHKKQGNMSKTEAMVKFVLLAHSLETYGVTFFEVEKKAKGKDEWVPRLFGVSEDSVMFVDPETCDVLWTAPLTQLKRWAYSPTTFTLDFGDYQDKLFTVRTTKGKEISELIKGNIEKLVEKKKK-GSHMDEEFYYKDEYVDSTKPEELEKLYEKCRNDILNGKMPVSFEDACKFGGYGCQIKFGPCKEDIHKPGFLKLEDYLPKKYVNRKGAEEKIFEYHKKQGNMSKIEAMVKYVLLAHSLKTYGVTFFEVEKKAKGKDEWVPRLFGVSKTSVMFVDPETCDVLWTAPLTQLKRFGYSPTTFTLDFGDYQKELFTVRTTKGKEIAELIKGNIKKLEEKKKK-GSHMDEEFYYKDEFVDSTKPEELEKQYEKCRNDILNGKMPVSFEDACKFGGYGCQIKFGPCKEDIHKPGFLKLEDYLPKKYVNVKGAEEKIFEHHKKQGNMSKIEAMVKFVLLAHSLPTYGVTFFEVEKKKKGKDEWVPRLFGVSKTSVMFVDPETCDVLWTAPLTQLKRWGYSPTTFTLDFGEHRKELFTVKTTRGKEISELIKGNIEKLVEKKKK-GSHMDTEFYYKDEYVDSTKPEELEKLYEKCRNDILNGKMPVSFEDACKFGGYGCQIKFGPCKEDIHKPGFLKLEDYLPKKYVNKKGAEEKIFEYHKKQGNMSKIEAMVKFVLLAHSLETYGVTFFEVEKKKKGKDEWVPRLFGVSKTSVMFVDPETCDVLWTAPLSQLKRFGYSPSSFTLDFGEHQKELFTVKTTKGKEIANLIKGNIKKLEEKKKK-GSHMEEEFFYKDEYVDSTKPEELEKQYEKCRNDILNGKMPVSFEDACKFGGYLCQIRFGPCKEDIHKPGFLKLEDYLPKKYVNRKGAEEKIFEYHKKQGNMSKIEAMVKFVLLAHSLKTYGVTFFEVEKKAKGKNEWVPRLFGVSKTSVMFVDPETCDVLWTAPLSQLKRFAYSPSTFTLDFGEHQKKLFTVRTTEGKKIANLIKGNIEKLVEKKKK,GIDPFTKFFYSDQNVDSRDPVQLNLLYVQARDDILNGSHPVSFEKACEFGGFQAQIQFGPHVEHKHKPGFLDLKEFLPKEYIKQRGAEKRIFQEHKNCGEMSEIEAKVKYVKLARSLRTYGVSFFLVKEKMKGKNKLVPRLLGITKDSVMRVDEKTKEVLQEWPLTTVKRWAASPKSFTLDFGEYQESYYSVQTTEGEQISQLIAGYIDIILKKKQS-GIDPFTKFFYSDQNVDSRDPVQLNLLYVQARDDILNGSHPVSFEKACEFGGFQAQIQFGPHVEHKHKPGFLDLKEFLPKEYIKQRGAEKRIFQEHKNCGEMSEIEAKVKYVKLARSLRTYGVSFFLVKEKMKGKNKLVPRLLGITKDSVMRVDEKTKEVLQEWPLTTVKRWAASPKSFTLDFGEYQESYYSVQTTEGEQISQLIAGYIDIILKKKQS-GIDPFTKFFYSDQNVDSRDPVQLNLLYVQARDDILNGSHPVSFEKACEFGGFQAQIQFGPHVEHKHKPGFLDLKEFLPKEYIKQRGAEKRIFQEHKNCGEMSEIEAKVKYVKLARSLRTYGVSFFLVKEKMKGKNKLVPRLLGITKDSVMRVDEKTKEVLQEWPLTTVKRWAASPKSFTLDFGEYQESYYSVQTTEGEQISQLIAGYIDIILKKKQS-GIDPFTKFFYSDQNVDSRDPVQLNLLYVQARDDILNGSHPVSFEKACEFGGFQAQIQFGPHVEHKHKPGFLDLKEFLPKEYIKQRGAEKRIFQEHKNCGEMSEIEAKVKYVKLARSLRTYGVSFFLVKEKMKGKNKLVPRLLGITKDSVMRVDEKTKEVLQEWPLTTVKRWAASPKSFTLDFGEYQESYYSVQTTEGEQISQLIAGYIDIILKKKQS-GIDPFTKFFYSDQNVDSRDPVQLNLLYVQARDDILNGSHPVSFEKACEFGGFQAQIQFGPHVEHKHKPGFLDLKEFLPKEYIKQRGAEKRIFQEHKNCGEMSEIEAKVKYVKLARSLRTYGVSFFLVKEKMKGKNKLVPRLLGITKDSVMRVDEKTKEVLQEWPLTTVKRWAASPKSFTLDFGEYQESYYSVQTTEGEQISQLIAGYIDIILKKKQS-GIDPFTKFFYSDQNVDSRDPVQLNLLYVQARDDILNGSHPVSFEKACEFGGFQAQIQFGPHVEHKHKPGFLDLKEFLPKEYIKQRGAEKRIFQEHKNCGEMSEIEAKVKYVKLARSLRTYGVSFFLVKEKMKGKNKLVPRLLGITKDSVMRVDEKTKEVLQEWPLTTVKRWAASPKSFTLDFGEYQESYYSVQTTEGEQISQLIAGYIDIILKKKQS-GIDPFTKFFYSDQNVDSRDPVQLNLLYVQARDDILNGSHPVSFEKACEFGGFQAQIQFGPHVEHKHKPGFLDLKEFLPKEYIKQRGAEKRIFQEHKNCGEMSEIEAKVKYVKLARSLRTYGVSFFLVKEKMKGKNKLVPRLLGITKDSVMRVDEKTKEVLQEWPLTTVKRWAASPKSFTLDFGEYQESYYSVQTTEGEQISQLIAGYIDIILKKKQS-GIDPFTKFFYSDQNVDSRDPVQLNLLYVQARDDILNGSHPVSFEKACEFGGFQAQIQFGPHVEHKHKPGFLDLKEFLPKEYIKQRGAEKRIFQEHKNCGEMSEIEAKVKYVKLARSLRTYGVSFFLVKEKMKGKNKLVPRLLGITKDSVMRVDEKTKEVLQEWPLTTVKRWAASPKSFTLDFGEYQESYYSVQTTEGEQISQLIAGYIDIILKKKQS-GIDPFTKFFYSDQNVDSRDPVQLNLLYVQARDDILNGSHPVSFEKACEFGGFQAQIQFGPHVEHKHKPGFLDLKEFLPKEYIKQRGAEKRIFQEHKNCGEMSEIEAKVKYVKLARSLRTYGVSFFLVKEKMKGKNKLVPRLLGITKDSVMRVDEKTKEVLQEWPLTTVKRWAASPKSFTLDFGEYQESYYSVQTTEGEQISQLIAGYIDIILKKKQS-GIDPFTKFFYSDQNVDSRDPVQLNLLYVQARDDILNGSHPVSFEKACEFGGFQAQIQFGPHVEHKHKPGFLDLKEFLPKEYIKQRGAEKRIFQEHKNCGEMSEIEAKVKYVKLARSLRTYGVSFFLVKEKMKGKNKLVPRLLGITKDSVMRVDEKTKEVLQEWPLTTVKRWAASPKSFTLDFGEYQESYYSVQTTEGEQISQLIAGYIDIILKKKQS,ATWELEENPI-LTWELEENPI-LKWEMEENPI-LEWELEENPI-LTWEMEENPI-AEWEMEENPI-LEWELEENPI-LTWEMEENPI-LEWEMEENPI-ATWEMEENPI,AKWDTQENPI-AKWDTQENPI-AKWDTQENPI-AKWDTQENPI-AKWDTQENPI-AKWDTQENPI-AKWDTQENPI-AKWDTQENPI-AKWDTQENPI-AKWDTQENPI
36.0,164,174,B,10,GSSGSSAAKNELEKAKFEIEKLNAKWKMEENPNYKEKSEG-GSHMEEKKRLEEEKRRFEEEKKNAVFKMEENPIYKEKENG-GSHMEELKRLEEEKRRFEEEKKNAVWKMEENPIYKEKENG-GSHMEEKKRLEEEKARFEEEKKNAVWKMEENPNYKDKENG-GSHMEELKRLEEERARFEEEKKNAVWKMEENPIYKEKENG-GPLGSLLEKNLKEKADFEKEKKNAVWKMEENPNYKAKEDG-GSHMEEKKRLEEEKRRFEEEKKNAVWKMEENPNYKEKENG-GSHMEELKRLEEEKRKFEEEKKNAVFLMEENPNYKEKENG-GSHMEELKRLEEEKARFEEEKKNAVWKMEENPIYKEKENG-GSSGSSAAAAEKAKADFEKAKKDAVFKMDENPNYKAKEDG,GPKLLMIIHDRREFAKFEKEKMNAKWDTQENPIYKSPINN-GPKLLMIIHDRREFAKFEKEKMNAKWDTQENPIYKSPINN-GPKLLMIIHDRREFAKFEKEKMNAKWDTQENPIYKSPINN-GPKLLMIIHDRREFAKFEKEKMNAKWDTQENPIYKSPINN-GPKLLMIIHDRREFAKFEKEKMNAKWDTQENPIYKSPINN-GPKLLMIIHDRREFAKFEKEKMNAKWDTQENPIYKSPINN-GPKLLMIIHDRREFAKFEKEKMNAKWDTQENPIYKSPINN-GPKLLMIIHDRREFAKFEKEKMNAKWDTQENPIYKSPINN-GPKLLMIIHDRREFAKFEKEKMNAKWDTQENPIYKSPINN-GPKLLMIIHDRREFAKFEKEKMNAKWDTQENPIYKSPINN,PTKIIRWATK-PENILRWAEK-PTKILRWAVK-PTKILRWAEK-PENILRWAEK-PTKIVRWAEK-PENIIRWAEK-PTKILRWAVK-PTKVLRWAEK-PDEVVRWAEK,LTTVKRWAAS-LTTVKRWAAS-LTTVKRWAAS-LTTVKRWAAS-LTTVKRWAAS-LTTVKRWAAS-LTTVKRWAAS-LTTVKRWAAS-LTTVKRWAAS-LTTVKRWAAS
