contacts,cs,ce,Chain,Length,designed_receptor_seq,native_receptor_seq,designed_binder_seq,native_binder_seq
32.0,55,65,A,10,MMINLDKLWEEYLQAVKKQDGNGETEKWREEEETEFASRLVNQTLMNHRSSTKSVISSQTRNAIFKYVEDKLQLPLNEKGRKSSMGRFLRSNPIFNESVKENCGARNDPNFVQNCKRGLEKRVKEKLFEQNFNTVKAKEITHITMEAIKHYE-MSIDYRLLWNKLEEYIQQQDEEGSTSRWFSEELLTFTSSAVNHTLIRYCTRNRKRITEKTVETIFYAVEEELNLPLDLKGEICSLGNFLIENQTFNNAVWESAGDVNDPIAIARLKENLVKEVKYALFEEQFLCARILEINQITEQAIAKFV-LEIDYGQLWREILKEASTQDAQGNVQRWWHEELMMQVSQRVGMTLKSYQKSTGTKIDIATVNKIFMRVSDELGIPLDCLGQRSSLGRFLNVNPTFNSAVNTAAGAQNDPDYVQKLRNNLVAKVEMQLFEKNFKVAKGNEITKITQKAIETIV-MNIDLGKLWEELVEHVKKHSSDGDVSEFRKQELEEFTSLIVNHEINLFMRRNGKVISSGTIDSIYKAVEKALGLPLNKMGTISAIGGFLKHNKTFNKAVAAFAGEEQSPSVVKNLKSRLVEHVSRQLYEENFNHVSTKEIKKITQEAIKEHV-MNIDFKLLWEQILEKVKIHSSQGETSDWRKQELKQRVSNTVNMTLQGYEYKNDATISMAVKEQIFNDVELALKLPLDYQGARSSLGCFLKKNPIFNEEVEKRAGNIEDEGVLSRLKDDEIRRVSGMLFEMNYKITKEKQILEITQKAIDKHY-AEIDAQELMNAIWSKVKEQNLNGNIERWKQQETVEFISREVNYTIQRYQRASRKKISENNVNAIFEEVKANLKQPLNNAGNQSSLGNFLHVNPVFNAVVAKEAGTRQDPQFVMNLKLNLIDTVRILLFEQHFTTVKVAEVEKITKQAIAKYD-MEIDLNLLWNEYLEEVKKHYWDGSTDAWRQQEHTEYVSMAVNRELRDYTLENKAYIEEEQRQVIYDSVERALDLPLDEHGKVSSLGRFLRDNPIFNKMVEETAGDQNDPAAVRFLEENLIVNTYQRLYEDNFTAAALTDIKAITQKAIQEHV-LCVDTGQLWDEIRDRAKTLSYDGNTEELDRQEEQEFVSMTVNRRLQEYMEVNSASISSETKDEIFKEVQQALDLPLNNTGMISWYGRFLDTNELFNEAVFAKSGSNFDPQNIANLQQGLIIDIMALGFESNRQQILIAEVNEITDQAIEKYA-ININLNELWDNFKTRQRTLDNNGETGDWAIEELIMATSMMVNQTLQNYQKSTGQIISYETINQIFDDVETRLTIPLDKKGSLSSLGNFLQSDPLFNQFVEAQVGEDNSPQAVAMMESGLVTQISGKLFEENFQVATLDEIILITSEAITQIA-MNIDLGKLWNSFVNKVMTQFENGSVFKWKEEQMTMFVSSKVNMTLFNYMASNGAAISNETKTEIFNMVQIELNLPLNMRGADSSLKRFLKADPEFNKVVIENAGNEKTIVKIANLGEGLRKKISNELFEENFNEVKFEEITSITKEAIEKIV,FVINHGKLTNQLLQAVAKQTRNGDTQQWFQQEQTTYISRTVNRTLDDYCRSNNSVISKETKGHIFRAVENALQQPLDMNGAQSSIGHFLQSNKYFNQKVDEQCGKRVDPITRFNTQTKMIEQVSQEIFERNFSGFKVSEIKAITQNAILEHV-FVINHGKLTNQLLQAVAKQTRNGDTQQWFQQEQTTYISRTVNRTLDDYCRSNNSVISKETKGHIFRAVENALQQPLDMNGAQSSIGHFLQSNKYFNQKVDEQCGKRVDPITRFNTQTKMIEQVSQEIFERNFSGFKVSEIKAITQNAILEHV-FVINHGKLTNQLLQAVAKQTRNGDTQQWFQQEQTTYISRTVNRTLDDYCRSNNSVISKETKGHIFRAVENALQQPLDMNGAQSSIGHFLQSNKYFNQKVDEQCGKRVDPITRFNTQTKMIEQVSQEIFERNFSGFKVSEIKAITQNAILEHV-FVINHGKLTNQLLQAVAKQTRNGDTQQWFQQEQTTYISRTVNRTLDDYCRSNNSVISKETKGHIFRAVENALQQPLDMNGAQSSIGHFLQSNKYFNQKVDEQCGKRVDPITRFNTQTKMIEQVSQEIFERNFSGFKVSEIKAITQNAILEHV-FVINHGKLTNQLLQAVAKQTRNGDTQQWFQQEQTTYISRTVNRTLDDYCRSNNSVISKETKGHIFRAVENALQQPLDMNGAQSSIGHFLQSNKYFNQKVDEQCGKRVDPITRFNTQTKMIEQVSQEIFERNFSGFKVSEIKAITQNAILEHV-FVINHGKLTNQLLQAVAKQTRNGDTQQWFQQEQTTYISRTVNRTLDDYCRSNNSVISKETKGHIFRAVENALQQPLDMNGAQSSIGHFLQSNKYFNQKVDEQCGKRVDPITRFNTQTKMIEQVSQEIFERNFSGFKVSEIKAITQNAILEHV-FVINHGKLTNQLLQAVAKQTRNGDTQQWFQQEQTTYISRTVNRTLDDYCRSNNSVISKETKGHIFRAVENALQQPLDMNGAQSSIGHFLQSNKYFNQKVDEQCGKRVDPITRFNTQTKMIEQVSQEIFERNFSGFKVSEIKAITQNAILEHV-FVINHGKLTNQLLQAVAKQTRNGDTQQWFQQEQTTYISRTVNRTLDDYCRSNNSVISKETKGHIFRAVENALQQPLDMNGAQSSIGHFLQSNKYFNQKVDEQCGKRVDPITRFNTQTKMIEQVSQEIFERNFSGFKVSEIKAITQNAILEHV-FVINHGKLTNQLLQAVAKQTRNGDTQQWFQQEQTTYISRTVNRTLDDYCRSNNSVISKETKGHIFRAVENALQQPLDMNGAQSSIGHFLQSNKYFNQKVDEQCGKRVDPITRFNTQTKMIEQVSQEIFERNFSGFKVSEIKAITQNAILEHV-FVINHGKLTNQLLQAVAKQTRNGDTQQWFQQEQTTYISRTVNRTLDDYCRSNNSVISKETKGHIFRAVENALQQPLDMNGAQSSIGHFLQSNKYFNQKVDEQCGKRVDPITRFNTQTKMIEQVSQEIFERNFSGFKVSEIKAITQNAILEHV,ATKLTQLIPM-TTKRNWLKPM-QDNYSALQPF-LNLYQALQPL-VEDLCWLKPM-ARNLFALVPF-ITEHTTLRPH-VRNLVWLQPM-LFQRPNLLPF-NLNNLWLAPM,QEDYDRLRPL-QEDYDRLRPL-QEDYDRLRPL-QEDYDRLRPL-QEDYDRLRPL-QEDYDRLRPL-QEDYDRLRPL-QEDYDRLRPL-QEDYDRLRPL-QEDYDRLRPL
30.0,80,90,B,10,LEIKCVVVGNGAVGKSCLLISYTTDAFPGEFFDMYSRTMELDGKPYTLALWDTAGQEDYDRLRPLSYPKTDVFLVCFSLISPASFENVRNKWVPEITHHCPMTPFLLCGNQCDLRDDPVVRDRLAGLQLRPISPEQARALARDMNAVDYVECSALTHQGLEEVFEKAIRAALS-ATIKCVVVGDGAVGKTSLLMSYTNDGYPGSVFENYSTEMMQDGVPYTLGLWDTAGQEDYDRLRPLSYPQTDVFLVCFSLVSPSSFRNVSEKWVPELSHHCPNTPFLLVGTQVDLRKDPSVRAQLEEFQFQPITPEEGELLAKELNAKKYVECSALTQQGLSTVFQSAIQAALN-MVIKCVVVGDGAVGKTCLLISYTSNLFPTVFDNFNSREIEINGKPYILGLWDTAGQEEYDRLRPLSYPKTDVFLVCFSVVSPVSFQNVEEKWVPEITHYCPNTPYLLVGTQLDLRFDPTEIEKLEELDLRPITPAEAQQLARKINAMEYVECSALTNENLNYVFEKAIQGALK-QEIKCVVVGDGAVGKTCLLMAYTSDAYPGEFFDNYCVTKNIGGQPYQLGLFDTAGQEEYSALRPFCYPKTNVFLVCFSLVSPRSFANVKRTWVPEITHHCPDTPFLLVGTQIDLREDPDTVARLALFDALPISPEEAQTLAEEVNATRYVECSALTQRGLFQLFDEALDAALR-MGIKCVVVGDGGVGKTSLLVSYTSDLYPTVFVDNYATTVMLGGKPYTLGLWDTAGQEDYDRLIPLSYPQTDVFLVCFSVVSPTSFHHVERKWVPEIKHYCPSTPYLLVGTQIDLRQDPATIESLQQRKLEPVTPEAAKTLADRISAQKYLECSALTQQGLAHLFTAAIEAALR-MAIKCVVVGDGAVGKTCLLISYTKNMFPTLFDNFSTKEISLGGKPHVLGLWDTAGQEDYDRLRPLCYPQTNVFLVCFSLVSPASFENVRNKWVPEIQHYCPKTPFLLVGTKRDLRDDPAVRAKLAEHNLEPVTPEKAQKLADECNAREYLECSALTRENLNELFYSAIKAALD-WVIKCVVVGDGAVGKTCLLIAYTTEGVPGVTFENYAVSVELDGKPYKLSLWDTAGQEDFDRLRPLSYPQTDVFLVCFSLVSPSSFDNVKEKWVPEITHYCPETPYLLVGTQIDLREDPEIVEKLETFKEKPITPEKANKLAEDIKAVKYVECSGLTRKNLRNLFYEAIKAALL-MAIKCVVVGDGAVGKTCLLMSYTQDEFPGAFVPTKATTVKREGQPYVLGLVDTAGQEDYDRLRPLFYPQTDVFLVCFSIVSPDSFSNVEKKWVPEIKHFCPKTPFLLVGTKMDLRDDPSTRENLARAGLTPITPEKANELAKKIGARQYVECSAKTQDNLAEVFDAAIRAATD-EKIKCVVVGDGAVGKTCLLVSYTNDAFPTVFVDTYVVTVDIGGIPYQLALWDTSGQEDYDRLRPLSYPQTDVFLVCFSLVSPSSFDNVKKKWVPEIRHYCPDTPFLLVGTQKDMRQDPNSQELLKGQQQLPVTPEEGETLAKEVKASKYLECSALTRENLQEVFEQAILEALA-MAIKCVVVGDGAVGKTCLLLSYTKEVFPGEFVMEYTRQVEQDGVPYTLTLVDTAGQDEYDRLVPLAFPNTDVFLVCFSVVSPASFENVKRKWVPLIKHHCPKTPFLLVGTQKDLRDDPETVKNLSGKNQRPITPEKAEALAADIQAQQYVECSALTKDGLQKTFRLAIIAALN,QTIKCVVVGDGAVGKTCLLISYTTNEYVPTVFDNYAVTVMIGGEPYTLGLFDTAGQEDYDRLRPLSYPQTDVFLVCFSVVSPSSFENVKEKWVPEITHHCPKTPFLLVGTQIDLRDDPSTIEKLAKNKQKPITPETAEKLARDLKAVKYVECSALTQKGLKNVFDEAILAALE-QTIKCVVVGDGAVGKTCLLISYTTNEYVPTVFDNYAVTVMIGGEPYTLGLFDTAGQEDYDRLRPLSYPQTDVFLVCFSVVSPSSFENVKEKWVPEITHHCPKTPFLLVGTQIDLRDDPSTIEKLAKNKQKPITPETAEKLARDLKAVKYVECSALTQKGLKNVFDEAILAALE-QTIKCVVVGDGAVGKTCLLISYTTNEYVPTVFDNYAVTVMIGGEPYTLGLFDTAGQEDYDRLRPLSYPQTDVFLVCFSVVSPSSFENVKEKWVPEITHHCPKTPFLLVGTQIDLRDDPSTIEKLAKNKQKPITPETAEKLARDLKAVKYVECSALTQKGLKNVFDEAILAALE-QTIKCVVVGDGAVGKTCLLISYTTNEYVPTVFDNYAVTVMIGGEPYTLGLFDTAGQEDYDRLRPLSYPQTDVFLVCFSVVSPSSFENVKEKWVPEITHHCPKTPFLLVGTQIDLRDDPSTIEKLAKNKQKPITPETAEKLARDLKAVKYVECSALTQKGLKNVFDEAILAALE-QTIKCVVVGDGAVGKTCLLISYTTNEYVPTVFDNYAVTVMIGGEPYTLGLFDTAGQEDYDRLRPLSYPQTDVFLVCFSVVSPSSFENVKEKWVPEITHHCPKTPFLLVGTQIDLRDDPSTIEKLAKNKQKPITPETAEKLARDLKAVKYVECSALTQKGLKNVFDEAILAALE-QTIKCVVVGDGAVGKTCLLISYTTNEYVPTVFDNYAVTVMIGGEPYTLGLFDTAGQEDYDRLRPLSYPQTDVFLVCFSVVSPSSFENVKEKWVPEITHHCPKTPFLLVGTQIDLRDDPSTIEKLAKNKQKPITPETAEKLARDLKAVKYVECSALTQKGLKNVFDEAILAALE-QTIKCVVVGDGAVGKTCLLISYTTNEYVPTVFDNYAVTVMIGGEPYTLGLFDTAGQEDYDRLRPLSYPQTDVFLVCFSVVSPSSFENVKEKWVPEITHHCPKTPFLLVGTQIDLRDDPSTIEKLAKNKQKPITPETAEKLARDLKAVKYVECSALTQKGLKNVFDEAILAALE-QTIKCVVVGDGAVGKTCLLISYTTNEYVPTVFDNYAVTVMIGGEPYTLGLFDTAGQEDYDRLRPLSYPQTDVFLVCFSVVSPSSFENVKEKWVPEITHHCPKTPFLLVGTQIDLRDDPSTIEKLAKNKQKPITPETAEKLARDLKAVKYVECSALTQKGLKNVFDEAILAALE-QTIKCVVVGDGAVGKTCLLISYTTNEYVPTVFDNYAVTVMIGGEPYTLGLFDTAGQEDYDRLRPLSYPQTDVFLVCFSVVSPSSFENVKEKWVPEITHHCPKTPFLLVGTQIDLRDDPSTIEKLAKNKQKPITPETAEKLARDLKAVKYVECSALTQKGLKNVFDEAILAALE-QTIKCVVVGDGAVGKTCLLISYTTNEYVPTVFDNYAVTVMIGGEPYTLGLFDTAGQEDYDRLRPLSYPQTDVFLVCFSVVSPSSFENVKEKWVPEITHHCPKTPFLLVGTQIDLRDDPSTIEKLAKNKQKPITPETAEKLARDLKAVKYVECSALTQKGLKNVFDEAILAALE,KETPAGLAAL-LTPEEEAAQR-SINPQELGSW-EQNELELEAA-VTKPTELKKL-FDNPACLAKR-PQNPFIWGNR-SRLLEYHRKL-PVKPIDWYKR-MLDPALTRRR,AQSSIGHFLQ-AQSSIGHFLQ-AQSSIGHFLQ-AQSSIGHFLQ-AQSSIGHFLQ-AQSSIGHFLQ-AQSSIGHFLQ-AQSSIGHFLQ-AQSSIGHFLQ-AQSSIGHFLQ
