contacts,cs,ce,Chain,Length,designed_receptor_seq,native_receptor_seq,designed_binder_seq,native_binder_seq
27.0,51,61,A,10,MELEKLKAELEAKVAELEAKVAELEAKVAELEAKVAELEAKVAELEAKAAELEAKAAELEAKVAELEAKVAELEAKVAELEAKVAELEAK-AELEALRAELEARVAELEARVAELEARVAELEARVAELEARVAELEARAAELEARAAELEARVAELEARVAELEARVAELEARVAELEAR-AELEALRAELEARVAELEARVAELEARVAELEARVAELEARVAELEARAAELEARAAELEARVAELEARVAELEARVAELEARVAELEAR-AELEKLRAELEAKVAELEAKVAELEAKVAELEAKVAELEAKVAELEAKAAELEAKAAELEKKLAELEAKVAELEKKVAELEKKVAELEKK-MAEEERRRREEERRRREEERRREEERRREEERRREEERRREEERRREEARRRYEEARRRREEEERRREEERRREEERRREEERRREEERR-AELEKLRAELEAKVAELEAKVAELEAKVAELEAKVAELEAKAAELEAKAAELEKKAAELEKKLAELEAKVAELEKKVAELEKKVAELEKK-AEAEAARARLEAEVAALEAEVAALEAEVAALEAEVAALEAEAAAAAAGAEAARAAAEAARARLEAEAAALEAEAARLEAEVARLEAEVAR-AELEKLRAELEAKVAELEAKVAELEAKVAELEAKVAELEAKVAELEAKAAELEKKAAELEKKLAELEAKVAELEKKVAELEKKVAELEKK-AEAEAARAAAEARRAEAEARRAEAEARRAEAEARRAEAEARRAEAEARAAEAARAAEARRREEEARRAEAEARRAEAEARRAEAEARRAE-AELEKLRAELEAKVAELEAKVAELEAKVAELEAKVAELEAKAAELEAKAAELEAKAAELEKKLAELEAKVAELEKKVAELEKKVAELEKK,GSHMRRLQQTQAQVDEVVDIMRVNVDKVLERDQKLSELDDRADALQAGASQFETSAAKLKRKYWWKNLKMMIILGVICAIILIIIIVYFS-GSHMRRLQQTQAQVDEVVDIMRVNVDKVLERDQKLSELDDRADALQAGASQFETSAAKLKRKYWWKNLKMMIILGVICAIILIIIIVYFS-GSHMRRLQQTQAQVDEVVDIMRVNVDKVLERDQKLSELDDRADALQAGASQFETSAAKLKRKYWWKNLKMMIILGVICAIILIIIIVYFS-GSHMRRLQQTQAQVDEVVDIMRVNVDKVLERDQKLSELDDRADALQAGASQFETSAAKLKRKYWWKNLKMMIILGVICAIILIIIIVYFS-GSHMRRLQQTQAQVDEVVDIMRVNVDKVLERDQKLSELDDRADALQAGASQFETSAAKLKRKYWWKNLKMMIILGVICAIILIIIIVYFS-GSHMRRLQQTQAQVDEVVDIMRVNVDKVLERDQKLSELDDRADALQAGASQFETSAAKLKRKYWWKNLKMMIILGVICAIILIIIIVYFS-GSHMRRLQQTQAQVDEVVDIMRVNVDKVLERDQKLSELDDRADALQAGASQFETSAAKLKRKYWWKNLKMMIILGVICAIILIIIIVYFS-GSHMRRLQQTQAQVDEVVDIMRVNVDKVLERDQKLSELDDRADALQAGASQFETSAAKLKRKYWWKNLKMMIILGVICAIILIIIIVYFS-GSHMRRLQQTQAQVDEVVDIMRVNVDKVLERDQKLSELDDRADALQAGASQFETSAAKLKRKYWWKNLKMMIILGVICAIILIIIIVYFS-GSHMRRLQQTQAQVDEVVDIMRVNVDKVLERDQKLSELDDRADALQAGASQFETSAAKLKRKYWWKNLKMMIILGVICAIILIIIIVYFS,LAAKAAELAA-LAARLEARAA-LAARLEARAA-LAKKYAELAK-EARRYEEEAR-LAKKYAELAK-EAARLEAEAA-LAKKYAELAK-RAAEAAARAA-LAKKYAELAK,HAVDYVERAV-HAVDYVERAV-HAVDYVERAV-HAVDYVERAV-HAVDYVERAV-HAVDYVERAV-HAVDYVERAV-HAVDYVERAV-HAVDYVERAV-HAVDYVERAV
27.0,54,64,B,10,GSHMAAVLAGEVAGLEARVGALEARVAALEARVAALEARGAALEARVAGLEARVAALEAAVAALEAAVAALEARVAALEARVAALEARVAALEARVGAL-GSHMAAVLAGRVAGLEAEVGALEARVAELEARVAALEARGAELERRVAELERRVAELERAVAALEEAVRRLEERVRELERLLEELRRLGEELRRLEEEG-GSHMAAVLAGQLAGLEAALGAGEAALAAGEAALAAAAAAGEAALAAAAGAAEGAAAAAEAAAALAEAAAALAAAEAALGAAEAALAAAEAALAAEAAAA-GSHMAAVLAGQVAGLEARVGALEARVAELEARVAALEARGAALEARVAGLEARVAALEAAVAALEAAVAALEARVAALEARVAELEARVAELEARVAAL-GSHMAAVLAGEVAGLEARVGALEARVAALEARVAALEARGAALEARVAGLEARVAALEAALAALEAALAALEARVAALEARVAALEARVAALEARVAAL-GSHMAAVLAGRVAGLEAEVGALEARVAELEARVAALEARGAELERRVAGLEARVAELERALAALEEALAALEARVAELEARVAELEARVAELEARVAEL-GSHMAAVLAGEVAGLEARVGALEARVAALEARVAALEARGAALEARVAGLEARVAALEAALAALEAALAALEARVAALEARVAELEARVAALEARVGAL-GSHMAAILAGQLAGLEAEVGALEARVAELEARVAELEARGAELEARVAELEARVAELEAAVAALEAAVAALEARVAELEARVAELEARVAELEARVAEL-GSHMAEVLAGLEAGLEAARGALEAARAALEAARAALEAAGAALEAARAGLEAARAALEAARAALEAARAALEAARAALEAARAALEAARAALEAARAAL-GSHMAAVLAGRLAGLEAERGALEAERARLEAERARLEAEGARLEEERARLEEERARLEEARAALEEARRRLEERLRELERLREELRRLGEELRRLEEEG,SKQALSEIETRHSEIIKLENSIRELHDMFMDMAMLVESQGEMIDRIEYNVEHAVDYVERAVSDTKKAVKYQSKARRKKIMIIICCVILGIIIASTIGGI-SKQALSEIETRHSEIIKLENSIRELHDMFMDMAMLVESQGEMIDRIEYNVEHAVDYVERAVSDTKKAVKYQSKARRKKIMIIICCVILGIIIASTIGGI-SKQALSEIETRHSEIIKLENSIRELHDMFMDMAMLVESQGEMIDRIEYNVEHAVDYVERAVSDTKKAVKYQSKARRKKIMIIICCVILGIIIASTIGGI-SKQALSEIETRHSEIIKLENSIRELHDMFMDMAMLVESQGEMIDRIEYNVEHAVDYVERAVSDTKKAVKYQSKARRKKIMIIICCVILGIIIASTIGGI-SKQALSEIETRHSEIIKLENSIRELHDMFMDMAMLVESQGEMIDRIEYNVEHAVDYVERAVSDTKKAVKYQSKARRKKIMIIICCVILGIIIASTIGGI-SKQALSEIETRHSEIIKLENSIRELHDMFMDMAMLVESQGEMIDRIEYNVEHAVDYVERAVSDTKKAVKYQSKARRKKIMIIICCVILGIIIASTIGGI-SKQALSEIETRHSEIIKLENSIRELHDMFMDMAMLVESQGEMIDRIEYNVEHAVDYVERAVSDTKKAVKYQSKARRKKIMIIICCVILGIIIASTIGGI-SKQALSEIETRHSEIIKLENSIRELHDMFMDMAMLVESQGEMIDRIEYNVEHAVDYVERAVSDTKKAVKYQSKARRKKIMIIICCVILGIIIASTIGGI-SKQALSEIETRHSEIIKLENSIRELHDMFMDMAMLVESQGEMIDRIEYNVEHAVDYVERAVSDTKKAVKYQSKARRKKIMIIICCVILGIIIASTIGGI-SKQALSEIETRHSEIIKLENSIRELHDMFMDMAMLVESQGEMIDRIEYNVEHAVDYVERAVSDTKKAVKYQSKARRKKIMIIICCVILGIIIASTIGGI,VGALEARVAG-EGLLRLLEEL-AGAAAAAAAA-VGELEARVAG-VGALEARVAG-VAELEARVAG-VGALEARVAG-VAELEARVAE-RGALEAARAA-PPPPPLEEAR,SAAKLKRKYW-SAAKLKRKYW-SAAKLKRKYW-SAAKLKRKYW-SAAKLKRKYW-SAAKLKRKYW-SAAKLKRKYW-SAAKLKRKYW-SAAKLKRKYW-SAAKLKRKYW
