contacts,cs,ce,Chain,Length,designed_receptor_seq,native_receptor_seq,designed_binder_seq,native_binder_seq
29.0,20,30,A,10,ALCPVCLRGRMVKGVRDLPFAYKGQSTVLRRVEGEWCVECSEARMDRGQAVAFMEQVNAFRAEVDRRRRT-MKCPICKKGELVKGIKDVPYSYKGSSTVLKNIEGEWCTVCNEGLMNKEQSENYMRQVNDFKSKVDKMVVG-MKCPVCHKGEMKQGVKDLPFTYKGYSTVLKDIKGDWCTECDEGKMNLEQSVAFMEQVNAFKAEVDGKLDF-MKCPVCHQGDLVEGLRDVPYSYRGKSTVLKDIKGLWCTVCDEGIMNEGEAVAYMQQVNAFKGEVDGMKVT-MKCPICQKGELKAGVKDVPYSYKGRSTVLKDVQGDWCTECSEGRMNAEQSVAFMQQVNAFKAEVDAMVVE-MKCPVCEKGELVEGVKDLPFEYKGRETVLKDVKGLWCTECQEGMMNLEQSVAFMEQVNAFRTEVDAQEVP-GLCPVCHIGKMVAGVRDLPYRYKGASTVLKNVKGDWCTECSEGKMDAVESVLYMRQVMAFMEKVDKKSVD-MKCPICKKGEMVEGIKDIPFSYKGHETTLKNIKGLWCTVCSEAMMDYEESKNFMDQVNAFKAEVDAMEVP-GKCPLCKKGVMVKGIRDVPYSYKGQSTVLKNIDGLWCTVCDEGQMDRIQSEAFMAQVNAFKAKVDGMKVE-SRCPVCHKGEMVKGVKDLPFSYKGRSTTLKNIEGEWCTECSEARMNLRQSVAFMQQVNDFKSEVDKEEVP,MKCPVCHQGEMVSGIKDIPYTFRGRKTVLKGIHGLYCVHCEESIMNKEESDAFMAQVKAFRASVNAETVA-MKCPVCHQGEMVSGIKDIPYTFRGRKTVLKGIHGLYCVHCEESIMNKEESDAFMAQVKAFRASVNAETVA-MKCPVCHQGEMVSGIKDIPYTFRGRKTVLKGIHGLYCVHCEESIMNKEESDAFMAQVKAFRASVNAETVA-MKCPVCHQGEMVSGIKDIPYTFRGRKTVLKGIHGLYCVHCEESIMNKEESDAFMAQVKAFRASVNAETVA-MKCPVCHQGEMVSGIKDIPYTFRGRKTVLKGIHGLYCVHCEESIMNKEESDAFMAQVKAFRASVNAETVA-MKCPVCHQGEMVSGIKDIPYTFRGRKTVLKGIHGLYCVHCEESIMNKEESDAFMAQVKAFRASVNAETVA-MKCPVCHQGEMVSGIKDIPYTFRGRKTVLKGIHGLYCVHCEESIMNKEESDAFMAQVKAFRASVNAETVA-MKCPVCHQGEMVSGIKDIPYTFRGRKTVLKGIHGLYCVHCEESIMNKEESDAFMAQVKAFRASVNAETVA-MKCPVCHQGEMVSGIKDIPYTFRGRKTVLKGIHGLYCVHCEESIMNKEESDAFMAQVKAFRASVNAETVA-MKCPVCHQGEMVSGIKDIPYTFRGRKTVLKGIHGLYCVHCEESIMNKEESDAFMAQVKAFRASVNAETVA,RESRTLAALL-SYRVSIEELE-SFSVTISDLL-EKAFTLADLE-EEERTLSELM-AVMVTLKELL-PVDVTLAALS-LIRVTLMDLM-DRSWTLTDLM-KISVTIAELM,QVRTTRSALL-QVRTTRSALL-QVRTTRSALL-QVRTTRSALL-QVRTTRSALL-QVRTTRSALL-QVRTTRSALL-QVRTTRSALL-QVRTTRSALL-QVRTTRSALL
27.0,41,51,B,10,GSTMTPHTALERVKELVGAGRVRVTAEALRGAAELGLDFDGICRVITGLSESDFVESKTTKAAPERWTDVYAPALEAGTVELGLTVQDDVLEVSFMK-GSMDVPHTALEKVKELVNAGRVRVSVACLEEAKKKGLDFDGICKVITGLSDDDFVKSKTSKEHPDLWWDQYEPKLSSGTISLQMLVSHDVLEVSFSK-GSMATPNTALERVKELVNNGQVKVSRECLESAKKLGLDFDGICKVVTGLSEDDFVESFTTEKEPDDWFDMYAPKLETGTVYLQMLVKNDVLNVSFAK-MEADSPNTALARVKELVNAGKVKVSKACLSEAAKLGLDFDGICRVVTGLDNSDFVKSKTSVRNPSKWVDVYSPELGAGTVLLGMEVDKDILNVTFAE-METRTPHTALERVKELVGAGRVKVSLKALEHAATLGLDFDGICRVIVGLGEEDFVRTKTTASNPKRWTDVYAPTLEQGTVYLEMTVENDVLKVDFAE-METSTPHTALDRVKALVNGGKVRVSADCLAEAAKMGLDFDGICRVITGLGDDDFVKSETTADWPADWTDIYEPVLDAGTVRLELLVESDVLWASFAD-MERSTPSTELEHIKQLVNNGQVEVSVRALEEAKKYGLDFDGICRVINGLSESDFVKSKTSLKDPEDWKDIYAPILDSGTIFLEMTVKDDVLRVDFAK-MERSTPHTELSRVKLLVNSGRVKVSTEALKDAAKLGLDFDGICNVITGLSEDDFVKSKTSSKHPSVWRDVYAPTLETGTVLLEMTVKEDVLHVDFAK-MEKSVPNTDLKVIKRLVGEGKVQVTKRALEGAKKFGLDFDGICRVVTGLSESDFLKSKTTEKDPEVWWDQYTPRLKQGEIALEMCVEKDVLKVRFAK-MRTTTPNTDLSRIKELVNNGQVRVSVDALKEADKLGLDFDGIKEVITGLKESDFVVSKTTEKFPEIWWDQYSPKLDAGEVDLEMCVVDDVLEVSFAK,MEKRTPHTRLSQVKKLVNAGQVRTTRSALLNADELGLDFDGMCNVIIGLSESDFYKSMTTYSDHTIWQDVYRPRLVTGQVYLKITVIHDVLIVSFKE-MEKRTPHTRLSQVKKLVNAGQVRTTRSALLNADELGLDFDGMCNVIIGLSESDFYKSMTTYSDHTIWQDVYRPRLVTGQVYLKITVIHDVLIVSFKE-MEKRTPHTRLSQVKKLVNAGQVRTTRSALLNADELGLDFDGMCNVIIGLSESDFYKSMTTYSDHTIWQDVYRPRLVTGQVYLKITVIHDVLIVSFKE-MEKRTPHTRLSQVKKLVNAGQVRTTRSALLNADELGLDFDGMCNVIIGLSESDFYKSMTTYSDHTIWQDVYRPRLVTGQVYLKITVIHDVLIVSFKE-MEKRTPHTRLSQVKKLVNAGQVRTTRSALLNADELGLDFDGMCNVIIGLSESDFYKSMTTYSDHTIWQDVYRPRLVTGQVYLKITVIHDVLIVSFKE-MEKRTPHTRLSQVKKLVNAGQVRTTRSALLNADELGLDFDGMCNVIIGLSESDFYKSMTTYSDHTIWQDVYRPRLVTGQVYLKITVIHDVLIVSFKE-MEKRTPHTRLSQVKKLVNAGQVRTTRSALLNADELGLDFDGMCNVIIGLSESDFYKSMTTYSDHTIWQDVYRPRLVTGQVYLKITVIHDVLIVSFKE-MEKRTPHTRLSQVKKLVNAGQVRTTRSALLNADELGLDFDGMCNVIIGLSESDFYKSMTTYSDHTIWQDVYRPRLVTGQVYLKITVIHDVLIVSFKE-MEKRTPHTRLSQVKKLVNAGQVRTTRSALLNADELGLDFDGMCNVIIGLSESDFYKSMTTYSDHTIWQDVYRPRLVTGQVYLKITVIHDVLIVSFKE-MEKRTPHTRLSQVKKLVNAGQVRTTRSALLNADELGLDFDGMCNVIIGLSESDFYKSMTTYSDHTIWQDVYRPRLVTGQVYLKITVIHDVLIVSFKE,EGWLDRAAAA-GGWVDREAAS-GEWVDKAAAN-GSWLDKAAAE-GGWVGREEAR-GEWLGREEAA-DGWVDREAAL-GGWVARAAAA-GEWVNRELAK-DGWVDKDEAK,ESIMNKEESD-ESIMNKEESD-ESIMNKEESD-ESIMNKEESD-ESIMNKEESD-ESIMNKEESD-ESIMNKEESD-ESIMNKEESD-ESIMNKEESD-ESIMNKEESD
