contacts,cs,ce,Chain,Length,designed_receptor_seq,native_receptor_seq,designed_binder_seq,native_binder_seq
11.0,32,42,A,10,EDDEVPECPEVCWEEPGVTEGVTEDGTPVRLLGEDPETGEERRQVVHVCRCESERPTPEGCIGHDAERWESVCRTVYEYVEMLVERGEEREWARVRVPSSCECVPRPKPP-EEEEEPECPEVCWEEPNITEGVTEDGTPVRLLGSDPSSGRRRRQVVHVCECESERPTPEGCIGHDASRWRSRCEVVYEYVEMLVERGDERRWERVRVPSSCRCVPSPKPP-EDDEEPECPEVCWEEPGITEGVTEDGTPVRLLGEDPETGEEEEQVVHVCECESERPTPEGCIGHDAERFESVCEVVYEYVEMLVRRGDEERWERVRVPSSCRCRLRPKPP-EDEEEPVCPERCWEEPGVTEGVTEDGTPVRLLGPDPRRGERRRQVVHVCECESERPTPEGCLGHDASRWRSRCEVVYRYVRMRVRRGDREEWARVRVPASCRCVPEPKPP-EDDEVPECPEVCWEEPGVTEAVTEDGTPVRLLGEDPETGEERRQVVHVCECESERPTPEGCIGHDAERYESVCRTVYRYVRMRVRRGDEERWERVRVPASCECVLRPKPP-EDDEVPQCPEVCWEEPGVTEGVTEDGTPVRLLGPDPRSGRRRRQVVHKCECESERPTPEGCIGHDAERWESVCRVVYTYVRLLVRRGDREEWARVRVPSSCRCEPRPKPP-EEEEEPQCPEVCWEEPNVTEGVTEDGTPVRLLGSSPLLGVRRRQVVHKCECESERPTPEGCIGHDSSRFESRCETVYEYVEMLVRRGEEERWERVRVPSRCECRLRPKPP-EEEEEPECPEVCWEEPNITEGVTEDGTPVRLLGRDPETGEERRQVVHVCECESERPTPEGCIGHDAERFESVCRTVYEYVEMLVERGEERRWERVRVPSSCRCELRPKPP-EDEEEPQCPEVCWEEPGLTEGVTEDGTPVRLLGPDPETGEEEEQVVHVCECESERPTPEGCIGHDAERWESVCRTVYTTVSLLVRRGDEERWERVRVPSSCECVPRPKPP-EDEEEPECPEVCWEEPGVTEGVTEDGTPVRLLGPDPETGEEEEQVVHVCECESERPTPEGCIGHDAERFESVCEVVYEYVEMLVRRGDEERWERVRVPSSCRCRLRPKPP,HMGEFSVCDSVSVWVGDKTTATDIKGKEVTVLAEVNINNSVFRQYFFETKCRASNPVESGCRGIDSKHWNSYCTTTHTFVKALTTDEKQAAWRFIRIDTACVCVLSRKAT-HMGEFSVCDSVSVWVGDKTTATDIKGKEVTVLAEVNINNSVFRQYFFETKCRASNPVESGCRGIDSKHWNSYCTTTHTFVKALTTDEKQAAWRFIRIDTACVCVLSRKAT-HMGEFSVCDSVSVWVGDKTTATDIKGKEVTVLAEVNINNSVFRQYFFETKCRASNPVESGCRGIDSKHWNSYCTTTHTFVKALTTDEKQAAWRFIRIDTACVCVLSRKAT-HMGEFSVCDSVSVWVGDKTTATDIKGKEVTVLAEVNINNSVFRQYFFETKCRASNPVESGCRGIDSKHWNSYCTTTHTFVKALTTDEKQAAWRFIRIDTACVCVLSRKAT-HMGEFSVCDSVSVWVGDKTTATDIKGKEVTVLAEVNINNSVFRQYFFETKCRASNPVESGCRGIDSKHWNSYCTTTHTFVKALTTDEKQAAWRFIRIDTACVCVLSRKAT-HMGEFSVCDSVSVWVGDKTTATDIKGKEVTVLAEVNINNSVFRQYFFETKCRASNPVESGCRGIDSKHWNSYCTTTHTFVKALTTDEKQAAWRFIRIDTACVCVLSRKAT-HMGEFSVCDSVSVWVGDKTTATDIKGKEVTVLAEVNINNSVFRQYFFETKCRASNPVESGCRGIDSKHWNSYCTTTHTFVKALTTDEKQAAWRFIRIDTACVCVLSRKAT-HMGEFSVCDSVSVWVGDKTTATDIKGKEVTVLAEVNINNSVFRQYFFETKCRASNPVESGCRGIDSKHWNSYCTTTHTFVKALTTDEKQAAWRFIRIDTACVCVLSRKAT-HMGEFSVCDSVSVWVGDKTTATDIKGKEVTVLAEVNINNSVFRQYFFETKCRASNPVESGCRGIDSKHWNSYCTTTHTFVKALTTDEKQAAWRFIRIDTACVCVLSRKAT-HMGEFSVCDSVSVWVGDKTTATDIKGKEVTVLAEVNINNSVFRQYFFETKCRASNPVESGCRGIDSKHWNSYCTTTHTFVKALTTDEKQAAWRFIRIDTACVCVLSRKAT,PPPPPPPPPP-PPPPPPPPPP-PPPPPPPPPP-PPPPPPPPPP-PPPPPPPPPP-PPPPPPPPPP-PPPPPPPPPP-PPPPPPPPPP-PPPPPPPPPP-PPPPPPPPPP,TVCEPCLDSV-TVCEPCLDSV-TVCEPCLDSV-TVCEPCLDSV-TVCEPCLDSV-TVCEPCLDSV-TVCEPCLDSV-TVCEPCLDSV-TVCEPCLDSV-TVCEPCLDSV
13.0,35,45,B,10,EECESGVFTEDGSCCTECGLGEGLLSPCGEEQSVCEPCVEGETFSDSTSALEPCKPCTECEGDEEVEVPCTPEANRVCGCAEGKYLDPETGECVECPECEVGQGLVEPCEETTNSVCEDCPEGTFSPGSSSEEPCLPCPECEGDEELLEECTPEANAVCESE-EECESGVFTEDGSCCTECGLGEGLLSPCGEEDSVCEPCVEGETYSDSVSALEPCKPCTVCEGDEEVVEPCTPEANRVCGCAEGKYLDPETGECVDCPVCEVGQGLVEPCEETTNSVCEDCPEGTFSPSASAEEPCLPCPECEGDEELLEECTPEANAVCESE-EECVSGVYTDDGSCCTECGLGEGVLSPCGSSDTVCEPCVEGETYSDSVSALEPCKPCTVCEGDEEVVRECTPEANRVCGCAAGKYLDPETGECVDCPVCEVGQGLVSPCEETTNTVCEDCPEGTFSPSADAETPCLPCTECEGDEELLRECTPEANAVCRCA-EECESGVFTEDGSCCTECGLGEGLLSPCGEDQSVCEPCVEGETYSDSVSALEPCKPCTVCEGDEEVLVPCTPEANRVCGCAEGKYLDPETGECVDCPPCEVGQGLVSPCEETTNSVCEDCPEGTFSPSASSEEPCLPCPECEGDEELLVPCTPEANAVCVSE-EECESGLFTEDGSCCTPCGLGEGVESPCGEEDTVCRPCREGETYSDVTSPLEPCRPCTVCEGDEEVLVPCTPEANRVCGCAPGKYLDPETGECVDCPPCEVGQGLVSPCEETTNTVCEDCPEGTFSPEASSTTPCLPCTECEGDEELLVPCTPEANAVCRSE-EECESGVFTEDGSCCTECGLGEGVLSPCGEEDTVCEPCVEGETYSDVTSALEPCKPCTVCEGDEEVLEPCTPESNRVCGCAAGKYLDPETGECVDCPVCEVGQGLVSPCEETTNSVCEDCPEGTFSPGADSETPCLPCEECEGDEELLEPCTPESNAVCVCE-EECESGVYTEDGSCCTECGLGEGLLSPCGEEDSVCEPCVEGETYSDTTSALVPCKPCTVCEGDEEVLEECTPESNRVCGCAEGKYLDPETGECVDCPVCEVGEGLVEPCEETTNSVCETCPEGTFSPTADAETPCLPCPECEGDEELLEECTPESNAVCVCE-EECESGVYTEDGSCCTECGLGEGLLSPCGEEDSVCEPCLEGETYSDSTSALEPCKPCTVCEGDEEVEVPCTPEANRVCGCAEGKYLDPETGECVDCPECEVGQGLVEPCEETTNSVCEDCPEGTFSPSSSSEEPCLPCSECEEGEELLEECTPTSNAVCVSE-EECESGVFTEDGSCCTECGLGEGLLSPCGEEDSVCEPCVEGETFSDVTSALEPCRPCTVCEGDEEVLEPCTPEANRVCGCAAGKYLDPETGECVDCPPCEVGQGLVEPCLETTNSVCEDCPEGTFSPVSSAEEPCLPCTECEGDEELLEPCTPEANAVCVCE-EECESGVFTDDGSCCTECGLGEGVLSPCGSEQTVCQPCVEGETFSDVTSALEPCRPCTVCEGDEEVVRPCTPEANRVCGCAAGKYLDPETGECVDCPPCEVGQGLLEPCLETTNTVCEDCPEGTFSPVSSSEVPCLPCAECEGDEELLRPCTPEENAVCRSE,ETCSTGLYTHSGECCKACNLGEGVAQPCGADQTVCEPCLDSVTFSDVVSATEPCKPCTECLGLQSMSAPCVEADDAVCRCAYGYYQDEETGHCEACSVCEVGSGLVFSCQDKQNTVCEECPEGTYSDEANHVDPCLPCTVCEDTERQLRECTPWADAECEHH-ETCSTGLYTHSGECCKACNLGEGVAQPCGADQTVCEPCLDSVTFSDVVSATEPCKPCTECLGLQSMSAPCVEADDAVCRCAYGYYQDEETGHCEACSVCEVGSGLVFSCQDKQNTVCEECPEGTYSDEANHVDPCLPCTVCEDTERQLRECTPWADAECEHH-ETCSTGLYTHSGECCKACNLGEGVAQPCGADQTVCEPCLDSVTFSDVVSATEPCKPCTECLGLQSMSAPCVEADDAVCRCAYGYYQDEETGHCEACSVCEVGSGLVFSCQDKQNTVCEECPEGTYSDEANHVDPCLPCTVCEDTERQLRECTPWADAECEHH-ETCSTGLYTHSGECCKACNLGEGVAQPCGADQTVCEPCLDSVTFSDVVSATEPCKPCTECLGLQSMSAPCVEADDAVCRCAYGYYQDEETGHCEACSVCEVGSGLVFSCQDKQNTVCEECPEGTYSDEANHVDPCLPCTVCEDTERQLRECTPWADAECEHH-ETCSTGLYTHSGECCKACNLGEGVAQPCGADQTVCEPCLDSVTFSDVVSATEPCKPCTECLGLQSMSAPCVEADDAVCRCAYGYYQDEETGHCEACSVCEVGSGLVFSCQDKQNTVCEECPEGTYSDEANHVDPCLPCTVCEDTERQLRECTPWADAECEHH-ETCSTGLYTHSGECCKACNLGEGVAQPCGADQTVCEPCLDSVTFSDVVSATEPCKPCTECLGLQSMSAPCVEADDAVCRCAYGYYQDEETGHCEACSVCEVGSGLVFSCQDKQNTVCEECPEGTYSDEANHVDPCLPCTVCEDTERQLRECTPWADAECEHH-ETCSTGLYTHSGECCKACNLGEGVAQPCGADQTVCEPCLDSVTFSDVVSATEPCKPCTECLGLQSMSAPCVEADDAVCRCAYGYYQDEETGHCEACSVCEVGSGLVFSCQDKQNTVCEECPEGTYSDEANHVDPCLPCTVCEDTERQLRECTPWADAECEHH-ETCSTGLYTHSGECCKACNLGEGVAQPCGADQTVCEPCLDSVTFSDVVSATEPCKPCTECLGLQSMSAPCVEADDAVCRCAYGYYQDEETGHCEACSVCEVGSGLVFSCQDKQNTVCEECPEGTYSDEANHVDPCLPCTVCEDTERQLRECTPWADAECEHH-ETCSTGLYTHSGECCKACNLGEGVAQPCGADQTVCEPCLDSVTFSDVVSATEPCKPCTECLGLQSMSAPCVEADDAVCRCAYGYYQDEETGHCEACSVCEVGSGLVFSCQDKQNTVCEECPEGTYSDEANHVDPCLPCTVCEDTERQLRECTPWADAECEHH-ETCSTGLYTHSGECCKACNLGEGVAQPCGADQTVCEPCLDSVTFSDVVSATEPCKPCTECLGLQSMSAPCVEADDAVCRCAYGYYQDEETGHCEACSVCEVGSGLVFSCQDKQNTVCEECPEGTYSDEANHVDPCLPCTVCEDTERQLRECTPWADAECEHH,YFLGRRVEEP-YFLGEEGGEP-EEDGVVVEEP-YFLGREGGEP-YFLGEEGEEP-EVDGEEGEEP-EVDGVEVEEP-YFLGEEGEEP-EEDGEEGGEP-YFLGREGGEP,NINNSVFRQY-NINNSVFRQY-NINNSVFRQY-NINNSVFRQY-NINNSVFRQY-NINNSVFRQY-NINNSVFRQY-NINNSVFRQY-NINNSVFRQY-NINNSVFRQY
