contacts,cs,ce,Chain,Length,designed_receptor_seq,native_receptor_seq,designed_binder_seq,native_binder_seq
11.0,32,42,A,10,QDEEKPMCHEECKTVSGVHQAKTNLGNPVDLKAYDFVNETRVLQMSFQCNCVSNRPTPDGCIGHNWRAFKSICLEVQEYKLLRVKKDKEESYEEVQLPSSCECRMEEIPE-DVDFVEQCEKKCRWVPATTSGVTEDGNPVELCTDDPVEEVKLTQNFWECSCISQWPTRVGCFGHNSHEQMTVCRTRYTYEKMHVKVGTDARLGRIKIPVDCCCEICELSD-CDRMIYQCFETCWETPELEFGVTEEGQRVTIHRQDHVNFVKDRQTLYRCTCTSESPTPLGCIGHNSEKLNSRCVDVFYYKTIHVKRMEIEEKDHVRIPASCRCLPRQKSK-GPGSVPQCKQTCTEVYCITKATDKEGKEITTCQRSKDEDTKDFQQLNMCSCTTSFPEDTGCLGVNSTIYNSVCGTVFTSYMMVVYDAQTLKYAEINIPSSCQCSNFPKSF-GPGSEPMCKSVCWVTSNCDQAEDADGNPVFISNAIGHLGIAYKQVLKLCECVDERPEETGCRGHNNDLLSSRCEIVYSSVEVRVNRSGSWATDLILIPASCECHSKSKPR-ETGKVPTCSSVVSERPGVHTGIDHTGTRVYLGENLPQKHSDITQTFQETICSEHRPTPQGCYGVDRHFYDSVCMDVYSYVALKVKKGNHVQWHLVQIPASCECFLRPKDY-VTELTPTCHSYTFLQSKISHGTTLKGDPAYVITMEYQKSTIFGNQVTVTKCESEKPTPKGCIGHDWEKFESKCISEYAYIETQILRRGQYFFANVKVPKRCACVLNPKPH-DEDTEDICQTICRHDPNVDEAILADGTKGHLLKDQYWQDFVNTQILDICLCEKVKPTAAGCINVDSRLYNTRCQEIYSTAEVYVDFEKEHTLKKVRVPSSCRCFAEPKPN-SDRHVPQCLQTCYSSPYVSSAVNAKGEQVRVSRLVPAQNTQRLQFVQICTCAQSKPTPDGCVGHDASKFNSVCVERYQELPLTVEAAHKTEVSNILVASSCECQRSLKSA-WKVDVPTCPEVCWNKAGVTSAVDDDGRSVYTFSSVPTFRQRRYTSFHLCACVTDKPTDEGCFGHNADRWTSHCTVQFQYHKIHVLDGDLAKLHMIRIPARCLCVPTLKPV,HMGEFSVCDSVSVWVGDKTTATDIKGKEVTVLAEVNINNSVFRQYFFETKCRASNPVESGCRGIDSKHWNSYCTTTHTFVKALTTDEKQAAWRFIRIDTACVCVLSRKAT-HMGEFSVCDSVSVWVGDKTTATDIKGKEVTVLAEVNINNSVFRQYFFETKCRASNPVESGCRGIDSKHWNSYCTTTHTFVKALTTDEKQAAWRFIRIDTACVCVLSRKAT-HMGEFSVCDSVSVWVGDKTTATDIKGKEVTVLAEVNINNSVFRQYFFETKCRASNPVESGCRGIDSKHWNSYCTTTHTFVKALTTDEKQAAWRFIRIDTACVCVLSRKAT-HMGEFSVCDSVSVWVGDKTTATDIKGKEVTVLAEVNINNSVFRQYFFETKCRASNPVESGCRGIDSKHWNSYCTTTHTFVKALTTDEKQAAWRFIRIDTACVCVLSRKAT-HMGEFSVCDSVSVWVGDKTTATDIKGKEVTVLAEVNINNSVFRQYFFETKCRASNPVESGCRGIDSKHWNSYCTTTHTFVKALTTDEKQAAWRFIRIDTACVCVLSRKAT-HMGEFSVCDSVSVWVGDKTTATDIKGKEVTVLAEVNINNSVFRQYFFETKCRASNPVESGCRGIDSKHWNSYCTTTHTFVKALTTDEKQAAWRFIRIDTACVCVLSRKAT-HMGEFSVCDSVSVWVGDKTTATDIKGKEVTVLAEVNINNSVFRQYFFETKCRASNPVESGCRGIDSKHWNSYCTTTHTFVKALTTDEKQAAWRFIRIDTACVCVLSRKAT-HMGEFSVCDSVSVWVGDKTTATDIKGKEVTVLAEVNINNSVFRQYFFETKCRASNPVESGCRGIDSKHWNSYCTTTHTFVKALTTDEKQAAWRFIRIDTACVCVLSRKAT-HMGEFSVCDSVSVWVGDKTTATDIKGKEVTVLAEVNINNSVFRQYFFETKCRASNPVESGCRGIDSKHWNSYCTTTHTFVKALTTDEKQAAWRFIRIDTACVCVLSRKAT-HMGEFSVCDSVSVWVGDKTTATDIKGKEVTVLAEVNINNSVFRQYFFETKCRASNPVESGCRGIDSKHWNSYCTTTHTFVKALTTDEKQAAWRFIRIDTACVCVLSRKAT,VPWTFPTFFD-GEFSPYAPDK-TPHEPRPVRE-GTFTPPIKGR-LPWKPVIQVE-ETDVPLKKGE-KTWVPPLAGL-LLTIPPSTGT-EVKRPFSGFG-TLLTKSQNMV,TVCEPCLDSV-TVCEPCLDSV-TVCEPCLDSV-TVCEPCLDSV-TVCEPCLDSV-TVCEPCLDSV-TVCEPCLDSV-TVCEPCLDSV-TVCEPCLDSV-TVCEPCLDSV
13.0,35,45,B,10,VTCVSGSRQKDGSCCKDCDRGLGELSPCRHNDTTCMKCRLGYSYRDTVSAAEPCKLCRICEGDEVIKEQCTPSRDRKCGCSNGKYLDPNLGRCVDCRDCDRGHGLATPCLDLTDSVCVDCSKGYYSPNSTRIHPCKACVSCEGNQQVVEKCTAERDQVCQRT-SMCTSGVYQRNGSCARQCPLGEGVLVPCSGLDTICGTCIHGQTFSESVSPVTPCKPCPVCDGLETLKRSCKEEADARCQCATGYYLDPDEDECRPCTHCKIGTGLQLPCDHWHNTICKECPEGSYSTESNDIQGCLACKECEGSETLQAPCEPTRDARCVCK-DTCVSGVYTPQGQCARICRDGYGLLTPCDTIQSRCNACLVGETYSDSRSSLQPCQPCPTCEGNDRVELPCTPTSDAQCGCEQASFLDPQTGKCVKCALCLIAQGLSDPCQMHTDSRCMVCPAGQYMVSGSNNQPCSICSQCSETEMQVQYCTPSHDARCFSN-LDCVSGLYTESGQCCKPCGPGEGIDSPCMNGDTVCIPCIKGVTFNFDMSPVIPCLPCTECNGNEEVKTACKPSSNRVCECSDEKYLDPNTGACQDCHVCKSSQGLLLPCEEEVDSQCATCPTGEFSSATSYHIPCSPCNQCSLDEQLLDPCLAAHNAKCVKR-AACASGVRTNLGACCRACSTGEGVATPCTEANTVCTPCAEGTTYSNSSSDVEPCLACKVCENHEQVVTQCMPETDRICGCMAEHYMDDETGTCQPCSKCEQGFGLRQPCISRQNTLCMACPSGFFSKYADAYTPCLQCQDCLSDQRLEEKCSSTEDSSCTTN-TTCKSGLHTKVGNCCRECTFGRGRVNPPGKEETECGACRVGETYNDSISWMEPCRACHDCRDREEIVHDCTPERDRKCGCAADEFLDAQTGKCVPCHLCSESSGLEDPCTKERDSRCVPCPPLEFSPSTTDHTPCLPCAKCRATEFLEQKCTFAEDASCRAA-ETCESGAYETSGACAAECEYGEGVLKPCTQSQTVCEPCVMGETFNDNRSAQQPCNGCNECENCLVIEEECQPGSNRKCGCEAEKYMDPEQGVCVSCRNCLIGQGLSRPCLAYEDRQCQECPEGKFAPMSDSVRPCFPCPQCSDDQLLLDQCQPNHNARCRRG-EACNSGTRGSDGSCCTQCGLSQGINSPCEETNTKCEDCTEGKTYSDIQSPEVPCQPCRVCDGKEEFAFECKPETDRVCKCAEDDYMSPELDECVGCHKCLVGMGLEAPCKDHEDSVCKRCPEGTFNNNSDRLSSCLPCVQCSSDEELLNSCSREHDALCRNK-CRIKTGLVTKDGDCCRPCGYGFGLSQPCHETDSVCVECRHGETFSESSSALTPCKDCTKCEALEEVRRECTPESDRVCQCAATNYRNPATGECVPCVACQAGTGLLVPCNQETDSLCVKCPAGEFKTTTDNSTPCMTCVQCTGHEEVLNDCTPTRNAVCRYA-SKCLSGRRTKKGKCALPCYFGEGLRSPPGKKDALCEPCKVGITYSGRKSPYSPCSACKECNGDEEIEAFCTPDADRVCGCRGGHYLDKYAGVCRACKPCKIGQGLLHPCARDSDSTCVSCPAGTYNVEGTDKHACLPCSECSGDEKLELVCTKKDDATCSRQ,ETCSTGLYTHSGECCKACNLGEGVAQPCGADQTVCEPCLDSVTFSDVVSATEPCKPCTECLGLQSMSAPCVEADDAVCRCAYGYYQDEETGHCEACSVCEVGSGLVFSCQDKQNTVCEECPEGTYSDEANHVDPCLPCTVCEDTERQLRECTPWADAECEHH-ETCSTGLYTHSGECCKACNLGEGVAQPCGADQTVCEPCLDSVTFSDVVSATEPCKPCTECLGLQSMSAPCVEADDAVCRCAYGYYQDEETGHCEACSVCEVGSGLVFSCQDKQNTVCEECPEGTYSDEANHVDPCLPCTVCEDTERQLRECTPWADAECEHH-ETCSTGLYTHSGECCKACNLGEGVAQPCGADQTVCEPCLDSVTFSDVVSATEPCKPCTECLGLQSMSAPCVEADDAVCRCAYGYYQDEETGHCEACSVCEVGSGLVFSCQDKQNTVCEECPEGTYSDEANHVDPCLPCTVCEDTERQLRECTPWADAECEHH-ETCSTGLYTHSGECCKACNLGEGVAQPCGADQTVCEPCLDSVTFSDVVSATEPCKPCTECLGLQSMSAPCVEADDAVCRCAYGYYQDEETGHCEACSVCEVGSGLVFSCQDKQNTVCEECPEGTYSDEANHVDPCLPCTVCEDTERQLRECTPWADAECEHH-ETCSTGLYTHSGECCKACNLGEGVAQPCGADQTVCEPCLDSVTFSDVVSATEPCKPCTECLGLQSMSAPCVEADDAVCRCAYGYYQDEETGHCEACSVCEVGSGLVFSCQDKQNTVCEECPEGTYSDEANHVDPCLPCTVCEDTERQLRECTPWADAECEHH-ETCSTGLYTHSGECCKACNLGEGVAQPCGADQTVCEPCLDSVTFSDVVSATEPCKPCTECLGLQSMSAPCVEADDAVCRCAYGYYQDEETGHCEACSVCEVGSGLVFSCQDKQNTVCEECPEGTYSDEANHVDPCLPCTVCEDTERQLRECTPWADAECEHH-ETCSTGLYTHSGECCKACNLGEGVAQPCGADQTVCEPCLDSVTFSDVVSATEPCKPCTECLGLQSMSAPCVEADDAVCRCAYGYYQDEETGHCEACSVCEVGSGLVFSCQDKQNTVCEECPEGTYSDEANHVDPCLPCTVCEDTERQLRECTPWADAECEHH-ETCSTGLYTHSGECCKACNLGEGVAQPCGADQTVCEPCLDSVTFSDVVSATEPCKPCTECLGLQSMSAPCVEADDAVCRCAYGYYQDEETGHCEACSVCEVGSGLVFSCQDKQNTVCEECPEGTYSDEANHVDPCLPCTVCEDTERQLRECTPWADAECEHH-ETCSTGLYTHSGECCKACNLGEGVAQPCGADQTVCEPCLDSVTFSDVVSATEPCKPCTECLGLQSMSAPCVEADDAVCRCAYGYYQDEETGHCEACSVCEVGSGLVFSCQDKQNTVCEECPEGTYSDEANHVDPCLPCTVCEDTERQLRECTPWADAECEHH-ETCSTGLYTHSGECCKACNLGEGVAQPCGADQTVCEPCLDSVTFSDVVSATEPCKPCTECLGLQSMSAPCVEADDAVCRCAYGYYQDEETGHCEACSVCEVGSGLVFSCQDKQNTVCEECPEGTYSDEANHVDPCLPCTVCEDTERQLRECTPWADAECEHH,LDNDAVKAVP-QGDGSVLHVP-QKTERFIKVK-CSDSVVAGNG-HDHKIFLRVA-CLDGRKHGAH-QEDELSGAGA-LEKDQVERAG-CDSERNLLVD-ETNGKMGSVC,NINNSVFRQY-NINNSVFRQY-NINNSVFRQY-NINNSVFRQY-NINNSVFRQY-NINNSVFRQY-NINNSVFRQY-NINNSVFRQY-NINNSVFRQY-NINNSVFRQY
