contacts,cs,ce,Chain,Length,designed_receptor_seq,native_receptor_seq,designed_binder_seq,native_binder_seq
35.0,116,126,A,10,HMGDDQLKLAINNTPATTAAVTRVAPNPDLTVSVGKVPVVTTSALNTTVPGTITATVAADVYSATGKVKLIEQGSTITGTVNTGITSGQSSVGVLMDTITNNKNGATVDIKSPATTTTGEAGWPGTVTTNTAATTAADAISKAVKNGTVSAAAAAEAAKTPPTLTLAAGSTVGIAVATDQDFSAVYTLTTT-DVDFSDLVNKIAATPVLAAGTTATTTNPDLTVTKGKIDVVTTTALDTTTPGAITGTVKADVYSATGNVRLIKKGSVVTGTVTTGISAGQDRVAVQMDTVTDTATGITKAINSSGTDTSGNAGWPGTVTTNPAATAAADKAKAAAEAGGAAADKAAEAAKTPPTLTMAAGASVGILVAKDLDFSSDVSLAAG-GSSGSSAEINKLLTPLDKEAITYTEPNPDLTVTTGTVPVITISALNTTTPGSISGRVQSDVYSANGNVKLIKKGSIITGDVTTGITDGQSSVYVNMKTITDPDTGISKNINSGGTDTTGNLGWPGSVNNTGARTSAYDIALKNALSGSDAAQNALEASKLPPTLTLPAGSTVGILVGTDLDFSSQVSLASG-SVDIKTLVAAINATPELVPAVTPTVPNPDLTVSTGTIPVVTTTALDTRTPGSVEATVAADVFSTTGKVKLIAKGSVITGTVDGGITYGENRVYVQMDTITNPATGAQININSFGTDTEGNGGWPGTVTQNTAATAAYDALKAQVAAGGTDPTEALKAALQPPVLTLAAGAKVGILVAQDLDFSGQYTLADT-AESIEDLIKKIESTPIEVPKVEVVKKFPDLTVTKGMIPVVTTTELNTKVPGKIEGVVKEDVYSANGKVKLINKGSKITGVVESGISAGESRVYVLMETITNEENGIKKDINSKGTNTEGVFGWPGEVDENPEATKEFEDFIKKVESGELTKEEAEKAKKLPPVLKLKKGAEVGILVAKDLDFSDDVTLKEG-AVDLNQQLEALRQTPQLADAVQPTTLNPDLTVTKGTIPVVTDSALNTQIPGTIKGRVDADVYSATGKVKLIAKGSLIEGEVLTGITAGQNRVYVKMETVTNLADGVKKKINSQATDTEGNMGWPGTVDDTAAATAAYKAAQQAAAAGGDAAAAAAAAAALPPVLTMKAGAKVGILVAKDLDFSADYSLKPA-GASEEELAAKLAAMPNPVPAVKPVKPNPDLTVSKGMIPVITTSALNTETPGEITGTVASDVYSATGKVKLIKKGSLITGIVNTGITDGQSSVYVEMKTVTDNETGIKKVINSLGTDEEGNEGWPGTVDKNTDRTAEYEKALAEAKANGVDVEQAKKNYTLPPVLTLAAGSKVGILVSQDLDFGGDVSLKKG-AESLSALAKDIESTPVTVDPVTVTAPDPDLTVSVGQIPVTTTSALDTSTPGSIQAVVASDVYSSTGKVKLIAKGSTISGTVTDGIKDGQSSVFVLMETVTDPDTGITKDINSYGTDKDGNFGWPGTVDDNAAATADYDKAVAAAKAEGKTAEEAAKAAEIPPVLTLAAGSDVGIKVAQDLDFSGDVSLSSA-AESLSQLVEALNNTPIPTPAVTPVTPNPDLTVSVGMIPVVTTSALNTTVPGDIKGVVAENVYSATGNVKLISKGSVITGSVTSGITQGQNSVYVNMNTVTNLDNGISKNINSLGTDTSGNLGWPGTVNTNPDATKAFETLNKKISEGKVDINEAIAAAQNPPTLSLPAGAKVGILVATDLDFSSYVSLASS-VIDLNQLTKAINETPVNVDEVTLTSPNPNLTVSKGVIPVTTVSALNTATPGTIQGVVASDVYSADGSVKLIEKGSLISGVVLTGISSGESRVKVLMNTVTNLKNGITKAINSEGTDTEGNAGWPGTVDSRYDAIKDAVTDINSARLGGSSLAEAMTKALIPPYLTMAEGAKVGIMVAKDLDFSDDVSLEAG,ETSEGSSALAKNLTPARLKASRAGVANPSLTVPKGKIPCGTGTELDTTVPGQVSCRVSQDVYSADGLVRLIDKGSWVDGQITGGIKDGQARVFVLWERIRNDQDGTIVNIDSAGTNSLGSAGIPGQVDAHWERLRGAIISLFSDTLTAQLASEALRSYSIPPTLYDQQGDAVSIFVARDLDFSGVYTLADN-ETSEGSSALAKNLTPARLKASRAGVANPSLTVPKGKIPCGTGTELDTTVPGQVSCRVSQDVYSADGLVRLIDKGSWVDGQITGGIKDGQARVFVLWERIRNDQDGTIVNIDSAGTNSLGSAGIPGQVDAHWERLRGAIISLFSDTLTAQLASEALRSYSIPPTLYDQQGDAVSIFVARDLDFSGVYTLADN-ETSEGSSALAKNLTPARLKASRAGVANPSLTVPKGKIPCGTGTELDTTVPGQVSCRVSQDVYSADGLVRLIDKGSWVDGQITGGIKDGQARVFVLWERIRNDQDGTIVNIDSAGTNSLGSAGIPGQVDAHWERLRGAIISLFSDTLTAQLASEALRSYSIPPTLYDQQGDAVSIFVARDLDFSGVYTLADN-ETSEGSSALAKNLTPARLKASRAGVANPSLTVPKGKIPCGTGTELDTTVPGQVSCRVSQDVYSADGLVRLIDKGSWVDGQITGGIKDGQARVFVLWERIRNDQDGTIVNIDSAGTNSLGSAGIPGQVDAHWERLRGAIISLFSDTLTAQLASEALRSYSIPPTLYDQQGDAVSIFVARDLDFSGVYTLADN-ETSEGSSALAKNLTPARLKASRAGVANPSLTVPKGKIPCGTGTELDTTVPGQVSCRVSQDVYSADGLVRLIDKGSWVDGQITGGIKDGQARVFVLWERIRNDQDGTIVNIDSAGTNSLGSAGIPGQVDAHWERLRGAIISLFSDTLTAQLASEALRSYSIPPTLYDQQGDAVSIFVARDLDFSGVYTLADN-ETSEGSSALAKNLTPARLKASRAGVANPSLTVPKGKIPCGTGTELDTTVPGQVSCRVSQDVYSADGLVRLIDKGSWVDGQITGGIKDGQARVFVLWERIRNDQDGTIVNIDSAGTNSLGSAGIPGQVDAHWERLRGAIISLFSDTLTAQLASEALRSYSIPPTLYDQQGDAVSIFVARDLDFSGVYTLADN-ETSEGSSALAKNLTPARLKASRAGVANPSLTVPKGKIPCGTGTELDTTVPGQVSCRVSQDVYSADGLVRLIDKGSWVDGQITGGIKDGQARVFVLWERIRNDQDGTIVNIDSAGTNSLGSAGIPGQVDAHWERLRGAIISLFSDTLTAQLASEALRSYSIPPTLYDQQGDAVSIFVARDLDFSGVYTLADN-ETSEGSSALAKNLTPARLKASRAGVANPSLTVPKGKIPCGTGTELDTTVPGQVSCRVSQDVYSADGLVRLIDKGSWVDGQITGGIKDGQARVFVLWERIRNDQDGTIVNIDSAGTNSLGSAGIPGQVDAHWERLRGAIISLFSDTLTAQLASEALRSYSIPPTLYDQQGDAVSIFVARDLDFSGVYTLADN-ETSEGSSALAKNLTPARLKASRAGVANPSLTVPKGKIPCGTGTELDTTVPGQVSCRVSQDVYSADGLVRLIDKGSWVDGQITGGIKDGQARVFVLWERIRNDQDGTIVNIDSAGTNSLGSAGIPGQVDAHWERLRGAIISLFSDTLTAQLASEALRSYSIPPTLYDQQGDAVSIFVARDLDFSGVYTLADN-ETSEGSSALAKNLTPARLKASRAGVANPSLTVPKGKIPCGTGTELDTTVPGQVSCRVSQDVYSADGLVRLIDKGSWVDGQITGGIKDGQARVFVLWERIRNDQDGTIVNIDSAGTNSLGSAGIPGQVDAHWERLRGAIISLFSDTLTAQLASEALRSYSIPPTLYDQQGDAVSIFVARDLDFSGVYTLADN,STSSNVKVVK-STSSTVTVVK-SSSSTTTVVK-STSPNVTVVK-SVSPDVVVVK-SKSGTTTLVK-SISGEVSVVK-SKSANVTVVK-SVSSSVSVVL-TASPNVKVVK,TASPDVRRVQ-TASPDVRRVQ-TASPDVRRVQ-TASPDVRRVQ-TASPDVRRVQ-TASPDVRRVQ-TASPDVRRVQ-TASPDVRRVQ-TASPDVRRVQ-TASPDVRRVQ
28.0,180,190,B,10,GSSGSSSIADLLARGLSGELNWNYESKDPSASIAPVNVYDDYRFTVFEFPKNATMPKVFIGPDGKEYQPSAITVGDDDNKILVLDVREKWIIKRGNLQVDVINNDYRPGEGKIYTGTPSPNVRAVVR-SNAQAERIAALMAAGFDGEKNFNYSTNDPASSIDPVRVFHDYRQTVFEFPANAQMPDVYFGPDGNRVKPRYTTIGPNNNKILVHDVRKAWLIVRGDKEVAVTNNNYAPGRGAVFTGTPSPNVRLVEK-AQAQRERIEALRAQAFEGELNYAYDSYDPDQSIDPVYVYDDYRETAFVFPDNAEMPTVYVGPDGQERQPSYRTVGDKNNTILVNDVRAAYRIERGDKYVNVVNNDYQPGKGAVYTGTNSPNVRRVQI-NQEQLKRISALLRGALEGEMNYRYSSYNPDNSIDPVYVYDDYRMTAFVFPPDAEMPTVLVGPDGQWKDPQYQTIGMNRNIILVLDVRARYRIVKGDKEVLVTNNNYAPGKGQIYTGTPSPYVRLVNK-SSERKAAIEKLMAEAFSGEQNYNYSSVNPDESINPLFVYDDYRQTVFEFPEDAKMPSVYIGPDGKEQVPSYTTIGQHDNKILVHDVREEWKIVKGDKEVLVKNNDYRPNIGKVNTGTVSPDVQLVKK-SREEEERIEALLKNARKGRRNFDYRSFNPEDAINPVMVYDDYRETAFVFPKDAALPTVLRGPDGNWVTPDATTVGQFNNTILVHDVAAEWLIERGNLRVKVTNLDYAPGEGRNFTGTRSPDVKLVKI-GSEEAARIGALQASGFEGELNFDYTSSNPSDSIAPVLVYDDFRQTLFVFPADAALPTVYIGPDGAERQPVSMTVGTSRNAQRVLSVARAWRIVRGDAAVAVTNNNFRPGLGANFTGTPSPNVRLVRN-SMEEAARISALQKSSSSGSMNFDYSSSSPNRSIDPVYVYDDYRETVFQFPANAEMPSVLISSTGNTTAPSWVTIGTNNNRIRVLDVAKSWKIQKGNLEVSVVNNDYSPGKGAVYTGTSSPNVTLVDR-SEEEKRRIAELRRAGFEGPLNYEYESVEPGASIDPILVYHDYRRTCFVFPKNAKLPDVRIGPDGRWRKPEAEVIGENRNTIRVLDVRKRWLIVRGDQRVEVVNLDYRPGEGYVFTGTDSPYVRLVRR-SEAEKEAINALLSKGFEGEKNYNYSSTDPKDSIAPVYVYDDFRQTVFEFPAKAAMPTVYYGDDGKQRKPDFETVGKDKNKIRVLDVAKKYAIVKGDKTVLVTNNDYRPGKGKIYTGTPSPNVKLVTK,AADKKRITQKLKQTAFAGAKNYQYVSEQPERSIQPVHVWDNYRFTRFEFPANAELPQVYISASGKETLPNSHVVGENRNIIEVETVAKEWRIRLGDKVVGVRNNNFAPGRGAVATGTASPDVRRVQI-AADKKRITQKLKQTAFAGAKNYQYVSEQPERSIQPVHVWDNYRFTRFEFPANAELPQVYISASGKETLPNSHVVGENRNIIEVETVAKEWRIRLGDKVVGVRNNNFAPGRGAVATGTASPDVRRVQI-AADKKRITQKLKQTAFAGAKNYQYVSEQPERSIQPVHVWDNYRFTRFEFPANAELPQVYISASGKETLPNSHVVGENRNIIEVETVAKEWRIRLGDKVVGVRNNNFAPGRGAVATGTASPDVRRVQI-AADKKRITQKLKQTAFAGAKNYQYVSEQPERSIQPVHVWDNYRFTRFEFPANAELPQVYISASGKETLPNSHVVGENRNIIEVETVAKEWRIRLGDKVVGVRNNNFAPGRGAVATGTASPDVRRVQI-AADKKRITQKLKQTAFAGAKNYQYVSEQPERSIQPVHVWDNYRFTRFEFPANAELPQVYISASGKETLPNSHVVGENRNIIEVETVAKEWRIRLGDKVVGVRNNNFAPGRGAVATGTASPDVRRVQI-AADKKRITQKLKQTAFAGAKNYQYVSEQPERSIQPVHVWDNYRFTRFEFPANAELPQVYISASGKETLPNSHVVGENRNIIEVETVAKEWRIRLGDKVVGVRNNNFAPGRGAVATGTASPDVRRVQI-AADKKRITQKLKQTAFAGAKNYQYVSEQPERSIQPVHVWDNYRFTRFEFPANAELPQVYISASGKETLPNSHVVGENRNIIEVETVAKEWRIRLGDKVVGVRNNNFAPGRGAVATGTASPDVRRVQI-AADKKRITQKLKQTAFAGAKNYQYVSEQPERSIQPVHVWDNYRFTRFEFPANAELPQVYISASGKETLPNSHVVGENRNIIEVETVAKEWRIRLGDKVVGVRNNNFAPGRGAVATGTASPDVRRVQI-AADKKRITQKLKQTAFAGAKNYQYVSEQPERSIQPVHVWDNYRFTRFEFPANAELPQVYISASGKETLPNSHVVGENRNIIEVETVAKEWRIRLGDKVVGVRNNNFAPGRGAVATGTASPDVRRVQI-AADKKRITQKLKQTAFAGAKNYQYVSEQPERSIQPVHVWDNYRFTRFEFPANAELPQVYISASGKETLPNSHVVGENRNIIEVETVAKEWRIRLGDKVVGVRNNNFAPGRGAVATGTASPDVRRVQI,DLSGVLSLKP-GTGGRYSLAP-DQSGKYTLAP-STAGLYTLAP-NLDGLFELAP-DLTGVYDLEP-SLTGLWSLAP-SASGKYTLQP-DLSGVFDLEP-DDSKKYELAP,DFSGVYTLAD-DFSGVYTLAD-DFSGVYTLAD-DFSGVYTLAD-DFSGVYTLAD-DFSGVYTLAD-DFSGVYTLAD-DFSGVYTLAD-DFSGVYTLAD-DFSGVYTLAD
