contacts,cs,ce,Chain,Length,designed_receptor_seq,native_receptor_seq,designed_binder_seq,native_binder_seq
28.0,0,10,A,10,GTTVEGWTRDLINRLEQFNLDRDRVVNALEVCMGSVSATEYYLATGVRADGKPVFKDYDLRDLMQDDRNIQERLVDKFGQMEVNRALRYHT-LEAKKRKAIQMINKMREFNLGLETVVEAFQVNNGAKKETQEYLRTGKRADGKPTWRYLDLVDLQAKDFAVQAKLIERFGQNNVFDAINFYN-GSPAVGKARRVIKDFESFKLDKDKVYQAFMVTCGCVESTEIFLKTGRRGDGRPVWKEDDLINLEKDDYNVQKELIERFGTSEVKRAKAFRT-HMDTVDRTKKFIQKMKEFNKDKSFVYQSLMTNCGRVKATENYLKTGRRADGKPVWKEADLTRLLTKDKKVQAELREKFGDKNVSLAIQFTK-SLRLKQRTQALITQFKEFALDLEQVAEAFRQCCGSQMETYTYLRTGRRADGKPIWKEEDLALLQTKDRAAQAALVSLFGPHNVTRAVSFLD-GSPEVGNAKKLIASMRKYHLDQRTVHNSFRVNCGLILETDNYLATGKRSDGKPVWTKADLTALKKNDEYLQEMLIQRFGVENVELAKHFTW-GEMLVEMARSMIDRMREFELDREEVFRAFRVNCGDWIETEHYLATGGRSDGRPVWTRDDLEALKKDDEETLSKLKKQHGALRVQEAKEFFE-RTQAVGMARDCISRMLEFRLNEERVKEAFLKNNGNREATKKYLETGERGDGKPVWTETDLVNLQINDFRVRRSLKKKFGTDEVEKAIRYVE-MILKIGQACKLIHKLQEFDLDLDTVYAAFQKNNGWIEATKFYLKTGKRANGKPVWNIADLVALEVDDETTQERLREKFGDQEVQSARNFYY-GMKAIQETTKIIDRLREFNLNKDQVIETLEICYGDVRETIYYLRHGKRSDGKPIWYDEDLKALEKNDMSVRIRLRGKFGRDRIQKAVKFTS,SQPEVGAAIKIIRQLEKFNLDLSTVTQAFLKNSGELEATSAFLASGQRADGYPIWSRQDDIDLQKDDEDTREALVKKFGAQNVARRIEFRK-SQPEVGAAIKIIRQLEKFNLDLSTVTQAFLKNSGELEATSAFLASGQRADGYPIWSRQDDIDLQKDDEDTREALVKKFGAQNVARRIEFRK-SQPEVGAAIKIIRQLEKFNLDLSTVTQAFLKNSGELEATSAFLASGQRADGYPIWSRQDDIDLQKDDEDTREALVKKFGAQNVARRIEFRK-SQPEVGAAIKIIRQLEKFNLDLSTVTQAFLKNSGELEATSAFLASGQRADGYPIWSRQDDIDLQKDDEDTREALVKKFGAQNVARRIEFRK-SQPEVGAAIKIIRQLEKFNLDLSTVTQAFLKNSGELEATSAFLASGQRADGYPIWSRQDDIDLQKDDEDTREALVKKFGAQNVARRIEFRK-SQPEVGAAIKIIRQLEKFNLDLSTVTQAFLKNSGELEATSAFLASGQRADGYPIWSRQDDIDLQKDDEDTREALVKKFGAQNVARRIEFRK-SQPEVGAAIKIIRQLEKFNLDLSTVTQAFLKNSGELEATSAFLASGQRADGYPIWSRQDDIDLQKDDEDTREALVKKFGAQNVARRIEFRK-SQPEVGAAIKIIRQLEKFNLDLSTVTQAFLKNSGELEATSAFLASGQRADGYPIWSRQDDIDLQKDDEDTREALVKKFGAQNVARRIEFRK-SQPEVGAAIKIIRQLEKFNLDLSTVTQAFLKNSGELEATSAFLASGQRADGYPIWSRQDDIDLQKDDEDTREALVKKFGAQNVARRIEFRK-SQPEVGAAIKIIRQLEKFNLDLSTVTQAFLKNSGELEATSAFLASGQRADGYPIWSRQDDIDLQKDDEDTREALVKKFGAQNVARRIEFRK,PKLDALKVAA-PRLDWLSEAL-PRINALERAY-VEIFALTEAG-SVINALKAAL-QVITDLDAAY-AHLNVLEEAY-PTFADLDRAG-LYLSNLQKAR-SRLEHIAEAG,TTIGTLKAAF-TTIGTLKAAF-TTIGTLKAAF-TTIGTLKAAF-TTIGTLKAAF-TTIGTLKAAF-TTIGTLKAAF-TTIGTLKAAF-TTIGTLKAAF-TTIGTLKAAF
26.0,21,31,B,10,GTVKDLESAFKKHCGAKDCDAAFRLLENLDLDKP-YEQTELKEMFIELSGAVDSDAAFSKLTLFGLEVP-LKAAALKEQYKSLSGSEDSDAAFDKLMKEEFTEP-HHHHHHHSLYKTLSGETDTELAFYKLKRETTTFK-KKKLTTEKTYEYKSGHKDKTAAYKKLKDEELLVS-AIQGTLKEMFMAQSGFEDKSEAFNKLAAEDLPEP-EAFYELRVLFEKESKYENKEEAFRKLMATDYEDE-MGLLDVKELFCSVSGYEDCEAALHRLVAEDFEDP-MAAIVIKEVFELLSDAEDKDAAFERLRAEKLVRP-VIKKVLKKIFLYLSGAKDGEKAFDRLCALDLEAP,TTIGTLKAAFKTLSGAQDSEAAFAKLDQKDLVLP-TTIGTLKAAFKTLSGAQDSEAAFAKLDQKDLVLP-TTIGTLKAAFKTLSGAQDSEAAFAKLDQKDLVLP-TTIGTLKAAFKTLSGAQDSEAAFAKLDQKDLVLP-TTIGTLKAAFKTLSGAQDSEAAFAKLDQKDLVLP-TTIGTLKAAFKTLSGAQDSEAAFAKLDQKDLVLP-TTIGTLKAAFKTLSGAQDSEAAFAKLDQKDLVLP-TTIGTLKAAFKTLSGAQDSEAAFAKLDQKDLVLP-TTIGTLKAAFKTLSGAQDSEAAFAKLDQKDLVLP-TTIGTLKAAFKTLSGAQDSEAAFAKLDQKDLVLP,LGEVVQALLK-LDLKTQFHLK-INAKVQAFLK-LDVYVQILLK-LHTAVQQELK-LNALVQKYLA-VDEAVQRFLK-LEELCQLILK-VDLDVQMLLK-LDLLVQHFLK,LSTVTQAFLK-LSTVTQAFLK-LSTVTQAFLK-LSTVTQAFLK-LSTVTQAFLK-LSTVTQAFLK-LSTVTQAFLK-LSTVTQAFLK-LSTVTQAFLK-LSTVTQAFLK
