contacts,cs,ce,Chain,Length,designed_receptor_seq,native_receptor_seq,designed_binder_seq,native_binder_seq
28.0,0,10,A,10,GSPEVGEAKKVIARLKKFNKDKDEVYQAFLVNCGNIDETEYYLEHGKRADGKPVFTDEDLVKLKEKDEAVQAELKKKFGDYNVKLAKEYTD-GSPEVGKAKLIIAQLKKFSLDRKTVFNALMVNCGDLVETEHFLATGKRADGKPVFKKEDLRALKEDNEEVQARLKERFGDFNVELAKKFIA-GSPEVGQAQVWIARMKEFNLDESKVVEAFKINCGDKMETEHYLKHGKRADGRPVWKQKDLDALKEKDKAVQERLVKKFGKSNVKRAQKFYA-DEKAVGRARELIERMRKYNLDRETVYEAFQVCCGNLHETEHYLKHGRRADGKPVWREEDLKALKKKDKAVQLKLEKEFGKANVTRAIKFYD-GSPEVGEARRIIARLEEFKLDRKTVFDAFMVNNGQVVETVYYLKYGKRADGKPIWKKEHLEKLKEDDEKVQKELKELFGEYNVKRAKKFLS-MSQEVGRARRLIARLRKYRLDLDTVVEAFRVNCGLVSETEHFLATGRRADGKPVWTEEDLRALRQNDEAVQARLRARFGDFNVVLARRFYS-GSPEVGRTKKFIARMKEFNLDLDTVYEAFLVNCGDKRETEFYLKYGKRADGKPIWTESDLIALKEKDEKVQARLKEKFGDANVRKAIRFHS-GSPEVGQARVIIEKMKEFNLNREEVYEAFLKNCGDLYETRHYLKYGKRADGKPVFEAEDLKALKEKDKKVQAKLKEKFGEKNVERAKKFLS-GSPEVGAAKAFIAEMKKFNLDEKTVYSAFMINCGDMFETEYYLKHGKRSDGKPIWKEEDLKALQKKDEKVQAELKEKFGEWNVKLAKKFFK-ADPAVGEAREILRRLEEFDLDRNTVVNALETNCGNLHETYHFLKTGKRSDGKPVWKEEDLKALKEKDKETQARLEEKFGKFNVERAKKFYE,SQPEVGAAIKIIRQLEKFNLDLSTVTQAFLKNSGELEATSAFLASGQRADGYPIWSRQDDIDLQKDDEDTREALVKKFGAQNVARRIEFRK-SQPEVGAAIKIIRQLEKFNLDLSTVTQAFLKNSGELEATSAFLASGQRADGYPIWSRQDDIDLQKDDEDTREALVKKFGAQNVARRIEFRK-SQPEVGAAIKIIRQLEKFNLDLSTVTQAFLKNSGELEATSAFLASGQRADGYPIWSRQDDIDLQKDDEDTREALVKKFGAQNVARRIEFRK-SQPEVGAAIKIIRQLEKFNLDLSTVTQAFLKNSGELEATSAFLASGQRADGYPIWSRQDDIDLQKDDEDTREALVKKFGAQNVARRIEFRK-SQPEVGAAIKIIRQLEKFNLDLSTVTQAFLKNSGELEATSAFLASGQRADGYPIWSRQDDIDLQKDDEDTREALVKKFGAQNVARRIEFRK-SQPEVGAAIKIIRQLEKFNLDLSTVTQAFLKNSGELEATSAFLASGQRADGYPIWSRQDDIDLQKDDEDTREALVKKFGAQNVARRIEFRK-SQPEVGAAIKIIRQLEKFNLDLSTVTQAFLKNSGELEATSAFLASGQRADGYPIWSRQDDIDLQKDDEDTREALVKKFGAQNVARRIEFRK-SQPEVGAAIKIIRQLEKFNLDLSTVTQAFLKNSGELEATSAFLASGQRADGYPIWSRQDDIDLQKDDEDTREALVKKFGAQNVARRIEFRK-SQPEVGAAIKIIRQLEKFNLDLSTVTQAFLKNSGELEATSAFLASGQRADGYPIWSRQDDIDLQKDDEDTREALVKKFGAQNVARRIEFRK-SQPEVGAAIKIIRQLEKFNLDLSTVTQAFLKNSGELEATSAFLASGQRADGYPIWSRQDDIDLQKDDEDTREALVKKFGAQNVARRIEFRK,PKISVLKEAK-FRIPVLEEAG-PRIVVLDKAK-PVIHVLEKAR-PYLKTLKEAE-PVLRVLDEAR-PRIYNLDEAR-PRIEVLKEAG-PRIDVLKKAK-PQFDVLAEAG,TTIGTLKAAF-TTIGTLKAAF-TTIGTLKAAF-TTIGTLKAAF-TTIGTLKAAF-TTIGTLKAAF-TTIGTLKAAF-TTIGTLKAAF-TTIGTLKAAF-TTIGTLKAAF
26.0,21,31,B,10,MKLEDLEEIFLELSGAEDKKAAFERLKKEDYKAP-MKLDDLEKIFKRLSGAEDSEAAFRKLEKEDLVLP-MELRDLREIFERESGATDKRAAFNRLASEEYEEP-EEVDEVEEIFLALSGADDKKAEFERLKAEELVLP-MKLDDLKEIYKKLSGAKDKDKAFDKLKKEDYKAP-MKFTDLKEIYLKLSGASDKEAAFENLKKEDFKAP-DAVNKLEELYKKESGAEDAEAAFKKLKKEEFKDP-EAIHDVEEFYKTLSGAKDKDAAFEKLKAEEFKAP-MAVGKLEEIYKKLSGAEDKEAAFKKLKAEEFKAP-HMENTLEELFKEQSGAEDKEAAFKKLKAEEFKSP,TTIGTLKAAFKTLSGAQDSEAAFAKLDQKDLVLP-TTIGTLKAAFKTLSGAQDSEAAFAKLDQKDLVLP-TTIGTLKAAFKTLSGAQDSEAAFAKLDQKDLVLP-TTIGTLKAAFKTLSGAQDSEAAFAKLDQKDLVLP-TTIGTLKAAFKTLSGAQDSEAAFAKLDQKDLVLP-TTIGTLKAAFKTLSGAQDSEAAFAKLDQKDLVLP-TTIGTLKAAFKTLSGAQDSEAAFAKLDQKDLVLP-TTIGTLKAAFKTLSGAQDSEAAFAKLDQKDLVLP-TTIGTLKAAFKTLSGAQDSEAAFAKLDQKDLVLP-TTIGTLKAAFKTLSGAQDSEAAFAKLDQKDLVLP,LDAITQALLK-LDLLVQMLLK-LDEAVQRLLK-LNELTQLILK-LDELVQKLLK-LDKVVQALLK-LDELVQKLLK-LDEKVQAYLK-LDEVVQALLK-LEAKVQALLK,LSTVTQAFLK-LSTVTQAFLK-LSTVTQAFLK-LSTVTQAFLK-LSTVTQAFLK-LSTVTQAFLK-LSTVTQAFLK-LSTVTQAFLK-LSTVTQAFLK-LSTVTQAFLK
