contacts,cs,ce,Chain,Length,designed_receptor_seq,native_receptor_seq,designed_binder_seq,native_binder_seq
28.0,0,10,A,10,GSPEVGEAKKFIAEMKKFNLDKEKVYEAFMVNCGDKKETEYFLKYGKRADGKPVWKKEDLEKLKEKDKEVQEELKKKFGEANVKRAIKFTS-GSPEVGEAKKFIARMKEFNLDRETVYKAFMVNCGDKKETEYFLKHGKRADGKPVWTEEDLKALKEKDKKVQERLKKKFGDANVKRAKKFTS-SNAEVGRAKEIIARLKEFNLDRETVVEAFRVNCGDLEETRYFLATGKRADGKPVWTEEDLKALKEDDEAVQARLKEKFGEANVKRAKKFYS-GSPEVGEARRFIARMREFDLDRETVYRAFMVNCGDRRETEHFLRTGRRADGRPVWREEDLVALREDDEAVQARLRERFGDANVRRARRFVA-GSPEVGEARRFIAEMKRFNLDRETVYRAFLVNCGDRKETEHYLATGKRADGKPVWTEEDLKALKEKDKAVQARLKEKFGEANVKRAIRFTS-GSPEVGEAKKFIAEMKKFNLDKEKVYEAFMVNCGNKKETEYYLKHGKRADGKPVWKKEDLEALKKDDKKVQEELKKKFGEANVKRAKKFYS-GSPEVGEAKKIIAEMKKFNLDEKTVYEAFMVNCGDLKETEYYLKHGKRADGKPVWKEEDLKALKEKDKAVQERLKKKFGEANVKRAKKFTE-GSPEVGEAREFIRRMEEFNLDRETVYEAFMVNCGDKKETEYYLKYGKRADGKPVWKEEDLKALKEDDEEVQKRLKEKFGEYNVKRAKKFLE-GSPEVGRAREIIARLREFDLDRETVVEAFRVNCGDLEETRHFLATGRRADGKPVWREEDLRALREDDEAVQARLRERFGDANVERARRFLA-GSPEVGEARRFIARMREFDLDRETVYRAFLVNCGDRRETEHYLRTGRRADGKPVWREEDLRALRERDRAVQARLRERFGDANVRRAIRFTS,SQPEVGAAIKIIRQLEKFNLDLSTVTQAFLKNSGELEATSAFLASGQRADGYPIWSRQDDIDLQKDDEDTREALVKKFGAQNVARRIEFRK-SQPEVGAAIKIIRQLEKFNLDLSTVTQAFLKNSGELEATSAFLASGQRADGYPIWSRQDDIDLQKDDEDTREALVKKFGAQNVARRIEFRK-SQPEVGAAIKIIRQLEKFNLDLSTVTQAFLKNSGELEATSAFLASGQRADGYPIWSRQDDIDLQKDDEDTREALVKKFGAQNVARRIEFRK-SQPEVGAAIKIIRQLEKFNLDLSTVTQAFLKNSGELEATSAFLASGQRADGYPIWSRQDDIDLQKDDEDTREALVKKFGAQNVARRIEFRK-SQPEVGAAIKIIRQLEKFNLDLSTVTQAFLKNSGELEATSAFLASGQRADGYPIWSRQDDIDLQKDDEDTREALVKKFGAQNVARRIEFRK-SQPEVGAAIKIIRQLEKFNLDLSTVTQAFLKNSGELEATSAFLASGQRADGYPIWSRQDDIDLQKDDEDTREALVKKFGAQNVARRIEFRK-SQPEVGAAIKIIRQLEKFNLDLSTVTQAFLKNSGELEATSAFLASGQRADGYPIWSRQDDIDLQKDDEDTREALVKKFGAQNVARRIEFRK-SQPEVGAAIKIIRQLEKFNLDLSTVTQAFLKNSGELEATSAFLASGQRADGYPIWSRQDDIDLQKDDEDTREALVKKFGAQNVARRIEFRK-SQPEVGAAIKIIRQLEKFNLDLSTVTQAFLKNSGELEATSAFLASGQRADGYPIWSRQDDIDLQKDDEDTREALVKKFGAQNVARRIEFRK-SQPEVGAAIKIIRQLEKFNLDLSTVTQAFLKNSGELEATSAFLASGQRADGYPIWSRQDDIDLQKDDEDTREALVKKFGAQNVARRIEFRK,PRIYVLEEAK-PRIDVLEKAK-ERISVLDKAG-PRLRVLEEAR-PRITVLEEAR-PYIKVLEEAK-PRLSVLEEAK-ERISVLEEAR-PRLRVLEEAG-PRLRVLEEAR,TTIGTLKAAF-TTIGTLKAAF-TTIGTLKAAF-TTIGTLKAAF-TTIGTLKAAF-TTIGTLKAAF-TTIGTLKAAF-TTIGTLKAAF-TTIGTLKAAF-TTIGTLKAAF
26.0,21,31,B,10,MALGDLEALYKKLSGAEDKEAAFKKLKAEDLKLP-MALEDLEKIYKKLSGAKDKEAAFKKLKAEDYKAP-MELKDLEEIYKKLSGAEDKEAAFKKLKEEEYKEP-MALKDLEAIYKKLSGAKDKEAAFKKLKAEDYKAP-MALEDLEELYKKLSGAEDKEAAFKKLKEEELKLP-MALEDLEEIYKKLSGAEDKEAAFKKLKEEDYEAP-MKIENLKEIYEKLSGAEDKEAAFEKLKAEDYEAP-MKIENLEEIYKKLSGAKDKEAAFKKLKEEDFKAP-MKLENLEEIYKKLSGAKDKEAAFKKLKEEEYKEP-MKLENLEEIYKKLSGAEDKEAAFKKLKEEEYKEP,TTIGTLKAAFKTLSGAQDSEAAFAKLDQKDLVLP-TTIGTLKAAFKTLSGAQDSEAAFAKLDQKDLVLP-TTIGTLKAAFKTLSGAQDSEAAFAKLDQKDLVLP-TTIGTLKAAFKTLSGAQDSEAAFAKLDQKDLVLP-TTIGTLKAAFKTLSGAQDSEAAFAKLDQKDLVLP-TTIGTLKAAFKTLSGAQDSEAAFAKLDQKDLVLP-TTIGTLKAAFKTLSGAQDSEAAFAKLDQKDLVLP-TTIGTLKAAFKTLSGAQDSEAAFAKLDQKDLVLP-TTIGTLKAAFKTLSGAQDSEAAFAKLDQKDLVLP-TTIGTLKAAFKTLSGAQDSEAAFAKLDQKDLVLP,VDELVQLLLK-LDELVQAFLK-LDELVQKLLK-LDAAVQALLK-LDLLVQLLLK-LDELVQKLLK-LDELVQAFLK-LDELVQAFLK-LDKLVQKLLK-LDEEVQKLLK,LSTVTQAFLK-LSTVTQAFLK-LSTVTQAFLK-LSTVTQAFLK-LSTVTQAFLK-LSTVTQAFLK-LSTVTQAFLK-LSTVTQAFLK-LSTVTQAFLK-LSTVTQAFLK
