contacts,cs,ce,Chain,Length,designed_receptor_seq,native_receptor_seq,designed_binder_seq,native_binder_seq
11.0,0,10,A,10,ELQCRVDTASSQDGITKTDGVCLTNLQAVEGVFTRMGLAAVFLRPPEQPFACRPDKPFRTRCCSEDFCNG-CLHCKNNLRQGAGGTEKCNGYCLIQKTLEKTKIESRCIEASFLVPPKDPEICNPESPISRECCTKKLCNG-NLRCYCHSDVAAGAFTVTNGTCLRADTRLNGDQHMDCIERAYLQPLKEPKLCKPQKPTELHCCQLDKCNG-ELQCFCHLSDHDGYSRTCTGFCRLQREELANDFKAECIQADHLMPENDPVVCQPEEGKTCRCCREDHCNG-DLTCSDYYDCLNEHTFTCDGLCYVERSDLNLIENRSCIDRDNLNPPEHPKYCYPTEPRDVWCCDHDRCNG-SLQCRDSKNCSASFTTTTNGFCFVLRSKSKHTNSTICIAKAKLVPQSRPFVCTPVKPVTLSCCTNDDCDG-DLECYNKYAVNEDGYCKTEGRCLVERVEVQNKTSQYCLSKSHLNPPQNPIACRPQLPSGKYCCDRDACNG-DLTCQDVLCVGQEGFINTDGICLAWNEQGFPFTTSLCINAQDLIPPENPIWCHPRIPRTLFCCKNDLCNG-FLDCRSSTKGEDNFTSTTNGFCVCNTTQDNSDDSRDCISEKDLIPKKSPSVCKCTGPASEYCCKVDLCNG-YLVCKDKCASADQGLVKTDGFCLSCKDNTGGSSASVCIEAKELIPVDNPTLCQPRVPKNCTCCKEDQCNG,ALQCFCHLCTKDNFTCVTDGLCFVSVTETTVIHNSMCIAEIDLIPRDRPFVCAPSSVTTTYCCNQDHCNK-ALQCFCHLCTKDNFTCVTDGLCFVSVTETTVIHNSMCIAEIDLIPRDRPFVCAPSSVTTTYCCNQDHCNK-ALQCFCHLCTKDNFTCVTDGLCFVSVTETTVIHNSMCIAEIDLIPRDRPFVCAPSSVTTTYCCNQDHCNK-ALQCFCHLCTKDNFTCVTDGLCFVSVTETTVIHNSMCIAEIDLIPRDRPFVCAPSSVTTTYCCNQDHCNK-ALQCFCHLCTKDNFTCVTDGLCFVSVTETTVIHNSMCIAEIDLIPRDRPFVCAPSSVTTTYCCNQDHCNK-ALQCFCHLCTKDNFTCVTDGLCFVSVTETTVIHNSMCIAEIDLIPRDRPFVCAPSSVTTTYCCNQDHCNK-ALQCFCHLCTKDNFTCVTDGLCFVSVTETTVIHNSMCIAEIDLIPRDRPFVCAPSSVTTTYCCNQDHCNK-ALQCFCHLCTKDNFTCVTDGLCFVSVTETTVIHNSMCIAEIDLIPRDRPFVCAPSSVTTTYCCNQDHCNK-ALQCFCHLCTKDNFTCVTDGLCFVSVTETTVIHNSMCIAEIDLIPRDRPFVCAPSSVTTTYCCNQDHCNK-ALQCFCHLCTKDNFTCVTDGLCFVSVTETTVIHNSMCIAEIDLIPRDRPFVCAPSSVTTTYCCNQDHCNK,FSVVADVAHF-TSLLEHGKDH-ASTLFQVARR-WLRKSYLKRY-VDTSNYKLRK-EVDAECMKVF-SFALSYETST-CFSENFLAQQ-ATNKYITCEK-KENDAFCSQW,ALDTNYCFSS-ALDTNYCFSS-ALDTNYCFSS-ALDTNYCFSS-ALDTNYCFSS-ALDTNYCFSS-ALDTNYCFSS-ALDTNYCFSS-ALDTNYCFSS-ALDTNYCFSS
12.0,1,11,B,10,HIGISYCQAREHDFCRVEFRHVNFLTDWGITWIHAPPGFNQYFCRGPCPVEFHLYSHDALVQAVLYARHPQSELKPCCVPDVLLPLPLVYFEGEQPRVTWHQKETVDSCICR-APDIRISASRSGDACRIRQQHIRFEDQFGIRLIEQPRGYERGYCEGPCPLNEALRNEESKALARVGAETPGAKLVPCCLPARKVPLPIVYRDGGTPQKEQLEEMRVEECVCG-AINLEFCNATKHTTCRVRKKEIYFKDQLGITWVREPSGYQAHHCDGPCPLQWVGKTLESLKVAIYGTENPGSKDYPCCMPAEVNPLPLTYEKGGKPIQTVVHLAVVNKCECT-EINVGYDLKVADSNCRVRYHYVNFREELGWNFIQLPRGYQRYYCEGPCPLNHILAESLDRKIAEYDEKNPGQKLKPCCLPLSQSPLPIVYTSGQHPVINTLANMTVDACICQ-DLDLNHSRAQVNAFCQVRQRFVDFKRDLGIQSVHSPDSFMQNFCEGPCPLDYYLDDEESKIMAQYNEINPNSEFHPCCRPAYKLPLPITFYVGNNPKKLEISNAVIASCRCI-MVWRIFDESTNHTKCRVRERTVMFREDYGLRWIFKPPRYKEHYCEGPCPLDHILATEEDHLLAEHGKKHPLSRQKPCCRPLHLKPQPVRYYKGGKPIKTTLKFAQVDCCICT-LLDISVSASHRFLHCHVSDWAIDYKQTEGWTWLLEPKSYRRSYCKGPCPLLHNNWNDAATLLSIYGLRNKGNKKTPCCMPQVEKPLPIVYKKGKKPKKEIIKTMVIRACQCD-MKNISFCNTNANTACRIQFVHKEFTEDLGITWIYKPPGYEAYFCNGPCPFKYNLSNEQATELAEYYKLNPHSLLAPCCRPAKTLPLPIIFYVGNKPVSTTMENLIVDSCRCG-MIYREFSNRTENIYCRVEYEYIDFKKDFGWEWISKPDGYEKGRCWGPCPFAHCLDDNRSLKIALLHMIHPESRTMPCCVPRKQLPLPLTYTDGKNPIEAVLQDMIIDSCVCE-SVSRGQCFAEDHSHCRVCRLGIHFRQDWGIESIVQPSCYLAYFCEGPCPVNWNLLHGSALELAIYTQNHPGSNLQPDCVPFQTQPLPVRFLVGGVPRNRTLHNMVVFACVCR,ALDTNYCFSSTEKNCCVRQLYIDFRKDLGWKWIHEPKGYHANFCLGPCPYIWSLDTQYSKVLALYNQHNPGASAAPCCVPQALEPLPIVYYVGRKPKVEQLSNMIVRSCKCS-ALDTNYCFSSTEKNCCVRQLYIDFRKDLGWKWIHEPKGYHANFCLGPCPYIWSLDTQYSKVLALYNQHNPGASAAPCCVPQALEPLPIVYYVGRKPKVEQLSNMIVRSCKCS-ALDTNYCFSSTEKNCCVRQLYIDFRKDLGWKWIHEPKGYHANFCLGPCPYIWSLDTQYSKVLALYNQHNPGASAAPCCVPQALEPLPIVYYVGRKPKVEQLSNMIVRSCKCS-ALDTNYCFSSTEKNCCVRQLYIDFRKDLGWKWIHEPKGYHANFCLGPCPYIWSLDTQYSKVLALYNQHNPGASAAPCCVPQALEPLPIVYYVGRKPKVEQLSNMIVRSCKCS-ALDTNYCFSSTEKNCCVRQLYIDFRKDLGWKWIHEPKGYHANFCLGPCPYIWSLDTQYSKVLALYNQHNPGASAAPCCVPQALEPLPIVYYVGRKPKVEQLSNMIVRSCKCS-ALDTNYCFSSTEKNCCVRQLYIDFRKDLGWKWIHEPKGYHANFCLGPCPYIWSLDTQYSKVLALYNQHNPGASAAPCCVPQALEPLPIVYYVGRKPKVEQLSNMIVRSCKCS-ALDTNYCFSSTEKNCCVRQLYIDFRKDLGWKWIHEPKGYHANFCLGPCPYIWSLDTQYSKVLALYNQHNPGASAAPCCVPQALEPLPIVYYVGRKPKVEQLSNMIVRSCKCS-ALDTNYCFSSTEKNCCVRQLYIDFRKDLGWKWIHEPKGYHANFCLGPCPYIWSLDTQYSKVLALYNQHNPGASAAPCCVPQALEPLPIVYYVGRKPKVEQLSNMIVRSCKCS-ALDTNYCFSSTEKNCCVRQLYIDFRKDLGWKWIHEPKGYHANFCLGPCPYIWSLDTQYSKVLALYNQHNPGASAAPCCVPQALEPLPIVYYVGRKPKVEQLSNMIVRSCKCS-ALDTNYCFSSTEKNCCVRQLYIDFRKDLGWKWIHEPKGYHANFCLGPCPYIWSLDTQYSKVLALYNQHNPGASAAPCCVPQALEPLPIVYYVGRKPKVEQLSNMIVRSCKCS,GMFHDEYQEP-VTLLSTDLIP-LGFYSYFKNR-EEIRRRFHHH-ITVQKEYLVG-RALEHHHHHH-DQNASAHHHH-YEVEATEVTP-KENVNVLIHG-DGLLEVYIQP,LQCFCHLCTK-LQCFCHLCTK-LQCFCHLCTK-LQCFCHLCTK-LQCFCHLCTK-LQCFCHLCTK-LQCFCHLCTK-LQCFCHLCTK-LQCFCHLCTK-LQCFCHLCTK
