contacts,cs,ce,Chain,Length,designed_receptor_seq,native_receptor_seq,designed_binder_seq,native_binder_seq
17.0,42,52,A,10,MDPTVDWRKEGYVTPVKNQGGCGSWAFSAVGALEGQMFKATGKLVALSEQNLVDCSGPQGNNGCDGGLMSNAYQYVKDRGGIDSEASYPYQAKQLACKSDPKNYVAKTNGYTVIAKSEDALQAAVANVGPISVAIDASHQSFRDYKSGILYVPSCSSTSQDHAVLVVGYGSEATSDNKNDYWLVKNSWGSSWGEGGYMKLRRNDNNHCGIASAASYPDV-MDPTVDWRKQGYVTPVKNQGNCGSWAFSAVGAMEGQMFKATGKLISLSEQNLVDCSGPQGNNGCDGGLMTNAYQYVKDRGGIDSEASYPYQAKQLACKANSTNYVANTSGYTVIAKSEAALESAVANVGPISVAIDAGHQSFLNYKSGILYVPSCSSTNQDHAVLVVGYGSEATSDNKNNYWLVKNSWGSSWGEGGYIKLRRNDNNHCGIASYASYPNV-MDPEVDWRKEGYVTPVKNQGGCGSYAFSAVGALEGQMFKATGKLVALSEQNLVDCSGPQGNNGCDGGLMTNAYQYVKDRGGIDSEAAYPYQAKQLACKSDPKNFVAKTNGYTVIAKSEDALEQAVANVGPISVAIDASHQSFKDYKSGILYVPSCSSTNQDHAVLVVGYGSEKTSDNKEKYWLVKNSWGSSWGEGGYIKVARNQNNHCGIASAASYPDV-ADPEVDWRKEGYVTPVKNQGGCGSWAFSAVGALEGQMYKATGKLVSLSEQNLVDCSGPQGNNGCDGGLMSNAYQYVKDRGGIDSESSYPYQAKQLSCKANSTNYVANTSGYTVISRSEAALESAVANVGPISVAIDASSQSFLNYKSGILYVPSCSSTSQDHAVLVVGYGSESTSDNKNNYWLVKNSWGSSWGEGGYIKVRRNENNHCGIASSASYPNV-VDPEVDWRKEGYVTPVKNQGGCGSWAFSAVGALEGQMFKATGKLVALSEQNLVDCSGPQGNNGCDGGLMSNAYQYVKDRGGIDSEASYPYEAKQGSCKADSKNFVANTSGYTVIAKSEDALQSAVANVGPISVAIDAGHQSFLDYKSGILYVPSCSSTNQDHAVLVVGYGSEKTSDNKEKYWLVKNSWGSSWGEGGYIKLRRNDNNHCGIASAASYPNV-MDPTVDWRKQGYVTPVKNQGGCGSWAFSAVGALEGQMFKATGKLVSLSEQNLVDCSGPQGNNGCDGGLMSNAYQYVKDRGGIDSESAYPYQAKQLSCKSDSKNFVANTSGYTVIARSEDALQQAVANVGPISVAIDASHQSFLNYKSGILYVPSCSSTNQDHAVLVVGYGSEKTSDNKNDYWLVKNSWGSSWGEGGYIKLRRNDNNHCGIASYASYPNV-MDPTVDWRKEGYVTPVKNQGGCGSWAFSAVGALEGQMFKATGKLVALSEQNLVDCSGPQGNNGCDGGLMTNAYQYVKDRGGIDSEASYPYQAKQLACKADSKNFVAKTNGYTVIARSEAALEQAVANVGPISVAIDASHQSFLDYKSGILYVPSCSSTSQDHAVLVVGYGSEKTSDNKEKYWLVKNSWGSSWGEGGYIKLRRNDNNHCGIASAASYPNV-ADPTVDWRKQGYVTPVKNQGSCGSYAFSAVGALEGQMFKATGKLVALSEQNLVDCSGPQGNNGCDGGLMSNAYQYVKDRGGIDSEASYPYQAKQLACKADSKNFVAKTNGYTDIAKSEDALEAAVANVGPISVAIDAGHQSFKDYKSGILYVPSCSSTSQDHAVLVVGYGSEKTSDNKEKYWLVKNSWGSSWGEGGYIKVARNQNNHCGIASAASYPDV-MDPTVDWRKEGYVTPVKNQGNCGSYAFSAVGAMEGQMFKATGKLISLSEQNLVDCSGPQGNNGCDGGLMSNAYQYVKDRGGIDSEASYPYKATQGSCQANSTNYVANTSGYTVIARSEAALESAVANVGPISVAIDAGHQSFLNYKSGILYVPSCSSTSQDHAVLVVGYGSEATSDNRNNYWLVKNSWGSSWGEGGYMKLARNQNNHCGIASAASYPNV-VDPEVDWRKEGYVTPVKNQGGCGSWAFSAVGALEGQMFKATGKLVSLSEQNLVDCSGPQGNNGCDGGLMTNAYQYVKDRGGIDSESSYPYEAKQGSCKADSKNFVAKTSGYTVIAKSEDALEKAVANVGPISVAIDASHQSFLDYKSGILYVPSCSSTSQDHAVLVVGYGSEKTSDNKEKYWLVKNSWGSSWGEGGYIKLRRNENNHCGIASAASYPDV,APRSVDWREKGYVTPVKNQGQCGSWAFSATGALEGQMFRKTGRLISLSEQNLVDCSGPQGNEGCNGGLMDYAFQYVQDNGGLDSEESYPYEATEESCKYNPKYSVANDAGFVDIPKQEKALMKAVATVGPISVAIDAGHESFLFYKEGIYFEPDCSSEDMDHGVLVVGYGFESTESDDNKYWLVKNSWGEEWGMGGYVKMAKDRRNHCGIASAASYPTV-APRSVDWREKGYVTPVKNQGQCGSWAFSATGALEGQMFRKTGRLISLSEQNLVDCSGPQGNEGCNGGLMDYAFQYVQDNGGLDSEESYPYEATEESCKYNPKYSVANDAGFVDIPKQEKALMKAVATVGPISVAIDAGHESFLFYKEGIYFEPDCSSEDMDHGVLVVGYGFESTESDDNKYWLVKNSWGEEWGMGGYVKMAKDRRNHCGIASAASYPTV-APRSVDWREKGYVTPVKNQGQCGSWAFSATGALEGQMFRKTGRLISLSEQNLVDCSGPQGNEGCNGGLMDYAFQYVQDNGGLDSEESYPYEATEESCKYNPKYSVANDAGFVDIPKQEKALMKAVATVGPISVAIDAGHESFLFYKEGIYFEPDCSSEDMDHGVLVVGYGFESTESDDNKYWLVKNSWGEEWGMGGYVKMAKDRRNHCGIASAASYPTV-APRSVDWREKGYVTPVKNQGQCGSWAFSATGALEGQMFRKTGRLISLSEQNLVDCSGPQGNEGCNGGLMDYAFQYVQDNGGLDSEESYPYEATEESCKYNPKYSVANDAGFVDIPKQEKALMKAVATVGPISVAIDAGHESFLFYKEGIYFEPDCSSEDMDHGVLVVGYGFESTESDDNKYWLVKNSWGEEWGMGGYVKMAKDRRNHCGIASAASYPTV-APRSVDWREKGYVTPVKNQGQCGSWAFSATGALEGQMFRKTGRLISLSEQNLVDCSGPQGNEGCNGGLMDYAFQYVQDNGGLDSEESYPYEATEESCKYNPKYSVANDAGFVDIPKQEKALMKAVATVGPISVAIDAGHESFLFYKEGIYFEPDCSSEDMDHGVLVVGYGFESTESDDNKYWLVKNSWGEEWGMGGYVKMAKDRRNHCGIASAASYPTV-APRSVDWREKGYVTPVKNQGQCGSWAFSATGALEGQMFRKTGRLISLSEQNLVDCSGPQGNEGCNGGLMDYAFQYVQDNGGLDSEESYPYEATEESCKYNPKYSVANDAGFVDIPKQEKALMKAVATVGPISVAIDAGHESFLFYKEGIYFEPDCSSEDMDHGVLVVGYGFESTESDDNKYWLVKNSWGEEWGMGGYVKMAKDRRNHCGIASAASYPTV-APRSVDWREKGYVTPVKNQGQCGSWAFSATGALEGQMFRKTGRLISLSEQNLVDCSGPQGNEGCNGGLMDYAFQYVQDNGGLDSEESYPYEATEESCKYNPKYSVANDAGFVDIPKQEKALMKAVATVGPISVAIDAGHESFLFYKEGIYFEPDCSSEDMDHGVLVVGYGFESTESDDNKYWLVKNSWGEEWGMGGYVKMAKDRRNHCGIASAASYPTV-APRSVDWREKGYVTPVKNQGQCGSWAFSATGALEGQMFRKTGRLISLSEQNLVDCSGPQGNEGCNGGLMDYAFQYVQDNGGLDSEESYPYEATEESCKYNPKYSVANDAGFVDIPKQEKALMKAVATVGPISVAIDAGHESFLFYKEGIYFEPDCSSEDMDHGVLVVGYGFESTESDDNKYWLVKNSWGEEWGMGGYVKMAKDRRNHCGIASAASYPTV-APRSVDWREKGYVTPVKNQGQCGSWAFSATGALEGQMFRKTGRLISLSEQNLVDCSGPQGNEGCNGGLMDYAFQYVQDNGGLDSEESYPYEATEESCKYNPKYSVANDAGFVDIPKQEKALMKAVATVGPISVAIDAGHESFLFYKEGIYFEPDCSSEDMDHGVLVVGYGFESTESDDNKYWLVKNSWGEEWGMGGYVKMAKDRRNHCGIASAASYPTV-APRSVDWREKGYVTPVKNQGQCGSWAFSATGALEGQMFRKTGRLISLSEQNLVDCSGPQGNEGCNGGLMDYAFQYVQDNGGLDSEESYPYEATEESCKYNPKYSVANDAGFVDIPKQEKALMKAVATVGPISVAIDAGHESFLFYKEGIYFEPDCSSEDMDHGVLVVGYGFESTESDDNKYWLVKNSWGEEWGMGGYVKMAKDRRNHCGIASAASYPTV,TTTQCVAGVK-SSSQVVCGYK-KTTQVVCGTK-SSSQVVCGYK-SSSQVVCGYK-SSSQVVCGYK-SSSQVVCGVK-STTQVVCGTK-SSSQVVCGYK-SSTQVVCGVK,YKTQVVAGTN-YKTQVVAGTN-YKTQVVAGTN-YKTQVVAGTN-YKTQVVAGTN-YKTQVVAGTN-YKTQVVAGTN-YKTQVVAGTN-YKTQVVAGTN-YKTQVVAGTN
12.0,15,25,B,10,GSHMGLSEEKPATDEIQKIVDTVKPQLEKKTKKKFGKLEAKRYKTQVVAGTNYFIKVKGKKNKYMILEVYKAPPAENNKLTLIGYEENKKEDDEIKAN-GSHMGLSEEKPATEEIQKIVDTVKPQLEKKTKKKFGKLEAKRYKTQVVAGTNYFIKVKGKKDKYMHLEVYKAPPAENNKLTLIGYVENKKEDDEIKAG-GSHMGLSEEKPATDEIQKIVNTVKPQLEKKTKKKFGELKAERYKTQVVAGTNYFIKVKGKKDKYMHLEVYKAPPSENNKLTLIGYEENKKEDDEIKGG-GSHMGLSEEKPATDEIQKIVDTVKPQLEKKTKKKFGKLEAKRYKTQVVAGTNYFIKVKGKKDKYMHLEVYKAPPAENNKLTLIGYVENKKENDEIKAG-GSHMGLSEEKPATDEIQKIVDEVKPQLEKETKKKFGKLEAKRYKTQVVAGTNYFIKVKGKKDKYMHLEVYKAPPAENNKLTLIGYVENKKEDDEIKAG-GSHMGLSEEKPATEEIQKIVDTVKPQLEKKTKKKFGKLEAKRYKTQVVAGTNYFIKVKGKKDKYMHLEVYKAPPAENNKLTLIGYVENKKENDEIKGG-GSHMGLSEEKPATEEIQKIVDTVKPQLEKVSKKKFGKLEAKRYKTQVVAGTNYFIKVKGKKDKYMHLEVYKAPPAENNKLTLIGYVENKKEDDEIKAG-GSHMGLSEEKPATEEIQKIVDTVKPQLEKKTKKKFGKLEAKRYKTQVVAGTNYFIKVKGKKNKYMHLEVYKAPPSENNKLTLIGYVENQKEDDEIKAG-GSHMGLSEEKPATEEIQKIVNEVKPQLEKKTKKKFGELKAERYKTQVVAGTNYFIKVKGKKDKYMHLEVYKAPPAENNKLTLIGYEENKKEDDEIKAG-GSHMGLSEEKPATEEIQKIVDTVKPQLEKKTKKKFGKLEAKRYKTQVVAGTNYFIKVKGKKNKYMHLEVYKAPPSENNKLTLIGYEENKKEDDEIKSG,MIPGGLSEAKPATPEIQEIVDKVKPQLEEKTNETYGKLEAVQYKTQVVAGTNYYIKVRAGDNKYMHLKVFKSLPGQNEDLVLTGYQVDKNKDDELTGF-MIPGGLSEAKPATPEIQEIVDKVKPQLEEKTNETYGKLEAVQYKTQVVAGTNYYIKVRAGDNKYMHLKVFKSLPGQNEDLVLTGYQVDKNKDDELTGF-MIPGGLSEAKPATPEIQEIVDKVKPQLEEKTNETYGKLEAVQYKTQVVAGTNYYIKVRAGDNKYMHLKVFKSLPGQNEDLVLTGYQVDKNKDDELTGF-MIPGGLSEAKPATPEIQEIVDKVKPQLEEKTNETYGKLEAVQYKTQVVAGTNYYIKVRAGDNKYMHLKVFKSLPGQNEDLVLTGYQVDKNKDDELTGF-MIPGGLSEAKPATPEIQEIVDKVKPQLEEKTNETYGKLEAVQYKTQVVAGTNYYIKVRAGDNKYMHLKVFKSLPGQNEDLVLTGYQVDKNKDDELTGF-MIPGGLSEAKPATPEIQEIVDKVKPQLEEKTNETYGKLEAVQYKTQVVAGTNYYIKVRAGDNKYMHLKVFKSLPGQNEDLVLTGYQVDKNKDDELTGF-MIPGGLSEAKPATPEIQEIVDKVKPQLEEKTNETYGKLEAVQYKTQVVAGTNYYIKVRAGDNKYMHLKVFKSLPGQNEDLVLTGYQVDKNKDDELTGF-MIPGGLSEAKPATPEIQEIVDKVKPQLEEKTNETYGKLEAVQYKTQVVAGTNYYIKVRAGDNKYMHLKVFKSLPGQNEDLVLTGYQVDKNKDDELTGF-MIPGGLSEAKPATPEIQEIVDKVKPQLEEKTNETYGKLEAVQYKTQVVAGTNYYIKVRAGDNKYMHLKVFKSLPGQNEDLVLTGYQVDKNKDDELTGF-MIPGGLSEAKPATPEIQEIVDKVKPQLEEKTNETYGKLEAVQYKTQVVAGTNYYIKVRAGDNKYMHLKVFKSLPGQNEDLVLTGYQVDKNKDDELTGF,KKNRGKKGVK-KKNRGKKGVK-KKNKGKKGKK-KKNRGKKGKK-KKNRGKKGVK-KKNRGKKGKK-KKDRGMKGVK-KKNRGKKGVK-KKNRGKKGVK-KKNRGKKGKK,VKNQGQCGSW-VKNQGQCGSW-VKNQGQCGSW-VKNQGQCGSW-VKNQGQCGSW-VKNQGQCGSW-VKNQGQCGSW-VKNQGQCGSW-VKNQGQCGSW-VKNQGQCGSW
