contacts,cs,ce,Chain,Length,designed_receptor_seq,native_receptor_seq,designed_binder_seq,native_binder_seq
20.0,27,37,A,10,GMTLEEIKELIEKELIKGESLGKEAELKKAFEEVLKIIPEKYIKKFEEKGGKIYGVEGSLLKSEEIKEIDKEKLKVKDIFGKERELKDSFALYIKGEKPIFIMKKSKEYLEDEEKRLNIFHEFGHIIAHLLLEEEGKPGEEFFEVLNKIKEEENEKGKKLLFDEELKKLPEEIKKEYFEKNKEKVSEIFARAFALYLEPKYRELLKYYAPEAYEYFKKLFEE-MLTLEEIKEIIEKYTKKGKSLGKEAELKKAFEEVLKIIPEKYIKKFEEKGGKIYGVEGKLTESEELKKLDKKKLKIKDIFGKERKLEEAFALYIKGEKPIFITKLSKEYKEDEEKRLNIFHEFGHIIAHELLEEEGLPGEEFFEVLNKIKEEENKKGRLLLFDEELKKIPEEIKKEYFEKNKEKVSEIFARAFALYLEPKYRELLKYYAPEAYEYFKKLFEE-MLTLEEIKKIIESFTKKGKSLGKEAELKKAFEKVLEIIPEKYIKEFEKIGGKIYGIKGSLLKSKEIKEIDKEKLKVKDIFGNERELEKSFALYIKGKEPIFIMKLSEEYLKDDEKRLNIFHEFGHIIAHSLLEKEGLPGEEFFEVLNKIKEEENEKGKKLLFDEYLKKLPEKISKEFFKKNKEIVSDIFARAFALYIEPKYRELLKYYAPEAYKYFEKLFEE-MLTLEEIKEIIEKYTKKGKSLGKEAEKEKAFKEVLKIIPEKYIKKFEEKGGKIYGVEGSLLKSEEIKKLDKKKLIIKDIFGKERKLEESFALYLKGEKPIFIMKKSEEYKKDEEKRLNIFHEFGHIIAHELLEEEGLPGEEFFEVLNKIKEEENKKGRELLFDEELKKLPEKISKEFFKKNKEKVSEIFARAFALYIEPKYRELLKYYAPEAYKYFEKLFEE-GMTLEEIKKEIEKLTKKGKSLGKEAELKKAFEEVLKIIPEKYIKKFEEKGGKIYGVKGSLLKSEEIKELDKEKLKVKDIFGKERELEKAFALYLKGEKPIFITKLSEEYKKDEEKRLNIFHEFGHIIAHELLEEEGKPGEEFFEVLKKIKEEKDEKGKKLLFDEELKKLPEEIKEEFFKENKEKVSEIFARAFALYLEPKYKELLKKYAPEAYKYFEELFEK-MLTLEEIKKIIESFTKKGKSLGKEAELKKAFEEVLKIIPEKYIKKFEEKGGKIYGVKGSLLKSEEIKELDEKLLEVKDIFGKKRKLEESFALYIKGEKPIFIMKLSEEYKKDEEKRLNIFHEFGHIIAHELLKEEGKPGEEFFEVLNKIKEEENEKGKKLLFDEYLKKLPEKISKEFFEKNKEIVSDIFARAFALYIEPKYRELLKYYAPEAYKYFEKLFEE-GMTIEEIIEEIKKEIIKGESLGEEEEKKKAFEEVLKIIPEKYIEKFKEKGGKIYGVEGSLLKSEEIKEIDEEKLKVKDIFGKERELKDSFALYIKGEKPIFIMKKSKEYKKDDEKRLNIFHEFGHIIAHELLEEEGLPGEEFFEVLKKIKEEENEKGKKLLFDEYLKKLPEEIKEEFFKENKEEVSEIFARAFALYIEPKYRELLKKYAPEAYEYFKKLFEE-MLTLEEIKKIIESFTKKGKSLGKEAELKKAFEEVLKIIPEKYIKEFEKIGGKIYGVKGSLLKSKEIKDIDKKKLIVKDIFGKERKLEESFALYIEGEKPIFIVKLSKEYKKDEEKRLNIFHEFGHIIAHKLLEKEGLPGEEFFKVLNKIKEEKNKEGKLLLFDKELLEKPEEIKKEFFKKNKEKVSEIFARAFALYIEPKYRELLKKYAPEAYEFFKKLFEE-MLTLEEIKKIIESFLIKGESLGEEAEKEKAFEEVLKIIPEKYLKEFEKRGGKIYGVKGSLLKSEEIKELDKEKLKVKDIFGKERELEKSFALYLKGEKPAFIVRKSEEYKKDEEKRLNIFHEFGHIIAHELLEEKGLPGEEFFEVLKKIKEEENEKGKKLLFDEELKKLPEEISEEFFKKNKEKVSEIFARAFALYLEPKYRELLKKVAPEAYEYFEKLFEE-MLTLEEIKEIIEKYTKKGKSLGKEAELEKAFEEVLKIIPEKYIKEFEKKGGKIYGVKGSLLKSEEIKEIDEKKLLVKDIFGKERKLEESFALYLKGEKPIFITKLSEEYKKDSYKRLNIFHEFGHIIAHELLEEKGLPGEEFFEVLNKIKEEKDEKGKKLLFDEYLKKLPEKISKEFFKKNKEIVSDIFARAFALYIEPEYRELLKYYAPEAYEYFKKLFEE,NKTQEEHLKEIMKHIVKIEVKGEEAVKKEAAEKLLEKVPSDVLEMYKAIGGKIYIVDGDITKHISLEALSEDKKKIKDIYGKDALLHEHYVYAKEGYEPVLVIQSSEDYVENTEKALNVYYEIGKILSRDILSKINQPYQKFLDVLNTIKNASDSDGQDLLFTNQLKEHPTDFSVEFLEQNSNEVQEVFAKAFAYYIEPQHRDVLQLYAPEAFNYMDKFNEQ-NKTQEEHLKEIMKHIVKIEVKGEEAVKKEAAEKLLEKVPSDVLEMYKAIGGKIYIVDGDITKHISLEALSEDKKKIKDIYGKDALLHEHYVYAKEGYEPVLVIQSSEDYVENTEKALNVYYEIGKILSRDILSKINQPYQKFLDVLNTIKNASDSDGQDLLFTNQLKEHPTDFSVEFLEQNSNEVQEVFAKAFAYYIEPQHRDVLQLYAPEAFNYMDKFNEQ-NKTQEEHLKEIMKHIVKIEVKGEEAVKKEAAEKLLEKVPSDVLEMYKAIGGKIYIVDGDITKHISLEALSEDKKKIKDIYGKDALLHEHYVYAKEGYEPVLVIQSSEDYVENTEKALNVYYEIGKILSRDILSKINQPYQKFLDVLNTIKNASDSDGQDLLFTNQLKEHPTDFSVEFLEQNSNEVQEVFAKAFAYYIEPQHRDVLQLYAPEAFNYMDKFNEQ-NKTQEEHLKEIMKHIVKIEVKGEEAVKKEAAEKLLEKVPSDVLEMYKAIGGKIYIVDGDITKHISLEALSEDKKKIKDIYGKDALLHEHYVYAKEGYEPVLVIQSSEDYVENTEKALNVYYEIGKILSRDILSKINQPYQKFLDVLNTIKNASDSDGQDLLFTNQLKEHPTDFSVEFLEQNSNEVQEVFAKAFAYYIEPQHRDVLQLYAPEAFNYMDKFNEQ-NKTQEEHLKEIMKHIVKIEVKGEEAVKKEAAEKLLEKVPSDVLEMYKAIGGKIYIVDGDITKHISLEALSEDKKKIKDIYGKDALLHEHYVYAKEGYEPVLVIQSSEDYVENTEKALNVYYEIGKILSRDILSKINQPYQKFLDVLNTIKNASDSDGQDLLFTNQLKEHPTDFSVEFLEQNSNEVQEVFAKAFAYYIEPQHRDVLQLYAPEAFNYMDKFNEQ-NKTQEEHLKEIMKHIVKIEVKGEEAVKKEAAEKLLEKVPSDVLEMYKAIGGKIYIVDGDITKHISLEALSEDKKKIKDIYGKDALLHEHYVYAKEGYEPVLVIQSSEDYVENTEKALNVYYEIGKILSRDILSKINQPYQKFLDVLNTIKNASDSDGQDLLFTNQLKEHPTDFSVEFLEQNSNEVQEVFAKAFAYYIEPQHRDVLQLYAPEAFNYMDKFNEQ-NKTQEEHLKEIMKHIVKIEVKGEEAVKKEAAEKLLEKVPSDVLEMYKAIGGKIYIVDGDITKHISLEALSEDKKKIKDIYGKDALLHEHYVYAKEGYEPVLVIQSSEDYVENTEKALNVYYEIGKILSRDILSKINQPYQKFLDVLNTIKNASDSDGQDLLFTNQLKEHPTDFSVEFLEQNSNEVQEVFAKAFAYYIEPQHRDVLQLYAPEAFNYMDKFNEQ-NKTQEEHLKEIMKHIVKIEVKGEEAVKKEAAEKLLEKVPSDVLEMYKAIGGKIYIVDGDITKHISLEALSEDKKKIKDIYGKDALLHEHYVYAKEGYEPVLVIQSSEDYVENTEKALNVYYEIGKILSRDILSKINQPYQKFLDVLNTIKNASDSDGQDLLFTNQLKEHPTDFSVEFLEQNSNEVQEVFAKAFAYYIEPQHRDVLQLYAPEAFNYMDKFNEQ-NKTQEEHLKEIMKHIVKIEVKGEEAVKKEAAEKLLEKVPSDVLEMYKAIGGKIYIVDGDITKHISLEALSEDKKKIKDIYGKDALLHEHYVYAKEGYEPVLVIQSSEDYVENTEKALNVYYEIGKILSRDILSKINQPYQKFLDVLNTIKNASDSDGQDLLFTNQLKEHPTDFSVEFLEQNSNEVQEVFAKAFAYYIEPQHRDVLQLYAPEAFNYMDKFNEQ-NKTQEEHLKEIMKHIVKIEVKGEEAVKKEAAEKLLEKVPSDVLEMYKAIGGKIYIVDGDITKHISLEALSEDKKKIKDIYGKDALLHEHYVYAKEGYEPVLVIQSSEDYVENTEKALNVYYEIGKILSRDILSKINQPYQKFLDVLNTIKNASDSDGQDLLFTNQLKEHPTDFSVEFLEQNSNEVQEVFAKAFAYYIEPQHRDVLQLYAPEAFNYMDKFNEQ,EGKFPPIKRL-EGKFPPIKRL-EGKFPPIKRL-EGEFPKIERL-EGKFPPIERL-EGEFPPIKRL-EGEFPEIKRL-KGEFPPIKRL-EGEFPEIKRL-EGKFPPIKRL,TFLSPWISNI-TFLSPWISNI-TFLSPWISNI-TFLSPWISNI-TFLSPWISNI-TFLSPWISNI-TFLSPWISNI-TFLSPWISNI-TFLSPWISNI-TFLSPWISNI
16.0,198,208,B,10,GIPDSDNDGIPDIFETEGFTVVTVNNKKYLAPWIDSLHKKLGLTKYKSSPYLKSTARDPYSDYEKVTGLIDKNVAPEARHPQVAAYPIVYLVMEEIELSRYDKKIVRNVTTRRIVDKNPDSNKYSSVSEIDFSKEDWLKKLGLKKDDKISLKFKVRYYNSGTAPIYNKLPTTKLILGDNIVLATIKEKDKDIKAELAPKKYFPDLSKEPLVIGDKDDKDAKPIILDYNQAKILIDTRKLKFETDRNYGNIKKYNKKDGSVKVDKGVNWKDIIPNILSSTAEIVFNGKDLNLIKRRVAAKDPSNPLLSTKPEMTLKEALKIAFGFSEPNGKLEYKGKPITDFTFEFDKKTKEKLDNQLKKLNKTNIYESLDKIELEAKDRIIIRDKKFIYDENYNAVGAKDEYIKSKFEKIKSISKTGIGFEIDKDIIEVISGFYYSIVSKDGKKETVNNKYNELDNLKYNKDGYYVLDFTKYNNNKPIEIKDPNDKIEVYVVTKDKMRKIPKENGDTSIEGIETVKIFEAKGDKSL-GIPDSDNDGIPDIFETEGFTVVTVNNKKFLAPWIDSLHKKLGLTKYKSSPYLKSTAQDPYSDFEKVTGLIDKNVAPEARHPMVAAYPIVYLVMEEIELSRYDKKIKRNVTTRKIISKEPDTNEFSSVSEIDFSKEDWLKKLGLKKDDTISLKFTVRYFNSGTAPIYDKLPTTKLILGDNIVLATIKSKDENIKATLAPKTYFPDLSKEPLTIGDKNDKDATPILLNYNEALTLINTRKLKFVTDRNYGNIKKYNKKDGSIKVDKGVNWSDIIPNILKTTAEIVFNGKDLNLETRRVAAKDPTNPLLSTKPEMTLKKALEIAFGFSEPNGKLQYNGKPITDFTFEFDKKTKEKLDNQLKKLNKTNIYDSLDKIELEAKDRIIIRDKKFIYDDNYNAVGADKKYIKSQFEKIKSVSKTGLSFDIDKDIIKVISGFYYSIVSKDGKKTTVNNKYNQLDNLKYNKDGKYVLDFTKYNNNKPIEIKDPNDKIEVYVVTKDKMRKIPKKDGSTSIEGIETVKVFSAKGDKSL-GIPDSDNDGIPDIFETEGFTVVTVNNKKYLAPWIDSLHKKLGLTKYKSSPYLKSTARDPYSDYEKVTGLIDENVAPEARHPQVAALPRVYLVMEEIELSRYDKKIVRNVTTRRIISKDPDSNKYSSVSEIDFSVPDWLKKLGIEKDDTISLKFTVRYYNSGTAPIYNKLPTTKLILGDDIVLATIKAGKEDIKEVLAPKTYYPDLSKEPLVIGDKDDKDAKPILLNYNEALILIETRKLRFETDQNYGNIAKYNKENGKVEVDKGVNWSDIIPNILKSTAEIVFNGKDLNLITRRVAAKDPSNPLLSTKPDMTLKEALKIAFGFSEPNGKLEFNGKPITDFTFEFDEKTKKDIDNQLKKLNKTNIYESLDKIKLHAKDNIIIRDKRFIYDENYNAVGAKDEYIKSQFEKIEKISKTGIEFKIDKDIIKVISGFYYAKVSKDGKKEYINNKYNELDNLKYNKDGKYVLDFTKYNNNKPIEIDDPNDKIEVYVVTKDKMRKIPKEDGSESIEGIETVKIFEAKGDKSL-GIPDSDNDGIPDIFETQGFTVVTINNKKFLAPWIDSLHKKLGLTKYKSSPYLLSTARDPYSDFEKVTGLIDKNVAPEARHPQVAALPRVYLVMEEIELSKYNKKIKRNVVTRKIISKDPNSNKFSSVSEIDFSKGDWLKKLGIEKDDTISLKFTVRYYNSGTAPIYDKLPTTKLILGDNIVLATIKEKDKDIKATLAPKTYYPDLSKAPLVIGDEKDKDAKPILLNYNEALTLINTRKLKFETDQNYGNIAKYNSKDGSIKVDKGVNWSDIIPNILKTTAEIVFNGKDLNLETRRVAAKDPSNPLLSTKPDMTLKEALKIAFGFSEPNGVLQYNGKPITDFTFEFDKKTNDKLKNQLKKLNKTNIYDSLDKIELEAKDNIIIRDKRFIYDDNYNAVGADKSYIKSQFEKISSISKTGISFKIDKDIINVISGFYYSIKSKDGKETVVNNKFNELDNLKYNKDGKYVLDFTKYNNNKPIEIKDPNDKIVVGVVTKDNMRKIPKSDGSETINGIKTYKVFEAKGDKSL-GIPDSDNDGIPDIFETEGFTVVTVNNKKFLAPWIDSLHKKLGLTKYQSSPYLKSTARDPYSDYEKVTGLIDKDVAPEARHPRVAAYPIVYLVMEEIELSKYNKKIVRNVKTRKIISKEPDSNEFSSVSEIDFSKGDWLEKLGIEKDSEISLKFTVRYYNSGTAPIYNKLPTTKLILGKDIVLATIKAKDEDIKEVLAPKTYYPDLSKEPLVIGDEKDKNAKPIVLNYNEALELIKTRKLKFVTDQNYGNIKKYNKENGKIEVDKGLNWSDIIPNILKSTAEIVFNGKDLNLITRRVAAKDPSNPLLETKPEMTLKEALKIAFGFSEPNGKLEFKGKPITDFTFEFDKETKKKLDNQLKKLNKTNIYESLDKIELEAKDRIIIRDKRFIYDENYNAVGAKDEYIKSKFEKIEKISKTGLEFKIDKDIIKVISGFYYSIVDKDGNKKTVNNKFNELDNLKYNKDGKYVLDFTKYNNNKPIEIKDPNDKIEVYVVTKDKMRKIPKEDGSETIEGIETVSIFSAKGDKSL-GIPDSDNDGIPDIFETEGFTVVTVNDKKFLAPWIDSLHKKLGLTKYKSSPYLKSTARDPYSDFEKVTGLIDKYVAPEARHPQVAAYPIVYLVMEEIELSRYDKKIVRNVVTRKIIDKNPDSNEFSSVSYIDFSKGDWLEKLGLEKDDKISLKFKVRYYNSGTAPIYNKLPTTKLILGDNIVLATIKAKDEDIKAVLAPKTYYPDLSKEPLVVGDKDDKDAKPIILNYNEALELIKTRKLKFVTDRNYGNIAKYNEKDGSVKVDKGVNWSDIIPNILKTTAEIVFNGSDLNLKTRRVAAKDPSNPLLSTKPEMTLKEALLIAFGFSEPNGVLQYKGKPITDFTFEFDKKTKEKLDNQLKKLNKTNIYDSLDKIELEAKDRIIIRDKRFIYDENYNAVGAKDEYIKSKFEKIEKISTTGIEFKIDKDIIKVISGFYYAKVSKDGKKTYINNKYNQLDNLKYNEDGKYVLDFTKYNNNKPIEIEDPNDKIEVYVVTKDKMRKIPKEDGSETIEGIETVKVFEAKGKDEL-GIPDSDNDGIPDIFETEGFTVVTVNNKKYLAPWIDSLHKKLGLTKYKSSPYLKSTARDPYSDFEKVTGLIDKDVAPEARHPQVAAYPIVYLVMEEIELSKYDKKIKRNVTTRKIISKNPNTNEYSSVSEIDFSKEDWLKKLGLKKDDKISLKFTVRYYNSGTAPIYNKLPTTKLILGDNIVLATIKAKDEDIKATLAPKTYFPDLSKEPLVIGDKDDKDAKPIVLDYNQAKILIDTRKLKFVTDQNYGNIKKYNKKDGSIKVDKGVNWSDIIPNILKSTAEIVFNGKDLNLEIRRVAAKDPSNPLLSTKPDMTLKKALEIAFGFSEPNGKLQFNGKPITDFTFEFDKKTKEKLDNQLKKLNKTNIYESLDKIELEAKDRIIIRDKKFIYDENYNAVGAKDSYIKSQFEKIKNISKTGIEFDIDKDIINVISGFYYSIVSKDGKKTTVNNKYNELDNLKYNKDGKYVLDFTKYNNNKPLKIDDPNDKVEVYVVTKDKMRKIPKEDGSETIEGIETVKIFSAKGDKSL-GIPDSDNDGIPDIFETEGFTVVTINNKKYLAPWIDSLHKKLGLTKYKSSPFLKSTARDPYSDYEKVTGLIDKDVAPEARHPMVAAYPIVYLVMEEIELSRYDKKIVRNVTTKKIISKDPNSNKFSSVSEIDFSKGDWLEKLGLKKDDKISLKFKVRYYNSGTAPIYNKLPTTKLILGDNIVLATIKASSENIKATLAPKTYYPSLDKEPLVIGDKKDKNAKPIILNYNEALELIKTRKLKFETDQNYGNIAKYNKKDGSVKVDKGVNWSDIIPNILKTTAEIVFNGKDLNLETRRVAAKDPSNPLLSTKPDMTLKKALEIAFGFSEPNGELQYKGKPITDFTFEFDKKTNEKLKNQLKKLNKTNIYESLDKIELEAKDRIIIRDKRFIYDENYNAVGADKSYIKKNFEKIEKISKTGIEFKIDKDIIKVISGFYYAKVDKNGNKTYVNNKYNEIDNLKYNKDGKYVLDFTKYNNNKPLEIDNPNDKIEVYVVTKDKMRKIPKKDGSESIEGIETVKIFSAKGDKSL-SIPDSDNDGIPDIFETEGFTVVTVNNKKFLAPWIDSLHKKLGLTKYKSSPYLKSTARDPYSDFEKVTGLIDENVAPEARHPQVAALPRVYLVMEEIELSRYDKKIVRNVKTRRIISSEPESNEFSSISEIDFSEEDWLKKLGIEKDSTISLSFTVRYYNSGTAPIYDKLPTTKLILGDNIVLATIKSSSENLKISLKPKEYFPSLDKEPLTINDKKDKNAKPILLTYNEALELIKTRKLKFVTDQNYGNIAKYNEKDGSIKVDKGLNWSEIIPNILKSTAEIVFNGKDLNLITRRVAAKDPSNPLLSTKPEMTLKKALEIAFGFSEPNGELQFNGKPITDFTFEFDKKTKEKLDNQLKKLNKKNIYESLDKIELEAKDRIIIRDKRFIYDENYNAVGADKKYIKEQFKNIKKISKTGIEFDIDKDIIKVISGFYYSIVSKDGKKETVNNKFNELDNLKYNKDGKYVLDFTKYNNNKPIEIKDPNSKIEVYVVTKDKMRKIPKKDGSETIEGIETVLIFSAKGKDDL-GIPDSDNDGIPDIFETEGFTVVTVNNKKFLAPWIDSLHKSLGLTKYKSSPVLKSTARDPYSDFEKVTGLIDKNVAPEARHPQVAAYPIVYLVMEEIELSKSGKKIKRNVTTRRIISKEPDSNEFSSVSEIDFSEEDWLKKLGLEKDDTISLKFTVRYYNSGTAPIYNKLPTTKLILGDNIVLATIKSKDENIKAELAPKKYYPDLSKEPLVIGDKDDKDAKPITLTYNEALTLINTRKLKFVTDQNYGNIKKYNKDNGKVEVDKGVNWSDIIPNILKTTAEIVFNGKDLNLETRRVAAKDPSNPLLETKPEMTLKKALEIAFGFSEPNGKLQFNGKPITDFTFEFDKKTKEKLDNQLKKLNKTNIYESLDKIELEAKDRIIIRDKRFIYDENYNAVGAEKEYIKKNFEKIKKISKTGIEFEIDKDIIKVISGFYYSIKDKDGNKTTVNNKYNELDNLKFNKDGKYVLDFTKYNNNKPLEIKDPNDKVEVYVVTKDKMRKIPKENGDESIEGIETVKIFEAKGKDEL,TVPDRDNDGIPDSLEVEGYTVDVKNKRTFLSPWISNIHEKKGLTKYKSSPEKWSTASDPYSDFEKVTGRIDKNVSPEARHPLVAAYPIVHVDMENIILSKNERTISKNTSTSRTHTSEPGSNSNSSTVAIDHSLSTWAETMGLNTADTARLNANIRYVNTGTAPIYNVLPTTSLVLGKNQTLATIKAKENQLSQILAPNNYYPSKNLAPIALNAQDDFSSTPITMNYNQFLELEKTKQLRLDTDQVYGNIATYNFENGRVRVDTGSNWSEVLPQIQETTARIIFNGKDLNLVERRIAAVNPSDPLETTKPDMTLKEALKIAFGFNEPNGNLQYQGKDITEFDFNFDQQTSQNIKNQLAELNATNIYTVLDKIKLNAKMNILIRDKRFHYDRNNIAVGADESVVKEAHREVINSSTEGLLLNIDKDIRKILSGYIVEIEDTEGLKEVINDRYDMLNISSLRQDGKTFIDFKKYNDKLPLYISNPNYKVNVYAVTKENTIINPSENGDTSTNGIKKILIFSKKGYEIG-TVPDRDNDGIPDSLEVEGYTVDVKNKRTFLSPWISNIHEKKGLTKYKSSPEKWSTASDPYSDFEKVTGRIDKNVSPEARHPLVAAYPIVHVDMENIILSKNERTISKNTSTSRTHTSEPGSNSNSSTVAIDHSLSTWAETMGLNTADTARLNANIRYVNTGTAPIYNVLPTTSLVLGKNQTLATIKAKENQLSQILAPNNYYPSKNLAPIALNAQDDFSSTPITMNYNQFLELEKTKQLRLDTDQVYGNIATYNFENGRVRVDTGSNWSEVLPQIQETTARIIFNGKDLNLVERRIAAVNPSDPLETTKPDMTLKEALKIAFGFNEPNGNLQYQGKDITEFDFNFDQQTSQNIKNQLAELNATNIYTVLDKIKLNAKMNILIRDKRFHYDRNNIAVGADESVVKEAHREVINSSTEGLLLNIDKDIRKILSGYIVEIEDTEGLKEVINDRYDMLNISSLRQDGKTFIDFKKYNDKLPLYISNPNYKVNVYAVTKENTIINPSENGDTSTNGIKKILIFSKKGYEIG-TVPDRDNDGIPDSLEVEGYTVDVKNKRTFLSPWISNIHEKKGLTKYKSSPEKWSTASDPYSDFEKVTGRIDKNVSPEARHPLVAAYPIVHVDMENIILSKNERTISKNTSTSRTHTSEPGSNSNSSTVAIDHSLSTWAETMGLNTADTARLNANIRYVNTGTAPIYNVLPTTSLVLGKNQTLATIKAKENQLSQILAPNNYYPSKNLAPIALNAQDDFSSTPITMNYNQFLELEKTKQLRLDTDQVYGNIATYNFENGRVRVDTGSNWSEVLPQIQETTARIIFNGKDLNLVERRIAAVNPSDPLETTKPDMTLKEALKIAFGFNEPNGNLQYQGKDITEFDFNFDQQTSQNIKNQLAELNATNIYTVLDKIKLNAKMNILIRDKRFHYDRNNIAVGADESVVKEAHREVINSSTEGLLLNIDKDIRKILSGYIVEIEDTEGLKEVINDRYDMLNISSLRQDGKTFIDFKKYNDKLPLYISNPNYKVNVYAVTKENTIINPSENGDTSTNGIKKILIFSKKGYEIG-TVPDRDNDGIPDSLEVEGYTVDVKNKRTFLSPWISNIHEKKGLTKYKSSPEKWSTASDPYSDFEKVTGRIDKNVSPEARHPLVAAYPIVHVDMENIILSKNERTISKNTSTSRTHTSEPGSNSNSSTVAIDHSLSTWAETMGLNTADTARLNANIRYVNTGTAPIYNVLPTTSLVLGKNQTLATIKAKENQLSQILAPNNYYPSKNLAPIALNAQDDFSSTPITMNYNQFLELEKTKQLRLDTDQVYGNIATYNFENGRVRVDTGSNWSEVLPQIQETTARIIFNGKDLNLVERRIAAVNPSDPLETTKPDMTLKEALKIAFGFNEPNGNLQYQGKDITEFDFNFDQQTSQNIKNQLAELNATNIYTVLDKIKLNAKMNILIRDKRFHYDRNNIAVGADESVVKEAHREVINSSTEGLLLNIDKDIRKILSGYIVEIEDTEGLKEVINDRYDMLNISSLRQDGKTFIDFKKYNDKLPLYISNPNYKVNVYAVTKENTIINPSENGDTSTNGIKKILIFSKKGYEIG-TVPDRDNDGIPDSLEVEGYTVDVKNKRTFLSPWISNIHEKKGLTKYKSSPEKWSTASDPYSDFEKVTGRIDKNVSPEARHPLVAAYPIVHVDMENIILSKNERTISKNTSTSRTHTSEPGSNSNSSTVAIDHSLSTWAETMGLNTADTARLNANIRYVNTGTAPIYNVLPTTSLVLGKNQTLATIKAKENQLSQILAPNNYYPSKNLAPIALNAQDDFSSTPITMNYNQFLELEKTKQLRLDTDQVYGNIATYNFENGRVRVDTGSNWSEVLPQIQETTARIIFNGKDLNLVERRIAAVNPSDPLETTKPDMTLKEALKIAFGFNEPNGNLQYQGKDITEFDFNFDQQTSQNIKNQLAELNATNIYTVLDKIKLNAKMNILIRDKRFHYDRNNIAVGADESVVKEAHREVINSSTEGLLLNIDKDIRKILSGYIVEIEDTEGLKEVINDRYDMLNISSLRQDGKTFIDFKKYNDKLPLYISNPNYKVNVYAVTKENTIINPSENGDTSTNGIKKILIFSKKGYEIG-TVPDRDNDGIPDSLEVEGYTVDVKNKRTFLSPWISNIHEKKGLTKYKSSPEKWSTASDPYSDFEKVTGRIDKNVSPEARHPLVAAYPIVHVDMENIILSKNERTISKNTSTSRTHTSEPGSNSNSSTVAIDHSLSTWAETMGLNTADTARLNANIRYVNTGTAPIYNVLPTTSLVLGKNQTLATIKAKENQLSQILAPNNYYPSKNLAPIALNAQDDFSSTPITMNYNQFLELEKTKQLRLDTDQVYGNIATYNFENGRVRVDTGSNWSEVLPQIQETTARIIFNGKDLNLVERRIAAVNPSDPLETTKPDMTLKEALKIAFGFNEPNGNLQYQGKDITEFDFNFDQQTSQNIKNQLAELNATNIYTVLDKIKLNAKMNILIRDKRFHYDRNNIAVGADESVVKEAHREVINSSTEGLLLNIDKDIRKILSGYIVEIEDTEGLKEVINDRYDMLNISSLRQDGKTFIDFKKYNDKLPLYISNPNYKVNVYAVTKENTIINPSENGDTSTNGIKKILIFSKKGYEIG-TVPDRDNDGIPDSLEVEGYTVDVKNKRTFLSPWISNIHEKKGLTKYKSSPEKWSTASDPYSDFEKVTGRIDKNVSPEARHPLVAAYPIVHVDMENIILSKNERTISKNTSTSRTHTSEPGSNSNSSTVAIDHSLSTWAETMGLNTADTARLNANIRYVNTGTAPIYNVLPTTSLVLGKNQTLATIKAKENQLSQILAPNNYYPSKNLAPIALNAQDDFSSTPITMNYNQFLELEKTKQLRLDTDQVYGNIATYNFENGRVRVDTGSNWSEVLPQIQETTARIIFNGKDLNLVERRIAAVNPSDPLETTKPDMTLKEALKIAFGFNEPNGNLQYQGKDITEFDFNFDQQTSQNIKNQLAELNATNIYTVLDKIKLNAKMNILIRDKRFHYDRNNIAVGADESVVKEAHREVINSSTEGLLLNIDKDIRKILSGYIVEIEDTEGLKEVINDRYDMLNISSLRQDGKTFIDFKKYNDKLPLYISNPNYKVNVYAVTKENTIINPSENGDTSTNGIKKILIFSKKGYEIG-TVPDRDNDGIPDSLEVEGYTVDVKNKRTFLSPWISNIHEKKGLTKYKSSPEKWSTASDPYSDFEKVTGRIDKNVSPEARHPLVAAYPIVHVDMENIILSKNERTISKNTSTSRTHTSEPGSNSNSSTVAIDHSLSTWAETMGLNTADTARLNANIRYVNTGTAPIYNVLPTTSLVLGKNQTLATIKAKENQLSQILAPNNYYPSKNLAPIALNAQDDFSSTPITMNYNQFLELEKTKQLRLDTDQVYGNIATYNFENGRVRVDTGSNWSEVLPQIQETTARIIFNGKDLNLVERRIAAVNPSDPLETTKPDMTLKEALKIAFGFNEPNGNLQYQGKDITEFDFNFDQQTSQNIKNQLAELNATNIYTVLDKIKLNAKMNILIRDKRFHYDRNNIAVGADESVVKEAHREVINSSTEGLLLNIDKDIRKILSGYIVEIEDTEGLKEVINDRYDMLNISSLRQDGKTFIDFKKYNDKLPLYISNPNYKVNVYAVTKENTIINPSENGDTSTNGIKKILIFSKKGYEIG-TVPDRDNDGIPDSLEVEGYTVDVKNKRTFLSPWISNIHEKKGLTKYKSSPEKWSTASDPYSDFEKVTGRIDKNVSPEARHPLVAAYPIVHVDMENIILSKNERTISKNTSTSRTHTSEPGSNSNSSTVAIDHSLSTWAETMGLNTADTARLNANIRYVNTGTAPIYNVLPTTSLVLGKNQTLATIKAKENQLSQILAPNNYYPSKNLAPIALNAQDDFSSTPITMNYNQFLELEKTKQLRLDTDQVYGNIATYNFENGRVRVDTGSNWSEVLPQIQETTARIIFNGKDLNLVERRIAAVNPSDPLETTKPDMTLKEALKIAFGFNEPNGNLQYQGKDITEFDFNFDQQTSQNIKNQLAELNATNIYTVLDKIKLNAKMNILIRDKRFHYDRNNIAVGADESVVKEAHREVINSSTEGLLLNIDKDIRKILSGYIVEIEDTEGLKEVINDRYDMLNISSLRQDGKTFIDFKKYNDKLPLYISNPNYKVNVYAVTKENTIINPSENGDTSTNGIKKILIFSKKGYEIG-TVPDRDNDGIPDSLEVEGYTVDVKNKRTFLSPWISNIHEKKGLTKYKSSPEKWSTASDPYSDFEKVTGRIDKNVSPEARHPLVAAYPIVHVDMENIILSKNERTISKNTSTSRTHTSEPGSNSNSSTVAIDHSLSTWAETMGLNTADTARLNANIRYVNTGTAPIYNVLPTTSLVLGKNQTLATIKAKENQLSQILAPNNYYPSKNLAPIALNAQDDFSSTPITMNYNQFLELEKTKQLRLDTDQVYGNIATYNFENGRVRVDTGSNWSEVLPQIQETTARIIFNGKDLNLVERRIAAVNPSDPLETTKPDMTLKEALKIAFGFNEPNGNLQYQGKDITEFDFNFDQQTSQNIKNQLAELNATNIYTVLDKIKLNAKMNILIRDKRFHYDRNNIAVGADESVVKEAHREVINSSTEGLLLNIDKDIRKILSGYIVEIEDTEGLKEVINDRYDMLNISSLRQDGKTFIDFKKYNDKLPLYISNPNYKVNVYAVTKENTIINPSENGDTSTNGIKKILIFSKKGYEIG,ELYKYLEKIF-KGWDYFKKIF-KGYEYLKKIF-KGWDYFKKIF-ELYKELEKIF-KLYKDFEKIF-KLYDYYKKIF-KGWDYFKKIF-KLYKYLKDIF-KLYEKLKEIF,PQHRDVLQLY-PQHRDVLQLY-PQHRDVLQLY-PQHRDVLQLY-PQHRDVLQLY-PQHRDVLQLY-PQHRDVLQLY-PQHRDVLQLY-PQHRDVLQLY-PQHRDVLQLY
