contacts,cs,ce,Chain,Length,designed_receptor_seq,native_receptor_seq,designed_binder_seq,native_binder_seq
17.0,5,15,A,10,MAALTRAQERLSKALSRLRNIISNAERFINRTGQAPIVHLMTILEAKDAAEVAYESKDLQAVNRATQQLQEVNDQIEKYFERSS-GSHMGSFEAYHERVEEDLAYYLDRWEEMRDRCFALPPKYMGHILQTGEAGEKAFRAKDVVAMERANKSLATVRGLINQAISQAE-GSTPSAEEFELRELRSELLELLEVFNPGELLTGSMDVRATRRASRTKFHLERAFKAADEEKMFRAYSELKNVFQEIVAELLRQG-GSSIDFDTLQQRALERQLRGLLDAQQGLKKLTEKLHQRYKADLLAACEAAQQAHASDDKALMLAAYKQLEAIRKRIEDALAEQD-GAMPRRMDRMMEALREELHKLLDNLPSMIQRTEALPIYLKRRTLKAREAGEEAEAGNNAINVATALQRLTEIDGLIEHAIKQRD-AGMKTRRERTLERERRELQAMLDRFGQEYTLTGALPVAYRRAFRAAGYRLQTALALEDYAKMHAANSAVAAIHNEITAALLRIE-GAMPIEQELKLRELKERLTALINDIPKYEKMTGSLPDAAKRRILSVTDKAHVAQASEDPEALEKAYKDLKKVKDEIIKALISMD-SNAPHPPEKELQELLDRLQNEIDNFDDALALTEKLPTYARKAILKGYQLAIDARQSDDKGKMDEAFGGLAQQYQRIENAINKMG-GMVLDEYERHLTAIHTELLALLDRADDAIERTEALPPALRQRIERARYLAVKAYRSCDFAAMSEAADRLTAVFVLIDEAHLQEG-GSTPTLQEELLESVMNALHSRILAWDDVLNKCGACPMEYKRKFKSVRYHGEYAYASKNYTDCERACKELEKIEEEIEIHNISMG,TSLPTSNEYQNEKLANELKSLLDELNVNELATGSLNTYYKRTIKISGQKAMYALKSKDFKKMSEAKYQLQKIYNEIDEALKSKY-TSLPTSNEYQNEKLANELKSLLDELNVNELATGSLNTYYKRTIKISGQKAMYALKSKDFKKMSEAKYQLQKIYNEIDEALKSKY-TSLPTSNEYQNEKLANELKSLLDELNVNELATGSLNTYYKRTIKISGQKAMYALKSKDFKKMSEAKYQLQKIYNEIDEALKSKY-TSLPTSNEYQNEKLANELKSLLDELNVNELATGSLNTYYKRTIKISGQKAMYALKSKDFKKMSEAKYQLQKIYNEIDEALKSKY-TSLPTSNEYQNEKLANELKSLLDELNVNELATGSLNTYYKRTIKISGQKAMYALKSKDFKKMSEAKYQLQKIYNEIDEALKSKY-TSLPTSNEYQNEKLANELKSLLDELNVNELATGSLNTYYKRTIKISGQKAMYALKSKDFKKMSEAKYQLQKIYNEIDEALKSKY-TSLPTSNEYQNEKLANELKSLLDELNVNELATGSLNTYYKRTIKISGQKAMYALKSKDFKKMSEAKYQLQKIYNEIDEALKSKY-TSLPTSNEYQNEKLANELKSLLDELNVNELATGSLNTYYKRTIKISGQKAMYALKSKDFKKMSEAKYQLQKIYNEIDEALKSKY-TSLPTSNEYQNEKLANELKSLLDELNVNELATGSLNTYYKRTIKISGQKAMYALKSKDFKKMSEAKYQLQKIYNEIDEALKSKY-TSLPTSNEYQNEKLANELKSLLDELNVNELATGSLNTYYKRTIKISGQKAMYALKSKDFKKMSEAKYQLQKIYNEIDEALKSKY,TSLNSVAVMK-VSEENQRALA-VPESWVVNFK-IDESNIIAKV-ISDENIVRAD-ISEQDKWPSR-VNPANIEPAE-VDASNIVKTL-ISEERMGYNR-KPEKLIVKDV,IAEENIVSRS-IAEENIVSRS-IAEENIVSRS-IAEENIVSRS-IAEENIVSRS-IAEENIVSRS-IAEENIVSRS-IAEENIVSRS-IAEENIVSRS-IAEENIVSRS
21.0,35,45,B,10,SNAARTLSESIGARSAFPDQSFDEEIYLETDSEGGQPTVTITRNLHDAITTWGFAIVSRSEETGVFEHPRKLFTRYAPVYVMLELPDEIKVREVFQVECVLVNHRKNAPVLVRAETLYNLNFLTGAREDEPFQTIDQIPASSENKIPTVLMPLVAGESTITSRMAVFEQRIADGRVKKIRCVRS-TQNHSVDEADIGGRSNFPDRYWDQDVEFTGIPDGGKPTVTLRLELPDAITTYTFQANTTSFDTGQWKGPPISVERSAAVYDKLELPQAWVVDETHTIYNTLVNDIPGEPVTVEVTHDYNPNFDTPATPDSQWTATVKIPPWDTMKWPITLTPLVEGTETVTSKLAAKETKAADAIVKTVSAVRP-MSSTMVTLEKIRPRTDFPDEWFNDTVYATTPQELGVPVDQLDLTLEDAITVYRLIAWVMSSDDGVAYWSAKMLKKTSSAYIQLNLPKEWVVNDTHTVVASLVNEEKDFPAMLKCVLEYNPELQTGATATSRFDRCITIPPKSVVEWPCTIKPLVGGKVSACVSASIFNKCWSDGVRKDIMVSIP-EELNVVTNWDINPRSDFPDQYAVVITELTSPSQGGIPTNTLCATLNDAIIDYTFKVVSHSEDFGLGQAEDVLFTKTSDIWIDLNLPTSVTVDHEVVVMAELHNDDDDMSMEVNITALYNPKFHTEATTTKPYTKTGVIPPRDVRYWEIPVTPLEQGSQTLTVTMSARKTNVANGISRTVQAVKN-HSHNIIAPEDIGPRSNFPTAWYKDTYVLDQPSQGGQAVETLNLTLKDAITTWEIFYVTTSITRGTLAGPAIEITHTERCFINLDLPEQQVVKTTGTVFARLINGLESEPRTWIVRAEYNAAFDTDATATGPYEKTVTIDPNQILEWPISYTPLEPGTQTLKVSGAEYDRGLADAVMRSVDCVDS-MSERRVDADNIVPAKNFPTQWYNTTFRLEEEAVAGTACTELSVVLRDALQTLTVQVTTQSDVYGMCTMPDVKITVTHPVYIKLQLDDQWRVNESHTVDAIIVNELSDRPVNTRTTLEYAGNWATPATATTPFSVQITVPPMGRATWPVTVTPLLGGSQTVAFRAAVFDHTDADGVRRTVQMVVP-SNAKYVDWRDIVSRYDFPEEDYKVEVFFRTDVEEGQPVKTLTLQLPDQITTYYLRVVAYSNERGINRSCENAITTTADEFIVLDLPRELEVRKSFQVIAKIVNARDNAPVKLRVDLQYGRDWNTPARPDLPYFQELTVPPRSELEWPAEVIPLQGGVQALVVKAAAYDLRMADGVSKSVKAVDP-AITHRVSENDILPRKDFPQYWNRTQIFFDSAPRGGVPTETLQYRYPDKLWTWVTQVTSTSDDFGDHAYPALYTTRTAPFFIQLTLPSFCVVCEEFVVYSILVNNIADQPVQLRIRFNYNPDFDTSSTLDAPFEVIEKVPPQQEKTVPITLVPLVQGSQQVQVSASVFDEHWADAETKFVKCVTM-GEASRVTAKDIIPDSDYPESAFLQQVSLFNASIGGLPKVLLHYKPKDSITTWRFRCEAISKSTGIAVSEPELVTVNDLVFIDLNLPDEVTVDQRYTVFARLVNELPNAPLSATIEKLYNPNFDTNATLFKPDRKEVLIAPASVLTWPVVLKPLVAGWETITVCATVTEKQWADGDTKSVRMVEQ-MTNKPISEDDIVPYADFPSEGFKLEATLNTPPSGGVPSVKLNLTLADAISIYTLEATAYSPEYGVAAFEPVKIEKSRPVYINLDLPSQVQVGKSYTVMAHLVNNRLDKPLQLRVTLVHDPNWETPATATVPDTVEVEVPFRKTYSWPLSATPLETGRNTAAVLASVVGDNLADGDQTDILAVLP,LDEDIIAEENIVSRSEFPESWLWNVEDLKEPPKNGISTKLMNIFLKDSITTWEILAVSMSDKKGICVADPFEVTVMQDFFIDLRLPYSVVRNEQVEIRAVLYNYRQNQELKVRVELLHNPAFCSLATTKRRHQQTVTIPPKSSLSVPYVIVPLKTGLQEVEVKAAVYHHFISDGVRKSLKVVPE-LDEDIIAEENIVSRSEFPESWLWNVEDLKEPPKNGISTKLMNIFLKDSITTWEILAVSMSDKKGICVADPFEVTVMQDFFIDLRLPYSVVRNEQVEIRAVLYNYRQNQELKVRVELLHNPAFCSLATTKRRHQQTVTIPPKSSLSVPYVIVPLKTGLQEVEVKAAVYHHFISDGVRKSLKVVPE-LDEDIIAEENIVSRSEFPESWLWNVEDLKEPPKNGISTKLMNIFLKDSITTWEILAVSMSDKKGICVADPFEVTVMQDFFIDLRLPYSVVRNEQVEIRAVLYNYRQNQELKVRVELLHNPAFCSLATTKRRHQQTVTIPPKSSLSVPYVIVPLKTGLQEVEVKAAVYHHFISDGVRKSLKVVPE-LDEDIIAEENIVSRSEFPESWLWNVEDLKEPPKNGISTKLMNIFLKDSITTWEILAVSMSDKKGICVADPFEVTVMQDFFIDLRLPYSVVRNEQVEIRAVLYNYRQNQELKVRVELLHNPAFCSLATTKRRHQQTVTIPPKSSLSVPYVIVPLKTGLQEVEVKAAVYHHFISDGVRKSLKVVPE-LDEDIIAEENIVSRSEFPESWLWNVEDLKEPPKNGISTKLMNIFLKDSITTWEILAVSMSDKKGICVADPFEVTVMQDFFIDLRLPYSVVRNEQVEIRAVLYNYRQNQELKVRVELLHNPAFCSLATTKRRHQQTVTIPPKSSLSVPYVIVPLKTGLQEVEVKAAVYHHFISDGVRKSLKVVPE-LDEDIIAEENIVSRSEFPESWLWNVEDLKEPPKNGISTKLMNIFLKDSITTWEILAVSMSDKKGICVADPFEVTVMQDFFIDLRLPYSVVRNEQVEIRAVLYNYRQNQELKVRVELLHNPAFCSLATTKRRHQQTVTIPPKSSLSVPYVIVPLKTGLQEVEVKAAVYHHFISDGVRKSLKVVPE-LDEDIIAEENIVSRSEFPESWLWNVEDLKEPPKNGISTKLMNIFLKDSITTWEILAVSMSDKKGICVADPFEVTVMQDFFIDLRLPYSVVRNEQVEIRAVLYNYRQNQELKVRVELLHNPAFCSLATTKRRHQQTVTIPPKSSLSVPYVIVPLKTGLQEVEVKAAVYHHFISDGVRKSLKVVPE-LDEDIIAEENIVSRSEFPESWLWNVEDLKEPPKNGISTKLMNIFLKDSITTWEILAVSMSDKKGICVADPFEVTVMQDFFIDLRLPYSVVRNEQVEIRAVLYNYRQNQELKVRVELLHNPAFCSLATTKRRHQQTVTIPPKSSLSVPYVIVPLKTGLQEVEVKAAVYHHFISDGVRKSLKVVPE-LDEDIIAEENIVSRSEFPESWLWNVEDLKEPPKNGISTKLMNIFLKDSITTWEILAVSMSDKKGICVADPFEVTVMQDFFIDLRLPYSVVRNEQVEIRAVLYNYRQNQELKVRVELLHNPAFCSLATTKRRHQQTVTIPPKSSLSVPYVIVPLKTGLQEVEVKAAVYHHFISDGVRKSLKVVPE-LDEDIIAEENIVSRSEFPESWLWNVEDLKEPPKNGISTKLMNIFLKDSITTWEILAVSMSDKKGICVADPFEVTVMQDFFIDLRLPYSVVRNEQVEIRAVLYNYRQNQELKVRVELLHNPAFCSLATTKRRHQQTVTIPPKSSLSVPYVIVPLKTGLQEVEVKAAVYHHFISDGVRKSLKVVPE,NYKSEAYEKT-GWRQMGEDQR-QWKDVRERLL-RNKKKEFEQV-TPANLRYLKL-TDQYVRMLRK-HPKLIKWLTQ-APSYVRQTRR-STKYYRKMLG-RQESKAERQR,NTYYKRTIKI-NTYYKRTIKI-NTYYKRTIKI-NTYYKRTIKI-NTYYKRTIKI-NTYYKRTIKI-NTYYKRTIKI-NTYYKRTIKI-NTYYKRTIKI-NTYYKRTIKI
