contacts,cs,ce,Chain,Length,designed_receptor_seq,native_receptor_seq,designed_binder_seq,native_binder_seq
26.0,43,53,A,10,GPLGSVCRKYVGIPTFVFGPGLEELMVSFVERLDVPNLSVKSGAPEDNILGIGSGSYFDLHSRIKFNVFVLKKDGEIASLYSISNGFIFVLNACQDVIHDFKEIQKKISTSPQYCDSSRPLLLFASIPDDMTKSNVLLISKKLQLNSYQYPYRIQKTIASTLKGFKEGVQWILYRFFDQ-SNATMSLDETKFEPSFLFGPGLWQLEKNLVENLNQPLFKRKAGDPDENLGGWGSGQYFALDDSTRWRMFEISEKSLIEALYRRVDGFVWVFDARADRNWDWDSERRKIAIHPVYNSVSNPVLILATIPNSSSQSNVSRLSLDLELDQLQYPFRIQKTRADTLEGLEDGIRWILGQYETK-SNAIYEADEYREIPQFLFGPGLNKLEVDLMETLEKPTFDKRAGHPDRNISGIGSGMDFSLKEDRKFRIIEVNEQEVIHMVYKVCDGYIYILDGTNDRVYDWDSLRSRLLTSPDWNDTDRPVLFLYTIPHSGDESDPDQIVEDLELNQLRFPFMVQKVISTTLEGFSDGILWILKQFDQK-SNASTKKKKQVDIPVFNGGPGLTELEVSLKSTLKDNILTKKEGLPSDDIGGIGAGNYYELDKNVTFKEYYVGEDDQLSKLYEVVDGFIYVFDAIKTRTHDFEKITKDLEKNPSHGSTSKPVLILATISDDSTNRNVKKIAQALDLDSFDYPWKVQETVAVSLRGWKEGIQWILKHYETK-GLSAELRREVVKEPAFMFGPGLKELKVDLLENLSTLELFKKDGAPIDDILGIGSGTMFSLNDETHFRIFHVRRVQNLSDLYTRVDGFIYVFNAEQSITHDWTTLQDELRMRPLHSALSKPLLILATISDDSEEMNVHDLAQQLCLNDFKYPWKIQKTQADSLSGFLEGIRWILACFDEQ-KTEVMMKAVVINLPTFYMGPGLSSLSVDLLKNFEQPSWFKVEGDPSDEVEGVGSGYWFSLNNQEIFRIYDLKDTTRRDQLMKYCDGYIYVLDAEWNKDNDWIAEQEMLKVSPEWGDVEKPLLVLATIPRLSWKSNVYLIAEQLDLNSYKYPWKIQKVEADTLSGVKEGVDWILENVKRS-SNASHMAAADQSLPVFLMGPGLFNLHHSIIDTLNSSHSIAQQGNPSESWEGLGSGINFSLDETTEFRIMIQGSEDYIRTIYMRADGFIWIMDHHKDYDHNWQEERAVLDVNPRFGQETRPLLIFATIPHEQDESDVHDLAEKLMLNEYHFPWRVQKVIVMTNEGFTAGIKWILQQYDLK-SNAQVRKRQVREQPWFIFGPGLQELAVDLLEELYKPEFESRLGSPERNLNGLGSGVLFSLDEKRKFQILEVEATEIVRDAFQKADGFIYVFDARADVQRNYDADKTQLEKRPDYSSSDRPLLVLATIPDGEAEGDVLDIVRDLDLSSFQYPYRVQRTRADTLEGFQDGVEWMLNEVDKF-HHHHHHHMATSEAPLFWFGPGLNQLKIDLLETLKQQTWHARLGEPSEHINGLGSGIYFDLNNTTQFNITQINEKTDYEELLRQSHGFIWVHDATESSTHDWLTEREKIKQLPKYGKASQPLLLLACIPDEKSATDPNRIARNLDLNKFKFPWRVQKTVADSLKGFTDGIQWMLEQWRSY-AKMMYSWGAKMEIPVFILGPGLEELEIDLLKNLSTPKLKVQLGNPEEDIVGIGSGRRYNLDDETEFIMFEINEEDDVLDLLQRAHGQIYVFNAESNVEHDWDVLREKMAVSPEYGDKSKPLLILATRPHDKIKSNVKELACKLKLNDYLYPFKIQSTEAVSLAGFKEGIQWILEEFENK,VTSFLHSLIIQNEPRFAFGPGLEELNTSLVLSLSSEELCPTAGLPQRQIDGIGSGVNFQLNNQHKFNILILYSTPQIQKVCEVVDGFIYVANAEAHKRHEWQDEFSHIATDPAFGSSGRPLLVLSCISQGDVKRPCFYLAHELHLNLLNHPWLVQDTEAETLTGFLNGIEWILEEVESK-VTSFLHSLIIQNEPRFAFGPGLEELNTSLVLSLSSEELCPTAGLPQRQIDGIGSGVNFQLNNQHKFNILILYSTPQIQKVCEVVDGFIYVANAEAHKRHEWQDEFSHIATDPAFGSSGRPLLVLSCISQGDVKRPCFYLAHELHLNLLNHPWLVQDTEAETLTGFLNGIEWILEEVESK-VTSFLHSLIIQNEPRFAFGPGLEELNTSLVLSLSSEELCPTAGLPQRQIDGIGSGVNFQLNNQHKFNILILYSTPQIQKVCEVVDGFIYVANAEAHKRHEWQDEFSHIATDPAFGSSGRPLLVLSCISQGDVKRPCFYLAHELHLNLLNHPWLVQDTEAETLTGFLNGIEWILEEVESK-VTSFLHSLIIQNEPRFAFGPGLEELNTSLVLSLSSEELCPTAGLPQRQIDGIGSGVNFQLNNQHKFNILILYSTPQIQKVCEVVDGFIYVANAEAHKRHEWQDEFSHIATDPAFGSSGRPLLVLSCISQGDVKRPCFYLAHELHLNLLNHPWLVQDTEAETLTGFLNGIEWILEEVESK-VTSFLHSLIIQNEPRFAFGPGLEELNTSLVLSLSSEELCPTAGLPQRQIDGIGSGVNFQLNNQHKFNILILYSTPQIQKVCEVVDGFIYVANAEAHKRHEWQDEFSHIATDPAFGSSGRPLLVLSCISQGDVKRPCFYLAHELHLNLLNHPWLVQDTEAETLTGFLNGIEWILEEVESK-VTSFLHSLIIQNEPRFAFGPGLEELNTSLVLSLSSEELCPTAGLPQRQIDGIGSGVNFQLNNQHKFNILILYSTPQIQKVCEVVDGFIYVANAEAHKRHEWQDEFSHIATDPAFGSSGRPLLVLSCISQGDVKRPCFYLAHELHLNLLNHPWLVQDTEAETLTGFLNGIEWILEEVESK-VTSFLHSLIIQNEPRFAFGPGLEELNTSLVLSLSSEELCPTAGLPQRQIDGIGSGVNFQLNNQHKFNILILYSTPQIQKVCEVVDGFIYVANAEAHKRHEWQDEFSHIATDPAFGSSGRPLLVLSCISQGDVKRPCFYLAHELHLNLLNHPWLVQDTEAETLTGFLNGIEWILEEVESK-VTSFLHSLIIQNEPRFAFGPGLEELNTSLVLSLSSEELCPTAGLPQRQIDGIGSGVNFQLNNQHKFNILILYSTPQIQKVCEVVDGFIYVANAEAHKRHEWQDEFSHIATDPAFGSSGRPLLVLSCISQGDVKRPCFYLAHELHLNLLNHPWLVQDTEAETLTGFLNGIEWILEEVESK-VTSFLHSLIIQNEPRFAFGPGLEELNTSLVLSLSSEELCPTAGLPQRQIDGIGSGVNFQLNNQHKFNILILYSTPQIQKVCEVVDGFIYVANAEAHKRHEWQDEFSHIATDPAFGSSGRPLLVLSCISQGDVKRPCFYLAHELHLNLLNHPWLVQDTEAETLTGFLNGIEWILEEVESK-VTSFLHSLIIQNEPRFAFGPGLEELNTSLVLSLSSEELCPTAGLPQRQIDGIGSGVNFQLNNQHKFNILILYSTPQIQKVCEVVDGFIYVANAEAHKRHEWQDEFSHIATDPAFGSSGRPLLVLSCISQGDVKRPCFYLAHELHLNLLNHPWLVQDTEAETLTGFLNGIEWILEEVESK,PMSDWEFLDD-DLRYQEFIFP-MEDSRKFILN-LGALSESLYP-QIIYDRSLML-DAYEDIFIYP-TDADAWELLE-GESGLTNYED-EAVEATEIVE-EEQSLNSFEF,IIHGLSSLTA-IIHGLSSLTA-IIHGLSSLTA-IIHGLSSLTA-IIHGLSSLTA-IIHGLSSLTA-IIHGLSSLTA-IIHGLSSLTA-IIHGLSSLTA-IIHGLSSLTA
16.0,131,141,B,10,KAKYEKSKLLKERKMCDLLFRILHSSITGRLMRFIDLTQDFHTLIREAQELTDDMLELVLYAFFMVKLSRCDDLDFVFSSDESVRPLESAILWSMIETRNAELDAQIMSMLKINSISERKRGRWEQAKQVFSALYGNSSDPSDKETLEALRNKNFDESYFSDYASHQLLFYDMCDDMIRQESINSEYYENIFKEF-GMQLGQLKDIYAKAIEYQLFAILQAYKEGDDFRFEQLSQKFEILVRDLDEIDQDTLEMILNARFLEKLTAYDDVDKQFYIDGTISPLEAAYVLGQIGEKDEELHKEISTWLEINAIAEMYYGDISKAYRVFNRIYGSKFLPGDERILQAIKDRKFNEKFFKQHSFESKLVNQYVETLLSRYNKTEIIRLKKVEEN-LFERMEEEAREMDVLFLLLYEQCNAFEKGEIEQFRRTEHEFRERAMKAHRINPEMVNRILFSEFLRRLVNRTMRKVRFDSDPKITALEAALTLDMIEVADVKLREQIRRQLKINAIAIQEAGEYETAKEIFDRLYGEGEEPGEREKLLALKKRRFDEEFFSSESIEEEPFHLVIRKILAYLSTADVVNTIKELLR-MVEEEEKIARAQRQLEYLLFLKLNSFVFGSKKTFRSIDQAFVKLVKDLSEIDDYTVELILNAMFLDKLEAMDELDKHFHSDEDITPLEWALQLKLIDSKDEELDSRILSHVRVNTIAVQSKGAKARARRAFKRLYGEDTSPGDEQILARLLSGQFNEEYFRLNSLESTLVRRFVEKLIEKYSKVRALGRMALERF-EQEIMEHLFYQANRLCDLLFDIVNSYQSGNIEEFIDLSQQFTILVKALEKINPEIVRKILIAWYIQKLVNADKLDNVFELDEEITPLESAYIIDRIEIKNREMKNAILQQLRINDIARKKANRWGDARIQFDAIYGKGKSPSDKDELEKLLSQSFNTEYYSKHANNHTDIENLTQALNSRFSTDHKTREQAIVDT-SMDFKNELITAATRLELLLYRQVLAFLHGRANEFERIQQEFERLVNALSELTPRLVQQILIAQLLSKLKAGNELDKVFRRDVAITPLEAADIWSRIDVQNTSEHIELMKLIRINTLAIHAAGRHEQAKRAFEALFGENADPGIEATLQKLYSKVYDAEFFREHSLADSVWKEKMMGILKRYHSNAATQAVRLALE-SNADLTKAEILASELEYLLFQILHAYKDNEREAFLRLIERFEILTSRLQSLSEEILMQYRYAQLLIRLEKFDKLDTVFDANPQVTPLESALILLRITKREEDLDRKLHHVLQINDIANQRRGNYDRAKASFKRLFGNDQDPGDLEELWALVQHEYAEEYFAQHDHEDVLVKQYVEVLLKAYSDVDLRNLEQELDD-RSYLEQWSAREQEAVYSLLFAIQLSFATGQDNEFFNLSKQFEQLIKELESLDDKTLKAILISRYLQLQRRALDLNLTFKEDQSVCPLQAALVLGEIESEHYEVDMQIYSLLRQNAIAVCKAGSYQEAQHIFDRLYGANRDPDCQNQLAQLRNQAFDAEYFSHHAWQQQPVVDFVTLQIQKLSSTAAVFQAIEKLG-TSIEKSLEIQDAFRLQALLFDIAHYFILGNIDGFLITRNKLATEINRLQAIDKDLFSVILIADFIKYLANVTVNDLKFSDDLNITPLETALIGLQIKTADQTLDQQILLQIKINTIAVEKVGNWVKARENFNRIYGDGTAPQEMHLLEALDLYEYPQEEFDSLNWNTTLIMNRVRLILDIYSSHHALGEIKQAIE-SNALDEILVAKQDELYELRLAIANAFVTGNKQKFSALLEQFSKLVSQLGSISRQKEEIILETLFLSKIADAEKLTNKYLPDDRISPLEAALILGKINKDNRQLDLKLLRLLKVNAIDNRYRGDWEGAKKTFHRIYGGDLEPGQKSILEALLIKDYKQDFFELFSIELNVVKQKVKSWLSYFNELESIKRIQVVDQ,AGLVAEAEAVAAGWLDFLCLSLCRAFRDGRSEDFRRTRNSAEAIIHGLSSLTACQLRTIYICQFLTRIAAGKTLDAQFENDERITPLESALIWGSIEKEHDKLHEEIQNLIKIQAIAVCENGNFKEAEEVFERIFGDPNSHPFKSKLLIISQKDTFHSFFQHFSYNHEKIKSYVNYVLSEKSSTFLKAAAKVVES-AGLVAEAEAVAAGWLDFLCLSLCRAFRDGRSEDFRRTRNSAEAIIHGLSSLTACQLRTIYICQFLTRIAAGKTLDAQFENDERITPLESALIWGSIEKEHDKLHEEIQNLIKIQAIAVCENGNFKEAEEVFERIFGDPNSHPFKSKLLIISQKDTFHSFFQHFSYNHEKIKSYVNYVLSEKSSTFLKAAAKVVES-AGLVAEAEAVAAGWLDFLCLSLCRAFRDGRSEDFRRTRNSAEAIIHGLSSLTACQLRTIYICQFLTRIAAGKTLDAQFENDERITPLESALIWGSIEKEHDKLHEEIQNLIKIQAIAVCENGNFKEAEEVFERIFGDPNSHPFKSKLLIISQKDTFHSFFQHFSYNHEKIKSYVNYVLSEKSSTFLKAAAKVVES-AGLVAEAEAVAAGWLDFLCLSLCRAFRDGRSEDFRRTRNSAEAIIHGLSSLTACQLRTIYICQFLTRIAAGKTLDAQFENDERITPLESALIWGSIEKEHDKLHEEIQNLIKIQAIAVCENGNFKEAEEVFERIFGDPNSHPFKSKLLIISQKDTFHSFFQHFSYNHEKIKSYVNYVLSEKSSTFLKAAAKVVES-AGLVAEAEAVAAGWLDFLCLSLCRAFRDGRSEDFRRTRNSAEAIIHGLSSLTACQLRTIYICQFLTRIAAGKTLDAQFENDERITPLESALIWGSIEKEHDKLHEEIQNLIKIQAIAVCENGNFKEAEEVFERIFGDPNSHPFKSKLLIISQKDTFHSFFQHFSYNHEKIKSYVNYVLSEKSSTFLKAAAKVVES-AGLVAEAEAVAAGWLDFLCLSLCRAFRDGRSEDFRRTRNSAEAIIHGLSSLTACQLRTIYICQFLTRIAAGKTLDAQFENDERITPLESALIWGSIEKEHDKLHEEIQNLIKIQAIAVCENGNFKEAEEVFERIFGDPNSHPFKSKLLIISQKDTFHSFFQHFSYNHEKIKSYVNYVLSEKSSTFLKAAAKVVES-AGLVAEAEAVAAGWLDFLCLSLCRAFRDGRSEDFRRTRNSAEAIIHGLSSLTACQLRTIYICQFLTRIAAGKTLDAQFENDERITPLESALIWGSIEKEHDKLHEEIQNLIKIQAIAVCENGNFKEAEEVFERIFGDPNSHPFKSKLLIISQKDTFHSFFQHFSYNHEKIKSYVNYVLSEKSSTFLKAAAKVVES-AGLVAEAEAVAAGWLDFLCLSLCRAFRDGRSEDFRRTRNSAEAIIHGLSSLTACQLRTIYICQFLTRIAAGKTLDAQFENDERITPLESALIWGSIEKEHDKLHEEIQNLIKIQAIAVCENGNFKEAEEVFERIFGDPNSHPFKSKLLIISQKDTFHSFFQHFSYNHEKIKSYVNYVLSEKSSTFLKAAAKVVES-AGLVAEAEAVAAGWLDFLCLSLCRAFRDGRSEDFRRTRNSAEAIIHGLSSLTACQLRTIYICQFLTRIAAGKTLDAQFENDERITPLESALIWGSIEKEHDKLHEEIQNLIKIQAIAVCENGNFKEAEEVFERIFGDPNSHPFKSKLLIISQKDTFHSFFQHFSYNHEKIKSYVNYVLSEKSSTFLKAAAKVVES-AGLVAEAEAVAAGWLDFLCLSLCRAFRDGRSEDFRRTRNSAEAIIHGLSSLTACQLRTIYICQFLTRIAAGKTLDAQFENDERITPLESALIWGSIEKEHDKLHEEIQNLIKIQAIAVCENGNFKEAEEVFERIFGDPNSHPFKSKLLIISQKDTFHSFFQHFSYNHEKIKSYVNYVLSEKSSTFLKAAAKVVES,RKSNPVATAL-NGFNPYYSYL-PQDNPFNREM-EYRNPFLDRY-AQRDIFFEEI-TGKNPFTTTL-RETNPFAAAM-ILKNPYYDKR-ITVNPYEAYN-TNNNPYSDLL,VKRPCFYLAH-VKRPCFYLAH-VKRPCFYLAH-VKRPCFYLAH-VKRPCFYLAH-VKRPCFYLAH-VKRPCFYLAH-VKRPCFYLAH-VKRPCFYLAH-VKRPCFYLAH
