contacts,cs,ce,Chain,Length,designed_receptor_seq,native_receptor_seq,designed_binder_seq,native_binder_seq
26.0,43,53,A,10,GSHMSSLPKVKRIPRFLFGPGLSELEVDLLENLKKPEFQRREGDPEDDIEGIGSGVLFSLDEETEFQIFEINDEEKLEELYKKVDGFIFVFNAEKKVEHDWEKLREKLKIDPKYGSKEKPLLILATIPHGEDERDVHELAEKLDLNSFEYPWRIQETIATTLKGFKEGIEWILEKYKEK-GSHMSELPEVVEIPKFLFGPGLYELEVDLLENLKKPELKVREGDPEDDVGGIGSGLYFSLDEETEFRIFDLRDPEKVEELYRIVDGFIFVFNAEASVEHDWEKLREELKIDPEFGSEERPVLILATIPHGEVERDVHELAEKLDLESFKYPWRIQETIATTLEGFEEGIRWILEKYREK-GSHMSEEPEVVEIPRFIFGPGLYSLEVDLLENLKKPNLNVREGDPEDDIGGIGSGLYFDLDEETKFRIFDIRDPEKLKELYKKVDGFIYVFDARKDVEHDWEKIREDLKIDPEYGSKDKPLLILATIPDENTERDVHELAEKLDLNSFEYPWRIQETIATTLKGFKEGIEWILEKYKEK-GSHMSEEPVIEEIPRFIFGPGLYSLEVDLLENLKKPNLKVEEGDPEDDIEGIGSGLNFSLDEETKFRIFVVNDEEKLKELYKKVDGFIFVFDARKDVEHDWEKLREKLKIDPEYGSLDKPLLILATIPDENVERDVHELAEKLDLNSFKYPWRIQETIATTLKGFKEGIEWILEKYKEK-GSHMSEEPEVVEIPKFIFGPGLYSLEVDLLENLKKPEFKKREGDPEDDIGGIGSGVYFSLDENTEFRIFEINDEEKLKELYKKVDGFIFVFDARKDVKHDWEKLREKLKIDPKYGSKEKPLLILATIPDENVERNVHELAEKLDLNSFEYPWKIQETIAKTLKGFKEGIEWILEKYKEK-GSHMFSEPVKKEIPRFLFGPGLYSLEVDLLENLKKPELKVREGDPEDDIEGIGSGLYFSLDDETEFRIFVVKDEEKLKELYKRVDGFIFVFDARKDVEHDWEKLREELKIDPEYGSEEKPLLILATIPDEETERDVHELAEKLDLESFKYPWRIQETVATTLKGFKEGIEWILEKYKEK-GSHMSSLPEIKRIPRFIFGPGLYSLEVDLLENLKKPEFEIREGDPEDDIEGIGSGLYFSLDENTEFRIFDIRDPEKLEKLYEIVDGFIFVFDARKDVEHDWEKLREELKIDPKYGSEDKPLLILATIPDENVERDVHELAEKLDLNSFKYPWRIQETIATTLKGFKEGIEWILEKYKEK-GSHMSEEPVVEEIPRFLFGPGLSELEVDLLENLKKPELKVEEGDPEDDIEGIGSGLYFSLDEETKFRIFVVKDEEKLKELYKKVDGFIFVFNAEKSVEHDWEKLREKLKIDPKYGSKEKPLLILATIPHGEDERDVHELAEKLDLNSFEYPWRVQETIATTLEGFKEGIEWILEKYKEK-GSHMSSLPVVKEIPRFLFGPGLYSLEVDLLENLKKPNLKVREGDPEDDIEGIGSGLYFSLDENTEFRIFVVDDEEKLKELYKKVDGFIYVFDARKDVEHDWEKEREKLKIDPEYGSLEKPLLILATIPDENVERDVHELAEKLDLNSFKYPWRIQETIAKTLKGFKEGIEWILEKYKEK-GSHMSEEPEVVEIPKFIFGPGLYELEVDLLENLKKPELKVEEGDPEDDIEGIGSGLYFSLDEETKFRIFDIRDPEKLKELYKKVDGFIFVFNAEKSKKHDWEKLREELKIDPEYGSKEKPLLILATIPDENTERNVHELAEKLDLNSFEYPWRIQETIAKTLKGFKEGIEWILEKYKEK,VTSFLHSLIIQNEPRFAFGPGLEELNTSLVLSLSSEELCPTAGLPQRQIDGIGSGVNFQLNNQHKFNILILYSTPQIQKVCEVVDGFIYVANAEAHKRHEWQDEFSHIATDPAFGSSGRPLLVLSCISQGDVKRPCFYLAHELHLNLLNHPWLVQDTEAETLTGFLNGIEWILEEVESK-VTSFLHSLIIQNEPRFAFGPGLEELNTSLVLSLSSEELCPTAGLPQRQIDGIGSGVNFQLNNQHKFNILILYSTPQIQKVCEVVDGFIYVANAEAHKRHEWQDEFSHIATDPAFGSSGRPLLVLSCISQGDVKRPCFYLAHELHLNLLNHPWLVQDTEAETLTGFLNGIEWILEEVESK-VTSFLHSLIIQNEPRFAFGPGLEELNTSLVLSLSSEELCPTAGLPQRQIDGIGSGVNFQLNNQHKFNILILYSTPQIQKVCEVVDGFIYVANAEAHKRHEWQDEFSHIATDPAFGSSGRPLLVLSCISQGDVKRPCFYLAHELHLNLLNHPWLVQDTEAETLTGFLNGIEWILEEVESK-VTSFLHSLIIQNEPRFAFGPGLEELNTSLVLSLSSEELCPTAGLPQRQIDGIGSGVNFQLNNQHKFNILILYSTPQIQKVCEVVDGFIYVANAEAHKRHEWQDEFSHIATDPAFGSSGRPLLVLSCISQGDVKRPCFYLAHELHLNLLNHPWLVQDTEAETLTGFLNGIEWILEEVESK-VTSFLHSLIIQNEPRFAFGPGLEELNTSLVLSLSSEELCPTAGLPQRQIDGIGSGVNFQLNNQHKFNILILYSTPQIQKVCEVVDGFIYVANAEAHKRHEWQDEFSHIATDPAFGSSGRPLLVLSCISQGDVKRPCFYLAHELHLNLLNHPWLVQDTEAETLTGFLNGIEWILEEVESK-VTSFLHSLIIQNEPRFAFGPGLEELNTSLVLSLSSEELCPTAGLPQRQIDGIGSGVNFQLNNQHKFNILILYSTPQIQKVCEVVDGFIYVANAEAHKRHEWQDEFSHIATDPAFGSSGRPLLVLSCISQGDVKRPCFYLAHELHLNLLNHPWLVQDTEAETLTGFLNGIEWILEEVESK-VTSFLHSLIIQNEPRFAFGPGLEELNTSLVLSLSSEELCPTAGLPQRQIDGIGSGVNFQLNNQHKFNILILYSTPQIQKVCEVVDGFIYVANAEAHKRHEWQDEFSHIATDPAFGSSGRPLLVLSCISQGDVKRPCFYLAHELHLNLLNHPWLVQDTEAETLTGFLNGIEWILEEVESK-VTSFLHSLIIQNEPRFAFGPGLEELNTSLVLSLSSEELCPTAGLPQRQIDGIGSGVNFQLNNQHKFNILILYSTPQIQKVCEVVDGFIYVANAEAHKRHEWQDEFSHIATDPAFGSSGRPLLVLSCISQGDVKRPCFYLAHELHLNLLNHPWLVQDTEAETLTGFLNGIEWILEEVESK-VTSFLHSLIIQNEPRFAFGPGLEELNTSLVLSLSSEELCPTAGLPQRQIDGIGSGVNFQLNNQHKFNILILYSTPQIQKVCEVVDGFIYVANAEAHKRHEWQDEFSHIATDPAFGSSGRPLLVLSCISQGDVKRPCFYLAHELHLNLLNHPWLVQDTEAETLTGFLNGIEWILEEVESK-VTSFLHSLIIQNEPRFAFGPGLEELNTSLVLSLSSEELCPTAGLPQRQIDGIGSGVNFQLNNQHKFNILILYSTPQIQKVCEVVDGFIYVANAEAHKRHEWQDEFSHIATDPAFGSSGRPLLVLSCISQGDVKRPCFYLAHELHLNLLNHPWLVQDTEAETLTGFLNGIEWILEEVESK,EEEEEEWLEP-EEEEEEWLEP-EEEEEEWLDP-KKKKKKELFP-EKKKEKWLEP-EEEEEEWLEP-EEEEEEWLEE-EEEEEEWLEP-EEEEEEWLEP-EEEEEEWLEP,IIHGLSSLTA-IIHGLSSLTA-IIHGLSSLTA-IIHGLSSLTA-IIHGLSSLTA-IIHGLSSLTA-IIHGLSSLTA-IIHGLSSLTA-IIHGLSSLTA-IIHGLSSLTA
16.0,131,141,B,10,SNAMEEEKIKEQEELEYLLYSILNAYLSGDIEKFKELSKKFEKLVEELKEITPEIKEKILIAKFLEKLVNADKLDVVFSKDKEITPLEDALILEKIKVENEELHKKILELIKINAIAIQKKGEWEKAKEVFERIYGKEEEPGIKEILEKLKEKKFDEEFFKKYSYEDLLVKELVKEYLEKYSKIKKVEELKKKLE-SNAMEEEKIKEQEELEYLLYSILNSYLNGDIEKFKELSKKFEKLVEELKKITPEIKEKILIAYFLRRLINADKLDVRFSSDPEITPLEDALILEKIKVENKELHEKILELIKINAIAIEKEGRWEKAKEIFERIYGKEKEPGIKEKLEELKKKEFNEEFFKKYSKENELIKEYVKKLLEKYSKIKKVKELEKLLE-SNAMEEEKIKEQEELYYLLYSILNAYLEGDEEKFKELLKEFEELVKKLKKITPEIEEKILIAKFLSKLKNAKKLDKVFSPDPEITPLEDALILLKIKEENKELHEKILELLKINAIAIEKEGKWERAKEVFERIYGKEEEPGIKEKLEELKKKEFNEEFFKKYSLEEELVKEYVKELLEKYSKIEKVKELEKKLK-SNAMEEEKIKEQEELEYLLYSILNSYLNGNIEEFKELSKKFEKLVEELKKITPEIEEKILIAKFLTKLVNADKLDKRFSPDPEITPLEDALILEKIKVKDEELDKKILELIKINAIAIEKKGEWEKAKKVFERIYGKEKEPEIKEKLEKLKKKEFDEEFFKKYSYENLLVKEYVKKLLEKYSKNKKVKELEKILE-SNAMEEEKIKEQEELEYLLYSILNSYLNGDIEEFKELSKKFEKLVEELKKITPEIKEKILIAYFLRRLVNADKLDKRFSSDPEITPLEDALILEKIKVEDEELDKKILELIKINAIAIEKKGEWERAKKIFERIYGKEEEPGIKEKLEELKKKEFNEEFFKKYSYEDLLVKEYVKKLLEKYSKIKKVGEILKKIE-SNAMEEEKIKEQEELEYLLYSILNSYLEGDIEKFKELSKKFEKLVKELKKITPEIKEKILIAYFLRRLVNADKLDVVFSSDPEITPLEDALILEKIKVEDKELDEKILKLIKINAIAIEKEGRWEKAKEIFERIYGEEKEPGIKEILEKLKEKKFDEEFFKKYSYEDLLVKEYVKKLLEKYSKIKKVEELKKKIE-SNAMEEEKIKEQEELEYLLYSILNAYLNGDIEKFKELSKEFEKLVEELKKITPEILEKILIAKFLVKLSRATELDVVFSSDPEITPLEDALILEKIKIEDKELHEKILELIKINAIAIEKEGKWERAKEVFERIYGKEEEPEIKEKLEILKKKEFDEEFFKKYSLENKYIKEYVKKLLEKYSKIKKVGELLKKLE-SNAMEEEKIKEQYELEYLLYSILNSYINGDIEEFKELSKKFEKLVKELKEIDEETLEKILIAKFLTKLVNADKLDVVFEEDESITPLESALILLKIKEKNKELHEKILKLIKINAIAIEKKGEWEKAKEIFERIYGEEKEPEIKEELEKLKEKKFDEEFFKKYSYENKYIKEFVKELLEKYSKIKKVEELKKKLE-SNAMEEEKIKEQYELEYLLYSILNSYLNGDIEEFKELSKKFEKLVKELKKIDEKTLEKILIAKFLTKLVNADKLDKRFSPDPEITPLEDALILGKIKVKDKELDEKILELIKINAIAIEKKGEWERAKKIFERIYGKKEEPGIKEKLEKLKKKEFDEEFFKKYSYENKYIKEYVKKLLEKYSKIKKVEELKKKLE-SNAMEEEKIKEQEELEYLLYSILNSYLEGDIEKFKELSKKFEKLVKELKKITPEIKEKILIAYFLRRLVNADKLDVRFSPDPEITPLEDALILLKIKEEDKELHEKILKLIKINAIAIEKKGEWERAKEIFERIYGKEEEPEIKEELEKLKKKEFDEEFFKKYSYEDLLVKEYVKKLLEKYSKIKKVEELKKLLE,AGLVAEAEAVAAGWLDFLCLSLCRAFRDGRSEDFRRTRNSAEAIIHGLSSLTACQLRTIYICQFLTRIAAGKTLDAQFENDERITPLESALIWGSIEKEHDKLHEEIQNLIKIQAIAVCENGNFKEAEEVFERIFGDPNSHPFKSKLLIISQKDTFHSFFQHFSYNHEKIKSYVNYVLSEKSSTFLKAAAKVVES-AGLVAEAEAVAAGWLDFLCLSLCRAFRDGRSEDFRRTRNSAEAIIHGLSSLTACQLRTIYICQFLTRIAAGKTLDAQFENDERITPLESALIWGSIEKEHDKLHEEIQNLIKIQAIAVCENGNFKEAEEVFERIFGDPNSHPFKSKLLIISQKDTFHSFFQHFSYNHEKIKSYVNYVLSEKSSTFLKAAAKVVES-AGLVAEAEAVAAGWLDFLCLSLCRAFRDGRSEDFRRTRNSAEAIIHGLSSLTACQLRTIYICQFLTRIAAGKTLDAQFENDERITPLESALIWGSIEKEHDKLHEEIQNLIKIQAIAVCENGNFKEAEEVFERIFGDPNSHPFKSKLLIISQKDTFHSFFQHFSYNHEKIKSYVNYVLSEKSSTFLKAAAKVVES-AGLVAEAEAVAAGWLDFLCLSLCRAFRDGRSEDFRRTRNSAEAIIHGLSSLTACQLRTIYICQFLTRIAAGKTLDAQFENDERITPLESALIWGSIEKEHDKLHEEIQNLIKIQAIAVCENGNFKEAEEVFERIFGDPNSHPFKSKLLIISQKDTFHSFFQHFSYNHEKIKSYVNYVLSEKSSTFLKAAAKVVES-AGLVAEAEAVAAGWLDFLCLSLCRAFRDGRSEDFRRTRNSAEAIIHGLSSLTACQLRTIYICQFLTRIAAGKTLDAQFENDERITPLESALIWGSIEKEHDKLHEEIQNLIKIQAIAVCENGNFKEAEEVFERIFGDPNSHPFKSKLLIISQKDTFHSFFQHFSYNHEKIKSYVNYVLSEKSSTFLKAAAKVVES-AGLVAEAEAVAAGWLDFLCLSLCRAFRDGRSEDFRRTRNSAEAIIHGLSSLTACQLRTIYICQFLTRIAAGKTLDAQFENDERITPLESALIWGSIEKEHDKLHEEIQNLIKIQAIAVCENGNFKEAEEVFERIFGDPNSHPFKSKLLIISQKDTFHSFFQHFSYNHEKIKSYVNYVLSEKSSTFLKAAAKVVES-AGLVAEAEAVAAGWLDFLCLSLCRAFRDGRSEDFRRTRNSAEAIIHGLSSLTACQLRTIYICQFLTRIAAGKTLDAQFENDERITPLESALIWGSIEKEHDKLHEEIQNLIKIQAIAVCENGNFKEAEEVFERIFGDPNSHPFKSKLLIISQKDTFHSFFQHFSYNHEKIKSYVNYVLSEKSSTFLKAAAKVVES-AGLVAEAEAVAAGWLDFLCLSLCRAFRDGRSEDFRRTRNSAEAIIHGLSSLTACQLRTIYICQFLTRIAAGKTLDAQFENDERITPLESALIWGSIEKEHDKLHEEIQNLIKIQAIAVCENGNFKEAEEVFERIFGDPNSHPFKSKLLIISQKDTFHSFFQHFSYNHEKIKSYVNYVLSEKSSTFLKAAAKVVES-AGLVAEAEAVAAGWLDFLCLSLCRAFRDGRSEDFRRTRNSAEAIIHGLSSLTACQLRTIYICQFLTRIAAGKTLDAQFENDERITPLESALIWGSIEKEHDKLHEEIQNLIKIQAIAVCENGNFKEAEEVFERIFGDPNSHPFKSKLLIISQKDTFHSFFQHFSYNHEKIKSYVNYVLSEKSSTFLKAAAKVVES-AGLVAEAEAVAAGWLDFLCLSLCRAFRDGRSEDFRRTRNSAEAIIHGLSSLTACQLRTIYICQFLTRIAAGKTLDAQFENDERITPLESALIWGSIEKEHDKLHEEIQNLIKIQAIAVCENGNFKEAEEVFERIFGDPNSHPFKSKLLIISQKDTFHSFFQHFSYNHEKIKSYVNYVLSEKSSTFLKAAAKVVES,KKGNPFEKVL-EKENPFEKVL-KKLNPFEEVL-EKENPFEKVL-LEINPFEIVL-KEENPFEKVL-KKENPFEKVL-KKLNPFEKKL-KEGNPFEKVL-KEENPFEKVL,VKRPCFYLAH-VKRPCFYLAH-VKRPCFYLAH-VKRPCFYLAH-VKRPCFYLAH-VKRPCFYLAH-VKRPCFYLAH-VKRPCFYLAH-VKRPCFYLAH-VKRPCFYLAH
