contacts,cs,ce,Chain,Length,designed_receptor_seq,native_receptor_seq,designed_binder_seq,native_binder_seq
13.0,22,32,A,10,MAELLPSGEGEAPEFEEDFEEVEELEELPEELE-MAELLPSGEGKAPEFAELKKEKKKLKKLPKKLK-MAELLPSGEGKAPEFAELKKEKKKLKKLPKKLK-GSHMLPSGKGKAPVFEEDFKEKKELKELPKKKG-MAELLPSGEGELPEFEEDFEEVEELEELPEELE-MAELLPSGEGKAPEFEEDFEEVEELEELPEDLE-MAELLPSGKGKAPTFAENSKAKKKKKKKPKKKK-MAELLPSGDGEAPEFEEDFEEVEELEELPEELE-MAELLPSGKGKAPEFKENYKKVKKLKKLPKKLK-MAELLPSGEGELPDFEEDYEEVEELEELPEELE,FISELPSEEGKKLEHFTKLRPKRNKKQQPTQAA-FISELPSEEGKKLEHFTKLRPKRNKKQQPTQAA-FISELPSEEGKKLEHFTKLRPKRNKKQQPTQAA-FISELPSEEGKKLEHFTKLRPKRNKKQQPTQAA-FISELPSEEGKKLEHFTKLRPKRNKKQQPTQAA-FISELPSEEGKKLEHFTKLRPKRNKKQQPTQAA-FISELPSEEGKKLEHFTKLRPKRNKKQQPTQAA-FISELPSEEGKKLEHFTKLRPKRNKKQQPTQAA-FISELPSEEGKKLEHFTKLRPKRNKKQQPTQAA-FISELPSEEGKKLEHFTKLRPKRNKKQQPTQAA,ENEEFNEELE-KNKKFNKKLK-KNKKFNKKLK-KNKKFNKKLK-ENEEFNELLE-ENEEFNEELE-KNKKFNKKLK-ENEEFNEELE-KNKKFNKKLK-ENEEFNEELE,FNEVFNDVRL-FNEVFNDVRL-FNEVFNDVRL-FNEVFNDVRL-FNEVFNDVRL-FNEVFNDVRL-FNEVFNDVRL-FNEVFNDVRL-FNEVFNDVRL-FNEVFNDVRL
29.0,0,10,B,10,GMSDEEKVALAGELITHAPPGRFNEVFNLVLKALNDREAMAKGCAWAFKEYAERMFTPVKVEGFDEEVLITPYGDAGDGRYLDPRNKILFDFDFLKRKASNPEPAEFGGELEKYRDAFDEALRKYVKENYPNGVSTVFGLEVDGKPTIIACISDEKIDAKNFWNGRWNSTWVLTLEPPKAKVSAVLEYEVTYEKDGYFQLKASKKVEDEVEVTGPEETAKKFVEVIKKAEDEWRKEIEEAFKKLTEETLKGIAAELPESEKLLDLDKIAE-GMSDEEKVALAGELITHAPPGRFNEVFNLVLKALNDREAMAKGCAGSFKKWAEDMFTPVKVEGFDEEVLITPYGDAGDGRYLDPRNKILFDFDFLKRKASNPEPAEFGGELEKYRDAFDKELSAFVKENFPNGVSTVFGLKVDGKDVIIACISDSKFDQKNFWNGQWNSTWVLTLEPPKAKVTATLKYEVTYEEKGYFQLKASKDVEDEVEVTGPEETAKKFVEVIKKSEDEWKKEISDAFKKLTSETLKGIAAELPESEKLLDLDKIAK-GMSEEEKVKLAGELIEHAPPGEFNRVFNLVLKALNNRELMEKGTSWAFKRYAEEMFTPVKVEGYDEEVLITPYGDLGDGRYADPRNKISFDFDFLKRKASNPKPLELGGELEKYRDAFDKELKEFVKKNFPNGVSTVYGLKVDGKDVIIACISDEKIDAKNFWNGRWNSTWVLTLEPPKAKVTATLKYEVTYYEKGYFQLKASKDVEDEVEVTGPEETAKKFVEVIKKSEEEWRKEIEEAFKKFTEEELKGIFAELPESEKLLDLEKIAE-GMTDEEKVALAGLLITNAPPGEFNRVFNAVLKALNNRELLEKGTAWAFKEYAERMFTPVKVEGYDEEVLITPYGDAGNGRYLDPRNKILFDFDFLKRKASNPEPAELGGELEKYRDAFDKELKAFVKENFPNGVSTVYGLKVDGKDVIIACISDEKIDAKNFWNGRWNSVWVLTLEPPKAKVSAVLTYEVHYYEKGNFQLKASKKVEDEVEVTGPEETAKKFVEVIKKAEEEWRKEIEEAFKKLTSETLKGIAAELPESEKLLDLDKIAE-GMSDEEKVALAGALIENAPPGRFNEVFNLVLEALGDREAMEEGCAWAFKRYAERMFTPVKVEGYDEEVLITPYGDAGDGRYLDPRNRILFDFDFLTRKASNPEPAELGGELEEWRDAFDEELRKFVEKEFPNGVSTVYGLKVDGKDVIIACISDEKFDNKNFWNGRWNSTWVLTLEPPVAKVRAVLEYEVTYEEKGYFQLKASKEVEDEVEVTGPEETAKRFVEVIREKEKEWRKEIEEAFSKLTKETLKGIAAELPESEEELDLEEIAK-GMSEEEKVALAGALIENAPPGEFNRVFNLVLKALNDREAMAKGTAWAFKRYAEEMFTPVKVEGFDEEVLITPYGDAGDGRYLDPRNKILFDFDFLKRKASNPEPAEFGGELEKYRDAFDEALRKYVKENYPNGVSTVFGLKVDGKDVIIACISDHKFDNKNFWNARWNSVWVLTLEPPKAKVTATLTSEVTYYEKGYFQLKASKDVEDEVEVTGPEETAKKFVEVIKKSEDEWRKELEEAFKKFTSETLKGIAAELPESEKLLDLDKIAE-GMSDEEKVALAGELITHAPPGEFNRVFNLVLKALNDREAMEKGCAWAFKRYAEEMFTPVKVEGFEKEVLITPYGDAGDGRYLDPRNKILFDFDFLTRKASNPEPYEGGGELEKYRDAFDKELEAFVEKNFPNGVSTVYGLEIEGKPTIIACISDSKFDEKNFWNGRWNSTWVLTLEPPVAKVTAVLKYEVTYYEKGYFQLKASKEVEDEVEVTGPEETAKKFVEVIKKAEEEWRKEIEEAFKKAFSEELKGIFAELPESEKLLDLDKIAE-GMSEEEKVKLAGELITHAPPGEFNRVFNLVLKALNDREAMEKGCAWAFKEYAEKMFTPVKVEGFEEEVLITPYGDAGNGRYLDPRNKILFDFDFLKRKASNPEPAELGGELEKWRDEFDKELKEFVKKEFPNGVSTVYGLKVDGKDVIIACISDSKFDNKNFWNGRWNSTWVLTLEPPKAKVTAVLKYEVTYYEKGYFQLKASKEVEDEVEVKGPKETAKEFVKVIKEKEKEWRKEIEEAFKKFFEEELKGIFPELPEEEKELDLEKILE-GMSDEEKVKLAGELITHAPPGEFNRVFNLVLKALNDREAMAKGCAWAFKRYAEEMFTPVKVEGFEEEVLITPYGDAGDGRYLDPRNKILFDFDFLKRKASNPEPAEFGGELEKYRDAFDKELKAFVEKEFPNGVSTVYGLKVDGKDVIIACISDEKIEAKNFWNGRWNSTWVLTLEPPKAKVSAVLKYEVTYYEKGYFQLKASKKVEDEVEVTGPEETAKKFVEVIKKSEEEWRKEIEEAFKKFTSETLKGIAAELPESEKLLDLDKIAE-GMSEEEKVKLAGELITHAPPGEFNRVFNLVLKALNDREAMEKGCAWAFKRYAEEMFTPVKVEGYDEEVLITPYGDAGNGRYLDPRNKILFDFDFLKRKASNPEPYEGGGELEKYRDAFDEELRKFVKENFPNGVSTVYGLKIDGKDVIIACISDEKIDAKNFWNGRWNSTWVLTLEPPVAKVTAKLEYEVTYYEKGYFQLKASKDVEDEVEVTGPEETAKRFVEVIKEKEEEWRKEIEEAFKKFTEEELKGIAKELPESEKLLDLEKIAE,RVSDEEKVRIAAKFITHAPPGEFNEVFNDVRLLLNNDNLLREGAAHAFAQYNMDQFTPVKIEGYDDQVLITEHGDLGNGRFLDPRNKISFKFDHLRKEASDPQPEDTESALKQWRDACDSALRAYVKDHYPNGFCTVYGKSIDGQQTIIACIESHQFQPKNFWNGRWRSEWKFTITPPTAQVAAVLKIQVHYYEDGNVQLVSHKDIQDSVQVSSDVQTAKEFIKIIENAENEYQTAISENYQTMSDTTFKALRRQLPVTRTKIDWNKILS-RVSDEEKVRIAAKFITHAPPGEFNEVFNDVRLLLNNDNLLREGAAHAFAQYNMDQFTPVKIEGYDDQVLITEHGDLGNGRFLDPRNKISFKFDHLRKEASDPQPEDTESALKQWRDACDSALRAYVKDHYPNGFCTVYGKSIDGQQTIIACIESHQFQPKNFWNGRWRSEWKFTITPPTAQVAAVLKIQVHYYEDGNVQLVSHKDIQDSVQVSSDVQTAKEFIKIIENAENEYQTAISENYQTMSDTTFKALRRQLPVTRTKIDWNKILS-RVSDEEKVRIAAKFITHAPPGEFNEVFNDVRLLLNNDNLLREGAAHAFAQYNMDQFTPVKIEGYDDQVLITEHGDLGNGRFLDPRNKISFKFDHLRKEASDPQPEDTESALKQWRDACDSALRAYVKDHYPNGFCTVYGKSIDGQQTIIACIESHQFQPKNFWNGRWRSEWKFTITPPTAQVAAVLKIQVHYYEDGNVQLVSHKDIQDSVQVSSDVQTAKEFIKIIENAENEYQTAISENYQTMSDTTFKALRRQLPVTRTKIDWNKILS-RVSDEEKVRIAAKFITHAPPGEFNEVFNDVRLLLNNDNLLREGAAHAFAQYNMDQFTPVKIEGYDDQVLITEHGDLGNGRFLDPRNKISFKFDHLRKEASDPQPEDTESALKQWRDACDSALRAYVKDHYPNGFCTVYGKSIDGQQTIIACIESHQFQPKNFWNGRWRSEWKFTITPPTAQVAAVLKIQVHYYEDGNVQLVSHKDIQDSVQVSSDVQTAKEFIKIIENAENEYQTAISENYQTMSDTTFKALRRQLPVTRTKIDWNKILS-RVSDEEKVRIAAKFITHAPPGEFNEVFNDVRLLLNNDNLLREGAAHAFAQYNMDQFTPVKIEGYDDQVLITEHGDLGNGRFLDPRNKISFKFDHLRKEASDPQPEDTESALKQWRDACDSALRAYVKDHYPNGFCTVYGKSIDGQQTIIACIESHQFQPKNFWNGRWRSEWKFTITPPTAQVAAVLKIQVHYYEDGNVQLVSHKDIQDSVQVSSDVQTAKEFIKIIENAENEYQTAISENYQTMSDTTFKALRRQLPVTRTKIDWNKILS-RVSDEEKVRIAAKFITHAPPGEFNEVFNDVRLLLNNDNLLREGAAHAFAQYNMDQFTPVKIEGYDDQVLITEHGDLGNGRFLDPRNKISFKFDHLRKEASDPQPEDTESALKQWRDACDSALRAYVKDHYPNGFCTVYGKSIDGQQTIIACIESHQFQPKNFWNGRWRSEWKFTITPPTAQVAAVLKIQVHYYEDGNVQLVSHKDIQDSVQVSSDVQTAKEFIKIIENAENEYQTAISENYQTMSDTTFKALRRQLPVTRTKIDWNKILS-RVSDEEKVRIAAKFITHAPPGEFNEVFNDVRLLLNNDNLLREGAAHAFAQYNMDQFTPVKIEGYDDQVLITEHGDLGNGRFLDPRNKISFKFDHLRKEASDPQPEDTESALKQWRDACDSALRAYVKDHYPNGFCTVYGKSIDGQQTIIACIESHQFQPKNFWNGRWRSEWKFTITPPTAQVAAVLKIQVHYYEDGNVQLVSHKDIQDSVQVSSDVQTAKEFIKIIENAENEYQTAISENYQTMSDTTFKALRRQLPVTRTKIDWNKILS-RVSDEEKVRIAAKFITHAPPGEFNEVFNDVRLLLNNDNLLREGAAHAFAQYNMDQFTPVKIEGYDDQVLITEHGDLGNGRFLDPRNKISFKFDHLRKEASDPQPEDTESALKQWRDACDSALRAYVKDHYPNGFCTVYGKSIDGQQTIIACIESHQFQPKNFWNGRWRSEWKFTITPPTAQVAAVLKIQVHYYEDGNVQLVSHKDIQDSVQVSSDVQTAKEFIKIIENAENEYQTAISENYQTMSDTTFKALRRQLPVTRTKIDWNKILS-RVSDEEKVRIAAKFITHAPPGEFNEVFNDVRLLLNNDNLLREGAAHAFAQYNMDQFTPVKIEGYDDQVLITEHGDLGNGRFLDPRNKISFKFDHLRKEASDPQPEDTESALKQWRDACDSALRAYVKDHYPNGFCTVYGKSIDGQQTIIACIESHQFQPKNFWNGRWRSEWKFTITPPTAQVAAVLKIQVHYYEDGNVQLVSHKDIQDSVQVSSDVQTAKEFIKIIENAENEYQTAISENYQTMSDTTFKALRRQLPVTRTKIDWNKILS-RVSDEEKVRIAAKFITHAPPGEFNEVFNDVRLLLNNDNLLREGAAHAFAQYNMDQFTPVKIEGYDDQVLITEHGDLGNGRFLDPRNKISFKFDHLRKEASDPQPEDTESALKQWRDACDSALRAYVKDHYPNGFCTVYGKSIDGQQTIIACIESHQFQPKNFWNGRWRSEWKFTITPPTAQVAAVLKIQVHYYEDGNVQLVSHKDIQDSVQVSSDVQTAKEFIKIIENAENEYQTAISENYQTMSDTTFKALRRQLPVTRTKIDWNKILS,KVEELPLGEK-LPEELPSGEE-KLEELPEGGE-KVEELPEGGE-EVEELPSGEE-VPEELPEGGE-KVEELPEGGE-KLEELPEGGE-KVEELPEGGK-KVEELPEGGE,FISELPSEEG-FISELPSEEG-FISELPSEEG-FISELPSEEG-FISELPSEEG-FISELPSEEG-FISELPSEEG-FISELPSEEG-FISELPSEEG-FISELPSEEG
