contacts,cs,ce,Chain,Length,designed_receptor_seq,native_receptor_seq,designed_binder_seq,native_binder_seq
18.0,33,43,A,10,GPHPEPSGKGVEPDYDNYDVPVEEWKTLPENLA-GQKKYPNSSGKHILYASNYKACVMCKQGPRKLS-KLLPRPRGGGENPRLDNFQDEEKEWKSLPTLMG-KEHVVPLRAGFPLSARTCWNPVVQRTVDRVTLS-EAEPLPDSRGFAFDVESKAVQTIELEALPDAIP-MMQVVPSSLGRDPDYESNKLPVTKSKQLPHYMG-SNAPKPSNRGIFPDWPNLFQEVTFLDELPVNIN-GKKPAPTNQGECPYYRTFFDEVEEWDSLPDRVP-VRHPIPDVTGLRPLYKEFNKPKVGLKQGPEQVS-DTDCVPDDAGYCPIYETCFEEITVVETWPKTIE,FISELPSEEGKKLEHFTKLRPKRNKKQQPTQAA-FISELPSEEGKKLEHFTKLRPKRNKKQQPTQAA-FISELPSEEGKKLEHFTKLRPKRNKKQQPTQAA-FISELPSEEGKKLEHFTKLRPKRNKKQQPTQAA-FISELPSEEGKKLEHFTKLRPKRNKKQQPTQAA-FISELPSEEGKKLEHFTKLRPKRNKKQQPTQAA-FISELPSEEGKKLEHFTKLRPKRNKKQQPTQAA-FISELPSEEGKKLEHFTKLRPKRNKKQQPTQAA-FISELPSEEGKKLEHFTKLRPKRNKKQQPTQAA-FISELPSEEGKKLEHFTKLRPKRNKKQQPTQAA,YVIPLCRNLK-QRAHLEHTIE-DAMRLLKNEK-LTQELLHTLN-EIRQKLKTNK-HAETLLRTLE-DVLIFLATLK-NIVQLCRCLK-HLKECLATNS-EVFKKMLTDL,LCEDLLSSVD-LCEDLLSSVD-LCEDLLSSVD-LCEDLLSSVD-LCEDLLSSVD-LCEDLLSSVD-LCEDLLSSVD-LCEDLLSSVD-LCEDLLSSVD-LCEDLLSSVD
41.0,14,24,B,10,GNLDLQNCLGYMGIVPDTYVDANLSALIRTNPELENKLKETVGEPLQVKSDKKVGRDYLVYSYNRDGKSFRSPHSNEYTPPLDNGNQPSEALRQLEEKANEAFYDYRINNYKGGTSSVFLWDTRDGFAGVVLIRKDGNDSGVLRYAWDLQATVDVKTYNDGMKSNYDLIQTVAYSVETTIAQDTELKVNGGITIRKTATRDISNNNPDISNILEMVVDSYNWIDKKLSKVWFGSSMDLIAAE-GHMLLALCLDYMNQVPSSKRSGALEALIDLSPLLERDLLLTVTEPLMTEMDTSVEKEFLVSVYNQHGRAYRSPHSNKYSPPLSNGLMPSEELRSLQIKANQAFAEYRKEHFLGGISSVYLWDREHGFSGVVLIWKCGDQDGSLQWEWHEVSIVGVEQEEDGQRAYLNLVQTVRFYVRNTTVAEGAIEVNGELTEERVQRQDISSDSPYITRIGLMIAESNGSIRHQLWHVVFGQTLEVARSM-SNADLENALAYMNEADASDTDRKLSALIKQIPDLKEALNRTVGLPLKIESDKKKDKSFLVCSQNRSFDSYRSPWSNEYSPPLTDGAMPSRRLAELQKQANTAFSQYRKKHFKGGTSSVYLWDLDAGFAGEVLIHREGDSSKMMHDAWNLRSRITVKLEADAQYAHYSLIMRKSFFVRSSISYSGGHEEVGQIVVQHEKNSEISEKSPFITNIGEMVKNSENDIREALQKQWFGETSKSARLN-TEKFLEMALCYMDNVPPSKREEKLTELIRCVPTLRSELERTVFLPLKRASDPSVSRHYLLSSLNRHQDAFRSPHSQQFFPPVAQGVMPSLALAHLERKANAHFRVYADQMFKGGVSSVYLWDLAQGFALVVLIRKDGDDKAFMRWGWNLNAVVAVERDASGKTAFFDLIQTVQYFIQTGVRGKGGLENMGAVTIRMNSRRAVSADSPYITCIGEMIQTSTGRIGKLLTELVFGKIETRFSNI-AESQLQRCLEYMRTVPDSQTDSNLTSLIQFSPRLSDMLHRTVDLPLHVAMDSAVDKHYLLSSYNRHGLSYRSPHSNLYSPPLANGHEPSSSLRQLEIQANEHFSEYREALYQGGVSSVYMFDTEDGFCGVILVRKEGDTSSAFSWAWDDIARVSVTVEDSGQHAHFSLVMTVGYDVRSSVVASGGFILAGKITEKAESTRVISGSRPFIENIGQMVSDSREELQIARKKIWWGTVNEMIKST-MENDLDLCLDFMGKVPESQRGQNLESLIQAVPALETDLRHSVFQPLKVELDEEVQRHFLKSEFNRDANSFLSPHSARYYPGLLFGVMPSPELEQLQVQANEAFKSYREAMFEGGISSTYLFDTAKGFALIVLIHKEGDGSRPIAWSWHDQNIVGVRTHSDEKRAEFSLISTIAFDAHTNLAPRGGLRLVGSLTRRFDAVADISDTSPFIYQIGNMVQISSEMIERQLNTVYFGMYGEIVSSI-MELQLIDALDYMGSVPASEVNDALSKLIRMQPGLRNVLLQTVSEPLAVKMDPEVNHNYLVSATNQDADSFRSPHSNKFQPPMKHGTRPSENLASLEAEANESFEQYRVQSFEGGTSSVYMWDQEDGFSGVVLIHKAGNHTLSTKWAWDLMAKIYVESETDGRTADFDLIMTIRHDVDTRGLQIGGLRIQGSISRKMSERRVISEQSPYIDNISQMVADGTASIQQAIETVAFGSLGEIHKSS-SNAALDEELAYMNLVPSSLTEANLSLLIKQRPQLKDSLNATVFQPLATKNDPEVKKNFLVCHFNQSGNSYQSPWSNRYYPPLQQGEKPSSALAQLQKQANDAFDRYRDKHFHGGTSSVYLWDTHDGFSLVVLIHKSGDLTQKLWNNWDDISIVRVRKEESGKVASLDLIMTVGYNVKSSTTEADGFVLAGALTTRTVAEKEISAVAPFITAIGEMVDTSRGQIANLLSRVYFGAYAEVIKAS-EQMKLANALQFMGIVPASQVRDNVEKLIGWAPELEDDLKASVEEPLLVALCETVGREFLLSYRNQCEDSFRSPHSGLFSPPLNNGAEPSLELAQIQTQANVYFDKYRSDHFEGGISSVYLWDTEKGFAGIILVHKQDSTTKEFYSAWDLLARLTVHIGNEGTRAHLKLIQTISYFTRKRVVSAGGQEQVGSISRELTKQARISEASPFLTQIGKMVATSAGQLRAELSSTWFGMNKMVEAQH-LEEQLHNCLAFMDHIPPAATRANLTALVELLPQLERSLLQTVSQPLEERLDPTVNQKYLVSAYNQFGNSFRSPHSNQFSPPLSGGVMPSEELASVEHQANAYFEQYRTRMFAGGHSSVYLWDLESGFAGIILVSKRGSMTAEWQDKWDLIAIVEVLVRDDGRKAFFKLVQTVGYDESSAAPLLGNKTLVGEMTSTEMADAKLSKSAPFIINIGKMVDHMTKRQEYNLNVLVHGSTTAVAQRM,SDQQLDCALDLMRRLPPQQIEKNLSDLIDLVPSLCEDLLSSVDQPLKIARDKVVGKDYLLCDYNRDGDSYRSPWSNKYDPPLEDGAMPSARLRKLEVEANNAFDQYRDLYFEGGVSSVYLWDLDHGFAGVILIKKAGDGSKKIKGCWDSIHVVEVQEKSSGRTAHYKLTSTVMLWLQTNKTGSGTMNLGGSLTRQMEKDETVSDSSPHIANIGRLVEDMENKIRSTLNEIYFGKTKDIVNGL-SDQQLDCALDLMRRLPPQQIEKNLSDLIDLVPSLCEDLLSSVDQPLKIARDKVVGKDYLLCDYNRDGDSYRSPWSNKYDPPLEDGAMPSARLRKLEVEANNAFDQYRDLYFEGGVSSVYLWDLDHGFAGVILIKKAGDGSKKIKGCWDSIHVVEVQEKSSGRTAHYKLTSTVMLWLQTNKTGSGTMNLGGSLTRQMEKDETVSDSSPHIANIGRLVEDMENKIRSTLNEIYFGKTKDIVNGL-SDQQLDCALDLMRRLPPQQIEKNLSDLIDLVPSLCEDLLSSVDQPLKIARDKVVGKDYLLCDYNRDGDSYRSPWSNKYDPPLEDGAMPSARLRKLEVEANNAFDQYRDLYFEGGVSSVYLWDLDHGFAGVILIKKAGDGSKKIKGCWDSIHVVEVQEKSSGRTAHYKLTSTVMLWLQTNKTGSGTMNLGGSLTRQMEKDETVSDSSPHIANIGRLVEDMENKIRSTLNEIYFGKTKDIVNGL-SDQQLDCALDLMRRLPPQQIEKNLSDLIDLVPSLCEDLLSSVDQPLKIARDKVVGKDYLLCDYNRDGDSYRSPWSNKYDPPLEDGAMPSARLRKLEVEANNAFDQYRDLYFEGGVSSVYLWDLDHGFAGVILIKKAGDGSKKIKGCWDSIHVVEVQEKSSGRTAHYKLTSTVMLWLQTNKTGSGTMNLGGSLTRQMEKDETVSDSSPHIANIGRLVEDMENKIRSTLNEIYFGKTKDIVNGL-SDQQLDCALDLMRRLPPQQIEKNLSDLIDLVPSLCEDLLSSVDQPLKIARDKVVGKDYLLCDYNRDGDSYRSPWSNKYDPPLEDGAMPSARLRKLEVEANNAFDQYRDLYFEGGVSSVYLWDLDHGFAGVILIKKAGDGSKKIKGCWDSIHVVEVQEKSSGRTAHYKLTSTVMLWLQTNKTGSGTMNLGGSLTRQMEKDETVSDSSPHIANIGRLVEDMENKIRSTLNEIYFGKTKDIVNGL-SDQQLDCALDLMRRLPPQQIEKNLSDLIDLVPSLCEDLLSSVDQPLKIARDKVVGKDYLLCDYNRDGDSYRSPWSNKYDPPLEDGAMPSARLRKLEVEANNAFDQYRDLYFEGGVSSVYLWDLDHGFAGVILIKKAGDGSKKIKGCWDSIHVVEVQEKSSGRTAHYKLTSTVMLWLQTNKTGSGTMNLGGSLTRQMEKDETVSDSSPHIANIGRLVEDMENKIRSTLNEIYFGKTKDIVNGL-SDQQLDCALDLMRRLPPQQIEKNLSDLIDLVPSLCEDLLSSVDQPLKIARDKVVGKDYLLCDYNRDGDSYRSPWSNKYDPPLEDGAMPSARLRKLEVEANNAFDQYRDLYFEGGVSSVYLWDLDHGFAGVILIKKAGDGSKKIKGCWDSIHVVEVQEKSSGRTAHYKLTSTVMLWLQTNKTGSGTMNLGGSLTRQMEKDETVSDSSPHIANIGRLVEDMENKIRSTLNEIYFGKTKDIVNGL-SDQQLDCALDLMRRLPPQQIEKNLSDLIDLVPSLCEDLLSSVDQPLKIARDKVVGKDYLLCDYNRDGDSYRSPWSNKYDPPLEDGAMPSARLRKLEVEANNAFDQYRDLYFEGGVSSVYLWDLDHGFAGVILIKKAGDGSKKIKGCWDSIHVVEVQEKSSGRTAHYKLTSTVMLWLQTNKTGSGTMNLGGSLTRQMEKDETVSDSSPHIANIGRLVEDMENKIRSTLNEIYFGKTKDIVNGL-SDQQLDCALDLMRRLPPQQIEKNLSDLIDLVPSLCEDLLSSVDQPLKIARDKVVGKDYLLCDYNRDGDSYRSPWSNKYDPPLEDGAMPSARLRKLEVEANNAFDQYRDLYFEGGVSSVYLWDLDHGFAGVILIKKAGDGSKKIKGCWDSIHVVEVQEKSSGRTAHYKLTSTVMLWLQTNKTGSGTMNLGGSLTRQMEKDETVSDSSPHIANIGRLVEDMENKIRSTLNEIYFGKTKDIVNGL-SDQQLDCALDLMRRLPPQQIEKNLSDLIDLVPSLCEDLLSSVDQPLKIARDKVVGKDYLLCDYNRDGDSYRSPWSNKYDPPLEDGAMPSARLRKLEVEANNAFDQYRDLYFEGGVSSVYLWDLDHGFAGVILIKKAGDGSKKIKGCWDSIHVVEVQEKSSGRTAHYKLTSTVMLWLQTNKTGSGTMNLGGSLTRQMEKDETVSDSSPHIANIGRLVEDMENKIRSTLNEIYFGKTKDIVNGL,YLSQFCATKS-NLTLLVPHRS-ALMRHASVRS-YLTRDMAARV-ELTLDMAVME-HLTKRVPVRR-SLSLAMAKKE-GLTKLMPEKS-PLTSAVAKRL-FLNKHAAARE,HFTKLRPKRN-HFTKLRPKRN-HFTKLRPKRN-HFTKLRPKRN-HFTKLRPKRN-HFTKLRPKRN-HFTKLRPKRN-HFTKLRPKRN-HFTKLRPKRN-HFTKLRPKRN
