contacts,cs,ce,Chain,Length,designed_receptor_seq,native_receptor_seq,designed_binder_seq,native_binder_seq
18.0,135,145,A,10,GPLKPPIPVLAAQLREECLGGPGEWRLARGDAGLGPLGVEAVWMRGWVRESREGRGVLEDPSGTFHVEGLDSVPHGVPCFVPGRYVAVLGIVRQCAPTPLLSALDVWDLSSNPVYAQSWSRLVWEVHHRIP-GPFGPPIPVLSAMLKELARGGPGEWRLSRAAEGRGPLLLQAVHMKGTVVEVSDGRALLKDPTGCFEVSGLSNVPRGSPCLVPGKFVAVNGVVEAASPTPRLHALTLYDLSANPVHKDMWTTLVEKWHDNIP-SPATPPLPVLASQLRELARGGPGDWWLDRTAAGRGPLALESVLMAGEVREAHRGRAVLRDPSGEFRVSGLETVPKGEPCLVPGRYVRVHGRVVACSPVPELSALTMYDLSANPVYQRSWTAEVHIFHRNVP-SPWNPPLPLLAAMLTERARGGPGAWDLDRAAEGRGPLKLESVLMAGEVRQVLDGTAMLRDPSGEFAVTGLERVPKGKPCLEPGRWVRVHGVVLQTAPTPRLWALEMYDQSDNPVYAAAWSLNVQLFQRNVP-SPLSPPIPLLSSMLQQKAEGGPSDWVLSRASEGRGPLRLSAVHMEGTVKKANSGEAILEDPTGEFSVSGLSTVPRGKPCMLPGQWVAVLGVVERTSPVPALNALYVFCLSQNPVYERAWVERVNLRQAFVP-SPDLPPLRVLSSMLRDRAEGGPGDWQLSREDQGGGPLHLNAVHMRGRVVHTHAGRAELQDPSGFFGVEGLDAVPRGQPCLRPGRFVAVHGVVRQVAPEPTLSAWRMYDLSANPVWERAWQGLVYRFHQQVP-APATPPLRVLAAQLRDRAEGGPGDWRLDRSHLGRGPLRLDAVLMAGTVVQADFGDALLRDPTGQFRVSGLDAVPRGTPCLVPGRYVFVRGRVLRTAPVPWLDAQEMFDASANPVYARAWATLVRLHHDNVP-APILPPIPVLASMLKERARGGPGAWFISREAEGKGPLSITAVWMRGIVKESSGGNAVLEDPSGRFKVEGLESVPKGTPCLVPGKYVKVHGIVSQCSPIPHLRALTIYDLSQNPVYAQMWSTCVFNFLKNIP-SPRRPPLPVLAKQLRDHARGGPGAWLLARSDAGRGPQALTSVWMRGEVLESQSGRALLQDPSGTFAVEGLEAVPQYDPCLQPGRYVAVHGVVRACAPVPRLRALTMFDLSNNPIHARSWTKQVMLAHQHLP-GPADPPLPVLAVQLKDWARGGPGSWELDRSSEGKGPLRLDAVWMAGEVTAVQNGDAVLSDPSGRFRVRGLDQVPQGQPCLRPGRFVFVRGRVQACSPQPELEALRIFDASSNPIWARMWAGYVSIVQRNVP,LPRSPPLKVLAEQLRRDAEGGPGAWRLSRAAAGRGPLDLAAVWMQGRVVMADRGEARLRDPSGDFSVRGLERVPRGRPCLVPGKYVMVMGVVQACSPEPCLQAVKMTDLSDNPIHESMWELEVEDLHRNIP-LPRSPPLKVLAEQLRRDAEGGPGAWRLSRAAAGRGPLDLAAVWMQGRVVMADRGEARLRDPSGDFSVRGLERVPRGRPCLVPGKYVMVMGVVQACSPEPCLQAVKMTDLSDNPIHESMWELEVEDLHRNIP-LPRSPPLKVLAEQLRRDAEGGPGAWRLSRAAAGRGPLDLAAVWMQGRVVMADRGEARLRDPSGDFSVRGLERVPRGRPCLVPGKYVMVMGVVQACSPEPCLQAVKMTDLSDNPIHESMWELEVEDLHRNIP-LPRSPPLKVLAEQLRRDAEGGPGAWRLSRAAAGRGPLDLAAVWMQGRVVMADRGEARLRDPSGDFSVRGLERVPRGRPCLVPGKYVMVMGVVQACSPEPCLQAVKMTDLSDNPIHESMWELEVEDLHRNIP-LPRSPPLKVLAEQLRRDAEGGPGAWRLSRAAAGRGPLDLAAVWMQGRVVMADRGEARLRDPSGDFSVRGLERVPRGRPCLVPGKYVMVMGVVQACSPEPCLQAVKMTDLSDNPIHESMWELEVEDLHRNIP-LPRSPPLKVLAEQLRRDAEGGPGAWRLSRAAAGRGPLDLAAVWMQGRVVMADRGEARLRDPSGDFSVRGLERVPRGRPCLVPGKYVMVMGVVQACSPEPCLQAVKMTDLSDNPIHESMWELEVEDLHRNIP-LPRSPPLKVLAEQLRRDAEGGPGAWRLSRAAAGRGPLDLAAVWMQGRVVMADRGEARLRDPSGDFSVRGLERVPRGRPCLVPGKYVMVMGVVQACSPEPCLQAVKMTDLSDNPIHESMWELEVEDLHRNIP-LPRSPPLKVLAEQLRRDAEGGPGAWRLSRAAAGRGPLDLAAVWMQGRVVMADRGEARLRDPSGDFSVRGLERVPRGRPCLVPGKYVMVMGVVQACSPEPCLQAVKMTDLSDNPIHESMWELEVEDLHRNIP-LPRSPPLKVLAEQLRRDAEGGPGAWRLSRAAAGRGPLDLAAVWMQGRVVMADRGEARLRDPSGDFSVRGLERVPRGRPCLVPGKYVMVMGVVQACSPEPCLQAVKMTDLSDNPIHESMWELEVEDLHRNIP-LPRSPPLKVLAEQLRRDAEGGPGAWRLSRAAAGRGPLDLAAVWMQGRVVMADRGEARLRDPSGDFSVRGLERVPRGRPCLVPGKYVMVMGVVQACSPEPCLQAVKMTDLSDNPIHESMWELEVEDLHRNIP,PLGPAHLRQM-PADYIDKKQL-PLCEAHLQWL-PIGPADLVRM-PLNEQDLRKL-PLLEHDLALM-PVDEELLTRA-PLNTTDLQLM-PWNEADLTML-AIDPRDLSSL,DVNMEHLENL-DVNMEHLENL-DVNMEHLENL-DVNMEHLENL-DVNMEHLENL-DVNMEHLENL-DVNMEHLENL-DVNMEHLENL-DVNMEHLENL-DVNMEHLENL
21.0,120,130,B,10,GHGNCSDFTDALYAPPYVYLSVLFKSQPTAITTITVFASIIKLTGDLSSRGGKWSQTAEITDGSANLQVDFIDSLLSKMIGFTVPEKLAAKSDPSNFENYQKGLKHCDKELENLYCLMTIAYNPCAKMATVQALRSCNITDLMNLCASLQC-SNAMDVNLIESLYAPPFVYLQVLLKSKPSVVTTVVVKASIIRLVGDLKSEGGVWSQTAEISDGTANLVVNLVDGLITNMIGFSVPQKLQAVMDPKSWERYEEGRQRCFDDFQMLHAFLTISYNPLLVEAKVLSIRECNAIDDMALLARLNG-GGSHMVSQINKLYAPPFVLLRQLFAARPRDRTTIVVIAHIIRISGDLKDAGGKWSLEAEVTDGTENLTVNFVNGILDKMIGFTVPQKEEAKGIPTKYELYTRGFRKCKARLIDLKCLMTIAYDPLRFTAKVLDVTEMNRTHFQDLAKLLDV-SDSIDTSISSDLFAPPYTYLSRLLKAEPTNITTVIVKAHIKRKTGNLSDEGGKWSQTAEITDGTANLEIRFVNGIINSLIGFSVPQKLAAMGTPERFELYTDGYTRCREKLKSLSCLMTIAYNPVEDRSTVLALKKMNSLDAFNLAYQLKM-MGFIDQNKLSELFARPFVYLSRLFESRPRKVTTVKVWAKIVKRTGNLLDNGGRWSIRAMITDGTAYLEVRFVDGILVEMIGFSVPQRLAAKAKPEQYKKFQRGKMSCFTALRQLFQLMTISFNPLSQKATVLALEEWNYENEMDLLEQLKD-GRSMDLSNIEKLHAPPFTYLRTLFASKPEETTTLRVHALIVRLTGDLSDRGGKWSVTALITDGTRFLSVSFVNALLEGMIGFSVPEREKAKSDPEQYAKFEAGKEKCRTALINLFAFMTIAFNPTEDKALVKALRDRNENDYLDLCKSLHY-YGEENLNFKRALFAPPYVLLAVLFKSKPNIVTTVDVCAFIKEKTGELSSQGGKWSQKAKVTDGTEFLEVDFVNGILTSLIGFSVPEKEAAKSDPNKFKEYESGKTRCDRALQDLFCKMRISFNPQDLEATVRALRKENMKDVFDLLNSLKG-SNAMDKKIEWLLEEPPFVYLNKLKESKPKAITTIIVKAYIVKKTGELSDRGGKWSQKALITDGTANLQVSFVNSLLEAMIGFTVPEKLAAKGDPEKYQLFEEGKKRCDESLEALHSLLTISYNPLEDDAIVLAIREINIKDYADLKKRLHY-MSLLDVTIADALYEPPYVLLSVLFESKPEVVTTVVVPAFIKRLTGDLSADGGTWSITAQITDGTANLTVQFVDGIITQLIGFSVPEQNAARTDPIRYDQYTAGEERCKKSLEYMHCFMTISYNPIREKATVLALKDFNVRDLSNMRAKLKT-AGHMDTQIFDDLYAPPYTYLSVLFNAKPNAVTTVKVLAYIKRLSGNLSAAGGVWSVTATITDGTELMDVQFINDLLTNMIGYSVPELERAKSVPEEYEKYTQGFQSCQESLINLFCFMTISYNPAAIRALVEALEAMNMMHVLDLADALKV,ENSINLSIAMDLYSPPFVYLSVLMASKPKEVTTVKVKAFIVTLTGNLSSSGGIWSITAKVSDGTAYLDVDFVDEILTSLIGFSVPEMKQSKKDPLQYQKFLEGLQKCQRDLIDLCCLMTISFNPSLSKAMVLALQDVNMEHLENLKKRLNK-ENSINLSIAMDLYSPPFVYLSVLMASKPKEVTTVKVKAFIVTLTGNLSSSGGIWSITAKVSDGTAYLDVDFVDEILTSLIGFSVPEMKQSKKDPLQYQKFLEGLQKCQRDLIDLCCLMTISFNPSLSKAMVLALQDVNMEHLENLKKRLNK-ENSINLSIAMDLYSPPFVYLSVLMASKPKEVTTVKVKAFIVTLTGNLSSSGGIWSITAKVSDGTAYLDVDFVDEILTSLIGFSVPEMKQSKKDPLQYQKFLEGLQKCQRDLIDLCCLMTISFNPSLSKAMVLALQDVNMEHLENLKKRLNK-ENSINLSIAMDLYSPPFVYLSVLMASKPKEVTTVKVKAFIVTLTGNLSSSGGIWSITAKVSDGTAYLDVDFVDEILTSLIGFSVPEMKQSKKDPLQYQKFLEGLQKCQRDLIDLCCLMTISFNPSLSKAMVLALQDVNMEHLENLKKRLNK-ENSINLSIAMDLYSPPFVYLSVLMASKPKEVTTVKVKAFIVTLTGNLSSSGGIWSITAKVSDGTAYLDVDFVDEILTSLIGFSVPEMKQSKKDPLQYQKFLEGLQKCQRDLIDLCCLMTISFNPSLSKAMVLALQDVNMEHLENLKKRLNK-ENSINLSIAMDLYSPPFVYLSVLMASKPKEVTTVKVKAFIVTLTGNLSSSGGIWSITAKVSDGTAYLDVDFVDEILTSLIGFSVPEMKQSKKDPLQYQKFLEGLQKCQRDLIDLCCLMTISFNPSLSKAMVLALQDVNMEHLENLKKRLNK-ENSINLSIAMDLYSPPFVYLSVLMASKPKEVTTVKVKAFIVTLTGNLSSSGGIWSITAKVSDGTAYLDVDFVDEILTSLIGFSVPEMKQSKKDPLQYQKFLEGLQKCQRDLIDLCCLMTISFNPSLSKAMVLALQDVNMEHLENLKKRLNK-ENSINLSIAMDLYSPPFVYLSVLMASKPKEVTTVKVKAFIVTLTGNLSSSGGIWSITAKVSDGTAYLDVDFVDEILTSLIGFSVPEMKQSKKDPLQYQKFLEGLQKCQRDLIDLCCLMTISFNPSLSKAMVLALQDVNMEHLENLKKRLNK-ENSINLSIAMDLYSPPFVYLSVLMASKPKEVTTVKVKAFIVTLTGNLSSSGGIWSITAKVSDGTAYLDVDFVDEILTSLIGFSVPEMKQSKKDPLQYQKFLEGLQKCQRDLIDLCCLMTISFNPSLSKAMVLALQDVNMEHLENLKKRLNK-ENSINLSIAMDLYSPPFVYLSVLMASKPKEVTTVKVKAFIVTLTGNLSSSGGIWSITAKVSDGTAYLDVDFVDEILTSLIGFSVPEMKQSKKDPLQYQKFLEGLQKCQRDLIDLCCLMTISFNPSLSKAMVLALQDVNMEHLENLKKRLNK,HEISWRKKQQ-LRKIDIQNNH-IYRRYKEMNK-LQKLHKMQNQ-YEKRDLERHG-FEDVDRMLNF-LQESFLKDNY-LWRRDLERHG-EEFDYIEFNK-LHKVDLQKHF,LEVEDLHRNI-LEVEDLHRNI-LEVEDLHRNI-LEVEDLHRNI-LEVEDLHRNI-LEVEDLHRNI-LEVEDLHRNI-LEVEDLHRNI-LEVEDLHRNI-LEVEDLHRNI
