contacts,cs,ce,Chain,Length,designed_receptor_seq,native_receptor_seq,designed_binder_seq,native_binder_seq
15.0,5,15,A,10,GSLPLSECYAVDLYPLSNYTFGQKEPLLDAAHSEEELYRRDEENFKKVGTERLVQGVLLVHKDGQPHVLLLREGDTSFCLPGGNLQPGEDAVAGLKRLLTQILGREDGAALVWKVGREIGKWWRPHFSPPQYPFVPLSCRRPRQELTLYLVELEETAHFSVPSNFELVAAPLHSLDRNAPGYGPVLSSLPRLLSGFNFRFN-GSSPLTDCYTVNLYPLSNYSFGTKAPLLAPEKSEAATYERERVNYSLIGTEREVEGVLVVHKDGEPHVLLLRKGDSSYKLPGGTLLPGENEIAGLKRLLTTILGREDGVANTWTINRRIGEWWRPGFSPPMFPFIPAYIDNPKQHKTLYLVELQETATFEVPSNYELVAVPLSELENNAAGFGNILSSLPTLLSGFNFVFN-GSMPAVLEYTVNLYPLSNYTFGTKSPLLAEDKSEEEFYQRAEERFKAEGTERLVEGVLVVHENGEPHVLLLKKGQDHYMLPGGKLEPGEDEVAGLKRLLTTILGREDGVKLKWKINQEIGRYYRPFFSPPMFPYIPEWCTSPKAEKTLYLVELEETALFEVPSNYELVAVPLSDLDKNEAGYGPIISSLPRLLSGFNFKFN-GHMPESEQFTVDLYPLSNYTFGTKEPLLAPESSVEAHYKTAEVNYSKIGTAREVEGVLVVHQDGEPHVLLLRKGETEYMLPGGLLEPGEDEVAGLKRLLTETLGREDGVANEWTIGRVIGEWYRPSFSPPKYPFIPKNVKHPKAHLTLYLVELQRTAHFSVPSNYELVAAPLSLLENNTKGFGPIISSLPELLSGFNFQFN-GSMPASERFEVDLYPLSNYTFGKKEPLLSECKSSEELYKEAEIRFKEIGTERLVEGVLVVHKDGEPHVLLLREGEKKYKLPGGRLLPGEDEIEGLKRLLTEILGRSDGVKNKWSIGRKIGEWWRPGFSPPQYPFIPSWCDNPKSHLTLYLVELEEKALFEIPSNFELVAVPLSELKDNAEGFGPIISSLPELLSGFNFRFN-GMLPSSMSYSVDLYPLSNFSFGQKEPLLSPDRSLEEKYRRAEENFQQIGCERLVEGVLVVHEAGEPHVLLLREGETSYKLPGGRLEPGEDEVAGLKRLLTEILGRSDGVAQRWQIGSVIGRYYRPYFSPPQFPFIPRHVSHPKEELTLYLVELEETAHFAVPSNYQLVAVPLHELENNAPGFGKIISSLPEKLAGFNFRFN-SMLPPELLREVDLYPLSHYRFGTKEPLFADERSEEERFRREEERFRRVGTRRTVEGVLVVHAEGEPHVLLLQEGEERFLLPGGDLLPGEDAVEGLKRLLTKILGREDGVANEWRIRHRIGRWYRPHFSPPMYPFVPRWCVRPKAELTLYLVELEETALFEVPSNYRLVAAPLSLLENNEEGFGPIISALPELLSGFRFRFN-GSMPPEESFSVDLYPLSNYSFGTKEPLMEEESSEEAFYEQARRRFEEVGTERLVKGVLVVHEDGEPHVLLLRQGENEFCLPGGRLLPGEDAIAGLKRLLTRILGRSDGVASRWTIRRKIGEWWRPHFSPPMFPFIPGNIVHPKAHLTLYLVELEKTARFDVPSNYELVAAPLSVLEDNAPGFGPILSSLPRLLSGFNFRFN-AMLPLSLLKSVDLYPLSNYTFGTKAPLEDLADSDEAKYRREAENYAEIGTEREVKGVLVVHQDGTPHVLLLRDGDDAFSLPGGLLLPGEDAVAGLKRLLTLQLGRTDGAANTWTIDRKIGEWWRPGFDPPQYPFIPRWCRRPKAHLTLYLVELSRTAHFAVPSNYALVAAPLDELADNAPGYGKKLAALPQLLAGFNFRYN-GMLPPEERYVVDLYPLSNYTFGTKSPLLAPEKSEEECYRQARERFRRVGMERLVYGVLVVHADGEPHVLLLRRGDHQYCLPGGELEPGEDAVAGLKRLLTLILGREDGRESRWRIGREIGRWWRPAFSPPVYPFVPGYCVNPKAHLTLFLVELEERARFEVPSNYELVAAPLSELRDNEPGFGPVLSALPRLLSGFEFRYN,QTKPLTLERTINLYPLTNYTFGTKEPLYEKDSSVAARFQRMREEFDKIGMRRTVEGVLIVHEHRLPHVLLLQLGTTFFKLPGGELNPGEDEVEGLKRLMTEILGRQDGVLQDWVIDDCIGNWWRPNFEPPQYPYIPAHITKPKEHKKLFLVQLQEKALFAVPKNYKLVAAPLFELYDNAPGYGPIISSLPQLLSRFNFIYN-QTKPLTLERTINLYPLTNYTFGTKEPLYEKDSSVAARFQRMREEFDKIGMRRTVEGVLIVHEHRLPHVLLLQLGTTFFKLPGGELNPGEDEVEGLKRLMTEILGRQDGVLQDWVIDDCIGNWWRPNFEPPQYPYIPAHITKPKEHKKLFLVQLQEKALFAVPKNYKLVAAPLFELYDNAPGYGPIISSLPQLLSRFNFIYN-QTKPLTLERTINLYPLTNYTFGTKEPLYEKDSSVAARFQRMREEFDKIGMRRTVEGVLIVHEHRLPHVLLLQLGTTFFKLPGGELNPGEDEVEGLKRLMTEILGRQDGVLQDWVIDDCIGNWWRPNFEPPQYPYIPAHITKPKEHKKLFLVQLQEKALFAVPKNYKLVAAPLFELYDNAPGYGPIISSLPQLLSRFNFIYN-QTKPLTLERTINLYPLTNYTFGTKEPLYEKDSSVAARFQRMREEFDKIGMRRTVEGVLIVHEHRLPHVLLLQLGTTFFKLPGGELNPGEDEVEGLKRLMTEILGRQDGVLQDWVIDDCIGNWWRPNFEPPQYPYIPAHITKPKEHKKLFLVQLQEKALFAVPKNYKLVAAPLFELYDNAPGYGPIISSLPQLLSRFNFIYN-QTKPLTLERTINLYPLTNYTFGTKEPLYEKDSSVAARFQRMREEFDKIGMRRTVEGVLIVHEHRLPHVLLLQLGTTFFKLPGGELNPGEDEVEGLKRLMTEILGRQDGVLQDWVIDDCIGNWWRPNFEPPQYPYIPAHITKPKEHKKLFLVQLQEKALFAVPKNYKLVAAPLFELYDNAPGYGPIISSLPQLLSRFNFIYN-QTKPLTLERTINLYPLTNYTFGTKEPLYEKDSSVAARFQRMREEFDKIGMRRTVEGVLIVHEHRLPHVLLLQLGTTFFKLPGGELNPGEDEVEGLKRLMTEILGRQDGVLQDWVIDDCIGNWWRPNFEPPQYPYIPAHITKPKEHKKLFLVQLQEKALFAVPKNYKLVAAPLFELYDNAPGYGPIISSLPQLLSRFNFIYN-QTKPLTLERTINLYPLTNYTFGTKEPLYEKDSSVAARFQRMREEFDKIGMRRTVEGVLIVHEHRLPHVLLLQLGTTFFKLPGGELNPGEDEVEGLKRLMTEILGRQDGVLQDWVIDDCIGNWWRPNFEPPQYPYIPAHITKPKEHKKLFLVQLQEKALFAVPKNYKLVAAPLFELYDNAPGYGPIISSLPQLLSRFNFIYN-QTKPLTLERTINLYPLTNYTFGTKEPLYEKDSSVAARFQRMREEFDKIGMRRTVEGVLIVHEHRLPHVLLLQLGTTFFKLPGGELNPGEDEVEGLKRLMTEILGRQDGVLQDWVIDDCIGNWWRPNFEPPQYPYIPAHITKPKEHKKLFLVQLQEKALFAVPKNYKLVAAPLFELYDNAPGYGPIISSLPQLLSRFNFIYN-QTKPLTLERTINLYPLTNYTFGTKEPLYEKDSSVAARFQRMREEFDKIGMRRTVEGVLIVHEHRLPHVLLLQLGTTFFKLPGGELNPGEDEVEGLKRLMTEILGRQDGVLQDWVIDDCIGNWWRPNFEPPQYPYIPAHITKPKEHKKLFLVQLQEKALFAVPKNYKLVAAPLFELYDNAPGYGPIISSLPQLLSRFNFIYN-QTKPLTLERTINLYPLTNYTFGTKEPLYEKDSSVAARFQRMREEFDKIGMRRTVEGVLIVHEHRLPHVLLLQLGTTFFKLPGGELNPGEDEVEGLKRLMTEILGRQDGVLQDWVIDDCIGNWWRPNFEPPQYPYIPAHITKPKEHKKLFLVQLQEKALFAVPKNYKLVAAPLFELYDNAPGYGPIISSLPQLLSRFNFIYN,GPRPPFYTDL-GPRGPCWTDE-GPHPPDLTDE-PPTGPDVTDE-GWRGGDVTDG-GPFPPDFTDE-PPRPPDYTDE-GPRGFTATDE-GPRGPDVTDD-PPRPPWYTDE,GSFSWWTTDQ-GSFSWWTTDQ-GSFSWWTTDQ-GSFSWWTTDQ-GSFSWWTTDQ-GSFSWWTTDQ-GSFSWWTTDQ-GSFSWWTTDQ-GSFSWWTTDQ-GSFSWWTTDQ
24.0,131,141,B,10,PSVFVGHFGGDVTDAELLQVVAAIGVHDVDAVRFAVNRANGVSLGYARITVASEDSVARLLKKLPGKVLRGRRVRVRRATARNRALFEAEARRRAR-PSVFVGLFSNDTTDSELLNVVKDIGVFDVVKVEFAVNKKNGKSLGFAKITVATQESVKKLLEKLPGKVLKGRKVEVKEATPLNLEKFLKEAKKREE-PSVFVGLFAEDVTDSEVLEVIKSIGVDDVVKLSFAVNLANGKSLGFARVTVKSEESVTKLLEKLPGKVLKGRKVDVKRDTPENFAEFLKGAKERLK-PSVFVGHFGGDVTDSELLNVVKDIGVTDVRKLRFAINEENGRSLGFAEVVVASNESVDKLLKKLPGRVLKGREVDVRLATEENFREFLAKARSRER-PSVFVGLFGGDVTTAELLEVIRDIGVRDVVRVKFAINRKNGKSLGFAEIVVATYKSVRRLLRKLPGRVLRGRRVQVRLATRRNYKLFLAGARRRRE-PSVFVGLFPPDTTTAELLEVIKDIGVTDVRRVKFAINEANGVSLGFAEITVATNASVTRLLKELPGKVLKGRKVEVRLATKENLKEFRAGALSRIR-PSVYVGLFHPDTTTGELLRIVKSIGVHDVKKVSFAVNKENGISLGFAKITVATNKSVEKLLKKLPGKVLRGLKVSVKKATKKNLKEFMKGAKEREK-PAVFVGHFDGDVTDQELLSVIGSIGVSDVVALRFAVNERNGRSRGFAQVTVATEVSVRRLLRDLPGKVLKGRAVDVVRATPENFARFLAEAESRAR-PSVFVGLFGSDVTDSEVLEEIRAIGVHDVVKLQFAINKRNGRSLGFARVTVATERSVRKLLKRLPGKVLKGRRVRVKLATERNLRRFLAGARRRRR-PAVFVGLFGSAVTDAEVLEVVRSIGVHDVVELEFAVNERNGVSLGYARVVVATERSVRRLLERLPGRVLRGRAVRVERDTPENRRRFRAAALRRER,AAVYVGSFSWWTTDQQLIQVIRSIGVYDVVELKFAENRANGQSKGYAEVVVASENSVHKLLELLPGKVLNGEKVDVRPATRQNLSQFEAQARKREC-AAVYVGSFSWWTTDQQLIQVIRSIGVYDVVELKFAENRANGQSKGYAEVVVASENSVHKLLELLPGKVLNGEKVDVRPATRQNLSQFEAQARKREC-AAVYVGSFSWWTTDQQLIQVIRSIGVYDVVELKFAENRANGQSKGYAEVVVASENSVHKLLELLPGKVLNGEKVDVRPATRQNLSQFEAQARKREC-AAVYVGSFSWWTTDQQLIQVIRSIGVYDVVELKFAENRANGQSKGYAEVVVASENSVHKLLELLPGKVLNGEKVDVRPATRQNLSQFEAQARKREC-AAVYVGSFSWWTTDQQLIQVIRSIGVYDVVELKFAENRANGQSKGYAEVVVASENSVHKLLELLPGKVLNGEKVDVRPATRQNLSQFEAQARKREC-AAVYVGSFSWWTTDQQLIQVIRSIGVYDVVELKFAENRANGQSKGYAEVVVASENSVHKLLELLPGKVLNGEKVDVRPATRQNLSQFEAQARKREC-AAVYVGSFSWWTTDQQLIQVIRSIGVYDVVELKFAENRANGQSKGYAEVVVASENSVHKLLELLPGKVLNGEKVDVRPATRQNLSQFEAQARKREC-AAVYVGSFSWWTTDQQLIQVIRSIGVYDVVELKFAENRANGQSKGYAEVVVASENSVHKLLELLPGKVLNGEKVDVRPATRQNLSQFEAQARKREC-AAVYVGSFSWWTTDQQLIQVIRSIGVYDVVELKFAENRANGQSKGYAEVVVASENSVHKLLELLPGKVLNGEKVDVRPATRQNLSQFEAQARKREC-AAVYVGSFSWWTTDQQLIQVIRSIGVYDVVELKFAENRANGQSKGYAEVVVASENSVHKLLELLPGKVLNGEKVDVRPATRQNLSQFEAQARKREC,YNYVPRHRTA-YNYVPLWKTR-YDYTPKWKDY-YDYVPEWKDY-YDYVPLHKTR-LDYTPKWLDY-YDYVPKWKVF-YDYTPRHVTR-YRYIPRWKTR-LRYTPLWKTR,YPYIPAHITK-YPYIPAHITK-YPYIPAHITK-YPYIPAHITK-YPYIPAHITK-YPYIPAHITK-YPYIPAHITK-YPYIPAHITK-YPYIPAHITK-YPYIPAHITK
