contacts,cs,ce,Chain,Length,designed_receptor_seq,native_receptor_seq,designed_binder_seq,native_binder_seq
17.0,50,60,A,10,GLPPGKPEIYRCRSPDRRTFTCWWRPGEGGGEPTRYLLTYHLEGEEEVRECPDYVTGGPRSCYFGEEWTRLDRAYFMQVSAENEYGRADSEWVRVLVDYIWQPDPPRNLRVEVVKPPRRPPYLLVRWEPPEGVDLESGWNRLLYELRYRPPRAEEWTVVEAGERTEERVYELEPGRTYLVQVRCRPEVGEWSEWSPAVRVTVPEDW-GLPPGKPEIYRCRSPDLETFTCWWRPGEGGGEPTTYTLTYHLEGEEEVRVCPDTVTGGPRSCYFGREHTRLHRTYHMQVSARNAAGEADSDWVSVDVDYIWQPDPPRNLRVEVVQPPRRPPYLHVRWEPPEGVDLESGWNRLLYELRYRPPRAEEWTVVRAGRRTEERVYDLEPGRTYEVQVRCRPEVGEWSEWSPAVRIRIPEGF-GLPPGKPEIYRCRSPDLETFTCWWRPGEGGGEPTTYTLTYHLEGETEVRVCPDTVTGGPRSCYFGREHTRINRTYIMQVSARNAAGEANSDLVYVDVDYIWQPDPPRNLRVEVVKPPRRPPYLLVRWEPPEGVDLESGWNRLEYELRYRPPRAEEWTVVRAGRRTEERVYELEPGRTYLVQVRCRPEVGFWSEWSPAVRIRIPEDF-GLPPGKPEIYKCRSPDRRTFTCWWRPGEGGGEPTRYTLTYHLEGEEEVRVCPDYVTGGPRSCFFGEEHTRIRRTYIMQVSAENEYGSADSDFVLVDVDYIWQPDPPRNLKVEVVKPPRRPPYLYVRWEPPEGVDLESGWNRLYYELRYRPPEDEEWTVVRAGERTEERIYDLEPGRTYLVQVRCRPEVGEWSEWSPAVRIRIPEDF-GLPPGKPEIYRCRSPDRRTFTCWWRPGRGGGEPTRYTLTYHLEGEEEVRVCPDTVTGGPRSCYFGEEHTRLRRAYFMQVSAENEAGSAASDWVRVLVDDIWQPDPPRNLRVEVVRPPRRPPYLLVRWEPPEGVDLESGWNRLEYELRYRPPRAEEWTVVRAGRRTEERVYELEPGRTYLVQVRCRPERGEWSEWSPAVRVRIPEDF-GLPPGKPEIYRCRSPDRETFTCWWRPGEGGGEPTEYRLTYHLEGEEEVRECPDYETGGPRSCFFGREHTRLRRTYYMQVSARNEAGEADSDWVAVDVDYIWRPDPPRNLRVEVVRPPRRPPYLYVRWEPPEGVDLESGWNRLEYELRYRPPEAEEWTVVRAGRRTEERVYELEPGRTYLVQVRCRPEEGEWSEWSPAVRIRIPEDW-GLPPGKPEIYRCRSPDLETFTCWWRPGEGGGEPTEYLLTYHLEGEEEVRECPDYVTGGPRSCYFGREHTRLRRTYYMQVSARNEYGEADSDWVAVDVDYIWQPDPPRNLRVEVVRPPRRPPYLLVRWEPPEGVDLESGWNRLEYELRYRPPRAEEWTVVRAGRRTEERVYELEPGRTYLVQVRCRPEVGEWSEWSPAVRVTVPEDF-GLPPGKPEIYRCRSPDLETFTCWWRPGEGGGEPTRYLLTYHLEGEEEVRECPDYETGGPRSCFFGREHTRLRRTYYMQVSAENEAGRADSDWVAVDVDYIWQPDPPRNLRVEVVRPPRRPPYLLVRWEPPEGVDLESGWNRLLYELRYRPPRAEEWTVVEAGERTEERVYELEPGRTYLVQVRCRPEEGEWSEWSPAVEVTIPEDW-GLPPGKPEIYRCRSPDLETFTCWWRPGEGGGEPTTYTLTYHLEGEEEVRVCPDYVTGGPRSCYFGREHTRLRRTYHMQVSARNAAGEADSDWVDVRVEDIWQPDPPRNLRVEVVRPPRRPPYLHVRWEPPEGVDLESGWNRLYYELRYRPPRAEEWTVVRAGRRTEERVYDLEPGRTYLVQVRCRPERGEWSEWSPAVRIRIPEDW-GLPPGKPEIYRCRSPDLETFTCWWRPGLLGGRPTRYRLTYHLEGEEEVRECPDYETGGPRSCFFGREHTRLRRAYYMQVEASNPFGSAKSDWVRVLVDYIWRPDPPRNLRVEVVKPPRRPPYLLVRWEPPEGVDLESGWNRLLYELRYRPPRAEEWRVVRAGERTEERVYDLEPGRTYLVQVRCRPEVGEWSEWSPAVRVRIPEDF,MLPPGKPEIFKCRSPNKETFTCWWRPGTDGGLPTNYSLTYHREGETLMHECPDYITGGPNSCHFGKQYTSMWRTYIMMVNATNQMGSSFSDELYVDVTYIVQPDPPLELAVEVKQPEDRKPYLWIKWSPPTLIDLKTGWFTLLYEIRLKPEKAAEWEIHFAGQQTEFKILSLHPGQKYLVQVRCKPDAGYWSAWSPATFIQIPSDF-MLPPGKPEIFKCRSPNKETFTCWWRPGTDGGLPTNYSLTYHREGETLMHECPDYITGGPNSCHFGKQYTSMWRTYIMMVNATNQMGSSFSDELYVDVTYIVQPDPPLELAVEVKQPEDRKPYLWIKWSPPTLIDLKTGWFTLLYEIRLKPEKAAEWEIHFAGQQTEFKILSLHPGQKYLVQVRCKPDAGYWSAWSPATFIQIPSDF-MLPPGKPEIFKCRSPNKETFTCWWRPGTDGGLPTNYSLTYHREGETLMHECPDYITGGPNSCHFGKQYTSMWRTYIMMVNATNQMGSSFSDELYVDVTYIVQPDPPLELAVEVKQPEDRKPYLWIKWSPPTLIDLKTGWFTLLYEIRLKPEKAAEWEIHFAGQQTEFKILSLHPGQKYLVQVRCKPDAGYWSAWSPATFIQIPSDF-MLPPGKPEIFKCRSPNKETFTCWWRPGTDGGLPTNYSLTYHREGETLMHECPDYITGGPNSCHFGKQYTSMWRTYIMMVNATNQMGSSFSDELYVDVTYIVQPDPPLELAVEVKQPEDRKPYLWIKWSPPTLIDLKTGWFTLLYEIRLKPEKAAEWEIHFAGQQTEFKILSLHPGQKYLVQVRCKPDAGYWSAWSPATFIQIPSDF-MLPPGKPEIFKCRSPNKETFTCWWRPGTDGGLPTNYSLTYHREGETLMHECPDYITGGPNSCHFGKQYTSMWRTYIMMVNATNQMGSSFSDELYVDVTYIVQPDPPLELAVEVKQPEDRKPYLWIKWSPPTLIDLKTGWFTLLYEIRLKPEKAAEWEIHFAGQQTEFKILSLHPGQKYLVQVRCKPDAGYWSAWSPATFIQIPSDF-MLPPGKPEIFKCRSPNKETFTCWWRPGTDGGLPTNYSLTYHREGETLMHECPDYITGGPNSCHFGKQYTSMWRTYIMMVNATNQMGSSFSDELYVDVTYIVQPDPPLELAVEVKQPEDRKPYLWIKWSPPTLIDLKTGWFTLLYEIRLKPEKAAEWEIHFAGQQTEFKILSLHPGQKYLVQVRCKPDAGYWSAWSPATFIQIPSDF-MLPPGKPEIFKCRSPNKETFTCWWRPGTDGGLPTNYSLTYHREGETLMHECPDYITGGPNSCHFGKQYTSMWRTYIMMVNATNQMGSSFSDELYVDVTYIVQPDPPLELAVEVKQPEDRKPYLWIKWSPPTLIDLKTGWFTLLYEIRLKPEKAAEWEIHFAGQQTEFKILSLHPGQKYLVQVRCKPDAGYWSAWSPATFIQIPSDF-MLPPGKPEIFKCRSPNKETFTCWWRPGTDGGLPTNYSLTYHREGETLMHECPDYITGGPNSCHFGKQYTSMWRTYIMMVNATNQMGSSFSDELYVDVTYIVQPDPPLELAVEVKQPEDRKPYLWIKWSPPTLIDLKTGWFTLLYEIRLKPEKAAEWEIHFAGQQTEFKILSLHPGQKYLVQVRCKPDAGYWSAWSPATFIQIPSDF-MLPPGKPEIFKCRSPNKETFTCWWRPGTDGGLPTNYSLTYHREGETLMHECPDYITGGPNSCHFGKQYTSMWRTYIMMVNATNQMGSSFSDELYVDVTYIVQPDPPLELAVEVKQPEDRKPYLWIKWSPPTLIDLKTGWFTLLYEIRLKPEKAAEWEIHFAGQQTEFKILSLHPGQKYLVQVRCKPDAGYWSAWSPATFIQIPSDF-MLPPGKPEIFKCRSPNKETFTCWWRPGTDGGLPTNYSLTYHREGETLMHECPDYITGGPNSCHFGKQYTSMWRTYIMMVNATNQMGSSFSDELYVDVTYIVQPDPPLELAVEVKQPEDRKPYLWIKWSPPTLIDLKTGWFTLLYEIRLKPEKAAEWEIHFAGQQTEFKILSLHPGQKYLVQVRCKPDAGYWSAWSPATFIQIPSDF,PEPRNPWEWL-PPPRNPREWL-PPPRNPREWR-PPPRNPEEWR-PPPRNPEEWR-PEPENPWEWL-PPPRNPEEWR-PPPRNPWEWL-PPPRNPWEWL-PPPRNPWEWL,ATPEDKEQAQ-ATPEDKEQAQ-ATPEDKEQAQ-ATPEDKEQAQ-ATPEDKEQAQ-ATPEDKEQAQ-ATPEDKEQAQ-ATPEDKEQAQ-ATPEDKEQAQ-ATPEDKEQAQ
21.0,131,141,B,10,DLKALFKEALVLSSGIHGLASELFADFSKSFTKDLPFEEAAKGKCHTDSLKLPKNKEEALAMDEEKFFGLIREVLLSWKKPLFWAVKILSSLKNPPKSILDKLEKIKKDVEKLLEKVEKLIEKLFPKKDKKEKFPKWDKLPELLTKDKKKNLAAWHILLKCLEEDAFKVHWYLNFLYCRTIYNNKC-DLEALFTEALVLSSGIHGLASELFSDFSSSFTSSLPFSELAKGKCHTDSLDLPKNKEEALAMDEEKFFGLIREVLLSWRTPLYYAVKILSSLENPPKSILDKLEKIRDEVEKLLELVEKLIEKLFPERDKSKNYPVWNGVPALLTEDKEKNLAAWHILLKCLEEDAFKVDKYLRFLYCRTLYNNNC-SLEELFTEAIKLSSSIHSLASELFSDFSKSFTSSFPAAEAAKGKCHTDSLKLPKNKEEALKMDEEKFFSLIREVLLSWKKPLFWLVKILSSLKNPPKKILDKAVKIKEEVEKLLELVEKLIEKLFPKKDKKEKFPKWDGVPELLTKDKKKNLEAWHILLKCLEEDAFKVDKYLRFLYCRTIYNYNC-SLEELFTEALILSSSIHSLASELFSDFSSSFTSSFPFSSLSKGKCHTDSLKLPKNIEEAKSMDEEKFFSLIREVLLSWKKPLYYAVKILSSLKNPPKSILDKLEKIKNEVEKLLELVEKLIEKLFPNKDKSENYPKWNGLPSLLTSNKEKNLAAWNILLKCLKEDAFKVDKYLRFLYCRTIYNNNC-DLKALFTEALKLSSGIHGLASELFSDFSKSFTKDLPFEELAKGKCHTDSLKLPKNKEEALAMDEEKFFGLIREVLLSWKKPLFWAVYLLSSLKNPPKKILDKLVKIKEEVEKLLEKVEKLIEKLFPNRDKKEKFPKWDKVPELLTKDKKKNLAAWHILLKCLEEDAFKVDKYLRFLYCRTIYNNNC-DLEALFTEALVLSSGIHGLASELFSDFSSSFTSGLPFSELAKGKCHTDSLDLPKNSEEAAAMDEEKFFGLIREVLLSWRKPLFWAVSIMSSLENPPKSILDKLVKIRDDVEKLLELVEKLIEKLFPERDKSEKYPVWDGVPALLTEDVLKRLAAFHILLKCLESDAFWVSRALHFLYCRTIYNNNC-DLKALFDEAIVLSSGIHGLASELFSDFSKSFTKDLPFEEAAKGKCHTDSLKLPKNKEEALAMDEEKFFGLIREVLLSWKKPLFWAVKILSSLKNPPKEILDKLEKIKNDVEKLLEKVEKLIEKLFPKKDKKENYPKWDKLPELLTEDKKKNLAAWHILLKCLKEDAFKVDKYLRFLKCRVLYKNNC-SLPALFHQALILSSGIHGLASELFSDFSSSFTSSLPFSAAAVGKCHTDSLDLPKNKEEALAMDEEKFFGLIREVLLSWEKPLFYAVKILSSLPNPPKSILDKLVKIKEETKELLKLVEELIKELFPNRDEKKSYPVWDGVPALLTKDKKKNLAAWHTLLLCLKEDAFKVSKYLHFLYCRTIYNNNC-DLKALFDEALVLSRGIHGLASELFADFSASFTAGLPFAAAAKGKCHTDSLALPKNKEEAAAMDEKAFFGLIREVLLSWRKPLFWAVDILSSLENPPKSILDKLVKIRDDVAKLLEKVEKLIDLLFPDRDKSEKFPVWDGVPALLTEDKNKNLAAWHTLLLCLKTDAFKVAKYLNFLECRTLYNNNC-SLEELFTEALILSSGIHGLASELFSDFSKSFTKDLPFEELAKGKCHTDSLKLPKNIEEAKAMDEEKLFGLIREVLESWKKPLYYAVKILSGLKNPPKKILDKLEKIKEEVEKLLEKVKKLIEKLFPKKDEKKKYPKWDKVPELLTKDKKKNLAAWHILLKCLEEDAFKVHWLLNFLYCRTIYNNKC,MLRDLFDRAVVLSAYIHNLSSEMFSEFDKRYTHGRGFITKAINSCHTSSLATPEDKEQAQQMNQKDFLSLIVSILRSWNEPLYHLVTEVRGMQEAPEAILSKAVEIEEQTKRLLERMELIVSQVHPETKENEIYPVWSGLPSLQMADEESRLSAYYNLLHCLRRDSHKIDNYLKLLKCRIIHNNNC-MLRDLFDRAVVLSAYIHNLSSEMFSEFDKRYTHGRGFITKAINSCHTSSLATPEDKEQAQQMNQKDFLSLIVSILRSWNEPLYHLVTEVRGMQEAPEAILSKAVEIEEQTKRLLERMELIVSQVHPETKENEIYPVWSGLPSLQMADEESRLSAYYNLLHCLRRDSHKIDNYLKLLKCRIIHNNNC-MLRDLFDRAVVLSAYIHNLSSEMFSEFDKRYTHGRGFITKAINSCHTSSLATPEDKEQAQQMNQKDFLSLIVSILRSWNEPLYHLVTEVRGMQEAPEAILSKAVEIEEQTKRLLERMELIVSQVHPETKENEIYPVWSGLPSLQMADEESRLSAYYNLLHCLRRDSHKIDNYLKLLKCRIIHNNNC-MLRDLFDRAVVLSAYIHNLSSEMFSEFDKRYTHGRGFITKAINSCHTSSLATPEDKEQAQQMNQKDFLSLIVSILRSWNEPLYHLVTEVRGMQEAPEAILSKAVEIEEQTKRLLERMELIVSQVHPETKENEIYPVWSGLPSLQMADEESRLSAYYNLLHCLRRDSHKIDNYLKLLKCRIIHNNNC-MLRDLFDRAVVLSAYIHNLSSEMFSEFDKRYTHGRGFITKAINSCHTSSLATPEDKEQAQQMNQKDFLSLIVSILRSWNEPLYHLVTEVRGMQEAPEAILSKAVEIEEQTKRLLERMELIVSQVHPETKENEIYPVWSGLPSLQMADEESRLSAYYNLLHCLRRDSHKIDNYLKLLKCRIIHNNNC-MLRDLFDRAVVLSAYIHNLSSEMFSEFDKRYTHGRGFITKAINSCHTSSLATPEDKEQAQQMNQKDFLSLIVSILRSWNEPLYHLVTEVRGMQEAPEAILSKAVEIEEQTKRLLERMELIVSQVHPETKENEIYPVWSGLPSLQMADEESRLSAYYNLLHCLRRDSHKIDNYLKLLKCRIIHNNNC-MLRDLFDRAVVLSAYIHNLSSEMFSEFDKRYTHGRGFITKAINSCHTSSLATPEDKEQAQQMNQKDFLSLIVSILRSWNEPLYHLVTEVRGMQEAPEAILSKAVEIEEQTKRLLERMELIVSQVHPETKENEIYPVWSGLPSLQMADEESRLSAYYNLLHCLRRDSHKIDNYLKLLKCRIIHNNNC-MLRDLFDRAVVLSAYIHNLSSEMFSEFDKRYTHGRGFITKAINSCHTSSLATPEDKEQAQQMNQKDFLSLIVSILRSWNEPLYHLVTEVRGMQEAPEAILSKAVEIEEQTKRLLERMELIVSQVHPETKENEIYPVWSGLPSLQMADEESRLSAYYNLLHCLRRDSHKIDNYLKLLKCRIIHNNNC-MLRDLFDRAVVLSAYIHNLSSEMFSEFDKRYTHGRGFITKAINSCHTSSLATPEDKEQAQQMNQKDFLSLIVSILRSWNEPLYHLVTEVRGMQEAPEAILSKAVEIEEQTKRLLERMELIVSQVHPETKENEIYPVWSGLPSLQMADEESRLSAYYNLLHCLRRDSHKIDNYLKLLKCRIIHNNNC-MLRDLFDRAVVLSAYIHNLSSEMFSEFDKRYTHGRGFITKAINSCHTSSLATPEDKEQAQQMNQKDFLSLIVSILRSWNEPLYHLVTEVRGMQEAPEAILSKAVEIEEQTKRLLERMELIVSQVHPETKENEIYPVWSGLPSLQMADEESRLSAYYNLLHCLRRDSHKIDNYLKLLKCRIIHNNNC,KVDFETGWND-GVDYKTGWND-GKDYKTGWCD-GKDYKTGWND-GVDYKTGWND-SCDYKSGWCP-EVDYKTGWCE-GKDFASGWND-GTDFASGWND-CVDYETGWCG,LIDLKTGWFT-LIDLKTGWFT-LIDLKTGWFT-LIDLKTGWFT-LIDLKTGWFT-LIDLKTGWFT-LIDLKTGWFT-LIDLKTGWFT-LIDLKTGWFT-LIDLKTGWFT
