contacts,cs,ce,Chain,Length,designed_receptor_seq,native_receptor_seq,designed_binder_seq,native_binder_seq
17.0,50,60,A,10,TLPPGKPEIYACQSPNRREHVCWWKGGNSGGEPTRYETVYFLDGTSQILKCPDRVTGGERSCYFGKNHTMVRNTYNMQVEARNSAGFAPSRVVHVWVDKIWQPLPPRQLKVEVVKPRKENPYLHVEWKPAEEVDEKSGWNSLQYQLRYASPKQKRWQIVKAGRKNSCRVYSLVAGTTYRVQVRCRPLEGYWSLWSPYTTLEIPKNL-GQPPGVPLIYKSQSPNRQTFTTWFRPGRLGGQPTRYNMVYYRAGESTLRVCPDARTGGPRSCFFDKAHTLVRDTYYIQVTASNSFGMKNSALRQIRVDEILRPAPPRNLRVKVVKPRDAPPYMYVQWEPPDDVDLQSGWNVLYYELRFVAPHAEHWKTVAAGQNRQERIYDLRPGQTYRIQVRCRFKGGQWSDWSDSAWVKIPNSY-DYPPGKPKIWYCRSPDRQIFSCWWAPGTHGGEPTHYTTKYNLEGKEQIYTCPDYITGGMNSCFFDESYTRVFQTYFMQVSATNQHGSNDSWLTAVLVNNIWQPEPPTNLHVEWISPNDKLPYLYVTWDPPTCVDLASGWDHLEYEIRYRAPTDVRWTVMAAGVATEYRVYDLTPGTTYEVQVRCKPEGGFWSTWSGAALIKVPDHS-EQPPGRPTIYSCLSPDNRVFVCYWKDGDNGGIPDRYNLTFYKQGFTERHSCPDTISGGERSCFFNVKDTVTANTYVMQVDATNGDGQAESWYRLVRVDYIWQPLPPQGLKVEFVEPKRSRSYLNLQWQPPQEVDLDSGWETMTYEVRFKAPLDIKWIKVAAGHETSMRVYWLQPGVTYNVQVRCKPDMGDWSEWSKEVKITIPQGF-IEPPGKPEIYRCTSPDMSEFICWWRDGNFGGSPTQYTVRYHLEGHSQVLECPDYRTGGDRSCFFPREHTELQRTYYLQVSATNNYGYSWSDSVRIFTEYIYQPLPPRNLHVKVVKPKFRRPYLEIQWEPPRDVDLWTGWNILYYEVRYRAPRAKKWTEVFAGRKLSMRVFRLRAGTTYEIRVRSKPAFGYWSDWSPAEFVTIPTDF-GQPPGKPRIYKCRSPNATEFVCWWQPGSCGGEPTNYNTTYHLEGEAFVRNCPDYQTGGAKSCYFGAQETRVWCTYFMQVTASNECGSSASEFVAVNVNDILQPDPPQRLQVQVKAPRCLAPYLFVQWKPPSCVDLKSGWYQLIHELRYKPDWAVYWTVAYAGEAVNSRIYDLEPGVTYRVQVRCKPRRGQWSEWSPFAYVQIPEDW-QQPPGTPYIYRCRSPDRQEFSCWWIPGFFGGNPTAYEVTYHLEGEQQQKLCPDLVTGGRRSCYFDVQHTTLHRRYILQVRASNSYGQQGSAQVNLDVDFIQRPLPPRNLNVHFVKPLNQQPYLFVRWEPPGNVDLESGWNALQYQLRFWPPRDRNWVYKYAGTRTFFMVRNVEPGITYLVTVRCAPQVGYWSDWSPYVSILVPVGW-RLPPGTPLIYKCRSPDLRTWVCWWKDGITGGTPDAYWLRYYLQGRSTTYTCPDYKTGGPRSCYFDKSWTEIQRAYYMQVMAGNSYGTSHSPVKRVLVEYINQPLPPRNLRVSFRDPPKQRPYLFVEWKPPSEVDRASGWDHLLYEIRHTAPMEKKWRIDEAGTRLDFKIYHLIPGVTYQIQVRCRFWKGFWSDWSSAVFVKIPKTW-DLPPAVPLIYECRSPDRRDFTCWWRDGRLGGRPTHYITKYRLEGESRVRDCPNTLTGGPRSCYFNTDWTMLWRTYLMKVKAENRYGQADSAEVAVNVDFIYEPAPPRDLRVEWIDPEALRPYLFVSWKPPRGVDLSSGWNRLFYELRYRSPEEAEWSVEEAGTRTKLRIFDLTPGKTYRIQARCKPEIGFWSEWSEEVIIRVPDTN-GQPPGRPEIYKCRSPNLEVFAMWWKPGKDGGQPTTSATTYFLEGELKIKNCPDTTTGGPDSCFFGKEFTRVHNRYITQVSDRNEFGESKSDPVYIDVEYIHQPDPPRNLQVEIRKPPSQPWYLHLKWDHPKNVKLQSGWNILNHEAQFRAPLEDRWRRVLCGRREHLRLYNLEPGRTYEVQVRCKPNEGLWSEWSEAVSVEVPEDT,MLPPGKPEIFKCRSPNKETFTCWWRPGTDGGLPTNYSLTYHREGETLMHECPDYITGGPNSCHFGKQYTSMWRTYIMMVNATNQMGSSFSDELYVDVTYIVQPDPPLELAVEVKQPEDRKPYLWIKWSPPTLIDLKTGWFTLLYEIRLKPEKAAEWEIHFAGQQTEFKILSLHPGQKYLVQVRCKPDAGYWSAWSPATFIQIPSDF-MLPPGKPEIFKCRSPNKETFTCWWRPGTDGGLPTNYSLTYHREGETLMHECPDYITGGPNSCHFGKQYTSMWRTYIMMVNATNQMGSSFSDELYVDVTYIVQPDPPLELAVEVKQPEDRKPYLWIKWSPPTLIDLKTGWFTLLYEIRLKPEKAAEWEIHFAGQQTEFKILSLHPGQKYLVQVRCKPDAGYWSAWSPATFIQIPSDF-MLPPGKPEIFKCRSPNKETFTCWWRPGTDGGLPTNYSLTYHREGETLMHECPDYITGGPNSCHFGKQYTSMWRTYIMMVNATNQMGSSFSDELYVDVTYIVQPDPPLELAVEVKQPEDRKPYLWIKWSPPTLIDLKTGWFTLLYEIRLKPEKAAEWEIHFAGQQTEFKILSLHPGQKYLVQVRCKPDAGYWSAWSPATFIQIPSDF-MLPPGKPEIFKCRSPNKETFTCWWRPGTDGGLPTNYSLTYHREGETLMHECPDYITGGPNSCHFGKQYTSMWRTYIMMVNATNQMGSSFSDELYVDVTYIVQPDPPLELAVEVKQPEDRKPYLWIKWSPPTLIDLKTGWFTLLYEIRLKPEKAAEWEIHFAGQQTEFKILSLHPGQKYLVQVRCKPDAGYWSAWSPATFIQIPSDF-MLPPGKPEIFKCRSPNKETFTCWWRPGTDGGLPTNYSLTYHREGETLMHECPDYITGGPNSCHFGKQYTSMWRTYIMMVNATNQMGSSFSDELYVDVTYIVQPDPPLELAVEVKQPEDRKPYLWIKWSPPTLIDLKTGWFTLLYEIRLKPEKAAEWEIHFAGQQTEFKILSLHPGQKYLVQVRCKPDAGYWSAWSPATFIQIPSDF-MLPPGKPEIFKCRSPNKETFTCWWRPGTDGGLPTNYSLTYHREGETLMHECPDYITGGPNSCHFGKQYTSMWRTYIMMVNATNQMGSSFSDELYVDVTYIVQPDPPLELAVEVKQPEDRKPYLWIKWSPPTLIDLKTGWFTLLYEIRLKPEKAAEWEIHFAGQQTEFKILSLHPGQKYLVQVRCKPDAGYWSAWSPATFIQIPSDF-MLPPGKPEIFKCRSPNKETFTCWWRPGTDGGLPTNYSLTYHREGETLMHECPDYITGGPNSCHFGKQYTSMWRTYIMMVNATNQMGSSFSDELYVDVTYIVQPDPPLELAVEVKQPEDRKPYLWIKWSPPTLIDLKTGWFTLLYEIRLKPEKAAEWEIHFAGQQTEFKILSLHPGQKYLVQVRCKPDAGYWSAWSPATFIQIPSDF-MLPPGKPEIFKCRSPNKETFTCWWRPGTDGGLPTNYSLTYHREGETLMHECPDYITGGPNSCHFGKQYTSMWRTYIMMVNATNQMGSSFSDELYVDVTYIVQPDPPLELAVEVKQPEDRKPYLWIKWSPPTLIDLKTGWFTLLYEIRLKPEKAAEWEIHFAGQQTEFKILSLHPGQKYLVQVRCKPDAGYWSAWSPATFIQIPSDF-MLPPGKPEIFKCRSPNKETFTCWWRPGTDGGLPTNYSLTYHREGETLMHECPDYITGGPNSCHFGKQYTSMWRTYIMMVNATNQMGSSFSDELYVDVTYIVQPDPPLELAVEVKQPEDRKPYLWIKWSPPTLIDLKTGWFTLLYEIRLKPEKAAEWEIHFAGQQTEFKILSLHPGQKYLVQVRCKPDAGYWSAWSPATFIQIPSDF-MLPPGKPEIFKCRSPNKETFTCWWRPGTDGGLPTNYSLTYHREGETLMHECPDYITGGPNSCHFGKQYTSMWRTYIMMVNATNQMGSSFSDELYVDVTYIVQPDPPLELAVEVKQPEDRKPYLWIKWSPPTLIDLKTGWFTLLYEIRLKPEKAAEWEIHFAGQQTEFKILSLHPGQKYLVQVRCKPDAGYWSAWSPATFIQIPSDF,WEPLDEVEKA-RVPDNPQKYK-SRPQNRREME-PEPENEEEEQ-TRPRNGREWL-FQPLNEIAYR-PIPLNEQEWR-RLPRNQKERL-DHPHNPVEWL-LVPMNERQLR,ATPEDKEQAQ-ATPEDKEQAQ-ATPEDKEQAQ-ATPEDKEQAQ-ATPEDKEQAQ-ATPEDKEQAQ-ATPEDKEQAQ-ATPEDKEQAQ-ATPEDKEQAQ-ATPEDKEQAQ
21.0,131,141,B,10,SVSSTFAQALDKSAGIHGMALLMKSDFAIGFTYGWDATTGAQGSCHTDSLSLPQNYIEFSNMNAEDGLNLIKEVLQSWETPLYWCVSTTSGLSSPPKSILTRMQEIKLQAEELNSQLLRLIDTLFPNQNNTSSFPQWNAQPALLTPNNKQNLQAWYTLFSCLSTDAKWVKDALAFYENRLIHSNNG-SLVEKFHWALLLSSSIHNESDLAFETFTLMYVSRLDLATEISGRCHTDSMNTPRSKEEMQAMDPAAYLGLISNVLKGWRKPLYWAVALIASQANPAQQILDRLVEIRDKVATLLNNVDELVAELFPQQNSEDSYPKWDNLESLRTEDAIKNLSAWGNLLMCLKKDMYEVEKLLRFLRCRELFNYQC-ELDASFELALRLADGIHHLAKRLFSDFKADFTSKTNSSEFEKASCHFDSLDLPKNDVQASDRDEEAYADMIKRVLESWEEPLFYLVDIMKSMSDSPREILDRSIVIQAETDQLLQEVNSIIQTLYPETDETDDYPLWDEKPKLTVLNFSSAAAAWHNLLFCLDKSAREVAVYYRFLYCRTVHNNKC-MVNDKWFHAIYLAENIYSMADELQAEYEKEFTAEKGYSASAIGKCHTDSLNKPSNSVEAASMNLESAWNLIREVEESEASPLKESVDIVSGMPISPAAILNKLTQIRDQEKELLDEVNELIDHEFPSRNKTSNDPVWNDRPDLLTTDMDKNLSAFHTLLECLKSRKFDVYKDLLYMQCRTLYDNTC-SMAANFDEAEDRAAGIHSLAATAKSNFSSALTSQSAFAASAVGKCHFDSLNMPKDRMQVQEMETNEFFQKVEMVLQSMKTPLTYSVTIMSSKSNPPTSLLASEEEIRAKTDILLQRMQSLIQTLYPSANRTAQYPLWNQKPSLMTENQGEQLAAYQQLLTCLDQGMFKVHQYLSCLKCRVLYKEAC-ALDDLFTTALVYSKAIHGNAEATFTAFNSSFTLFCKTTQRATGKNHCDTLHVPSNPDETKSEDAQAAFQLIREVLESQRAPLYIAVQTTGSLEHPNTVILDNLIAIESEVQQLLSLVNNLISKLFPNTSSARNYPTWNNLAALLTEDVKSMLDAYHTLLRDLRADAFRIDKRLRFQYCSTLHSSNC-ELQRLFDFMVFLSSSIHSLAAENFSSFSNSFTLFMPYSAFSVGKCHTDDLVMPTDYTEVLAQNKEEHLHLILSVLESWRFPLYYGVKILSSLSKPPQTILLRLEKIKTLEEELTNVVRQIIQRLFPQRDDTARFPTWNKLDLLRTKDTRKNLSAYHTFLHCLKGDTFLVKTFANFLRCQILENNKC-DLKKMFNQSTILSSSIWSAAAIAHCSFRSSWTETDGHEVAAKDLCHTSALELPEDPTQAKGMDTAEALRLVRAVLESWEVPLKFHVLVMDSRSDAPKILLNGAVQIEHEQATLLELLNELEKELFPGTKPEKTYLKWDHLPELLVANNNKNLAAYHTYLTCLKEDTRFVRRLLNFLRCRELHNNCC-RLRELFSSAIFLSATINALAGYHFMSFSFLYTSLQGSARSAVGCCHTDGLIVPKNPREVSRQEIEKELKLIKEVLLSWEKPLKYLVDVENSRYDSNKLNCDFEEKIKNLVSELLRAVNELIEVLFPFRNNTFSFPEWNQEAKLLTPNRTENQNAWHILLYCLRTDMTRVCTALRFLKCRVLFNDFC-DIEALFTESIVLSSGIHTDAKELFSEFNEMFTLLSGAAEGSRGTCHIDDLDLPQDVTQAQERDERSAFTLIRDVLRSYDTPLRFEVETLHSLADPDKTILQHAEVIFNQVKMLTEKVDELISVLHPTTERTQRHPIWNMRNSLLVPSTGEQYLAWNTLLKCLASFSYSIERYLRYLQCRTVHNNNC,MLRDLFDRAVVLSAYIHNLSSEMFSEFDKRYTHGRGFITKAINSCHTSSLATPEDKEQAQQMNQKDFLSLIVSILRSWNEPLYHLVTEVRGMQEAPEAILSKAVEIEEQTKRLLERMELIVSQVHPETKENEIYPVWSGLPSLQMADEESRLSAYYNLLHCLRRDSHKIDNYLKLLKCRIIHNNNC-MLRDLFDRAVVLSAYIHNLSSEMFSEFDKRYTHGRGFITKAINSCHTSSLATPEDKEQAQQMNQKDFLSLIVSILRSWNEPLYHLVTEVRGMQEAPEAILSKAVEIEEQTKRLLERMELIVSQVHPETKENEIYPVWSGLPSLQMADEESRLSAYYNLLHCLRRDSHKIDNYLKLLKCRIIHNNNC-MLRDLFDRAVVLSAYIHNLSSEMFSEFDKRYTHGRGFITKAINSCHTSSLATPEDKEQAQQMNQKDFLSLIVSILRSWNEPLYHLVTEVRGMQEAPEAILSKAVEIEEQTKRLLERMELIVSQVHPETKENEIYPVWSGLPSLQMADEESRLSAYYNLLHCLRRDSHKIDNYLKLLKCRIIHNNNC-MLRDLFDRAVVLSAYIHNLSSEMFSEFDKRYTHGRGFITKAINSCHTSSLATPEDKEQAQQMNQKDFLSLIVSILRSWNEPLYHLVTEVRGMQEAPEAILSKAVEIEEQTKRLLERMELIVSQVHPETKENEIYPVWSGLPSLQMADEESRLSAYYNLLHCLRRDSHKIDNYLKLLKCRIIHNNNC-MLRDLFDRAVVLSAYIHNLSSEMFSEFDKRYTHGRGFITKAINSCHTSSLATPEDKEQAQQMNQKDFLSLIVSILRSWNEPLYHLVTEVRGMQEAPEAILSKAVEIEEQTKRLLERMELIVSQVHPETKENEIYPVWSGLPSLQMADEESRLSAYYNLLHCLRRDSHKIDNYLKLLKCRIIHNNNC-MLRDLFDRAVVLSAYIHNLSSEMFSEFDKRYTHGRGFITKAINSCHTSSLATPEDKEQAQQMNQKDFLSLIVSILRSWNEPLYHLVTEVRGMQEAPEAILSKAVEIEEQTKRLLERMELIVSQVHPETKENEIYPVWSGLPSLQMADEESRLSAYYNLLHCLRRDSHKIDNYLKLLKCRIIHNNNC-MLRDLFDRAVVLSAYIHNLSSEMFSEFDKRYTHGRGFITKAINSCHTSSLATPEDKEQAQQMNQKDFLSLIVSILRSWNEPLYHLVTEVRGMQEAPEAILSKAVEIEEQTKRLLERMELIVSQVHPETKENEIYPVWSGLPSLQMADEESRLSAYYNLLHCLRRDSHKIDNYLKLLKCRIIHNNNC-MLRDLFDRAVVLSAYIHNLSSEMFSEFDKRYTHGRGFITKAINSCHTSSLATPEDKEQAQQMNQKDFLSLIVSILRSWNEPLYHLVTEVRGMQEAPEAILSKAVEIEEQTKRLLERMELIVSQVHPETKENEIYPVWSGLPSLQMADEESRLSAYYNLLHCLRRDSHKIDNYLKLLKCRIIHNNNC-MLRDLFDRAVVLSAYIHNLSSEMFSEFDKRYTHGRGFITKAINSCHTSSLATPEDKEQAQQMNQKDFLSLIVSILRSWNEPLYHLVTEVRGMQEAPEAILSKAVEIEEQTKRLLERMELIVSQVHPETKENEIYPVWSGLPSLQMADEESRLSAYYNLLHCLRRDSHKIDNYLKLLKCRIIHNNNC-MLRDLFDRAVVLSAYIHNLSSEMFSEFDKRYTHGRGFITKAINSCHTSSLATPEDKEQAQQMNQKDFLSLIVSILRSWNEPLYHLVTEVRGMQEAPEAILSKAVEIEEQTKRLLERMELIVSQVHPETKENEIYPVWSGLPSLQMADEESRLSAYYNLLHCLRRDSHKIDNYLKLLKCRIIHNNNC,NIDWNSGWQD-NVDFRTGWCS-GKDIQTGWEN-TFDNKTGWDD-GFDAASGWCG-KTDFRTGWCI-ERDFYSGWNP-KVDFASGWQT-HIDYLTGWRD-AQDYATGWCA,LIDLKTGWFT-LIDLKTGWFT-LIDLKTGWFT-LIDLKTGWFT-LIDLKTGWFT-LIDLKTGWFT-LIDLKTGWFT-LIDLKTGWFT-LIDLKTGWFT-LIDLKTGWFT
