contacts,cs,ce,Chain,Length,designed_receptor_seq,native_receptor_seq,designed_binder_seq,native_binder_seq
32.0,17,27,A,10,MNTRFIKSSKKLEGFPEEAQVPICFVANLIGIELTSTACILTFSDFGGKSKFYLRYSFRQQGEKQKALLFIQELCHYFALQLPFEELELRDIYLNKLCYCKVDALYVSNQGRFTLFLTDIQPLDLSDVIEMLRKKQLETQQMQSIFYHLLKLDQKEENSFKFVDLLNYDDRLREFVLTEQQAY-NSRKFIQSVSYLLGFPSQAIVPIEFVAMLTGICMTMHRCVLSFSDFNGKIAFRLHLNFTDAGEQSFCHKWVSMICFWFDIEVPERGLTLASVHLAILCPCIVGCLYASAFGRYNLFVREISPLKLIDVIATLSDSNAMARALNHIFFCLCQLNLDNQHEFKYARRVDFNLQLQAFKEAFVDYG-MNTIDIEDVRDFLGFPKEATVPIKFVALLVGINLTLKNTVLTFSDFHDKKEYYLRIAYGEQGTRNNARRFLKNLCNHFDIDMPEKGIFYNNIHLDRLCYCEVEALYVSHDGNYTLFIKEINPLLLDDVIWALKAKDFLYKSLLAIHTNLCDLHKKKDCNFKYEKLVNYSWELREFVKEFEKVG-GNTMFVASWRHFGGFPASAVVPVEFVALLVGLKLTEEFCYLSFSDFKGDRSFSLRLSFGRQGNLKRTHTFVNDLCRYFDLNVPFAGTVMNNIHETKLCFCKVRALFVSTNGKYTLFVSDIEPLKLDSVIDALQRNNKQVKSLDEIFINLSILNRNVRNQFKFENLLSYNKSLKNFVRKFDELG-GSDIFISDIDELDGFPFSSTTPCCFIANLVGINLTTKHCYLTFSKFDGSKEFTLRISFDDSNSQNQAKEFIKELCNHFELDVPFRDIVLQNIYLRQLCFCKVYVEYISFKGSYTLFTIQINPIEQKEVILALKQDNSDLESLTHIFFNLWMKDNDHDDNFKFELLVDYDVQMRSFVLDFQIKG-GHMVFISSVEDLNGFPEEAEVPVEFVANLTGIHLTEDTCILTFSQFSGREQFRLQLAFRSVGTRISAEKFVRRLCDTFNISIPETGLVYSQIYEDRLCYCLVKVLFVSYQGNFTLFVNAITPVKLDDVIHTLKEDNDKCKCLTAIFDNLLRLHKKAESSFKFESLQNYSVQMESFVAEFENKG-ALTQFISNIQELAGFPQESNVPISFVALLTGIQLTKKNCVLTFSDFENSCAFSLKLAFDSAGERTKAVFFVKNLCNWFSIEIPEKGTTFHDIYLNHLCPCLVKAQYVSIDGKYTLFVTNITPLELEDVISLITDENELKNSLYSIFVSLLKLDYDKLDDFKFQDLAHFNMYLKKFVMAFSLTG-VGTIFISSRYCLKNFPQEAIVPIQFVGLLTSLKLSHSKCILGFSDFGGKEEYFLRLHFKNSGQEDECRKFVENLCKYFNIKMPVKNIELDDIELEKLCFCLVKCMFVSFQGFYSLFIQNIIPLELDDVIEALKFDNDMLQSMRLIFQNLLKRHSDATDSFKFINLRDYSTDMSLFVSEFEKIG-GSVVPVASVLEFNGYPSKDIVPICFVALLCGIQFTLEYCYLTFSDFFGKRSFTLKIDFEDDESRFHAKEFILRLCMNFSIEIPMNDLTLKDIHLSRLCFSAVNAMYVSAQGRYTLYIEEIAPLYLDEVIDSLSASNHCLHSMSTIFYNLDRLYLDETNRFKFHDLVNYSEKLDCWVNEHKKKG-GSDIIVTSAEDFRGFPEEATVPVVFCGLLRSISLTDSYCFLVFSDFNGTEEFRLKIHFENEGERERALVFVENLLNDFNLLKPSVRYNMHNIELHKLCPCLVSALYVSSKGMFTLFIEKIVPLELEDVIESITSKEYLLKSLKKIFYNLIQLNKNQHDKFKFKNNVHFSDRLKKFEESFLERG,KNRIFVSSSKDFEGYPSKAIVPVQFVALLTSIHLTETKCLLGFSNFEQEDQYLIKLKFKDRGSERLARITISLLCQYFDIELPDPTVILRDIHLERLCFSSCKALYVSKHGNYTLFLEDIKPLDLVSVISTISTKCDLNNSLVDIFNNLIEMNRDEKNRFKFVKLIHYDIELKKFVQDQQKVL-KNRIFVSSSKDFEGYPSKAIVPVQFVALLTSIHLTETKCLLGFSNFEQEDQYLIKLKFKDRGSERLARITISLLCQYFDIELPDPTVILRDIHLERLCFSSCKALYVSKHGNYTLFLEDIKPLDLVSVISTISTKCDLNNSLVDIFNNLIEMNRDEKNRFKFVKLIHYDIELKKFVQDQQKVL-KNRIFVSSSKDFEGYPSKAIVPVQFVALLTSIHLTETKCLLGFSNFEQEDQYLIKLKFKDRGSERLARITISLLCQYFDIELPDPTVILRDIHLERLCFSSCKALYVSKHGNYTLFLEDIKPLDLVSVISTISTKCDLNNSLVDIFNNLIEMNRDEKNRFKFVKLIHYDIELKKFVQDQQKVL-KNRIFVSSSKDFEGYPSKAIVPVQFVALLTSIHLTETKCLLGFSNFEQEDQYLIKLKFKDRGSERLARITISLLCQYFDIELPDPTVILRDIHLERLCFSSCKALYVSKHGNYTLFLEDIKPLDLVSVISTISTKCDLNNSLVDIFNNLIEMNRDEKNRFKFVKLIHYDIELKKFVQDQQKVL-KNRIFVSSSKDFEGYPSKAIVPVQFVALLTSIHLTETKCLLGFSNFEQEDQYLIKLKFKDRGSERLARITISLLCQYFDIELPDPTVILRDIHLERLCFSSCKALYVSKHGNYTLFLEDIKPLDLVSVISTISTKCDLNNSLVDIFNNLIEMNRDEKNRFKFVKLIHYDIELKKFVQDQQKVL-KNRIFVSSSKDFEGYPSKAIVPVQFVALLTSIHLTETKCLLGFSNFEQEDQYLIKLKFKDRGSERLARITISLLCQYFDIELPDPTVILRDIHLERLCFSSCKALYVSKHGNYTLFLEDIKPLDLVSVISTISTKCDLNNSLVDIFNNLIEMNRDEKNRFKFVKLIHYDIELKKFVQDQQKVL-KNRIFVSSSKDFEGYPSKAIVPVQFVALLTSIHLTETKCLLGFSNFEQEDQYLIKLKFKDRGSERLARITISLLCQYFDIELPDPTVILRDIHLERLCFSSCKALYVSKHGNYTLFLEDIKPLDLVSVISTISTKCDLNNSLVDIFNNLIEMNRDEKNRFKFVKLIHYDIELKKFVQDQQKVL-KNRIFVSSSKDFEGYPSKAIVPVQFVALLTSIHLTETKCLLGFSNFEQEDQYLIKLKFKDRGSERLARITISLLCQYFDIELPDPTVILRDIHLERLCFSSCKALYVSKHGNYTLFLEDIKPLDLVSVISTISTKCDLNNSLVDIFNNLIEMNRDEKNRFKFVKLIHYDIELKKFVQDQQKVL-KNRIFVSSSKDFEGYPSKAIVPVQFVALLTSIHLTETKCLLGFSNFEQEDQYLIKLKFKDRGSERLARITISLLCQYFDIELPDPTVILRDIHLERLCFSSCKALYVSKHGNYTLFLEDIKPLDLVSVISTISTKCDLNNSLVDIFNNLIEMNRDEKNRFKFVKLIHYDIELKKFVQDQQKVL-KNRIFVSSSKDFEGYPSKAIVPVQFVALLTSIHLTETKCLLGFSNFEQEDQYLIKLKFKDRGSERLARITISLLCQYFDIELPDPTVILRDIHLERLCFSSCKALYVSKHGNYTLFLEDIKPLDLVSVISTISTKCDLNNSLVDIFNNLIEMNRDEKNRFKFVKLIHYDIELKKFVQDQQKVL,NRQEVEKRPN-NIEWVKSSPA-GIRLVKECPL-GVFETIMRPS-GFGDVLDDPV-GTLQVRLTPN-NEERVRLSPL-GVLAVIVNPI-FLPHVIQHPN-GIEETILAPK,LLDDVENSPV-LLDDVENSPV-LLDDVENSPV-LLDDVENSPV-LLDDVENSPV-LLDDVENSPV-LLDDVENSPV-LLDDVENSPV-LLDDVENSPV-LLDDVENSPV
28.0,106,116,B,10,KSTQKRKKSIMKIRENILKLTAYYRPRQSN-KKKEVARKSRKSREQRRRKRKALKNPIVSS-RVLAKRIVWKADNMVKDNLHSTLLSPEYEP-AKKRKRLQKRKRVRKKHREALKRNAPKKKG-YIDESFNTQLQAVEAEYKQLQVIRTPKHTK-QELAQISREREELAFQAQHNSVMITPSNAN-GPLSVRREFERAQERLKRLQEVVERPKHYG-VKKKDERMRAKRKEHNERTTSTAVSPKVDK-MKPIAAMVAVLHMVNLATLWLVYHRPSHDT-AAIAKVATAVMTVFIFATIAATLISPEYKG,PLKLQSRKLRYANDVQDLLDDVENSPVVAT-PLKLQSRKLRYANDVQDLLDDVENSPVVAT-PLKLQSRKLRYANDVQDLLDDVENSPVVAT-PLKLQSRKLRYANDVQDLLDDVENSPVVAT-PLKLQSRKLRYANDVQDLLDDVENSPVVAT-PLKLQSRKLRYANDVQDLLDDVENSPVVAT-PLKLQSRKLRYANDVQDLLDDVENSPVVAT-PLKLQSRKLRYANDVQDLLDDVENSPVVAT-PLKLQSRKLRYANDVQDLLDDVENSPVVAT-PLKLQSRKLRYANDVQDLLDDVENSPVVAT,FRYEGCWTKF-CSANGDYTIF-TSEYGDFTQW-EGAKGTYTYF-FSYDGHYTYF-TGSQGRYTVF-FTAFGNYTIF-TSKKGNYVIW-ATFMGRSTSF-FQVFGDFTLW,VSKHGNYTLF-VSKHGNYTLF-VSKHGNYTLF-VSKHGNYTLF-VSKHGNYTLF-VSKHGNYTLF-VSKHGNYTLF-VSKHGNYTLF-VSKHGNYTLF-VSKHGNYTLF
