contacts,cs,ce,Chain,Length,designed_receptor_seq,native_receptor_seq,designed_binder_seq,native_binder_seq
27.0,249,259,A,10,GHMTYVWSVPSGWRKDGELEELTLQNPAEGEGLQVVYDRRHQELYRVLVLTREERGHQVGEGLVPGGEIRFAIPADPLFLLLPEFEAEGEGERERLLQRPGRSGLLERVLEGEERLSRAALARYLEELVEEARREAEREGLEGEQEEAAAGLLAELTPLREELARALEGEG-GSHMGVYVIPSGMEEAGETVIVRLTNPAEGEGMKVVVDRKKKALYEVLVLSEEERSWVVGEGVVPGGEVRFFVPLDPLFLLLPEFLEEGEENAELLLERPGLEGLLEEVFEKGVRFNREKLVRYLVEKVEEFKKKLEEEGVEEELLVEAFGRVAELTPLADRLKEALEEGK-GIRQHHLVIPEGWKSDRRWEILTLENPASGEGMQVVFDQQQQRLYGVLVHQREEAAWQVGSGIVPGGQNLFVVPLDPLFVVLPRYLRQGEGRLEELLARPELEGLLEQVLEGPVRFDRERLIRYLKARVLELQDLLRERQVTGDYQALAAGLLAGLTPLAERLEQALQQDL-MNEVYVYSIPQGLLSAGELRVATLKHPAQGEGQQVVYDTRQKKLYVVLVQEQDEREWQVGQGIVPGGQLYFLLPLDPLFLILPIFETQGDGADEFLLDRPDLLGQLSGFATEEIQLDREALSAYLLQQVDLLADVMEQEQISEDLRLYAFGQIAGFTPLAEELYEALEAQD-GHMVEVWVKPIGLSAEGKLKVLRLRHPAKGEELQVLYDTRNKQLYGVYVLEEADRFHVIGEGVEEGGRVLFALPLDPLFLALPDFLSQGDGEKEVLYERPGFEGALAEVFEGEVKLNLEKLREYYARLVEERKEEMRREGLKGEELRMAFGLVCELSPLCRDLEEGLKELA-SNAMEVWVLPAGLREKGQVRKVTLENPAEGEGMEVVYDTARQELFAVLVHREEEREWKVGEGTVPGGEILYAVPLDPLFLLLPQFLREGAPEEELLWARPGLEGALRQVLDGEVRLDVDKLAEWYRERVEELARELRELEVAEDVEQLAWGLLCGLTPLCERLGSLLEEGR-SNAMYVWIIPDGMKENGDIEEIELLNPAAGDSLSVVYDKKKKQLFVVLRHSRSRMSHLIGDDVVEGGDIYYAIPLDPAFLILPKFLKEGEENLEKIIERPGAEGMLELLFDENHEFNKEKLADYLLDLVYKYKEAIEKEKIDEELKVKAYGLLSYLTPLSDEFEKAKEEEG-GAMDYVFVVPAGLAQDGAWERLSLANPAEGEGLEVVYDRRRRELYHVLVLEREEQSWVVGEGVVPGGEVRFVLPADPLFYLLPLFAEEGEGALEELLERPGAAGLLEQLLSDELVFDEAALTAWLQRRVEELAAEAEAAGLEGLDRETALGLLAELTPLAERLLEALEEGE-GSHMQVWITPEGWKEAGELKVVTLANPAEGDGLQVLYDTKNKKLYEMVVLEREDQSWKIGDGIEPGGEIYFAVPLDPLFYILPKYLDKGEGNAELVYSRPNAAGYLEQIADGEVTYNEEKLSAYLQDKVEQYKATFKQMNVEGKLSELAWGLITHYTPLAELFKKADKESK-GSHMGVYVIPAGFDDSGDLRVLTVKNPAAGEGMQVVYDMKNQELYGVLVRKEEDQSWTVGDGVVEGGEIYFAVPLDPLFLILPQYLKSGDENFEQLKSRPDAAGLLDRVLSDELKFDEEAFVEYYQELVEKYREEAREQDISEDVLRLAFGLISELTPLAKLAELALLTDD,AARQLVFLLPEHLKDASSLLFVKLANPHSGEGATYLIDMCLQQLFEIKVFKEKHHSWFINQSVQSGGLLHFATPMDPLFLLLHYLLKAGKPDCTLLLRFPELEKSLRHVTEKYYKYSSEKTLKWLEKKVNQTVVALKANNVNEDYVRYAHGLISDYIPKELSDDLSKFLKL-AARQLVFLLPEHLKDASSLLFVKLANPHSGEGATYLIDMCLQQLFEIKVFKEKHHSWFINQSVQSGGLLHFATPMDPLFLLLHYLLKAGKPDCTLLLRFPELEKSLRHVTEKYYKYSSEKTLKWLEKKVNQTVVALKANNVNEDYVRYAHGLISDYIPKELSDDLSKFLKL-AARQLVFLLPEHLKDASSLLFVKLANPHSGEGATYLIDMCLQQLFEIKVFKEKHHSWFINQSVQSGGLLHFATPMDPLFLLLHYLLKAGKPDCTLLLRFPELEKSLRHVTEKYYKYSSEKTLKWLEKKVNQTVVALKANNVNEDYVRYAHGLISDYIPKELSDDLSKFLKL-AARQLVFLLPEHLKDASSLLFVKLANPHSGEGATYLIDMCLQQLFEIKVFKEKHHSWFINQSVQSGGLLHFATPMDPLFLLLHYLLKAGKPDCTLLLRFPELEKSLRHVTEKYYKYSSEKTLKWLEKKVNQTVVALKANNVNEDYVRYAHGLISDYIPKELSDDLSKFLKL-AARQLVFLLPEHLKDASSLLFVKLANPHSGEGATYLIDMCLQQLFEIKVFKEKHHSWFINQSVQSGGLLHFATPMDPLFLLLHYLLKAGKPDCTLLLRFPELEKSLRHVTEKYYKYSSEKTLKWLEKKVNQTVVALKANNVNEDYVRYAHGLISDYIPKELSDDLSKFLKL-AARQLVFLLPEHLKDASSLLFVKLANPHSGEGATYLIDMCLQQLFEIKVFKEKHHSWFINQSVQSGGLLHFATPMDPLFLLLHYLLKAGKPDCTLLLRFPELEKSLRHVTEKYYKYSSEKTLKWLEKKVNQTVVALKANNVNEDYVRYAHGLISDYIPKELSDDLSKFLKL-AARQLVFLLPEHLKDASSLLFVKLANPHSGEGATYLIDMCLQQLFEIKVFKEKHHSWFINQSVQSGGLLHFATPMDPLFLLLHYLLKAGKPDCTLLLRFPELEKSLRHVTEKYYKYSSEKTLKWLEKKVNQTVVALKANNVNEDYVRYAHGLISDYIPKELSDDLSKFLKL-AARQLVFLLPEHLKDASSLLFVKLANPHSGEGATYLIDMCLQQLFEIKVFKEKHHSWFINQSVQSGGLLHFATPMDPLFLLLHYLLKAGKPDCTLLLRFPELEKSLRHVTEKYYKYSSEKTLKWLEKKVNQTVVALKANNVNEDYVRYAHGLISDYIPKELSDDLSKFLKL-AARQLVFLLPEHLKDASSLLFVKLANPHSGEGATYLIDMCLQQLFEIKVFKEKHHSWFINQSVQSGGLLHFATPMDPLFLLLHYLLKAGKPDCTLLLRFPELEKSLRHVTEKYYKYSSEKTLKWLEKKVNQTVVALKANNVNEDYVRYAHGLISDYIPKELSDDLSKFLKL-AARQLVFLLPEHLKDASSLLFVKLANPHSGEGATYLIDMCLQQLFEIKVFKEKHHSWFINQSVQSGGLLHFATPMDPLFLLLHYLLKAGKPDCTLLLRFPELEKSLRHVTEKYYKYSSEKTLKWLEKKVNQTVVALKANNVNEDYVRYAHGLISDYIPKELSDDLSKFLKL,WMERLGLRYL-EWRERGLRWE-LMQELGLSWL-LWEQLGLRYA-LLRKLGLRWL-VGERLGLAFR-FYKEKGLSFE-LLEELGLSFL-ALDALGLRYA-LGELFGLSWL,YFQERGLEAA-YFQERGLEAA-YFQERGLEAA-YFQERGLEAA-YFQERGLEAA-YFQERGLEAA-YFQERGLEAA-YFQERGLEAA-YFQERGLEAA-YFQERGLEAA
21.0,44,54,B,10,SSGMKVLSSPVPAVLRTEPAVLGVDEAGRGPVLGPMVVAVVAAPVEQLAELERLHDKSLSPEQLRERYEALRQRGDWVWWALMVVSPEEISRAMLGDRRYNLNRLLYDAFEEVIEWALRQDVRVVEVFVDCMGNPLGLERRLQARFPGVRVVVRSKGDQLHPVVSAASIFAKVARDEAMEAWRERQRAEGRDASWGSGYGTDPRTVGWLEAHVDPERGFPPEVKRSWSTAQAIERRLARPVVRRGELERVLEELGLRLDRES-MEGKTVYSSPVPEVLKTEPAVLGVDEAGRGPVLGPMVLAAVAAPLSRMDELREYHDKKLNAEERRRLYERLKAKGDFVGWVLMVVSPEEISRALMSDEKRNLNKLNLEMAKEIIQWALDQEVKVVEVYVDCFGNPGALKEELQKYFPGIRVTVREKGEELHPVVSAASIFAKVARDDAMEAWKEKMREEGKDWKWGSGYPTDPVTREYLERHVDPEKGFPPFVKRSWKTAQRILEKYAKKVYERGEVEKLLEELGLRKAEDR-MRGREAISLPVPEALRTQPAVLGVDEAGRGPVLGPLVIAAVWAPLERLDALEELHDKKLSAEERERIYAELRKRGDWVGWALLVVTPEEISRALLGEREFNLLRLLYESHKEIIQWGLDQGVNVVEVHVDTLGNPEAVREELQAHFPGITVEVRSDGERLFPVVSAASIFAKVARDEAMEAWRAEMERRGLDARWGSGFPTDPQTVRWLEEHVDPERGFPPEVRRSYATAKRILERKARKVYRDKGEDELLRKLGLRLDEES-GSGMQIFETPVPEVLRTEPAVLGVDEAGRGPVLGPMVIAAVAAPISQMSRLEKLHDKKLNSAARKRMYAELLKEGDWVWWALMIVSPEEISKSMLSKKKYNLNRLNYEAMEAIIQLALDRKVKIVEVHVDCYGNPDKIEEKLQARFPGVKVTVTSKGDAEHPVVSAASIFAKVAREEAMAAWKKDMEARGLDAAWGSGYGSDPKTIGYLEAHVDPEKGFPPIVKRSHHTSQKILEKKAVKKYTKDGKNKLLEELGLSLDTDT-GSGEELLQSPVPPVLRTEPAVLGVDEAGRGPVLGPMVIAAVAAPESRLEELESLHEKGLSAEERERIYEELRERGDWVWWALLVLSPEAISRALLGEEKFNLFRLLYEAHKRVIQLALEQRVRVREVYVDCGGNPGGLEEELQRFFPGVKVIVEDKGEALRPVVSAASIFAKVARDRELERWREEARARGLDYRYGTGYPSDPKTVGFLEAHVDPERGFPPEVKRSHSTALKILERRARKKREEEGGEEALRELGLELDREA-SDGQTLIALPVPEVLKTEPAILGVDEAGRGPVLGPMVIAAVWAPKSRLKELEKLHDKKLTAEEREKVFEELKKRGDFIGWALRIVSPEEISKAMNGSKKFNLHKLNLEAMKEIIQFGLDQDVKIVEVHVDSMGNPRGVEEELQEYFPGIKVVVTDKGEREFPVVAAASIFAKVARDRAMEAWKKEMLEKGLDANWGSGYGTDPKTVEWLEKHVDPEKGFPPIVRRSFKTAQDILKKKAKKVFTEEELKELLEKLGLKLDEES-GSGEMVIATPVPPVLLTEPAVLGVDEAGRGPVLGPLVIAAVWAPLSRMKQLEQLHDKGVSDERLRAIYEQLKAHGDWVGWVLRIVTPEEISRRMLGKKKFNLNRLSYEAMKEVIQWGLDQKVNVREVFIDCFGNPKGLEEELQEHFPGIRVVVEDKGEKLHPVVSAASIFAKVAREEAMEAWKSVYRERGLDAEWGSGYPTDPKTIDWLERHVDPENGFPPIVKRSFSTAKEIERRRAKPVRRRRGRKVYLERLGLRKDYTA-GSGSEMTSLPVPESLTTEPAVLGVDEAGRGPVLGPMVVAAVWAPESRMADLEELHDKKLSAEKRRELYDRLKERGDWVGWALLTVSPEEISRAQLAADKRNLNTLSYEAMREIIQWGLDQKVKVEEVWVDCEGKPALLQTSLQTYFPGIRVHVHERGDQLHPVVSAASIFAKVARDEAMAAWKQEQEANGLDASYGSGYGTDPKTVAWLEAHVDPEKGFPPIVKRSHGTAQAILDKHAKPTVTKAELREVLEKLGLEKDDRS-MEGEELLRMPVPEKLLTEPAVLGIDEAGRGPVLGPMVIAAVFVPKSKMEELEKLHDSKVSEEKREEIYQKLLENGDFVGAALLVISPEKISEAMLGEKKFNLNRLLYEAFKRILQYGLDQNVKIVEAYVDCRGDPRKLEEELQAYFPGIKVIVTPKGDELHPVVSAASIFAKVARDKAMEAWKRKARENGLDAEYGSGYPSDPKTRRWLEEHVDPERGFPPEVKRSFATAKAILSKKAKKVTSKKGKREFLKELGLEFDYET-ATGMEILRSPVPDICRTEPCVLGVDEAGRGPVLGPMVIAAVWCPESRMEELESLHDKSVSAAAREERFRQLQEKGDWVGWALLIVSPEEISRSMLGERRQNLNRLSLEAHKRIIQLALDENVKVVEVFVDNQGNPGAVEKRLQKAFPGIRVTVKDKGESLHPVVSAASIFAKVARDRAMEAWRSEMRARKLDDRWGTGYPSDPETVRWLEEHVDPEKGFPPEVKRSHATAKAILRERSRRVETAEELEEVLAELGLRRDESR,NTGRCRLSSPVPAVCLKEPCVLGVDEAGRGPVLGPMVYAICYCPLSRLADLEALKVATLTENERERLFAKMEEDGDFVGWALDVLSPNLISTSMLGRVKYNLNSLSHDTAAGLIQYALDQNVNVTQVFVDTVGMPETYQARLQQHFPGIEVTVKAKADSLFPVVSAASIFAKVARDKAVKNWQFVENLQDLDSDYGSGYPNDPKTKAWLRKHVDPVFGFPQFVRFSWSTAQAILEKEAEDVIWEDSPHRYFQERGLEAASSL-NTGRCRLSSPVPAVCLKEPCVLGVDEAGRGPVLGPMVYAICYCPLSRLADLEALKVATLTENERERLFAKMEEDGDFVGWALDVLSPNLISTSMLGRVKYNLNSLSHDTAAGLIQYALDQNVNVTQVFVDTVGMPETYQARLQQHFPGIEVTVKAKADSLFPVVSAASIFAKVARDKAVKNWQFVENLQDLDSDYGSGYPNDPKTKAWLRKHVDPVFGFPQFVRFSWSTAQAILEKEAEDVIWEDSPHRYFQERGLEAASSL-NTGRCRLSSPVPAVCLKEPCVLGVDEAGRGPVLGPMVYAICYCPLSRLADLEALKVATLTENERERLFAKMEEDGDFVGWALDVLSPNLISTSMLGRVKYNLNSLSHDTAAGLIQYALDQNVNVTQVFVDTVGMPETYQARLQQHFPGIEVTVKAKADSLFPVVSAASIFAKVARDKAVKNWQFVENLQDLDSDYGSGYPNDPKTKAWLRKHVDPVFGFPQFVRFSWSTAQAILEKEAEDVIWEDSPHRYFQERGLEAASSL-NTGRCRLSSPVPAVCLKEPCVLGVDEAGRGPVLGPMVYAICYCPLSRLADLEALKVATLTENERERLFAKMEEDGDFVGWALDVLSPNLISTSMLGRVKYNLNSLSHDTAAGLIQYALDQNVNVTQVFVDTVGMPETYQARLQQHFPGIEVTVKAKADSLFPVVSAASIFAKVARDKAVKNWQFVENLQDLDSDYGSGYPNDPKTKAWLRKHVDPVFGFPQFVRFSWSTAQAILEKEAEDVIWEDSPHRYFQERGLEAASSL-NTGRCRLSSPVPAVCLKEPCVLGVDEAGRGPVLGPMVYAICYCPLSRLADLEALKVATLTENERERLFAKMEEDGDFVGWALDVLSPNLISTSMLGRVKYNLNSLSHDTAAGLIQYALDQNVNVTQVFVDTVGMPETYQARLQQHFPGIEVTVKAKADSLFPVVSAASIFAKVARDKAVKNWQFVENLQDLDSDYGSGYPNDPKTKAWLRKHVDPVFGFPQFVRFSWSTAQAILEKEAEDVIWEDSPHRYFQERGLEAASSL-NTGRCRLSSPVPAVCLKEPCVLGVDEAGRGPVLGPMVYAICYCPLSRLADLEALKVATLTENERERLFAKMEEDGDFVGWALDVLSPNLISTSMLGRVKYNLNSLSHDTAAGLIQYALDQNVNVTQVFVDTVGMPETYQARLQQHFPGIEVTVKAKADSLFPVVSAASIFAKVARDKAVKNWQFVENLQDLDSDYGSGYPNDPKTKAWLRKHVDPVFGFPQFVRFSWSTAQAILEKEAEDVIWEDSPHRYFQERGLEAASSL-NTGRCRLSSPVPAVCLKEPCVLGVDEAGRGPVLGPMVYAICYCPLSRLADLEALKVATLTENERERLFAKMEEDGDFVGWALDVLSPNLISTSMLGRVKYNLNSLSHDTAAGLIQYALDQNVNVTQVFVDTVGMPETYQARLQQHFPGIEVTVKAKADSLFPVVSAASIFAKVARDKAVKNWQFVENLQDLDSDYGSGYPNDPKTKAWLRKHVDPVFGFPQFVRFSWSTAQAILEKEAEDVIWEDSPHRYFQERGLEAASSL-NTGRCRLSSPVPAVCLKEPCVLGVDEAGRGPVLGPMVYAICYCPLSRLADLEALKVATLTENERERLFAKMEEDGDFVGWALDVLSPNLISTSMLGRVKYNLNSLSHDTAAGLIQYALDQNVNVTQVFVDTVGMPETYQARLQQHFPGIEVTVKAKADSLFPVVSAASIFAKVARDKAVKNWQFVENLQDLDSDYGSGYPNDPKTKAWLRKHVDPVFGFPQFVRFSWSTAQAILEKEAEDVIWEDSPHRYFQERGLEAASSL-NTGRCRLSSPVPAVCLKEPCVLGVDEAGRGPVLGPMVYAICYCPLSRLADLEALKVATLTENERERLFAKMEEDGDFVGWALDVLSPNLISTSMLGRVKYNLNSLSHDTAAGLIQYALDQNVNVTQVFVDTVGMPETYQARLQQHFPGIEVTVKAKADSLFPVVSAASIFAKVARDKAVKNWQFVENLQDLDSDYGSGYPNDPKTKAWLRKHVDPVFGFPQFVRFSWSTAQAILEKEAEDVIWEDSPHRYFQERGLEAASSL-NTGRCRLSSPVPAVCLKEPCVLGVDEAGRGPVLGPMVYAICYCPLSRLADLEALKVATLTENERERLFAKMEEDGDFVGWALDVLSPNLISTSMLGRVKYNLNSLSHDTAAGLIQYALDQNVNVTQVFVDTVGMPETYQARLQQHFPGIEVTVKAKADSLFPVVSAASIFAKVARDKAVKNWQFVENLQDLDSDYGSGYPNDPKTKAWLRKHVDPVFGFPQFVRFSWSTAQAILEKEAEDVIWEDSPHRYFQERGLEAASSL,EVRLLLQREG-AVVLLLEKKG-EVRLLLERKG-KTRLLLRKKG-VVRLRLRRRG-PVRLVLEKKG-LERWVLEREG-SVRWVFRREG-VVKLLLRKKG-KRYWLLVREG,FEIKVFKEKH-FEIKVFKEKH-FEIKVFKEKH-FEIKVFKEKH-FEIKVFKEKH-FEIKVFKEKH-FEIKVFKEKH-FEIKVFKEKH-FEIKVFKEKH-FEIKVFKEKH
