contacts,cs,ce,Chain,Length,designed_receptor_seq,native_receptor_seq,designed_binder_seq,native_binder_seq
18.0,24,34,A,10,SIISETIEYDPKKDELITIDMGSFWGAEKMVSEWLSDRIVDLVKGYAGGEGKAEVVQISYDPKVISLEELIAFYFRIHNPAGRSGIFAHTEEDLEKMKKIKKEEQPKWGNKITAIIEPIKEFTEEVDENGFCPTAYLKE-AVIPETIIYNPETDKLITLAGGCFWGVEKMYSQYLNDRIVDLVVGYAGGEGGAEVGQISYDPNIITLEELVDFYFKIHNPAGYSGLFAHTDEDFELMKEIKEKNQPYWGNKIKTEISPIDSFTEDFDGNDYCPVFFLRD-SIIPSSIIYDPEKHKLITLGGGCFWGMQHMYEKYLNDKIVDMTVGYAGGEKMAEVIQISYDPDVISLKQLVDFYFRIHSPAGKSGIFAHTDEDLELCKEIKKENQPKWGNKITAQITPIKEFTEEYKEDGYCPEFYLKN-SIIPETIKFDPKKHELITLAGGCFWGVKEMYEKYLSERIVDLVVGYAGGEGGAEVVQISYDPEVISLEELVDFYFKIHNPAGFSGLFAHTEEQLEELKRIKEEWQPYWGNRITTVIEPIESFTEDYESYKYCPIFELRE-SIVADTIKYDPEKHKLITLGGGCFWGVEHMYRKYLNDKIVDLVKGYAGGDSGYEVVQISYDPEVISLEELVDFYFKIHNPAGYSGIFAHTDEELEKMKEIKKKQEPYWGNKITTEIKPIKSYTEDYDSYYYSPEYYLKD-SKIASTIDFNPEEDELITIGGGCFWGMEHMYSTHLNDRIVDLVRGYAGGSGGEEVIQISYNPEVISLEELVDFYFKIHNPSGSSGLYAHTEEDLELLKKIKEENQPAWGNKIATVIEPIKSFSEDYKGNEYCPEFYLKE-SKISQTIKYDPTKDQLITIGGGCFWGAEHMYLTNLNDRIVDLVKGYAGGEGGEEVVQISYDPNVITLDELVDFYFKIHNPAGYSGLFAHTDEDLERMKEIKKENQPLWGNKIKTVIKPIKEFTEDYKKQDYCPEFKLKD-MNIPSTITYNPEKDELITLAGGCFWGAEHMYRRYLNDRIVDLVVGYAGGEKGAEVVQISYDPKVISLKELVDFYFLIHDPSGFSGLFAHTEEDLEELKRIKEEKQPLWGNKIKTVITPISSFTEDYESYKYCPKFYLKS-MIIPKTIDYDPKKDKLITIGGGCFWGAEKMYSEYLNDKIVDMVVGYAGGEGGLEVVQISYDPEIITLEELVEFYFKIHNPAGFSGLFSHTEEDLELLKKIKEEQQPFWGNKIATVISPIDSFKEEAEDYEYCPEFYLKK-FTIPDTIKFDPTKDKLITIDMGSFWGAQFMYEKHLNDRIVDLVRGYAGGEGKAEVVQISYDPEVISLDELVDFYFKIHNPAGFSGLFAHTDEDLERLREIKKEWQPYWGNKIRTVITPIEAFTEDYKGEGYCPTAKLKE,SLISKTIKYDPAKDKLITLASGSFWGTEHMYRKYLNDRIVDSKVGYANGEDFAEVLQVSYNPKVITLRELTDFFFRIHDPTTRSGLFAHSDADLKELAKIKEEWQPKWGNKIATVIEPIKNFYDAEEQGYACPTHYLRE-SLISKTIKYDPAKDKLITLASGSFWGTEHMYRKYLNDRIVDSKVGYANGEDFAEVLQVSYNPKVITLRELTDFFFRIHDPTTRSGLFAHSDADLKELAKIKEEWQPKWGNKIATVIEPIKNFYDAEEQGYACPTHYLRE-SLISKTIKYDPAKDKLITLASGSFWGTEHMYRKYLNDRIVDSKVGYANGEDFAEVLQVSYNPKVITLRELTDFFFRIHDPTTRSGLFAHSDADLKELAKIKEEWQPKWGNKIATVIEPIKNFYDAEEQGYACPTHYLRE-SLISKTIKYDPAKDKLITLASGSFWGTEHMYRKYLNDRIVDSKVGYANGEDFAEVLQVSYNPKVITLRELTDFFFRIHDPTTRSGLFAHSDADLKELAKIKEEWQPKWGNKIATVIEPIKNFYDAEEQGYACPTHYLRE-SLISKTIKYDPAKDKLITLASGSFWGTEHMYRKYLNDRIVDSKVGYANGEDFAEVLQVSYNPKVITLRELTDFFFRIHDPTTRSGLFAHSDADLKELAKIKEEWQPKWGNKIATVIEPIKNFYDAEEQGYACPTHYLRE-SLISKTIKYDPAKDKLITLASGSFWGTEHMYRKYLNDRIVDSKVGYANGEDFAEVLQVSYNPKVITLRELTDFFFRIHDPTTRSGLFAHSDADLKELAKIKEEWQPKWGNKIATVIEPIKNFYDAEEQGYACPTHYLRE-SLISKTIKYDPAKDKLITLASGSFWGTEHMYRKYLNDRIVDSKVGYANGEDFAEVLQVSYNPKVITLRELTDFFFRIHDPTTRSGLFAHSDADLKELAKIKEEWQPKWGNKIATVIEPIKNFYDAEEQGYACPTHYLRE-SLISKTIKYDPAKDKLITLASGSFWGTEHMYRKYLNDRIVDSKVGYANGEDFAEVLQVSYNPKVITLRELTDFFFRIHDPTTRSGLFAHSDADLKELAKIKEEWQPKWGNKIATVIEPIKNFYDAEEQGYACPTHYLRE-SLISKTIKYDPAKDKLITLASGSFWGTEHMYRKYLNDRIVDSKVGYANGEDFAEVLQVSYNPKVITLRELTDFFFRIHDPTTRSGLFAHSDADLKELAKIKEEWQPKWGNKIATVIEPIKNFYDAEEQGYACPTHYLRE-SLISKTIKYDPAKDKLITLASGSFWGTEHMYRKYLNDRIVDSKVGYANGEDFAEVLQVSYNPKVITLRELTDFFFRIHDPTTRSGLFAHSDADLKELAKIKEEWQPKWGNKIATVIEPIKNFYDAEEQGYACPTHYLRE,PITYDYCGPS-PNSYSYCGPS-PQTYSYCGPS-PQRREYCGPT-PEYYDYCGPT-PRKYDYCGPS-PKTYDYCGPS-PVKYDFCGPT-PIKYSYCGPS-PITYDYCGPT,DFFATWCGPS-DFFATWCGPS-DFFATWCGPS-DFFATWCGPS-DFFATWCGPS-DFFATWCGPS-DFFATWCGPS-DFFATWCGPS-DFFATWCGPS-DFFATWCGPS
33.0,126,136,B,10,SVVELKSAEEFKKALANGDKLVVVDFYASWCGPSRMLVPKLEELAKEYKGVEFYKLDVDAVPEVAAAQNVRAMPTVKFFKGGKAVTQVVGANPQAVKKAVADNG-SVTPLKSAEDFAKALQNGSKLVVVDFFASWCGPSKRLVPELEKLAEKYKDVAFYKLDVDAVPEVAAAQNVTAMPTVKFFVGGKEVTQVVGANPQAVEKAVAENG-MVTELKSAEEFNKALKNGDKLVVVDFFATWCGPSRMIAPKLEELAKEYKNVSFYKLDVDAVPEVASAQNVRSMPTIQFYKGGKEVTRVVGANPSAIKKAVEANG-MVKELKSKEEFEKALKNGEKLVVVDFYASWCGPSKMLVPKLEELAKEYKDVDFYKLDVDEVPEVASKMEVMAMPTVKFYKGGKLVTQVVGANPQAVKKAVADNG-MVTELKSAEEFKKALASGDKPVVVDFYASWCGPSKMLAPKLEELAAEYKGVDFYKLDVDAVPEVASAQNVQAMPTVKFYKGGKEVTSVVGANPNAVKKAVEENG-MVTELKSKEDFDKALANGDKLVVVDFYATWCGPSRMIAPKLAELAEKYKGVSFYKLDVDAVPEVAQAQNVRAMPTVQFYKGGKLVDKVVGANPAAVEKAVAENG-GVTELKSAEEFNKALENGDKLVVVDFYASWCGPSRMLVPSLEELAEEYKGVSFYKLDVDAVPEVAAAQDVRAMPTVIFYKGGKEVTRVVGANPQAVKKAVQDNG-GVTEIKSKEEFEKALKNGDKLVVIDFFATWCGPSRMLAPQLEELAKEYKNVSFFKLDVDAVPEVAQAQNVTAMPTVKFFKGGELVTQVVGANPQAVKQAVEKNG-MVTELKSAEEFQKALSSGDKLVVVDFFATWCGPSRMLAPKLEELAKEYKGVSFYKLDVDAVPEVAQKQNVSAMPTVKFFKGGKEVTRVVGADPAAVKKAVEDNG-MVKEIKSKEEFLEALKNGDKLVVVDFFATWCGPSRMLVPKLEELSKKYNNVDFYKLDVDDVPEVAAAQNVRAMPTVKFYKGGKLVTEVVGANPAAVEKAVKENG,MVTQLKSASEYDSALASGDKLVVVDFFATWCGPSKMIAPMIEKFAEQYSDAAFYKLDVDEVSDVAQKAEVSSMPTLIFYKGGKEVTRVVGANPAAIKQAIASNV-MVTQLKSASEYDSALASGDKLVVVDFFATWCGPSKMIAPMIEKFAEQYSDAAFYKLDVDEVSDVAQKAEVSSMPTLIFYKGGKEVTRVVGANPAAIKQAIASNV-MVTQLKSASEYDSALASGDKLVVVDFFATWCGPSKMIAPMIEKFAEQYSDAAFYKLDVDEVSDVAQKAEVSSMPTLIFYKGGKEVTRVVGANPAAIKQAIASNV-MVTQLKSASEYDSALASGDKLVVVDFFATWCGPSKMIAPMIEKFAEQYSDAAFYKLDVDEVSDVAQKAEVSSMPTLIFYKGGKEVTRVVGANPAAIKQAIASNV-MVTQLKSASEYDSALASGDKLVVVDFFATWCGPSKMIAPMIEKFAEQYSDAAFYKLDVDEVSDVAQKAEVSSMPTLIFYKGGKEVTRVVGANPAAIKQAIASNV-MVTQLKSASEYDSALASGDKLVVVDFFATWCGPSKMIAPMIEKFAEQYSDAAFYKLDVDEVSDVAQKAEVSSMPTLIFYKGGKEVTRVVGANPAAIKQAIASNV-MVTQLKSASEYDSALASGDKLVVVDFFATWCGPSKMIAPMIEKFAEQYSDAAFYKLDVDEVSDVAQKAEVSSMPTLIFYKGGKEVTRVVGANPAAIKQAIASNV-MVTQLKSASEYDSALASGDKLVVVDFFATWCGPSKMIAPMIEKFAEQYSDAAFYKLDVDEVSDVAQKAEVSSMPTLIFYKGGKEVTRVVGANPAAIKQAIASNV-MVTQLKSASEYDSALASGDKLVVVDFFATWCGPSKMIAPMIEKFAEQYSDAAFYKLDVDEVSDVAQKAEVSSMPTLIFYKGGKEVTRVVGANPAAIKQAIASNV-MVTQLKSASEYDSALASGDKLVVVDFFATWCGPSKMIAPMIEKFAEQYSDAAFYKLDVDEVSDVAQKAEVSSMPTLIFYKGGKEVTRVVGANPAAIKQAIASNV,GGFDSCPIKF-GAAMACPVSF-EGAAACPVRF-GAGLYCPVKR-AAAAACPVRF-GANLACPVKF-GGGFFCPVEF-GGMLACPIQF-GAALACPVKF-ASMLACPLSF,EQGYACPTHY-EQGYACPTHY-EQGYACPTHY-EQGYACPTHY-EQGYACPTHY-EQGYACPTHY-EQGYACPTHY-EQGYACPTHY-EQGYACPTHY-EQGYACPTHY
