contacts,cs,ce,Chain,Length,designed_receptor_seq,native_receptor_seq,designed_binder_seq,native_binder_seq
16.0,32,42,A,10,DIDIALDSLHQKTGEKIVTKDLNIGQSLLVRLHGLANTGYLWTLLGVYHNRPIILPQLFPKQLTLDDFQSKAISVTQPSISSHPVGGPSLASSIIQCHQKGTYYIVFSHFRPKEPTKGSNTLILDVVCK-SKSVNVGVLQYFSTLKTIQIDLKVGEKLLVNLSGRANTGYDWVLLGVYEEKPIINPDNYPKGTKTEDYNSKSISVTQPSEESTLIGNPKQELSLIQCHQTGEYYIVFSNYRKWLPTLGASTLILKVNCL-DKKLQLGSLQPETNDTTQTVNAKIGEEIEVELHGLAYTGYNWTLLGVFTDKPEINPKGFPKKDKKKDYNSKEISVTQPHVSTEDVGGPSAEISMVQCHKKGNYYIVFAYYRPSNPEMGANTIVLNIKCN-EVQTKLGKLERKTNMRTQKVQMKLGQKLLVKLDGLANTGYDWVLLGVSRQKPQINPKTFPRKYVGESYLSRQLSVTQPKQEKGIVGGPKQTVSSITCYEKGTYYIVFADYRPTHPRDGANTVVLEVFCN-GESVQLGVLRSYTHELETQVDLKLGQVLWIDLQGLAGTGYEWVLLGVYEEKPVINPAQFPRTLTQESFQSEDIQVTQPWFSGTWLGGPLLKKSLVQCKQSGLYYIVFANYRRADPIAGADTVVLTIQCR-SVSVVENFLDQKASQKTQSVQLQQGENLQIILNSFELTGYKWVLLGVYEQEPTINPEKFPTADVLDSYSSKDISVTQPLKGVNDIGDLSLKKSFIQCHKEGKYYVVYAYYRRFAPVEGSNTLIFEVQCS-KSSLETGKLSKSTGQKTTKVNLKKGETLEIILSSLAGTGYDWVLLGRYSNKPRIDPNKFSRFTVSNNHVTKDIEVTQPAKKEKLIGGPETKISKVKCKKNGNYYIVFSYYKRSNPKFGADTLILNVKCK-GEFVRVGDVQNKAQLQEREEWLDVGQTLYVQLMGLHDTGYSWVLLGVYEEKPVIQPQKFPSTFEGADFLSERIEVTQPIVARKNYGESELRSSRIVCKAPGTYWVVFAYYRPEDPMAGANTLILKIHCV-SSALSVGSLSQQAKKDVLEVNLKLGERLQIILNGLSGTGYSWVLLGVYREQPKITPDNFPRQDVREDYESKEIEVTQPEDFFWARGAEKTEVSDVICKQEGEYFIVFAYYRKENPLQGADTLILKVNCY-DVYHQVGTLEEDTGVDTVEIGLAIGESLYVVLNGKEQTGYEWVLLGVYHDDPVIDPSLFPRYDVLADYVSDDIEVTQPVQLPVPIGGPKQKISFIRCHQAGNYSVVFAYYRRYDPLQGANVVIYRVHCS,GKSLKLGNISNQTNQETITQSLSVGEILCIDLEGNAGTGYLWVLLGIHKDEPIINPENFPTKLTKKSFFSEEISVTQPKKYMQLLGGPDRMRSVIKGHKPGKYYIVYSYYRPFSPTSGANTKIIYVTVQ-GKSLKLGNISNQTNQETITQSLSVGEILCIDLEGNAGTGYLWVLLGIHKDEPIINPENFPTKLTKKSFFSEEISVTQPKKYMQLLGGPDRMRSVIKGHKPGKYYIVYSYYRPFSPTSGANTKIIYVTVQ-GKSLKLGNISNQTNQETITQSLSVGEILCIDLEGNAGTGYLWVLLGIHKDEPIINPENFPTKLTKKSFFSEEISVTQPKKYMQLLGGPDRMRSVIKGHKPGKYYIVYSYYRPFSPTSGANTKIIYVTVQ-GKSLKLGNISNQTNQETITQSLSVGEILCIDLEGNAGTGYLWVLLGIHKDEPIINPENFPTKLTKKSFFSEEISVTQPKKYMQLLGGPDRMRSVIKGHKPGKYYIVYSYYRPFSPTSGANTKIIYVTVQ-GKSLKLGNISNQTNQETITQSLSVGEILCIDLEGNAGTGYLWVLLGIHKDEPIINPENFPTKLTKKSFFSEEISVTQPKKYMQLLGGPDRMRSVIKGHKPGKYYIVYSYYRPFSPTSGANTKIIYVTVQ-GKSLKLGNISNQTNQETITQSLSVGEILCIDLEGNAGTGYLWVLLGIHKDEPIINPENFPTKLTKKSFFSEEISVTQPKKYMQLLGGPDRMRSVIKGHKPGKYYIVYSYYRPFSPTSGANTKIIYVTVQ-GKSLKLGNISNQTNQETITQSLSVGEILCIDLEGNAGTGYLWVLLGIHKDEPIINPENFPTKLTKKSFFSEEISVTQPKKYMQLLGGPDRMRSVIKGHKPGKYYIVYSYYRPFSPTSGANTKIIYVTVQ-GKSLKLGNISNQTNQETITQSLSVGEILCIDLEGNAGTGYLWVLLGIHKDEPIINPENFPTKLTKKSFFSEEISVTQPKKYMQLLGGPDRMRSVIKGHKPGKYYIVYSYYRPFSPTSGANTKIIYVTVQ-GKSLKLGNISNQTNQETITQSLSVGEILCIDLEGNAGTGYLWVLLGIHKDEPIINPENFPTKLTKKSFFSEEISVTQPKKYMQLLGGPDRMRSVIKGHKPGKYYIVYSYYRPFSPTSGANTKIIYVTVQ-GKSLKLGNISNQTNQETITQSLSVGEILCIDLEGNAGTGYLWVLLGIHKDEPIINPENFPTKLTKKSFFSEEISVTQPKKYMQLLGGPDRMRSVIKGHKPGKYYIVYSYYRPFSPTSGANTKIIYVTVQ,TDISLSGLAS-SDVYQLGVIN-FDKDFKGNID-KDTKLWGDRR-PDVDLLGSAK-KDLYHSGQQN-NNLYKRGIRN-PDCRQRGIMP-LNVERAGNIQ-QDNALRGNVH,KDQKNCGSAW-KDQKNCGSAW-KDQKNCGSAW-KDQKNCGSAW-KDQKNCGSAW-KDQKNCGSAW-KDQKNCGSAW-KDQKNCGSAW-KDQKNCGSAW-KDQKNCGSAW
24.0,79,89,B,10,NHYEKIIANYQGKKNFDESYFDWRKHNGVSKISDQQDCGSCWAFSATGAIESQYMIQRSKNVVLSEQQLVDCDKENFGCYGGTIDNAFKSIIKLGGLCRDIDYPYVAKKPSPCNENACTVKYSIYDYLEVPKDKLREALKFLGPIAISVAVSDDVVLYNNGIYSGKCGKELNHAVNLIGYGSEEVVNENDKKNEKRYYYIVKNSWGSKWGEVGYIRITTDINGTKRDCMIGTEGYIPLVN-PSYSTVLKDYKGKKNFSKDVFDWRKHNGVRPVKDQKECGSCWAFSAIGAIESQYLIKKKESVMLSEQQLVDCCNKDHGCSGGYIKNAFQSMIEMGGICPDGDYPYRSYKPTICNENLCKKKYTIEDFLRIPNNQLKEAIKFLGPISVSVAVSWDIFNYRKGIFNGKCGKELNHAVLLIGYGKRWIKNSKTKKLEARYYFIIKNSWGDTWGEKGFIRIKTNQKGTERACLLGSEAYIPLVD-ADYDAIIKAFKGNEDFDRDYFDWREHNGVGPIKNQDNCGSSWSFSTVGAIESQYLIRRKKKVTLSEQQLIDCDSLNKGCYGGLIDNAFTSIIALGGICRDDNYPYSAKKPTSCNTTSCSEKYSISEFLRIPSYKLKEALKYLGPISVSIAISRDIIYYEKGIYSGNCGPFKNHAVLLVGYGSVNEINPATKEKEKHFYYIVKNSWGERWGEKGYIRITTNEEGTKTDCKMGAQAFVPLVN-TTYEQIIAKYKGSSRYSLNYFDWRENKGVTPIENQKVCGGCWAFCSTGAIESQYAIKFNKLITLSEQQLIDCDFNDRGCNGGYIENSFESIINQGGLCRDLDYPYVAKQPYQCNINKCIEKYSIKDFLQIPRNKLKEAIRYLGPISVSTAISDDIQYYKRGIYNGRCGTNLNHAILLIGYGTIYVENPITRRQQKKYFFIVKNSWGTTWGEKGYIWINTDETGDTRQCMLGTDAYIPLIE-STYSAVITEYKGTNKFDKDTFDWRTHNGVTPIKNQQECGSCWAFSAVGAIESQYKIRQKKTVSLSEQQLVDCDTKNDGCNGGYIKDAFEEIIKMGGLCKDTDYPYIGKVPNSCNTNKCTKKYTISSYLEIPSNKLKEALKYLGPIAVSVAVSDDIKDYKNGIFNGKCGEHLNHAVLLIGYGHENVKNQSTNEPERHYYYIVKNSWGTDWGEHGYIKIETDVTGKKRSCKLGTQAYIPLVT-IYYDDVIKKFKGNETFDTKKFDWREHNGVGPIRDQKNCGSCWAFSSVGAIESQYLIRSNKQITLSEQQLIDCDNKNNGCNGGYIDDAFSSIISLGGLCPNSDYPYIANQPSMCNTNKCDTKYSIDRFLRIPRNKLKEALKYLGPISVSIATSSDTWNYESGVYNGDCGKFINHAVLLIGYGMEEIEKPKNKQNEKTYYFITKNSWGEEWGEKGYIKIDTDENGEKRLCQMGKMAFIPLVN-IPYTKVIFEYAGDKEFDKDHFDWRLHNGVTPVRNQENCGSCWSFSAVGAIESQYMIKKNMSVSLSEQQLKDCDKKNHGCNGGYIDQAYESIIQMGGICPDGNYPYVDRQPSSCDTNKCSQKYTIKEYIEIPADKLKEALKFLGPIAISVAVSDDIVDYKSGIYKGACGDNLNHAVNLIGYGNVSKKNTSTDLKEKHYYYIVKNSWGTKWGEKGYMRIVTDETGTLRSCQMGTDAYIPLVG-MDYDKVIKSYAGEEEFDNDFYDWRLHNGVTPIKNQQNCGSCWAFSTVGAIESAYRIKFHKFVRLSEQELVDCCTTNTGCQGGYINDAYEEIINLGGICPIEAYPYVNALPKKCNRTACEKKYTIDDFLHIPKNKLKEALKFLGPIAVSVAMSQDFIHYKVGIFDGKCGSELNHAVNLVGYGTKEVKNTTSGNLEKHHYFIIKNSWGKEWGEKGYIRIKTDESGKLRECLMGENAYIPLTK-ISYATIIKNYQGNISYDNRTFDWRQHNGVTPVRNQQSCGSCWAFSAIGSIESQYMINFRKSIILSEQQLIDCDFANHGCNGGLIDNAYSSIIRLGGICKDTNYPYHAKSPTFCNNRACTKKYTIVNYLRIPHDKLKQALRFLGPISVSISASADIFNYKSGIYAGACGASLNHAINMVGYGMISLINKETKLGEENYYFIVKNSWGDKWGEQGYIRIKTDKEGLLRQCQMGTVALIPLIN-MDYNSLINAYKGTTSFDTASFDWREHNGVGPVKDQQKCGSSWAFSAVGAIESQYLRRLSKNVTLSEQQLIDCDKKNKGCNGGLLDNSFQDIIDMGGLCPDTDYPYEASEPHQCDRQKCTQKYSISRYLDIPQDKLKEALRFLGPISVSIAASADIARYTSGIYDGSCGDNLNHAVNLVGFGTVQKIDQITEQLQDVYYFIVKNSWGTEWGESGYIRIQTDNEGKLNMCKLGEMAFIPLIE,MNYEEVIKKYRGEENFDHAAYDWRLHSGVTPVKDQKNCGSAWAFSSIGSVESQYAIRKNKLITLSEQELVDCSFKNYGCNGGLINNAFEDMIELGGICPDGDYPYVSDAPNLCNIDRCTEKYGIKNYLSVPDNKLKEALRFLGPISISVAVSDDFAFYKEGIFDGECGDQLNHAVMLVGFGMKEIVNPLTKKGEKHYYYIIKNSWGQQWGERGFINIETDESGLMRKCGLGTDAFIPLIE-MNYEEVIKKYRGEENFDHAAYDWRLHSGVTPVKDQKNCGSAWAFSSIGSVESQYAIRKNKLITLSEQELVDCSFKNYGCNGGLINNAFEDMIELGGICPDGDYPYVSDAPNLCNIDRCTEKYGIKNYLSVPDNKLKEALRFLGPISISVAVSDDFAFYKEGIFDGECGDQLNHAVMLVGFGMKEIVNPLTKKGEKHYYYIIKNSWGQQWGERGFINIETDESGLMRKCGLGTDAFIPLIE-MNYEEVIKKYRGEENFDHAAYDWRLHSGVTPVKDQKNCGSAWAFSSIGSVESQYAIRKNKLITLSEQELVDCSFKNYGCNGGLINNAFEDMIELGGICPDGDYPYVSDAPNLCNIDRCTEKYGIKNYLSVPDNKLKEALRFLGPISISVAVSDDFAFYKEGIFDGECGDQLNHAVMLVGFGMKEIVNPLTKKGEKHYYYIIKNSWGQQWGERGFINIETDESGLMRKCGLGTDAFIPLIE-MNYEEVIKKYRGEENFDHAAYDWRLHSGVTPVKDQKNCGSAWAFSSIGSVESQYAIRKNKLITLSEQELVDCSFKNYGCNGGLINNAFEDMIELGGICPDGDYPYVSDAPNLCNIDRCTEKYGIKNYLSVPDNKLKEALRFLGPISISVAVSDDFAFYKEGIFDGECGDQLNHAVMLVGFGMKEIVNPLTKKGEKHYYYIIKNSWGQQWGERGFINIETDESGLMRKCGLGTDAFIPLIE-MNYEEVIKKYRGEENFDHAAYDWRLHSGVTPVKDQKNCGSAWAFSSIGSVESQYAIRKNKLITLSEQELVDCSFKNYGCNGGLINNAFEDMIELGGICPDGDYPYVSDAPNLCNIDRCTEKYGIKNYLSVPDNKLKEALRFLGPISISVAVSDDFAFYKEGIFDGECGDQLNHAVMLVGFGMKEIVNPLTKKGEKHYYYIIKNSWGQQWGERGFINIETDESGLMRKCGLGTDAFIPLIE-MNYEEVIKKYRGEENFDHAAYDWRLHSGVTPVKDQKNCGSAWAFSSIGSVESQYAIRKNKLITLSEQELVDCSFKNYGCNGGLINNAFEDMIELGGICPDGDYPYVSDAPNLCNIDRCTEKYGIKNYLSVPDNKLKEALRFLGPISISVAVSDDFAFYKEGIFDGECGDQLNHAVMLVGFGMKEIVNPLTKKGEKHYYYIIKNSWGQQWGERGFINIETDESGLMRKCGLGTDAFIPLIE-MNYEEVIKKYRGEENFDHAAYDWRLHSGVTPVKDQKNCGSAWAFSSIGSVESQYAIRKNKLITLSEQELVDCSFKNYGCNGGLINNAFEDMIELGGICPDGDYPYVSDAPNLCNIDRCTEKYGIKNYLSVPDNKLKEALRFLGPISISVAVSDDFAFYKEGIFDGECGDQLNHAVMLVGFGMKEIVNPLTKKGEKHYYYIIKNSWGQQWGERGFINIETDESGLMRKCGLGTDAFIPLIE-MNYEEVIKKYRGEENFDHAAYDWRLHSGVTPVKDQKNCGSAWAFSSIGSVESQYAIRKNKLITLSEQELVDCSFKNYGCNGGLINNAFEDMIELGGICPDGDYPYVSDAPNLCNIDRCTEKYGIKNYLSVPDNKLKEALRFLGPISISVAVSDDFAFYKEGIFDGECGDQLNHAVMLVGFGMKEIVNPLTKKGEKHYYYIIKNSWGQQWGERGFINIETDESGLMRKCGLGTDAFIPLIE-MNYEEVIKKYRGEENFDHAAYDWRLHSGVTPVKDQKNCGSAWAFSSIGSVESQYAIRKNKLITLSEQELVDCSFKNYGCNGGLINNAFEDMIELGGICPDGDYPYVSDAPNLCNIDRCTEKYGIKNYLSVPDNKLKEALRFLGPISISVAVSDDFAFYKEGIFDGECGDQLNHAVMLVGFGMKEIVNPLTKKGEKHYYYIIKNSWGQQWGERGFINIETDESGLMRKCGLGTDAFIPLIE-MNYEEVIKKYRGEENFDHAAYDWRLHSGVTPVKDQKNCGSAWAFSSIGSVESQYAIRKNKLITLSEQELVDCSFKNYGCNGGLINNAFEDMIELGGICPDGDYPYVSDAPNLCNIDRCTEKYGIKNYLSVPDNKLKEALRFLGPISISVAVSDDFAFYKEGIFDGECGDQLNHAVMLVGFGMKEIVNPLTKKGEKHYYYIIKNSWGQQWGERGFINIETDESGLMRKCGLGTDAFIPLIE,DTAELLGGPR-SNLKLLGYPI-YNKWLMGGPR-NKRELLGGSK-KSDEWLGGPE-EEIPPLGGPI-GFAPLLGGPV-CGENLLGGPK-GGVPILGAHW-SPPVLLGGPQ,KYMQLLGGPD-KYMQLLGGPD-KYMQLLGGPD-KYMQLLGGPD-KYMQLLGGPD-KYMQLLGGPD-KYMQLLGGPD-KYMQLLGGPD-KYMQLLGGPD-KYMQLLGGPD
