contacts,cs,ce,Chain,Length,designed_receptor_seq,native_receptor_seq,designed_binder_seq,native_binder_seq
19.0,34,44,A,10,GGEDRLDRLLNAYQPRLTLSKTDFTFENVQFRQKQSSDFQLQNTGKVPIHFAFIPLENEKTPHRPWLKASPSEGNLAPGEKITVSLTCLVTDDDVEDLNSGKKRIEDVLALSLDNGDVYLLSITGNYLPK-GGVDLKDLYLNAYQPRLTLSKTKFNFDNVKYKEKQVDSFYIKNTGKVPIHYAFVPRLGAEKPYKNWLSAEPDHGNLKPGEKKEIDLVVFVDENDVSKLNSGEEKIEDVLVLSLDLGQTYRLSIRGNYVPD-GSHMVIDELLNAYKPKLELTKTKFTFENVKYQEEQTDSFTIKNTGKVPVNFSFIPLYNEKTPYKNWLTANPAKGELQPGEEKEIKLTIYVKEEDVKDLDSGKEKIEDVLSLSLKNGDEYFLTISGNYVPH-GPLKEIDEILNANLPKLTLSKTEFNFSDVEFKKEKTDDFTIKNTGKVPINFKFVPREGAKTYCKPWLKAIPSEGTLKPNEEIKISLICYVTDESTEKLDSGEDKIYDILQLYLEKGSAYFLTITGNYIPH-GGSHMLDILLNAFQPKLTLSKTQFTFANVKYKQKQEDSFTIKNTGFVPIHFEFVPRDNQKKPYRNWLTAKPSKGNLKPNEEKTIVLTLFVDEKDTEELDSGKDDIQDVLELHLDNGSVYFLTISGNYVPK-GGHMAEDTRRNAFLPKLTLSRTAFVFENVRFEQKQSSSFTIKNTGKVPVYFRFVPLYGEKTPCKPWLRAVPDKGRLAPGETRTIDLVCFVDRSSVESLDSGTDKIYDVLRLELDNGEHYFLTITGNYVPR-GMDNLLDILLNSFKPKLTLSKTHFTFENVKFEEKQSESFEIQNTGLVPVHFAFVPRANDKTPYAGWLTAEPDSGVLAPNEKITVDLVCLVTEADREALESGKDKINDTLVLSLENGSVYYLTITGNYVPD-GGSHMLDIFVNAYKPKLELSKTDFVFDNVRYQQKQEEEFQIKNTGKVPVKFQFVPLHDDEKPFKPWLKANPDHGTLAPGETITITLTCFVDQGDVEKLDSGVDKIEDVLKLHLDNGDVYFLKITGNYIPR-GGHMSEDISRNAYLPKLTLSKTDFVFDNVKYEEKQDNDFTIKNTGKVPIHFAFIPKSGDKAPHKGWLRAIPDKGDLKPDEEKKITLSLYVEKGDRKDLDAGKDKIEDKLVLSLDYGDQYYLTISGNYVPD-GGADVLDKLLNAYQPKLTLTKTEFVFENVEYQKKQEQAFEIENTGLVPVHFSFIPQLNAKTPYKPWLTAEPAEGNLAPKEKKTITLTVFVTDEAREDLDSGKEKIEDVLLLHLDYGDVYTLTISGNYVPS,DSVRIMDRMENDFLPSLELSRREFVFENVKFRQLQKEKFQISNNGQVPCHFSFIPKLNDSQYCKPWLRAEPFEGYLEPNETVDISLDVYVSKDSVTILNSGEDKIEDILVLHLDRGKDYFLTISGNYLPS-DSVRIMDRMENDFLPSLELSRREFVFENVKFRQLQKEKFQISNNGQVPCHFSFIPKLNDSQYCKPWLRAEPFEGYLEPNETVDISLDVYVSKDSVTILNSGEDKIEDILVLHLDRGKDYFLTISGNYLPS-DSVRIMDRMENDFLPSLELSRREFVFENVKFRQLQKEKFQISNNGQVPCHFSFIPKLNDSQYCKPWLRAEPFEGYLEPNETVDISLDVYVSKDSVTILNSGEDKIEDILVLHLDRGKDYFLTISGNYLPS-DSVRIMDRMENDFLPSLELSRREFVFENVKFRQLQKEKFQISNNGQVPCHFSFIPKLNDSQYCKPWLRAEPFEGYLEPNETVDISLDVYVSKDSVTILNSGEDKIEDILVLHLDRGKDYFLTISGNYLPS-DSVRIMDRMENDFLPSLELSRREFVFENVKFRQLQKEKFQISNNGQVPCHFSFIPKLNDSQYCKPWLRAEPFEGYLEPNETVDISLDVYVSKDSVTILNSGEDKIEDILVLHLDRGKDYFLTISGNYLPS-DSVRIMDRMENDFLPSLELSRREFVFENVKFRQLQKEKFQISNNGQVPCHFSFIPKLNDSQYCKPWLRAEPFEGYLEPNETVDISLDVYVSKDSVTILNSGEDKIEDILVLHLDRGKDYFLTISGNYLPS-DSVRIMDRMENDFLPSLELSRREFVFENVKFRQLQKEKFQISNNGQVPCHFSFIPKLNDSQYCKPWLRAEPFEGYLEPNETVDISLDVYVSKDSVTILNSGEDKIEDILVLHLDRGKDYFLTISGNYLPS-DSVRIMDRMENDFLPSLELSRREFVFENVKFRQLQKEKFQISNNGQVPCHFSFIPKLNDSQYCKPWLRAEPFEGYLEPNETVDISLDVYVSKDSVTILNSGEDKIEDILVLHLDRGKDYFLTISGNYLPS-DSVRIMDRMENDFLPSLELSRREFVFENVKFRQLQKEKFQISNNGQVPCHFSFIPKLNDSQYCKPWLRAEPFEGYLEPNETVDISLDVYVSKDSVTILNSGEDKIEDILVLHLDRGKDYFLTISGNYLPS-DSVRIMDRMENDFLPSLELSRREFVFENVKFRQLQKEKFQISNNGQVPCHFSFIPKLNDSQYCKPWLRAEPFEGYLEPNETVDISLDVYVSKDSVTILNSGEDKIEDILVLHLDRGKDYFLTISGNYLPS,YKGHGFRVHR-LSGSTFYIKN-NTGLSFSIRK-TDGITFNIES-SNGRSFEIKR-ADGIGFSYRS-AKGASFTIKR-EEGKSFSYKS-SNGSSFTISH-DNGYTYQIEN,TIGIDFKIRT-TIGIDFKIRT-TIGIDFKIRT-TIGIDFKIRT-TIGIDFKIRT-TIGIDFKIRT-TIGIDFKIRT-TIGIDFKIRT-TIGIDFKIRT-TIGIDFKIRT
12.0,4,14,B,10,EYLFKLLLIGDGGVGKTSLLLRFVKDEFNASYISTIGIDFKIKTIELDNKKVKLQIWDTAGQERYRSITRSYYRGAMGIFLVYDITDRKSFENISKWIEDVDKYADENVVKMILGNKCDLEDKREVSTEEGKELAKKYGIKFLETSAKANINVEEAFLTLAKDIYNKSKEK-ELLFKLLLIGDSGVGKTAILLRFVKDSFNSEYKATIGIDFMIKTIMLDNQKIKLQIWDTAGQERFRSLTRAYYRGAMGILLVYDITNEKSFENIKNWIKDVDEHADENVVKMILGNKCDLNDKREVSTENGKSLAEQYGIKFMETSAKANINVEEAFYELSTEIKKRMSKK-DYLFKLLLVGDSGVGKSAILLRFVKDSFNAEYKATIGIDFLIKTIDLDDKKVKLQIWDTAGQERFRSITRAYYRGAMGIFLVYDITNRKSFDNIKNWIKDVDEYAEDNVVKMILGNKCDLEDNREVSTEEGEKLAESYGIKFMETSAKANINVEEAFLTLATEIYNRYKES-SYLFKLLLIGDSGVGKSSILLRFVENSFNASYISTIGIDFKIKTIELDNKKIKLQIWDTAGQERFRTITRSYYRGAMGILLVYDITDQKSFDNIKNWIKDVDQYASENVVKMILGNKCDLNEKREVSKEDGEKLAQEYGIKFMETSAKANINVEEAFLELSKLIYEKISKT-DYLFKLLLIGDSGVGKSSLLLRFVDNSFNAEYKATIGIDFKIKTIEIDDKKIKLQIWDTAGQERFRSITRSYYRGAMGIFLVYDITNEKSFENIKKWIKDVDQYADENVVKMILGNKCDLEDKRQVSTEDGEALAEEYGMPFLETSAKANINVDEAFLTLASLIKASDEKK-SNVFKLLLIGDSGVGKSSILLRFTKDSFDETLQATIGVDFKIRTIEIDNQTIKLQIWDTAGQERFRSITRSYYRGAMGILLVYDITDAKSFENIREWIRNVDLHASEDVVKMILGNKCDLEERREVSFEDGEKLAREYGIPFMETSAKANLNVEEAFLTLSRLIKEKENKR-SYLFKLLLIGDSGVGKSAILLRFVKDTFDSSLKSTIGIDFAIRTIDLDNQKVKLQIWDTAGQERFRTITRSYYRGAMGIFLVYDITNERSFENIREWIRDVDQYADDNVVKMILGNKCDLGDKRQVSREDGENLAKEYGIPFLETSAKANINVEEAFNLLAKKIVKENKKR-DYLFKLLLIGDSGVGKTSILLRFTKNSFDSNMKATIGIDFAIKTIELDNKKIKLQIWDTAGQERFRTITRAYYRGAMGIFLVYDITNQESFNNIKTWIKDVDNHAEEDVVKMILGNKCDLEEKREVSRQQGEELAKEYGIKFMETSAKANINVEEAFYELATEIKNKLDTK-DYLFKLLLVGDSGVGKSSILLRFVDNSFNADLKATIGIDFKIKTVSLDNEEVKLQIWDTAGQERFRSITRSYYRGAMGIFLVYDITNEQSFRNIKEWIKDVDQYADEDVVRMILGNKCDLEENRQVSTEDGKKLAEEYGIKFMETSAKANINVEEAFLTLAKDIISKYKER-SYVFKLLLVGDSGVGKSSILLRFVKDSFDSKLQATIGVDFLIKTITLDNEVVKLQIWDTAGQERYRSLTRSYYRGAMGIFLVYDITNQQSFTNIRQWIQDVDKYAEPNVIKMILGNKCDLNEKREVSTEEGEQLAREYGIMFMETSAKANINVDEAFLTLSKEIKSKLKEK,DYLFKLLLIGDSGVGKTCVLFRFSEDAFNSTFISTIGIDFKIRTIELDGKRIKLQIWDTAGQERFRTITTAYYRGAMGIMLVYDITNEKSFDNIRNWIRNIEEHASADVEKMILGNKCDVNDKRQVSKERGEKLALDYGIKFMETSAKANINVENAFFTLARDIKAKMDKK-DYLFKLLLIGDSGVGKTCVLFRFSEDAFNSTFISTIGIDFKIRTIELDGKRIKLQIWDTAGQERFRTITTAYYRGAMGIMLVYDITNEKSFDNIRNWIRNIEEHASADVEKMILGNKCDVNDKRQVSKERGEKLALDYGIKFMETSAKANINVENAFFTLARDIKAKMDKK-DYLFKLLLIGDSGVGKTCVLFRFSEDAFNSTFISTIGIDFKIRTIELDGKRIKLQIWDTAGQERFRTITTAYYRGAMGIMLVYDITNEKSFDNIRNWIRNIEEHASADVEKMILGNKCDVNDKRQVSKERGEKLALDYGIKFMETSAKANINVENAFFTLARDIKAKMDKK-DYLFKLLLIGDSGVGKTCVLFRFSEDAFNSTFISTIGIDFKIRTIELDGKRIKLQIWDTAGQERFRTITTAYYRGAMGIMLVYDITNEKSFDNIRNWIRNIEEHASADVEKMILGNKCDVNDKRQVSKERGEKLALDYGIKFMETSAKANINVENAFFTLARDIKAKMDKK-DYLFKLLLIGDSGVGKTCVLFRFSEDAFNSTFISTIGIDFKIRTIELDGKRIKLQIWDTAGQERFRTITTAYYRGAMGIMLVYDITNEKSFDNIRNWIRNIEEHASADVEKMILGNKCDVNDKRQVSKERGEKLALDYGIKFMETSAKANINVENAFFTLARDIKAKMDKK-DYLFKLLLIGDSGVGKTCVLFRFSEDAFNSTFISTIGIDFKIRTIELDGKRIKLQIWDTAGQERFRTITTAYYRGAMGIMLVYDITNEKSFDNIRNWIRNIEEHASADVEKMILGNKCDVNDKRQVSKERGEKLALDYGIKFMETSAKANINVENAFFTLARDIKAKMDKK-DYLFKLLLIGDSGVGKTCVLFRFSEDAFNSTFISTIGIDFKIRTIELDGKRIKLQIWDTAGQERFRTITTAYYRGAMGIMLVYDITNEKSFDNIRNWIRNIEEHASADVEKMILGNKCDVNDKRQVSKERGEKLALDYGIKFMETSAKANINVENAFFTLARDIKAKMDKK-DYLFKLLLIGDSGVGKTCVLFRFSEDAFNSTFISTIGIDFKIRTIELDGKRIKLQIWDTAGQERFRTITTAYYRGAMGIMLVYDITNEKSFDNIRNWIRNIEEHASADVEKMILGNKCDVNDKRQVSKERGEKLALDYGIKFMETSAKANINVENAFFTLARDIKAKMDKK-DYLFKLLLIGDSGVGKTCVLFRFSEDAFNSTFISTIGIDFKIRTIELDGKRIKLQIWDTAGQERFRTITTAYYRGAMGIMLVYDITNEKSFDNIRNWIRNIEEHASADVEKMILGNKCDVNDKRQVSKERGEKLALDYGIKFMETSAKANINVENAFFTLARDIKAKMDKK-DYLFKLLLIGDSGVGKTCVLFRFSEDAFNSTFISTIGIDFKIRTIELDGKRIKLQIWDTAGQERFRTITTAYYRGAMGIMLVYDITNEKSFDNIRNWIRNIEEHASADVEKMILGNKCDVNDKRQVSKERGEKLALDYGIKFMETSAKANINVENAFFTLARDIKAKMDKK,KDDEELNKNL-SEDEKLNSNL-EEDKELNENL-EEDEKKNKNL-EKDKKINEEL-VEDEELNAKL-KEDKKKNQNL-IEDEIINKNL-KEDEEKNKNQ-EEDKKLNAQL,IMDRMENDFL-IMDRMENDFL-IMDRMENDFL-IMDRMENDFL-IMDRMENDFL-IMDRMENDFL-IMDRMENDFL-IMDRMENDFL-IMDRMENDFL-IMDRMENDFL
