contacts,cs,ce,Chain,Length,designed_receptor_seq,native_receptor_seq,designed_binder_seq,native_binder_seq
19.0,30,40,A,10,GSHMATAEIAQYANQIRSAIGAFGNPSAYAGQEAVLHLQLSPDGQLLKATPAGGNPALNAALLEAVKTATIPVPPSAAVYGVFRDQELVIKP-GSHMETAQIERYAAEVRQAIAAFGDPEAYAGQRAVLRLSLDPEGGLLRAEPAGGDPALQQAALEAVKTATIPKPPSAAVYARFRDSELVVKP-GGGGGSGMIKQYGDQIVAAIQAFDRPEEFAGKESVLHLSLSPTGELVKAEPAGGDPALNTALLDAAKTATIPKPPDDAVYGQFKDKSLTVKP-GSHMDKAAIEQYGEQIKQAILKFDNPDNYKGKTAVLNIALDPKGGLMRIEPSGGDPALNSAALKAAKTATIPKPPSAAVYGVFKDAALTLTP-GPLGSMAEIEAYGARIAEAIGALDAPQDYAGRRAVLRLSLDPDGGLLRAEPAGGDPALQRALLAAARTAVIPRPPSAAVYARFRDAELALAP-GAMDDTLKIAEYAEAIRTAILDFDDPKAYAGKKAVLNLQFDPKGGLVKAEPSGGDPELQDAALEAAKTASIPEPPDEAVYGVFKDQAVTLKP-GSHMSEKLIAEYGEKIREAILAFENPEAFKGKKAVLEIELDENGTLIKAVPSGGDPELNSAALKAVKKAEIPKPPDEAVYGRFKGAKLTIEP-GHMDDSVKITQYAEQIRSAIGQFGDADRFKGQEAVLEISLDPDGGLVKAKPSGGDPELQSALLKATKKATIPKPPSAAVYAKFKDHKLTLKP-GHMDDAEKIADYGKRIVEAINAFKDPDAYKGKKAVLEISLDPTGKLVKAVPKGGDPALNNAALEAVKKATIPKPPDAAVYATFKDKTLELTP-GSHMDSEKIIEYAEKIKSAINSFENPSDYSGKKAVLKLELDPNGNLLKAEPKGGDPDLQNAALEAIKKAKIPKPPDKAVYEKFKDNEITLEP,NNGASGADINNYAGQIKSAIESFYDASSYAGKTCTLRIKLAPDGMLLDIKPEGGDPALCQAALAAAKLAKIPKPPSQAVYEVFKNAPLDFKP-NNGASGADINNYAGQIKSAIESFYDASSYAGKTCTLRIKLAPDGMLLDIKPEGGDPALCQAALAAAKLAKIPKPPSQAVYEVFKNAPLDFKP-NNGASGADINNYAGQIKSAIESFYDASSYAGKTCTLRIKLAPDGMLLDIKPEGGDPALCQAALAAAKLAKIPKPPSQAVYEVFKNAPLDFKP-NNGASGADINNYAGQIKSAIESFYDASSYAGKTCTLRIKLAPDGMLLDIKPEGGDPALCQAALAAAKLAKIPKPPSQAVYEVFKNAPLDFKP-NNGASGADINNYAGQIKSAIESFYDASSYAGKTCTLRIKLAPDGMLLDIKPEGGDPALCQAALAAAKLAKIPKPPSQAVYEVFKNAPLDFKP-NNGASGADINNYAGQIKSAIESFYDASSYAGKTCTLRIKLAPDGMLLDIKPEGGDPALCQAALAAAKLAKIPKPPSQAVYEVFKNAPLDFKP-NNGASGADINNYAGQIKSAIESFYDASSYAGKTCTLRIKLAPDGMLLDIKPEGGDPALCQAALAAAKLAKIPKPPSQAVYEVFKNAPLDFKP-NNGASGADINNYAGQIKSAIESFYDASSYAGKTCTLRIKLAPDGMLLDIKPEGGDPALCQAALAAAKLAKIPKPPSQAVYEVFKNAPLDFKP-NNGASGADINNYAGQIKSAIESFYDASSYAGKTCTLRIKLAPDGMLLDIKPEGGDPALCQAALAAAKLAKIPKPPSQAVYEVFKNAPLDFKP-NNGASGADINNYAGQIKSAIESFYDASSYAGKTCTLRIKLAPDGMLLDIKPEGGDPALCQAALAAAKLAKIPKPPSQAVYEVFKNAPLDFKP,LEPDGTGIRK-LRPVGDGIER-YKPVGDGIER-YTPVGTGYQK-WRPAGAGLER-YEPVGKGIKK-LEKKGDGIIA-FKDTGNGITK-YEPDGDGIKK-YKKDGKGIIK,MVPYGRGFTR-MVPYGRGFTR-MVPYGRGFTR-MVPYGRGFTR-MVPYGRGFTR-MVPYGRGFTR-MVPYGRGFTR-MVPYGRGFTR-MVPYGRGFTR-MVPYGRGFTR
26.0,40,50,B,10,MRQDDWGVWTIDGNGNLRMDGVVITPENSEMVPDGDGLVRVPKDSDRPR-MLSNDWGTITLDGDNRLTQNGVVITDANSVMVADGAGTVRVATNANVTL-MLENEWGTLTINEQNKLTHNGTVITEANATMVDEGEGQVRVPKDATVEV-MVENEWGTITFDEDNKPKMNGVVITEDNSQMVDLGDGQVRVPKNADKEK-MVKDEFGEWEVDENGRLTLDGKVVNRDNTVMVKDGNGYVRIDKKAKRKP-MISNNYGTITLDDNGNPTLNGETISEDNTILVTNGDGEIRIHKNSGVQS-MFQNEWGTVSVGADGAPTLDGVPITDANAEMVAEGDGQVRVLRGADLDP-MLQSDWGTIQLNQSGQITMDGQVVTASNGVLVQDGAGQVRVFKGQASPQ-MFSNEWGEITLNASNVPTMNGIPITKDNSVMVSYGGGQVRIYKNANEDF-MWTNNWGTFTLDADNKLLQDGVIITDKNSLMVDDGSGKVRVLKTKSISK,SYNTPWGKVIINAAGQPTMNGTVMTADNSSMVPYGRGFTRVLNSLVNNP-SYNTPWGKVIINAAGQPTMNGTVMTADNSSMVPYGRGFTRVLNSLVNNP-SYNTPWGKVIINAAGQPTMNGTVMTADNSSMVPYGRGFTRVLNSLVNNP-SYNTPWGKVIINAAGQPTMNGTVMTADNSSMVPYGRGFTRVLNSLVNNP-SYNTPWGKVIINAAGQPTMNGTVMTADNSSMVPYGRGFTRVLNSLVNNP-SYNTPWGKVIINAAGQPTMNGTVMTADNSSMVPYGRGFTRVLNSLVNNP-SYNTPWGKVIINAAGQPTMNGTVMTADNSSMVPYGRGFTRVLNSLVNNP-SYNTPWGKVIINAAGQPTMNGTVMTADNSSMVPYGRGFTRVLNSLVNNP-SYNTPWGKVIINAAGQPTMNGTVMTADNSSMVPYGRGFTRVLNSLVNNP-SYNTPWGKVIINAAGQPTMNGTVMTADNSSMVPYGRGFTRVLNSLVNNP,DKNGRLVHQS-DTNGVAVVTY-DKNGKDVYKK-DKNGNTIVTK-DANGKEVIVK-DKNGNELVKK-DAAGRTLFTR-DSQGRVIVQN-DAKGNTIFKN-DANGQLVLSW,APDGMLLDIK-APDGMLLDIK-APDGMLLDIK-APDGMLLDIK-APDGMLLDIK-APDGMLLDIK-APDGMLLDIK-APDGMLLDIK-APDGMLLDIK-APDGMLLDIK
