contacts,cs,ce,Chain,Length,designed_receptor_seq,native_receptor_seq,designed_binder_seq,native_binder_seq
12.0,23,33,A,10,GESLSLLRIRTPDGQILTKQFYSDEPLSLLYGFTESHGYPKNEYVWLRKPIRLISKLDPNKTLSMNSLFPDLTLYIQKK-IRPMTLLSIQTPTGAILVQEFNSLQPLSSLYLFVEEKGYPLNQYLWGRFPRKNLMGLDPTRTLLQHQLYPNVTLYLVRG-MVKLTQLEIATPEGDVLEKTFDAHEALKALIDWVAEQGFPLDEYLFGQEPVRNVLADSADSTLESLKLSPAHCLYLKNQ-MSLQTSLEIFTPDGQVLEERFSSSEPLRQLIEFVASQGFPAEEFLWSIEPRRDVFAENPESTLLELGLFPSRTLFLRLN-PSPTTKLRITTPGGGKLEKTFDSNEPLEKLHEFAAGKGYPEAEYIWTQRPKRNVFGLNPEASLEQNELTPNVTLYIRPG-KMPQAHLRIATPEGKWLEQTFDAAAPLESLRLWVAQQGYPHAQYLYSHSPFRAVYALDASASLIEHQLVPVQSLYLRAS-GAMRTQLQIETPDGDVLKKSFDSMEPLAGLLAFTESHGYPRQEFLFSHEPSVNILGLNPEASLMDCDLYPNVTLYLKKH-GHMLTKLEISTPEGKKLIKTFRSTEPLNQLRVWVAEEGYPQQDYLWSLKPKRNIFKEDPNATLKEHGLFPRKFLYLKAP-GTQKTLVGIRTPDGQTLFKTFDSNEPLQELIYYTQSKGYPLDEYLWSRNPKKNVRKLDPTRTLIEHDLVPQNFLYILAR-GSDVTYIRIFTPQGDVLTHFFDSDEPLAKLLEFVENRGFPKDKFLFSAEPARRIIELSRAATLLQNALYPRVTLSLLRF,MEPVSKLRIRTPSGEFLERRFLASNKLQIVFDFVASKGFPWDEYLLSTFPRRDVTQLDPNKSLLEVKLFPQETLFLEAE-MEPVSKLRIRTPSGEFLERRFLASNKLQIVFDFVASKGFPWDEYLLSTFPRRDVTQLDPNKSLLEVKLFPQETLFLEAE-MEPVSKLRIRTPSGEFLERRFLASNKLQIVFDFVASKGFPWDEYLLSTFPRRDVTQLDPNKSLLEVKLFPQETLFLEAE-MEPVSKLRIRTPSGEFLERRFLASNKLQIVFDFVASKGFPWDEYLLSTFPRRDVTQLDPNKSLLEVKLFPQETLFLEAE-MEPVSKLRIRTPSGEFLERRFLASNKLQIVFDFVASKGFPWDEYLLSTFPRRDVTQLDPNKSLLEVKLFPQETLFLEAE-MEPVSKLRIRTPSGEFLERRFLASNKLQIVFDFVASKGFPWDEYLLSTFPRRDVTQLDPNKSLLEVKLFPQETLFLEAE-MEPVSKLRIRTPSGEFLERRFLASNKLQIVFDFVASKGFPWDEYLLSTFPRRDVTQLDPNKSLLEVKLFPQETLFLEAE-MEPVSKLRIRTPSGEFLERRFLASNKLQIVFDFVASKGFPWDEYLLSTFPRRDVTQLDPNKSLLEVKLFPQETLFLEAE-MEPVSKLRIRTPSGEFLERRFLASNKLQIVFDFVASKGFPWDEYLLSTFPRRDVTQLDPNKSLLEVKLFPQETLFLEAE-MEPVSKLRIRTPSGEFLERRFLASNKLQIVFDFVASKGFPWDEYLLSTFPRRDVTQLDPNKSLLEVKLFPQETLFLEAE,KEEDGIWKGD-SYIKNLSAGD-FGFDEVWDGD-RELKKLYYGE-RLAKDLWQGD-PRYKSLFFGE-ARKRGVARGQ-LAKQDLYFGD-LNKEKKLQGE-PERLRFAYGE,MDELQLFRGD-MDELQLFRGD-MDELQLFRGD-MDELQLFRGD-MDELQLFRGD-MDELQLFRGD-MDELQLFRGD-MDELQLFRGD-MDELQLFRGD-MDELQLFRGD
16.0,41,51,B,10,YHKLRVAPSKIDEPTVIELAPETMKEMELEHGNIVLLKGNDKEAIRIVRANDSMLKEKIGVNTVVRNNLGVLIGDKIKIELRPDVEPCKEIHILPVKDTVKGIKGNLYEVYVKPYFEKQFVPVINGEVFTTQGGGRAVRFVISSDPSPSCVVAPKTKINASGAPIERKEEENPRY-MKEFIVADTLIRDQTVVRLSHGTMDMLNLNDGDIVHMKGDHSEAWRIVRADPGCPDTEILIPDTAMNNLRVLLGDRISISLSSDIKDAFDIHILPVKDTVEGVKGDLYDVYILPYFKDCMVPVRKGDVMRTSGGGRQVEFIIASTPCPCAVVAPETKINYMGEPLDRRENEKKLY-ATQLTVSATLLADSRVVELNPNRMSQLRLDSGNIVHLSGNGTSALRIVRSNEKCSDDTILVPAVLRNNLSVSLGDTITISLAADVQDCLKVWILPIEDTCNGLQGDLYQVYLLPFFLANLVPVTEGDILQVTGGKRTVRFCTASMPSPNCVVSPATQVFYSGSPIKQGPNEVLLE-GTTFTVSNTKNSESQVIELATRTMQKLKLHSGDIVYLVGSNRKAIRLVKTNLNRDDDTIGIPVSQRNNLKVKVGDRVKIEKADYVKPCAEILILPWRDTIKGIEGDLFEVYIKPFFSGKIVPITRGDRITTIGGGRSVEFVIKTKPSPVCIVSRKTLIRDTGNPMSRAKDETELD-GSDFQVSSSSELTTSVVELSADAMEQLHLKHGDIVFLQGKETSAVRIVRSNGSMHKDMIAVPVSVRENLHVKLGDVVKIQAFPEVKGCEKIHILPVKDTCKDREGHIFTTYIKPYFHNRTVPIREGDVLVTNGGQNRLEFVISTEPSPECIVTPETEIVFDGEPIEREKDEQRLH-EKSYLVSKTLLNDPTVVRLDWRRMDELNLKNGDIVHITGENKKAIKFVKADTAMKKNKIGVNQTVRDNLRVKIGDKITISFRKDIKPAKKIHILPYKDTVEGLEGDLYVTYILPYFFNMKVPIIKGEVFETHGGGRKVRFVTESQPKPECIVAPETTIEYDGDPIERKEDEQSLT-MKTLIVKSSLIKDVSVVELSEDRMRELGLNPGDIVYIKGNERVAVRIIRPDKQCPKEAVMVPPRVRENLSVALGDTVEIELDSSIRPAKIIHILPLKDTVRGIVGELRKTYIYPFFRDHKIPIRKGDIFTTKGGKRFVEFVTSTKPDPFAIVANETEVRIYGEPLERKKGEEDLW-HVSLRVADSRVSIATVVELSSGRMDSLKLLKGDIVHIVGSNREAVKIVRANEGCPVDRIMIPDVTRNNLGVKLGDTILVSLKSTIKPCDEIWIRPVKETVVDIEGNLYNVYISPTFASSTVPVIQGDEMITHGGGRLVRFVTQTIPSPMCVVAPSTRIVWEGAPLNREDDDRLLH-GMDKKVFLATTNDPSVVRFSKSSMDEMKLKDGDIVLLEGEGESAIRIVREDDNVPEDQIAIPIVTRHNLKVKIGDIVSVSLASHVQPCRKVLILVRADTCEGIEGPLFQTYIEPFFYDNIVPVTKGDVIITVGGGRLVEFVVSTEPSPRCIVSDNTEIYFEGLPFETEENEKDLD-VVTLTVAPTVLPEAEVVRLSGERMRELRLREGDIVYLRGPRRQATRIVLEDEIVPDDRIAVPKVVRDNLGVAVGDVVELTSRPDVESCEWVHVRPVRETVTNIRGKLYDVYIRPFFERRIVPVALGDVLTTGGGGRMVRFFEETIPSPTCIVAPETRVDYEGAPRERMEEEEPRE,PNRLIVDEAINEDNSVVSLSQPKMDELQLFRGDTVLLKGKRREAVCIVLSDDTCSDEKIRMNRVVRNNLRVRLGDVISIQPCPDVKYGKRIHVLPIDDTVEGITGNLFEVYLKPYFLEAYRPIRKGDIFLVRGGMRAVEFVVETDPSPYCIVAPDTVIHCEGEPIKREDEEESLN-PNRLIVDEAINEDNSVVSLSQPKMDELQLFRGDTVLLKGKRREAVCIVLSDDTCSDEKIRMNRVVRNNLRVRLGDVISIQPCPDVKYGKRIHVLPIDDTVEGITGNLFEVYLKPYFLEAYRPIRKGDIFLVRGGMRAVEFVVETDPSPYCIVAPDTVIHCEGEPIKREDEEESLN-PNRLIVDEAINEDNSVVSLSQPKMDELQLFRGDTVLLKGKRREAVCIVLSDDTCSDEKIRMNRVVRNNLRVRLGDVISIQPCPDVKYGKRIHVLPIDDTVEGITGNLFEVYLKPYFLEAYRPIRKGDIFLVRGGMRAVEFVVETDPSPYCIVAPDTVIHCEGEPIKREDEEESLN-PNRLIVDEAINEDNSVVSLSQPKMDELQLFRGDTVLLKGKRREAVCIVLSDDTCSDEKIRMNRVVRNNLRVRLGDVISIQPCPDVKYGKRIHVLPIDDTVEGITGNLFEVYLKPYFLEAYRPIRKGDIFLVRGGMRAVEFVVETDPSPYCIVAPDTVIHCEGEPIKREDEEESLN-PNRLIVDEAINEDNSVVSLSQPKMDELQLFRGDTVLLKGKRREAVCIVLSDDTCSDEKIRMNRVVRNNLRVRLGDVISIQPCPDVKYGKRIHVLPIDDTVEGITGNLFEVYLKPYFLEAYRPIRKGDIFLVRGGMRAVEFVVETDPSPYCIVAPDTVIHCEGEPIKREDEEESLN-PNRLIVDEAINEDNSVVSLSQPKMDELQLFRGDTVLLKGKRREAVCIVLSDDTCSDEKIRMNRVVRNNLRVRLGDVISIQPCPDVKYGKRIHVLPIDDTVEGITGNLFEVYLKPYFLEAYRPIRKGDIFLVRGGMRAVEFVVETDPSPYCIVAPDTVIHCEGEPIKREDEEESLN-PNRLIVDEAINEDNSVVSLSQPKMDELQLFRGDTVLLKGKRREAVCIVLSDDTCSDEKIRMNRVVRNNLRVRLGDVISIQPCPDVKYGKRIHVLPIDDTVEGITGNLFEVYLKPYFLEAYRPIRKGDIFLVRGGMRAVEFVVETDPSPYCIVAPDTVIHCEGEPIKREDEEESLN-PNRLIVDEAINEDNSVVSLSQPKMDELQLFRGDTVLLKGKRREAVCIVLSDDTCSDEKIRMNRVVRNNLRVRLGDVISIQPCPDVKYGKRIHVLPIDDTVEGITGNLFEVYLKPYFLEAYRPIRKGDIFLVRGGMRAVEFVVETDPSPYCIVAPDTVIHCEGEPIKREDEEESLN-PNRLIVDEAINEDNSVVSLSQPKMDELQLFRGDTVLLKGKRREAVCIVLSDDTCSDEKIRMNRVVRNNLRVRLGDVISIQPCPDVKYGKRIHVLPIDDTVEGITGNLFEVYLKPYFLEAYRPIRKGDIFLVRGGMRAVEFVVETDPSPYCIVAPDTVIHCEGEPIKREDEEESLN-PNRLIVDEAINEDNSVVSLSQPKMDELQLFRGDTVLLKGKRREAVCIVLSDDTCSDEKIRMNRVVRNNLRVRLGDVISIQPCPDVKYGKRIHVLPIDDTVEGITGNLFEVYLKPYFLEAYRPIRKGDIFLVRGGMRAVEFVVETDPSPYCIVAPDTVIHCEGEPIKREDEEESLN,KDKIIGYYPA-DRGKMTKFPG-KGSRHQMFPR-KNHSFRTFPP-NKDSTESYPQ-DVTIVPSYPR-SHEEYVSFPI-EEFTKQKYPN-RLGTSSTYPK-GRYLLRDFPP,DEYLLSTFPR-DEYLLSTFPR-DEYLLSTFPR-DEYLLSTFPR-DEYLLSTFPR-DEYLLSTFPR-DEYLLSTFPR-DEYLLSTFPR-DEYLLSTFPR-DEYLLSTFPR
