contacts,cs,ce,Chain,Length,designed_receptor_seq,native_receptor_seq,designed_binder_seq,native_binder_seq
33.0,20,30,A,10,GSMKNLLYFYILFHTVSYLLILLYVGVFVFVAGVDSYDSMYQILHQNLLYFSIGWMIMVETVILGLIIFTAKKELKQLSPKEVHNKWKIGMIYMTAYALGALFSWVYFAFMLHIYKGLVKPLDNYTPLQIVHGYIAIPHQIILGSTAMVFFVVKLKGFRNQLNFWLLEFTVGPFTKVRTPKKIFIIGALILYFHTYQEYDEGFSVEVWKKEGL-IGYATKVYDTITYPTFSYVVITVYSSIFLWKAGTNALLPEYTAWWEGSLGFFQALEILFAFLYLGNLLRKRESNIIDLSPVQRERTGYEFLKWLIFTAICTLWSAFTWNWLHEFWYYYQTPQTVMSPMHVVNVFLSVPLMLIAGMAAMIYGICRLPGFKEKKSLPVVALVFGPFFILSIPNLSFVGGALVQMRKSLQLALAEMSKKAIEKGRL-MGLKKSLVWFICIAVVLNLALIYYTGYYFSLAGYDVDSPAYKSVHLNYLYFMLIALIVTTAVLLGWLLLSRRKNLDKLSPEELGHLGQKYYQYLILFADLVFWSKFFWEWELWRWERVYTPKTTWTPLNIVHIYLSMPVLIIAGCAALVYALTRLPQFHTSINPWLRKLVFSPFGFVPTPYNVNVFGTLFLWYQTLAIVNKKAVDDEEYWKEY-GSSTTELNFVLGSLLFGNTLMIMYVGVFNRHAGTNAMAPAFRVKWQGFLDFSAACTAAVAIFLLGWQIFDAIYDMENLTPEQIFTLGNIAAVWFDGYALSAFWSDFMYRHMKSVYERVMNQEDKTEPWCILHVYLSLPIQVVAGMATAVYLMTKLPYFHTSISPDFLRFVLYPLISFPFMGLPNIGGAMKYMYNAFSFDMSENEKKVLEESNV-TESNTIYIFLFAFPAVVHLLVLVYAGKYQFRSGLDSRSPAWHEVWHDLFNYTIFMIVLFTLLIWGSLVYMRNPSLTNYSPKEIMITSNKFAVFSCFTAISAFYSLFVWHDLHNAYKSSVIPHSSYSPWDLIHIYLAVPIHMNAGFAAFIYGLTMIPGFKDNLDRYFVAHTFMILADFHYLPFWAVFGSLWLLYNSVDRGITDGFNRELLKKSM-MGFLLKYSGSIFTLFLSNSYIVWYVGKYYFTAGKNAYSPEYTQKWMDYYYRMVLAYIIVCILALGSLIFAKRSDIEEVSPEEQFEISMYIQDYYCAFAISFFYSDVYFRLLYTHFLQTNTKKSIMDPLVIVHNYLANPISITYGAMAALLAFTRLPEFAMNLSAPLLLLTFWGVVDNLNLKGFAFYGTRKFLSKTNRSAFSNEIIFLDRKDIS-GSFVLYRVLVWVSQSVLWAMVIWYVGKHWEAAGVFCETPEYVVVWFGFFWVMIVAQIFIFSVAIGSWINKRDRGKDEMSPQERRAVGLRFVNFLEGYGVAVWWAFFLFYRLEHIWRGVAEPCTWMDPTHIVYLWIAAPVMWIFGVAAMVFAVTRLPGFSMEKNTGMFIFVFSFLVAIPLPFYAWMLTFAYEAWLTYKELNESELIKAGYEIKG-AGFEAFKIFVLVAPLVIHLTLLYWFGIHHIKAGEEATSPDYQDKWMGVYWFHAALIFLVFSLVLGFMWFFREKNLENLSPEEEFDRWLQGWVWLIGTATQMFWALKVFAWCLNLDLGMRKPQNLLTPFFILHVFVSIPSMIIAGFAATIYLRYMIPGFEKKQLLPMNALVYGPLFVKPWWMKAWWLGTMIAIASAWKTEHTTEVVIEDKKAQG-PGFGQGLDGVMAGLERFHHHLDQFLGENENTCGLDASLPCYDTNWKFRKEMLVLAEMATFLHLSGYLWSYRIRHLAQVTPEQLELLWQNSNQHGVGAAMGMLFAYSYYKWKLSCWFNYQNPQSPHTPLAIFDFYMCVPVMRLQGFIQFIFEVNFLPGFADGLRLPGAIFSMGPFFVHPWYGKWAMFGWMKDSYRDKNQGNESNDDDYIYAYGG-SGAELQLRGVVYGLLVFDLCVFLYVGVFYLVAGQDSSSPDYWIFWEVFLYEVVAAQLVMLVAVIGSIWQGRRKELQEMSPLEVEQLWERGYQLGVFFALCMFWAYHVYLRLHDFWQEVEAPKSSYTPSFIVHAYLSVPIMMVAGAAMAVYWYTQLPFFQGMWHLPGVILTLGPVLEVRFPFWVAGIGLFAAHDYAYSRARASAAKVERGREKG,LLDKKWLTFALAIYTVFYLWVRWYEGVYGWSAGLDSFAPEFETYWMNFLYTEIVLEIVTASILWGYLWKTRDRNLAALTPREELRRNFTHLVWLVAYAWAIYWGASYFTEQDGTWHQTIVRDTDFTPSHIIEFYLSYPIYIITGFAAFIYAKTRLPFFAKGISLPYLVLVVGPFMILPNVLALAVMGTLTQTFYSFAQGGLGQSLCEAVDEGL-LLDKKWLTFALAIYTVFYLWVRWYEGVYGWSAGLDSFAPEFETYWMNFLYTEIVLEIVTASILWGYLWKTRDRNLAALTPREELRRNFTHLVWLVAYAWAIYWGASYFTEQDGTWHQTIVRDTDFTPSHIIEFYLSYPIYIITGFAAFIYAKTRLPFFAKGISLPYLVLVVGPFMILPNVLALAVMGTLTQTFYSFAQGGLGQSLCEAVDEGL-LLDKKWLTFALAIYTVFYLWVRWYEGVYGWSAGLDSFAPEFETYWMNFLYTEIVLEIVTASILWGYLWKTRDRNLAALTPREELRRNFTHLVWLVAYAWAIYWGASYFTEQDGTWHQTIVRDTDFTPSHIIEFYLSYPIYIITGFAAFIYAKTRLPFFAKGISLPYLVLVVGPFMILPNVLALAVMGTLTQTFYSFAQGGLGQSLCEAVDEGL-LLDKKWLTFALAIYTVFYLWVRWYEGVYGWSAGLDSFAPEFETYWMNFLYTEIVLEIVTASILWGYLWKTRDRNLAALTPREELRRNFTHLVWLVAYAWAIYWGASYFTEQDGTWHQTIVRDTDFTPSHIIEFYLSYPIYIITGFAAFIYAKTRLPFFAKGISLPYLVLVVGPFMILPNVLALAVMGTLTQTFYSFAQGGLGQSLCEAVDEGL-LLDKKWLTFALAIYTVFYLWVRWYEGVYGWSAGLDSFAPEFETYWMNFLYTEIVLEIVTASILWGYLWKTRDRNLAALTPREELRRNFTHLVWLVAYAWAIYWGASYFTEQDGTWHQTIVRDTDFTPSHIIEFYLSYPIYIITGFAAFIYAKTRLPFFAKGISLPYLVLVVGPFMILPNVLALAVMGTLTQTFYSFAQGGLGQSLCEAVDEGL-LLDKKWLTFALAIYTVFYLWVRWYEGVYGWSAGLDSFAPEFETYWMNFLYTEIVLEIVTASILWGYLWKTRDRNLAALTPREELRRNFTHLVWLVAYAWAIYWGASYFTEQDGTWHQTIVRDTDFTPSHIIEFYLSYPIYIITGFAAFIYAKTRLPFFAKGISLPYLVLVVGPFMILPNVLALAVMGTLTQTFYSFAQGGLGQSLCEAVDEGL-LLDKKWLTFALAIYTVFYLWVRWYEGVYGWSAGLDSFAPEFETYWMNFLYTEIVLEIVTASILWGYLWKTRDRNLAALTPREELRRNFTHLVWLVAYAWAIYWGASYFTEQDGTWHQTIVRDTDFTPSHIIEFYLSYPIYIITGFAAFIYAKTRLPFFAKGISLPYLVLVVGPFMILPNVLALAVMGTLTQTFYSFAQGGLGQSLCEAVDEGL-LLDKKWLTFALAIYTVFYLWVRWYEGVYGWSAGLDSFAPEFETYWMNFLYTEIVLEIVTASILWGYLWKTRDRNLAALTPREELRRNFTHLVWLVAYAWAIYWGASYFTEQDGTWHQTIVRDTDFTPSHIIEFYLSYPIYIITGFAAFIYAKTRLPFFAKGISLPYLVLVVGPFMILPNVLALAVMGTLTQTFYSFAQGGLGQSLCEAVDEGL-LLDKKWLTFALAIYTVFYLWVRWYEGVYGWSAGLDSFAPEFETYWMNFLYTEIVLEIVTASILWGYLWKTRDRNLAALTPREELRRNFTHLVWLVAYAWAIYWGASYFTEQDGTWHQTIVRDTDFTPSHIIEFYLSYPIYIITGFAAFIYAKTRLPFFAKGISLPYLVLVVGPFMILPNVLALAVMGTLTQTFYSFAQGGLGQSLCEAVDEGL-LLDKKWLTFALAIYTVFYLWVRWYEGVYGWSAGLDSFAPEFETYWMNFLYTEIVLEIVTASILWGYLWKTRDRNLAALTPREELRRNFTHLVWLVAYAWAIYWGASYFTEQDGTWHQTIVRDTDFTPSHIIEFYLSYPIYIITGFAAFIYAKTRLPFFAKGISLPYLVLVVGPFMILPNVLALAVMGTLTQTFYSFAQGGLGQSLCEAVDEGL,QVIFLIWLAF-PIIVLIYLGA-AVFGLTLLGA-PVLALTVLAA-LVVLLAIAAG-TVFILTGLGF-LMVILKVAGA-AIMAMIFAAG-LVALLVFTAW-LVFALYALAW,FVVFFVIVGS-FVVFFVIVGS-FVVFFVIVGS-FVVFFVIVGS-FVVFFVIVGS-FVVFFVIVGS-FVVFFVIVGS-FVVFFVIVGS-FVVFFVIVGS-FVVFFVIVGS
29.0,104,114,B,10,MTDLNAELSEILLTRMIKQQVAMFFSILGVANMWFLLTSPILGRFVDQQDALIFNILTPIVLVVWPAAMMRILYKEHQINIGATIVVIGIMVGILVAVLIASQAVLNFPFPYVFPTVWIYGAIILDVILMVTRSFATTAVIGATGFGLVFMLGNYPVLSPFFFPVDFMGQPMEIADIMRLLFAATILPGGVLAALLCVVMFYVFIHVGEQIAEVRTEQ-ATDSPSVEAQLKAALTKAVGIIVFFVLLGAYTFWMTMFWKFIHVRIDTKTLWEWVTWVPIIFIAYPAIISRILHKNANFFGGATICVLGISLGEYLHIFFAMNGYLSFPYAFCFPSQYLGGAIILDLILWKTNSFIACAIIGGLGYGLIFYPGNLPIVAPTFLPIMHNGVNATLQAIMGDAYKYPPIIALILSSLLCVLAILVSIYVGNFLASRDKSQ-SMSSPSDAAAKARKDTIVNFTKIFFSITGLSVLWYNATILPGYYWIQSKDLWNFTLTMPIILVCMPAAIMSILRREYKAFFGATTIVIGIMLGWMLCCLFFFNGWIGHPVIYTFPSAMLGGAIVMDTVLAKNNSFWWFAIFGALGYGLVFWPSNLPVLLPYFTPIQYQGEWMRYAEIMGYSHQNPYLVTAIAAAILCIFSAIISLKIGRVLSQKNLLG-SEPTVDQMKKEMMMNSVSKGVVIFFFLMGFVTFHIMMIEGNLYFWIDQKNYWRFAIRIPCVNILLPAMFMEVFEKRWRFWGGATICVTGDMIGSYISVIIFAVGKFGFPVGMVFGSITYGGAIVLDTVLMTKKNFVICCVLGAFGFGIYFKPNNWPQIAPAYQWIDYNGEPKTYSDILGEVYTCPNPLAGVISAVLSVALYFIFYKIGKHFRNLAKDG-MTEIEYNQILIKTVKWIRDGVILFFVIMGLHNLWFVIFTQEIFANINWHNMIIFTILVPVMLISAPAVYSRILTKEYNTWLGPTLVTLGIMIGQYIGVVIAANGFLNFPYEYVFPPFIILGAIILDLVLWKTRSYVKMVILGGSGFGAMFYPGNMPIILPALDPIMYEGVYMSEANIMGMKYDTPWWISAVLSAILCIMITYIYTYVGEVLASHKKVT-MGKTFKEKIKEELFHSIREGFIIFLIIMGVFTLLITIFMILPSIYVDYKTTLWWVTIIPILLISFPAMIMRIVSEKYDFYGGAQICVFALQFGFNLGVLIFMHGQNNYPYFFGFPFQMISGAIILDVVLLVTKNYIGTIIVGGLGFGIIAFPGNYPLIAPTFEPIMYEGVPMSFSQILGYKYNMDYMISMIISAGLTIIISFIFNYVGKHFAKVQENG-MDHKKDVLRKIENHATIIFFVIFYVLLTGVYTAWYNSFVHWLALYVDRQDFWRYVLFMPIVLICFPAMTMRILYERMNFYGGALITVAGLEVGLVINILTFHTGFRELPYWYVFQSIMYLGAIILDATIWTKRDFNFMAVIGGAGYGLIFMPENWPLISPFYNFINYKGQPMYFADILGKTFSQSAFFPMLVSAILCIFVIRIFVHVGKHFAQTEKVM-DEVLPAEERVEVEKLQTRNFIYLYFTLMGLVTLSYFLFTKNMIQWADAKDWVWYTLLNPVLWVIYPAMFMRMLVFYENFYFGATICMSGLMTGEWIGFYFVYHGKADYPIIYVFPSFWFPGAVILDIILWKFRNYWVCAVVGGFGFGAVFYPGNFPFIAPFFFSVNWQGENKSFSQIIGFEFDEDTWVSSLVSAGLSILFYLIFIYIGKSVAKKKKYN-SNAEKSMLQEVLNQREKTRWLKLFFILMASFVLWTYLTVPKLNDFLDNKTLITFVILIPIILIVYPAMIMRVLTKKHKIYVGAIVCVLGLQIGIEIGVFFFSFGYNNYPYADVFPATFTPGAIICDIILLLIKSFVAAIIIGGLGYGLIFFPLNMPVIAPYYAPINYQGEPRTIADIMGINYPGLPLWSMIISAVLCVFFYYIFYYYGEKFSQTKSGG-TVRSEANAREIVKTMRVKLLAVSFFVITGVSVLWFQISLGFLWHWIDQKDMWWFTLLTPILTVSIPAVYQRILTKDYDVWAGALVVVVGVEAGLNAAVQHFGVGINGFPYALVYPAWYIMGAVVLDVILWRFKNYWLTALIGGLGFGIIFFPGNLPVVLPTMMPMIYQGQPMTIRDVLGMQYHARAPVSGFIAAALCVVIYYLCLKAGAKMALAPLEG,AVRSHAEAVQVSRTIDWMALFVVFFVIVGSYHIHAMLTMGDWDFWSDWKDRRLWVTVTPIVLVTFPAAVQSYLWERYRLPWGATVCVLGLLLGEWINRYFNFWGWTYFPINFVFPASLVPGAIILDTVLMLSGSYLFTAIVGAMGWGLIFYPGNWPIIAPLHVPVEYNGMLMSIADIQGYNYVRTAPVSAFFSAFMSILIYFMWHFIGRWFSNERFLQ-AVRSHAEAVQVSRTIDWMALFVVFFVIVGSYHIHAMLTMGDWDFWSDWKDRRLWVTVTPIVLVTFPAAVQSYLWERYRLPWGATVCVLGLLLGEWINRYFNFWGWTYFPINFVFPASLVPGAIILDTVLMLSGSYLFTAIVGAMGWGLIFYPGNWPIIAPLHVPVEYNGMLMSIADIQGYNYVRTAPVSAFFSAFMSILIYFMWHFIGRWFSNERFLQ-AVRSHAEAVQVSRTIDWMALFVVFFVIVGSYHIHAMLTMGDWDFWSDWKDRRLWVTVTPIVLVTFPAAVQSYLWERYRLPWGATVCVLGLLLGEWINRYFNFWGWTYFPINFVFPASLVPGAIILDTVLMLSGSYLFTAIVGAMGWGLIFYPGNWPIIAPLHVPVEYNGMLMSIADIQGYNYVRTAPVSAFFSAFMSILIYFMWHFIGRWFSNERFLQ-AVRSHAEAVQVSRTIDWMALFVVFFVIVGSYHIHAMLTMGDWDFWSDWKDRRLWVTVTPIVLVTFPAAVQSYLWERYRLPWGATVCVLGLLLGEWINRYFNFWGWTYFPINFVFPASLVPGAIILDTVLMLSGSYLFTAIVGAMGWGLIFYPGNWPIIAPLHVPVEYNGMLMSIADIQGYNYVRTAPVSAFFSAFMSILIYFMWHFIGRWFSNERFLQ-AVRSHAEAVQVSRTIDWMALFVVFFVIVGSYHIHAMLTMGDWDFWSDWKDRRLWVTVTPIVLVTFPAAVQSYLWERYRLPWGATVCVLGLLLGEWINRYFNFWGWTYFPINFVFPASLVPGAIILDTVLMLSGSYLFTAIVGAMGWGLIFYPGNWPIIAPLHVPVEYNGMLMSIADIQGYNYVRTAPVSAFFSAFMSILIYFMWHFIGRWFSNERFLQ-AVRSHAEAVQVSRTIDWMALFVVFFVIVGSYHIHAMLTMGDWDFWSDWKDRRLWVTVTPIVLVTFPAAVQSYLWERYRLPWGATVCVLGLLLGEWINRYFNFWGWTYFPINFVFPASLVPGAIILDTVLMLSGSYLFTAIVGAMGWGLIFYPGNWPIIAPLHVPVEYNGMLMSIADIQGYNYVRTAPVSAFFSAFMSILIYFMWHFIGRWFSNERFLQ-AVRSHAEAVQVSRTIDWMALFVVFFVIVGSYHIHAMLTMGDWDFWSDWKDRRLWVTVTPIVLVTFPAAVQSYLWERYRLPWGATVCVLGLLLGEWINRYFNFWGWTYFPINFVFPASLVPGAIILDTVLMLSGSYLFTAIVGAMGWGLIFYPGNWPIIAPLHVPVEYNGMLMSIADIQGYNYVRTAPVSAFFSAFMSILIYFMWHFIGRWFSNERFLQ-AVRSHAEAVQVSRTIDWMALFVVFFVIVGSYHIHAMLTMGDWDFWSDWKDRRLWVTVTPIVLVTFPAAVQSYLWERYRLPWGATVCVLGLLLGEWINRYFNFWGWTYFPINFVFPASLVPGAIILDTVLMLSGSYLFTAIVGAMGWGLIFYPGNWPIIAPLHVPVEYNGMLMSIADIQGYNYVRTAPVSAFFSAFMSILIYFMWHFIGRWFSNERFLQ-AVRSHAEAVQVSRTIDWMALFVVFFVIVGSYHIHAMLTMGDWDFWSDWKDRRLWVTVTPIVLVTFPAAVQSYLWERYRLPWGATVCVLGLLLGEWINRYFNFWGWTYFPINFVFPASLVPGAIILDTVLMLSGSYLFTAIVGAMGWGLIFYPGNWPIIAPLHVPVEYNGMLMSIADIQGYNYVRTAPVSAFFSAFMSILIYFMWHFIGRWFSNERFLQ-AVRSHAEAVQVSRTIDWMALFVVFFVIVGSYHIHAMLTMGDWDFWSDWKDRRLWVTVTPIVLVTFPAAVQSYLWERYRLPWGATVCVLGLLLGEWINRYFNFWGWTYFPINFVFPASLVPGAIILDTVLMLSGSYLFTAIVGAMGWGLIFYPGNWPIIAPLHVPVEYNGMLMSIADIQGYNYVRTAPVSAFFSAFMSILIYFMWHFIGRWFSNERFLQ,ASVIAIGVFV-IALVLPFIFA-WIGDILASRI-LDFGIEVANV-LTLFLIFLWF-IFPFLPTMVF-VTFLLFAFTS-LSGYLYAYWA-LAIGFVATQY-FALVILKKAY,ASYFTEQDGT-ASYFTEQDGT-ASYFTEQDGT-ASYFTEQDGT-ASYFTEQDGT-ASYFTEQDGT-ASYFTEQDGT-ASYFTEQDGT-ASYFTEQDGT-ASYFTEQDGT
