contacts,cs,ce,Chain,Length,designed_receptor_seq,native_receptor_seq,designed_binder_seq,native_binder_seq
11.0,6,16,A,10,MPKGLLAITRVINVVILVITLGLLAVYFALS-GPAGLLAVTDVISRTIETITEGIRALVEALG-GPAGLLAVVRVLRRLRRVLLEGLRALRRRLG-GPAGLLAVTDVVNRTIEAITEGVRALVEALG-GPAGLLAVTDVLRRTRDVITEGLRAVREALG-GPAGLLAVTDVLRRTREVIEEGLRAVREALG-GPAGLLAVTRVLRAARRARDEGRRARRRARG-GPAGLLAVTDVVRRTVEVITEGLRAVREALG-GPAGLLAVTDVLRRTRDVLTEGLRALREALG-GPAGLLAVTDVVNRTIETITEGIRALVNALG,KPKGALAVILVLTLTILVFWLGVYAVFFARG-KPKGALAVILVLTLTILVFWLGVYAVFFARG-KPKGALAVILVLTLTILVFWLGVYAVFFARG-KPKGALAVILVLTLTILVFWLGVYAVFFARG-KPKGALAVILVLTLTILVFWLGVYAVFFARG-KPKGALAVILVLTLTILVFWLGVYAVFFARG-KPKGALAVILVLTLTILVFWLGVYAVFFARG-KPKGALAVILVLTLTILVFWLGVYAVFFARG-KPKGALAVILVLTLTILVFWLGVYAVFFARG-KPKGALAVILVLTLTILVFWLGVYAVFFARG,PEVVAWLKVV-EEEEEEEEEE-PAARRWLRRV-GGGAAFGALA-GGGAAVAALV-GGGAAVAALV-GGGRRWLRRV-GGGAAVAALV-GGGAAFAALA-GGGAAFGALA,KAILAYEKGW-KAILAYEKGW-KAILAYEKGW-KAILAYEKGW-KAILAYEKGW-KAILAYEKGW-KAILAYEKGW-KAILAYEKGW-KAILAYEKGW-KAILAYEKGW
13.0,0,10,B,10,GSHMAEAARLEYLAKLEAEVKRLGDVLAERVAYVLTTEAAGVIPEGEVREVDPTTIRSEGPWADPSKAVVQTGPDTYTVYVLAYNCGYEPDPIVVPAGALIVFKITSPDVVHGFHVEGTNVDVAVVPGKVSTVRYTFKKPGTYTIVDNIYSGSCWPTDYGTIVVTD-GSHMAEAAFLEELAKLEAEVKRLGDILAERVAYVLTTEAAGVIPEGEERRVDPTTIRSEGPWADPSKAVVQTGPDTYTVYVLAYNCGYEPDPIVVPAGALIVFRITSPDVVHGFHVEGTNVDVAVVPGEVSTVRYTFKTPGTYTIVDNIYSGSCWPTDYGTIVVTD-GSHMAEKEFLKYLAELEKEIKRLGDILKEKIAYVLTTEEAGVIPEGEEKKVDPTTIRKEGPWADPSKAVVQTGPKEYTVYVLAYNCGYEPDPIVVPKGALITFKITSPDVVHGFHVEGTNVDVAVVPGEVSTVKYTFKKEGEYTIVDNIYSGGCWPTDYGTIKVTD-GSHMDSAAIEKYLAELEKEITRLRTILDEKIAYVKTTAAAGVIPEGEKQEVDPTTIRSEGPWADPSKAVVQTGPDTYTVYVLAYNCGYEPDPIVVPQGALIVFKITSPDVVHGFHVEGTNVDVAVVPGEVSTVRYTFATSGTYTIVDNIYSGDGWPTDYGTIVVTD-GSHMAEKEFLKYLKELEEKIKEIGEKYKEEIEKVLTTEEAGVIPEGKEEKVDPTTIRKEGPWADPSKAVVQTGPKEYTVYVLAYNCGYEPDPIVVPKGALITFKITSPDVVHGFHVEGTNVDVAVVPGEVSTVKYTFKEKGKYTIVDNIYSGFCWPTDYGTIEVTD-GSHMAEKELLKNLAKLEKEIKKLGDEVKKLVAYVKTTEAAGVIPEGKEEKVDPKTIRKEGPWADPSKAVVQTGPDTYTVYVLAYNCGYEPDPIVVPKGAKIVFKITSPDVVHGFHVEGTNVDVAVVPGEVSTVEYTFKKEGEYTIVDNIYSGDCWPTCKGTIKVTD-GSHMASAAFLKELEKLQKELEKLQKELEKLQKEVLTTEAAGVIPEGKEEKVDPTTITKEGPWADPSKAVVQTGPKEYTVYVLAYNCGYTPDPIVVPQGALITFKITSPDVVHGFHVVGTNVDVAVVPGKVSTVKYTFKKSGTYTIKNNIYSGSCWPTCFGTIKVTD-GSHMAEEAFLRELARLEAEVRRLEEEVRRLEAYVLTTEAAGVIPEGERREVDPRTVRERGPWADPSRAVVQTGPREYTVYVLAYDCGYEPDPIVVPAGALIVFRITSPDVVHGFHVEGTNVDVAVVPGRVSTVRYRFERPGRYRIVDNVYHGECWPTCYGTIEVTD-GSHMASAAIEKELAKLEAEIKKLGDEIKKLVAYVKTTEAAGVIPEGKLELVDPTTIRKEGPWADPSKAVVQTGPKEYTVYVLAYNCGYEPDPIVVPKGALITFKITSPDVVHGFHVEGTNVDVAVVPGKVSTVKYTFKKSGKYTIVNNIYSGECWPTCFGTIEVTD-GSHMASAAFLKNLAKLQAKITELNTKVDELVAYVKTTAAAGVIPEGAVKAVDPTTITTSGPWADPSKAVVQTGPNTYTVYVLAYNCGYTPDPIVVPAGALIVFKITSPDVVHGFNVVGTNVNVAVTPGSVSTVKYTFATSGTYTIVDNIYSGSCWSTDYGTIVVTD,DEHKAHKAILAYEKGWLAFSLAMLFVFIALIAYTLATHTAGVIPAGKLERVDPTTVRQEGPWADPAQAVVQTGPNQYTVYVLAFAFGYQPNPIEVPQGAEIVFKITSPDVIHGFHVEGTNINVEVLPGEVSTVRYTFKRPGEYRIICNQYCGLGHQNMFGTIVVKE-DEHKAHKAILAYEKGWLAFSLAMLFVFIALIAYTLATHTAGVIPAGKLERVDPTTVRQEGPWADPAQAVVQTGPNQYTVYVLAFAFGYQPNPIEVPQGAEIVFKITSPDVIHGFHVEGTNINVEVLPGEVSTVRYTFKRPGEYRIICNQYCGLGHQNMFGTIVVKE-DEHKAHKAILAYEKGWLAFSLAMLFVFIALIAYTLATHTAGVIPAGKLERVDPTTVRQEGPWADPAQAVVQTGPNQYTVYVLAFAFGYQPNPIEVPQGAEIVFKITSPDVIHGFHVEGTNINVEVLPGEVSTVRYTFKRPGEYRIICNQYCGLGHQNMFGTIVVKE-DEHKAHKAILAYEKGWLAFSLAMLFVFIALIAYTLATHTAGVIPAGKLERVDPTTVRQEGPWADPAQAVVQTGPNQYTVYVLAFAFGYQPNPIEVPQGAEIVFKITSPDVIHGFHVEGTNINVEVLPGEVSTVRYTFKRPGEYRIICNQYCGLGHQNMFGTIVVKE-DEHKAHKAILAYEKGWLAFSLAMLFVFIALIAYTLATHTAGVIPAGKLERVDPTTVRQEGPWADPAQAVVQTGPNQYTVYVLAFAFGYQPNPIEVPQGAEIVFKITSPDVIHGFHVEGTNINVEVLPGEVSTVRYTFKRPGEYRIICNQYCGLGHQNMFGTIVVKE-DEHKAHKAILAYEKGWLAFSLAMLFVFIALIAYTLATHTAGVIPAGKLERVDPTTVRQEGPWADPAQAVVQTGPNQYTVYVLAFAFGYQPNPIEVPQGAEIVFKITSPDVIHGFHVEGTNINVEVLPGEVSTVRYTFKRPGEYRIICNQYCGLGHQNMFGTIVVKE-DEHKAHKAILAYEKGWLAFSLAMLFVFIALIAYTLATHTAGVIPAGKLERVDPTTVRQEGPWADPAQAVVQTGPNQYTVYVLAFAFGYQPNPIEVPQGAEIVFKITSPDVIHGFHVEGTNINVEVLPGEVSTVRYTFKRPGEYRIICNQYCGLGHQNMFGTIVVKE-DEHKAHKAILAYEKGWLAFSLAMLFVFIALIAYTLATHTAGVIPAGKLERVDPTTVRQEGPWADPAQAVVQTGPNQYTVYVLAFAFGYQPNPIEVPQGAEIVFKITSPDVIHGFHVEGTNINVEVLPGEVSTVRYTFKRPGEYRIICNQYCGLGHQNMFGTIVVKE-DEHKAHKAILAYEKGWLAFSLAMLFVFIALIAYTLATHTAGVIPAGKLERVDPTTVRQEGPWADPAQAVVQTGPNQYTVYVLAFAFGYQPNPIEVPQGAEIVFKITSPDVIHGFHVEGTNINVEVLPGEVSTVRYTFKRPGEYRIICNQYCGLGHQNMFGTIVVKE-DEHKAHKAILAYEKGWLAFSLAMLFVFIALIAYTLATHTAGVIPAGKLERVDPTTVRQEGPWADPAQAVVQTGPNQYTVYVLAFAFGYQPNPIEVPQGAEIVFKITSPDVIHGFHVEGTNINVEVLPGEVSTVRYTFKRPGEYRIICNQYCGLGHQNMFGTIVVKE,GPAELLAIYR-GPAELLAIFR-GPEELLKIFK-GPAELLAIYR-GPKELLKIFE-GPKELLKIFE-GPKELLKIFE-GPAELLRVWR-GPAELLKIYK-GPAALLAIFN,KPKGALAVIL-KPKGALAVIL-KPKGALAVIL-KPKGALAVIL-KPKGALAVIL-KPKGALAVIL-KPKGALAVIL-KPKGALAVIL-KPKGALAVIL-KPKGALAVIL
