contacts,cs,ce,Chain,Length,designed_receptor_seq,native_receptor_seq,designed_binder_seq,native_binder_seq
30.0,66,76,A,10,GSPEDKEANGEALRKIEKENSPLIATTDFLNENKIPASEYKDYVPESYVKKIYKELRDNNFIPEELRKK-GSPIDTKANGEALREIAETNSPLAATTKFLKENGIPATLYREYIPSSFVQEIRKELKEKNLLPEEEIKD-MNPVDKKANGEAIKKVLKDKSPLQAVTDFLKKNNIPATDYKDFIPEDYIRVIEKELKDKNLLPDSAKKK-MSLTDKNENGKKLREIAEKKSPIEATAAFLAENGIPAKEYKDYIPSTYIDEIRKELVEKGKLPGALVAK-GSSADKKANGEAIIKILKSDSPLKATTDFLLENGIPAEDYENYIPEEVIDLIIEECEGLGLLPDDLIED-GSHMSKRENGSALREIEAKKTPIEACADFLKRNGIDASEWEKYIPSEYIDEIFKELVEKNKLPDELKEA-GSSENKKRNGQELKKYLETDSPLKCVTDYLKKNNIKASQYKDYVPEEFIDKIIEELKGNKKLDEELIED-MDLSDKTKNGKLLMELENTGSPIQAMAVFLRKNKIPASEFKRYVPEDYVEIIKEELRGKNFLSDRKVEE-GSHMDKEANGRELRKLERTGSPIRACTKWLQERGIPARQYRDFIPTKVVRRIYEELEERGLLPPELSKK-GSHMDTAANGLEAEAVLRDGSPLRTVTQWLTDNGIPATQYQDFIPDDYVDSILEELEGNGLLDDEDIQS,AKLLDRQENGFIIEKVEEFGSYLEATTAFLEENSIPETQFAKFIPSGIIEKIQSEAIDENLLRPSVVRC-AKLLDRQENGFIIEKVEEFGSYLEATTAFLEENSIPETQFAKFIPSGIIEKIQSEAIDENLLRPSVVRC-AKLLDRQENGFIIEKVEEFGSYLEATTAFLEENSIPETQFAKFIPSGIIEKIQSEAIDENLLRPSVVRC-AKLLDRQENGFIIEKVEEFGSYLEATTAFLEENSIPETQFAKFIPSGIIEKIQSEAIDENLLRPSVVRC-AKLLDRQENGFIIEKVEEFGSYLEATTAFLEENSIPETQFAKFIPSGIIEKIQSEAIDENLLRPSVVRC-AKLLDRQENGFIIEKVEEFGSYLEATTAFLEENSIPETQFAKFIPSGIIEKIQSEAIDENLLRPSVVRC-AKLLDRQENGFIIEKVEEFGSYLEATTAFLEENSIPETQFAKFIPSGIIEKIQSEAIDENLLRPSVVRC-AKLLDRQENGFIIEKVEEFGSYLEATTAFLEENSIPETQFAKFIPSGIIEKIQSEAIDENLLRPSVVRC-AKLLDRQENGFIIEKVEEFGSYLEATTAFLEENSIPETQFAKFIPSGIIEKIQSEAIDENLLRPSVVRC-AKLLDRQENGFIIEKVEEFGSYLEATTAFLEENSIPETQFAKFIPSGIIEKIQSEAIDENLLRPSVVRC,EEMELYKALL-DEEELIKAMI-DEEKLYKAII-NVDDLYKAII-EEEELYDAII-EVKELYEAII-DEEELYKAII-DEEELFRAIV-EERELYRAMI-DEEELYRAIV,PEEKLLRAIF-PEEKLLRAIF-PEEKLLRAIF-PEEKLLRAIF-PEEKLLRAIF-PEEKLLRAIF-PEEKLLRAIF-PEEKLLRAIF-PEEKLLRAIF-PEEKLLRAIF
30.0,56,66,B,10,MEVLKLSCVARETALGPERITRDIPYISDRERAKLNEEGIIRVGSRVRGGDILVGASTPIGLLRLKPEDLLMILLYGEEAVSRRDTSLRVPEGLKGVVVAVRILTREGVERGKYVKEKIKRLVEAERRLEEDLGRLRESLFRELRRVLELGGVDVERLLRLPEEELLKLDVPEDKVRGLLERLREVYERVKEGLREELRREVEEILRGVELEPGVLEVVEVYLLVP-MEIVTLSREVRNTEYGPERITRDIPLVGKEALARLDESGIVRVGAEVKAGDILVGASTPIGEAFLSPEEKLLIALFGEEAVSRVDTSLRVPEGMRGRVVAVKKLVREGVERDEAERRALEELRAAEERLKEQLGLLEETLFSVMKAVLEEGGVPAEELERMPREELLRLELPEGEARGVLERLREEYEREKEGLEEELRRRREEILKGAELEPGVLERVEVYLEVP-MSILKISRKAITTRFGPELITIDIPYISDEERKKLDESGIIKIGAEVRGGDILVGASRPIGDEFLTPEEKAMIKKYGYGAVYRKDVSLRVPKGIKGKVVAVNILVKEGVVRDERIKKEIEKVKEAEKELVEKLGKLEKDIFREVIAVLLRGGIPKEELLKMPIEKLFEIKIPPEEIKGKLEKLREKYKKEKEGLIKELEKKLEEILKGDKLEPGVLEIVEVYLEVP-MKILRLRGVVKETLLGPERITRNIPFVSDEELKRLNEEGIIEIGARVKAGDILVGVSTPIGEEFLSPKERALIALFGEEAVRRADTSLRVPEGLEGVVVAVEVLVKEGVERPEFVRRKIERIKEAAERLVEELGNLKASLFALLKRILEEKGVDKEKLEKLPEEELLKMEVPEELLEGLLEELKKRFEEEKEGLLERLKEEIRRILKGAELEPGVLMVVSVYLLVP-MRILKLVAEARETKLGPERITRDIPFVGRSELARLDESGIIRVGSRVKGGDILVGADSPLGEERLTPEERALIELFGEDAVERANVSLRVPEGIEGEVVAVEVLVREGVERDELIERIKERIREARERLREELGRLEEELFRLLREVLLAGGVDLERLKELPLEELFRLEVPKEELRGLLERLRERFEREREGLLRELEEEIRRILKGAELEPGVLRRVVVYLRVP-MEIIKLECRTTNTVYGRERITANIRHVSEEELAKLDEEGIIKVGAEVNSGDILVGASTPIGEEFLTPEEKLIIALYGEDAVKRVDTSLRVPEGVRGRVIATERLIREGEERDEAYKREIERLKEAEKELEEKLGKLKENLFSLLYAVLKAGNIPEEELEKLPTEKWLEIEIPEDKLKGIIKELKEKFEKEKEKLLKELEKKKEEILKGAKLEPGVLEIVRVYLEVP-MYILKLVSEARETILGPERITRDIPFVSEEELSKLNEEGIIRVGAKVKEGDILVGITRPIGEKYLTPEEKYLIKLFGEKAISRKNTSLRVPEGIEGVVIAVEKLVREGIERPESVLKEILKLLEARKELIEKLGKLEAEIFREMVALLEAGGLKKEELKKLPLEKLFEIKIPEGELKKKLEELRKKYEEEKSGLLESLEKKIEEILKGAELEPGVLEKVIVYLAVP-MRILKLECRTKETALGPEEITRNIPYVSSEELAKLDESGIIRVGAEVEGGDILVGRTRPIGEEKLLPAERLLIKIFGKEAVSRVDTSLRVPEGVKGRVVAVRILVREGVERPRRVKEILEEIKRAEEELKRRLGELEARLFRLLLAVLEAGGVDLEKLRKLPLEELFKLEVPEEEIRGLVEVLREVYEREKRGLEEELKKKLEEILKGAKLEPGVLEVVEVYLEVP-MKILKLSAVATETALGPERITKDIRFVTREELAKLDESGIVKVGAKVKEGDILVGKTRPIGEEYLTPEERAIIALLGERAVARKDVSLRVPEGVEGVVVAVERLIKEGVEKDVYTKMLEERIKEAERELEERLGELRRELFAVLRAVLLAGGELDQRLLELPEEELLEIEVPPEELEGRLRELRELYNKLKEGLEEELGRRLERILKGEELEPGVLEVVRVYLAVP-MNILRLACRSKMTAQGPELITRDIPFVSDAELAKLNEDGIISVGAQVKAGDILVGTSTPIGEDNLTPEMKALIAKYGEKAVSRRNTSLRVPAGVEGTVVAVEKQVKEGVERNASELAEIAREAEAEAALETDLGWLEQRIFAEYRAVLEAGGVNLAELEKMPVEQWINLKVPAGELAGKLEKLKAEYEAEKAGREKALQAAKERIRKGAELEPGVLEVVSVYLAVP,IHIQELACVSRDTKLGPEEITADIPNVGEAALSKLDESGIVYIGAEVTGGDILVGKVTPKGETQLTPEEKLLRAIFGEKASDVKDSSLRVPNGVSGTVIDVQVFTRDGVEKDKRALEIEEQLKQAKKDLSEELQILEAGLFSRIRAVLVAGGVEAEKLDKLPRDRWLELGLTDEEKQNQLEQLAEQYDELKHEFEKKLEAKRRKITQGDDLAPGVLKIVKVYLAVK-IHIQELACVSRDTKLGPEEITADIPNVGEAALSKLDESGIVYIGAEVTGGDILVGKVTPKGETQLTPEEKLLRAIFGEKASDVKDSSLRVPNGVSGTVIDVQVFTRDGVEKDKRALEIEEQLKQAKKDLSEELQILEAGLFSRIRAVLVAGGVEAEKLDKLPRDRWLELGLTDEEKQNQLEQLAEQYDELKHEFEKKLEAKRRKITQGDDLAPGVLKIVKVYLAVK-IHIQELACVSRDTKLGPEEITADIPNVGEAALSKLDESGIVYIGAEVTGGDILVGKVTPKGETQLTPEEKLLRAIFGEKASDVKDSSLRVPNGVSGTVIDVQVFTRDGVEKDKRALEIEEQLKQAKKDLSEELQILEAGLFSRIRAVLVAGGVEAEKLDKLPRDRWLELGLTDEEKQNQLEQLAEQYDELKHEFEKKLEAKRRKITQGDDLAPGVLKIVKVYLAVK-IHIQELACVSRDTKLGPEEITADIPNVGEAALSKLDESGIVYIGAEVTGGDILVGKVTPKGETQLTPEEKLLRAIFGEKASDVKDSSLRVPNGVSGTVIDVQVFTRDGVEKDKRALEIEEQLKQAKKDLSEELQILEAGLFSRIRAVLVAGGVEAEKLDKLPRDRWLELGLTDEEKQNQLEQLAEQYDELKHEFEKKLEAKRRKITQGDDLAPGVLKIVKVYLAVK-IHIQELACVSRDTKLGPEEITADIPNVGEAALSKLDESGIVYIGAEVTGGDILVGKVTPKGETQLTPEEKLLRAIFGEKASDVKDSSLRVPNGVSGTVIDVQVFTRDGVEKDKRALEIEEQLKQAKKDLSEELQILEAGLFSRIRAVLVAGGVEAEKLDKLPRDRWLELGLTDEEKQNQLEQLAEQYDELKHEFEKKLEAKRRKITQGDDLAPGVLKIVKVYLAVK-IHIQELACVSRDTKLGPEEITADIPNVGEAALSKLDESGIVYIGAEVTGGDILVGKVTPKGETQLTPEEKLLRAIFGEKASDVKDSSLRVPNGVSGTVIDVQVFTRDGVEKDKRALEIEEQLKQAKKDLSEELQILEAGLFSRIRAVLVAGGVEAEKLDKLPRDRWLELGLTDEEKQNQLEQLAEQYDELKHEFEKKLEAKRRKITQGDDLAPGVLKIVKVYLAVK-IHIQELACVSRDTKLGPEEITADIPNVGEAALSKLDESGIVYIGAEVTGGDILVGKVTPKGETQLTPEEKLLRAIFGEKASDVKDSSLRVPNGVSGTVIDVQVFTRDGVEKDKRALEIEEQLKQAKKDLSEELQILEAGLFSRIRAVLVAGGVEAEKLDKLPRDRWLELGLTDEEKQNQLEQLAEQYDELKHEFEKKLEAKRRKITQGDDLAPGVLKIVKVYLAVK-IHIQELACVSRDTKLGPEEITADIPNVGEAALSKLDESGIVYIGAEVTGGDILVGKVTPKGETQLTPEEKLLRAIFGEKASDVKDSSLRVPNGVSGTVIDVQVFTRDGVEKDKRALEIEEQLKQAKKDLSEELQILEAGLFSRIRAVLVAGGVEAEKLDKLPRDRWLELGLTDEEKQNQLEQLAEQYDELKHEFEKKLEAKRRKITQGDDLAPGVLKIVKVYLAVK-IHIQELACVSRDTKLGPEEITADIPNVGEAALSKLDESGIVYIGAEVTGGDILVGKVTPKGETQLTPEEKLLRAIFGEKASDVKDSSLRVPNGVSGTVIDVQVFTRDGVEKDKRALEIEEQLKQAKKDLSEELQILEAGLFSRIRAVLVAGGVEAEKLDKLPRDRWLELGLTDEEKQNQLEQLAEQYDELKHEFEKKLEAKRRKITQGDDLAPGVLKIVKVYLAVK-IHIQELACVSRDTKLGPEEITADIPNVGEAALSKLDESGIVYIGAEVTGGDILVGKVTPKGETQLTPEEKLLRAIFGEKASDVKDSSLRVPNGVSGTVIDVQVFTRDGVEKDKRALEIEEQLKQAKKDLSEELQILEAGLFSRIRAVLVAGGVEAEKLDKLPRDRWLELGLTDEEKQNQLEQLAEQYDELKHEFEKKLEAKRRKITQGDDLAPGVLKIVKVYLAVK,GELRLLPPEV-GRYRLLPPRY-KKYILLPPSI-EELRLLPPEV-RKLRLLPPRV-LLLFLLPPDK-GRLLLLPPRV-ERLRLLPPEI-GLLRLLPPSL-GKEKLLPPSH,IDENLLRPSV-IDENLLRPSV-IDENLLRPSV-IDENLLRPSV-IDENLLRPSV-IDENLLRPSV-IDENLLRPSV-IDENLLRPSV-IDENLLRPSV-IDENLLRPSV
