contacts,cs,ce,Chain,Length,designed_receptor_seq,native_receptor_seq,designed_binder_seq,native_binder_seq
17.0,4,14,A,10,SNAELARLEAEIARLEAEIARLEAEIARLEAEIARLEAEIARLEAEIARLEAEIARLEAEIARLEAEIARLEAEIARLEAEIARLEAEIARLEAE-MGHHHHHHHHHHHHLEEEIAGLKEEIAGLKEEIAGLKEEIGRLKEEIERLKEEIERLKEEIERLKEEIERLKEEIERLKEEIERLKEEIERLKEE-MGHHHHHHHHHHHHLEEEIEELKKEIEELKKEIEELKKELEEKIKELEEKIKELEEKIKELEEKIKELEEKIKELEEKIKELEEKIKELEKKLKE-MEELEKELEKEIERLEKEIEELEKEIEELEKEIEELEKELEKEIEELEKEIEELEKEIEELEKEIEKLEKEIEELEKEIEELEKEIEELEKELEK-MGHHHHHHMAEIARLEEEIARLEEEIAGLEEEIARLEEEIARLEEEIARLEEEIARLEEEIARLEEEIARLEEEIARLEEEIARLEEEIARLEEE-MGHHHHHHHHHHHHLEEEIEGLKKEIEGLKKEIEELKKEIEELKKEIEELKKEIEELKKEIEELKKEIEELKKEIEELKKEIEELKKEIEKLKKE-MGHHHHHHHHHHHHLEEEIAGLKEEIAGLKEEIAGLKEEIGGLKEEIEGLKEEIAGLKEEIAGLKEEIAGLKEEIAGLKEEIGGLKEEIAGLKEE-MGHHHHHHHHHHHHLEERLAGLRRELEGLREEVERLREELGRLREELERLREELERLREELERLREELERLREELERLREELERLREELERLREE-MEELKKEIEEEIKRLEEEIKRLEEEIKRLEEEIKRLEEELKKKIEELEKEIERLEEEIKRLEEEIKKLEEEIKRLEEEIKKLEEEIKKLEEELKK-MEELEKEIEKEIERLEKEIEELEKEIEELEKEIEELEKEIEELEKEIEELEKEIEELEKEIEELEKEIEELEKEIEELEKEIEELEKEIEKLEKE,TKHEISEMNRMIQRLRAEIDNVKKQCANLQNAIADAEQRGELALKDARNKLAELEEALQKAKQDMARLLREYQELMNTKLALDVEIATYRKLLEG-TKHEISEMNRMIQRLRAEIDNVKKQCANLQNAIADAEQRGELALKDARNKLAELEEALQKAKQDMARLLREYQELMNTKLALDVEIATYRKLLEG-TKHEISEMNRMIQRLRAEIDNVKKQCANLQNAIADAEQRGELALKDARNKLAELEEALQKAKQDMARLLREYQELMNTKLALDVEIATYRKLLEG-TKHEISEMNRMIQRLRAEIDNVKKQCANLQNAIADAEQRGELALKDARNKLAELEEALQKAKQDMARLLREYQELMNTKLALDVEIATYRKLLEG-TKHEISEMNRMIQRLRAEIDNVKKQCANLQNAIADAEQRGELALKDARNKLAELEEALQKAKQDMARLLREYQELMNTKLALDVEIATYRKLLEG-TKHEISEMNRMIQRLRAEIDNVKKQCANLQNAIADAEQRGELALKDARNKLAELEEALQKAKQDMARLLREYQELMNTKLALDVEIATYRKLLEG-TKHEISEMNRMIQRLRAEIDNVKKQCANLQNAIADAEQRGELALKDARNKLAELEEALQKAKQDMARLLREYQELMNTKLALDVEIATYRKLLEG-TKHEISEMNRMIQRLRAEIDNVKKQCANLQNAIADAEQRGELALKDARNKLAELEEALQKAKQDMARLLREYQELMNTKLALDVEIATYRKLLEG-TKHEISEMNRMIQRLRAEIDNVKKQCANLQNAIADAEQRGELALKDARNKLAELEEALQKAKQDMARLLREYQELMNTKLALDVEIATYRKLLEG-TKHEISEMNRMIQRLRAEIDNVKKQCANLQNAIADAEQRGELALKDARNKLAELEEALQKAKQDMARLLREYQELMNTKLALDVEIATYRKLLEG,LEAEIARLEA-LKEEIERLKE-KIKELLKKLK-EIKELLKKLK-LEEEIARLEE-LKKEIEELKK-LKEEIAGLKE-LREELLRLLL-EIKELLKKLK-LEKEILKLKK,RTMQNLEIEL-RTMQNLEIEL-RTMQNLEIEL-RTMQNLEIEL-RTMQNLEIEL-RTMQNLEIEL-RTMQNLEIEL-RTMQNLEIEL-RTMQNLEIEL-RTMQNLEIEL
17.0,27,37,B,10,MELEKILEELRKKKGELEKKLEELKEKLKEIKEKKKKELEEKLKELEEKLKELEEKLKELEEKLKELEEKLKELEEKLKELEEKLKELEE-MEELKKLLEEVKKLGEEGKKLLELIEKLKEIKEKKKKELEEKIKELEEKIKELEEKIKELEEKIKELEEKLKELEEKIKELEEKIKELEE-MEEKIKELEEKIKELEEKIKELEEKIKELEEKIKKLEEKIKELEEKIKELEEKIKELEEKIKELEEKIKELEEKIKELEEKIKELEEKIK-MEELKKLLEEVKKLGEEGKKLLELIEELKRIKEEKEKELKELLEKLKEELEKLKEELEKLKEKLEELKKKLEELEKKLEELKEKLEELKK-MEELKKLLEEVKKLGEEGKKLLELVEKLKEIKEKKKKELEEKIKELEEKIKELEEKIKELEEKIKELEEKLKELEEKIKELEEKIKKLEE-MEELKKLLEEVKKLGEEGKKLLELIEELKKIKEEKKKKLEEEIKKLEEEIKKLEEEIKKLEEEIKKLEEELKKLEEEIKKLEEELKKLEE-MELEKILEELRKKVGELEKKLEELKEKLKEIKEKIKKEKEEIEKKLEEILEKLKKKLEELKKKLEELKKKLEELKKKLEELKKKLEELKK-MEELKKLLEEIEKLGEELKKLEELKEKLEEIKEKIKKEKEKLEKELEELKEKLEKLKEELEKLGEELKKLLEELEKLGEELKKLLEELEK-MEELKKLLEEVKKLGEEGKKLLELIEELKRIKEEKKKELEKKIEELKKKLEELKKKLEELKKKLEELKKKLEELKKKLEELKKKLEELKK-MEELKRLLEEVERLGELGRRREELERRLEEVKERLREELERRLEELRRELERLRELLEELERLGEELERLLEELERLGEELERLLEELER,SELRRTMQNLEIELQSQLSMKASLENSLEETKGRYCMQLAQIQEMIGSVEEQLAQLRCEMEQQNQEYKILLDVKTRLEQEIATYRRLLEG-SELRRTMQNLEIELQSQLSMKASLENSLEETKGRYCMQLAQIQEMIGSVEEQLAQLRCEMEQQNQEYKILLDVKTRLEQEIATYRRLLEG-SELRRTMQNLEIELQSQLSMKASLENSLEETKGRYCMQLAQIQEMIGSVEEQLAQLRCEMEQQNQEYKILLDVKTRLEQEIATYRRLLEG-SELRRTMQNLEIELQSQLSMKASLENSLEETKGRYCMQLAQIQEMIGSVEEQLAQLRCEMEQQNQEYKILLDVKTRLEQEIATYRRLLEG-SELRRTMQNLEIELQSQLSMKASLENSLEETKGRYCMQLAQIQEMIGSVEEQLAQLRCEMEQQNQEYKILLDVKTRLEQEIATYRRLLEG-SELRRTMQNLEIELQSQLSMKASLENSLEETKGRYCMQLAQIQEMIGSVEEQLAQLRCEMEQQNQEYKILLDVKTRLEQEIATYRRLLEG-SELRRTMQNLEIELQSQLSMKASLENSLEETKGRYCMQLAQIQEMIGSVEEQLAQLRCEMEQQNQEYKILLDVKTRLEQEIATYRRLLEG-SELRRTMQNLEIELQSQLSMKASLENSLEETKGRYCMQLAQIQEMIGSVEEQLAQLRCEMEQQNQEYKILLDVKTRLEQEIATYRRLLEG-SELRRTMQNLEIELQSQLSMKASLENSLEETKGRYCMQLAQIQEMIGSVEEQLAQLRCEMEQQNQEYKILLDVKTRLEQEIATYRRLLEG-SELRRTMQNLEIELQSQLSMKASLENSLEETKGRYCMQLAQIQEMIGSVEEQLAQLRCEMEQQNQEYKILLDVKTRLEQEIATYRRLLEG,ELEEKIKEEL-ELEEKIKEEE-ELKEKIKELE-ELKEKIEKEK-ELEEKIKEEE-KLEEEIKKLE-ELKKKIEEEK-ELEKLIEEEK-ELKKKIEEEK-ELERLLEELE,NLQNAIADAE-NLQNAIADAE-NLQNAIADAE-NLQNAIADAE-NLQNAIADAE-NLQNAIADAE-NLQNAIADAE-NLQNAIADAE-NLQNAIADAE-NLQNAIADAE
