contacts,cs,ce,Chain,Length,designed_receptor_seq,native_receptor_seq,designed_binder_seq,native_binder_seq
15.0,44,54,A,10,MKVGDRVYLKDKGYVGTVKYVGLTTFDCGEWVGIEWDEKVGTSDGTVYGKKYFSTKKGHGSFVRKEYIEKI-MKVGDRVYLKDKGYVGTVKYVGLTTFDCGEWVGIEWDEKVGTSDGTVYGKKYFSTEKGHGSFVRKEYIEKI-MKVGDRVYLKDKGYVGTVKYVGETTFSEGLWVGIEWDEKVGTSNGEVLGKKYFETEEGHGSFVRLEKIEKI-MKVGDRVYLKDKGYVGTVKYVGLTKFDCGEWVGIEWDEKVGTSDGTVYGKKYFSTKKGHGSFVKKEYIEKI-MKVGDRVYLKDKGYVGTVKYVGETTFSEGLWVGIEWDEKVGTSDGTVLGKKYFSTEKGHGSFVKLEKIEKI-MKVGDRVYLKDKGYVGTVKYVGLTKFDCGEWVGIEWDEKVGTSDGTVLGKKYFSTKKGHGSFVKKEKIEKI-MEVGDRVYLKDKGYVGTVKYVGLTTFSEGEWVGIEWDEKVGTSNGEVLGKKYFETEEGHGSFVRKEYIEKI-MKVGDRVYLKDKGYVGTVKYVGLTTFDCGEWVGIEWDEKVGTSNGEVLGKKYFETEEGHGSFVRKEYIEKI-MKVGDRVYLKDKGYVGTVKYVGLTTFSEGEWVGIEWDEKVGTSDGTVLGKKYFSTKKGHGSFVKKEYIEKI-MKVGDRVYLKDKGYVGTVKYVGLTTFDCGEWVGIEWDEKVGTSNGEVLGKKYFETEEGHGSFVRKEYIEKI,LRVGSRVEVIGKGHRGTVAYVGMTLFATGKWVGVILDEAKGKNDGTVQGRKYFTCDEGHGIFVRQSQIQVF-LRVGSRVEVIGKGHRGTVAYVGMTLFATGKWVGVILDEAKGKNDGTVQGRKYFTCDEGHGIFVRQSQIQVF-LRVGSRVEVIGKGHRGTVAYVGMTLFATGKWVGVILDEAKGKNDGTVQGRKYFTCDEGHGIFVRQSQIQVF-LRVGSRVEVIGKGHRGTVAYVGMTLFATGKWVGVILDEAKGKNDGTVQGRKYFTCDEGHGIFVRQSQIQVF-LRVGSRVEVIGKGHRGTVAYVGMTLFATGKWVGVILDEAKGKNDGTVQGRKYFTCDEGHGIFVRQSQIQVF-LRVGSRVEVIGKGHRGTVAYVGMTLFATGKWVGVILDEAKGKNDGTVQGRKYFTCDEGHGIFVRQSQIQVF-LRVGSRVEVIGKGHRGTVAYVGMTLFATGKWVGVILDEAKGKNDGTVQGRKYFTCDEGHGIFVRQSQIQVF-LRVGSRVEVIGKGHRGTVAYVGMTLFATGKWVGVILDEAKGKNDGTVQGRKYFTCDEGHGIFVRQSQIQVF-LRVGSRVEVIGKGHRGTVAYVGMTLFATGKWVGVILDEAKGKNDGTVQGRKYFTCDEGHGIFVRQSQIQVF-LRVGSRVEVIGKGHRGTVAYVGMTLFATGKWVGVILDEAKGKNDGTVQGRKYFTCDEGHGIFVRQSQIQVF,EKYKKEEKEE-EEYEEEEEEE-EEFEEEEEEE-EEYEEEEEEE-KKYEKEEKKE-EKYKKEEKKE-EEYEEEEEEE-EEYEEEEEEE-EKYKKEEKEK-EEYEEEEEEE,ILYATDEQEE-ILYATDEQEE-ILYATDEQEE-ILYATDEQEE-ILYATDEQEE-ILYATDEQEE-ILYATDEQEE-ILYATDEQEE-ILYATDEQEE-ILYATDEQEE
18.0,20,30,B,10,GSHMAELEKLKKEVEELKKEVFDVLKGVEEELKKLEGEAKEIYDLLTKKEEEKEE-GSHMSELEKLKKEIEELEKEVFDILKGIEEELKKSDGELKKIYDLLTKKEEKEEK-GSHMEELEKLKKEVEELKKEVFDILKGIEEELKKLEGEAKEIYDLLTKKEEEEEE-GSHMEELEKLKEEVEKLKEEVFSILKNIEEELKKLEGEAKEIYDLLTKKVEEEGE-GSHMEELEKLKEEIEKLKEEIFSVLKGIEEELKKLEGEAKEIYDLLTKKEEEEEE-GSHMEELEKIKKELEELEKEVFDILKNIEKELKKLEGEAKEIYDLLTKKEEKEEK-GSHMEELEELKKELEELKKELFDIAKNIEEELKKLEGEAKEIYDLLIKKEEEEEE-GSHMEELEKLKKEVEELKKEVFDVLKGVEEELKKLDGEAKEIYDLLTKKEEKEGE-GSHMEELEKIKKEIEELKKEIFDIAKNIEKELKKLEGEAKEIYDLLIKKEEKEEK-GSHMSELEKLKEEVEKLKEEVFSIAKNVEEELKKLEGEAKEIYDLLTKKEEKEEK,MQQVNVLKLTVEDLEKERDFYFGKLRNIELICQENEPVLQRIVDILYATDEQEEY-MQQVNVLKLTVEDLEKERDFYFGKLRNIELICQENEPVLQRIVDILYATDEQEEY-MQQVNVLKLTVEDLEKERDFYFGKLRNIELICQENEPVLQRIVDILYATDEQEEY-MQQVNVLKLTVEDLEKERDFYFGKLRNIELICQENEPVLQRIVDILYATDEQEEY-MQQVNVLKLTVEDLEKERDFYFGKLRNIELICQENEPVLQRIVDILYATDEQEEY-MQQVNVLKLTVEDLEKERDFYFGKLRNIELICQENEPVLQRIVDILYATDEQEEY-MQQVNVLKLTVEDLEKERDFYFGKLRNIELICQENEPVLQRIVDILYATDEQEEY-MQQVNVLKLTVEDLEKERDFYFGKLRNIELICQENEPVLQRIVDILYATDEQEEY-MQQVNVLKLTVEDLEKERDFYFGKLRNIELICQENEPVLQRIVDILYATDEQEEY-MQQVNVLKLTVEDLEKERDFYFGKLRNIELICQENEPVLQRIVDILYATDEQEEY,EGLSEEEEGP-EGLSKEEEGP-EGLSEEEEGP-EGLGKKEEGP-EGLSKEEEGP-EGLSKEEEGP-EGLGPHKKGP-KGLGPKEEGP-EGLSEKEEGP-EGLSKEEEGP,VGMTLFATGK-VGMTLFATGK-VGMTLFATGK-VGMTLFATGK-VGMTLFATGK-VGMTLFATGK-VGMTLFATGK-VGMTLFATGK-VGMTLFATGK-VGMTLFATGK
