contacts,cs,ce,Chain,Length,designed_receptor_seq,native_receptor_seq,designed_binder_seq,native_binder_seq
29.0,51,61,A,10,GINFYKQLQAQLQKEVKYLKRQLQLAGDDKQKQHYNTSELTNEEFQYWRQKAQEKAEVLYAPLQEEIKTKGGRTEMWKVLSGQRKGMLKYRQTNYTMSMFLKRNGVPTQVMAWDEKAKKWLP-KNDFFVAMREEVERKAEEIARLRERLEKLKRELDENKFEEAIRLFEIWRSKAKKAAEILYRPKAEKIRESGGVRTKSIITFGQRKGQVRETSRPYTMSRFLEEKGVPHELLAWNTAKKRWEP-DLHRSIQLFAAVSQEVADLETWMKKKEALKVDKALNQTEFKSAQESVWKAKAMKAAMEKYNPMAQRISETGGVEERYTIREGKFKGLEQKKTKRYCMTMFLKQNKIPDDVLAFDEERKHWKQ-GHMVNSQLTKAKGALKSALDKIQKLSEQNKLRVMKNKSKFKSFSYTEWASRARKAAELLFEPIAERVADTGGIMEEWTIQSGSLKGKVSKRRKSFSMSQFLDLHGVPYALLAWNSKLKNWRH-GGMSALKKFAKNQQALVNHSRLEKQKEALKDTLYHDVTAFNERSYLAWKYKAEEAAEYLFAPMAAEIFYEGGVSTSWEEKEGANKGKVKTRVRQFSMNDFLNLRGVPKALLTWDSEKQRWKS-GRFAAETRKRRLGEKIKEKELEEEEAKALAVRTALNKSEKERIAFQVFTGKAQSSAMKLYKPLAERIRLNGGVTTQFEVTNGPFKGLMSVQRRDFTMEMFLRFFFVPKELLSYNELHQSWNH-GASGQANAYTAFDKNVRLFLDQANIDNTRAAIAKVDESEKENESYEIWKAKARRAADAIYKPLQEFIADRGGVEARRVETRGNSIGQDVHTYRAFTMTLFLRLMGVPRATLSYDEAQKRWNL-SNAALRSLRDKVSKLISDIDGLREEAGEKVVIDELNITDFNEVMFEIYRAKARKCAEIKFRPLAAYIASEGGVVSTRQILHGPRKGEVDKTTHDFSMIEFLKAYKVPRELLDFDEQRKKWRN-GGPLSAIRKSSIQRHLVSLRIAIEKAGEEVVRVRNDREELELHLYRVYLKLAKERAEVLFRPLAAHIRAKGGVELVETVEVGPKQGRKRTLTKSFTMTMFLRAGHVPRELLSYDRKEKKWRP-MSEKQLTQIKQKMHQIQAQAIRDEEQSLQEVLLKANVSEMAGQSASIWGNIARRKAEIIFKPLQQEIKGSGGVEIRREVSFGENKGDWKKSTQAFTMTMFLQFNSVPTSLMSYDSSADHWRS,GHMQLLSRRLKLEKEVRNLQEQLITAETARKVEAKNEDKDLQTLIQKWKNAAQQAAEVLFKPMAERIRLAGGVTQSFRIEEGENKGQIQEVRTEFTMSMFLNQFGVPVHLMSFDEENGDWKS-GHMQLLSRRLKLEKEVRNLQEQLITAETARKVEAKNEDKDLQTLIQKWKNAAQQAAEVLFKPMAERIRLAGGVTQSFRIEEGENKGQIQEVRTEFTMSMFLNQFGVPVHLMSFDEENGDWKS-GHMQLLSRRLKLEKEVRNLQEQLITAETARKVEAKNEDKDLQTLIQKWKNAAQQAAEVLFKPMAERIRLAGGVTQSFRIEEGENKGQIQEVRTEFTMSMFLNQFGVPVHLMSFDEENGDWKS-GHMQLLSRRLKLEKEVRNLQEQLITAETARKVEAKNEDKDLQTLIQKWKNAAQQAAEVLFKPMAERIRLAGGVTQSFRIEEGENKGQIQEVRTEFTMSMFLNQFGVPVHLMSFDEENGDWKS-GHMQLLSRRLKLEKEVRNLQEQLITAETARKVEAKNEDKDLQTLIQKWKNAAQQAAEVLFKPMAERIRLAGGVTQSFRIEEGENKGQIQEVRTEFTMSMFLNQFGVPVHLMSFDEENGDWKS-GHMQLLSRRLKLEKEVRNLQEQLITAETARKVEAKNEDKDLQTLIQKWKNAAQQAAEVLFKPMAERIRLAGGVTQSFRIEEGENKGQIQEVRTEFTMSMFLNQFGVPVHLMSFDEENGDWKS-GHMQLLSRRLKLEKEVRNLQEQLITAETARKVEAKNEDKDLQTLIQKWKNAAQQAAEVLFKPMAERIRLAGGVTQSFRIEEGENKGQIQEVRTEFTMSMFLNQFGVPVHLMSFDEENGDWKS-GHMQLLSRRLKLEKEVRNLQEQLITAETARKVEAKNEDKDLQTLIQKWKNAAQQAAEVLFKPMAERIRLAGGVTQSFRIEEGENKGQIQEVRTEFTMSMFLNQFGVPVHLMSFDEENGDWKS-GHMQLLSRRLKLEKEVRNLQEQLITAETARKVEAKNEDKDLQTLIQKWKNAAQQAAEVLFKPMAERIRLAGGVTQSFRIEEGENKGQIQEVRTEFTMSMFLNQFGVPVHLMSFDEENGDWKS-GHMQLLSRRLKLEKEVRNLQEQLITAETARKVEAKNEDKDLQTLIQKWKNAAQQAAEVLFKPMAERIRLAGGVTQSFRIEEGENKGQIQEVRTEFTMSMFLNQFGVPVHLMSFDEENGDWKS,QIKKIAKGLS-IIKNIAEGLQ-KIRGLADRLE-EVQEIAKQLE-DISAIAYRLT-RVKAIAKRLD-TIKSIAEKLG-DIRGIAAGLC-AIRRIAEGLS-TIQSIATYLS,EIRDIALGMI-EIRDIALGMI-EIRDIALGMI-EIRDIALGMI-EIRDIALGMI-EIRDIALGMI-EIRDIALGMI-EIRDIALGMI-EIRDIALGMI-EIRDIALGMI
29.0,46,56,B,10,MSHLQKMKKILEQIHLLERQLQCTDEFLLLAFDRNMIASSTQAFQQHCSDRQISGKAHGLIGQEALKKKCRTKDLFPEYGINNHM-GSHMSVLAQLMRLRGKVEKLEAELQQLLAKLEEKDATKVVKDFAVKLRVRSTISKEALGAIKAVAADRKVRTKQLFPQFGVDGST-MSREQLLKELEQLREKNRRLAYTLKGELARMKDPNYLKKVNDLREKVKEDIRIVGSALGEIAKQAKKENCQVRDLFGRYGVNGKR-DSSIKIFFKAMAQVYTIGATVLMTKMALERASNKDIHTLISDKAIQVDKGKKITSLALGRIRRVATKQNCKITKLFNEYGVNSNM-GSAKQRQAHRTRHQRQMAKLENENKFELRKLLNKNTALTIRAKLILYENELAIRGEALHKIREKAARRNCKDIKLFAEYGVNSKM-GMAIRRLEQVEAQRESLEREIEITKKILGLLDDRDAEKVVHDTAVEYRRSVIIKNVALYAIGQEAKRRNKATRALFGEFGIKSDD-LTEGTVKEFAEKMRLLRQEAVAKRNALMAQQTEKDVTKVVRDFIMYMFEFFLTTELALRSIQQKAQERQVETKELYEEYGVNPND-HHHHHHADVKKYLDDLRDSLKAAVEEMEAGLADKDAGKTIKDHFDALFAEARIKGMARGLIAEVARARKVATQELFGEFGVNSRM-MSREQTELYLKRIRLEADNLRDSLARFLSELEDPDFEKVIQDKAERKGKFARIRGLALKRIKEVAKRDNCETHKLYGKYGINDRD-ATLKSRVKQVQAEVQALESAVESMDLLLNTRADKHIDQVVVTRAVADNQARSIRSVALGKITEVAKSKKCEARELYKEFGVNSKD,MEKSQLESRVHLLEQQKEQLESSLQDALAKLKNRDAKQTVQKHIDLLHTYNEIRDIALGMIGKVAEHEKCTSVELFDRFGVNGSE-MEKSQLESRVHLLEQQKEQLESSLQDALAKLKNRDAKQTVQKHIDLLHTYNEIRDIALGMIGKVAEHEKCTSVELFDRFGVNGSE-MEKSQLESRVHLLEQQKEQLESSLQDALAKLKNRDAKQTVQKHIDLLHTYNEIRDIALGMIGKVAEHEKCTSVELFDRFGVNGSE-MEKSQLESRVHLLEQQKEQLESSLQDALAKLKNRDAKQTVQKHIDLLHTYNEIRDIALGMIGKVAEHEKCTSVELFDRFGVNGSE-MEKSQLESRVHLLEQQKEQLESSLQDALAKLKNRDAKQTVQKHIDLLHTYNEIRDIALGMIGKVAEHEKCTSVELFDRFGVNGSE-MEKSQLESRVHLLEQQKEQLESSLQDALAKLKNRDAKQTVQKHIDLLHTYNEIRDIALGMIGKVAEHEKCTSVELFDRFGVNGSE-MEKSQLESRVHLLEQQKEQLESSLQDALAKLKNRDAKQTVQKHIDLLHTYNEIRDIALGMIGKVAEHEKCTSVELFDRFGVNGSE-MEKSQLESRVHLLEQQKEQLESSLQDALAKLKNRDAKQTVQKHIDLLHTYNEIRDIALGMIGKVAEHEKCTSVELFDRFGVNGSE-MEKSQLESRVHLLEQQKEQLESSLQDALAKLKNRDAKQTVQKHIDLLHTYNEIRDIALGMIGKVAEHEKCTSVELFDRFGVNGSE-MEKSQLESRVHLLEQQKEQLESSLQDALAKLKNRDAKQTVQKHIDLLHTYNEIRDIALGMIGKVAEHEKCTSVELFDRFGVNGSE,SWEKAAVKAG-PFLAALKKAK-RFLAARKKAQ-KWQKAASTAY-YWEDAANKAR-PWQVANLKAG-TWKHALKRAE-DFLYAANRAK-KWGHAANKAR-RWREAAEKAG,KWKNAAQQAA-KWKNAAQQAA-KWKNAAQQAA-KWKNAAQQAA-KWKNAAQQAA-KWKNAAQQAA-KWKNAAQQAA-KWKNAAQQAA-KWKNAAQQAA-KWKNAAQQAA
