contacts,cs,ce,Chain,Length,designed_receptor_seq,native_receptor_seq,designed_binder_seq,native_binder_seq
29.0,51,61,A,10,GHMLDKLEAARLEKEIADLEKEVKEAEAKVVRDALNLEDFKKKEFEKWKKKAQEAAEKIFKPMAEAIKEEGGVVVTYEIKNGARKGEKKTKKVDFTMSMFLSLHGVPTEVLSWDEEKKKWKP-GSHMLKELRAKIERLVEARQAEIEAANRLKEIRRLNKDLERRRDFRIWRTRAQRAAEILFRPLAERVKAQGGVEERRQILSGARKGEIERRRRDFTMTMFLELNGVPRELLSWDEERKRWKP-GSHMEKMLEAAVAKAQAALDKATQAAEDEKVRLALDRSEFARKAARIWAARAREAAERLFAPLAEKVAAEGGVESRRRIRRGRRKGEIARSRRAFTMSMFLSLCGVPKSTLSWDAAQKRWKE-GSHMARLLKVEIEKAVLELEKARQEAELKKIRDALDEEEWKKEEFEKWKAKAQEAAEKLFKPLAEKIKEKGGVVEEWEIKEGKDKGKIKKKTRDFTMTMFLKLHGVPSELLSWDEKRKKWKP-GSHMGRLRREALLRAQRDLDRRLAEAEQAALDRAYNRQEELRQAQRVWLARAREAAERLFHPLAERVRREGGVRTVRQIERGRERGRRWETSRPFTMTMFLRLHGVPATVLSWDEARQRWRP-GAMARLKAIKELEERVRKLEEEIRKAEEKVEKIKRNEKEKRNKEFEIWKKKAMEAAERIFEPLREYIKENGGVVSSRKINSGRLKGKFFQKKRDFSMTMFLRLMNVPKAVMSYDEENKKWKP-GSHMAQDQLLALQKAITDAETARKEAELAKLRRALNKSEDAKRLFRIYKAKAQRAAEVLFRPQAERIKAQGGVTVSRRIRSGKNKGKVFRETRDYTMNMFLREHGVPVEVLSFDEQRKKWRP-TTDELLARISALEKQIADLEKRVAEEKERAVRLELDREEYLGKQLRVWKAKAQREAERLYRPLAEQVKARGGVVERWQERTGKRKGKIVERRRDFTMTDFLRLHGVPRELLSYDEEKKRWRG-GSHMDARLREAIAKAERDLEVEKLQAEAKAVRDRLDIEKLRGELFEIYKARAQEAAERLFAPLAEKIREQGGVTSSRVIRSGRRRGETQTRRREFTMTMFLKLNGVPRELLNWDEDRKKWKR-GAMLDELKRAAEEKARKAAEKELKEAEELKERLRKNEEERKKKLFEEWKKKAQEAALRLYRPLAERIAKEGGVLTEWEVKEGPLKGKIRRKRRDFTMNMFLKLHGVPYELLSWDEEKKKWKP,GHMQLLSRRLKLEKEVRNLQEQLITAETARKVEAKNEDKDLQTLIQKWKNAAQQAAEVLFKPMAERIRLAGGVTQSFRIEEGENKGQIQEVRTEFTMSMFLNQFGVPVHLMSFDEENGDWKS-GHMQLLSRRLKLEKEVRNLQEQLITAETARKVEAKNEDKDLQTLIQKWKNAAQQAAEVLFKPMAERIRLAGGVTQSFRIEEGENKGQIQEVRTEFTMSMFLNQFGVPVHLMSFDEENGDWKS-GHMQLLSRRLKLEKEVRNLQEQLITAETARKVEAKNEDKDLQTLIQKWKNAAQQAAEVLFKPMAERIRLAGGVTQSFRIEEGENKGQIQEVRTEFTMSMFLNQFGVPVHLMSFDEENGDWKS-GHMQLLSRRLKLEKEVRNLQEQLITAETARKVEAKNEDKDLQTLIQKWKNAAQQAAEVLFKPMAERIRLAGGVTQSFRIEEGENKGQIQEVRTEFTMSMFLNQFGVPVHLMSFDEENGDWKS-GHMQLLSRRLKLEKEVRNLQEQLITAETARKVEAKNEDKDLQTLIQKWKNAAQQAAEVLFKPMAERIRLAGGVTQSFRIEEGENKGQIQEVRTEFTMSMFLNQFGVPVHLMSFDEENGDWKS-GHMQLLSRRLKLEKEVRNLQEQLITAETARKVEAKNEDKDLQTLIQKWKNAAQQAAEVLFKPMAERIRLAGGVTQSFRIEEGENKGQIQEVRTEFTMSMFLNQFGVPVHLMSFDEENGDWKS-GHMQLLSRRLKLEKEVRNLQEQLITAETARKVEAKNEDKDLQTLIQKWKNAAQQAAEVLFKPMAERIRLAGGVTQSFRIEEGENKGQIQEVRTEFTMSMFLNQFGVPVHLMSFDEENGDWKS-GHMQLLSRRLKLEKEVRNLQEQLITAETARKVEAKNEDKDLQTLIQKWKNAAQQAAEVLFKPMAERIRLAGGVTQSFRIEEGENKGQIQEVRTEFTMSMFLNQFGVPVHLMSFDEENGDWKS-GHMQLLSRRLKLEKEVRNLQEQLITAETARKVEAKNEDKDLQTLIQKWKNAAQQAAEVLFKPMAERIRLAGGVTQSFRIEEGENKGQIQEVRTEFTMSMFLNQFGVPVHLMSFDEENGDWKS-GHMQLLSRRLKLEKEVRNLQEQLITAETARKVEAKNEDKDLQTLIQKWKNAAQQAAEVLFKPMAERIRLAGGVTQSFRIEEGENKGQIQEVRTEFTMSMFLNQFGVPVHLMSFDEENGDWKS,AIKGIAEGLE-RIREIAEKLD-EIKGIADGLL-EIKALAEKLE-TVRAIAEGLE-EIKGIALYLE-EVKGIADGLE-EIREIAEGLG-DIRAIAERLE-EVEEIARGLE,EIRDIALGMI-EIRDIALGMI-EIRDIALGMI-EIRDIALGMI-EIRDIALGMI-EIRDIALGMI-EIRDIALGMI-EIRDIALGMI-EIRDIALGMI-EIRDIALGMI
29.0,46,56,B,10,GSHMELLQKVQELVDNNRRLEEELKALLATLEDKDFVKVVRDRLVRLDNSLRIKGLALGRIKKVAQERNCETKELYGEFGVNGKD-GSHMAMAKKIEELRKKNEELKKKNEELLAKLEDKDVEKVVKEKLEKEKEAKEIKGKALNLIGEVAKKKNCKIKELFKEYGVNGKD-SSNAEEKRRLLEEVKSLEQRLEELEKKLAELKDKDIFKVIRDKAERDRRLLAIKAAALGKIREVARKKNVKTKELYGEYGINGKM-MSLDLLRERIEKLKEENRKLKEENRKLLETLENKDYKKVVKDYLVKKEKAEKIRGLALGFIRKVAEEKNCKTRELFGEFGVNGKD-GSVSSEVQKLRKAVEENRELKKLRAEALAKLKDKDAEKVLADYKKKAKEAKEIKSKALGLIASVAKEKGVETKELFGEFGVNGKD-GSHMAQHQRDQKLKELRENLERKLREALDKLEDKDAAKVIKDKLVALKEFAKIRGEALGRIRQVAKERGCKTRDLFDEFGVNGRM-GSHMERIDELLKRKEEIEKLKEEIEKALAKLKNKDAIKVVKDYIIKVEKAKKIKGEALGLIAEVAKKRNVKTIELYDEFGVDGKD-MSLEEKIKELEELQKENEALEKENAELLATLENPDAEKVVADYKAKAEEARRIKGEALGAIKKVAEERGVKTKALYDEFGINGKD-MSLEEAQKVAEEARKGWEEAKKAWEEALAKLEDKDYEKVVKEAAEKAKEAAEIAGEALGKIAEKAKELKTKVEKLFDEFGINKDD-GSHMQELQRLQREIERLEREVERLNQELAKLENKDALKVVRDKALRLRTAAKIKGEALGLIKKVAEKKNCQTKELFGEFGINGKM,MEKSQLESRVHLLEQQKEQLESSLQDALAKLKNRDAKQTVQKHIDLLHTYNEIRDIALGMIGKVAEHEKCTSVELFDRFGVNGSE-MEKSQLESRVHLLEQQKEQLESSLQDALAKLKNRDAKQTVQKHIDLLHTYNEIRDIALGMIGKVAEHEKCTSVELFDRFGVNGSE-MEKSQLESRVHLLEQQKEQLESSLQDALAKLKNRDAKQTVQKHIDLLHTYNEIRDIALGMIGKVAEHEKCTSVELFDRFGVNGSE-MEKSQLESRVHLLEQQKEQLESSLQDALAKLKNRDAKQTVQKHIDLLHTYNEIRDIALGMIGKVAEHEKCTSVELFDRFGVNGSE-MEKSQLESRVHLLEQQKEQLESSLQDALAKLKNRDAKQTVQKHIDLLHTYNEIRDIALGMIGKVAEHEKCTSVELFDRFGVNGSE-MEKSQLESRVHLLEQQKEQLESSLQDALAKLKNRDAKQTVQKHIDLLHTYNEIRDIALGMIGKVAEHEKCTSVELFDRFGVNGSE-MEKSQLESRVHLLEQQKEQLESSLQDALAKLKNRDAKQTVQKHIDLLHTYNEIRDIALGMIGKVAEHEKCTSVELFDRFGVNGSE-MEKSQLESRVHLLEQQKEQLESSLQDALAKLKNRDAKQTVQKHIDLLHTYNEIRDIALGMIGKVAEHEKCTSVELFDRFGVNGSE-MEKSQLESRVHLLEQQKEQLESSLQDALAKLKNRDAKQTVQKHIDLLHTYNEIRDIALGMIGKVAEHEKCTSVELFDRFGVNGSE-MEKSQLESRVHLLEQQKEQLESSLQDALAKLKNRDAKQTVQKHIDLLHTYNEIRDIALGMIGKVAEHEKCTSVELFDRFGVNGSE,KWQAAAEKAE-KWKDAADKAG-TFEDALKKAE-RWEEAAKKAK-KWEDAAKKAE-RFEDAARKAG-KWKDAAEKAK-TWKAALDKAK-TWKEAAEKAA-KWQSAADKAR,KWKNAAQQAA-KWKNAAQQAA-KWKNAAQQAA-KWKNAAQQAA-KWKNAAQQAA-KWKNAAQQAA-KWKNAAQQAA-KWKNAAQQAA-KWKNAAQQAA-KWKNAAQQAA
