contacts,cs,ce,Chain,Length,designed_receptor_seq,native_receptor_seq,designed_binder_seq,native_binder_seq
23.0,71,81,A,10,HMKIGILGLEKSVSPAKLCGFDVVTGTDAREISDKVKEAGADYGIIFITEDCANLVPDTIAQYQEEEFPKIVLIPSREGTLGIGELLKLLKELIEIGAISV-VKRIAVLGDKETVKPFSLAGFMVEYGEDEREIGEIIRRAKEKFGVIFITEDNAKKVPRVIEKYQGTKIPSIILIPSSMGELGIGTLLLKYKNLKEYGFSLG-HYRVGMIGDKSSVTPALLDGFDVKYGEEEDDIELIIREAGEDYGIIFITEDNAAKVPEVISEYALEDHPRIIEIPSRTGTLGIGTLRMAGSMLRQVGVLMP-MKKIRVIGDSESVSPFILDGFDVKYGNQKEEVSKMVQEVGQDHGIIFITEHSANLVPEVIEQYSDVEFPRIILIPSIKGNLGLGVAEIAGKILREEGFIAP-SRSIGVIGDEASVTPFKMYGFDVRYGKVASDIAALVEDAGNEEGIILITEEAADLVPYEIVKYIGFDYPRIIPIPSRNGTLGLGTLYVAGSFMASIGNLKP-DAKIMVLGDEESIAPLSLSGMNVRHGTKKEDIAKIVEEAGEDYGIIFITEENAALVPEVIKKYEGKKIPAIIEIPSMTGWLGLGYAKVLAENLVNNGFVFD-MLRIGVIGNEASVTPLKMSGAYVFYGNSKEEVKEIVEKTGEWLGIILITEYCARLVPEVIEEYEEAVLPSIVLIPSKVGTLGLGMARAYAEDMTKVGEWVW-DYKIGVLGEEESVDPFALLGMEVLFGKSEEEVSAHVEKAGENFGVILMTEFCAAKVPDTIRRYRGKKVPLIIPIPSKHGTLGLGSLMRAAENLLSEGYLAF-QKRIMVLGSKDSVMPFALIGADVRFGDTEKEIEDLVKFAGEDAGIIFITEECANLVPDVIEEYKNKKYPKIILIPSLSGTLGIGKLARMTEDMVETGKLVG-VKAIWVIGSEESVKPFKLAGFDVKYGRTKEEIEEIIEKAGREAGIIFITEEMGELVPNSIKKYENKRFPAIVPIPSKKGTLGLGELLVALRETIEKGYLVA,TYKIGVVGDKDSVSPFRLFGFDVQHGTTKTEIRKTIDEAKNEYGVIYITEQCANLVPETIERYKGQLTPAIILIPSHQGTLGIGLEEIQNSVEKAVGQNIL-TYKIGVVGDKDSVSPFRLFGFDVQHGTTKTEIRKTIDEAKNEYGVIYITEQCANLVPETIERYKGQLTPAIILIPSHQGTLGIGLEEIQNSVEKAVGQNIL-TYKIGVVGDKDSVSPFRLFGFDVQHGTTKTEIRKTIDEAKNEYGVIYITEQCANLVPETIERYKGQLTPAIILIPSHQGTLGIGLEEIQNSVEKAVGQNIL-TYKIGVVGDKDSVSPFRLFGFDVQHGTTKTEIRKTIDEAKNEYGVIYITEQCANLVPETIERYKGQLTPAIILIPSHQGTLGIGLEEIQNSVEKAVGQNIL-TYKIGVVGDKDSVSPFRLFGFDVQHGTTKTEIRKTIDEAKNEYGVIYITEQCANLVPETIERYKGQLTPAIILIPSHQGTLGIGLEEIQNSVEKAVGQNIL-TYKIGVVGDKDSVSPFRLFGFDVQHGTTKTEIRKTIDEAKNEYGVIYITEQCANLVPETIERYKGQLTPAIILIPSHQGTLGIGLEEIQNSVEKAVGQNIL-TYKIGVVGDKDSVSPFRLFGFDVQHGTTKTEIRKTIDEAKNEYGVIYITEQCANLVPETIERYKGQLTPAIILIPSHQGTLGIGLEEIQNSVEKAVGQNIL-TYKIGVVGDKDSVSPFRLFGFDVQHGTTKTEIRKTIDEAKNEYGVIYITEQCANLVPETIERYKGQLTPAIILIPSHQGTLGIGLEEIQNSVEKAVGQNIL-TYKIGVVGDKDSVSPFRLFGFDVQHGTTKTEIRKTIDEAKNEYGVIYITEQCANLVPETIERYKGQLTPAIILIPSHQGTLGIGLEEIQNSVEKAVGQNIL-TYKIGVVGDKDSVSPFRLFGFDVQHGTTKTEIRKTIDEAKNEYGVIYITEQCANLVPETIERYKGQLTPAIILIPSHQGTLGIGLEEIQNSVEKAVGQNIL,VEDPEVRIIA-FRIPGVTITL-IYPPSYEIEV-FGEPQFMIDV-FGEPHVEIED-VKPPNVVTEI-AMSTRLRILI-LGKPKVELSI-RIMPFVDINF-GGPPRVTINV,LALENVSISV-LALENVSISV-LALENVSISV-LALENVSISV-LALENVSISV-LALENVSISV-LALENVSISV-LALENVSISV-LALENVSISV-LALENVSISV
26.0,9,19,B,10,GPGSDLRDLQTQLAAANARLADLTTKRETIRQYAIWKKKQDAMTAKTDADEQRAVDFVRAAEDNKALVSRLYAVPGKSYSIAAIEGPVKVPKALDGGALQAALDGFEALQPELFAQQIINTTVERINLYEMLQTQIDKLKTDIPNLEARIAEIQALQEKEGAATQFKQAADE-MCGAELLKRKKELEIAVAQLENLTKLQRWIEREAQLEELRAKLGAEIDARTRAATNFIRALEMDDNKVEALLRQPLISETVTEFRLATIVPLGFSGETLDAAVEDYILLLPRLREQRLVSTTVDRTRTRNSVAERVNDLRDRIPKLEEAIAACEHLEANRLLEEKRLRAARK-KCSEQEKVLQRKLTKSTQDLKALTDLEKSTQTNDKLEKTSKAQSSAIEKMDKSSRTFKDALQKDKAKVKKLLSTPQTSVNIEDHQGLVTVPSFLRGSELAAALEGLNRLQPWRLNEKVITQTVQEINAQNEVAKKVDALQHDIPHLRDRIAACKALKANEEAAKKARTEAET-MPTKEEQRLEEFLEKAKLELHLLRELANTVTRQKALTELEERLIEEINKRNVEARNFIKSLKLDEDEIQELLEAPYFAIDIEDFVLPVVVPDFYTNGGLKKSLRGDRQLRPYLLERQRVVVTVERLNYYNEVQKSINLLSTVIPHLEQRIEEIRTLHDQERLRIKQDLADAD-KNDRILDKLKQELEISTLQLEEKEAMARLIVWYDKLSDTDRRLTKAVNAEWLYAKGFQEAAQRQEDEVAKLLAVPQIAKNITFHYGPVVVPEFMRGNELMEALSQFYALLPDLLKQMLVTTTVSKVQAHNRLQQDIDFLRQRIPELQEEIRLIDVLESRIGRLRQALQLLEA-GPTKQLLDMEEELTEAQTNLAQLTNERKQIAELKERQREEHLLKLQVDVDTALAKEFQTAEQLSDEEIALLLEKPKLDVVLHNYLGPTIVPGGPTGGTLKQALNGYKALMPKLLAQSTVSETVNLIKERDQVQAQIDQLEQTIPQLEQTIEKIRELELYEKAEKSYDAFVAD-AGNQELEQLRQHLAEAQAGLAQLTAQRYAEELNAELQAEAEAEGRAVAVAERRALRFQAAVEANRADLLAAMSRPTVNVNVRLFQGSIAVPDSFEGGDLEAAMQGYRALLPALLRQLQISWTVSERNDFNSTQRKINALRSEIPELQRRIEQIEALASRENRRMQELEERLR-MCGHELIKLRKKLAKAKKELEELTKEKEQLVEIQILERKKWALENAVLLLDTTAQNFRIAIIDDEKLVHEALEVPKVDVSIQDKKLNCVVPVYEIEGSLKVTLTGFKQLTPLRLELKKIDLTVSKKNCFNDIAEQINYLQNTIPDLENKIAQCEKLEKQYHELERKYRKLRK-KCGYRLVIAESRLKEAKEKLKELRTEMKESAAMDTLEKLKHDLRKKVEADSARAEDFRKCMDLDLMQAHLLTVVPEVSVNYKIRRGPVRVPEFFEGELCALAEDGFDALLPEQLALQVVTRTCDVRKVYEEAKRDVDTLDQTIPKLQQEIERTRKLEELENRMLRELERRDR-YCGLKLKAEEKWLAQATKELAEKEALRKEWARLEVLQRQRQALEEAVDAATALAQDGVDAVLDTQERWQALLAEPVVETNFTSFEGSVRVPSAADDGRYEKFLAGARALAPRLLEREVVSVTVQKLTAIREAEAEVNQLALEIPRLEAKIAECQKLVANENQRAFIKRVRQA,NPTRELTRLKKQLTTATRGHKLLKDKQDELRQFILLIRKNNELRQAIEKETQTAKDFVLAKSVEEAFIDELLALENVSISVVEKNISVKVPLNFQNAELDRSIDGFTQLLPKLLKLAEVEKTCQLAEEIEKTRRRVNALEYTIPQLEETIYYIKKLEENERAEVTRLIKVKN-NPTRELTRLKKQLTTATRGHKLLKDKQDELRQFILLIRKNNELRQAIEKETQTAKDFVLAKSVEEAFIDELLALENVSISVVEKNISVKVPLNFQNAELDRSIDGFTQLLPKLLKLAEVEKTCQLAEEIEKTRRRVNALEYTIPQLEETIYYIKKLEENERAEVTRLIKVKN-NPTRELTRLKKQLTTATRGHKLLKDKQDELRQFILLIRKNNELRQAIEKETQTAKDFVLAKSVEEAFIDELLALENVSISVVEKNISVKVPLNFQNAELDRSIDGFTQLLPKLLKLAEVEKTCQLAEEIEKTRRRVNALEYTIPQLEETIYYIKKLEENERAEVTRLIKVKN-NPTRELTRLKKQLTTATRGHKLLKDKQDELRQFILLIRKNNELRQAIEKETQTAKDFVLAKSVEEAFIDELLALENVSISVVEKNISVKVPLNFQNAELDRSIDGFTQLLPKLLKLAEVEKTCQLAEEIEKTRRRVNALEYTIPQLEETIYYIKKLEENERAEVTRLIKVKN-NPTRELTRLKKQLTTATRGHKLLKDKQDELRQFILLIRKNNELRQAIEKETQTAKDFVLAKSVEEAFIDELLALENVSISVVEKNISVKVPLNFQNAELDRSIDGFTQLLPKLLKLAEVEKTCQLAEEIEKTRRRVNALEYTIPQLEETIYYIKKLEENERAEVTRLIKVKN-NPTRELTRLKKQLTTATRGHKLLKDKQDELRQFILLIRKNNELRQAIEKETQTAKDFVLAKSVEEAFIDELLALENVSISVVEKNISVKVPLNFQNAELDRSIDGFTQLLPKLLKLAEVEKTCQLAEEIEKTRRRVNALEYTIPQLEETIYYIKKLEENERAEVTRLIKVKN-NPTRELTRLKKQLTTATRGHKLLKDKQDELRQFILLIRKNNELRQAIEKETQTAKDFVLAKSVEEAFIDELLALENVSISVVEKNISVKVPLNFQNAELDRSIDGFTQLLPKLLKLAEVEKTCQLAEEIEKTRRRVNALEYTIPQLEETIYYIKKLEENERAEVTRLIKVKN-NPTRELTRLKKQLTTATRGHKLLKDKQDELRQFILLIRKNNELRQAIEKETQTAKDFVLAKSVEEAFIDELLALENVSISVVEKNISVKVPLNFQNAELDRSIDGFTQLLPKLLKLAEVEKTCQLAEEIEKTRRRVNALEYTIPQLEETIYYIKKLEENERAEVTRLIKVKN-NPTRELTRLKKQLTTATRGHKLLKDKQDELRQFILLIRKNNELRQAIEKETQTAKDFVLAKSVEEAFIDELLALENVSISVVEKNISVKVPLNFQNAELDRSIDGFTQLLPKLLKLAEVEKTCQLAEEIEKTRRRVNALEYTIPQLEETIYYIKKLEENERAEVTRLIKVKN-NPTRELTRLKKQLTTATRGHKLLKDKQDELRQFILLIRKNNELRQAIEKETQTAKDFVLAKSVEEAFIDELLALENVSISVVEKNISVKVPLNFQNAELDRSIDGFTQLLPKLLKLAEVEKTCQLAEEIEKTRRRVNALEYTIPQLEETIYYIKKLEENERAEVTRLIKVKN,PNTNSPWTLY-PKTNLPRLIF-ESENAPYLLF-PAKNAPYLAW-PRFNAPLELM-PDIDAPAALF-PEERLPERLL-FEESAPYKLY-ETLFAPNKDR-PNVADPMRLY,KDSVSPFRLF-KDSVSPFRLF-KDSVSPFRLF-KDSVSPFRLF-KDSVSPFRLF-KDSVSPFRLF-KDSVSPFRLF-KDSVSPFRLF-KDSVSPFRLF-KDSVSPFRLF
