contacts,cs,ce,Chain,Length,designed_receptor_seq,native_receptor_seq,designed_binder_seq,native_binder_seq
20.0,134,144,A,10,SNAIYPVEIFQNSPYNFIKLPPELQGLVSEDEAKRLRFLHVVEPNQSPSLAMLKLIRSSEKNEKILYIDIMSIASKKENRIEGAIYECSLDVIDIVGLIKYLKLLLENPKEALQKCKVKDFDFKLKAIVIDDLSMLSDENEEEYFEELWNVLKELNEKLGCYIITSTRPVNFFKGFKNSLEKYPCLLPDTFLKGMDLIVVEKKEGDEVIYEKDDR-KDIKLPISYFTTSSKNYIKLPKELHGLISEEEARELRFVHVVEPTEEPSQAMQKLVRSSSSNERILYIDVESIASLKKERISGAIYMTSLEVIDIVGLISFLRLLLKNPKEALSECNVKEFDFKLKGIVIDSLSLLGGKVRDDYFKELWDVLYELNEVLGCYIITRSFPVGFFRGFNGSKKRYPFLLPNSFTDGMDLIVFEKKDNGKIVYEKVDD-SMSITPLSEFTTSKYNYIQLPPELRGLVSEEEAENLRFVHVIEPTLEPSIALQKLIQSAKEGEKVLVIDIMSIFSLENQRIEGAIYRTSLDVIDIEGLISFLQLLLENPQEALSECEVESFDFKLKGIVIDSLSYLKGAEEVGKFQQLFDILYALHKQLGCFIITTSFPTGFFRGVEGSSLGYNTELPSAFLDGMDLIVVEEEVDGELVYRKDEN-SNAILPFSYFVTSKHNFIKLPPELQGLVSEEEASKLRFLHVVEPSLEASEAMKKLINSSSNGQKMLYIDIESYASLKSNRIEGAIYCTSLEVIDIKGLIAYLTLLLEDPRKALSKCKVKDFNFELKGIVIDNLSYLSGRSEEEYFKKLYSVLDSLNKVLGCYIITRSYPIGYFYGYRLESISYPFLLPESFLSGMDLIVYEESRGNRKVFKKVDT-GSHMLPFSYFTTSKYNYIKLPPSLQGLVTPEESSRLRFLHVVEPTFQPSQAMLELINSSEENEKVLFIDIMSIASLPENRIPGAIYMTSLEVIDIEGLIDYLTLLLENPEEALSRCSVEDFSFTLKGIVIDSLSLLSGEETDLFFSKLFNILYALNKQLGCYIITRAFPSGYFLGIDGSKMSYPFMLPPSFLSGMDLIVYESADLGLKTYTRVDD-MRLVLPKEFFTTSKHNFIKLPPELQGLISEEEKSELQFLHLVEPETEPSDAMKKLIYSSKDGEKTLYIDIESIASLKGERKPGMIYRNSLDVIDIDGLIKFLTLLLKDPKSALGECEVKDFNFKLKRIVIDNLSLLSGLSEDVKFKRLWNVLKELNEVLGCSIITRAFPLEFYYGKNYSRKGYPFLLPPSFTNGMDLIVLEEKVDGKTVYKKDDT-GSHIMPLSYFTTSPYNYIKLPPELEGLVTPEEAARLRFLHVVEPNDEPSEAMKKLIESTKGNEKILYIDIESYGSLPDNRIPGAIYLQSLKVIDIVGLIEYLTLLLENPTEALSLANVENFDFTLKGIVIDSLSNLSGEDEEKYFKRLWDVLYKLNEVLGNYIITRSFPLDYFYGVNGSRAEYPTLLPKSFLDGMDLIVVEKTVDGKKVYTKADI-SLEILPISFFVTSSKNFIKLPPELSGLVSEEEASKLKFLLVVEPTVSPSVAMKKLIQSSGENEKILFIDIESIASLKGERIEGAIYRTSLDVIDIKGLIKYLKLLLENPKEALKECEVENFDFKLKGIVIDSLSYLSGEEERKDFKELWDILKKLNEVLGSFIITRAFPSDFFYGIAGERTSFPCVLPNEYLDGMDLIVLEKKEGEKVVYSAIKI-ARVVLPISSLTTSRFNFIKLPPELNGLVSESESSRLRFLHVVSPDLTLTTAEKALIESCNEGEKILFIDIESIGSRKENRIKGAVYMNSLKVINIVGLLEFLSLLLRNPQEALKLCKVKDYNFKLKGIVIDTLSLLSGSSEDEYFRALWDILYELNRVLGCYIITRSFPTTFFLGLYGQSIGYNTLLPDSFLSGMDLIVVESEENGRIIYSKDNS-DLVVKPLSEFVTSPYNFIKLPPELQGLVTPEESSQLRFLHVIEPTEEPSSAMLALINSSEGDEKILYIDIETYGSQKENRIPGAIYRTSLEVINIEGLIEYLQLLLENPRQALQECNVEDFNFRLKGIVIDSLSLLSDEEEDNFFYELFNILRKLNSVLGSYIITRSFPREFYLGFNGSKIGYPTMLPNSFLSGMDLIVVEEEVDGERVYRPSLE,NIRIYPLSNFITSTKNYINLPNELRNLISEEQESKLGFLHIIESDFKPSVALQKLVNCTTGDEKILIIDIVSIWSQQKQRQHGAIYMNSLSCINITGLIVFLELLYDSPMDALRRCQVDNFNFQLRGIVIDNLSFLNDVINLSKFEKLFKILRKLREFLGCWIITKSFPTDFYNGIENTLVLYPTKLPDSYMKGMDLIIYREVVDGRPQYRRIAA-NIRIYPLSNFITSTKNYINLPNELRNLISEEQESKLGFLHIIESDFKPSVALQKLVNCTTGDEKILIIDIVSIWSQQKQRQHGAIYMNSLSCINITGLIVFLELLYDSPMDALRRCQVDNFNFQLRGIVIDNLSFLNDVINLSKFEKLFKILRKLREFLGCWIITKSFPTDFYNGIENTLVLYPTKLPDSYMKGMDLIIYREVVDGRPQYRRIAA-NIRIYPLSNFITSTKNYINLPNELRNLISEEQESKLGFLHIIESDFKPSVALQKLVNCTTGDEKILIIDIVSIWSQQKQRQHGAIYMNSLSCINITGLIVFLELLYDSPMDALRRCQVDNFNFQLRGIVIDNLSFLNDVINLSKFEKLFKILRKLREFLGCWIITKSFPTDFYNGIENTLVLYPTKLPDSYMKGMDLIIYREVVDGRPQYRRIAA-NIRIYPLSNFITSTKNYINLPNELRNLISEEQESKLGFLHIIESDFKPSVALQKLVNCTTGDEKILIIDIVSIWSQQKQRQHGAIYMNSLSCINITGLIVFLELLYDSPMDALRRCQVDNFNFQLRGIVIDNLSFLNDVINLSKFEKLFKILRKLREFLGCWIITKSFPTDFYNGIENTLVLYPTKLPDSYMKGMDLIIYREVVDGRPQYRRIAA-NIRIYPLSNFITSTKNYINLPNELRNLISEEQESKLGFLHIIESDFKPSVALQKLVNCTTGDEKILIIDIVSIWSQQKQRQHGAIYMNSLSCINITGLIVFLELLYDSPMDALRRCQVDNFNFQLRGIVIDNLSFLNDVINLSKFEKLFKILRKLREFLGCWIITKSFPTDFYNGIENTLVLYPTKLPDSYMKGMDLIIYREVVDGRPQYRRIAA-NIRIYPLSNFITSTKNYINLPNELRNLISEEQESKLGFLHIIESDFKPSVALQKLVNCTTGDEKILIIDIVSIWSQQKQRQHGAIYMNSLSCINITGLIVFLELLYDSPMDALRRCQVDNFNFQLRGIVIDNLSFLNDVINLSKFEKLFKILRKLREFLGCWIITKSFPTDFYNGIENTLVLYPTKLPDSYMKGMDLIIYREVVDGRPQYRRIAA-NIRIYPLSNFITSTKNYINLPNELRNLISEEQESKLGFLHIIESDFKPSVALQKLVNCTTGDEKILIIDIVSIWSQQKQRQHGAIYMNSLSCINITGLIVFLELLYDSPMDALRRCQVDNFNFQLRGIVIDNLSFLNDVINLSKFEKLFKILRKLREFLGCWIITKSFPTDFYNGIENTLVLYPTKLPDSYMKGMDLIIYREVVDGRPQYRRIAA-NIRIYPLSNFITSTKNYINLPNELRNLISEEQESKLGFLHIIESDFKPSVALQKLVNCTTGDEKILIIDIVSIWSQQKQRQHGAIYMNSLSCINITGLIVFLELLYDSPMDALRRCQVDNFNFQLRGIVIDNLSFLNDVINLSKFEKLFKILRKLREFLGCWIITKSFPTDFYNGIENTLVLYPTKLPDSYMKGMDLIIYREVVDGRPQYRRIAA-NIRIYPLSNFITSTKNYINLPNELRNLISEEQESKLGFLHIIESDFKPSVALQKLVNCTTGDEKILIIDIVSIWSQQKQRQHGAIYMNSLSCINITGLIVFLELLYDSPMDALRRCQVDNFNFQLRGIVIDNLSFLNDVINLSKFEKLFKILRKLREFLGCWIITKSFPTDFYNGIENTLVLYPTKLPDSYMKGMDLIIYREVVDGRPQYRRIAA-NIRIYPLSNFITSTKNYINLPNELRNLISEEQESKLGFLHIIESDFKPSVALQKLVNCTTGDEKILIIDIVSIWSQQKQRQHGAIYMNSLSCINITGLIVFLELLYDSPMDALRRCQVDNFNFQLRGIVIDNLSFLNDVINLSKFEKLFKILRKLREFLGCWIITKSFPTDFYNGIENTLVLYPTKLPDSYMKGMDLIIYREVVDGRPQYRRIAA,IESRIQRNRP-LVEKVLKGLN-IEERVLANRP-LVEKVLSNKP-IIERVLANQP-LRERVLKNKP-LIDRVKAAQP-LELKVLANLP-IVERVLSNKP-LVEKVLKGLE,LKLRVMGNDE-LKLRVMGNDE-LKLRVMGNDE-LKLRVMGNDE-LKLRVMGNDE-LKLRVMGNDE-LKLRVMGNDE-LKLRVMGNDE-LKLRVMGNDE-LKLRVMGNDE
20.0,170,180,B,10,FENLKLISIWPSPSDEAFCNFVKQNLTIDNVQVELWYIDSESNFPLEKFKEMIPPSEPRNVGIYQNIFLSTVNDLNQLFSQVEGIEQKLSTRRSSANQDPLRIILYISGLDKMYNATLKETSPQAAENLLTSVFLRLKRLGSDPGEEASIRTILEFPKQLLQAYYHQSMGTSNGDSLAEYLMKYYADEIIE-YDELALITIVPSPSPSAFCSFVKDNLTRSGVVTRLLYLDSKDNFPLAKFKEMVPPSDPRNVGIYENIHLFKVSDLKELSAVTDTVEILLRTTRESASGEPLRIILFIDGLSDMYGATLLETTPKDSLDLLTSTLLRLRRMASDPDEHAKVRTLLEFPDRDLRLYYEARSGERRGMTLAEYIAQYFADTILD-FESLANITIVPSPSDEALCLFIKQNLSREQVVTELHYIDSHDNFPIEKFQEMVPPTLPENRAIYNNIFLRRVNDLEELSSVSDSLESLILERRQSASDQPLRIILYIEGLDSMFNSTLRQTTPKEALDILTSTLVRLRYMAGDPNKSATIRTLLEFPKQLLERYYNELKGKSKGMTLAEYIATYYADNIDE-YDSLSLITIYPSPTQEDFCQFVKDNLSREDVEVQLWYLDSENDFPLDKFKQDVPPSLPENKEIYRRIFLFTINNLEELDAVTGLIEDILSRERKNSNRKPLRIILYIKGLDTMYGNTLRETTPRASLELLTSTLVRLRVMGGEPDNSAKVRTILEFPRYELQSYYEKQGKKIHGDTLAEFIWKYYADNIQD-YEDLAAITILPSPSDEALCTFVRDHLSRKGVVTELHYLDSKGDFPLERFKEMVPPSEPRNKAIYQNIFLQTIRNLTELAARVDEIEDLLNTRRKNAAGRPLRIILYIKGLDAMYATTLREETPYAALKILTKTLVRLRKMASDPNEEAKVRTILEFPKRLLLSYYAGLKGTVKGDTLAEYIYRYYADRIDD-YSSLALITIWPSPTDEAFCRFVKVNLSKENIETRLFYIDSESNFPLQKFKEMVPPSEPENKEIYKNIFLATVGNLEELDAQVDNLEKILTTKRLKAQSKPLRIILYIKGLDKMYSKSLKETTPKESLEMLTRTLTRLKTMAGHPNESATLRTILEFPNYELKAFYNAKGGTTNGYTLAEYIWKYYADNIEE-FEGLASITILPSPTDREFCLFVREKLSLRGVETELWYIDSEDNFPLDMFKELVPPSNPENHLIYRRIHLRTVHDLDELAQETINIQRRLKRAREAAGEEPLRIILYISGLDQMYGTTLKKTTPERALETLTKTLTTLRSLSNDPNETASLRTILEFPKYQLKSYYELRNGEKNGLTLAEYILKYYADDIDD-FEDLASITILPSPSDEAFCEFVRTNLSREDVVTELHYLDSEDNFPLEKFKELVPPSKPENESIYRNIHLSKINDLSELDASVDDISNLLMSRIIEADSKPLRIILYISGLDKMYDNTLRETSPTTAESLLTSVLLRLRELSEDPNESASIKTILEFPDYELKSYYNRKSGKTNGDTLAEYIWTYYADNIMD-HHHMAAITILPSPSDRALCSFVKDNLSITDVVTELHYIDSEGDFPMETFEEMVPPSEPANVDVYKRIKLSTVSDLTALSAVTDDLNLKLGTTRLAASSKPLRVILYIQGLGKMYGNTLKATSPVEALAKLTSTLTSLKTMSRDPGETASVRTILEFPSTQLSSYFTAAAGNTNGDTLAEYIMKYYADNIDE-FDELSLITILPSPSDKDFCTFVKVNLSRKNVIVELLYIDSEDNFPLTLFEKMVPPSDPKNVSIYRNIHLSRVSDLVELEEEVDRIQEKLTSTILAASSAPLRIILYIRGLSSMYGTTLRATDPATAERLLTETLERLKVMSGNPNESAKIRTLLEFDKKELLSYYRAKRGNINGDTLAEYIWKYYADNILD,YEDLELITIWPSPTKNKLCQFIKQNLSKEHVVTQLFFIDATSSFPLSQFQKLVPPTLPENVRIYENIRINTCLDLEELSAITVKLLQILSMNKINAQTEPLKIILYINGLEVMFRNSQFKSSPQRSHELLRDTLLKLRVMGNDENENASIRTLLEFPKEQLLDYYLKKNRIKNGDSLAEYIWKYYADSLFE-YEDLELITIWPSPTKNKLCQFIKQNLSKEHVVTQLFFIDATSSFPLSQFQKLVPPTLPENVRIYENIRINTCLDLEELSAITVKLLQILSMNKINAQTEPLKIILYINGLEVMFRNSQFKSSPQRSHELLRDTLLKLRVMGNDENENASIRTLLEFPKEQLLDYYLKKNRIKNGDSLAEYIWKYYADSLFE-YEDLELITIWPSPTKNKLCQFIKQNLSKEHVVTQLFFIDATSSFPLSQFQKLVPPTLPENVRIYENIRINTCLDLEELSAITVKLLQILSMNKINAQTEPLKIILYINGLEVMFRNSQFKSSPQRSHELLRDTLLKLRVMGNDENENASIRTLLEFPKEQLLDYYLKKNRIKNGDSLAEYIWKYYADSLFE-YEDLELITIWPSPTKNKLCQFIKQNLSKEHVVTQLFFIDATSSFPLSQFQKLVPPTLPENVRIYENIRINTCLDLEELSAITVKLLQILSMNKINAQTEPLKIILYINGLEVMFRNSQFKSSPQRSHELLRDTLLKLRVMGNDENENASIRTLLEFPKEQLLDYYLKKNRIKNGDSLAEYIWKYYADSLFE-YEDLELITIWPSPTKNKLCQFIKQNLSKEHVVTQLFFIDATSSFPLSQFQKLVPPTLPENVRIYENIRINTCLDLEELSAITVKLLQILSMNKINAQTEPLKIILYINGLEVMFRNSQFKSSPQRSHELLRDTLLKLRVMGNDENENASIRTLLEFPKEQLLDYYLKKNRIKNGDSLAEYIWKYYADSLFE-YEDLELITIWPSPTKNKLCQFIKQNLSKEHVVTQLFFIDATSSFPLSQFQKLVPPTLPENVRIYENIRINTCLDLEELSAITVKLLQILSMNKINAQTEPLKIILYINGLEVMFRNSQFKSSPQRSHELLRDTLLKLRVMGNDENENASIRTLLEFPKEQLLDYYLKKNRIKNGDSLAEYIWKYYADSLFE-YEDLELITIWPSPTKNKLCQFIKQNLSKEHVVTQLFFIDATSSFPLSQFQKLVPPTLPENVRIYENIRINTCLDLEELSAITVKLLQILSMNKINAQTEPLKIILYINGLEVMFRNSQFKSSPQRSHELLRDTLLKLRVMGNDENENASIRTLLEFPKEQLLDYYLKKNRIKNGDSLAEYIWKYYADSLFE-YEDLELITIWPSPTKNKLCQFIKQNLSKEHVVTQLFFIDATSSFPLSQFQKLVPPTLPENVRIYENIRINTCLDLEELSAITVKLLQILSMNKINAQTEPLKIILYINGLEVMFRNSQFKSSPQRSHELLRDTLLKLRVMGNDENENASIRTLLEFPKEQLLDYYLKKNRIKNGDSLAEYIWKYYADSLFE-YEDLELITIWPSPTKNKLCQFIKQNLSKEHVVTQLFFIDATSSFPLSQFQKLVPPTLPENVRIYENIRINTCLDLEELSAITVKLLQILSMNKINAQTEPLKIILYINGLEVMFRNSQFKSSPQRSHELLRDTLLKLRVMGNDENENASIRTLLEFPKEQLLDYYLKKNRIKNGDSLAEYIWKYYADSLFE-YEDLELITIWPSPTKNKLCQFIKQNLSKEHVVTQLFFIDATSSFPLSQFQKLVPPTLPENVRIYENIRINTCLDLEELSAITVKLLQILSMNKINAQTEPLKIILYINGLEVMFRNSQFKSSPQRSHELLRDTLLKLRVMGNDENENASIRTLLEFPKEQLLDYYLKKNRIKNGDSLAEYIWKYYADSLFE,ERELGVENRL-RREKGIRGLL-DRELGVRNLL-YKELGVRNLL-LQDRGIANLL-WKERGIRNLL-IRQRGVENLL-EKEMGVRNKL-DKDKGVRNML-ERFKGIENLL,DFYNGIENTL-DFYNGIENTL-DFYNGIENTL-DFYNGIENTL-DFYNGIENTL-DFYNGIENTL-DFYNGIENTL-DFYNGIENTL-DFYNGIENTL-DFYNGIENTL
