contacts,cs,ce,Chain,Length,designed_receptor_seq,native_receptor_seq,designed_binder_seq,native_binder_seq
15.0,63,73,A,10,MEKLCLHPACDRYGSKKYGGYCGRCYAFKKKYG-MEELCLHPACERYGSKKYGGYCGRCYAFRKKIE-MDELCLHPACDRYGSKKYGGYCGRCAAFRKKLG-MEELCLWPACERYGSKKYGGYCGRCYAFRKKLE-MAKLCKHPACKRYGSKKYGGYCGTCAAFRRKLG-MKKLCLHPACENYGSKKYGGYCGKCAAFRKKIE-MEELCLHPACERYGRKEWGGYCGRCYAFRKKLE-MEELCLHPACENYGSKKYGGYCGKCYAFRKKYG-MKKLCKHPACTRYGSKKYGGYCGKCYAFRKKIE-MSKLCLHPACDRYGSKKYGGYCGRCAAFRKKLG,PKQRCRAPACDHFGNAKCNGYCNECFQFKQMYG-PKQRCRAPACDHFGNAKCNGYCNECFQFKQMYG-PKQRCRAPACDHFGNAKCNGYCNECFQFKQMYG-PKQRCRAPACDHFGNAKCNGYCNECFQFKQMYG-PKQRCRAPACDHFGNAKCNGYCNECFQFKQMYG-PKQRCRAPACDHFGNAKCNGYCNECFQFKQMYG-PKQRCRAPACDHFGNAKCNGYCNECFQFKQMYG-PKQRCRAPACDHFGNAKCNGYCNECFQFKQMYG-PKQRCRAPACDHFGNAKCNGYCNECFQFKQMYG-PKQRCRAPACDHFGNAKCNGYCNECFQFKQMYG,KKKKKVVYVK-KKEKKVVYVK-KKKKEVVYVK-KKEEKVVYVK-KKKKEVVLVK-KEKKEVVYVK-KKKKEVVLVE-KKKKKVVYVK-KEEKKEVKEE-KKKKKVVYVK,ESTLHLVLRL-ESTLHLVLRL-ESTLHLVLRL-ESTLHLVLRL-ESTLHLVLRL-ESTLHLVLRL-ESTLHLVLRL-ESTLHLVLRL-ESTLHLVLRL-ESTLHLVLRL
16.0,0,10,B,10,MQIFVKTLTGKTITLEVEPSDTIENVKAKIQDKEGIPPDQQRLIFAGKQLEDGRTLGDYNIQKESTLHLVLRLRGG-MQIFVKTLTGKTITLEVEPSDTIENVKAKIQDKEGIPPDQQRLIFAGKQLEDGRTLGDYNIQKESTLHLVLRLRGG-MQIFVKTLTGKTITLEVEPSDTIENVKAKIQDKEGIPPDQQRLIFAGKQLEDGRTLGDYNIQKESTLHLVLRLRGG-MQIFVKTLTGKTITLEVEPSDTIENVKAKIQDKEGIPPDQQRLIFAGKQLEDGRTLGDYNIQKESTLHLVLRLRGG-MQIFVKTLTGKTITLEVEPSDTIENVKAKIQDKEGIPPDQQRLIFAGKQLEDGRTLGDYNIQKESTLHLVLRLRGG-MQIFVKTLTGKTITLEVEPSDTIENVKAKIQDKEGIPPDQQRLIFAGKQLEDGRTLGDYNIQKESTLHLVLRLRGG-MQIFVKTLTGKTITLEVEPSDTIENVKAKIQDKEGIPPDQQRLIFAGKQLEDGRTLGDYNIQKESTLHLVLRLRGG-MQIFVKTLTGKTITLEVEPSDTIENVKAKIQDKEGIPPDQQRLIFAGKQLEDGRTLGDYNIQKESTLHLVLRLRGG-MQIFVKTLTGKTITLEVEPSDTIENVKAKIQDKEGIPPDQQRLIFAGKQLEDGRTLGDYNIQKESTLHLVLRLRGG-MQIFVKTLTGKTITLEVEPSDTIENVKAKIQDKEGIPPDQQRLIFAGKQLEDGRTLGDYNIQKESTLHLVLRLRGG,MQIFVKTLTGKTITLEVEPSDTIENVKAKIQDKEGIPPDQQRLIFAGKQLEDGRTLSDYNIQKESTLHLVLRLRGG-MQIFVKTLTGKTITLEVEPSDTIENVKAKIQDKEGIPPDQQRLIFAGKQLEDGRTLSDYNIQKESTLHLVLRLRGG-MQIFVKTLTGKTITLEVEPSDTIENVKAKIQDKEGIPPDQQRLIFAGKQLEDGRTLSDYNIQKESTLHLVLRLRGG-MQIFVKTLTGKTITLEVEPSDTIENVKAKIQDKEGIPPDQQRLIFAGKQLEDGRTLSDYNIQKESTLHLVLRLRGG-MQIFVKTLTGKTITLEVEPSDTIENVKAKIQDKEGIPPDQQRLIFAGKQLEDGRTLSDYNIQKESTLHLVLRLRGG-MQIFVKTLTGKTITLEVEPSDTIENVKAKIQDKEGIPPDQQRLIFAGKQLEDGRTLSDYNIQKESTLHLVLRLRGG-MQIFVKTLTGKTITLEVEPSDTIENVKAKIQDKEGIPPDQQRLIFAGKQLEDGRTLSDYNIQKESTLHLVLRLRGG-MQIFVKTLTGKTITLEVEPSDTIENVKAKIQDKEGIPPDQQRLIFAGKQLEDGRTLSDYNIQKESTLHLVLRLRGG-MQIFVKTLTGKTITLEVEPSDTIENVKAKIQDKEGIPPDQQRLIFAGKQLEDGRTLSDYNIQKESTLHLVLRLRGG-MQIFVKTLTGKTITLEVEPSDTIENVKAKIQDKEGIPPDQQRLIFAGKQLEDGRTLSDYNIQKESTLHLVLRLRGG,KTITLEDPSP-KTIDDSRPAD-KTITLEDPSP-KTITLEDPSP-KTITLEDPSP-KTITLEDPSP-KTIDDSRPAD-KTITLEDPSP-KTITLEDPSP-KTITLEDPSP,PKQRCRAPAC-PKQRCRAPAC-PKQRCRAPAC-PKQRCRAPAC-PKQRCRAPAC-PKQRCRAPAC-PKQRCRAPAC-PKQRCRAPAC-PKQRCRAPAC-PKQRCRAPAC
