contacts,cs,ce,Chain,Length,designed_receptor_seq,native_receptor_seq,designed_binder_seq,native_binder_seq
17.0,126,136,A,10,MPKIKIKFQPVGNEIEVDESISFAEVVELLKKKLKKDDVFCFINNKFSPDPSENVGELHKKFNVDGKLIVNYTTPL-MPKIKIKFQPVGNEVEVDESIKFAELVELLKKKEKKEDLFCFINNKFSPDPSENVGELHKKFNVDGKLIVNYTKPL-MPKIKIKFQPVGNIVEVDESISFAEVVELLRKKEKKDDLYLFINNKFSPDPSENVGELHKKFNVDGELVVSYFSPG-MPKIKIKFQPIGNIVEVDESISFAEVVEFLKKKEKKDDLFLFINNKFSPDPSENVGELHRKFNVDGELIVSYTKPL-MPKIKIKFQPIGNEIEVDESITFAEVVELLKKKKKRDDIYCFINNKFSPDPSENIGELHKKFNVDGKLIVSYTEPL-MPKIKILFQPVGKEIEVDESISFAEVVELLKKKEKKEDLFLFINNKFSPDPSENVGELHKKFNKNGKLIVSYFKPK-MPKIKIKFQPVGNEIEVDESISFAEVVELLRKKEKKDDLFLFINNKFSPDPSENVGELHKKFNVNGELIVSYTKPL-MPKIKIKFQPVGEEIEVDESIKFAELVELLRKKEKKDDLYCFINNKFSPDPSENVGELHKKFNVNGKLIVSYTKPL-MPKIKIKFQPVGKEVEVDESIKFKELVEFLKKKEKKENLFCFINNKFSPKPEENVGELHKKFNVNGELIVNYFEPL-MPKIKIKFQPVGNEIEVDESISFAEVVELLRKKEKKDDLYLFINNKFSPDPSENVGELHKKFNVDGKLVVSYTKPL,IQKIQIKFQPIGSVCKISMSQSFAMVILFLKRRLKMDHVYCYINNSFAPSPQQNIGELWMQFKTNDELIVSYCAFG-IQKIQIKFQPIGSVCKISMSQSFAMVILFLKRRLKMDHVYCYINNSFAPSPQQNIGELWMQFKTNDELIVSYCAFG-IQKIQIKFQPIGSVCKISMSQSFAMVILFLKRRLKMDHVYCYINNSFAPSPQQNIGELWMQFKTNDELIVSYCAFG-IQKIQIKFQPIGSVCKISMSQSFAMVILFLKRRLKMDHVYCYINNSFAPSPQQNIGELWMQFKTNDELIVSYCAFG-IQKIQIKFQPIGSVCKISMSQSFAMVILFLKRRLKMDHVYCYINNSFAPSPQQNIGELWMQFKTNDELIVSYCAFG-IQKIQIKFQPIGSVCKISMSQSFAMVILFLKRRLKMDHVYCYINNSFAPSPQQNIGELWMQFKTNDELIVSYCAFG-IQKIQIKFQPIGSVCKISMSQSFAMVILFLKRRLKMDHVYCYINNSFAPSPQQNIGELWMQFKTNDELIVSYCAFG-IQKIQIKFQPIGSVCKISMSQSFAMVILFLKRRLKMDHVYCYINNSFAPSPQQNIGELWMQFKTNDELIVSYCAFG-IQKIQIKFQPIGSVCKISMSQSFAMVILFLKRRLKMDHVYCYINNSFAPSPQQNIGELWMQFKTNDELIVSYCAFG-IQKIQIKFQPIGSVCKISMSQSFAMVILFLKRRLKMDHVYCYINNSFAPSPQQNIGELWMQFKTNDELIVSYCAFG,PQKELKEKEL-KQKENKEKEL-SQKENMEKEL-PQKELKEKEL-PQKELKEKEL-EQKKLKEKEE-EQKELKEKEL-SQKELKEKEL-EQEELKKKEE-KQKKNKEKEL,FHQWKQVCFI-FHQWKQVCFI-FHQWKQVCFI-FHQWKQVCFI-FHQWKQVCFI-FHQWKQVCFI-FHQWKQVCFI-FHQWKQVCFI-FHQWKQVCFI-FHQWKQVCFI
25.0,42,52,B,10,MSIRKELWNGTLNVNIRIDDRFLKEGAPEEVRNLNLKIPYESYLINFLPTIWEKIKDYLNFDPFSDFEFYTYFVYKDKPIPWDLPVGVIYDRIKPPEEKLVLELKMSKELPPKIIPLLENDAKEIWFQRWREVCYILHGTADKINSLSEEEKEKFWNSILERDFETYEEISSKISSENPLEIPLIVSTSRSKGEFFSISPKISMKGKNPTLKDIEGEILKVDKKVKIIVAGKEIPYDMKLKDLYEKLRSFDGFLYITLVPE-SNARKELWNGTLNVNIHIDDAFLKEGAPEEVRHLNMKIPYESYLVNFLPEIWKKIEKYLNFDPFSDFEFYTYFVIDDKPVPWDLPVGVIYDRYKPPKKELNLKLVMSKELPPNIIPLLKNDVKKIWFERWREVCYILHGTADKINSLSEEEKEKFWNSILERDFETYERISSKISSENPLEIPLIVSTSRSKGKFYRIKPKISMKGKNPTLKDIEGEILKVAKPVKIIVAGKEIPYDMKLKDLYETYRSFDGYLYITLVPE-SNARKELWNGTLNVNIHIDDRFLKEGAPEEVRHLQLKIPYESYLVDFLPTIWEKIKDYLNFDPFSDFEFYTYFVHEDKPVPWDLPVGVIYDRIKPPKEYLDLKLVMSKELPPKIIPLLKNDVKKRWFERWREVCYILHGTADKIKSLSEEEKEKFWNSILERDFETYEKISSKISSENPLEIPLIVSTSRSKGEFYSISPKISMKGKNPTLKDIEGEILKVKEPYDIIVSGKLIPYDMKLKDLYETYRSFDGFLYITLVPK-MDIRKKLWEGTLKVNIKIDDKFLKEGAPEEVKNLELEIPYESYLINYLPTIWEKIKDYLNFDPFSDFEFYVYFVHKDKPIPWDLPVGVIYDRIKPPEEYLELKLVMSKELPPKIIPLSKNDAKEIWFERWREVCYILHGSADKIKSLSEEEKEEFWNSILERDFEKYLKISSKISSENPLEIPLIVSTSRSEGEFFQIEPKISMVGKNPTLKDIEGEILKVKEPYKVIVRGKEIPYDTKLYDLYKNLRSFDGFLYITLVPE-SNAREKLWNGTLNVNIHIDDSFLKEGAPEEVRHLNLKIPYESYLVNFLPTIWEKIKDYLNFDPFSDFEFYTYFVHNDKPIPWDLPVGVIYDRIKPPEEYLDLKLVMSKELPPKIIPLLENDVKEIWFQRWREVCYILHGTADKINSLSEEEKEKFWNSILERDFETYEEISSKISSENPLEIPLIVSTSRSEGEFFSISPKISMEGKNPTLKDIEGEILKVKEPYKIIVAGKEIPYDTKLYDLYKTYRSFDGFLYITLVPE-MSLREKLWNGTYKVNIHIDDAFLKEGAPEEVRHLELDIPAESYLVNFLPTIWKKIKDYLNFDPFFDEERYVYFVHNDKPVPWDLPVGVIYDRIKPPEEKLVLKLVMSDELPPNIIPLFKNDVKERWFQRWREVCYILHGTADKINSLSEEEKEKFWNSILERDFETYEEISSKISSENPLEIPLIVSTSRSEGEFYSIEPVISMEGKDPTLRDIEGEILKVKEPYDIIVSGKLIPWDTKLKDLYEELRSFDGFLYITLVPP-MDIRKKLWEGTLNVNIKIDDRFLKEGAPEEVRNLNLKIPFESYLINYLPIIWKKIKDYLNFDPFSDFEFYTYFVYKDKPIPWDLPVGVIYDRIKPPEEYLELKLVMSKELPPNIIPLLENDAKEIWFERWREVCYILHGTADKINSLSEEEKEKFWNSILERDFETYEEISSKISSENPLEIPLIVSTSRSEGEFYSISPIISMEGKNPTLKDIEGEILKVKENYKIIVSGKEIPYDMKLKDLYENLRSFDGFLYITLVPE-GSHMEELWNGTLDVEIRIDDRFLKEGAPEEVRVLKLKIPYESYLVNFLPTIWKKIKDYLNFDPFSDEEFYVYFVYKDKPVPWDLPVGVIYDRIKPPKEKLVLELRMGKELPPKIRPLLENDVKEIWFQRWREVCYILHGSADKINSLSEEEKEKFWESILKRDFETYKEISSKISSENPLEIPLIVRTSRSEGKFYSIKPKISMKGKNPTLKDIEGEILKVKEPVKIIVAGKEIPWDMKLKDLYEELRSFDGYLYITLVPE-MDIRKKLWEGTYNVNIIIDDRFLKEGAPEEVKKLNLKIPAESYLSNFLPVIWKKIKDYLNFDPFSDFEFYTYFVYKDKPIPWDLPVGVIYDRIKPPEEKLILKLVMSKELPPKIIPLLKNDVKEIWFNRWREVCYILHGSADKINSLSEEEKEKFWNSILKRDFETFLEISSKISSENPLEIPLIVSTSRSKGKFYRIKPKISMKGKNPTLKDIEGEILKVEKPVKIIVRGKEIPWDMKLKDLYEELRDFDGFLYITLVPE-MDIRKKLWEGTYKVNIIIDDRFLKEGAPEEVKKLELEIPAESYLINFLPTIWEKIKDYLNFDPFSDEEFYVYFEIDKKPVPWDLPVGVIYDMYKPPEEYLELKLVKSKELPPKIIPLLKNDAKEIWFERWREVCYILHGTADKIKSLSEEEKEKFWNSILERDFETYLEISSKISSENPLEIPLIVSTSRKEGEFYRIKPKISMVGKNPTLKDIEGEILKVKEPYKIIVRGKEIPWDMKLYDLYKELRSFDGYLYITLVPP,NDIKQLLWNGELNVLVSIDPSFLMKGSPREIAVLRIRVPRETYLVNYMPLIWNKIKSFLSFDPLTDSEKYFWFEHNKTPIPWNYPVGVLFDCLADVLTFLRIHLVMGDSLPPTIIPIAKTQAEKFWFHQWKQVCFILNGSSKAIMSLSVNEARKFWGSVITRNFQDFIEISNKISSSRPRHIPLIIQTSRTSGTFRISQPTISMTGVNPTLKDIEGDILDVKEDVMVICQGIEIPWHMLLYDLYSKLRSFDGFLYITLVPI-NDIKQLLWNGELNVLVSIDPSFLMKGSPREIAVLRIRVPRETYLVNYMPLIWNKIKSFLSFDPLTDSEKYFWFEHNKTPIPWNYPVGVLFDCLADVLTFLRIHLVMGDSLPPTIIPIAKTQAEKFWFHQWKQVCFILNGSSKAIMSLSVNEARKFWGSVITRNFQDFIEISNKISSSRPRHIPLIIQTSRTSGTFRISQPTISMTGVNPTLKDIEGDILDVKEDVMVICQGIEIPWHMLLYDLYSKLRSFDGFLYITLVPI-NDIKQLLWNGELNVLVSIDPSFLMKGSPREIAVLRIRVPRETYLVNYMPLIWNKIKSFLSFDPLTDSEKYFWFEHNKTPIPWNYPVGVLFDCLADVLTFLRIHLVMGDSLPPTIIPIAKTQAEKFWFHQWKQVCFILNGSSKAIMSLSVNEARKFWGSVITRNFQDFIEISNKISSSRPRHIPLIIQTSRTSGTFRISQPTISMTGVNPTLKDIEGDILDVKEDVMVICQGIEIPWHMLLYDLYSKLRSFDGFLYITLVPI-NDIKQLLWNGELNVLVSIDPSFLMKGSPREIAVLRIRVPRETYLVNYMPLIWNKIKSFLSFDPLTDSEKYFWFEHNKTPIPWNYPVGVLFDCLADVLTFLRIHLVMGDSLPPTIIPIAKTQAEKFWFHQWKQVCFILNGSSKAIMSLSVNEARKFWGSVITRNFQDFIEISNKISSSRPRHIPLIIQTSRTSGTFRISQPTISMTGVNPTLKDIEGDILDVKEDVMVICQGIEIPWHMLLYDLYSKLRSFDGFLYITLVPI-NDIKQLLWNGELNVLVSIDPSFLMKGSPREIAVLRIRVPRETYLVNYMPLIWNKIKSFLSFDPLTDSEKYFWFEHNKTPIPWNYPVGVLFDCLADVLTFLRIHLVMGDSLPPTIIPIAKTQAEKFWFHQWKQVCFILNGSSKAIMSLSVNEARKFWGSVITRNFQDFIEISNKISSSRPRHIPLIIQTSRTSGTFRISQPTISMTGVNPTLKDIEGDILDVKEDVMVICQGIEIPWHMLLYDLYSKLRSFDGFLYITLVPI-NDIKQLLWNGELNVLVSIDPSFLMKGSPREIAVLRIRVPRETYLVNYMPLIWNKIKSFLSFDPLTDSEKYFWFEHNKTPIPWNYPVGVLFDCLADVLTFLRIHLVMGDSLPPTIIPIAKTQAEKFWFHQWKQVCFILNGSSKAIMSLSVNEARKFWGSVITRNFQDFIEISNKISSSRPRHIPLIIQTSRTSGTFRISQPTISMTGVNPTLKDIEGDILDVKEDVMVICQGIEIPWHMLLYDLYSKLRSFDGFLYITLVPI-NDIKQLLWNGELNVLVSIDPSFLMKGSPREIAVLRIRVPRETYLVNYMPLIWNKIKSFLSFDPLTDSEKYFWFEHNKTPIPWNYPVGVLFDCLADVLTFLRIHLVMGDSLPPTIIPIAKTQAEKFWFHQWKQVCFILNGSSKAIMSLSVNEARKFWGSVITRNFQDFIEISNKISSSRPRHIPLIIQTSRTSGTFRISQPTISMTGVNPTLKDIEGDILDVKEDVMVICQGIEIPWHMLLYDLYSKLRSFDGFLYITLVPI-NDIKQLLWNGELNVLVSIDPSFLMKGSPREIAVLRIRVPRETYLVNYMPLIWNKIKSFLSFDPLTDSEKYFWFEHNKTPIPWNYPVGVLFDCLADVLTFLRIHLVMGDSLPPTIIPIAKTQAEKFWFHQWKQVCFILNGSSKAIMSLSVNEARKFWGSVITRNFQDFIEISNKISSSRPRHIPLIIQTSRTSGTFRISQPTISMTGVNPTLKDIEGDILDVKEDVMVICQGIEIPWHMLLYDLYSKLRSFDGFLYITLVPI-NDIKQLLWNGELNVLVSIDPSFLMKGSPREIAVLRIRVPRETYLVNYMPLIWNKIKSFLSFDPLTDSEKYFWFEHNKTPIPWNYPVGVLFDCLADVLTFLRIHLVMGDSLPPTIIPIAKTQAEKFWFHQWKQVCFILNGSSKAIMSLSVNEARKFWGSVITRNFQDFIEISNKISSSRPRHIPLIIQTSRTSGTFRISQPTISMTGVNPTLKDIEGDILDVKEDVMVICQGIEIPWHMLLYDLYSKLRSFDGFLYITLVPI-NDIKQLLWNGELNVLVSIDPSFLMKGSPREIAVLRIRVPRETYLVNYMPLIWNKIKSFLSFDPLTDSEKYFWFEHNKTPIPWNYPVGVLFDCLADVLTFLRIHLVMGDSLPPTIIPIAKTQAEKFWFHQWKQVCFILNGSSKAIMSLSVNEARKFWGSVITRNFQDFIEISNKISSSRPRHIPLIIQTSRTSGTFRISQPTISMTGVNPTLKDIEGDILDVKEDVMVICQGIEIPWHMLLYDLYSKLRSFDGFLYITLVPI,EEEEYIPLPW-EEEEYIPLPY-VKDEYIPRPW-EEEEYIPRPW-EEEEYIPRPW-EEEEYIPRPW-EEEEYIPLPW-EEEEYIPLPW-EEEEYIPLPW-EEEEYIPLPW,INNSFAPSPQ-INNSFAPSPQ-INNSFAPSPQ-INNSFAPSPQ-INNSFAPSPQ-INNSFAPSPQ-INNSFAPSPQ-INNSFAPSPQ-INNSFAPSPQ-INNSFAPSPQ
