contacts,cs,ce,Chain,Length,designed_receptor_seq,native_receptor_seq,designed_binder_seq,native_binder_seq
17.0,126,136,A,10,GPMIKIEFVPEGESIEVDESMQFSELLELLKKKLNREDVICRINNKFTPDPSDNVGELHKQFNQNGKLKIYYSEPL-MPEISVLLNPLGNKIKVSKNITFAEIVELLRKKLNRDDIYCFINNKFSPKPSENIGELHDKFNVDGNLIISYFKPN-MPKIKIKWQPLGSLVEVDENVQFAEVLALLKDKEKTDKVFLFINNKFSPHPDENVGDLHKKFNVNGELIVSYAKPL-GPMIKINFVPKGQSVEVDESITFNEVVSFLRSKLNKDDIFCFINNKFSPNPTENIGELHKRFNVNGELKIHYFNPV-SPKIWISFCPEGERVQVDRSIKFSELVEMLQKKLNRSDVHCYINNKFAPNPEENVGELHDRFNENGELKVYYLQPL-MPKIKIRFEPKGKVFEVDRNIRFQEVKEFLKSKLKKDDIFLSINDKFIPNPDENIGELWDRFNVDGYLIVSYSEPS-MPRLKIAFVPKDSIVEVDESIKFSELLEFLRERKNKKNIFCYINNKFAPRPERNVGELHRLFNVNGLLKVYYTDPL-APRIKVLFQPVGKDVEVEASMQFAQLVELLRKQNKRDDLICRINNKFIPDPSENVGKLHDEFNKEGKLVVSYSTPL-MPSVRISLVPVGESYEVDEEISFQELVTLLRSKKKREDLFCFINNQFSPSPSENVGELHKRFNVKGELKVYYTEPR-MPTLTVRFQPVGKTIEVADDITFAELVDFLRKQLKQDDVVCLINNAFEPDPSENVGVLHQTFNVDGELVVNFTTPF,IQKIQIKFQPIGSVCKISMSQSFAMVILFLKRRLKMDHVYCYINNSFAPSPQQNIGELWMQFKTNDELIVSYCAFG-IQKIQIKFQPIGSVCKISMSQSFAMVILFLKRRLKMDHVYCYINNSFAPSPQQNIGELWMQFKTNDELIVSYCAFG-IQKIQIKFQPIGSVCKISMSQSFAMVILFLKRRLKMDHVYCYINNSFAPSPQQNIGELWMQFKTNDELIVSYCAFG-IQKIQIKFQPIGSVCKISMSQSFAMVILFLKRRLKMDHVYCYINNSFAPSPQQNIGELWMQFKTNDELIVSYCAFG-IQKIQIKFQPIGSVCKISMSQSFAMVILFLKRRLKMDHVYCYINNSFAPSPQQNIGELWMQFKTNDELIVSYCAFG-IQKIQIKFQPIGSVCKISMSQSFAMVILFLKRRLKMDHVYCYINNSFAPSPQQNIGELWMQFKTNDELIVSYCAFG-IQKIQIKFQPIGSVCKISMSQSFAMVILFLKRRLKMDHVYCYINNSFAPSPQQNIGELWMQFKTNDELIVSYCAFG-IQKIQIKFQPIGSVCKISMSQSFAMVILFLKRRLKMDHVYCYINNSFAPSPQQNIGELWMQFKTNDELIVSYCAFG-IQKIQIKFQPIGSVCKISMSQSFAMVILFLKRRLKMDHVYCYINNSFAPSPQQNIGELWMQFKTNDELIVSYCAFG-IQKIQIKFQPIGSVCKISMSQSFAMVILFLKRRLKMDHVYCYINNSFAPSPQQNIGELWMQFKTNDELIVSYCAFG,EQKANMEKVR-DQKENMEKQL-KQKELMMRYL-QEKENMEAEL-TQEERKKYYE-SLKERKEKKE-SQEEREKKEL-QLAANKKALL-IQKENMERVE-DQKLLKELAL,FHQWKQVCFI-FHQWKQVCFI-FHQWKQVCFI-FHQWKQVCFI-FHQWKQVCFI-FHQWKQVCFI-FHQWKQVCFI-FHQWKQVCFI-FHQWKQVCFI-FHQWKQVCFI
25.0,42,52,B,10,SDIRREIWNGTYSVNIYIDDSFLKKGAPESVKKLEMKIPAESYLADYIPDIIEKIQDYLDFNPFFSDEKFMYFMVENKPLPWDYPVGVTYDRIFPPEKFLSLELKMSKELPPNIIPLTENDVKKRWFNRWKEVCYILHGSADKINSLTEEEKDAFYQSIIERDFDTYIRISSKISSEEPLNIPLIVATERSSGEFFQIRPVISMIGKDPTLKDIEDQILKVENPYDIIVNGELIPYDTKLKDLYLKKREFDGFLYITLKPK-VDVKKQLWNGTISVNVNIDDSFLKSGAPEEVRVLSLQIPFDSYLVNFYPTIWKKIKDYLNFDYENDTKKYVYFSYKNKPIPWDLSVGVIYDSIKPPADYLSLKLVMGDKLPPNILPLIENNVEDVWFERWREVCFILHGSADKINNLTIDEKKAYWNSIKERDYETYIEISSKISSKNPKEIPLIVSTRRNTGQYFSISPKISMEGKNPTLKDIEGEILEVAKNVDVIVQGMLVPYDMKLYDLYANLRSFDGFLYVTLTPP-MDIKKQLWNGKLRVEVNIDDSFLKEGAPEEVRKLTLEIPYESYLENYLPLIWKKIKDYLNFNPFDDSEFFVYFVYKDKPLPWDLPVGVLYDRLKIPEEKLIIKLVMGKKLPPRILPLLENNTEKRWFQRWREVCYILHGTAEKIESLSEEEKEKWYNSIIKRDFETFIRISSKISSSNPLEIPLIVSTLSSEGSFFRIQPKINMKGKNPTLKDIEGEILKVKEPYDIIVSGIKVPRDKKLKDLYETLKDFDGFLYITLVPR-GSHMKSLWEGTYHVKIDVDDSFLKLGSPKEVKVLEMQIPAESYLVDFLPKIWEHIQDYLNFNPIEDEKKYMYFVYKNKPIPWDLSVGTIVDCITPPSEYLELKLVMSDKLPPKIKPLLENSVEYRWFQRWKEVCYILHGTADKINSLSEEEKERFYGSILKRDFDTYSEISSKISSSSPLQIPLVVSTSRSEGIFRIIQPIISMVGKNPTLREIEGDIKSVASPVDIVVQGKSIPYDTKLKDLYEELRDFDGYLYIVLVPP-HHHHHHLWNGTLRVQIEVDDSFLKEGAPEEVRTLQLKIPAQSYLSDFMPLIWEKIRDHLNFDPTDDFQFYVYFTHENKPIPWNLPVGTIADQIQPPQKQLKLKLVMSKELPPRIEPLFENNTQEKWFQRWKEVCYILHGSAEKINSLSEEEKSRFWQSIKERDFETYAEISSKISSENPLYIPLIVSTSRSRGLYFQTSPKISMKGRNPTLKDIMGEILSVSSPLDVICQGKLIPQDTLLYDLYSKLRDFDGFLYITLKPK-GSHMKELWNGCYQVGVHVSEEFLTEGAPEEVRYLKMNIPAQSFLVNYLPKIYQQIKDYLNFDPYSDRTFYTYFVHQEKPVPWDFPVGVIFDTLSPPEEYLSLELKMSEQLPPKIIPTKENSVEKFWFERWREVCFILHGTADRINSLSETEKEVFWGSVLDHDFEAYKEISSKISSKQPLRIPLIVRTSRSTGKFFQISPIIEMKGRNPTLKDILGQVLAVDEPVAVIVQGRLVPEDMLLYDLYTTYRSFDGFLYMVLRPK-SSEKEELWQGKLDVQIHIDDAFLKEGAPEEVKKLELKVPYDSYLVNFLPTIIKKIQSYLNFNPFSSQKFYTYFMIDKKPLPWDFPVGVIYDSYKKPKEELSLKLVMSDQLPPDIIPLFKNDVKQVWFQRWKEVCYILHGTADKINSLSEEEKEKFYGSIINRDFKTFSEISSKISSESPLEIPLIVSTSRKDGEFFQISPVINMKGKNPTLKDIEGEIIKVSEPVKIIVRGMEIPYDTKLYDLYKTLRDFDGFLFIVLKPK-SKVRKKLWEGTYQVIVKISDDFLRSGAPKEARVLNLKIPAESYLVDFLPLIWEKIKDYLNFNPVEDFEFYVYFEYNSKPVPWDYPVGVLFDNYRPPVKELVLELRMSKELPPQITPLLSNSVESRWFERWREVCYILHGSADKIKNLSEDEKQAFWNSIIKRDFETYERISSKISSEKPLEIPLIVRTRRSQGKFKEIEPVISMIGKNPTLRDIEGEILKVEDEYEYIVQGELVPWDTKLYDLYSKYRSFDGFLYITLVPK-GSHMKDLWNGTYEVTIKIDDDFLKEGSPKEVKQLNLKIPSESYLVNFVPRIINKIKDYLNFNPLSDYDFYTYFVINDKPLPWNYPVGVVYDNWKDPEEKLELTLVMSKELPPEIIPLIKNDVKEIWFQRWREVCFILHGSADKINSLSEEEKERFYGSIVERNFEAYKEISSKISSENPKKIPLIVRTSRKNGEFREIKPEISMEGKDPTLKDIMGEILEVAKPIKIIARGMVVPVDMKLKNLYENLRDFDGFLYITLVPK-GSHMEKIWSGTLNVKVKIDQSFLKKGAPEEVRVLELEIPFESYLVDFLPLVWEKIKDHLNFNPLSDFDFYTYFVHKKKPIPWDYPVGVIYDMIVPPEEYLELELVMSDKLPPNIRPLFENDSAEWWFERWREVCFILHGSSDKINSLSEEEKEAFWNSIKKRDFETYKRISSKISSENPKEIPLIVATSRSSGEFYEISPVIKMEGKNPTLKDISGEILKVAKPVKVIVQGKVIPEDILLKDLYETLRSFDGFLYIVLVPE,NDIKQLLWNGELNVLVSIDPSFLMKGSPREIAVLRIRVPRETYLVNYMPLIWNKIKSFLSFDPLTDSEKYFWFEHNKTPIPWNYPVGVLFDCLADVLTFLRIHLVMGDSLPPTIIPIAKTQAEKFWFHQWKQVCFILNGSSKAIMSLSVNEARKFWGSVITRNFQDFIEISNKISSSRPRHIPLIIQTSRTSGTFRISQPTISMTGVNPTLKDIEGDILDVKEDVMVICQGIEIPWHMLLYDLYSKLRSFDGFLYITLVPI-NDIKQLLWNGELNVLVSIDPSFLMKGSPREIAVLRIRVPRETYLVNYMPLIWNKIKSFLSFDPLTDSEKYFWFEHNKTPIPWNYPVGVLFDCLADVLTFLRIHLVMGDSLPPTIIPIAKTQAEKFWFHQWKQVCFILNGSSKAIMSLSVNEARKFWGSVITRNFQDFIEISNKISSSRPRHIPLIIQTSRTSGTFRISQPTISMTGVNPTLKDIEGDILDVKEDVMVICQGIEIPWHMLLYDLYSKLRSFDGFLYITLVPI-NDIKQLLWNGELNVLVSIDPSFLMKGSPREIAVLRIRVPRETYLVNYMPLIWNKIKSFLSFDPLTDSEKYFWFEHNKTPIPWNYPVGVLFDCLADVLTFLRIHLVMGDSLPPTIIPIAKTQAEKFWFHQWKQVCFILNGSSKAIMSLSVNEARKFWGSVITRNFQDFIEISNKISSSRPRHIPLIIQTSRTSGTFRISQPTISMTGVNPTLKDIEGDILDVKEDVMVICQGIEIPWHMLLYDLYSKLRSFDGFLYITLVPI-NDIKQLLWNGELNVLVSIDPSFLMKGSPREIAVLRIRVPRETYLVNYMPLIWNKIKSFLSFDPLTDSEKYFWFEHNKTPIPWNYPVGVLFDCLADVLTFLRIHLVMGDSLPPTIIPIAKTQAEKFWFHQWKQVCFILNGSSKAIMSLSVNEARKFWGSVITRNFQDFIEISNKISSSRPRHIPLIIQTSRTSGTFRISQPTISMTGVNPTLKDIEGDILDVKEDVMVICQGIEIPWHMLLYDLYSKLRSFDGFLYITLVPI-NDIKQLLWNGELNVLVSIDPSFLMKGSPREIAVLRIRVPRETYLVNYMPLIWNKIKSFLSFDPLTDSEKYFWFEHNKTPIPWNYPVGVLFDCLADVLTFLRIHLVMGDSLPPTIIPIAKTQAEKFWFHQWKQVCFILNGSSKAIMSLSVNEARKFWGSVITRNFQDFIEISNKISSSRPRHIPLIIQTSRTSGTFRISQPTISMTGVNPTLKDIEGDILDVKEDVMVICQGIEIPWHMLLYDLYSKLRSFDGFLYITLVPI-NDIKQLLWNGELNVLVSIDPSFLMKGSPREIAVLRIRVPRETYLVNYMPLIWNKIKSFLSFDPLTDSEKYFWFEHNKTPIPWNYPVGVLFDCLADVLTFLRIHLVMGDSLPPTIIPIAKTQAEKFWFHQWKQVCFILNGSSKAIMSLSVNEARKFWGSVITRNFQDFIEISNKISSSRPRHIPLIIQTSRTSGTFRISQPTISMTGVNPTLKDIEGDILDVKEDVMVICQGIEIPWHMLLYDLYSKLRSFDGFLYITLVPI-NDIKQLLWNGELNVLVSIDPSFLMKGSPREIAVLRIRVPRETYLVNYMPLIWNKIKSFLSFDPLTDSEKYFWFEHNKTPIPWNYPVGVLFDCLADVLTFLRIHLVMGDSLPPTIIPIAKTQAEKFWFHQWKQVCFILNGSSKAIMSLSVNEARKFWGSVITRNFQDFIEISNKISSSRPRHIPLIIQTSRTSGTFRISQPTISMTGVNPTLKDIEGDILDVKEDVMVICQGIEIPWHMLLYDLYSKLRSFDGFLYITLVPI-NDIKQLLWNGELNVLVSIDPSFLMKGSPREIAVLRIRVPRETYLVNYMPLIWNKIKSFLSFDPLTDSEKYFWFEHNKTPIPWNYPVGVLFDCLADVLTFLRIHLVMGDSLPPTIIPIAKTQAEKFWFHQWKQVCFILNGSSKAIMSLSVNEARKFWGSVITRNFQDFIEISNKISSSRPRHIPLIIQTSRTSGTFRISQPTISMTGVNPTLKDIEGDILDVKEDVMVICQGIEIPWHMLLYDLYSKLRSFDGFLYITLVPI-NDIKQLLWNGELNVLVSIDPSFLMKGSPREIAVLRIRVPRETYLVNYMPLIWNKIKSFLSFDPLTDSEKYFWFEHNKTPIPWNYPVGVLFDCLADVLTFLRIHLVMGDSLPPTIIPIAKTQAEKFWFHQWKQVCFILNGSSKAIMSLSVNEARKFWGSVITRNFQDFIEISNKISSSRPRHIPLIIQTSRTSGTFRISQPTISMTGVNPTLKDIEGDILDVKEDVMVICQGIEIPWHMLLYDLYSKLRSFDGFLYITLVPI-NDIKQLLWNGELNVLVSIDPSFLMKGSPREIAVLRIRVPRETYLVNYMPLIWNKIKSFLSFDPLTDSEKYFWFEHNKTPIPWNYPVGVLFDCLADVLTFLRIHLVMGDSLPPTIIPIAKTQAEKFWFHQWKQVCFILNGSSKAIMSLSVNEARKFWGSVITRNFQDFIEISNKISSSRPRHIPLIIQTSRTSGTFRISQPTISMTGVNPTLKDIEGDILDVKEDVMVICQGIEIPWHMLLYDLYSKLRSFDGFLYITLVPI,VNNEFIPRPW-VNNEFIPSPY-VNNEYIPKPW-KDNLFIPKPW-KNNQYIPDPR-IPNEYVPSRH-EKKEYIPLPW-VPDEYVPYPF-VPDEYIPLPF-VFDEYIPRPW,INNSFAPSPQ-INNSFAPSPQ-INNSFAPSPQ-INNSFAPSPQ-INNSFAPSPQ-INNSFAPSPQ-INNSFAPSPQ-INNSFAPSPQ-INNSFAPSPQ-INNSFAPSPQ
