contacts,cs,ce,Chain,Length,designed_receptor_seq,native_receptor_seq,designed_binder_seq,native_binder_seq
14.0,29,39,A,10,GMFVTRVNSFESLQLCTQVAQQHYPDHVPICCEPLTGLLTSRRDEALRLAQVHFFLMPATATVAEFREALRTRLQLGPGQQVVVFINGRVPPDDARLGDLYRRHRHPDGFLYVRYAVFDT-GHMVTLVNSFEDLAETTQIARQFFPDFVPICCEPLSGLAHSNEAEVRQLESIKFFLMPATATVEEFQEELRRCLQLGPGQEVRVFINGQLPPLQAKLGDLYREHRHPDGFLYVRYAVFDV-GFYTEEVNSFEDLARETSVARRFFPDYVPICCEPEQGELTSDEAEVLRRASILRFLMPAEATVEEFRQELRRRLELGEGEEVVVFIRGRLPPGNAKLGDLYRLYRDPDGFLYVRYAVYRT-GFYAKEVNSFASLALETQVARHYHPEHVPILCEPVLQSLFSSQALTSLKNQILRFLLPAAATVEEFRQALTERLSLGPNQEVVVFINGRVPPGAAKLGDLYRQHQDPDGFLYVRYAVFEI-GFYTRQVFSFQDLARTTEVARKYYPDHVPICCEPLEGLEFSEEQEEERLKSILFFLMPADATVQEFQQALKERLKLGEGQEVVVFIRGKVPPGDARLGDLYKEHRDPDGFLYVRYAVFEI-GYYITRVNSFEKRAVTTGVAKRFFPDYVPIASEPLSGFFRSSQALEERGRSIHFFLMPATATVSEFREALRKKLKLGDDQEVVVFIRGKVPPDDAKLGELYSRFKDPDGFLYVDYAVFDT-GFYSTYVNTFEKRAQATSICRKYFPRHVPILTEPLVGNRFSLDASRSRRDAIHTFLMPATATVQEFQQALRQKLNLGPGQEVVVFISGQVPPGNARLGDLYRKHKDPDGYLYVRYAVFDT-GMYSTSVNSFEERSLETSIAKMHYPDHVPICCEPLEGLEASAEDEEEAKRRIHRFLMPATATVLEFREALRSKLELGPGQEVVVFIRGKVPPDDARLGDLYSRHQDPDGYLYVRYAVFDT-GMYTTQTNSFELLKLTTSIARKYHPDYVPIACEPLLKLSKTSGDGEETQKSIIFFLMPATSTVLEFEEALRERLQLGPGQEVVTFIAGKVPPKEAKLGDLYKKHAHPDGFLYVRYAVYDV-GMYATEVNTFEERAKATEIAHQFYPDRVPILCEPLEGEEFSEESEEEREKSIHTFLLPATATVQEFQDQLREKLKLGEDEEVRVFINGNVPPMDAKLGDLYREHRHPDGFLYVDYVVFKT,HYRYQYTRSFAERAKETESARLRYPKHIPILCEPTSVRLFSTRQQVQRELDCNKFLLPETATVMEFMMALRQRLLLEEGQAVFVFIGNELPPNSACLGDIYARAKDPDGFLYVSYGVENT-HYRYQYTRSFAERAKETESARLRYPKHIPILCEPTSVRLFSTRQQVQRELDCNKFLLPETATVMEFMMALRQRLLLEEGQAVFVFIGNELPPNSACLGDIYARAKDPDGFLYVSYGVENT-HYRYQYTRSFAERAKETESARLRYPKHIPILCEPTSVRLFSTRQQVQRELDCNKFLLPETATVMEFMMALRQRLLLEEGQAVFVFIGNELPPNSACLGDIYARAKDPDGFLYVSYGVENT-HYRYQYTRSFAERAKETESARLRYPKHIPILCEPTSVRLFSTRQQVQRELDCNKFLLPETATVMEFMMALRQRLLLEEGQAVFVFIGNELPPNSACLGDIYARAKDPDGFLYVSYGVENT-HYRYQYTRSFAERAKETESARLRYPKHIPILCEPTSVRLFSTRQQVQRELDCNKFLLPETATVMEFMMALRQRLLLEEGQAVFVFIGNELPPNSACLGDIYARAKDPDGFLYVSYGVENT-HYRYQYTRSFAERAKETESARLRYPKHIPILCEPTSVRLFSTRQQVQRELDCNKFLLPETATVMEFMMALRQRLLLEEGQAVFVFIGNELPPNSACLGDIYARAKDPDGFLYVSYGVENT-HYRYQYTRSFAERAKETESARLRYPKHIPILCEPTSVRLFSTRQQVQRELDCNKFLLPETATVMEFMMALRQRLLLEEGQAVFVFIGNELPPNSACLGDIYARAKDPDGFLYVSYGVENT-HYRYQYTRSFAERAKETESARLRYPKHIPILCEPTSVRLFSTRQQVQRELDCNKFLLPETATVMEFMMALRQRLLLEEGQAVFVFIGNELPPNSACLGDIYARAKDPDGFLYVSYGVENT-HYRYQYTRSFAERAKETESARLRYPKHIPILCEPTSVRLFSTRQQVQRELDCNKFLLPETATVMEFMMALRQRLLLEEGQAVFVFIGNELPPNSACLGDIYARAKDPDGFLYVSYGVENT-HYRYQYTRSFAERAKETESARLRYPKHIPILCEPTSVRLFSTRQQVQRELDCNKFLLPETATVMEFMMALRQRLLLEEGQAVFVFIGNELPPNSACLGDIYARAKDPDGFLYVSYGVENT,QEVMGPVPLP-EDVCGPVPLL-GRVRGPVPLR-LRLAGPVPLP-AEVKGPVPLP-GKVVGPVPLR-GRVAGPVPLK-GEVRGPIPLP-GSFAGPVPLP-EEEEGPVYLS,AQVRGPIPLP-AQVRGPIPLP-AQVRGPIPLP-AQVRGPIPLP-AQVRGPIPLP-AQVRGPIPLP-AQVRGPIPLP-AQVRGPIPLP-AQVRGPIPLP-AQVRGPIPLP
11.0,80,90,B,10,MIKIYLASENPHKINSASALIVKTALDTGATVYGPVPLPTLKAEVIVRGRTEEVRTHLMMIGIENPTEETIRALDGLKLPEDVKVFIVKG-MITIYLTSENPQEIDAAADLIVNTALRTGAKVEGPIPLPTMKLSSIVKGGRKETRIYRRMIAIRDPTDDTVKAFNGLNLPDGVRVEIITG-PIIISLRSSNPQSINSASAAIVRTALDTGARVAGPVPLPTLHHSITVSGHSEDEQIHRMLIAIEDPTDATLEALDGLELPADVEVEIVQG-MIEIRLYSHNPTELNAATAQIVRTALETGAEVRGPIPLPTLNLQKVVSGRVERTEIHQMMVFIENPTEETFDALNGLDLPEGVQVEIING-MIKIYLESEDPSSIDAAANLIVKTALETGSKVVGPIPLPTLKFTKVWSGGEEREEIYRMIILIEDPTEETIKALEGLEIPEDVRIYIEKE-MIKIFLESENPGEINAASRMIVRTALDTGAEVKGPVPLPTGHFSVLVSGSTEETRIYRMMIIIENPTEETEKALNGLDLPEGVAVHIIRG-MIKISLYSTNPAAIHSASEEIVNTALHTGAKVKGPTPLPTLRLSKIWSGRTEETRIYRMEILITEPTEETIAALNNLNLPEDVTVSIITD-MIEIRLFSQNPQEINAAASLIVNTALRTGAQVKGPIPLPTLKRSIIVSGRTEEIRTYRMVIFIENPTEATEQALKGLELPAGVEVEVMKG-MIKISLYSQNPRKINSASSAIVKTALDTGASVEGPIPLPTLKAKTIWSGGSREERTYQMIILIRDPTKETEEALKGLELPADVKVEIIKE-MIKITLYSENPQEINSAAAAIVNTALKTGAEVKGPVPLPTLHTEKIISGYTDETNTYVIEIAIINPTEKTLSALKNLELPKGVKVEITEG,RIRIRLKAFDHRLIDQATAEIVETAKRTGAQVRGPIPLPTRKERFTVLIDQYEIRTHLRLVDIVEPTEKTVDALMRLDLAAGVDVQISLG-RIRIRLKAFDHRLIDQATAEIVETAKRTGAQVRGPIPLPTRKERFTVLIDQYEIRTHLRLVDIVEPTEKTVDALMRLDLAAGVDVQISLG-RIRIRLKAFDHRLIDQATAEIVETAKRTGAQVRGPIPLPTRKERFTVLIDQYEIRTHLRLVDIVEPTEKTVDALMRLDLAAGVDVQISLG-RIRIRLKAFDHRLIDQATAEIVETAKRTGAQVRGPIPLPTRKERFTVLIDQYEIRTHLRLVDIVEPTEKTVDALMRLDLAAGVDVQISLG-RIRIRLKAFDHRLIDQATAEIVETAKRTGAQVRGPIPLPTRKERFTVLIDQYEIRTHLRLVDIVEPTEKTVDALMRLDLAAGVDVQISLG-RIRIRLKAFDHRLIDQATAEIVETAKRTGAQVRGPIPLPTRKERFTVLIDQYEIRTHLRLVDIVEPTEKTVDALMRLDLAAGVDVQISLG-RIRIRLKAFDHRLIDQATAEIVETAKRTGAQVRGPIPLPTRKERFTVLIDQYEIRTHLRLVDIVEPTEKTVDALMRLDLAAGVDVQISLG-RIRIRLKAFDHRLIDQATAEIVETAKRTGAQVRGPIPLPTRKERFTVLIDQYEIRTHLRLVDIVEPTEKTVDALMRLDLAAGVDVQISLG-RIRIRLKAFDHRLIDQATAEIVETAKRTGAQVRGPIPLPTRKERFTVLIDQYEIRTHLRLVDIVEPTEKTVDALMRLDLAAGVDVQISLG-RIRIRLKAFDHRLIDQATAEIVETAKRTGAQVRGPIPLPTRKERFTVLIDQYEIRTHLRLVDIVEPTEKTVDALMRLDLAAGVDVQISLG,SVVEFENGKI-KTVRFFEGKL-RTVRFTDGRL-IRFALVDGKL-IKVETENGKI-GVFITNEGKI-GVVEFKNGEL-GIVVFENGKI-IFVSFYRGKR-ISVKFLNGKL,AVFVFIGNEL-AVFVFIGNEL-AVFVFIGNEL-AVFVFIGNEL-AVFVFIGNEL-AVFVFIGNEL-AVFVFIGNEL-AVFVFIGNEL-AVFVFIGNEL-AVFVFIGNEL
