contacts,cs,ce,Chain,Length,designed_receptor_seq,native_receptor_seq,designed_binder_seq,native_binder_seq
14.0,39,49,A,10,GSPESCPICSKVFPPSWSSEDIDAHLKNCLKASKEKLEG-GSPEKCPICSKVFPPSWTTEDIDAHLKNCLKASKEKLTG-GSPESCPICSKVFPPSWSSEDIDAHLKNCLKASKEKLTP-GSPESCPICSKVFPPSWSSADIDAHLANCLAASSEVLEP-GSPESCPICSTVFPPSWTSEDIDAHLANCLAASSERLTG-GSPESCPICSVVFPPEWTAEDIDAHLRNCLAASEERLTG-GSPESCPICSVVFPPSWSSEDIDAHLANCLAASSERLSP-GSPESCPICSKVFPPSWSSEDIDAHLKECLKASKEKLEG-GSPESCPICSVVFPPEWTAEDIDAHLARCLAASEERLEG-GSPESCPICSVVFPPEWSSEDIDAHLANCLAASEEELEP,AALRSCPMCQKEFAPRLTQLDVDSHLAQCLAESTEDVTW-AALRSCPMCQKEFAPRLTQLDVDSHLAQCLAESTEDVTW-AALRSCPMCQKEFAPRLTQLDVDSHLAQCLAESTEDVTW-AALRSCPMCQKEFAPRLTQLDVDSHLAQCLAESTEDVTW-AALRSCPMCQKEFAPRLTQLDVDSHLAQCLAESTEDVTW-AALRSCPMCQKEFAPRLTQLDVDSHLAQCLAESTEDVTW-AALRSCPMCQKEFAPRLTQLDVDSHLAQCLAESTEDVTW-AALRSCPMCQKEFAPRLTQLDVDSHLAQCLAESTEDVTW-AALRSCPMCQKEFAPRLTQLDVDSHLAQCLAESTEDVTW-AALRSCPMCQKEFAPRLTQLDVDSHLAQCLAESTEDVTW,EEVVIKDGKI-KKVTIKDGKI-KKVVIKDGKI-EEVVIEDGKI-PPVVIRDGQL-PPVVIRDGQL-PPVVIRDGQI-GEVVIKDGKL-PPVVIRDGRL-EEVVIEDGEI,QQRLIFAGKQ-QQRLIFAGKQ-QQRLIFAGKQ-QQRLIFAGKQ-QQRLIFAGKQ-QQRLIFAGKQ-QQRLIFAGKQ-QQRLIFAGKQ-QQRLIFAGKQ-QQRLIFAGKQ
24.0,21,31,B,10,MQIFVKTLTGKTITLEVEPSDTIENVKAKIQDKEGIPPDQQRLIFAGKQLEDGRTLSDYNIQKESTLHLVLRLRGG-MQIFVKTLTGKTITLEVEPSDTIENVKAKIQDKEGIPPDQQRLIFAGKQLEDGRTLSDYNIQKESTLHLVLRLRGG-MQIFVKTLTGKTITLEVEPSDTIENVKAKIQDKEGIPPDQQRLIFAGKQLEDGRTLSDYNIQKESTLHLVLRLRGG-MQIFVKTLTGKTITLEVEPSDTIENVKAKIQDKEGIPPDQQRLIFAGKQLEDGRTLSDYNIQKESTLHLVLRLRGG-MQIFVKTLTGKTITLEVEPSDTIENVKAKIQDKEGIPPDQQRLIFAGKQLEDGRTLSDYNIQKESTLHLVLRLRGG-MQIFVKTLTGKTITLEVEPSDTIENVKAKIQDKEGIPPDQQRLIFAGKQLEDGRTLSDYNIQKESTLHLVLRLRGG-MQIFVKTLTGKTITLEVEPSDTIENVKAKIQDKEGIPPDQQRLIFAGKQLEDGRTLSDYNIQKESTLHLVLRLRGG-MQIFVKTLTGKTITLEVEPSDTIENVKAKIQDKEGIPPDQQRLIFAGKQLEDGRTLSDYNIQKESTLHLVLRLRGG-MQIFVKTLTGKTITLEVEPSDTIENVKAKIQDKEGIPPDQQRLIFAGKQLEDGRTLSDYNIQKESTLHLVLRLRGG-MQIFVKTLTGKTITLEVEPSDTIENVKAKIQDKEGIPPDQQRLIFAGKQLEDGRTLSDYNIQKESTLHLVLRLRGG,MQIFVKTLTGKTITLEVEPSDTIENVKAKIQDKEGIPPDQQRLIFAGKQLEDGRTLSDYNIQRESTLHLVLRLRGG-MQIFVKTLTGKTITLEVEPSDTIENVKAKIQDKEGIPPDQQRLIFAGKQLEDGRTLSDYNIQRESTLHLVLRLRGG-MQIFVKTLTGKTITLEVEPSDTIENVKAKIQDKEGIPPDQQRLIFAGKQLEDGRTLSDYNIQRESTLHLVLRLRGG-MQIFVKTLTGKTITLEVEPSDTIENVKAKIQDKEGIPPDQQRLIFAGKQLEDGRTLSDYNIQRESTLHLVLRLRGG-MQIFVKTLTGKTITLEVEPSDTIENVKAKIQDKEGIPPDQQRLIFAGKQLEDGRTLSDYNIQRESTLHLVLRLRGG-MQIFVKTLTGKTITLEVEPSDTIENVKAKIQDKEGIPPDQQRLIFAGKQLEDGRTLSDYNIQRESTLHLVLRLRGG-MQIFVKTLTGKTITLEVEPSDTIENVKAKIQDKEGIPPDQQRLIFAGKQLEDGRTLSDYNIQRESTLHLVLRLRGG-MQIFVKTLTGKTITLEVEPSDTIENVKAKIQDKEGIPPDQQRLIFAGKQLEDGRTLSDYNIQRESTLHLVLRLRGG-MQIFVKTLTGKTITLEVEPSDTIENVKAKIQDKEGIPPDQQRLIFAGKQLEDGRTLSDYNIQRESTLHLVLRLRGG-MQIFVKTLTGKTITLEVEPSDTIENVKAKIQDKEGIPPDQQRLIFAGKQLEDGRTLSDYNIQRESTLHLVLRLRGG,GDLRQAFQEA-GDLRMAFQEA-GDLRMAFQEA-GDLRQAFQEA-GDLRQAFQEA-GDLRQAFQEA-GDLRQAFQEA-GDLRQAFQEA-GDLRQAFQEA-GDLRQAFQEA,VDSHLAQCLA-VDSHLAQCLA-VDSHLAQCLA-VDSHLAQCLA-VDSHLAQCLA-VDSHLAQCLA-VDSHLAQCLA-VDSHLAQCLA-VDSHLAQCLA-VDSHLAQCLA
