contacts,cs,ce,Chain,Length,designed_receptor_seq,native_receptor_seq,designed_binder_seq,native_binder_seq
18.0,63,73,A,10,GSHMRSLISQIYNGPLGRQLVQELTLKIESVDKTPESERILQMEEETRSIILKLATEKYIRTLIRGSNTKKEDFMKRLMAILPYLQKHKVDFIIMKSAFELAYNIVS-AHRLASLIEDIYFGPLGDKLVEKLRIEILNMEKTPESEEILNMKEEVRDEILKRRTEIFLRNMIKGEDTKKEDFEKRLEEIRPYLEKNKVDEVIAKRAFELAYEIVD-GSHMDTLINDIFNGPKGDQLVEELTKKIRDMEETPESRMILNMEEEVRKEILKRATEFHIRNLIQGEDTKKEDFRKRFEEIKPYLEKHKVEKVIMQEAFKLAERIVS-GSHMDTLISEIFSGPIGDQLVSSLTQKIKDMSETPESKKIMNLESKIRETILKKATELHIKTFIKGEDTKRKDFLKKLKEIEPYLQKNKVDSIIAKEAFKLSFEIVD-GHMKEELIKEIFYGPIGDRLVEKLTKKIKDMEETPESREIMNLEEEVKSIILKLATERHINNLISGDNTKDKDFKRRLEEIKPYLEKHKVEEVIMKEAYELAKEIVS-SNALETLINEIFNGPTGDELVNNLNQEITNMKQTPESKEIQNLKQDIRTEILKRATENHLRNMIKGDDTKNSDFKKRFDDIKPYLEKNKVDEVIFKRALKLATAIVD-ASNLETLINEIHHGPLGDKLVATLTQKIKDMKSTPESVKIQNMDEKVRSTILKMATEYFLRTFIKGKDTKKSDFKKRYNDILPFLKKHKVDRVIAEEAFKLAYDIVS-GMLKDSLIDDIFNGPLGDKLVKKLENEIKSMEETPKSKEIMNMESDVREEILKLATEYHINNLIDGDDTKIEDFKERLEKIKPFLEKNEVDKVIMDEAYKLSKEIVT-SSMLETLINSIYNGPQGDELVETLSRKIQSMEETPESQRILNMDRNVRRIILKLATEHHLRNLINGDDTTREDFLERLQNIRPYLEEHKVELVIMEEAFKLASAIVD-SNALATLIDEIFNGPLGDQLVTSLTKKIKDMEKTPYSDEIMNMETETRTEILKRATELHLRTLIIGDDTKDEDFQKRLDQIKPYLEKHAVDKVIMEEAYKLALKIVQ,HHMLETLINKIYTGPLGEELVQTLYLRIWAMEETPESLKILQMREDIRDQVLKMKTERWLRTLIRGEKTKLKDFQKRYEEVHPYLMKEKVEQVIMEEAWSLAAHIVQ-HHMLETLINKIYTGPLGEELVQTLYLRIWAMEETPESLKILQMREDIRDQVLKMKTERWLRTLIRGEKTKLKDFQKRYEEVHPYLMKEKVEQVIMEEAWSLAAHIVQ-HHMLETLINKIYTGPLGEELVQTLYLRIWAMEETPESLKILQMREDIRDQVLKMKTERWLRTLIRGEKTKLKDFQKRYEEVHPYLMKEKVEQVIMEEAWSLAAHIVQ-HHMLETLINKIYTGPLGEELVQTLYLRIWAMEETPESLKILQMREDIRDQVLKMKTERWLRTLIRGEKTKLKDFQKRYEEVHPYLMKEKVEQVIMEEAWSLAAHIVQ-HHMLETLINKIYTGPLGEELVQTLYLRIWAMEETPESLKILQMREDIRDQVLKMKTERWLRTLIRGEKTKLKDFQKRYEEVHPYLMKEKVEQVIMEEAWSLAAHIVQ-HHMLETLINKIYTGPLGEELVQTLYLRIWAMEETPESLKILQMREDIRDQVLKMKTERWLRTLIRGEKTKLKDFQKRYEEVHPYLMKEKVEQVIMEEAWSLAAHIVQ-HHMLETLINKIYTGPLGEELVQTLYLRIWAMEETPESLKILQMREDIRDQVLKMKTERWLRTLIRGEKTKLKDFQKRYEEVHPYLMKEKVEQVIMEEAWSLAAHIVQ-HHMLETLINKIYTGPLGEELVQTLYLRIWAMEETPESLKILQMREDIRDQVLKMKTERWLRTLIRGEKTKLKDFQKRYEEVHPYLMKEKVEQVIMEEAWSLAAHIVQ-HHMLETLINKIYTGPLGEELVQTLYLRIWAMEETPESLKILQMREDIRDQVLKMKTERWLRTLIRGEKTKLKDFQKRYEEVHPYLMKEKVEQVIMEEAWSLAAHIVQ-HHMLETLINKIYTGPLGEELVQTLYLRIWAMEETPESLKILQMREDIRDQVLKMKTERWLRTLIRGEKTKLKDFQKRYEEVHPYLMKEKVEQVIMEEAWSLAAHIVQ,ELLRKSVELE-ELRELSKKLE-KLLRLSEKLR-KLEKLSTELK-KLEEISKKLK-FLKKVAEDLK-KLSKKAKQLE-DLKKKAEELE-VLEEVSRLLQ-ELKETAKKLK,LDDQYSRFSL-LDDQYSRFSL-LDDQYSRFSL-LDDQYSRFSL-LDDQYSRFSL-LDDQYSRFSL-LDDQYSRFSL-LDDQYSRFSL-LDDQYSRFSL-LDDQYSRFSL
19.0,48,58,B,10,STLWEELQTLEEEHLKKIDKLYSNRFPRFIAKELAKEIEKEDWKKASQDEKLATKLFNDLLNELLTAYERFEKENNTNNQRRIKDAISRLVSDYSKVPINMARVIESVLSDMKKILKEAEENKK-MTLWERLQTLGDEHLKKIDRLYVNSFPRFIMRVLADWIERQDWLRASQDEAYATVLFYDLLRELLVAYEKFAAEKDQRNMELIQKARRDLVRDYQAEPITMARVVHSVLTEERKILDEAEEDEK-MTLWERLQSLHKEHLAKVDALYQNTFPRFVMRELAEWIEKQDWFRASQDEEYATRLFWDLIEELLKAYQVYRLQKDEERCKKIQRARRKLIQDYQAKPIEMAKTIYEVLKQMQKIMQEAEQDAR-STLWNRLGTMDEEFLRKIDELYRDTFPRFVMKELAVWIEKQDWLKASQDEELATVLFYDLLDQLLDAYEVYKLENDDDRCATIKQARKELIEDYSKNPIELAKIVASVLEKEREILKEAIEFKG-MSLWEEIQKLEKRHLKKVDRLFKDSFPRFIMKELAEWIEKIDWEKASNDKELATKYFYELLDQLLEAYEKYQREKNEFRMKEIKRARRKLIEEYSKNPIEMAKVIASELKQMREILKEAREEKE-MTLTERLSTLEVKHLEKVRALYKNTFPKFVAEVLAEWIEEQDWYRASNNEEIATIYFHNLLNELLDAYEVFSEQNDTYKMEKIKTAIKKLEKDYSKDPIEMAKIINSVLFEEKRILEEAIKYEK-MSLIEQLETMEEKHLRKVDRLYQDNVPRFIRRVLADWIEQQDWTQAANDDQLATQLFWQLIDQLHLAYAKYKAEEDKQRQAQITKAREQLVRDYQATPITLAKKVAWVLDQEQKILDQYHQDLQ-ASMWSQIQTLREKHLKKVDALFRNTVPRFVMEALSSWIEKQDWRKASQDEQLATQYFYDLLDQLLEAYETYKREKDEVKMSKIKTARRNLVNDYSADPIRLAKKIDKVLYEMKEILDEAIIDSV-MTLYEELQTLKEKHLKKIDKLFQNNFPKFIFKVLAEEIEKVDWLKAANDEEYATKLFYDLLKWLLIAHSVYKKESDIYKMKKIKEAIKELIKNYSEKPIEMAKTIHFVLKKMEEILQEAREDAE-MSLWTELNTMKQEHLQKVDKLFKNTFPRFVMKVLAEWIEKQDWKQASQNEELATVYFYDLLDQLLVAYEIFEKENDDEKCATISIAMKKLMVDYSKTPIKMAQTIHKVLTKMRAIKEEYEENKT,MSQWYELQQLDSKFLEQVHQLYDDSFPMEIRQYLAQWLEKQDWEHAANDVSFATIRFHDLLSQLDDQYSRFSLENNFLLQHNIRKSKRNLQDNFQEDPIQMSMIIYSCLKEERKILENAQRFNQ-MSQWYELQQLDSKFLEQVHQLYDDSFPMEIRQYLAQWLEKQDWEHAANDVSFATIRFHDLLSQLDDQYSRFSLENNFLLQHNIRKSKRNLQDNFQEDPIQMSMIIYSCLKEERKILENAQRFNQ-MSQWYELQQLDSKFLEQVHQLYDDSFPMEIRQYLAQWLEKQDWEHAANDVSFATIRFHDLLSQLDDQYSRFSLENNFLLQHNIRKSKRNLQDNFQEDPIQMSMIIYSCLKEERKILENAQRFNQ-MSQWYELQQLDSKFLEQVHQLYDDSFPMEIRQYLAQWLEKQDWEHAANDVSFATIRFHDLLSQLDDQYSRFSLENNFLLQHNIRKSKRNLQDNFQEDPIQMSMIIYSCLKEERKILENAQRFNQ-MSQWYELQQLDSKFLEQVHQLYDDSFPMEIRQYLAQWLEKQDWEHAANDVSFATIRFHDLLSQLDDQYSRFSLENNFLLQHNIRKSKRNLQDNFQEDPIQMSMIIYSCLKEERKILENAQRFNQ-MSQWYELQQLDSKFLEQVHQLYDDSFPMEIRQYLAQWLEKQDWEHAANDVSFATIRFHDLLSQLDDQYSRFSLENNFLLQHNIRKSKRNLQDNFQEDPIQMSMIIYSCLKEERKILENAQRFNQ-MSQWYELQQLDSKFLEQVHQLYDDSFPMEIRQYLAQWLEKQDWEHAANDVSFATIRFHDLLSQLDDQYSRFSLENNFLLQHNIRKSKRNLQDNFQEDPIQMSMIIYSCLKEERKILENAQRFNQ-MSQWYELQQLDSKFLEQVHQLYDDSFPMEIRQYLAQWLEKQDWEHAANDVSFATIRFHDLLSQLDDQYSRFSLENNFLLQHNIRKSKRNLQDNFQEDPIQMSMIIYSCLKEERKILENAQRFNQ-MSQWYELQQLDSKFLEQVHQLYDDSFPMEIRQYLAQWLEKQDWEHAANDVSFATIRFHDLLSQLDDQYSRFSLENNFLLQHNIRKSKRNLQDNFQEDPIQMSMIIYSCLKEERKILENAQRFNQ-MSQWYELQQLDSKFLEQVHQLYDDSFPMEIRQYLAQWLEKQDWEHAANDVSFATIRFHDLLSQLDDQYSRFSLENNFLLQHNIRKSKRNLQDNFQEDPIQMSMIIYSCLKEERKILENAQRFNQ,ANVAKLKEAL-DPVAELRKAL-AAVAALREEM-EDVEKLRKEI-KDVEELRKKM-EEVRNLRKKL-QQVAQLRQQA-EDIAALRKAM-EDVKKLEKEI-AQVEKLRKKR,DQVLKMKTER-DQVLKMKTER-DQVLKMKTER-DQVLKMKTER-DQVLKMKTER-DQVLKMKTER-DQVLKMKTER-DQVLKMKTER-DQVLKMKTER-DQVLKMKTER
