contacts,cs,ce,Chain,Length,designed_receptor_seq,native_receptor_seq,designed_binder_seq,native_binder_seq
16.0,6,16,A,10,SQGSLTQPRPTGEQNEDEKKYLEERAKKEEEEEKRK-MFGTLFIPRPAGTRNLLQVLALAVLVLLIAVLLIVR-SFGSLFKPRPAGSLNKHEKEALAQRKKAKAEKEKQA-YKGALTRPRPAGTENEGQKEARAKAAKKKAAKKKAA-ADGTLFTPKPKGTENKYEKQHQAVYAQAVKKAQKKA-MFGSLFLPEPKGERNLFERIAVLVSAILVVVLLLIV-MEGALTFPRPSGEVNAFEAEAAAVRAKRIARLEAKF-MEGALTQPLPEGQRNDAQTRFEAERAAAIAREEARA-GYGSLTVPRPAGQLNEAERLARAREAKAREAEEARR-SEGALTKPKPEGEMNAAEKEALAKLAKEREELEKAK,SEGSTGTPRGSGSEDSFVKRARATEDFFVRQREKEQ-SEGSTGTPRGSGSEDSFVKRARATEDFFVRQREKEQ-SEGSTGTPRGSGSEDSFVKRARATEDFFVRQREKEQ-SEGSTGTPRGSGSEDSFVKRARATEDFFVRQREKEQ-SEGSTGTPRGSGSEDSFVKRARATEDFFVRQREKEQ-SEGSTGTPRGSGSEDSFVKRARATEDFFVRQREKEQ-SEGSTGTPRGSGSEDSFVKRARATEDFFVRQREKEQ-SEGSTGTPRGSGSEDSFVKRARATEDFFVRQREKEQ-SEGSTGTPRGSGSEDSFVKRARATEDFFVRQREKEQ-SEGSTGTPRGSGSEDSFVKRARATEDFFVRQREKEQ,EERRKAEEEK-GGLAPALAAL-AAAAAAAAAA-KKKAAAKKKA-AAKKAAKKAA-DGIAAALAEY-EELAPALAAL-AAEVEAAEVE-AAAAAAAAAA-AKAAEAEKAK,EMRLKSIKNI-EMRLKSIKNI-EMRLKSIKNI-EMRLKSIKNI-EMRLKSIKNI-EMRLKSIKNI-EMRLKSIKNI-EMRLKSIKNI-EMRLKSIKNI-EMRLKSIKNI
13.0,0,10,B,10,MTLEEIKQKLLAISQDYIEKTIRAEKAGKELAKAQGLLVEATEQFKESTSFLEKADVKEKTLIIAVGSDADEAGDVHEKLAAKVLEYLKENPNADIVAIGSKIEEELSKEVPDNIVKTFTGVGKDLPTYKMASDITKELFETIKAEEYPEIKIFFNYPVSEETSEPGETSIFGAETIKKAPNADLFEIDFTKDVPKTLFEASLAGLLLFAMSASYAASITNAAAENKNKAAEAGLEINKLGKEYNKKLKKEKVEKKLEEIKNKID-MTLEEIKRKLDAIKLQREIETQKAQERGVEAEEAKNRFIEAEERYKELLEKEKEFRVENEELLIVVGSDEEEAGDVHEKLAEKVLEYLEKNPDANIVAIGKKIYEELSKKVPKNIIKVVTGVGKNIPTYSMAYEISEELFEKVNAYDYEKIYIFYNYPVSDEKFIPELTEIYGAETIKKAPNYNDFEIDEEKDIPEKLFEKTLAGTLLYAMNSGYLARITAARREHREKAKEAEEKIKELEKKYEEERKREEIEKRIEELLKKIP-MTLEQIKEKLFAVTEKFRDETKKAEELKVKLEEAEGEFEKATRAMEALLEKERKWKVKDKELIVVVGSDIDNAGEVAERLAKEVLKYLEKNPKSDIVAIGSKIYEELKKKVPDNIKKTFYGVGEKLPTFDEAEKIAKELLEEINAYEYPRIKIFYNEPVSDTEFKPGETEIFGAERLKEAPNYGEEEIDEEKEVPEKEFEERLKGTLLYAMNASYRAQIMAAAREHEKKAKEAGEEIEKLGKEYEEKLKEEKIKKEVERILKEIP-MTLEEIRRRLLAIEEKKEEKTKEAEKAGVEIEKARELAKEAEKAYEEMFEFEKIADVREGELLVVVGSDQEDAGEVHEKLAEKVLEYLKENPEAKIVAIGKKIYEQLSKEVPENIVFVVTGVGAELPTYDEAKKIAEKLLEEVNAEKYKKIKIFYNFPVSDTEFKPEETEIYGAKELEEAPNYGILEIDEEKPVPELLFEAKLAGLLLYAMNLSYLAELTAAKEEYEGKAKEAEKEIEELEKEYEEKKKEEIVRKEIERILNEVP-GSLEEISRRLLAISYGKKLTTFNAEVAGHNLRKARGAFAKAEEARKELLKIEEEADIRGDELLVVVGSDQANEGEVHTTLAEAVLERLKKNPTANIVAIGKMIEEELSKEVPNNIILSITGVGAAAPTFEEAEKIAKTLLDTVNASNYPEILIFYNEPVTDTTSVPGETSIFGAEKLKQAPNYNKIALEEDKPVPEELFKTKLAGTLLYAMQATFRASLTNAQKTFEEKAREASERIEELGKEFEEQRKKEIIDKNIKIIEGKIP-GSLEEITNRLLAIKEERRLKAERAEELKQRREEAEKLAEAAEEEYKKLLEFEEVADVKEDELIVVVGSDEEDSGEIHTTLAQKVLEYLKKNPKAKIVTIGKKIYEELKKEVPSNIILEVTGIGAKAPSFDLAKEISEKLLKEVNAYEYPRIKIFYNEPVSKEEFEPKEVEIFGAKELMKAPNYGLIELDESKPVPEELFKKTLAGTLLYAMNQSYLARITAAERENKDKAKKAEEEINKLMEEYYKKLVEEIIKENIEKIKKEIP-GSLEEITSKLLAVSYQQKLSSAKAEEAAKQIEVARRAAKAAEEEKRQAMEALDAMNVKDTELFVVVTGDIANAGDIASRLAEKTLEALKANPTAKIVTIGTQIHEELSKTVPNNIVLEVTGVGAAQPTFTMASKIADVLFSKVNANNYKNISIFYNEPTTDTEFEPGELKIFGAKTLVAAPNYGKLNIDKTKPVPEMLFKATLAGTLLYAMNQTYLAMLTAAKEKNAEDAKNAGKKIEELGKEYERKLKEEKIKAKIEEIEKLKK-GSLEEIRSRLLAISEKKKITKAKAEALGEKINRAKDLAVAAEKEEIESLKYLEKANIKSGELFVVIGSDIADAGDMHTKLAEAVLKALKENPKAKIVTVGSKIAEELGKVKPDNIIKVFTGIGASTPTFEMASSIAEELLSSVNAEKYDNIKIFYNYPVDDKNFVPGEMKIFNAETLKNAPNFSSIKIDEKKDVPKTLFEETLAKTMLYAMNLSFLAQLSAAEKLNKELAEKAGEEINQLQKEYNNQLKKEIIDANIKIIKGKIN-GSLEEITRDLLAIQEEQKVASRRAEEAGKELEEAREEALRAQERRKELEEKLREWEVKEGELLVVVGSDLSEAGDVHERLAEAALERLKENPEAKIVAIGRKIYEELKKEKPENIVLPFYGVGERKPTFEEAEEIAKKLLEEVKAEEYKNIKIFFLEPTSEESFTPGETEIFGPEELKKAPNFGKEKLDLKKPVPEELFKETLAGKLLYAMNLSYEAEIVAARKEFEGRAQEAGERIEELGKRYEEEERRERIRKELERVERELK-MNLEEITNKLLAITEKRKIESAKSEELGKLLEEAKQEAIKADAEFRQLMEFEEAAKINSKTLIIAVGSDAAEEGTIAQRLAKAVLEYLKENPDANIVAIGSKIKEELEKTVPDNIILSVTGVGKEAPTFKMASDIAATLFTKVKANNYPEIYIFYNEPVSDTEFEPKKTAIYTAKTLEAAPNYGLIQIDTTTPIPELLFKSRLAGTLLYAMKLSYRAQLIAAYKENQGKAEEAGKEIEELGKAFEKELKKQVVEKNVELIENLKN,ATLKEVEMRLKSIKNIEKITKTMKIVASTRLSKAEKAKISAKKMDEAEQLFYKNAETKNKELIVAITSDKGLCGSIHSQLAKAVRRHLNDQPNADIVTIGDKIKMQLLRTHPNNIKLSINGIGKDAPTFQESALIADKLLSVMKAGTYPKISIFYNDPVSSLSFEPSEKPIFNAKTIEQSPSFGKFEIDTDANVPRDLFEYTLANQMLTAMAQGYAAEISARRNAMDNASKNAGDMINRYSILYNRTRQAVITNELVDIITGASS-ATLKEVEMRLKSIKNIEKITKTMKIVASTRLSKAEKAKISAKKMDEAEQLFYKNAETKNKELIVAITSDKGLCGSIHSQLAKAVRRHLNDQPNADIVTIGDKIKMQLLRTHPNNIKLSINGIGKDAPTFQESALIADKLLSVMKAGTYPKISIFYNDPVSSLSFEPSEKPIFNAKTIEQSPSFGKFEIDTDANVPRDLFEYTLANQMLTAMAQGYAAEISARRNAMDNASKNAGDMINRYSILYNRTRQAVITNELVDIITGASS-ATLKEVEMRLKSIKNIEKITKTMKIVASTRLSKAEKAKISAKKMDEAEQLFYKNAETKNKELIVAITSDKGLCGSIHSQLAKAVRRHLNDQPNADIVTIGDKIKMQLLRTHPNNIKLSINGIGKDAPTFQESALIADKLLSVMKAGTYPKISIFYNDPVSSLSFEPSEKPIFNAKTIEQSPSFGKFEIDTDANVPRDLFEYTLANQMLTAMAQGYAAEISARRNAMDNASKNAGDMINRYSILYNRTRQAVITNELVDIITGASS-ATLKEVEMRLKSIKNIEKITKTMKIVASTRLSKAEKAKISAKKMDEAEQLFYKNAETKNKELIVAITSDKGLCGSIHSQLAKAVRRHLNDQPNADIVTIGDKIKMQLLRTHPNNIKLSINGIGKDAPTFQESALIADKLLSVMKAGTYPKISIFYNDPVSSLSFEPSEKPIFNAKTIEQSPSFGKFEIDTDANVPRDLFEYTLANQMLTAMAQGYAAEISARRNAMDNASKNAGDMINRYSILYNRTRQAVITNELVDIITGASS-ATLKEVEMRLKSIKNIEKITKTMKIVASTRLSKAEKAKISAKKMDEAEQLFYKNAETKNKELIVAITSDKGLCGSIHSQLAKAVRRHLNDQPNADIVTIGDKIKMQLLRTHPNNIKLSINGIGKDAPTFQESALIADKLLSVMKAGTYPKISIFYNDPVSSLSFEPSEKPIFNAKTIEQSPSFGKFEIDTDANVPRDLFEYTLANQMLTAMAQGYAAEISARRNAMDNASKNAGDMINRYSILYNRTRQAVITNELVDIITGASS-ATLKEVEMRLKSIKNIEKITKTMKIVASTRLSKAEKAKISAKKMDEAEQLFYKNAETKNKELIVAITSDKGLCGSIHSQLAKAVRRHLNDQPNADIVTIGDKIKMQLLRTHPNNIKLSINGIGKDAPTFQESALIADKLLSVMKAGTYPKISIFYNDPVSSLSFEPSEKPIFNAKTIEQSPSFGKFEIDTDANVPRDLFEYTLANQMLTAMAQGYAAEISARRNAMDNASKNAGDMINRYSILYNRTRQAVITNELVDIITGASS-ATLKEVEMRLKSIKNIEKITKTMKIVASTRLSKAEKAKISAKKMDEAEQLFYKNAETKNKELIVAITSDKGLCGSIHSQLAKAVRRHLNDQPNADIVTIGDKIKMQLLRTHPNNIKLSINGIGKDAPTFQESALIADKLLSVMKAGTYPKISIFYNDPVSSLSFEPSEKPIFNAKTIEQSPSFGKFEIDTDANVPRDLFEYTLANQMLTAMAQGYAAEISARRNAMDNASKNAGDMINRYSILYNRTRQAVITNELVDIITGASS-ATLKEVEMRLKSIKNIEKITKTMKIVASTRLSKAEKAKISAKKMDEAEQLFYKNAETKNKELIVAITSDKGLCGSIHSQLAKAVRRHLNDQPNADIVTIGDKIKMQLLRTHPNNIKLSINGIGKDAPTFQESALIADKLLSVMKAGTYPKISIFYNDPVSSLSFEPSEKPIFNAKTIEQSPSFGKFEIDTDANVPRDLFEYTLANQMLTAMAQGYAAEISARRNAMDNASKNAGDMINRYSILYNRTRQAVITNELVDIITGASS-ATLKEVEMRLKSIKNIEKITKTMKIVASTRLSKAEKAKISAKKMDEAEQLFYKNAETKNKELIVAITSDKGLCGSIHSQLAKAVRRHLNDQPNADIVTIGDKIKMQLLRTHPNNIKLSINGIGKDAPTFQESALIADKLLSVMKAGTYPKISIFYNDPVSSLSFEPSEKPIFNAKTIEQSPSFGKFEIDTDANVPRDLFEYTLANQMLTAMAQGYAAEISARRNAMDNASKNAGDMINRYSILYNRTRQAVITNELVDIITGASS-ATLKEVEMRLKSIKNIEKITKTMKIVASTRLSKAEKAKISAKKMDEAEQLFYKNAETKNKELIVAITSDKGLCGSIHSQLAKAVRRHLNDQPNADIVTIGDKIKMQLLRTHPNNIKLSINGIGKDAPTFQESALIADKLLSVMKAGTYPKISIFYNDPVSSLSFEPSEKPIFNAKTIEQSPSFGKFEIDTDANVPRDLFEYTLANQMLTAMAQGYAAEISARRNAMDNASKNAGDMINRYSILYNRTRQAVITNELVDIITGASS,EKGALTKPKG-ERGALEKPEG-RSGELERPRG-KKGALEEPEG-IKGALFRPGG-EKGALTIPKG-PIGALEEPRG-AEGALTKPKY-RKGALREPRG-KEGALNQPEG,SEGSTGTPRG-SEGSTGTPRG-SEGSTGTPRG-SEGSTGTPRG-SEGSTGTPRG-SEGSTGTPRG-SEGSTGTPRG-SEGSTGTPRG-SEGSTGTPRG-SEGSTGTPRG
