contacts,cs,ce,Chain,Length,designed_receptor_seq,native_receptor_seq,designed_binder_seq,native_binder_seq
13.0,193,203,A,10,MDAATLAEQLDAALRSLFENGGGDLLLDLVRGSAP-MDAETAASNLQALRASLLANGGGAALLRAVTGAAP-AGAHELRARLRAARDALWADGGGDELLRLVRGAAP-GPHMLRRQRARAARRRLWRDGGGERLLRLVRGGAP-MGKATAKKKAKAAREALFKDGGAEKLLNLVEGSAP-AGAAQRDAELRAARAALLADGGGDALLDAVVGSAP-MDRKTLRKRLTAARRALWSNGGGERLLNLVTGSTP-MGAAEKAAQFRALRESFLQNGGGEALLNIVSGSAP-ADAASAAAAAAAAAAAAFADGGGEAALDAVTGSAP-MDERQKKAFLRELRRSLFEDGGGERLISLVTGSSP,LTEAEKRRLLRERRQKKFSNGGASSRLNKITGQAS-LTEAEKRRLLRERRQKKFSNGGASSRLNKITGQAS-LTEAEKRRLLRERRQKKFSNGGASSRLNKITGQAS-LTEAEKRRLLRERRQKKFSNGGASSRLNKITGQAS-LTEAEKRRLLRERRQKKFSNGGASSRLNKITGQAS-LTEAEKRRLLRERRQKKFSNGGASSRLNKITGQAS-LTEAEKRRLLRERRQKKFSNGGASSRLNKITGQAS-LTEAEKRRLLRERRQKKFSNGGASSRLNKITGQAS-LTEAEKRRLLRERRQKKFSNGGASSRLNKITGQAS-LTEAEKRRLLRERRQKKFSNGGASSRLNKITGQAS,DLLAALQALL-AVLAAVKAAL-ALLRALEAVL-GLEAAVREAL-PLLKALKDLI-ELLAAVREAL-PLLEAVRRLM-QLAEAVKAAL-GALAALQAAL-RLLEAVRSLL,SLYETERLIQ-SLYETERLIQ-SLYETERLIQ-SLYETERLIQ-SLYETERLIQ-SLYETERLIQ-SLYETERLIQ-SLYETERLIQ-SLYETERLIQ-SLYETERLIQ
19.0,24,34,B,10,MPNDLKDIINSKTLKNVFVGGKGGVGKTTSSCAIAIQMAKAQPEKKFLLMSTDPAHNLSDAFGEKFGSQAKLVSGMNNLAMVEIDPAKYLEELQTANIELGVMPGVGESLAFEKILDHIIKKEQNYKDTFDTIIYDTAPTGHTLRFLQLPGRLERMLSGFNNMKIKKLVNKVSDEFTDSNKTTFIGVMEAEFMSLNETVQFIQKMKSFNINVDSIIVNQLLFANDCNMCKARDAVQKKFLDMIDELFKDYHVVKMPLFASEIRGLDNIDKFSKYLNTPFNPEKDGDDIYKLKD-MPNNLKDLITSKTHKNIFVGGKGGVGKSTSSCAIAIQMAKARPEEKFLLMSTDPAHNLSDAFGEEFGSKAKLVKGMDNLAIVEIDPAKFLKELEEMGIELAIMPGVGESLAFEKISEHIKKKENNEKETFDTIIYDTAPTGHTIRFLQLPGRLKEMMEKMEEKEKLEMVEKIDKEFTDSDITTFIGVMTAEYLSLSETVKFIKFLKSENINVDSLIVNQLLFAKGCDLCKKRNLEQNKYMEMIDELFKDYHVVKMPLFADDIRGLRNIELFSKFLYTPFNPEKDGKVVFELKE-MPNNLKDLINSDTHKWIFVGGKGGVGKTTSSCAISIQMALAQPEKKFLLMSTDPAHNLSEAFGEEFGSKAKLVSGMDNLACVEIDPALFLKEMAEMGELLAVMPGIGESLAFAKMMKHIKKKQDNEADTFDTIIFDTAPTGHTVRFLELPGRLSKALKEKDKEEVKKLVGKLQEEFTDEKITEFIGVMTAEYLSLSETVKLIKTLKSFNIEVSSLIVNMLLFADECDLCKKRAEIQNYYMDMIDKLFKDFHVVKMPLFSSEIRGLDNITRFSRFLYTPFDAEKDGKEIFELKD-MPQNLKELIESDTHKWIFVGGKGGVGKSTSSCAIAIQMALAQPEKKFLLMSTDPAHNLSDSFGEKFGKDAKLVSGMDNLSIIEIDPAEFLSDMALLTQELAFMPGIGEAIAFEKMAEHLMKKENKEKDTFDTIIFDTAPTGHTVRFLELPGRLAKRMKNLEMEKMGKLIGKLKDEFTDSDKTTFIGVMISEYLSLSETVKFIDYLTSQNIEVNSIIVNQLLFAEKCDLCKKRDVIQQKYMTMIDKLFSDFHVVKMPLFNDEIRGLKNITLFSKFLKTPFDPEKDGKVINDLEE-KPPSLKSLINSKTHKWIFVGGKGGVGKTTSSCAIAIQMAKAQPEKKFLLMSTDPAHNLSDAFGEKFGSEAKLVKGMDNLACVEIDPAEYLKKMAEMGGILGIMPGVGEALAFEKIKEEIKKKENKEKDTFDTIIFDTAPTGHTLRFLELPGRLKKSLSGLEKMKLGKLVGKVEEEFTDPEKTTFIGVMTAEFLSLYDTVRFIQKLKSFNIKVDSLIVNQLLFAEKCEMCKLRAKEQNQFMDMIDSLFKDYHVVRMPLFADEIRGLENISRFSKFLETPFDPEKDGEVIFKLKN-MPNNLKELILSDTHKNIFVGGKGGVGKTTSSCAISIQMAKARPEKKFLLMSTDPAHNLSDAFGEKFGDKARLVSGMENLACVEIDPAKYLADLKEMGSILGFMPGVGESIAFEKIIEHIKAKENNEEDTFDTIIYDTAPTGHTLRFLELPGRLSKAIKMKDIDKLRKLIGKLKEEFTDANKTTFIGVMTAEYLSLSETVKFIESLTSFNINVSSLIVNMLLFADKCDFCAERSETQNKYMKMIDELFKDFHVVKMPLFADEIRGLENISLFSKFLYEPFDAKKDGKVVLELSG-MPNNLKELINSKTHKNIFVGGKGGVGKTTSSCALAIQMALAQPEKKFLLMSTDPAHNLSDAFGEKFGHKAKLVKGMDNLAIVEIDPAKFLKEMEAMGIEASVMPGVGESIAFEKILDHLIKKENNEKDTFDTIIYDTAPTGHTIRFLSLPGRLKEQLKGFSDKKMEELIGKVEKEFTDEKKTTFVGVMTSEYLSLNETVQFIEKLESFDINVDSLIVNKLLFAENCDMCEKRNEIQNKYMTMIDKLFSDYHVVKMPLFADDIRGLGNITKFSKFLNEPFDPKKDGKVIFELEE-MPPNLKALITSKTHQWIFVGGKGGVGKTTSSCAIAIQMAKAQPEKKFLLMSTDPAHNLSDAFGEKFGSEAKLVSGMDNLACVEIDPAKFLADVEMGNLLLAVMPGIGESLAFEKIAEHIVAKEENYADTFDTIIFDTAPTGHTLRFLKLPSALSQRLSGKLLDAEKKTVGKIEKEFTDSEKTTFIGVMISEYLSLNETVKFIENLKSFNINVDSLIVNQLLFAEMCDFCKMRNEEQQQYMDMIDQLFSDFHVVKMPLFADDIRGLDNITRFSRFLETPYDAKKDGAVVFELKD-MPRNLKRIINSKTHKNIFVGGKGGVGKTTSSCAIAIQMAKARPDENFLLMSTDPAHNLSDSFGEAFGSIAKKVSGMDNLSCVEIDPAQYLEELSKLNPLLSVMPGVGEALAFEKIASHIKRKQENEADTFDTIIYDTAPTGHTLRFLALPGRLQKSLRLLNDFKIKKLVGQIKKEFTDSNITEFIGVMVSEYLSLSETVKFIQSLKSFNINVSSLIVNMLLFAKECELCKKRDQIQNMYMDMIDKLFKDYHVVRMPLFSDEIRGLENITLFSKFLDTPFDPKKDGKVVTELKK-KPPNLSDIIKSKTHKNIFVGGKGGVGKTTSSCAIAIQMAKARPEQKFLLMSTDPAHNLSEAFGEKFGSEAKLVNGMDNLACVEIDPGKFLEEMGSMMEFLAFSPGVGESLAFEYIAKHIKLKEENNKDTFDTIIFDTAPTGHTLRFLRLPNILLKRLKGSEDEELRKLIEKIKEEFTDSNITTFIGVMTSEYLSLSETVKFIDQLTSFNIKVDSIIVNQLLFAKGCDFCKARDEIQQKYLKMIDELFKDYHVVKMPLFSDEIRGLENISLFSKYLYEPFDPKKDGEEIFKLKE,VEPNLHSLITSTTHKWIFVGGKGGVGKTTSSCSIAIQMALSQPNKQFLLISTDPAHNLSDAFGEKFGKDARKVTGMNNLSCMEIDPSAALKDMNDMADLTGSIPGIDEALSFMEVMKHIKRQEQGEGETFDTVIFDTAPTGHTLRFLQLPNTLSKLLISGKLNELKANVETIRQQFTDPDLTTFVCVCISEFLSLYETERLIQELISYDMDVNSIIVNQLLFAENCKRCQARWKMQKKYLDQIDELYEDFHVVKMPLCAGEIRGLNNLTKFSQFLNKEYNPITDGKVIYELED-VEPNLHSLITSTTHKWIFVGGKGGVGKTTSSCSIAIQMALSQPNKQFLLISTDPAHNLSDAFGEKFGKDARKVTGMNNLSCMEIDPSAALKDMNDMADLTGSIPGIDEALSFMEVMKHIKRQEQGEGETFDTVIFDTAPTGHTLRFLQLPNTLSKLLISGKLNELKANVETIRQQFTDPDLTTFVCVCISEFLSLYETERLIQELISYDMDVNSIIVNQLLFAENCKRCQARWKMQKKYLDQIDELYEDFHVVKMPLCAGEIRGLNNLTKFSQFLNKEYNPITDGKVIYELED-VEPNLHSLITSTTHKWIFVGGKGGVGKTTSSCSIAIQMALSQPNKQFLLISTDPAHNLSDAFGEKFGKDARKVTGMNNLSCMEIDPSAALKDMNDMADLTGSIPGIDEALSFMEVMKHIKRQEQGEGETFDTVIFDTAPTGHTLRFLQLPNTLSKLLISGKLNELKANVETIRQQFTDPDLTTFVCVCISEFLSLYETERLIQELISYDMDVNSIIVNQLLFAENCKRCQARWKMQKKYLDQIDELYEDFHVVKMPLCAGEIRGLNNLTKFSQFLNKEYNPITDGKVIYELED-VEPNLHSLITSTTHKWIFVGGKGGVGKTTSSCSIAIQMALSQPNKQFLLISTDPAHNLSDAFGEKFGKDARKVTGMNNLSCMEIDPSAALKDMNDMADLTGSIPGIDEALSFMEVMKHIKRQEQGEGETFDTVIFDTAPTGHTLRFLQLPNTLSKLLISGKLNELKANVETIRQQFTDPDLTTFVCVCISEFLSLYETERLIQELISYDMDVNSIIVNQLLFAENCKRCQARWKMQKKYLDQIDELYEDFHVVKMPLCAGEIRGLNNLTKFSQFLNKEYNPITDGKVIYELED-VEPNLHSLITSTTHKWIFVGGKGGVGKTTSSCSIAIQMALSQPNKQFLLISTDPAHNLSDAFGEKFGKDARKVTGMNNLSCMEIDPSAALKDMNDMADLTGSIPGIDEALSFMEVMKHIKRQEQGEGETFDTVIFDTAPTGHTLRFLQLPNTLSKLLISGKLNELKANVETIRQQFTDPDLTTFVCVCISEFLSLYETERLIQELISYDMDVNSIIVNQLLFAENCKRCQARWKMQKKYLDQIDELYEDFHVVKMPLCAGEIRGLNNLTKFSQFLNKEYNPITDGKVIYELED-VEPNLHSLITSTTHKWIFVGGKGGVGKTTSSCSIAIQMALSQPNKQFLLISTDPAHNLSDAFGEKFGKDARKVTGMNNLSCMEIDPSAALKDMNDMADLTGSIPGIDEALSFMEVMKHIKRQEQGEGETFDTVIFDTAPTGHTLRFLQLPNTLSKLLISGKLNELKANVETIRQQFTDPDLTTFVCVCISEFLSLYETERLIQELISYDMDVNSIIVNQLLFAENCKRCQARWKMQKKYLDQIDELYEDFHVVKMPLCAGEIRGLNNLTKFSQFLNKEYNPITDGKVIYELED-VEPNLHSLITSTTHKWIFVGGKGGVGKTTSSCSIAIQMALSQPNKQFLLISTDPAHNLSDAFGEKFGKDARKVTGMNNLSCMEIDPSAALKDMNDMADLTGSIPGIDEALSFMEVMKHIKRQEQGEGETFDTVIFDTAPTGHTLRFLQLPNTLSKLLISGKLNELKANVETIRQQFTDPDLTTFVCVCISEFLSLYETERLIQELISYDMDVNSIIVNQLLFAENCKRCQARWKMQKKYLDQIDELYEDFHVVKMPLCAGEIRGLNNLTKFSQFLNKEYNPITDGKVIYELED-VEPNLHSLITSTTHKWIFVGGKGGVGKTTSSCSIAIQMALSQPNKQFLLISTDPAHNLSDAFGEKFGKDARKVTGMNNLSCMEIDPSAALKDMNDMADLTGSIPGIDEALSFMEVMKHIKRQEQGEGETFDTVIFDTAPTGHTLRFLQLPNTLSKLLISGKLNELKANVETIRQQFTDPDLTTFVCVCISEFLSLYETERLIQELISYDMDVNSIIVNQLLFAENCKRCQARWKMQKKYLDQIDELYEDFHVVKMPLCAGEIRGLNNLTKFSQFLNKEYNPITDGKVIYELED-VEPNLHSLITSTTHKWIFVGGKGGVGKTTSSCSIAIQMALSQPNKQFLLISTDPAHNLSDAFGEKFGKDARKVTGMNNLSCMEIDPSAALKDMNDMADLTGSIPGIDEALSFMEVMKHIKRQEQGEGETFDTVIFDTAPTGHTLRFLQLPNTLSKLLISGKLNELKANVETIRQQFTDPDLTTFVCVCISEFLSLYETERLIQELISYDMDVNSIIVNQLLFAENCKRCQARWKMQKKYLDQIDELYEDFHVVKMPLCAGEIRGLNNLTKFSQFLNKEYNPITDGKVIYELED-VEPNLHSLITSTTHKWIFVGGKGGVGKTTSSCSIAIQMALSQPNKQFLLISTDPAHNLSDAFGEKFGKDARKVTGMNNLSCMEIDPSAALKDMNDMADLTGSIPGIDEALSFMEVMKHIKRQEQGEGETFDTVIFDTAPTGHTLRFLQLPNTLSKLLISGKLNELKANVETIRQQFTDPDLTTFVCVCISEFLSLYETERLIQELISYDMDVNSIIVNQLLFAENCKRCQARWKMQKKYLDQIDELYEDFHVVKMPLCAGEIRGLNNLTKFSQFLNKEYNPITDGKVIYELED,EVMNKVIGSN-KVLNYVKGKA-DVMKYVKGNA-EVINYVSGLS-ELLDFVEGKS-KVLEKIVGEE-EVLNYVKGNF-KVLEYVEGNK-EVEKYITGKA-EVLEKVEGKA,SRLNKITGQA-SRLNKITGQA-SRLNKITGQA-SRLNKITGQA-SRLNKITGQA-SRLNKITGQA-SRLNKITGQA-SRLNKITGQA-SRLNKITGQA-SRLNKITGQA
