contacts,cs,ce,Chain,Length,designed_receptor_seq,native_receptor_seq,designed_binder_seq,native_binder_seq
11.0,5,15,A,10,GSHMVDHNKVPPMRMRVFTTDNGKHHKLEEFENGKTPENELVIYGYMDDTLASLQKKLQEAKPEWKKKGTKFNFAIVYYDEKSDGYKIREIGYTVSGKKLDDDNLTLIQQNYKVGDYIDVAVTLP-GSHMVDHNKVPPMKMSVFTTDNGKHHKLDEFENGKTPENELVIYGYMDDTLASLQKKLQEAKPEWKKKGTKFNFAIVYYDKKKDGYQIREIGYTVSGKKLDDDNLTLEEQNYKVGDYIDVAVTLP-GSHMVDHNKVPPMKMEVFTTDNGKHHKLDEFEDGKTPDNKLVIYGYMDDTLASLQKKLQEAKPEWKKKGTKFNFAIVYYDEKSDGYKIREIGYTVSGKKLDDDNLTLEEQNYKVGDYIDVAVTPP-GSHMVDHNKVPPMKMSVFTTDNGKHHKLDEFEDGKTPENELVIYGYMDDTLASLQKKLQEAKPEWKKKGTVFNFAIVYYDEKKDGYKIKEIGYTVSGKKLDDDNLTLEEQNYKVGDYIDVAVTLP-GSHMVDHNKVPPMKMSVFTTDNGKHHKLDEFENGKTPENELVIYGYMDDTLASLQKELQKAKPEWKKKGTKFNFAIVYYDKKSDGYKIKEIGYTVSGKKLDDDDLTLEQQNYKVGDYIDVAVTLP-GSHMVDHNKVPPMKMSVFTTDNGKHHKLDEFENGKTPDNELVIYGYMDDTLASLQKKLQEAKPEWKKKGTVFNFAIVYYDEKSDGYKIREIGYTVSGKKLDDDNLTLEQENYKVGDYIDVAVTLP-GSHMVDHNKVPPMKMSVFTTENGKHHKMDEFENGKTPENELVIYGYMDDTLASLQKKLQEAKPEWKKKGTVFNFAIVYYDKKSDGYKIREIGYTVSGKKLDDDNLTLEEQNYKVGDYIDVAVTLP-GSHMVDHNKVPPMKMSVFTTDNGKHHKLDEFENGKTPDNELVIYGYMDDTLASLQEKLQEAKPEWKKKGTVFNFAIVYYDEKKDGYQIREIGYTVSGKKLDDDNLTLEQENYEVGDYIDVAVTLP-GSHMVDHNKVPPMKMSVFTTEDGKHHKLDEFENGKTPENELVIYGYMDDTLASLQKKLQEAKPEWKKKGTVFNFAIVYYDEKKDGYQIREIGYTVSGKKLDDDDLTLEEQNYQVGDYIDVAVTLP-GSHMVDHNKVPPMRMRVFTTDNGKHHKLDEFEDGKTPDNELVIYGYMDDTLASLQKKLQKAHPEWKKKGTVFNFAIVYYDEKKDGYQIREIGYTVSGKKLDDDDLTLEQCNYKVGDYIDVAVTLP,PEKPIDREKTCPLLLRVFTTNNGRHHRMDEFSRGNVPSSELQIYTWMDATLKELTSLVKEVYPEARKKGTHFNFAIVFMDLKRPGYRVKEIGSTMSGRKGTDDSMTLQSQKFQIGDYLDIAITPP-PEKPIDREKTCPLLLRVFTTNNGRHHRMDEFSRGNVPSSELQIYTWMDATLKELTSLVKEVYPEARKKGTHFNFAIVFMDLKRPGYRVKEIGSTMSGRKGTDDSMTLQSQKFQIGDYLDIAITPP-PEKPIDREKTCPLLLRVFTTNNGRHHRMDEFSRGNVPSSELQIYTWMDATLKELTSLVKEVYPEARKKGTHFNFAIVFMDLKRPGYRVKEIGSTMSGRKGTDDSMTLQSQKFQIGDYLDIAITPP-PEKPIDREKTCPLLLRVFTTNNGRHHRMDEFSRGNVPSSELQIYTWMDATLKELTSLVKEVYPEARKKGTHFNFAIVFMDLKRPGYRVKEIGSTMSGRKGTDDSMTLQSQKFQIGDYLDIAITPP-PEKPIDREKTCPLLLRVFTTNNGRHHRMDEFSRGNVPSSELQIYTWMDATLKELTSLVKEVYPEARKKGTHFNFAIVFMDLKRPGYRVKEIGSTMSGRKGTDDSMTLQSQKFQIGDYLDIAITPP-PEKPIDREKTCPLLLRVFTTNNGRHHRMDEFSRGNVPSSELQIYTWMDATLKELTSLVKEVYPEARKKGTHFNFAIVFMDLKRPGYRVKEIGSTMSGRKGTDDSMTLQSQKFQIGDYLDIAITPP-PEKPIDREKTCPLLLRVFTTNNGRHHRMDEFSRGNVPSSELQIYTWMDATLKELTSLVKEVYPEARKKGTHFNFAIVFMDLKRPGYRVKEIGSTMSGRKGTDDSMTLQSQKFQIGDYLDIAITPP-PEKPIDREKTCPLLLRVFTTNNGRHHRMDEFSRGNVPSSELQIYTWMDATLKELTSLVKEVYPEARKKGTHFNFAIVFMDLKRPGYRVKEIGSTMSGRKGTDDSMTLQSQKFQIGDYLDIAITPP-PEKPIDREKTCPLLLRVFTTNNGRHHRMDEFSRGNVPSSELQIYTWMDATLKELTSLVKEVYPEARKKGTHFNFAIVFMDLKRPGYRVKEIGSTMSGRKGTDDSMTLQSQKFQIGDYLDIAITPP-PEKPIDREKTCPLLLRVFTTNNGRHHRMDEFSRGNVPSSELQIYTWMDATLKELTSLVKEVYPEARKKGTHFNFAIVFMDLKRPGYRVKEIGSTMSGRKGTDDSMTLQSQKFQIGDYLDIAITPP,EEIIENIPAT-KEVVENIPAT-KKKVENIPAT-KEKIENIPAT-EEVVENIPAT-KEKVENIPAT-KKKVENIPAT-KKEIKNIPAT-EEEEEEEPAW-KKVVENIPAT,KVHIGRLTRN-KVHIGRLTRN-KVHIGRLTRN-KVHIGRLTRN-KVHIGRLTRN-KVHIGRLTRN-KVHIGRLTRN-KVHIGRLTRN-KVHIGRLTRN-KVHIGRLTRN
10.0,6,16,B,10,GPLPTKIFVGNLTDTVTEEDIRKIFSEFGEITDIRMPKDKNNPSKSKGFAFVTFSNPEEAAKAIENMNGGQIDGREITVNEVRAPPPK-GPLPTKLFIGNLTETVTEEDIKEIFSEFGEITDIYMPKDKNNPSKSKGFAFVTFSNPEEAAKAKENMDGGQIDGREITVNFVKAPRPK-GPLPTKLFIGNLTDTVTEEDIREIFSEFGTITNIRMPKDKNNPSKSKGFAFVEFENPEQAAAAKRAMDGGQIDGREITVNFVRAPPPK-GPLPTKLFIGNLTDTVTEEDIRKIFSEFGEITDIYMPKDKNNPSKSKGFAFVTFSNPEEAAKAKENMDGGQIDGREITVKEVRAPPPK-GPLPTKLFIGNLTDTVTEDDIRTIFSEFGEITDIYMPKDRNNPSKSKGFAFVTFSNPEQAAAAKRAMDGGQIDGREITVREVRAPPPK-GPLPTKIFVGNLTETVTEDDIRRIFSEFGEITDIYMPKDKNNPSKSKGFAFVTFANPEEAAAAIRAMNGGQIDGRTITVNEVRAPPPK-GPLPTKIFVGNLTDTVTEDDIREIFSEFGEITDIYMPKDKNNPSKSKGFAFVTFSNPEEAAAAIRAMNGGQIDGREITVNEVRAPPPK-GPLPTKLFIGNLTDTVTEEDIRTIFSEFGEITDIYMPKDRNNPSKSKGFAFVTFANPEEAAKAKEKMDGGQIDGREITVREVRAPPPK-GPLPTKIFVGNLTDTVTEEDIRTIFSEFGEITDIYMPKDKNNPSKSKGFAFVTFSNPEEAAAAIRAMNGGQIDGREITVKEVIAPPPK-GPLPTKIFVGNLTDTVTEEDIREIFSEFGEITDIYMPKDKNNPSKSKGFAFVTFSNPEEAAKAIENMNGGQIDGREITVNEVRAPPPK,SMKPTKVHIGRLTRNVTKDHIMEIFSTYGKIKMIDMPVERMHPHLSKGYAYVEFENPDEAEKALKHMDGGQIDGQEITATAVLAPWPR-SMKPTKVHIGRLTRNVTKDHIMEIFSTYGKIKMIDMPVERMHPHLSKGYAYVEFENPDEAEKALKHMDGGQIDGQEITATAVLAPWPR-SMKPTKVHIGRLTRNVTKDHIMEIFSTYGKIKMIDMPVERMHPHLSKGYAYVEFENPDEAEKALKHMDGGQIDGQEITATAVLAPWPR-SMKPTKVHIGRLTRNVTKDHIMEIFSTYGKIKMIDMPVERMHPHLSKGYAYVEFENPDEAEKALKHMDGGQIDGQEITATAVLAPWPR-SMKPTKVHIGRLTRNVTKDHIMEIFSTYGKIKMIDMPVERMHPHLSKGYAYVEFENPDEAEKALKHMDGGQIDGQEITATAVLAPWPR-SMKPTKVHIGRLTRNVTKDHIMEIFSTYGKIKMIDMPVERMHPHLSKGYAYVEFENPDEAEKALKHMDGGQIDGQEITATAVLAPWPR-SMKPTKVHIGRLTRNVTKDHIMEIFSTYGKIKMIDMPVERMHPHLSKGYAYVEFENPDEAEKALKHMDGGQIDGQEITATAVLAPWPR-SMKPTKVHIGRLTRNVTKDHIMEIFSTYGKIKMIDMPVERMHPHLSKGYAYVEFENPDEAEKALKHMDGGQIDGQEITATAVLAPWPR-SMKPTKVHIGRLTRNVTKDHIMEIFSTYGKIKMIDMPVERMHPHLSKGYAYVEFENPDEAEKALKHMDGGQIDGQEITATAVLAPWPR-SMKPTKVHIGRLTRNVTKDHIMEIFSTYGKIKMIDMPVERMHPHLSKGYAYVEFENPDEAEKALKHMDGGQIDGQEITATAVLAPWPR,KKKKKPKIVY-KKKKKPKIVY-KKKKEPAIVP-KKKKKPKIVY-KGEKEPAIIP-KKKKKPAIVY-KKKKKPAIVP-KKKKKPKKVE-KKKKKPKIVY-KKKKKPKKVE,REKTCPLLLR-REKTCPLLLR-REKTCPLLLR-REKTCPLLLR-REKTCPLLLR-REKTCPLLLR-REKTCPLLLR-REKTCPLLLR-REKTCPLLLR-REKTCPLLLR
