contacts,cs,ce,Chain,Length,designed_receptor_seq,native_receptor_seq,designed_binder_seq,native_binder_seq
18.0,59,69,A,10,GESELSALRERLGFNKARQATHEELIQKMQEEEERILKEIRALEERCIKHIQETQRLHRPLKARRKYALERFEKNIQQEIQDLYDRAVEQNVHLIPNEREVAALRKL-GSAFFASLVELQRSYDTLLEASEIVLKEGLREAREKIIKRLEELKKELEEDKRRGLIYKPLQKAKENVIAAFKTHLQRIEREINALKESLPEVFVPTERETILSEEK-GPLGSVIEEIEKYIEGAEKQLDREGNLKDRIRSGGWKDKLQELKELIDRIQEERWREVQPLKARLEAAKNRINSRLTEELARELEQRLQGEIDRPPTGEEVRGMKRL-GSHMRAYIEAVTDKAQTISQKRAALQTLQNIASTDVEKINAQIATVTTELLQTTEAILTPNTQAIQAAAAAKESELIKMVAKYEKAKAEVSIPPTPTNSQVQYLRKQ-GSRLFAYKRLAQEFALVQQGISQTMDANENYFSQFSVEKEKEVDKLLNLQVEESRELERPLQTKIEKAQGEMESKLQKILDEKKAIARENPELKPPSDLEKKYLERF-MGRSLAGQFKALKELHRLCEEQKERLEAEEKAAERRREEAKSLLEKDKKEVKRLEAEKEPLLRQIKESMQRLEKEYAELQKELLRLDAEFGVFGKPSKQMKAFLRTH-SEHFRLFERALKEQEELVLGQREFALLHQALLKGDKLFPIGAIAVDEAVQKEVSHSWSVPLERLRTEAILKIEKQLKSLLQSQVKLESDTLVHREPSAEELEEIARL-GIKGKYETRKQEMARMSLDAKNACLHNDIIIIRNYNNEKFGRLHQLWEEMEQREGKLLKPLEKALQVAKTHLEENLHASLDATAAMASENGDDLSPSDEELRFYEEM-GNDVSFQLKEGDNALNSYIEFENELNEKIATEKSEQVNALVEMKRALREARQSKAADMTPLEKRLTAAKSVAETLMLQQIAQYNALLEVNDLDLQPTAEQTAYLKKL-WNISDAIIKVIEQINQEIETIRTKLRDQGRILYRKQLDPLLSLYQQTDDLVEKSVAIKKPLSIALLQAAQDLTELSQKILSYAKELRAKNNLTLPPSAYEQALITNG,GHMEAEVDKLELMFQKAESDLDYIQYRLEYEIKTNHPVTLLKELSVIKSRYQTLYARFKPVAVEQKESKSRICATVKKTMNMIQKLQKQTDLELSPLTKEEKTAAEQ-GHMEAEVDKLELMFQKAESDLDYIQYRLEYEIKTNHPVTLLKELSVIKSRYQTLYARFKPVAVEQKESKSRICATVKKTMNMIQKLQKQTDLELSPLTKEEKTAAEQ-GHMEAEVDKLELMFQKAESDLDYIQYRLEYEIKTNHPVTLLKELSVIKSRYQTLYARFKPVAVEQKESKSRICATVKKTMNMIQKLQKQTDLELSPLTKEEKTAAEQ-GHMEAEVDKLELMFQKAESDLDYIQYRLEYEIKTNHPVTLLKELSVIKSRYQTLYARFKPVAVEQKESKSRICATVKKTMNMIQKLQKQTDLELSPLTKEEKTAAEQ-GHMEAEVDKLELMFQKAESDLDYIQYRLEYEIKTNHPVTLLKELSVIKSRYQTLYARFKPVAVEQKESKSRICATVKKTMNMIQKLQKQTDLELSPLTKEEKTAAEQ-GHMEAEVDKLELMFQKAESDLDYIQYRLEYEIKTNHPVTLLKELSVIKSRYQTLYARFKPVAVEQKESKSRICATVKKTMNMIQKLQKQTDLELSPLTKEEKTAAEQ-GHMEAEVDKLELMFQKAESDLDYIQYRLEYEIKTNHPVTLLKELSVIKSRYQTLYARFKPVAVEQKESKSRICATVKKTMNMIQKLQKQTDLELSPLTKEEKTAAEQ-GHMEAEVDKLELMFQKAESDLDYIQYRLEYEIKTNHPVTLLKELSVIKSRYQTLYARFKPVAVEQKESKSRICATVKKTMNMIQKLQKQTDLELSPLTKEEKTAAEQ-GHMEAEVDKLELMFQKAESDLDYIQYRLEYEIKTNHPVTLLKELSVIKSRYQTLYARFKPVAVEQKESKSRICATVKKTMNMIQKLQKQTDLELSPLTKEEKTAAEQ-GHMEAEVDKLELMFQKAESDLDYIQYRLEYEIKTNHPVTLLKELSVIKSRYQTLYARFKPVAVEQKESKSRICATVKKTMNMIQKLQKQTDLELSPLTKEEKTAAEQ,WWAELLNRIL-RLRKELEKLL-VGKALLEVLE-MSIYLFGQLV-KMAKIFEETE-EKKELLEKIK-LQVKFLGHVL-KLKAKLNELV-SLTYRLSVTE-HLTALAIYKA,YQEQTNNSLK-YQEQTNNSLK-YQEQTNNSLK-YQEQTNNSLK-YQEQTNNSLK-YQEQTNNSLK-YQEQTNNSLK-YQEQTNNSLK-YQEQTNNSLK-YQEQTNNSLK
18.0,62,72,B,10,MNEKDRNELLQQVAALDAKVRQLGEKIATDPDLKQQVVELGKAAKENDQLVNQLMSEIGQLAAEVESMAKTSEENLNDCKVFLDAN-AGPGLAHYHNLQRDHTGALQTTVNNWLSTDPEYATRLQELNDEIAKLNDLKNQEDNKVEMLSARLDVLAARIDEAQQRDAQIRVRK-MPRADQLRMLQQRVKVGFLQVYKDYVAGNVPEYIKQGKQRGTLHIACTRRSGILSNVVGKGVERAESVKASIKVIKDVYDKIRKEV-ATAVNQIINGTVQVVRNNVSNLAKAYKEQNPVFTDVYQQIGDKDKRVNELANARSELQGLAETRLNVLTLSLREIRQLENNVSMLQ-ETAEMTAHFNELSNELGTLIGNIRYFESEDPETQKMSHALGQFEKDINELKDQLNGIQGQGDQLARVNKNINQVRENINQLHTQMT-MSFKQAMLLDARRRMLEAEVAKLEDLLATDPELAKLKELTGRVEEEYGKLLDVLKEAEGKYEQQLQDLRKQVAELKKRLEDVKKEL-MTVEQLVEEGLRLRDDLTVYKADVVARTTDPDRMVADLRRGAELLARYDQLGKVQQLNGELASANDRLAAEIGNLESRLAEYRRRN-MDTLILGEKIVELGALGKEILDLEKEVAEDPTKLEALKVYGETKLKVNRTVEKLQGMEGEIDLLKDKIERAIEEYEKAKAYSRDIV-GEWEQKGHLAKQLGLQGLLSLYQGLVEHSDPVQKKKREEIGKRDEKIREQKLLWEKEEGEAHKRSQKLTWEILDVIKEADRQTESE-AGAFSKMLSFFKRKFRETRQELRGHLESTLPMLREYGDAQGALKTTLQASKDEMKMLEGQISTLRNQLSAANGPAATAALAAAKAA,SSDLEQLCSHVNEKIGNIKKTLSLRNCGQEPTLKTVLNKIGDEIIVINELLNKLELEIQYQEQTNNSLKELCESLEEDYKDIEHLK-SSDLEQLCSHVNEKIGNIKKTLSLRNCGQEPTLKTVLNKIGDEIIVINELLNKLELEIQYQEQTNNSLKELCESLEEDYKDIEHLK-SSDLEQLCSHVNEKIGNIKKTLSLRNCGQEPTLKTVLNKIGDEIIVINELLNKLELEIQYQEQTNNSLKELCESLEEDYKDIEHLK-SSDLEQLCSHVNEKIGNIKKTLSLRNCGQEPTLKTVLNKIGDEIIVINELLNKLELEIQYQEQTNNSLKELCESLEEDYKDIEHLK-SSDLEQLCSHVNEKIGNIKKTLSLRNCGQEPTLKTVLNKIGDEIIVINELLNKLELEIQYQEQTNNSLKELCESLEEDYKDIEHLK-SSDLEQLCSHVNEKIGNIKKTLSLRNCGQEPTLKTVLNKIGDEIIVINELLNKLELEIQYQEQTNNSLKELCESLEEDYKDIEHLK-SSDLEQLCSHVNEKIGNIKKTLSLRNCGQEPTLKTVLNKIGDEIIVINELLNKLELEIQYQEQTNNSLKELCESLEEDYKDIEHLK-SSDLEQLCSHVNEKIGNIKKTLSLRNCGQEPTLKTVLNKIGDEIIVINELLNKLELEIQYQEQTNNSLKELCESLEEDYKDIEHLK-SSDLEQLCSHVNEKIGNIKKTLSLRNCGQEPTLKTVLNKIGDEIIVINELLNKLELEIQYQEQTNNSLKELCESLEEDYKDIEHLK-SSDLEQLCSHVNEKIGNIKKTLSLRNCGQEPTLKTVLNKIGDEIIVINELLNKLELEIQYQEQTNNSLKELCESLEEDYKDIEHLK,LTWEQAKKRI-NAISDAQTAQ-IKLQSIEKQV-LSQKEVEALL-QELVDPLNVL-EKVQAAETAL-TALEQARVAR-SDLEVKIKQL-LDAWLKLLKP-TDMAEAVSHQ,VEQKESKSRI-VEQKESKSRI-VEQKESKSRI-VEQKESKSRI-VEQKESKSRI-VEQKESKSRI-VEQKESKSRI-VEQKESKSRI-VEQKESKSRI-VEQKESKSRI
