contacts,cs,ce,Chain,Length,designed_receptor_seq,native_receptor_seq,designed_binder_seq,native_binder_seq
40.0,70,80,A,10,GMSGKSEYIILSFEDENIKIEPEDSFSILGIDSPNPILKIGNRYFKGKWFKPEGVFEVKPLEIGGLILKGKRLVLKEIELVPLEG-GMSGKSEYIILSFEDENIEIKPNDSFSIKGIDSPNPILKIGNRYFKGKWYKPDGVFEVKPLEIGGLILDGKRLILKEIELIPLEG-GMSGKSEYIILSFEDENIKIEPEDSFSILGIDSPNPILKIGNRYFKGKWEKPEGVFEVKPLEIGGLILKGKRLVLSEIELVPLKE-GMSGKSEYIVLSFEDENIKIEPDDSFSISGIDSPNPILKIGDRYFKGKWEKPEGVFEVTPEEIGGLILDGPRLVLKEIELVPLEG-GMSGKSEYIILSFEDENVKFEPEDSFSILGIDSPNPILKIGDRYFKGKWEKPEGVFEVKPLETGGLILKGKRLVLKEIELVPLEG-GMSGKSEYIVLSFEDENIKIEPEDSFSILGIDSPNPILKIGNRYFKGKWEKPEGVFEVKPLEIGGLILKGKRLVLSEIELVPLEG-GMSGKSEYIILSFEDENIEIKPKDSFSILGIDSPNPILKIGNRYFKGKWFKPEGVFEVKPLEIGGLILKGKRLILSEIELIPLEG-GMSGKSEYIILSFEDENIKIEPEDSFSIKGIDSPNPILKIGNRYFKGKWYKPEGVFEVIPEEIGGLILKGKRLILKEIELVPLEG-GMSGKSEYIVLSFEDENIEIKPEDSFSILGIDSPNPILKIGNRYFKGKWYLPEGTFEVTPLEEGGLILKGKRLVLSEIELVPLEG-GMEGKSEYIILTFEDKNIKIEPEDSFSIKGIDSPNPILKIGNRYFKGKWEKPEGVFEVKPLEIGGLILKGKRLVLKEIELIPLEG,SLETDVENIVFQFQNSSLDFQSSDDFSILGIDQPHPIVRIGGMFFRGTWHQPIGTDIVVPSVNDGLVLCKRRLMLEQIRLVPKNP-SLETDVENIVFQFQNSSLDFQSSDDFSILGIDQPHPIVRIGGMFFRGTWHQPIGTDIVVPSVNDGLVLCKRRLMLEQIRLVPKNP-SLETDVENIVFQFQNSSLDFQSSDDFSILGIDQPHPIVRIGGMFFRGTWHQPIGTDIVVPSVNDGLVLCKRRLMLEQIRLVPKNP-SLETDVENIVFQFQNSSLDFQSSDDFSILGIDQPHPIVRIGGMFFRGTWHQPIGTDIVVPSVNDGLVLCKRRLMLEQIRLVPKNP-SLETDVENIVFQFQNSSLDFQSSDDFSILGIDQPHPIVRIGGMFFRGTWHQPIGTDIVVPSVNDGLVLCKRRLMLEQIRLVPKNP-SLETDVENIVFQFQNSSLDFQSSDDFSILGIDQPHPIVRIGGMFFRGTWHQPIGTDIVVPSVNDGLVLCKRRLMLEQIRLVPKNP-SLETDVENIVFQFQNSSLDFQSSDDFSILGIDQPHPIVRIGGMFFRGTWHQPIGTDIVVPSVNDGLVLCKRRLMLEQIRLVPKNP-SLETDVENIVFQFQNSSLDFQSSDDFSILGIDQPHPIVRIGGMFFRGTWHQPIGTDIVVPSVNDGLVLCKRRLMLEQIRLVPKNP-SLETDVENIVFQFQNSSLDFQSSDDFSILGIDQPHPIVRIGGMFFRGTWHQPIGTDIVVPSVNDGLVLCKRRLMLEQIRLVPKNP-SLETDVENIVFQFQNSSLDFQSSDDFSILGIDQPHPIVRIGGMFFRGTWHQPIGTDIVVPSVNDGLVLCKRRLMLEQIRLVPKNP,GNKLLLKVKK-GNDLLLKIKK-GNKLLLKVKK-GNKLLLKVEK-GNDLLLKVKK-GNKLLLKVKK-GNKLLLKVKK-GNKLLLKVKK-GNRLLLKVKK-GNDLLLKVKK,RNDLLVTIKK-RNDLLVTIKK-RNDLLVTIKK-RNDLLVTIKK-RNDLLVTIKK-RNDLLVTIKK-RNDLLVTIKK-RNDLLVTIKK-RNDLLVTIKK-RNDLLVTIKK
44.0,54,64,B,10,SNAMGSATYSLIRHPGSADDLDAFLQTLGGLDAIKKASKTAFENPEAASLTLNLKPDDPDYKPVEAKVLSKGLKLVTVEAATNTVKEVSDIKIVFQFRGQKEFEKE-SNAMGSSTYSLIQHPGSADDLDAFLQTLGGLDAIKKASKTAFENPEEASLTLNLKPDDPTYKPVKAKVESKDLKLVTVEAATNKVKEVSDIKIVFQFRGQKEFQKD-SLTIGSSTYSLIQHPGSADDLEAFLSTLGGLDSIKKASKTAFENPEEASLTLNLKPDDPTYKPVEAKVESRNLLLVTVEKSTNSIKEISKIKIVFQFRGQEEFKKE-SNAMGSATYSLIRHPGSADDLDAFLQTLGGLDAIKKASRTAFENPAAASLRLNLKPDDPSYQPVDAVVYSAGLKLVTVEAATNAVAAVSDIKITFGFRGQAQFQND-SNAMGSSTYSLIRHPGSADDLDAFLSTLGGLDAIREASRVAFESPEDASLRLNLAPDDPDYEPVDAEVYSAGLLLVEVEAATNEVAAVSRIDRVFGFRGQERFRSE-SNAMGSATYSLIRHPGHADDLEAFLSTLGGLDAIKKASKTAFENPAEASLTLNLKPDDPSYKPVKAKVESRGLKLVTVEKATNTVKEVSDIKIVFQFRGQEEFKND-SNAMGSATYSLIRHPGFADDLDAFLQTLGGLDAIKKASKTAFENPEKASLTLNLKPNDPSYKPVEAKVESRDLKLVTVEKATNKVKEVSDIKIVFQFRGQEEFKKD-SNAMGSSTYSLIRHPGEADDLEAFLSTLGGLDAIKKASRTAFENPEEASLTLNLEPDNPDYEPVEAEVYSDDLLLVTVEAETNEIEEISRITHTFGFRGQEEFVDE-SNAMGDATYSLIRHPGYADDLDAFLATLGGLDAIREASRVAFEDPASASLRLNLRPDDPDYEPVDAVVESRDLLLVTVEAATNAVAAVSRIDRVFRFRGQARFRDD-SNAMGSATYSLIRHPGHADDLDAFLSTLGGAEAILKASRTAFENPAAASLTLNLKPDDPDYKPVEAKVLSRGLKLVTVEAATNAVAAVSDIKIVFQFRGQDEFKDD,SLKISDNEYALIEHPGFANNKDAFFQTLGGVQSIQKACQTSFQNPAAALLELNLRPKDKYHHPVQARVQSRNDLLVTIKKMDNSVQNVSRIRQVFLFRDMADFQYS-SLKISDNEYALIEHPGFANNKDAFFQTLGGVQSIQKACQTSFQNPAAALLELNLRPKDKYHHPVQARVQSRNDLLVTIKKMDNSVQNVSRIRQVFLFRDMADFQYS-SLKISDNEYALIEHPGFANNKDAFFQTLGGVQSIQKACQTSFQNPAAALLELNLRPKDKYHHPVQARVQSRNDLLVTIKKMDNSVQNVSRIRQVFLFRDMADFQYS-SLKISDNEYALIEHPGFANNKDAFFQTLGGVQSIQKACQTSFQNPAAALLELNLRPKDKYHHPVQARVQSRNDLLVTIKKMDNSVQNVSRIRQVFLFRDMADFQYS-SLKISDNEYALIEHPGFANNKDAFFQTLGGVQSIQKACQTSFQNPAAALLELNLRPKDKYHHPVQARVQSRNDLLVTIKKMDNSVQNVSRIRQVFLFRDMADFQYS-SLKISDNEYALIEHPGFANNKDAFFQTLGGVQSIQKACQTSFQNPAAALLELNLRPKDKYHHPVQARVQSRNDLLVTIKKMDNSVQNVSRIRQVFLFRDMADFQYS-SLKISDNEYALIEHPGFANNKDAFFQTLGGVQSIQKACQTSFQNPAAALLELNLRPKDKYHHPVQARVQSRNDLLVTIKKMDNSVQNVSRIRQVFLFRDMADFQYS-SLKISDNEYALIEHPGFANNKDAFFQTLGGVQSIQKACQTSFQNPAAALLELNLRPKDKYHHPVQARVQSRNDLLVTIKKMDNSVQNVSRIRQVFLFRDMADFQYS-SLKISDNEYALIEHPGFANNKDAFFQTLGGVQSIQKACQTSFQNPAAALLELNLRPKDKYHHPVQARVQSRNDLLVTIKKMDNSVQNVSRIRQVFLFRDMADFQYS-SLKISDNEYALIEHPGFANNKDAFFQTLGGVQSIQKACQTSFQNPAAALLELNLRPKDKYHHPVQARVQSRNDLLVTIKKMDNSVQNVSRIRQVFLFRDMADFQYS,TDIVVPNENK-TDIVVPNENK-TDIVVPNENE-TDIVVPNENA-ADIVVPDEND-TDIVVPNENK-ADIVVPNENE-TDIVVPNENE-ADIVVPDEND-TDIVVPNENE,TDIVVPSVND-TDIVVPSVND-TDIVVPSVND-TDIVVPSVND-TDIVVPSVND-TDIVVPSVND-TDIVVPSVND-TDIVVPSVND-TDIVVPSVND-TDIVVPSVND
