contacts,cs,ce,Chain,Length,designed_receptor_seq,native_receptor_seq,designed_binder_seq,native_binder_seq
18.0,0,10,A,10,GSHMASDNCGICNDFELDGTTPDVVCRNEDCGTPFHQECLHNWLVGLESSREEEDTLFGNCPVCNKPITLTLRSP-GSHMDDDSCGLCLAFELDGTKPTVVCSNLECGQPFHQTCLYDYLKGLESSSQAQDTVYGQCPFCRQPISLELKQP-GSSGSDDRCGLCLAFELDGQEPTVVCENEECGQPFHQHCLYAYLKGKETSSSEEDTIYGECPVCSKPITLKLETP-GSSAEDHSCGLCFAFELDGTVPDVVCENRSCGQPFHQECLYNYLKGKKTSRRDDDTLFGDCPICNKPISLKLVEP-GSHMADDACGICLATELDGTLPNVVCSNESCGTPFHQECLYALLKGREDSSQDRNTIFGRCPICQEPIKLTLRTP-GSHMASNACGLCLSYELDGTRPDQVCSNEECGQPFHQLCLYEFLKGLKSSTQSENTLFGQCPFCKKPITLTLKTP-GSHMEDRSCGICLDYELAGTMPDVICENEDCGQPFHQHCLYEYLKGLSRSSRDENTIFGECPFCHKPISLSLRKP-GSSGSSMACGLCLNYELDGTTPDVICDNEECGQPFHQECLYAFLKGKEESRQDDDTLFGLCPKCQKPITLKLVLP-GSHMEDMSCGICLDFELDGSRPDVVCENKECGTPFHQECLYALLKGKSTSTQDDNTIFGQCPVCKKPIRLTLRSP-EGPEEDDSCGLCLAYELAGTRPDVVCENEECGTPFHQACLHALLVGLASSTRNENTIFGRCPVCDKPISLTLSQP,EKSDFTMDCGICYAYQLDGTIPDQVCDNSQCGQPFHQICLYEWLRGLLTSRQSFNIIFGECPYCSKPITLKMSGR-EKSDFTMDCGICYAYQLDGTIPDQVCDNSQCGQPFHQICLYEWLRGLLTSRQSFNIIFGECPYCSKPITLKMSGR-EKSDFTMDCGICYAYQLDGTIPDQVCDNSQCGQPFHQICLYEWLRGLLTSRQSFNIIFGECPYCSKPITLKMSGR-EKSDFTMDCGICYAYQLDGTIPDQVCDNSQCGQPFHQICLYEWLRGLLTSRQSFNIIFGECPYCSKPITLKMSGR-EKSDFTMDCGICYAYQLDGTIPDQVCDNSQCGQPFHQICLYEWLRGLLTSRQSFNIIFGECPYCSKPITLKMSGR-EKSDFTMDCGICYAYQLDGTIPDQVCDNSQCGQPFHQICLYEWLRGLLTSRQSFNIIFGECPYCSKPITLKMSGR-EKSDFTMDCGICYAYQLDGTIPDQVCDNSQCGQPFHQICLYEWLRGLLTSRQSFNIIFGECPYCSKPITLKMSGR-EKSDFTMDCGICYAYQLDGTIPDQVCDNSQCGQPFHQICLYEWLRGLLTSRQSFNIIFGECPYCSKPITLKMSGR-EKSDFTMDCGICYAYQLDGTIPDQVCDNSQCGQPFHQICLYEWLRGLLTSRQSFNIIFGECPYCSKPITLKMSGR-EKSDFTMDCGICYAYQLDGTIPDQVCDNSQCGQPFHQICLYEWLRGLLTSRQSFNIIFGECPYCSKPITLKMSGR,KPKGGSKKTR-APEGLAARSR-KPEGYSEKTK-APAGYAKKTR-AVAGGQAVSR-VPKGLALKTR-DPVGLAAISR-IPKGYDIKTR-KPKGGAKKSR-APEGLAEVTR,YTQGMQRASR-YTQGMQRASR-YTQGMQRASR-YTQGMQRASR-YTQGMQRASR-YTQGMQRASR-YTQGMQRASR-YTQGMQRASR-YTQGMQRASR-YTQGMQRASR
22.0,8,18,B,10,GPLGSMRQTRMEKELKELKENPPPGITCEKDEEDMDMLKGIILGSENTPYEDGEFQLSIEIPEDYPFTPPKIKFLTPIYHPNIDSNGNICLDILKLPPVGKWNPSLDIASVLTSIQNLICDPNPESPLNSEISEIYKNDRPTFDENARRWTEKYAKK-AELGGMRITRLEKELELLSTEPPPGISCFKDKEEKDLLTGVILGSENTPYENGSFKLSIHIPDDYPFTPPKIKFITPIYHPNIDENGNICLDILKLPPKGSWNPVLNIATVLLSIQNLISDPNPDSPLNIEISNIYKTDRPKFEENARKHTEKYARD-LPRGGMRRTRLEKELLELKTNPPPGISCLQDEENFDELQATIEGAEDTPYENGLFKLSVKIPEDYPFEPPKIRFLTPIYHPNIDSNGRICLDILKLPPKGKWHPALDIASVLSSIQNLLCDPNPDSPLNLEISKIYQTNKPEFERNARQFTLKYAGN-GPLGSMRKSRLLKELEELETNPPPGITCYRDEEDSDNLSAVILGADDTPYEDGMFNLSVHIPEDYPFTPPKIKFITPIYHPNIDSKGRICLSILKLPPQGEWNPALNISTVLSSIQSLLCDPNPDSPLDLEISRIFEQNKPEFEMNAREHTRKYAKS-GPLGSMRMTRLQKELEELKENPPPGITCSVDEENQDQLTATILGSENTPYEDGEFKLSVHVPEEYPFVPPKIKFLTPIYHPNIDSNGNICLDILKLPPEGSWNPALNISTVLLSIQNLIKEPNPESPLNLNISKIYQNNKPEFNKNAREHTKKYAKE-SPSGGMKKTRMQKELEEMETNPPPGITCRRDEENKSLLVATIMGADNTPYQDGTFKLSVDIPAEYPFTPPKIKFLTPIYHPNIDASGNICLDILKLPPEGAWNPLLNIATVLTSIQNLLCDPNPESPLNEEISEIYKHNKPKFEKGAREWTQKYARS-MAMGGARASRLRKELLQLQTEPPPGISCAQDEESKDLLTATILGSEDTPYENGSYNLSVEIPEDYPFTPPKIKFLTPIYHPNIDANGNICLDILKLPPVGKWNPALNIATVLTSIQSLMSDPNPDSPLNVEISEIYKNDRPTYESNARAYTEKYAKK-MPTGGSRLSRLRKELEELASNPPPGITCETDAKTSDDLTATIQGSENTPYENGFFKLRVVIPDDYPFTPPKIKFLTPIYHPNINSNGNICLDILKLPPEGAWNPALDIASVLTSIQSLLQDPNPDSPLNTTISEIYKNNKPEFEKNAREYTEKYARK-SMDGGCRRTRLQKELKLMKEDPPPGITCFEDEDDESLLTAVIEGAEDTPYEDGLFSLQVEIPEDYPFTPPKIKFLTPIYHPNIDSNGRICLSILKLPPEGSWNPSLNIASVLTSIQSLLCDPNPEDPLDLEISELYQHNKPAFEKGAREYTQKYAGK-RPLGGMRTSRLRKELKALKEDPPPGITCEEDEENSLLLKGTIMGSEDTPYEDGSFDLSIEIPEDYPFTPPKIKFLTPIYHPNIDSNGRICLSILKEPPEGEWNPALDISSVLTSIQSLMSDPNPESPLDVEISQIYEHDRPTFEKNAREHTKKYARR,YTQGMQRASRLKRELHMLATEPPPGITCWQDKDQMDDLRAQILGGANTPYEKGVFKLEVIIPERYPFEPPQIRFLTPIYHPNIDSAGRICLDVLKLPPKGAWRPSLNIATVLTSIQLLMSEPNPDDPLMADISSEFKYNKPAFLKNARQWTEKHARQ-YTQGMQRASRLKRELHMLATEPPPGITCWQDKDQMDDLRAQILGGANTPYEKGVFKLEVIIPERYPFEPPQIRFLTPIYHPNIDSAGRICLDVLKLPPKGAWRPSLNIATVLTSIQLLMSEPNPDDPLMADISSEFKYNKPAFLKNARQWTEKHARQ-YTQGMQRASRLKRELHMLATEPPPGITCWQDKDQMDDLRAQILGGANTPYEKGVFKLEVIIPERYPFEPPQIRFLTPIYHPNIDSAGRICLDVLKLPPKGAWRPSLNIATVLTSIQLLMSEPNPDDPLMADISSEFKYNKPAFLKNARQWTEKHARQ-YTQGMQRASRLKRELHMLATEPPPGITCWQDKDQMDDLRAQILGGANTPYEKGVFKLEVIIPERYPFEPPQIRFLTPIYHPNIDSAGRICLDVLKLPPKGAWRPSLNIATVLTSIQLLMSEPNPDDPLMADISSEFKYNKPAFLKNARQWTEKHARQ-YTQGMQRASRLKRELHMLATEPPPGITCWQDKDQMDDLRAQILGGANTPYEKGVFKLEVIIPERYPFEPPQIRFLTPIYHPNIDSAGRICLDVLKLPPKGAWRPSLNIATVLTSIQLLMSEPNPDDPLMADISSEFKYNKPAFLKNARQWTEKHARQ-YTQGMQRASRLKRELHMLATEPPPGITCWQDKDQMDDLRAQILGGANTPYEKGVFKLEVIIPERYPFEPPQIRFLTPIYHPNIDSAGRICLDVLKLPPKGAWRPSLNIATVLTSIQLLMSEPNPDDPLMADISSEFKYNKPAFLKNARQWTEKHARQ-YTQGMQRASRLKRELHMLATEPPPGITCWQDKDQMDDLRAQILGGANTPYEKGVFKLEVIIPERYPFEPPQIRFLTPIYHPNIDSAGRICLDVLKLPPKGAWRPSLNIATVLTSIQLLMSEPNPDDPLMADISSEFKYNKPAFLKNARQWTEKHARQ-YTQGMQRASRLKRELHMLATEPPPGITCWQDKDQMDDLRAQILGGANTPYEKGVFKLEVIIPERYPFEPPQIRFLTPIYHPNIDSAGRICLDVLKLPPKGAWRPSLNIATVLTSIQLLMSEPNPDDPLMADISSEFKYNKPAFLKNARQWTEKHARQ-YTQGMQRASRLKRELHMLATEPPPGITCWQDKDQMDDLRAQILGGANTPYEKGVFKLEVIIPERYPFEPPQIRFLTPIYHPNIDSAGRICLDVLKLPPKGAWRPSLNIATVLTSIQLLMSEPNPDDPLMADISSEFKYNKPAFLKNARQWTEKHARQ-YTQGMQRASRLKRELHMLATEPPPGITCWQDKDQMDDLRAQILGGANTPYEKGVFKLEVIIPERYPFEPPQIRFLTPIYHPNIDSAGRICLDVLKLPPKGAWRPSLNIATVLTSIQLLMSEPNPDDPLMADISSEFKYNKPAFLKNARQWTEKHARQ,DPICLAEKIG-NPIDLADYKG-NPIDLSNSRG-NPINLAEEED-DPIDLSEYVG-DPITMAKKLG-DPITMSEKEG-DPITLSEDEE-NPVCLAENCG-DPIDLAEVSE,CGICYAYQLD-CGICYAYQLD-CGICYAYQLD-CGICYAYQLD-CGICYAYQLD-CGICYAYQLD-CGICYAYQLD-CGICYAYQLD-CGICYAYQLD-CGICYAYQLD
