contacts,cs,ce,Chain,Length,designed_receptor_seq,native_receptor_seq,designed_binder_seq,native_binder_seq
33.0,32,42,A,10,SLTPLEKAIQAMVSTFHTFSSREGDANALNKTQLKRLLLEQLPGFIGNKRDENSFTSLMTNLDKNKDNLVDYEEFLDFLASVARSFHERLLHHKKNQPGT-GMTPLQQALKQVVSTFHKYSAKKGNKNALNKEELKALLDEELPGMLGDKKDEAAFEKLFTKLDKNKDNKVDFGEYMNFLTAVAKLFKMFKDSNPADAPGH-GMSPIERALMEIIASFHTYAGKYGNKTALNKEELRLLLEKELPAMLGKRQDDAAFNKLFDNLDADKDKQVDFDEYLNFLQAVCDKFADFKLSKPDDAPRG-GKTPFECALEIVISTFHQYSSLKGNKNCLNKEELKKLLINCLPGFIGHHSDEESFSQLFEHLDQNKDQLVDFKEFLYMLTAICACFLQFSLAAPADTPFD-ADTPFEKAMIALVKTFHEYSSKEGEKATLNKAELKKLLDEKFPGFLGNRKDDTAFSILFQKLDHDKNNHVDFREYLIFLSSVVQLCCKFYNSFPHDKSGN-SMSNFQKALLNHIKTFHKYASKEGDKSALNKTELKRLLENELPGFLGKKKDEKSFQDLFNNLDKNNDNNVDFDEYLILLSAVVACCHKRFKAFPKDTPFK-ELSPLEKAMLSMIVTFHKYAAINGNKATLNKEELKKLLENDLPGFLGNKKDDKAFNQLFNNLDLNKDNQVDFAEYMFFVACVAKMFHDYATSMPADTPNK-GMSPFEQACRNLISTFHKYASKNGSKNRLNKDELKLLLEEELPGFIGHKRDQESFDKLFRNLDTNNDFLVNFAEYLIFLSLVVKKMQEFQKSRPKNEPGS-VDSPVERAFAEVVRTFHKYSSKEGDKDSLDSKELKKLLKQELPGMLGKKKDDAAFKDLFKNLDTDKNNRVDFTEYLDFLASITENFKKIRDSYPADHPGF-SMSPLELAVLSLIKTFHRYASKKGKKSKLDSECLQQLLRDQLPGFLGKKDDDQAFHQLFDHLDVNKDSKVDFEEFLIYISSVCTRMLRHNLSHPADQPCD,MASPLEKALDVMVSTFHKYSGKEGDKFKLNKSELKELLTRELPSWLGKRTDEAAFQKLMSNLDSNRDNEVDFQEYCVFLSSIAMMSNEFFEGFPDKQPRK-MASPLEKALDVMVSTFHKYSGKEGDKFKLNKSELKELLTRELPSWLGKRTDEAAFQKLMSNLDSNRDNEVDFQEYCVFLSSIAMMSNEFFEGFPDKQPRK-MASPLEKALDVMVSTFHKYSGKEGDKFKLNKSELKELLTRELPSWLGKRTDEAAFQKLMSNLDSNRDNEVDFQEYCVFLSSIAMMSNEFFEGFPDKQPRK-MASPLEKALDVMVSTFHKYSGKEGDKFKLNKSELKELLTRELPSWLGKRTDEAAFQKLMSNLDSNRDNEVDFQEYCVFLSSIAMMSNEFFEGFPDKQPRK-MASPLEKALDVMVSTFHKYSGKEGDKFKLNKSELKELLTRELPSWLGKRTDEAAFQKLMSNLDSNRDNEVDFQEYCVFLSSIAMMSNEFFEGFPDKQPRK-MASPLEKALDVMVSTFHKYSGKEGDKFKLNKSELKELLTRELPSWLGKRTDEAAFQKLMSNLDSNRDNEVDFQEYCVFLSSIAMMSNEFFEGFPDKQPRK-MASPLEKALDVMVSTFHKYSGKEGDKFKLNKSELKELLTRELPSWLGKRTDEAAFQKLMSNLDSNRDNEVDFQEYCVFLSSIAMMSNEFFEGFPDKQPRK-MASPLEKALDVMVSTFHKYSGKEGDKFKLNKSELKELLTRELPSWLGKRTDEAAFQKLMSNLDSNRDNEVDFQEYCVFLSSIAMMSNEFFEGFPDKQPRK-MASPLEKALDVMVSTFHKYSGKEGDKFKLNKSELKELLTRELPSWLGKRTDEAAFQKLMSNLDSNRDNEVDFQEYCVFLSSIAMMSNEFFEGFPDKQPRK-MASPLEKALDVMVSTFHKYSGKEGDKFKLNKSELKELLTRELPSWLGKRTDEAAFQKLMSNLDSNRDNEVDFQEYCVFLSSIAMMSNEFFEGFPDKQPRK,KLPFLIDKSS-GLPYLKNHHS-DLPYLKPKMQ-KLPFMKLKVG-NLPYLKSKYE-DLPYIKEKTE-ELPYLKGKMQ-QLPFLVDKFH-KLPYLVDKRK-DLPFLKTQLE,DLPFVVPRRM-DLPFVVPRRM-DLPFVVPRRM-DLPFVVPRRM-DLPFVVPRRM-DLPFVVPRRM-DLPFVVPRRM-DLPFVVPRRM-DLPFVVPRRM-DLPFVVPRRM
20.0,75,85,B,10,GSKNLNEVIEATRNLKKTLDSINGLHSQLANGNLPLFDSKRSQ-GPLVGDLNMRARLKADNVIEQIQGLATQLRKGELPFFPPVSNK-EDHSLGKKYDANLHAIERKLAVNTLKQDLDKGKKPDFPSKSKP-MALVDGLHYRSGKNASELCQAIGDLRAALLAGCLPECRSCRQP-GPLSARQRQKATQKAAERRQAINWLLAELMKGNRPKYAPFHYN-MAMAAGTKRRAWVDVADKVKKIQGLKERLKRGDTPAFPSRGTT-GNATHDDCEKATRNLRAAILQIEMLTKQLRQGHLPELPPYSEP-GSHMGNEAVQSHRNAQADAEHIDTLRRRLHLGELPMFVSRREI-GSMTQGLQLEENENLNEVLEEVNKLKKQLSKGELPFVVPKRLS-GPMTLYERYNSHLTLKKKCEEVETLYTKLKKGEIPEFLSFKEP,YRKLQRELEDATETADAMNREVSSLKNKLRRGDLPFVVPRRMA-YRKLQRELEDATETADAMNREVSSLKNKLRRGDLPFVVPRRMA-YRKLQRELEDATETADAMNREVSSLKNKLRRGDLPFVVPRRMA-YRKLQRELEDATETADAMNREVSSLKNKLRRGDLPFVVPRRMA-YRKLQRELEDATETADAMNREVSSLKNKLRRGDLPFVVPRRMA-YRKLQRELEDATETADAMNREVSSLKNKLRRGDLPFVVPRRMA-YRKLQRELEDATETADAMNREVSSLKNKLRRGDLPFVVPRRMA-YRKLQRELEDATETADAMNREVSSLKNKLRRGDLPFVVPRRMA-YRKLQRELEDATETADAMNREVSSLKNKLRRGDLPFVVPRRMA-YRKLQRELEDATETADAMNREVSSLKNKLRRGDLPFVVPRRMA,FIFECAKIIQ-YILRAAISLM-QIFEDAVRLM-SVTAAALFQM-DVYNEAVKMM-GVRTAAVVKM-DVVAFAIVQM-KCLNAAIIAM-DVLRKAIVES-DVLQYSILRM,CVFLSSIAMM-CVFLSSIAMM-CVFLSSIAMM-CVFLSSIAMM-CVFLSSIAMM-CVFLSSIAMM-CVFLSSIAMM-CVFLSSIAMM-CVFLSSIAMM-CVFLSSIAMM
