contacts,cs,ce,Chain,Length,designed_receptor_seq,native_receptor_seq,designed_binder_seq,native_binder_seq
16.0,21,31,A,10,GPLGLLLLLLFLVLFLLSLGVDVASVAAR-GPLGLLLLLLLLVLTLLSLGVDVASLAAR-GPLGLLLLLLFAVTFLLSLGVDVASLAAR-GPLGLLLLLLFLVLTLLSLGVDVASVAAR-GPLSELLKELEKKLKEKSKGVDVEKVKKE-GPLGSLLLLLFAVLFLRSLGVDVASVAAR-GPLGLLLLLLFLVLTLLSLGVDVASVLAP-GPLSVLLLLLFAVLFLRSLGVDVASVAAR-GPLGLLLLLLFLVLFLRSLGVDVASVAAR-GPLGLLLLLLFLVLFLLSLGVDVESVLRR,ADVEEWLTHARKVTQEASIGVDVTSIQEC-ADVEEWLTHARKVTQEASIGVDVTSIQEC-ADVEEWLTHARKVTQEASIGVDVTSIQEC-ADVEEWLTHARKVTQEASIGVDVTSIQEC-ADVEEWLTHARKVTQEASIGVDVTSIQEC-ADVEEWLTHARKVTQEASIGVDVTSIQEC-ADVEEWLTHARKVTQEASIGVDVTSIQEC-ADVEEWLTHARKVTQEASIGVDVTSIQEC-ADVEEWLTHARKVTQEASIGVDVTSIQEC-ADVEEWLTHARKVTQEASIGVDVTSIQEC,AGAVLVALRA-LGAVLVALRA-AGAVLVAVRA-LGAVLVALRA-LGEVLEEVKK-AGAVLVALRA-AGAVLVALRA-LGAVLVLVRL-AGAVLVLLRL-LGRVLVLLRL,VARHGVALAQ-VARHGVALAQ-VARHGVALAQ-VARHGVALAQ-VARHGVALAQ-VARHGVALAQ-VARHGVALAQ-VARHGVALAQ-VARHGVALAQ-VARHGVALAQ
30.0,8,18,B,10,MEDRVLAAAAAAGDREAFGELVRRHGRRLAMAARAFGIPESEVDDLVQETFVRAWGRLGRFDPARPFRTWLFRIALNRMRRRWRRAPGPPEELAEVARTLGRLEEEEREVIVLVEVVGMSQPEAAEVLGLSRAAVSGRLGRARARLRRLLEERR-MRDRELAAAAAAGDREAFGELVRRHGRRLAMAARAFGIPESEVDDLVQETFVRAWGRLGRFDPARPFRTWLFRIALNRMRRRWRRAPGPGEEEARVAAVLGRLEEEEREVIVLVEIVGMSQPEAAEVLGLSRAAVSGRLGRARARLRRLLEEEE-MRDRELAAAAAAGDREAFGELVRRHGTRLAMAARAFGIPESEVDDLVQETFVRAWGRLGRFDPARPFRTWLFRIALNRMRRRWRRAPGPGEEEARVAAVLGRLEEEEREVIVLVDVVGMSQPEAAEVLGLSRAAVSGRLGRARARLRRLLEEEE-MDDRVLAAAAAAGDREAFGELVRRHGTALAMAARAFGIPESEVADLVQETFVRAWGRLGRFDPARPFRTWLFRIALNRMRRRWRRAPGPGEEEARVAAVLGRLEEEEREVIVLVEVVGMSQPEAAEVLGLSRAAVSGRLGRARARLRRLLEEEE-MEDRVLAAAAAAGDREAFGELVRRHGRRLAMAARAFGIPESEVDDLVQETFVRAWGRLGRFDPARPFRTWLFRIALNRMRRRWRRAPGPDAELARVAAVLGRLPEEEREVIVLVDVVGMSQPEAAEVLGLSRAAVSGLLGRARARLERLLRERE-MRDQELAAAAAAGDREAFGELVRRHGTRLAMAARAFGIPESEVADLVQETFVRAWGRLGRFDPARPFRTWLFRIALNRMRRRWRRAPGPDEALARVAATLGRLEEAEREVVVLVDVVGFSQPEAAEVLGLSRAAVSGRLGRARARLRRLLDEEA-MDDRVLAAAAAAGDREAFGELVRRHGTRLAMAARAFGIPESEVADLVQETFVRAWGRLGRFDPARPFRTWLFRIALNRMRRRWRRAPGPGEEERRVAEVLGRLEEEEREVIVLVEIVGMSQPEAADVLGLSRAAVSGRLGRARARLRRLLEEEE-MDDRVLAAAARAGDREAFGELVRRHGRRLAMAARAFGIPESEVADLVQETFVRAWGRLGRFDPARPFRTWLFRIALNRMRRRWRRAPGPDAELARVAAVLGRLEEEEREVIVLVEVVGMSQPEAAEVLGLSRAAVSGRLGRARARLRRLLEEEE-SNARVLAAAAAAGDREAFGELVRRHGTALAMAARAFGIPESEVADLVQETFVRAWGRLGRFDPARPFRTWLFRIGLNRMRRRWRRAPGPDAELARVAAVLGRLEEAEREVIVLVDVVGMSQPEAADVLGLSRAAVSGRLGRARARLERLLDEEA-MEDRVLAAAAAAGDREAFGRLVERHGRRLAMAARAFGIPESEVADLVQETFVRAWGRLGRFDPARPFRTWLFRIALNRMRRRWRRAPGPGEEERRVAEVLGRLPEEEREVIVLVEIVGMSQPEAAEVLGLSRAAVSGRLGRARARLERLLEEER,DADRILAAQAASGNQRAFGQLVARHGVALAQAARSFGIPETDVDDVVQDTFVAAWHALDDFDPDRPFRAWLFRIGLNKMRDLYRFRRAARLELARVASTLGKLDTGSREVIVLTAIVGMSQPEAAAVLGLSVKAVEGRIGRARAKLSALLDADS-DADRILAAQAASGNQRAFGQLVARHGVALAQAARSFGIPETDVDDVVQDTFVAAWHALDDFDPDRPFRAWLFRIGLNKMRDLYRFRRAARLELARVASTLGKLDTGSREVIVLTAIVGMSQPEAAAVLGLSVKAVEGRIGRARAKLSALLDADS-DADRILAAQAASGNQRAFGQLVARHGVALAQAARSFGIPETDVDDVVQDTFVAAWHALDDFDPDRPFRAWLFRIGLNKMRDLYRFRRAARLELARVASTLGKLDTGSREVIVLTAIVGMSQPEAAAVLGLSVKAVEGRIGRARAKLSALLDADS-DADRILAAQAASGNQRAFGQLVARHGVALAQAARSFGIPETDVDDVVQDTFVAAWHALDDFDPDRPFRAWLFRIGLNKMRDLYRFRRAARLELARVASTLGKLDTGSREVIVLTAIVGMSQPEAAAVLGLSVKAVEGRIGRARAKLSALLDADS-DADRILAAQAASGNQRAFGQLVARHGVALAQAARSFGIPETDVDDVVQDTFVAAWHALDDFDPDRPFRAWLFRIGLNKMRDLYRFRRAARLELARVASTLGKLDTGSREVIVLTAIVGMSQPEAAAVLGLSVKAVEGRIGRARAKLSALLDADS-DADRILAAQAASGNQRAFGQLVARHGVALAQAARSFGIPETDVDDVVQDTFVAAWHALDDFDPDRPFRAWLFRIGLNKMRDLYRFRRAARLELARVASTLGKLDTGSREVIVLTAIVGMSQPEAAAVLGLSVKAVEGRIGRARAKLSALLDADS-DADRILAAQAASGNQRAFGQLVARHGVALAQAARSFGIPETDVDDVVQDTFVAAWHALDDFDPDRPFRAWLFRIGLNKMRDLYRFRRAARLELARVASTLGKLDTGSREVIVLTAIVGMSQPEAAAVLGLSVKAVEGRIGRARAKLSALLDADS-DADRILAAQAASGNQRAFGQLVARHGVALAQAARSFGIPETDVDDVVQDTFVAAWHALDDFDPDRPFRAWLFRIGLNKMRDLYRFRRAARLELARVASTLGKLDTGSREVIVLTAIVGMSQPEAAAVLGLSVKAVEGRIGRARAKLSALLDADS-DADRILAAQAASGNQRAFGQLVARHGVALAQAARSFGIPETDVDDVVQDTFVAAWHALDDFDPDRPFRAWLFRIGLNKMRDLYRFRRAARLELARVASTLGKLDTGSREVIVLTAIVGMSQPEAAAVLGLSVKAVEGRIGRARAKLSALLDADS-DADRILAAQAASGNQRAFGQLVARHGVALAQAARSFGIPETDVDDVVQDTFVAAWHALDDFDPDRPFRAWLFRIGLNKMRDLYRFRRAARLELARVASTLGKLDTGSREVIVLTAIVGMSQPEAAAVLGLSVKAVEGRIGRARAKLSALLDADS,EARRVLRREA-RAREVLRREA-EARRVLRRLA-EARRVLRRRA-EARRVLRRRA-EARRVLRERA-EAREVLRRGA-EARRVLRRRA-EARAVLRRAA-EARRVLRERA,HARKVTQEAS-HARKVTQEAS-HARKVTQEAS-HARKVTQEAS-HARKVTQEAS-HARKVTQEAS-HARKVTQEAS-HARKVTQEAS-HARKVTQEAS-HARKVTQEAS
