contacts,cs,ce,Chain,Length,designed_receptor_seq,native_receptor_seq,designed_binder_seq,native_binder_seq
16.0,21,31,A,10,GPLGEMLVDLVRREFRRSLGVDVSSLRKL-GPLILLLIAVFAVLYLLSLGVNVQEAERR-GPLGTLLAAAFLVTFLLSLGADVAAVEAP-GPLASRLAQRRAARQRAAQGVDVEAVLAR-GPLLFVLILVVLVLTLRSLGVDVDAVRSR-GPLDEIEAAVERIARELSLGVDVEEARKK-GPLLTLFTLLTLVTFLNALGVDVNTLSKS-GPLSEDLKRLEEILREASKGVDIEEIRKL-GDILSKLKKRIKDRLEKSLGYDDEEIRKR-GPLSTLLIALFIVTALLSLGVDVATLLAQ,ADVEEWLTHARKVTQEASIGVDVTSIQEC-ADVEEWLTHARKVTQEASIGVDVTSIQEC-ADVEEWLTHARKVTQEASIGVDVTSIQEC-ADVEEWLTHARKVTQEASIGVDVTSIQEC-ADVEEWLTHARKVTQEASIGVDVTSIQEC-ADVEEWLTHARKVTQEASIGVDVTSIQEC-ADVEEWLTHARKVTQEASIGVDVTSIQEC-ADVEEWLTHARKVTQEASIGVDVTSIQEC-ADVEEWLTHARKVTQEASIGVDVTSIQEC-ADVEEWLTHARKVTQEASIGVDVTSIQEC,LGKVLVVVEA-LGKYLVLVRL-AGAVLVLVRL-AGARLVAVRA-LGRTLVTVKA-IGDVLEEVKR-LGSAMVLERL-LGEDLEELKK-AGDFLVEIKD-AGDVLVVIRA,VARHGVALAQ-VARHGVALAQ-VARHGVALAQ-VARHGVALAQ-VARHGVALAQ-VARHGVALAQ-VARHGVALAQ-VARHGVALAQ-VARHGVALAQ-VARHGVALAQ
30.0,8,18,B,10,MLDRVLAAAAAAGDRSAFGQLVDRHGVRLAMAARALGIPAAEVDDVVQETFVRAWRDLGRFDPAKPFSTWLFRIGLNRFRRLWRRAPQPDAALEAVAATLGRLPEAEREVIVLTRIVGFSQPAAADVLGLSEAAVSGRLRRAEAALRRLVDERR-HMDAVLAAAAAAGDRNAFGELVRRHGVRLAMAARAFGIPDSDVADLVQESFLRAWGRLARFDPARPFRTWLFRIHLNRARRRYRRAPSPSDEEAAVAATLGRLEDAEREVVVLVDIVGMSQPAAAEVLGLSTARVSGLLGTARSRLRTLLDERR-SNARRLAAAARAGDREAFGELVRRHGERLAMAARAFGIADADVDDLVQETFVRAWGRLGDFDPARPFRTWLFRIALNRMRERWKHAPAPSAELARVAALLGELEEDEREVVVLVDVVGLSQPEAAEVLGLSRTEVSGRLGRARARLERLLDERA-SNAAVLAAAARAGDRAAFGELVRRHGRALAMAARAFGIPEADVDDLVQDTFVRAWGRLGRFDPARPFRTWLFRIGLNRMRRRYRRAPGPDAEAERVASTLGRLESDEREVIVLVEVVGFSQPDAADVLGLSESAVAGRLGRARAHLERLLDEEA-GMDEVLAARAAAGDRTAFGELVRRHGTRLAMAARALGIPDADVSDLVQDTFVEAWHRLGRFDPARPFPTWLFRIGLNKARRRFRHRPAQDDRLTRVAEVLGRLADDEREVIVLVDIVGFSQPAAAEVLGLSTAAVSGRLRAARSHLRTLLDERA-MADRALAAAAAAGDRGAFGELVRRHGTALAMAARALGIPESEVADLVQETFVRAWRRLDRFDPARPFRTWLFRIALNRMRSRFRYAPEPPAELARVAATLGRLEDDEREVVVLVEIVGFSQPDAAAVLGLSEAAVRGRLGRARARLRRLVEEEE-SNDAVLAAAARAGDRTAFGQLIDAHEVALAMAARAFGIADSDVADVVQDTFTRAWGRLDRFDPARPFRTWLFGIALRRMRRLWRYRPAPDVDLETVAARLGRLAEAEREVIVLTRIVGMSQPEAAEVLGLSQSAVSGRLGRARARLDRLDRAER-GMDATLAAAARAGDRRAFGRLVEAHGRRLAMAARALGIREADVDDLVQETFAAAWNRLGRFDPAAPFATWLFRIGLNRCRRRWAEAPAAPDALARVAAVLGRLPEDEREVIVLVEIVGFTQPEAAEVLGLSRQAVAGRLGRARATLERLLDAEA-MRDKVLAAAAAAGDRTAFGELVRRHGVRLAMAARAFGIPESDVDDLVQETFVRAWGQLGRFDPERPFRTWLFRIALNRMRRRYRSAPAPGSELAAVASTLGRLRDEERDVIVLTEVVGMSQPAAAEVLGLSQAAVSGRLRRARARLEELLHERA-MEDRVLAARAAAGDREAFGELVRRHGRRLAMAARAFGIPESDVDDLVQETFLRAWGELARFDPARPFRTWLFRIALNRMRRRYRRAPGPGSELEAVARTLGRLEDDEREVIVLVRIVGMSQPEAAEVLGLSEAAVSGRLKRAEARLTRLLEERE,DADRILAAQAASGNQRAFGQLVARHGVALAQAARSFGIPETDVDDVVQDTFVAAWHALDDFDPDRPFRAWLFRIGLNKMRDLYRFRRAARLELARVASTLGKLDTGSREVIVLTAIVGMSQPEAAAVLGLSVKAVEGRIGRARAKLSALLDADS-DADRILAAQAASGNQRAFGQLVARHGVALAQAARSFGIPETDVDDVVQDTFVAAWHALDDFDPDRPFRAWLFRIGLNKMRDLYRFRRAARLELARVASTLGKLDTGSREVIVLTAIVGMSQPEAAAVLGLSVKAVEGRIGRARAKLSALLDADS-DADRILAAQAASGNQRAFGQLVARHGVALAQAARSFGIPETDVDDVVQDTFVAAWHALDDFDPDRPFRAWLFRIGLNKMRDLYRFRRAARLELARVASTLGKLDTGSREVIVLTAIVGMSQPEAAAVLGLSVKAVEGRIGRARAKLSALLDADS-DADRILAAQAASGNQRAFGQLVARHGVALAQAARSFGIPETDVDDVVQDTFVAAWHALDDFDPDRPFRAWLFRIGLNKMRDLYRFRRAARLELARVASTLGKLDTGSREVIVLTAIVGMSQPEAAAVLGLSVKAVEGRIGRARAKLSALLDADS-DADRILAAQAASGNQRAFGQLVARHGVALAQAARSFGIPETDVDDVVQDTFVAAWHALDDFDPDRPFRAWLFRIGLNKMRDLYRFRRAARLELARVASTLGKLDTGSREVIVLTAIVGMSQPEAAAVLGLSVKAVEGRIGRARAKLSALLDADS-DADRILAAQAASGNQRAFGQLVARHGVALAQAARSFGIPETDVDDVVQDTFVAAWHALDDFDPDRPFRAWLFRIGLNKMRDLYRFRRAARLELARVASTLGKLDTGSREVIVLTAIVGMSQPEAAAVLGLSVKAVEGRIGRARAKLSALLDADS-DADRILAAQAASGNQRAFGQLVARHGVALAQAARSFGIPETDVDDVVQDTFVAAWHALDDFDPDRPFRAWLFRIGLNKMRDLYRFRRAARLELARVASTLGKLDTGSREVIVLTAIVGMSQPEAAAVLGLSVKAVEGRIGRARAKLSALLDADS-DADRILAAQAASGNQRAFGQLVARHGVALAQAARSFGIPETDVDDVVQDTFVAAWHALDDFDPDRPFRAWLFRIGLNKMRDLYRFRRAARLELARVASTLGKLDTGSREVIVLTAIVGMSQPEAAAVLGLSVKAVEGRIGRARAKLSALLDADS-DADRILAAQAASGNQRAFGQLVARHGVALAQAARSFGIPETDVDDVVQDTFVAAWHALDDFDPDRPFRAWLFRIGLNKMRDLYRFRRAARLELARVASTLGKLDTGSREVIVLTAIVGMSQPEAAAVLGLSVKAVEGRIGRARAKLSALLDADS-DADRILAAQAASGNQRAFGQLVARHGVALAQAARSFGIPETDVDDVVQDTFVAAWHALDDFDPDRPFRAWLFRIGLNKMRDLYRFRRAARLELARVASTLGKLDTGSREVIVLTAIVGMSQPEAAAVLGLSVKAVEGRIGRARAKLSALLDADS,AARAVLRRAA-AARAVLRQNG-EARAVLRRAA-EARRVLARLA-EARAVLREAA-AARAVLREAG-AARAILRRRA-LARAVLEREA-RAREVLRAAA-RAREILRAHA,HARKVTQEAS-HARKVTQEAS-HARKVTQEAS-HARKVTQEAS-HARKVTQEAS-HARKVTQEAS-HARKVTQEAS-HARKVTQEAS-HARKVTQEAS-HARKVTQEAS
