contacts,cs,ce,Chain,Length,designed_receptor_seq,native_receptor_seq,designed_binder_seq,native_binder_seq
27.0,80,90,A,10,MIQTEQSVQPLSLNDFLNFQKVWTTFDPTNSSYIHLNVLSQFADTLNEPLRIAKPNGEVLISLELPLAEPGLIHVIDILFALSKRVLGESDESKLEFIKLCGEFDALEPNRERYKPIKTTLLQELFVQHQQLIVEREERRLRKLERQLKNLKP-MVATVASKEPLSLAHFKNFVEIWVQFDPKRTSYIHINVLSDFADSLNEPLRIAKPNAEELIDMELPLAADGRIHMIDILFAFTQRVLGESELSQEQYALLLKLFNSANPDKSQVRPIQTTLLNELFRLQKEKVRKAERERLEAYNRYLERLKP-MIQTLYSAEPLSLADVENFYRVWTQFDPQLTGYIHFNVLSDFADSLEEPLRIAKPNSTQLLEMNLPLADGGLIHWLDIFFAFTERVLGNSELAEDFYKFGKKLFDAAEPNKSRYKPIRTTLKELQQVIQKQKEIQAELRRREAENRRRQEQKP-SMQTDNSSQPLSLGDFLNFEKVWKIFDPEDTGYIHRDVLSDFADALDEPLRVAKPNASALLSMNLPLADDRKIHFVDILFAFSRRVLGESDEAEELFKVGLQFFNAANPDKSQYKPIETTLLQVEEVEQRKKVELAEQARKEAERIRLLEKLP-MVITSESEEPLSVQDFLNFNEVWTKFDPRKTGYIHINVLSDFADSLDEPLRIAKPNLDTLLALDLPLVNNDLIHFVDILFAFTKRVLGDSDESDALFIELRGKWSAANPNKEEYKPIETTLLEECRRLQKERLRLAERIRQEKERRRLAAERP-GIITKESTQPLTLADFANFEEVWRIFDPQNTAYIHHHVLSDFADSLDAPLRVAKPNRTTLLSLNLPLVAEGMIHQIDILFAFTQRVLGHSSAADSLYALGLSLFDAANPNKSQKKPIQTTLLQLEQVEAKQRVIEAELERRRAEGIERENAER-MVQTANSAMPLSAADLQNFNAVWTKFDPAETGYIHYTVLSDFADSLDAPLRVAKPNAQVLLDLNLPLTESGMIHRVSILFAFTQRVLGESEDAQALFVQGMMEVMRADPNRERYKPIQTTLLQLQQVVAARRVAEAERDRLRAENERILKSIP-TVQTSNAAQPLTLDNFANFNKVWTIFDPEETAYIHVNVLSDFADTLDEPLRIAKPNAETLLALNLPMAEGGRIHRLDILFAFTERVLGESDEAEADFVEGLKKFGAADPDKSSVKPIKTTLLQLQEEIDAEDVRRAKEREKKIANLERENERP-MVKTQFSEEPLTAGDLANFHAVWTQFDPENTGYIHCNVLSDFADSLQAPLQVAKPNSETLLSLELPLEKEGRIHYLDILFAFTKRVLGDDDDSEEEYIVGCLKFMEANPDRSLYRPITSTLLRLRSVIAKRKVDIAEAERREQERLRRLLEAP-MIETANSSQPLTLADFVNFQKVWTEFDPHNTAYIHMNVLSDFADSLDAPLRVAKPNEEELIAMNIPLSDDLQIHIVDIAFAFTERVLGSSDSSSASFVQGLEEFGKANPDKSGYKPIKTTLLQEQRRRDAEKVRRAEEERLRAENERRRKQEP,SVATEESTEPLSEDDFDMFYEIWEKFDPEATQFIEYSVLSDFADALSEPLRIAKPNQISLINMDLPMVSGDRIHCMDILFAFTKRVLGESGEMDALKIQMEEKFMAANPSKISYEPITTTLRRKHEEVSAMVIQRAFRRHLLQRSLKHASFLF-SVATEESTEPLSEDDFDMFYEIWEKFDPEATQFIEYSVLSDFADALSEPLRIAKPNQISLINMDLPMVSGDRIHCMDILFAFTKRVLGESGEMDALKIQMEEKFMAANPSKISYEPITTTLRRKHEEVSAMVIQRAFRRHLLQRSLKHASFLF-SVATEESTEPLSEDDFDMFYEIWEKFDPEATQFIEYSVLSDFADALSEPLRIAKPNQISLINMDLPMVSGDRIHCMDILFAFTKRVLGESGEMDALKIQMEEKFMAANPSKISYEPITTTLRRKHEEVSAMVIQRAFRRHLLQRSLKHASFLF-SVATEESTEPLSEDDFDMFYEIWEKFDPEATQFIEYSVLSDFADALSEPLRIAKPNQISLINMDLPMVSGDRIHCMDILFAFTKRVLGESGEMDALKIQMEEKFMAANPSKISYEPITTTLRRKHEEVSAMVIQRAFRRHLLQRSLKHASFLF-SVATEESTEPLSEDDFDMFYEIWEKFDPEATQFIEYSVLSDFADALSEPLRIAKPNQISLINMDLPMVSGDRIHCMDILFAFTKRVLGESGEMDALKIQMEEKFMAANPSKISYEPITTTLRRKHEEVSAMVIQRAFRRHLLQRSLKHASFLF-SVATEESTEPLSEDDFDMFYEIWEKFDPEATQFIEYSVLSDFADALSEPLRIAKPNQISLINMDLPMVSGDRIHCMDILFAFTKRVLGESGEMDALKIQMEEKFMAANPSKISYEPITTTLRRKHEEVSAMVIQRAFRRHLLQRSLKHASFLF-SVATEESTEPLSEDDFDMFYEIWEKFDPEATQFIEYSVLSDFADALSEPLRIAKPNQISLINMDLPMVSGDRIHCMDILFAFTKRVLGESGEMDALKIQMEEKFMAANPSKISYEPITTTLRRKHEEVSAMVIQRAFRRHLLQRSLKHASFLF-SVATEESTEPLSEDDFDMFYEIWEKFDPEATQFIEYSVLSDFADALSEPLRIAKPNQISLINMDLPMVSGDRIHCMDILFAFTKRVLGESGEMDALKIQMEEKFMAANPSKISYEPITTTLRRKHEEVSAMVIQRAFRRHLLQRSLKHASFLF-SVATEESTEPLSEDDFDMFYEIWEKFDPEATQFIEYSVLSDFADALSEPLRIAKPNQISLINMDLPMVSGDRIHCMDILFAFTKRVLGESGEMDALKIQMEEKFMAANPSKISYEPITTTLRRKHEEVSAMVIQRAFRRHLLQRSLKHASFLF-SVATEESTEPLSEDDFDMFYEIWEKFDPEATQFIEYSVLSDFADALSEPLRIAKPNQISLINMDLPMVSGDRIHCMDILFAFTKRVLGESGEMDALKIQMEEKFMAANPSKISYEPITTTLRRKHEEVSAMVIQRAFRRHLLQRSLKHASFLF,LPYVEDGLYL-QERVVDNLYL-REYVVDNLMA-GERVTDNLTL-EERVVNNLFV-AERVVDNLRL-RQYVRDNRYL-EERVYDNRYL-PPTVVDNLFP-RERVRNNLYL,KESVFENYYV-KESVFENYYV-KESVFENYYV-KESVFENYYV-KESVFENYYV-KESVFENYYV-KESVFENYYV-KESVFENYYV-KESVFENYYV-KESVFENYYV
35.0,113,123,B,10,EGLQGIVTKLYSKQGFYLCLKENGSILGTKDDEDENILFDLIPVGPRQVAIKGVKTNLYLAIDSTGKFFTSKKFTPDCIFNEETYAERWHCYSSSIYKNKKSGEEWYLGLDSNGEIMLGNKVKKDKPSAHFKPVPFFKEEYEKPKIEE-MGLKGILSRLYSKQGFYLELSENGNISGTKDDKSKFINFEIIPVGDNEVAIKGVETNLYLAINSDGIFYTSKDFTPDCIFKEETYRNYWHCYSSSIYKDKKTGKDWYLGLDKEGKIMNGGEVNIDQPAAWFIPVVEKEKEFDEPEIHE-NGLEGIVSKLYSKQGFYLVLSADGNISGTKDNTSEYINFDIIPVGDNEVAIRGVATNLYLAIDEKGVFYTSKEFTPDCIFLEETYNRSWHCFSSSIYKDEKSGEKWYLGLDEKGKLMNGKDVKRSEPAAWFIPVVKEMKQYKAPTINN-GGLAGIKSKLYSRQGFYLELTENGTIKGTKDEDSKNINFDIIPVGKDLVAIRGVETSLYFAIDETGKFYTSKDFTPDCVWREKVYNNGWACYSSSTYERKDTGEDWYLGLDAKGEIMNGGDVLENQPAAHFKPVVEEEEKFEEPKLTS-GGLQGIITKLYSKQGFYLRLDADGHIHGTKNEDDENILFDLIPVGENQVAIKGVKTSLYLAIDKDGVFYTSVLFTPDCVFNQTTYASWWTCYSSSVYKSSKTGENWYLGLDKDGVMMNGKDVHFDKPSAHFIPDPLKSKSYKKPTIHL-GSLSGVITKLYSRQGYYLELSADGSIKGTKDDSSAFINFELIPVGVNQVAIRGVETNLYLAIDENGEFFTSKEFTPNCIWNEETYADLWHCYSSCVYKNEETGESWYLGLDARGEIMDGKDVRKDKPAAWFTPVVEKRQQFEEPVMHH-DNLKGIITRLYSKQGFYLELTEDGKIRGTKDSHSEFINFDLIPVGQNLVAIRGVATQLYLAIDENGDFYTSKDFTPDCIFKEESFEEKWICYSSCIYESKKLGKRWFLGLDENGEIMNGGEVFFDKPSAHFKPEPYCKKKYKQPTLHN-RGLEGIISRLWSRRGFYLRLSADGKISGTKNEQSADILFHIIPVGDRQVAIQGVSTKLYLAIDATGEFFTSKEFTPDCIFNEDTYSKRWVCYSSSSYQDKASGKSWYLGLDEDGKIMNGGDVNRDKPAAHFVPDVLEAKKFERPEIKS-AGLLGIVSRLYSKQGFYLELTADGKISGTKNERSSYINFHLIPVGENQVAIQGVKTKLYLAIDRNGVFHVSKKFTPECIWKEETYAELWHCYSSSIHKHKESGESWYLGLDEQGKIMLGKNVFRHLPSAHFTPVVEKYQEFEEPEIHD-SGLKGIISRLYSKQGFYLELSEDGRIHGTKNDSSKHINFEIIPVGDNQVAIRGVETELYLAIDSTGTFYTSKEFTPDCVFNQRTYADKWICFSSSIYKHEDDGKDWFLGLDAAGEIMNGKDVNFDKPAAWFKPVVEKEKQFDEPVLHD,PQLKGIVTKLYSRQGYHLQLQADGTIDGTKDEDSTYTLFNLIPVGLRVVAIQGVQTKLYLAMNSEGYLYTSELFTPECKFKESVFENYYVTYSSMIYRQQQSGRGWYLGLNKEGEIMKGNHVKKNKPAAHFLPKPLKVAMYKEPSLHD-PQLKGIVTKLYSRQGYHLQLQADGTIDGTKDEDSTYTLFNLIPVGLRVVAIQGVQTKLYLAMNSEGYLYTSELFTPECKFKESVFENYYVTYSSMIYRQQQSGRGWYLGLNKEGEIMKGNHVKKNKPAAHFLPKPLKVAMYKEPSLHD-PQLKGIVTKLYSRQGYHLQLQADGTIDGTKDEDSTYTLFNLIPVGLRVVAIQGVQTKLYLAMNSEGYLYTSELFTPECKFKESVFENYYVTYSSMIYRQQQSGRGWYLGLNKEGEIMKGNHVKKNKPAAHFLPKPLKVAMYKEPSLHD-PQLKGIVTKLYSRQGYHLQLQADGTIDGTKDEDSTYTLFNLIPVGLRVVAIQGVQTKLYLAMNSEGYLYTSELFTPECKFKESVFENYYVTYSSMIYRQQQSGRGWYLGLNKEGEIMKGNHVKKNKPAAHFLPKPLKVAMYKEPSLHD-PQLKGIVTKLYSRQGYHLQLQADGTIDGTKDEDSTYTLFNLIPVGLRVVAIQGVQTKLYLAMNSEGYLYTSELFTPECKFKESVFENYYVTYSSMIYRQQQSGRGWYLGLNKEGEIMKGNHVKKNKPAAHFLPKPLKVAMYKEPSLHD-PQLKGIVTKLYSRQGYHLQLQADGTIDGTKDEDSTYTLFNLIPVGLRVVAIQGVQTKLYLAMNSEGYLYTSELFTPECKFKESVFENYYVTYSSMIYRQQQSGRGWYLGLNKEGEIMKGNHVKKNKPAAHFLPKPLKVAMYKEPSLHD-PQLKGIVTKLYSRQGYHLQLQADGTIDGTKDEDSTYTLFNLIPVGLRVVAIQGVQTKLYLAMNSEGYLYTSELFTPECKFKESVFENYYVTYSSMIYRQQQSGRGWYLGLNKEGEIMKGNHVKKNKPAAHFLPKPLKVAMYKEPSLHD-PQLKGIVTKLYSRQGYHLQLQADGTIDGTKDEDSTYTLFNLIPVGLRVVAIQGVQTKLYLAMNSEGYLYTSELFTPECKFKESVFENYYVTYSSMIYRQQQSGRGWYLGLNKEGEIMKGNHVKKNKPAAHFLPKPLKVAMYKEPSLHD-PQLKGIVTKLYSRQGYHLQLQADGTIDGTKDEDSTYTLFNLIPVGLRVVAIQGVQTKLYLAMNSEGYLYTSELFTPECKFKESVFENYYVTYSSMIYRQQQSGRGWYLGLNKEGEIMKGNHVKKNKPAAHFLPKPLKVAMYKEPSLHD-PQLKGIVTKLYSRQGYHLQLQADGTIDGTKDEDSTYTLFNLIPVGLRVVAIQGVQTKLYLAMNSEGYLYTSELFTPECKFKESVFENYYVTYSSMIYRQQQSGRGWYLGLNKEGEIMKGNHVKKNKPAAHFLPKPLKVAMYKEPSLHD,EGPLLTTLLD-PKPLTSSKEK-SKPITQTIKN-KKPIVETTKQ-ANPITTTLKD-SQPLVTSKAR-QTPITSTSSS-AGPIISTKLA-EEPLVTTAIQ-LGPITSTLKR,YEPITTTLRR-YEPITTTLRR-YEPITTTLRR-YEPITTTLRR-YEPITTTLRR-YEPITTTLRR-YEPITTTLRR-YEPITTTLRR-YEPITTTLRR-YEPITTTLRR
