contacts,cs,ce,Chain,Length,designed_receptor_seq,native_receptor_seq,designed_binder_seq,native_binder_seq
28.0,12,22,A,10,SNAKLKADKILDVNIVNVTATAGDTIAVPIEFTNVPKEGIQAFSLDHFYDAKYIEITKVEPGNIIKNPDKNFRFKVDKNKSKVSFLYIAYDMDGTELITEDGVFANFTVKVKPDVFKDRNDDILYSKITFGTSEFCDFNLNRILANLTEGVIKIKKKG-SNAMRIANKSLDVNVVDVTATAGDTIKVPIEWKQVPKDGVQAFSLDHYFDKRKIEVTKVEPGEIVKNPEKNFRFKIEEKKSRISFLYLAYEGDGKELIKEDGVFATLTVKVKPDVFKNKGEDKLYSDITFGGSEFCDFNLEPILANQYEGKITIYKKG-SNAMEVANKVLDVYVVDQTVTAGDTIKIPIKFENVPKDGIQAFRWETYYDSRAIEVKKVEPGEIIKNPEKNFRYKIDKDKSRIRFLYMAWDQDGKELITEDGVFANFTVKVKPDIFKDKNEDVLFTDISFGESEFCDFNLEPILANQYSGKIKINKKG-SNAMEIGDKKLDINIVDVEATAGDTIEVPITWNNVPKDGIQAFRLNYYYDKSAIEVTEVKPGEIIKNPEENFRYKINEDKSEIAFLYIDFYGDGKELITEDGVFATFTVKVKPDIFKEKNTDLLYSDITFGGSEFCDFNLNPILANQIDGVITIKKKG-SNAMTQAKQILDSLVENVTATAGDTIEVPLKWNNVPKDGIEAFRLEHFYDSRAIEVLEVRPGDIIKNPEKNFRHHIYEEASRIAYLYIAYKGDGKELIQEDGIFATYKVKVKPDIFENRGEDVLYSRITYGRSEFCNFDLEPILANLSEGVITIKKRG-SNAEKVAKKKLNVFVVDQTVTAGDTVEIPIEWENVPKEGIEAFDLDFYYDAEKIEVLKVEPGEIIKNPEDNFKYKIEKEKSKISFFYIAKDLDGKELIKEDGVFAKLTVKVKPDVFKNKNDKVLYSDITYGGAEFCDFNLEPILAELTEGKVKIKKKG-GPLGSMASKTLDVHVVNQTVVAGDTIDVPIEWKNVPKEGIQAFSLDHYFDSSAIEIKEVKPGEIIKNPENNFRFQIDEKRSKVSFLYMDEDNDGKDLITKDGVFATFTVKVKPDIFKDKGEDVLTSEITFGGSEFCDFNLEPILANQYAGVIIINKKG-GHMETVAEKSLDVYVVDVTATAGDTIEIPLELWNVPKEGVQSFDLDFYYDSRAITVTKVEPGAIIKNPEKDFRYRIFENRSEVHFLYRASENDGKELITEDGVFAKLTVTVKPDIFKDRGEDVLYSKITFGNAEFCDFNLNPILANLSEGFLKIFKKG-MVANKVANKVLDVYVIDQTVTAGDTVKVPIAFENVPKDGIQAFSLSYYYDSKAIEVTKVEPGEIIKNPDKNFRHKIDEDKSKVEFFYIAHDLDGKELIKEDGTFATLTVKVKPDIFKDKDEDKLYSDITFGKSQFCDFNLDEILANLTEGQIEIHRKD-SDVQEIAKKRLDVYVVNRTVTAGDTVEIPLEWRNVPKDGIEAFSLSHFFDSKAIEIKKVEPGEIIKNPGKNFRHRIFKDLSEIRFFYIDFDLDGKELITEDGIFAKLTVKVKPDIFKNRDELVLYSHITYGGAEFCDFNLEPILANLSRGVITIHRRG,IHEAETADYILDVLVEGVKAKAGDTVEIPLKFENVPSHGIQSFNLSLYYDSKAIEVLKVEPGSIITDPANNFDYNIVYKDSEIVFLFDDDKQKGEGLIKTDGVFAKLTVRIKPDIFKDSGSTKKYSLITFGESNFCDFDLKPILAVLKEGKVEIEKLE-IHEAETADYILDVLVEGVKAKAGDTVEIPLKFENVPSHGIQSFNLSLYYDSKAIEVLKVEPGSIITDPANNFDYNIVYKDSEIVFLFDDDKQKGEGLIKTDGVFAKLTVRIKPDIFKDSGSTKKYSLITFGESNFCDFDLKPILAVLKEGKVEIEKLE-IHEAETADYILDVLVEGVKAKAGDTVEIPLKFENVPSHGIQSFNLSLYYDSKAIEVLKVEPGSIITDPANNFDYNIVYKDSEIVFLFDDDKQKGEGLIKTDGVFAKLTVRIKPDIFKDSGSTKKYSLITFGESNFCDFDLKPILAVLKEGKVEIEKLE-IHEAETADYILDVLVEGVKAKAGDTVEIPLKFENVPSHGIQSFNLSLYYDSKAIEVLKVEPGSIITDPANNFDYNIVYKDSEIVFLFDDDKQKGEGLIKTDGVFAKLTVRIKPDIFKDSGSTKKYSLITFGESNFCDFDLKPILAVLKEGKVEIEKLE-IHEAETADYILDVLVEGVKAKAGDTVEIPLKFENVPSHGIQSFNLSLYYDSKAIEVLKVEPGSIITDPANNFDYNIVYKDSEIVFLFDDDKQKGEGLIKTDGVFAKLTVRIKPDIFKDSGSTKKYSLITFGESNFCDFDLKPILAVLKEGKVEIEKLE-IHEAETADYILDVLVEGVKAKAGDTVEIPLKFENVPSHGIQSFNLSLYYDSKAIEVLKVEPGSIITDPANNFDYNIVYKDSEIVFLFDDDKQKGEGLIKTDGVFAKLTVRIKPDIFKDSGSTKKYSLITFGESNFCDFDLKPILAVLKEGKVEIEKLE-IHEAETADYILDVLVEGVKAKAGDTVEIPLKFENVPSHGIQSFNLSLYYDSKAIEVLKVEPGSIITDPANNFDYNIVYKDSEIVFLFDDDKQKGEGLIKTDGVFAKLTVRIKPDIFKDSGSTKKYSLITFGESNFCDFDLKPILAVLKEGKVEIEKLE-IHEAETADYILDVLVEGVKAKAGDTVEIPLKFENVPSHGIQSFNLSLYYDSKAIEVLKVEPGSIITDPANNFDYNIVYKDSEIVFLFDDDKQKGEGLIKTDGVFAKLTVRIKPDIFKDSGSTKKYSLITFGESNFCDFDLKPILAVLKEGKVEIEKLE-IHEAETADYILDVLVEGVKAKAGDTVEIPLKFENVPSHGIQSFNLSLYYDSKAIEVLKVEPGSIITDPANNFDYNIVYKDSEIVFLFDDDKQKGEGLIKTDGVFAKLTVRIKPDIFKDSGSTKKYSLITFGESNFCDFDLKPILAVLKEGKVEIEKLE-IHEAETADYILDVLVEGVKAKAGDTVEIPLKFENVPSHGIQSFNLSLYYDSKAIEVLKVEPGSIITDPANNFDYNIVYKDSEIVFLFDDDKQKGEGLIKTDGVFAKLTVRIKPDIFKDSGSTKKYSLITFGESNFCDFDLKPILAVLKEGKVEIEKLE,NIKDLVKLRM-GIREIVKYLR-GIKDLVKKAR-SIKDLVKKQR-SIKELVRKNR-GIKDTVKKAR-RITDLVKKKR-GVTNLVKEAR-DIKDVVKKER-SIKDKVRKKR,NISDYVLMKR-NISDYVLMKR-NISDYVLMKR-NISDYVLMKR-NISDYVLMKR-NISDYVLMKR-NISDYVLMKR-NISDYVLMKR-NISDYVLMKR-NISDYVLMKR
19.0,83,93,B,10,GNIGDVNNDGIVNVSDLILMKKFILKKIEKFPAEDAMFVGDVNGDNKINISDLILLKKYLLKQIEKFPKTQD-QKIGDVNNDGDVNIVDLILMKKYILKKIEKFPAKDAMYVGDVNGDNKINIVDVIYLKKYLLKKIKSFPKTDE-SLIGDVNNDGVVNITDLALMNKFIKEKIKSFPAKDAMYVGDVNGDNKIDITDFAYLNKFLLKKIESFPKTDE-SLIGDVNNDGIVDIRDLILMRKYIQKKIKEFPAENAMFVGDVNGDKKIDIRDYVLLRKYLLKEIKSFPKTED-GLIGDVNNDGVVDLIDLVLMRRFILKKIDSFPADDAMKVGDVNGDNKIDVFDLVLLRRFLLKEIDSFPKTDE-KKIGDVNNDGVVDIVDLVLMKQYIQKKITSFPAKNAMYVGDVNGDNLIDIKDLALLKQYLLKQITSFPKSDT-GLIGDVNDDGKVNIEDLVLMKKYILKKIEKFPAEDALFVGDVNGDKKINIEDVVFLKKYLLKLIKDFPKKKG-SKIGDVNNDGIVNITDLVLMIKFIQKKITSFPADDAMFVGDVNGDNKIDIVDVVYLIKFLLKKITSFPKTDN-AKIGDVNNDGVVNLEDLVLMRKFIQKKISSFPADDAMYVGDVNGDNKINIEDLVWLRKFLLKEVSSFPKTKD-GRIGDVNADGKVNVIDLILMKRYILKKIDKFPAEDSMFVGDVNGDNKINVLDFLLLKRFLLNKIDKFPKSKI,AVIGDVNADGVVNISDYVLMKRYILRIIADFPADDDMWVGDVNGDNVINDIDCNYLKRYLLHMIREFPKNSY-AVIGDVNADGVVNISDYVLMKRYILRIIADFPADDDMWVGDVNGDNVINDIDCNYLKRYLLHMIREFPKNSY-AVIGDVNADGVVNISDYVLMKRYILRIIADFPADDDMWVGDVNGDNVINDIDCNYLKRYLLHMIREFPKNSY-AVIGDVNADGVVNISDYVLMKRYILRIIADFPADDDMWVGDVNGDNVINDIDCNYLKRYLLHMIREFPKNSY-AVIGDVNADGVVNISDYVLMKRYILRIIADFPADDDMWVGDVNGDNVINDIDCNYLKRYLLHMIREFPKNSY-AVIGDVNADGVVNISDYVLMKRYILRIIADFPADDDMWVGDVNGDNVINDIDCNYLKRYLLHMIREFPKNSY-AVIGDVNADGVVNISDYVLMKRYILRIIADFPADDDMWVGDVNGDNVINDIDCNYLKRYLLHMIREFPKNSY-AVIGDVNADGVVNISDYVLMKRYILRIIADFPADDDMWVGDVNGDNVINDIDCNYLKRYLLHMIREFPKNSY-AVIGDVNADGVVNISDYVLMKRYILRIIADFPADDDMWVGDVNGDNVINDIDCNYLKRYLLHMIREFPKNSY-AVIGDVNADGVVNISDYVLMKRYILRIIADFPADDDMWVGDVNGDNVINDIDCNYLKRYLLHMIREFPKNSY,NELFINGDGK-KELKIDYEGK-YKLYVDRDGD-NKLSIKWNGE-NTLNIDWDGN-KGLYVNSLGI-KKLKINWNGE-NILYIDGLGN-EELKISLLGK-NKLEIGLLGL,VFLFDDDKQK-VFLFDDDKQK-VFLFDDDKQK-VFLFDDDKQK-VFLFDDDKQK-VFLFDDDKQK-VFLFDDDKQK-VFLFDDDKQK-VFLFDDDKQK-VFLFDDDKQK
