contacts,cs,ce,Chain,Length,designed_receptor_seq,native_receptor_seq,designed_binder_seq,native_binder_seq
25.0,40,50,A,10,MAEAGLAAVEAALAALDAEVAALEAEVAALEAEAAAEAAAEAEAEAAAEAAEEAAEAAEAAGGAGAALAALEAGLEGLEAEVAALEAEVAALEAEVAALEAEAPG-MAEAGLAAVRAALAEANAVVAAARAEAAAARAAARAEAAAAREAEARARAAEARARAAEAAGGAGAALAALRAGLEGGLAEARARAAEARAAEAAAARAAAEAPG-MAEAGLAAVEAALAAGRAEVEAALAAAAAAEAAAEAEAAAAVEAARAAGEAELEAARAAAAGGAGAAEAAARAGAEGGLAEAAARAAAEAEAAAAAARAAAEAPG-MAELGEAIVAAAEAAGNAVVAAAEAAAAAAEAAAEAEAAAAVEAAAEAEAAEAEAAAAEAEGGAGEALLAALEGAEGGAAEAEAAAEAEAAEAEAAAEAAAEAPG-MEELGKAIVDAAKAVGDAIVDAAKAVADAAKAVADAVADAVVDAAKAVGDAIVDAAKAVADGGVGAAIVDAVKGVEGVADAIVDAAKAVADAVVDAAKAVADAPG-MEELGKAIVDAAKAVGDAIVDAAKAVADAAKAVADAVADAAKAVADAAKAVEDAVKDAAKAGGAGAAIADAVVGAVGGAIVDAAKAVADAAKAVADAVADAVKPG-MEEAGKAAVEAAVEAANEVVAAAEAAAEAAEAAAEAEAAAAVEAAVEAAVEAAVEAAKEAAGGAGAALEAAVEGAEGAAEAAVEAAVEAAEEAAEAAVEAAVEPG-MADAGAAAVAAAVAAANAVVAAAEAAAAAAAAAAVADAAAAVAAAAAAGAAEGAAEAAAAAGGAGAAVAAAVAGAEGGAAEAAAAAAAAAAAGAAEAAAAAAAPG-MEIEGLKKEIEKLKEENKRIEELKKEIEKLKKEAEEEAKKAIEEKKKEEEKKKEEEKKKEEGGFGEKLKKGIEGLKGEIEKLKKEIEEKKEEIEKIKKEIEEAPG-MAEEGLAAVEAAVAAGEAVVAAAEAAVAAAEAAAEAEAAAAVEAAVAAGEAVVAAAEAAVAGGEGAAEAAAEAGAEGGAAEAAAAAEAAAEAEAAAAVEAAVAPG,SQKNGIATLLQAEKEAHEIVSKARKYRQDKLKQAKTDAAKEIDSYKIQKDKELKEFEQKNAGGVGELEKKAEAGVQGELAEIKKIAEKKKDDVVKILIETVIKPS-SQKNGIATLLQAEKEAHEIVSKARKYRQDKLKQAKTDAAKEIDSYKIQKDKELKEFEQKNAGGVGELEKKAEAGVQGELAEIKKIAEKKKDDVVKILIETVIKPS-SQKNGIATLLQAEKEAHEIVSKARKYRQDKLKQAKTDAAKEIDSYKIQKDKELKEFEQKNAGGVGELEKKAEAGVQGELAEIKKIAEKKKDDVVKILIETVIKPS-SQKNGIATLLQAEKEAHEIVSKARKYRQDKLKQAKTDAAKEIDSYKIQKDKELKEFEQKNAGGVGELEKKAEAGVQGELAEIKKIAEKKKDDVVKILIETVIKPS-SQKNGIATLLQAEKEAHEIVSKARKYRQDKLKQAKTDAAKEIDSYKIQKDKELKEFEQKNAGGVGELEKKAEAGVQGELAEIKKIAEKKKDDVVKILIETVIKPS-SQKNGIATLLQAEKEAHEIVSKARKYRQDKLKQAKTDAAKEIDSYKIQKDKELKEFEQKNAGGVGELEKKAEAGVQGELAEIKKIAEKKKDDVVKILIETVIKPS-SQKNGIATLLQAEKEAHEIVSKARKYRQDKLKQAKTDAAKEIDSYKIQKDKELKEFEQKNAGGVGELEKKAEAGVQGELAEIKKIAEKKKDDVVKILIETVIKPS-SQKNGIATLLQAEKEAHEIVSKARKYRQDKLKQAKTDAAKEIDSYKIQKDKELKEFEQKNAGGVGELEKKAEAGVQGELAEIKKIAEKKKDDVVKILIETVIKPS-SQKNGIATLLQAEKEAHEIVSKARKYRQDKLKQAKTDAAKEIDSYKIQKDKELKEFEQKNAGGVGELEKKAEAGVQGELAEIKKIAEKKKDDVVKILIETVIKPS-SQKNGIATLLQAEKEAHEIVSKARKYRQDKLKQAKTDAAKEIDSYKIQKDKELKEFEQKNAGGVGELEKKAEAGVQGELAEIKKIAEKKKDDVVKILIETVIKPS,AGLARAAALR-AGAARAAELR-AGAARAAALR-AGAEAAAALE-AGAVVDAVKD-VDAVKAVADA-VEAAVEAALE-AGAAEAAAAA-EGEKKKEELK-AGAAEAAALA,EYEIEKTNIV-EYEIEKTNIV-EYEIEKTNIV-EYEIEKTNIV-EYEIEKTNIV-EYEIEKTNIV-EYEIEKTNIV-EYEIEKTNIV-EYEIEKTNIV-EYEIEKTNIV
27.0,92,102,B,10,MEIETKLTPGEILELALKEELEKLKKEIEGLKKKYEELKKELEEKLKEELEKEIEKLKGELEELKKELEELKEKLEELKKELEELKEKLEKEKILEEIFKEAEKRLKGIAEDKEKYKPILKELIVESLLKLKEPVAVIRALKKDVELIKSMEEEIKKEYGKRNKESPLEEIIIDEEFLDEEKVVGGVVVENLKKTVKVDNTLEKRLEELKKELEPLIKEKLFG-MEIETKLTPEEILEEALKKELEELKKKIEGLKEKYEKAKEEFEKEKKEILEKEIEKIKGELEKLKEELEKLKEEVEKLKEELEKLKEELEKEKILEEIFKEAEKRLKGIAEDKEKYKPILKELIVDSLLKLKTPVAVIRALKKDVELIKKMEEEIKKEYGKRNKENPLKEIIIDEEYLDEKKVVGGVIVEDLEKIIKVDNTLEKRLEELKKEAKPLIKKLLFE-MEIETKLTPEEELKELLKKEYEELKKKIEGLKEKYEKLKEEYEKLKKEIEEKIKEEIEGLKEEIEKLKEEIEKLKEEIEKLKEEIEKLKEEEKILEEIFKEAEKRLKGIAEDKEKYKPILLELIVDSLLKLKKPVAVIKALKKDVELIKSMEEEIKKKYGELNKENPLEEIIIDEEYLDEKKVVGGVIVEDLEKIIKVDNTLEYRLEKLKEKAKPLIKKLLFE-MEIKTDLTPEEILKEALKEEYEKLKKEIEGLKKKYEELKKKLEEELKEKLEKEIEKLKGELEKLKEELEKLKEEVEKLKEELEKLKEELEKEKELEEIFKEAEKKLKGIAEDKEKYKPILKELIVEALLKLKKPVAVIRALKKDVELIKSMEEEIKKEYGKRNKENPLEEIIIDEEYLDEKKVVGGVVVEDLEKIVKVDNTLEKRLEELKKEAKPLIKKLLFE-MEIKTNLTPGEILEKALEEERKKLEEEIKGLEEKYKKAEEEFKKELEEKLKKEIEEIKGKLEEELKKLEEEKEKLEEEIKKLEEEIKKLEEEAILEEIFKEAEKRLKGIAEDKEKYKPILKELIVNSLLKLKTPVAVIRALKKDVELIKSMEEEIKKEYGKRNKENPLEEIIIDEEYLDEKKVVGGVVVEDLEKIIKVDNTLEKRLEELKKEAEPLIKKLLFE-MEIETKLTPEEELKELLKKEYEELKKKIEGLKKKYEELKKKLEEELKEKLEKEIEKLKGELEKLKEELEKLKEEVEKLKEELEKLKEELEKEKELEEIFKEAEKRLKGIAEDKEKYKPILLELIVEALLKLKEPVAVIRALKKDVELIKKMEEEIKKKYGELNKENPLKEIIIDEEYLDEKKVVGGVVVEDLEKIVKVDNTLEKRLEELKKELKPLIKKLLFE-MEIETKLTPEEILKLALEEERKKLEEEIKGLEEKYKKLEEELKKELKEKLEKEIKELEGELKELEEKLKEELEKLKEEVEKLKEELEKLKKEAILEAIFEEAEKRLKGIAEDKEKYKPILKELIVEALLKLRKPVAVIRALKEDVELIKSMEEEIKKEYGKRNKEAPLEEIIIDEEYLDEKKVVGGVVVEDLEKIVKVDNTLEKRLEELKKEAEPLIKKLLFE-MEIKTKLTPEEELKEALKKELEELEKKIKGLEEKIKKAEEEFKKELEEKIKEEIEKIKGELEKLKEELEKLKEEIEKLKEELEKLKEELEKEKELEEIFKEAEKRLKGIAEDKEKYKPILKELIVDSLLKLKTPVAVIKALKKDVELIKSMEEEIKKEYGKRNKENPLEEIIISEEYLDEKKVVGGVVVEDLEKIIKVDNTLEKRLEELKKEAEPLIKKLLFE-MEVKTNLTPEEILALAKEIEEKIEKAKIEGEKKRLEEAKKRYEEEKKRIEEEIEKEIEGEIEKLREELEKLKEEVEKLKEELEKLKEELEKEKILEEIFKEAEKRLEGIAKDKEKYKPILKELIVDSLLKLKTPVAVIRALKKDVELIKSMEEEIKKEYGKRNKENPLEEIIIDEEYLDEKKVVGGVVVEDLEKIVKVDNTLEKRLEELKKEAEPLIKEKLFG-MEIKTKLTPEEILEEALKKEYEELKKKIEGLKEKYEKLKEEYEKLKKEIEEKIKEEIEGLKKEIEEKLKEEIEKLKEEIEKLKEEIEKLKKEAILEAIFEEAEKRLKGIAEDKEKYKPILKELIVDSLLKLKEPVAVIRALKKDVELIKSMEEEIKKEYGKRNKENPLKEIIIDEEYLDEKKVVGGVIVEDLEKIIKVDNTLEYRLEKLKEKAKPLIKKLLFE,SSAITALTPNQVNDELNKMQAFIRKEAEEKAKEIQLKADQEYEIEKTNIVRNETNNIDGNFKSKLKKAMLSQQITKSTIANKMRLKVLSAREQSLDGIFEETKEKLSGIANNRDEYKPILQSLIVEALLKLLEPKAIVKALERDVDLIESMKDDIMREYGEKAQRAPLEEIVISNDYLNKDLVSGGVVVSNASDKIEINNTLEERLKLLSEEALPAIRLELYG-SSAITALTPNQVNDELNKMQAFIRKEAEEKAKEIQLKADQEYEIEKTNIVRNETNNIDGNFKSKLKKAMLSQQITKSTIANKMRLKVLSAREQSLDGIFEETKEKLSGIANNRDEYKPILQSLIVEALLKLLEPKAIVKALERDVDLIESMKDDIMREYGEKAQRAPLEEIVISNDYLNKDLVSGGVVVSNASDKIEINNTLEERLKLLSEEALPAIRLELYG-SSAITALTPNQVNDELNKMQAFIRKEAEEKAKEIQLKADQEYEIEKTNIVRNETNNIDGNFKSKLKKAMLSQQITKSTIANKMRLKVLSAREQSLDGIFEETKEKLSGIANNRDEYKPILQSLIVEALLKLLEPKAIVKALERDVDLIESMKDDIMREYGEKAQRAPLEEIVISNDYLNKDLVSGGVVVSNASDKIEINNTLEERLKLLSEEALPAIRLELYG-SSAITALTPNQVNDELNKMQAFIRKEAEEKAKEIQLKADQEYEIEKTNIVRNETNNIDGNFKSKLKKAMLSQQITKSTIANKMRLKVLSAREQSLDGIFEETKEKLSGIANNRDEYKPILQSLIVEALLKLLEPKAIVKALERDVDLIESMKDDIMREYGEKAQRAPLEEIVISNDYLNKDLVSGGVVVSNASDKIEINNTLEERLKLLSEEALPAIRLELYG-SSAITALTPNQVNDELNKMQAFIRKEAEEKAKEIQLKADQEYEIEKTNIVRNETNNIDGNFKSKLKKAMLSQQITKSTIANKMRLKVLSAREQSLDGIFEETKEKLSGIANNRDEYKPILQSLIVEALLKLLEPKAIVKALERDVDLIESMKDDIMREYGEKAQRAPLEEIVISNDYLNKDLVSGGVVVSNASDKIEINNTLEERLKLLSEEALPAIRLELYG-SSAITALTPNQVNDELNKMQAFIRKEAEEKAKEIQLKADQEYEIEKTNIVRNETNNIDGNFKSKLKKAMLSQQITKSTIANKMRLKVLSAREQSLDGIFEETKEKLSGIANNRDEYKPILQSLIVEALLKLLEPKAIVKALERDVDLIESMKDDIMREYGEKAQRAPLEEIVISNDYLNKDLVSGGVVVSNASDKIEINNTLEERLKLLSEEALPAIRLELYG-SSAITALTPNQVNDELNKMQAFIRKEAEEKAKEIQLKADQEYEIEKTNIVRNETNNIDGNFKSKLKKAMLSQQITKSTIANKMRLKVLSAREQSLDGIFEETKEKLSGIANNRDEYKPILQSLIVEALLKLLEPKAIVKALERDVDLIESMKDDIMREYGEKAQRAPLEEIVISNDYLNKDLVSGGVVVSNASDKIEINNTLEERLKLLSEEALPAIRLELYG-SSAITALTPNQVNDELNKMQAFIRKEAEEKAKEIQLKADQEYEIEKTNIVRNETNNIDGNFKSKLKKAMLSQQITKSTIANKMRLKVLSAREQSLDGIFEETKEKLSGIANNRDEYKPILQSLIVEALLKLLEPKAIVKALERDVDLIESMKDDIMREYGEKAQRAPLEEIVISNDYLNKDLVSGGVVVSNASDKIEINNTLEERLKLLSEEALPAIRLELYG-SSAITALTPNQVNDELNKMQAFIRKEAEEKAKEIQLKADQEYEIEKTNIVRNETNNIDGNFKSKLKKAMLSQQITKSTIANKMRLKVLSAREQSLDGIFEETKEKLSGIANNRDEYKPILQSLIVEALLKLLEPKAIVKALERDVDLIESMKDDIMREYGEKAQRAPLEEIVISNDYLNKDLVSGGVVVSNASDKIEINNTLEERLKLLSEEALPAIRLELYG-SSAITALTPNQVNDELNKMQAFIRKEAEEKAKEIQLKADQEYEIEKTNIVRNETNNIDGNFKSKLKKAMLSQQITKSTIANKMRLKVLSAREQSLDGIFEETKEKLSGIANNRDEYKPILQSLIVEALLKLLEPKAIVKALERDVDLIESMKDDIMREYGEKAQRAPLEEIVISNDYLNKDLVSGGVVVSNASDKIEINNTLEERLKLLSEEALPAIRLELYG,IIEEIIEKVI-IGEILIKLVI-IIEILIKAVI-IIEILIKAVI-IGEILIKLVI-IIEILIKLVI-IGEILIELVI-IIEILIELVI-IIEELIKKVI-IIEILIKAVI,VVKILIETVI-VVKILIETVI-VVKILIETVI-VVKILIETVI-VVKILIETVI-VVKILIETVI-VVKILIETVI-VVKILIETVI-VVKILIETVI-VVKILIETVI
