contacts,cs,ce,Chain,Length,designed_receptor_seq,native_receptor_seq,designed_binder_seq,native_binder_seq
34.0,14,24,A,10,VVSLSEIAEIIRKSLELLASDGIGLYNYARASSGAAVVSIGNTKPYLKNTLLLSKNGVPLLYLSRSAAVILEPDTTLGNAYCFAGSEGYATIRLCEKIQPTAVGLRHVPKSLSPAQTITAAPKDFSIYGYPSDINQKGTLLGKFSYDADGPPYQLFFFTNPPTATYQLIRLQIHTNWGHPDYTAIYRFEVYGIPPD-AITAEQVREVLRRQVELAEADEDGRFNYALADAGAAVVSIGDTEDYLRNTSLASRNGVPLYYFSQSPDVILKPNTTYGNAWAFKGDKGFADIRLNRRIRPTAVSLNHVPRSLSPGQVITDAPKDFEILGYPASITEVGTLLGRFTYDANGPPLQRFDFPNPTDAMYQLVRLRILTNHGHPKFTAVYRFEVHGVAPG-EITAEEVVEIIRRREELRRNRHVGLFNYALASAGASVISIGDTKNYLRDTLLLSKGGQPLFYLDKSPSVILEPDVAFGKCWAFEGDHGLATIKLCRKIQPRAVSLSHVPKSEAPNMVILSAPKDFEIYGYPDDADTEGILLGRFTYNKDGPPLQTFFFENPSDDMYQVVQLKVLTNWGHPEYTAIYRFEVHGIEPD-AITVSEVQEIARQALELEKNQLIGLYDYALASAGASVISIGNTKDYLRNTKLLSKDGTPLLYLSRSPDVILQPDTRLGNAYCFAGPKGTATIELNQKIQPTAVGLMHVPKSESPLQIIESAPKDFSIYGYPNSATEKGTLLGTFTYNKDGWPLQIFNFSNPSTSMYQIIQLVVHTNHGHPSYTAIYRFRVYGIPPT-MVTMEEIDEILRRLKELEENDLDGLYNFALASAGARVVSVGDTKDYLKRTALLSENGTPLFYLDRSPEVILKPDTSPGNCWSFAGPRGFAYIELCKRIRPTAVSLRHVPKSLSPGGTITSAPSDFEILGFPEKRDEEGILLGKFTYDKDGPPLQRFVFENPSDKMFQLVKLKVLTNNGHPEFTCIYRFEVHGIAPE-VITAEHVNYIIGKMLELKNRNRDGLYDYALASAGAKVVSIGNTKNHLRNTLLYSVNGEPLYYLSQSPDIILHPDTSLYNAYAFAGPHGLATIQLSKKIQPTAVSLLHVPKALSPNNTITSAPNKFSIYGYPSSITSIGTLLGTFEYDASGPPRQRFDFSNPSSSTFQYIQLQVHTNNGHPEFTAIYRFRVHGIAPN-GSSGSSGIETLRRQVALFKDDLVGLYNYAEASSGAAVVSIGDSVPYLRHTTLLSEDGLPLHYLSTSPAKILEPNTQPGQCWSFAGPVGHAYIRLCARIQPLAVSLNHVPRSLSPNQKISSAPRDFEILGFPGDTDEAGRLLGRFSYDADGPPLQRFFFANPSDAMFQVVRLRVLTNHGHPDFTAIYRFEVHGVPPG-TVTTSEKKEVARKLKALEKASYLGLYDYAEASSGAKVISIGKTIDHKRNTTLLSVNGKPLLYLDRSPDVILDPDTSLGNCWAFSGSSGFATIQLSERIRPTAVSLRHVPKSQSPGNVITSAPKDFEILGYPNDSESEGILLGKFSYNEQGAPLQVFFFENPPEATFQNVRLRILTNNGHPDFTCIYRFRVHGVPPE-VVSLEELQRILEEKERLRQSDLIGLYNYALASAGAKVVSIRDTKDFIRYTTLLSENGKPLFYLDQSPDVILEPDTSLGNAWAFEGPKGYATIELNRKIRPLAVGLRHVPKSLAPNNEITSAPRDFRILGFPESKDEEGILLGEFTYNIDGPPLQIFHFPDPSDKMFQLVRLEILTNNGHPDYTAVYRFEVHGVPPE-AITREEVEEIVRRALELKRNRYDGLFNYALASAGAEVVSIRDTKPFLRNTALLSRDGKPLFFLDKSPDVILEPDTTLGNCWAFEGSRGWADIRLCRRIRPLAVSLCHVPRSLSPRRTVHSAPRRFRVLGYPGSLNEEGELLGKFEYDEEGPPLQRFFFENPSSKTFQLVRLEVLTNWGHPEFTCIYRFEVHGVEPG,GVTEEQVHHIVKQALQRYSEDRIGLADYALESGGASVISTRCSETYETKTALLSLFGIPLWYHSQSPRVILQPDVHPGNCWAFQGPQGFAVVRLSARIRPTAVTLEHVPKALSPNSTISSAPKDFAIFGFDEDLQQEGTLLGKFTYDQDGEPIQTFHFQAPTMATYQVVELRILTNWGHPEYTCIYRFRVHGEPAH-GVTEEQVHHIVKQALQRYSEDRIGLADYALESGGASVISTRCSETYETKTALLSLFGIPLWYHSQSPRVILQPDVHPGNCWAFQGPQGFAVVRLSARIRPTAVTLEHVPKALSPNSTISSAPKDFAIFGFDEDLQQEGTLLGKFTYDQDGEPIQTFHFQAPTMATYQVVELRILTNWGHPEYTCIYRFRVHGEPAH-GVTEEQVHHIVKQALQRYSEDRIGLADYALESGGASVISTRCSETYETKTALLSLFGIPLWYHSQSPRVILQPDVHPGNCWAFQGPQGFAVVRLSARIRPTAVTLEHVPKALSPNSTISSAPKDFAIFGFDEDLQQEGTLLGKFTYDQDGEPIQTFHFQAPTMATYQVVELRILTNWGHPEYTCIYRFRVHGEPAH-GVTEEQVHHIVKQALQRYSEDRIGLADYALESGGASVISTRCSETYETKTALLSLFGIPLWYHSQSPRVILQPDVHPGNCWAFQGPQGFAVVRLSARIRPTAVTLEHVPKALSPNSTISSAPKDFAIFGFDEDLQQEGTLLGKFTYDQDGEPIQTFHFQAPTMATYQVVELRILTNWGHPEYTCIYRFRVHGEPAH-GVTEEQVHHIVKQALQRYSEDRIGLADYALESGGASVISTRCSETYETKTALLSLFGIPLWYHSQSPRVILQPDVHPGNCWAFQGPQGFAVVRLSARIRPTAVTLEHVPKALSPNSTISSAPKDFAIFGFDEDLQQEGTLLGKFTYDQDGEPIQTFHFQAPTMATYQVVELRILTNWGHPEYTCIYRFRVHGEPAH-GVTEEQVHHIVKQALQRYSEDRIGLADYALESGGASVISTRCSETYETKTALLSLFGIPLWYHSQSPRVILQPDVHPGNCWAFQGPQGFAVVRLSARIRPTAVTLEHVPKALSPNSTISSAPKDFAIFGFDEDLQQEGTLLGKFTYDQDGEPIQTFHFQAPTMATYQVVELRILTNWGHPEYTCIYRFRVHGEPAH-GVTEEQVHHIVKQALQRYSEDRIGLADYALESGGASVISTRCSETYETKTALLSLFGIPLWYHSQSPRVILQPDVHPGNCWAFQGPQGFAVVRLSARIRPTAVTLEHVPKALSPNSTISSAPKDFAIFGFDEDLQQEGTLLGKFTYDQDGEPIQTFHFQAPTMATYQVVELRILTNWGHPEYTCIYRFRVHGEPAH-GVTEEQVHHIVKQALQRYSEDRIGLADYALESGGASVISTRCSETYETKTALLSLFGIPLWYHSQSPRVILQPDVHPGNCWAFQGPQGFAVVRLSARIRPTAVTLEHVPKALSPNSTISSAPKDFAIFGFDEDLQQEGTLLGKFTYDQDGEPIQTFHFQAPTMATYQVVELRILTNWGHPEYTCIYRFRVHGEPAH-GVTEEQVHHIVKQALQRYSEDRIGLADYALESGGASVISTRCSETYETKTALLSLFGIPLWYHSQSPRVILQPDVHPGNCWAFQGPQGFAVVRLSARIRPTAVTLEHVPKALSPNSTISSAPKDFAIFGFDEDLQQEGTLLGKFTYDQDGEPIQTFHFQAPTMATYQVVELRILTNWGHPEYTCIYRFRVHGEPAH-GVTEEQVHHIVKQALQRYSEDRIGLADYALESGGASVISTRCSETYETKTALLSLFGIPLWYHSQSPRVILQPDVHPGNCWAFQGPQGFAVVRLSARIRPTAVTLEHVPKALSPNSTISSAPKDFAIFGFDEDLQQEGTLLGKFTYDQDGEPIQTFHFQAPTMATYQVVELRILTNWGHPEYTCIYRFRVHGEPAH,SISLVNGPPC-EIVYVNGPPP-QLVSVNGPPP-TITYINGPPC-ELKLVNGPPC-TLTYVNGPPA-RVALVNGPPP-EISFVNGPPP-EIKFVNGPPP-EIVWVNGPPP,MLRYTNGPPP-MLRYTNGPPP-MLRYTNGPPP-MLRYTNGPPP-MLRYTNGPPP-MLRYTNGPPP-MLRYTNGPPP-MLRYTNGPPP-MLRYTNGPPP-MLRYTNGPPP
30.0,46,56,B,10,MASLEDPLRDSDIPRILLTNGPPPS-KAANADPVAASNIPRVTFTNGPPPG-GSHMSDPSLHSDVPTITLTNGPPPG-GSHMDDPLFRSNVPRVTLRNGPPPG-GSHMEDPLDNSLIPQVRFVNGPPPG-GAMATNPFLSSAVPQVTIVNGPPPA-MAAALDGFAESDVPSISLVNGPPPG-GSDDDDDFANSDVPRVRFVNGPPPG-GSHMEDPFAASAIPRITFTNGPPPG-HMQKLDPRAHSNIPRVELINGPPPG,SCALSNNFARSFHPMLRYTNGPPPL-SCALSNNFARSFHPMLRYTNGPPPL-SCALSNNFARSFHPMLRYTNGPPPL-SCALSNNFARSFHPMLRYTNGPPPL-SCALSNNFARSFHPMLRYTNGPPPL-SCALSNNFARSFHPMLRYTNGPPPL-SCALSNNFARSFHPMLRYTNGPPPL-SCALSNNFARSFHPMLRYTNGPPPL-SCALSNNFARSFHPMLRYTNGPPPL-SCALSNNFARSFHPMLRYTNGPPPL,PKDTLQVSVG-PTNTVQISLG-PTNTVVLSLG-PRDTVVVSLG-PTNTVQVSLG-PTNSLLLSIG-DNDTVVVSRG-DRRTVRVSLG-PRDTVVVSVG-PTNTVVISLG,ETKTALLSLF-ETKTALLSLF-ETKTALLSLF-ETKTALLSLF-ETKTALLSLF-ETKTALLSLF-ETKTALLSLF-ETKTALLSLF-ETKTALLSLF-ETKTALLSLF
