contacts,cs,ce,Chain,Length,designed_receptor_seq,native_receptor_seq,designed_binder_seq,native_binder_seq
34.0,14,24,A,10,SISTELLERIIGLQNDLRNQLHDGYYNWAWKEEGAEVISIGNTLNHLKLTLLRSVNGIPLEYLHRSADIILTRDTAIGKCWCFSGSKGLATIRLCAKIRPVAVSLRHVPKTDSPNQNIDAAPKDFEVLGFPSGADEIGTLLGRFTYNVNGRPLQIFYFKNPSDNTYQIIQLRINTNHGHHTHTALYRFDVHGIAPE-ILLNEQVKEKAHQALMLKAQDHDGLWNYALDVEGAKVIGIGSSEPHVRNTTQKSRNGEPLRYKSTSPATILRPFGEPNNCWSFTGDSGLATIQLCAKIKPEAVGLLHCPTSLSPEQCITSAPCEFEILGFPDDINENGILLGKFTYHAAGSPKQRFDFLNPSTSMFQIIRLKILTNHGHDDYTDVYRFEVFGIAPE-PTTESSFNLNEALRLALDSANWDGLENFALKADGASVISIGSTKDWERLSELQSKWGRPLRFKSRSAACILHPNTALGSCYFFDGPYGLAVVRLRLKIRPTAVSLCHCPRYAWPREISYSNPNQFEVKGYPETSRSQGELLGRFTYNSDGAPVQRFDFLNVTSKTFQNIELRVLTNHGHPTHTCIYRFEVHGIRPS-SVSSSMLKMIESCLQVLYNTDHEGRYNYAYRSAGACVISTDDTVNYLVDSCLLKENGIPLLYLDVSAGRILHPNTLPGNCYSFAGSNGVATIRLCKKITPTAVALEHCPRSKSPNQERTFAPCRFRVLGFPGDANVRGILLGSFTYKSDGLPLQLFHFTNPSQKAFQCVCLEVLTNHGCDLHTDIYRFEVFGTGPR-MVTLEEVREINRQAVELYQNSFIGLRNFADAGAGAAVISIGDSVDSINNTSLLSINGIPLFYLEQSPLTILYRYTVIGMCYAFSGPFGLASIQLSRRIQPTAVSIQHCPKTLSPSKVIHSAPKKFAIYGFPTNNHETGQLLGKFTFNKEGTPLQKFHFPNPTSNTFQVVQLEVKSNQGHLEYTCIYAFEVHGIEPS-SVSKAEINDLVRKMENLHQSNFIGKFDYALLTGGAAVVSVHETRDFLRNTCQRSEEGYPLRYLSASADVILQPRTNQGYCWSFEGDFGKATIRLSRRIRPRAVSLMYAPKSQNPSQKGTCYPAAFAIFGFPENENDEGVLLGEFEWNACGAPAQLFWFANPSDETYQVVRLEVFTNWGHSEHTCIYQFRVHGIGPS-MVSSLQRIHEERQQLLLKKENHVGLRDFALAEEGAEVVSIGSTTPFIKNTCLLSSGGVPLFYSSVSPDIILCPDTSLGKSWDFSGSSGQATIRLCKRIAPTAVSLLHVPKSQAPQHIITSAPSQFRVLGFPEDNKTRGTLLGEFEYDALGQPRQIFYFSNPSSFSYQLIQLKIETNYGHPNATSIYRFKVHGVAPG-GVSAEMKNAVKKDALKLWESDCDGLFNYALADKGASVIGIGDSKPYLRHTVLRSINGKPLFYLDVSPAKILRPNTNLYDCWSFSGSKGRAWIKLCKKIKPVAISLNQRPKALSPGNVGTHWPKKFEVLGYPHSISEKGELLGKFEWNKDGPPIQRFFFPRPSKQTFQVVELRILSNWGHFEFTAVYRFDVHGIEIG-TETSDAMVQRFEAAYDLASASVDGLFDYAFADAGAMVVSTGSTVDHRMNTILASRDGMPLFHYHQSPDIILEQRTAVGSNYNFLGDKGHARIKLKKTIRPTAVAIRHIPKSMAPYGTIFNAPADFSVYGFPSDGLQKGNLLGIFRYDSEGSPLQVFYFNNPGKDSFQLVQLVVQSNHGNLDYTGIYRFRVHGIAPR-RVTNQEVQEIIKRKLELEAQEEGGYFNYAEAAAGASVVSIQKTVDFKRNTVLMSENGKKMYYFEKSPETILEKNTAPYHAFSFTGDKGSATIRLKKQIQPLAVGLSHVPKSLSEKELTAAAPKTFDVFGFPGDGQSAGTLLGKFTYDVDGSPLQVFYFENPTKEKFQLVRLNIQSNQGHPQATSLYEFEVYGIPEQ,GVTEEQVHHIVKQALQRYSEDRIGLADYALESGGASVISTRCSETYETKTALLSLFGIPLWYHSQSPRVILQPDVHPGNCWAFQGPQGFAVVRLSARIRPTAVTLEHVPKALSPNSTISSAPKDFAIFGFDEDLQQEGTLLGKFTYDQDGEPIQTFHFQAPTMATYQVVELRILTNWGHPEYTCIYRFRVHGEPAH-GVTEEQVHHIVKQALQRYSEDRIGLADYALESGGASVISTRCSETYETKTALLSLFGIPLWYHSQSPRVILQPDVHPGNCWAFQGPQGFAVVRLSARIRPTAVTLEHVPKALSPNSTISSAPKDFAIFGFDEDLQQEGTLLGKFTYDQDGEPIQTFHFQAPTMATYQVVELRILTNWGHPEYTCIYRFRVHGEPAH-GVTEEQVHHIVKQALQRYSEDRIGLADYALESGGASVISTRCSETYETKTALLSLFGIPLWYHSQSPRVILQPDVHPGNCWAFQGPQGFAVVRLSARIRPTAVTLEHVPKALSPNSTISSAPKDFAIFGFDEDLQQEGTLLGKFTYDQDGEPIQTFHFQAPTMATYQVVELRILTNWGHPEYTCIYRFRVHGEPAH-GVTEEQVHHIVKQALQRYSEDRIGLADYALESGGASVISTRCSETYETKTALLSLFGIPLWYHSQSPRVILQPDVHPGNCWAFQGPQGFAVVRLSARIRPTAVTLEHVPKALSPNSTISSAPKDFAIFGFDEDLQQEGTLLGKFTYDQDGEPIQTFHFQAPTMATYQVVELRILTNWGHPEYTCIYRFRVHGEPAH-GVTEEQVHHIVKQALQRYSEDRIGLADYALESGGASVISTRCSETYETKTALLSLFGIPLWYHSQSPRVILQPDVHPGNCWAFQGPQGFAVVRLSARIRPTAVTLEHVPKALSPNSTISSAPKDFAIFGFDEDLQQEGTLLGKFTYDQDGEPIQTFHFQAPTMATYQVVELRILTNWGHPEYTCIYRFRVHGEPAH-GVTEEQVHHIVKQALQRYSEDRIGLADYALESGGASVISTRCSETYETKTALLSLFGIPLWYHSQSPRVILQPDVHPGNCWAFQGPQGFAVVRLSARIRPTAVTLEHVPKALSPNSTISSAPKDFAIFGFDEDLQQEGTLLGKFTYDQDGEPIQTFHFQAPTMATYQVVELRILTNWGHPEYTCIYRFRVHGEPAH-GVTEEQVHHIVKQALQRYSEDRIGLADYALESGGASVISTRCSETYETKTALLSLFGIPLWYHSQSPRVILQPDVHPGNCWAFQGPQGFAVVRLSARIRPTAVTLEHVPKALSPNSTISSAPKDFAIFGFDEDLQQEGTLLGKFTYDQDGEPIQTFHFQAPTMATYQVVELRILTNWGHPEYTCIYRFRVHGEPAH-GVTEEQVHHIVKQALQRYSEDRIGLADYALESGGASVISTRCSETYETKTALLSLFGIPLWYHSQSPRVILQPDVHPGNCWAFQGPQGFAVVRLSARIRPTAVTLEHVPKALSPNSTISSAPKDFAIFGFDEDLQQEGTLLGKFTYDQDGEPIQTFHFQAPTMATYQVVELRILTNWGHPEYTCIYRFRVHGEPAH-GVTEEQVHHIVKQALQRYSEDRIGLADYALESGGASVISTRCSETYETKTALLSLFGIPLWYHSQSPRVILQPDVHPGNCWAFQGPQGFAVVRLSARIRPTAVTLEHVPKALSPNSTISSAPKDFAIFGFDEDLQQEGTLLGKFTYDQDGEPIQTFHFQAPTMATYQVVELRILTNWGHPEYTCIYRFRVHGEPAH-GVTEEQVHHIVKQALQRYSEDRIGLADYALESGGASVISTRCSETYETKTALLSLFGIPLWYHSQSPRVILQPDVHPGNCWAFQGPQGFAVVRLSARIRPTAVTLEHVPKALSPNSTISSAPKDFAIFGFDEDLQQEGTLLGKFTYDQDGEPIQTFHFQAPTMATYQVVELRILTNWGHPEYTCIYRFRVHGEPAH,HFTNINGPPC-EYRLVNGPCA-RIAYVNGPPG-LLSWVNGDPS-DISYVNGPPS-YFRFINGPPA-NLQFVNGPPG-NITYINGPPC-LIEVVNGPPG-QIAFINGPPP,MLRYTNGPPP-MLRYTNGPPP-MLRYTNGPPP-MLRYTNGPPP-MLRYTNGPPP-MLRYTNGPPP-MLRYTNGPPP-MLRYTNGPPP-MLRYTNGPPP-MLRYTNGPPP
30.0,46,56,B,10,QQQANDPFAESDLPHICFTNGPPPN-HLQYYNAKKTSAHPRVQCRNGPPWQ-IMANSDARTMSHEPLISFINGPPPA-DEEEDNPLAESDIPQLHYANGPPPG-REFAQDLFRESKIPILICPNGPPRC-EGLWRNWFCKSNIPLVHVANGPPPC-GSHMTAPELLSNTPGIILTNGPPPG-TKRKKDNRAASNVPRIDFTNGPPPY-GLLKSDPSQDSLVPTISFENGPPPS-LNALSEPRHFSTVPQLRLVNGPPPD,SCALSNNFARSFHPMLRYTNGPPPL-SCALSNNFARSFHPMLRYTNGPPPL-SCALSNNFARSFHPMLRYTNGPPPL-SCALSNNFARSFHPMLRYTNGPPPL-SCALSNNFARSFHPMLRYTNGPPPL-SCALSNNFARSFHPMLRYTNGPPPL-SCALSNNFARSFHPMLRYTNGPPPL-SCALSNNFARSFHPMLRYTNGPPPL-SCALSNNFARSFHPMLRYTNGPPPL-SCALSNNFARSFHPMLRYTNGPPPL,PTSTIWVTVG-KRYTVVISKG-EDSTCRVSIG-PRNTLILSVG-PINTLVKCQG-KMNTVILSRG-PTSTIKLFLN-DRHTVQVYIG-PSHTLRVSIG-PRDTIRLSLG,ETKTALLSLF-ETKTALLSLF-ETKTALLSLF-ETKTALLSLF-ETKTALLSLF-ETKTALLSLF-ETKTALLSLF-ETKTALLSLF-ETKTALLSLF-ETKTALLSLF
