contacts,cs,ce,Chain,Length,designed_receptor_seq,native_receptor_seq,designed_binder_seq,native_binder_seq
20.0,73,83,A,10,ERCVWYNQYSGLQLTEGTGTQTCKKDDVKNWYCYASWLQDYGNVEDIAKGCFLDDEECRNVERCVETSDIPKVSKCCCEGDYCNSRYSKGP-ETCVFYDAGAGMLGSVSSGQETCSVPVASKWHCYAGWMNYGGVITPLHKGCFRDDAQCDKKADCIDYEASPKFHKCCCEGDYCNQTSSIGA-NECMFSDEDCGKNNKNCTGVVSCETDKTDRWYCYASWSYHDGHITPLSKGCYLNDPACKNRSVCIDRELNPRFIKCCCEGNYCNTVYRVSN-ETCHYCDIDHLKSNKGECGQKFCLWPENEKMFCYAAWVNMKGERIEVEKGCFLDDSFCYEIEFCRDTRESPTLFKACCEGDYCNEEYTFEK-SWCMHFNHQHKAENTGKDGFVSCERLPDSKGYCRAAWTNSGGVENELVKGCFLDDEDCDDIKECIDKKENPETHYCCCVGDFCNEKYTSKS-QACVYYNADAGAANTGSSGSEVCSHERDMKWQCHAAWLNNSGSVTKLKKGCFRNDPYCDNTTKCEDTSVSPIVHYCCCHGDFCNGAWSTNP-NRCFYYNANSGLERSGGSGSEICNGPSNRKRQCFAAWRLEEGTRTEAMKGCFLDDNWCANQRECVQNGPNPQIFRACCEGEYCNETFQTNP-TECYYLNSTSQHNSTRSFGAEMCDTPRMMTWQCYGAWYDENGNKSELARGCWLNDRYCFFRDSCVNHESNPEIRLCCCEGDFCNNEFSESP-ETCVFFNKYHEFLNKARVGSEECKQPKNKAAYCMAIWYSDDGEIDNEMKGCWLDDKYCKDQKNCVQTAENPNFYMGCCTGDFCNEYYSESD-HKCVFSNLSSELLNLPGIGEKECVHLPNLPWHCFAAWRNENGELIDVLKGCWRNDSRCEDQETCIESLLTPEIHYCCCRGDFCNESYNVDP,RECIYYNANWELERTNQSGLERCEGEQDKRLHCYASWRNSSGTIELVKKGCWLDDFNCYDRQECVATEENPQVYFCCCEGNFCNERFTHLP-RECIYYNANWELERTNQSGLERCEGEQDKRLHCYASWRNSSGTIELVKKGCWLDDFNCYDRQECVATEENPQVYFCCCEGNFCNERFTHLP-RECIYYNANWELERTNQSGLERCEGEQDKRLHCYASWRNSSGTIELVKKGCWLDDFNCYDRQECVATEENPQVYFCCCEGNFCNERFTHLP-RECIYYNANWELERTNQSGLERCEGEQDKRLHCYASWRNSSGTIELVKKGCWLDDFNCYDRQECVATEENPQVYFCCCEGNFCNERFTHLP-RECIYYNANWELERTNQSGLERCEGEQDKRLHCYASWRNSSGTIELVKKGCWLDDFNCYDRQECVATEENPQVYFCCCEGNFCNERFTHLP-RECIYYNANWELERTNQSGLERCEGEQDKRLHCYASWRNSSGTIELVKKGCWLDDFNCYDRQECVATEENPQVYFCCCEGNFCNERFTHLP-RECIYYNANWELERTNQSGLERCEGEQDKRLHCYASWRNSSGTIELVKKGCWLDDFNCYDRQECVATEENPQVYFCCCEGNFCNERFTHLP-RECIYYNANWELERTNQSGLERCEGEQDKRLHCYASWRNSSGTIELVKKGCWLDDFNCYDRQECVATEENPQVYFCCCEGNFCNERFTHLP-RECIYYNANWELERTNQSGLERCEGEQDKRLHCYASWRNSSGTIELVKKGCWLDDFNCYDRQECVATEENPQVYFCCCEGNFCNERFTHLP-RECIYYNANWELERTNQSGLERCEGEQDKRLHCYASWRNSSGTIELVKKGCWLDDFNCYDRQECVATEENPQVYFCCCEGNFCNERFTHLP,PEQTTRIIPK-KVFKSVYYPV-MHHHDTYAPK-EMKRSTIVRP-SYSASVLYKE-VQEESTITLN-VRETTVLRPP-RPPFSFIGFC-GVMDTAFNRF-LPFQTILSNK,LSPISVLYKD-LSPISVLYKD-LSPISVLYKD-LSPISVLYKD-LSPISVLYKD-LSPISVLYKD-LSPISVLYKD-LSPISVLYKD-LSPISVLYKD-LSPISVLYKD
25.0,47,57,B,10,MRCERRDQLVDFEEIGWDSWVIAPQSFLADWCVGRCDFPLREDLDPTDECRVQLIIYLMRADDVHMPCCLPTRNDSISMCYRDEEGAPRCQYDWKEMRIHTCGCR-DDCRKVENKIDFEAMGLQEWIISPRYYLSYRCEGECVLPLSPELKPNVLSVAQAVAHEYHKDTINRPMCVPTKMTPITQLYKNDEGKPEVCYRWRMMGVVETGCE-DRCFKNDHMIRFESIRWQKWIIQPEKYLAERCLGNCVLPLNPNLRPTEYENNIAIMHLFRPDEVSKPCCIPTTLDPISICYKDKHNRPICDFNLMARRVGHCGCT-PYCQLERNLIDFAAIGFEAFVIYPKRYLAHACTGTCDWPLPNSLRPTKDAETREKIHREHPGIVARPCCVAQRLEPITVCYMDVDSKPTVDLNFKGMTVDTCGCH-CGCHKSIDIVDFRCISADDWVIAPKSWIRYKCCGQCNLPLSETLQPSMDAIVQASYHEFHPREISQPRCVPVVKSSITVCYLDSKNQPQVNEKLQNWSIGMVGCE-EECVRMKNIVSFKSIGWDDVILWPEQYMSFDCKGLCTYPLEPDLHPTHESRVQQMHNIENPEVVPPPCCIPQEMRDISIMYRDEEGNPVVDYRWDSMEIKNCGCQ-ETCSVEDCLLDFEKVGWDSYVIAPRSYLTRCCLGYCSWPLRQTWKPTERANRTQELHLYNPDIIPPPCCVPIALRPISVCHLDENGEPRCQFFYEDMSVNSCGCE-SVCKKVLNILNFSDIGWDKWIISPDQYISYKCEGECKLPLSEDLHPLEFANLIKQIHLQQPHKISEPCCVPTEQDPISFCYKDRKDNPTCELKALNMRVAKCGCI-MHCELHEKVLNFEDIGWDKFIIRPKCYLSYDCRGRCEWPLEDHLVPTATCVAQQILHDFEPEKISPSTCVPLNRNPITLCYRNEQGQPEVKVCFLNWQVEKCGCT-ERCEINDTMISVQTIGLDEWIISPTFYRAYDCVGKCEFPLVESLKPSRAAEDQLKEHIKNPLSIPRPCCIAMEWDPITVCRKNVNDDPVRLHEWHKMRVRECGCH,SHCQKTSLRVNFEDIGWDSWIIAPKEYEAYECKGGCFFPLADDVTPTKHAIVQTLVHLKFPTKVGKACCVPTKLSPISVLYKDDMGVPTLKYHYEGMSVAECGCR-SHCQKTSLRVNFEDIGWDSWIIAPKEYEAYECKGGCFFPLADDVTPTKHAIVQTLVHLKFPTKVGKACCVPTKLSPISVLYKDDMGVPTLKYHYEGMSVAECGCR-SHCQKTSLRVNFEDIGWDSWIIAPKEYEAYECKGGCFFPLADDVTPTKHAIVQTLVHLKFPTKVGKACCVPTKLSPISVLYKDDMGVPTLKYHYEGMSVAECGCR-SHCQKTSLRVNFEDIGWDSWIIAPKEYEAYECKGGCFFPLADDVTPTKHAIVQTLVHLKFPTKVGKACCVPTKLSPISVLYKDDMGVPTLKYHYEGMSVAECGCR-SHCQKTSLRVNFEDIGWDSWIIAPKEYEAYECKGGCFFPLADDVTPTKHAIVQTLVHLKFPTKVGKACCVPTKLSPISVLYKDDMGVPTLKYHYEGMSVAECGCR-SHCQKTSLRVNFEDIGWDSWIIAPKEYEAYECKGGCFFPLADDVTPTKHAIVQTLVHLKFPTKVGKACCVPTKLSPISVLYKDDMGVPTLKYHYEGMSVAECGCR-SHCQKTSLRVNFEDIGWDSWIIAPKEYEAYECKGGCFFPLADDVTPTKHAIVQTLVHLKFPTKVGKACCVPTKLSPISVLYKDDMGVPTLKYHYEGMSVAECGCR-SHCQKTSLRVNFEDIGWDSWIIAPKEYEAYECKGGCFFPLADDVTPTKHAIVQTLVHLKFPTKVGKACCVPTKLSPISVLYKDDMGVPTLKYHYEGMSVAECGCR-SHCQKTSLRVNFEDIGWDSWIIAPKEYEAYECKGGCFFPLADDVTPTKHAIVQTLVHLKFPTKVGKACCVPTKLSPISVLYKDDMGVPTLKYHYEGMSVAECGCR-SHCQKTSLRVNFEDIGWDSWIIAPKEYEAYECKGGCFFPLADDVTPTKHAIVQTLVHLKFPTKVGKACCVPTKLSPISVLYKDDMGVPTLKYHYEGMSVAECGCR,LRGPWRKDPV-WTGPFLEVEI-NDGEMLSNHR-LKGEYLSEVE-IEGYQRKHSI-YQGPKLRLEG-QRGWWLQNDE-DIGVSLNYDR-WYGRLLTTPY-DKGLFKHTSF,KKGCWLDDFN-KKGCWLDDFN-KKGCWLDDFN-KKGCWLDDFN-KKGCWLDDFN-KKGCWLDDFN-KKGCWLDDFN-KKGCWLDDFN-KKGCWLDDFN-KKGCWLDDFN
