contacts,cs,ce,Chain,Length,designed_receptor_seq,native_receptor_seq,designed_binder_seq,native_binder_seq
32.0,37,47,A,10,MGPKPYPLVQIFTTTIITTEIMYPLFPWEFLALSSFELQSYKNHKFPFYCFKNSLLISFPENHKEISLVYGNAIAKAIISLSSKKSPRIFVIGTSFRITKMKILTDKFCSLVAPEYITTFIGSVLFCLRKGPNSGMNYTCFIAPSSGAPGYEKLSIYNCSWLTDKTGEYLKLDPNLYKQLCFKLWLKSKTTIYYTSGLIR-SGEEPWPRCIYGNVVVITTSIMWPLFPSEYISLTEQQFSVSNGISLPIFTCGERLLVCYPISYRYIPPEFGNAFAEAVIEKLHSERPPIFVIGSSSSISGMKILSENHNSLQPPEFIRSFIGATLFRLTTGPHAGLRFTCYVAPSQGRPGAVRMLREDASKLTDMFGSAMGFQPAEYWGETCRLWMTSSSLADITSGTVK-PGLGSTPQVERVDTAVITTTFTNPLFPRDLLGLTSQKLDFVLDLSFPVYFHRGVAIYRYPRHSSTIPHTFGNEIAKAIIKDLSASGPRIIVVGSSANINKLIYMTENTNTLRTPQFIKSFIGATLCQLSRGPKAGLQFEAFIAPSTGAPGSEQLTLSDCNELTKRVGEFLSLDPELYTQECVRLWQASSSLAAYMSGLVI-GGAAPWPVVQWPDLVLISTGVMYPLFPAELLRLSRQPLALSTRWSFPVYTFGEALLVRYDEDFMLIHPKFGNAVAEAIVHHLSSKKPQLLVVGFSSNILQFRVLTENHCSLVPPEYVKHFVGAVLTRLSDGPSCGLKYTAIIAPCTGPPGYEELTRRDCLLLTSVVGHMLKLSPLSYMMACLKLWDRSMALKHFTSGHQR-GMQKPYPIVELGTRVIVTDSVMNPLFPSGFINLKEKSLTLTMDAGQPVFTQGDELLFRWPENADRIRYEFGNAVADRIVTELAAVKPEIVVIGTSRNISRLKILSENTNSLQPPEFIKSFVGAVLFRLTDGPNAGKSFICIVAPSWGPPGAETLDIRDCALLTLITGSFLELDPVQYAQETQFLWWADSSTVRASSGAVE-GGFVPVPQVEHFIVAVLSTVVMWPLFPRDLLSLRSKTLVMKKNYSFPIFYMGDTLLYMEMLNSLTINPIYGNAVAQEIVRKLAAKTPHVIVIGGSMFVTDYKLLTQDQNALVPPEFIVCYIGAILYQLNEGLNKGLKFEAYIAPCSGAPGSEVLSVENACKLTNHVGSLLKFIPEEYKIQTMKQWFKSTTMTGFTTGYVA-SGAASRPNVKFRSNVVITTSIFLPLFPSKLLHLNEDELELTLGVSFKVHTFGNSVVWCFPEDANHISPVYGNAVAEAVISFLKAKKPTITVVGGSDRITGFKTITSTENNLQTPEHIISFVGAVLTELCSGPHAGMDFKCYCAPVTGPAGYETMTFDHCGKLTTSMGTVLKFDPETYQEQCFSLWWKSNATSYYTSGISR-EGSSPTPVVEWKSRVVISDSVMWPLFPQDFLSLTEEELRCSNGYSFPIRYSWDTMLLQYPENFRTISFLYGNAIAEDLISRAAKTGPEITVIGLSNHVNMLRIMTETENSLKKPEYITSFIGAVLFCLTTGPAKGQEFVCVVAPASGTPGKEKVTTEDAYRLTRIVGEKLKLDPTEYFKECTKDWLMSNVLRDYTSGRTE-NAMRAWPEVTYRRTVVISTTVMNPLFPRDYLQLKAENFTMARDVSFPIFDSGDIRLIQFPENFLWLSPDFGNACASRWIEEISEEKPTIFVIGFSSHISRFKLMSSTDCNLEPPEFITNFIGAVLYRLTSGPYAGLNYIAAIAPCTGAAGQEEILLQDANQLTREVGEILEYDPTRYYKQCMEAWRKSTVTSMVESGLMN-GSSEPFPEVQIYNTVIITTSVMHPLFPDKFMNLRCEQLILKKDTQFPVYYDEKTSYIIMPEHYDSISPDYGNALAEEIVRRLHAEKPSIIVVGTSAYISSMKTMSETNNTLVLPECILCFIGAVLVNLLQGENSGLKFTCFIAPSIGPPGKELLSDFDMGLLTLKVGLFLGKDPETYYKECMKQWYESKASVAYTSGFVH,LEVCPVPKVEFYSTAVITTKIMNPLFPKNLLQLTSIGEIKTTLFSFPIYSFGKTLLFSMEENFISISPIFGNMISRSIISQLAQFSPDIIVIGTSDKIASMKVMTENECTLQPPEFITGFIGSVLTQLIVGPSKGLKFKCLVAPSEGPNGFEKLSLSDMGSLVDLCGQWLGFEPSRYSEECYRLWRCDSAAIGAQSGLYI-LEVCPVPKVEFYSTAVITTKIMNPLFPKNLLQLTSIGEIKTTLFSFPIYSFGKTLLFSMEENFISISPIFGNMISRSIISQLAQFSPDIIVIGTSDKIASMKVMTENECTLQPPEFITGFIGSVLTQLIVGPSKGLKFKCLVAPSEGPNGFEKLSLSDMGSLVDLCGQWLGFEPSRYSEECYRLWRCDSAAIGAQSGLYI-LEVCPVPKVEFYSTAVITTKIMNPLFPKNLLQLTSIGEIKTTLFSFPIYSFGKTLLFSMEENFISISPIFGNMISRSIISQLAQFSPDIIVIGTSDKIASMKVMTENECTLQPPEFITGFIGSVLTQLIVGPSKGLKFKCLVAPSEGPNGFEKLSLSDMGSLVDLCGQWLGFEPSRYSEECYRLWRCDSAAIGAQSGLYI-LEVCPVPKVEFYSTAVITTKIMNPLFPKNLLQLTSIGEIKTTLFSFPIYSFGKTLLFSMEENFISISPIFGNMISRSIISQLAQFSPDIIVIGTSDKIASMKVMTENECTLQPPEFITGFIGSVLTQLIVGPSKGLKFKCLVAPSEGPNGFEKLSLSDMGSLVDLCGQWLGFEPSRYSEECYRLWRCDSAAIGAQSGLYI-LEVCPVPKVEFYSTAVITTKIMNPLFPKNLLQLTSIGEIKTTLFSFPIYSFGKTLLFSMEENFISISPIFGNMISRSIISQLAQFSPDIIVIGTSDKIASMKVMTENECTLQPPEFITGFIGSVLTQLIVGPSKGLKFKCLVAPSEGPNGFEKLSLSDMGSLVDLCGQWLGFEPSRYSEECYRLWRCDSAAIGAQSGLYI-LEVCPVPKVEFYSTAVITTKIMNPLFPKNLLQLTSIGEIKTTLFSFPIYSFGKTLLFSMEENFISISPIFGNMISRSIISQLAQFSPDIIVIGTSDKIASMKVMTENECTLQPPEFITGFIGSVLTQLIVGPSKGLKFKCLVAPSEGPNGFEKLSLSDMGSLVDLCGQWLGFEPSRYSEECYRLWRCDSAAIGAQSGLYI-LEVCPVPKVEFYSTAVITTKIMNPLFPKNLLQLTSIGEIKTTLFSFPIYSFGKTLLFSMEENFISISPIFGNMISRSIISQLAQFSPDIIVIGTSDKIASMKVMTENECTLQPPEFITGFIGSVLTQLIVGPSKGLKFKCLVAPSEGPNGFEKLSLSDMGSLVDLCGQWLGFEPSRYSEECYRLWRCDSAAIGAQSGLYI-LEVCPVPKVEFYSTAVITTKIMNPLFPKNLLQLTSIGEIKTTLFSFPIYSFGKTLLFSMEENFISISPIFGNMISRSIISQLAQFSPDIIVIGTSDKIASMKVMTENECTLQPPEFITGFIGSVLTQLIVGPSKGLKFKCLVAPSEGPNGFEKLSLSDMGSLVDLCGQWLGFEPSRYSEECYRLWRCDSAAIGAQSGLYI-LEVCPVPKVEFYSTAVITTKIMNPLFPKNLLQLTSIGEIKTTLFSFPIYSFGKTLLFSMEENFISISPIFGNMISRSIISQLAQFSPDIIVIGTSDKIASMKVMTENECTLQPPEFITGFIGSVLTQLIVGPSKGLKFKCLVAPSEGPNGFEKLSLSDMGSLVDLCGQWLGFEPSRYSEECYRLWRCDSAAIGAQSGLYI-LEVCPVPKVEFYSTAVITTKIMNPLFPKNLLQLTSIGEIKTTLFSFPIYSFGKTLLFSMEENFISISPIFGNMISRSIISQLAQFSPDIIVIGTSDKIASMKVMTENECTLQPPEFITGFIGSVLTQLIVGPSKGLKFKCLVAPSEGPNGFEKLSLSDMGSLVDLCGQWLGFEPSRYSEECYRLWRCDSAAIGAQSGLYI,LLDDKMLVAC-GRNADQLFEA-CRFDKQKWEN-ANQCTQKYWK-AASQCQYFGP-GLLQHQRVQK-EKHQVRRILA-QRNQVRLYSS-GLNNLQKFGQ-SDQSRRIVYP,SKYLVEFVGP-SKYLVEFVGP-SKYLVEFVGP-SKYLVEFVGP-SKYLVEFVGP-SKYLVEFVGP-SKYLVEFVGP-SKYLVEFVGP-SKYLVEFVGP-SKYLVEFVGP
35.0,108,118,B,10,MSKLIIPLITGGNVPAIVCEHLLNSNGEEWYFLQELSDKYLFDYIGALSYPESGKEPLFLDKRRKASSALEIYFNKKKGEFVIQQRTPLLSDEIINSFARDVLLPFIEEKEVKEVSILQASLPNVSIPELIEANLSWRKTPVSIKEGSNILASLLYLESLSKGQVWDFPNSFETWNGKRDLEEIIREKWW-MKTLIIPYISVGNVPQLVVGWLLNSNVYDWSWLEPLPSDYLLKYKGPLCHPSDGKADLYQNKDLTVSNALEVFLNQRHNQYVIQQRTPLKSEEVLTDYAEQVLVPFIKRAEIDTVEIWFSSDEKDKPYDIFSAKDDFNTHPWTVHPGNNFKAALSVMQQALAGQTWHMPESAQAYLGYEDLKTINTKLNE-ELELILPLVTYGNIPQVWTDWLLNSNSSDWEFLQTLPDTYLVKFTGPKDYPSSGADSLYTDAELKESSSLEIWYNRKENLFVVQIRTPLVSADNKEDFISEVIVPYIKESGIQKITVINSTLPGDDPVDIMMSVLPVEGINFDINYGKNVGQALQFWKFLMENMDGVFGTWVDKIDGDENPDEVAERAVE-KRTLYLPLITAGNVPQIAVDWLLNSNHAAFQHLRNLDDTYLFSYRGPLVAPANGAEHLYFDASLKESASLEVWWNKPDEQFVMQIRTPLLSEVCLENFLQDTVIPFCKNERIDEVRVIFSHEKGADPLVRASELVAVSVPGYQISPEQNLLQSFELVKALRQDETWQTPDAWARWRGAACAQAAYEELVD-SKILIYPLRTAGNVPQAAVDWLLNSNAALFEFLECLNPKYLVDFVGPLDDPSSGCSKIFDDASRKTSDALEVWFNSTNQQFFFQIRTPLLSAQCLTQFISNVVNPFVSKQAVDKICIIQAQFQELDPPQTILACFQTDCLPADVESGDNAKQALALVQGLNRLGEWSLPESASSFQGFFKAKAMFEFLFK-EVELHLPLVTAGNVPQITVDWELHSNYTDYTFLESLDDTYLVEHIGPRELPENGSVELYENQDLSISTALEVWYNKNTQQYTIQQRTPLLSAQLQKNFVKQEILPFVKKYQVDRIIVLNTREGNDDPIKEMSDLFEFELNGFSTSTGNNLEYSLNVYNLLKRQDQYYWPNSWKTFSGELDQRVLDKFIVE-SKTLVLPLMSVGNIPQIAMDWYLHSNSTANTFLETLEDTYLFQFCGPLDRPALGDSVLWANESLRSSVALEVWWNAASHLFRIQQQTPLRSAEMLADYWRDVILPFIATHSVDRIEIWHSSLDDSLPPDLLLQRAPLFSLPFPQRKGFNLRMSLDFVEAFLKGGHYHYPDTFQGWLGFKSASEIEEELYS-MRRLHIPLETVGNVPQIFVDWFLNSNAEHFTFLKTLSDKYLINFRGAKIYPSTGEINMYENEDLDVSYALEIWYDCREGIYVIQQRTPLLSERILASFIKEVLLPFISDHSIEEVEILYATETNNDPPVIMRDLGIHRDNPAVVENGSNLLAAKGLLENIFEGNEWHFPNAWASFSGFIDGISIFEEKYG-QRTLVFPLITAGNTPQLTIGHLLDSYASDFTFLETLEDTYLIDYTGPKTQPLNGEENLYLSEDRTHSTSLEVWYNGTNRLYVIHQRTPLKSNESLSSFVENVLAPFVTRNQIEEIVILDATHDEVPPPTTIASLTYQRLGSRSNHYEDNQEFSLAYLRELLNGGEFCYPNEWSSFDGHENQLSMLEILGK-MKTLILPLVTAGNVPQIAIGHLLHSNHEVFQFLETLDSRYLLDYIGPIDYPSNGDDNLYFDSTLQRSNALQVFYNRTNQQFVIQQRTPLKSLDVEANFVNEVLLPFILNQNIDELIILDAVHEEENPLDMIKRLWPLSFGEFEVVEGNNLVVALDYMKKLLTQKQWHLPDSWFADTGRENLVDKLLSEWD,MSCLVLPLVSVGNIPQLSIDWLLNSQANEWEYLEALDSKYLVEFVGPLDRPEDGSDSLYKDADMKYSSALEVFYNKKRGLFAIQQRTPLVSVNYLNNFIVEIILPFLSKYNISEICIWDSLYAMVDQPIFKILFQSIKYCSCLANEGDNSLDSQQFLQWIISQVKFVRPISWQGAYGMADARDKFVDLYN-MSCLVLPLVSVGNIPQLSIDWLLNSQANEWEYLEALDSKYLVEFVGPLDRPEDGSDSLYKDADMKYSSALEVFYNKKRGLFAIQQRTPLVSVNYLNNFIVEIILPFLSKYNISEICIWDSLYAMVDQPIFKILFQSIKYCSCLANEGDNSLDSQQFLQWIISQVKFVRPISWQGAYGMADARDKFVDLYN-MSCLVLPLVSVGNIPQLSIDWLLNSQANEWEYLEALDSKYLVEFVGPLDRPEDGSDSLYKDADMKYSSALEVFYNKKRGLFAIQQRTPLVSVNYLNNFIVEIILPFLSKYNISEICIWDSLYAMVDQPIFKILFQSIKYCSCLANEGDNSLDSQQFLQWIISQVKFVRPISWQGAYGMADARDKFVDLYN-MSCLVLPLVSVGNIPQLSIDWLLNSQANEWEYLEALDSKYLVEFVGPLDRPEDGSDSLYKDADMKYSSALEVFYNKKRGLFAIQQRTPLVSVNYLNNFIVEIILPFLSKYNISEICIWDSLYAMVDQPIFKILFQSIKYCSCLANEGDNSLDSQQFLQWIISQVKFVRPISWQGAYGMADARDKFVDLYN-MSCLVLPLVSVGNIPQLSIDWLLNSQANEWEYLEALDSKYLVEFVGPLDRPEDGSDSLYKDADMKYSSALEVFYNKKRGLFAIQQRTPLVSVNYLNNFIVEIILPFLSKYNISEICIWDSLYAMVDQPIFKILFQSIKYCSCLANEGDNSLDSQQFLQWIISQVKFVRPISWQGAYGMADARDKFVDLYN-MSCLVLPLVSVGNIPQLSIDWLLNSQANEWEYLEALDSKYLVEFVGPLDRPEDGSDSLYKDADMKYSSALEVFYNKKRGLFAIQQRTPLVSVNYLNNFIVEIILPFLSKYNISEICIWDSLYAMVDQPIFKILFQSIKYCSCLANEGDNSLDSQQFLQWIISQVKFVRPISWQGAYGMADARDKFVDLYN-MSCLVLPLVSVGNIPQLSIDWLLNSQANEWEYLEALDSKYLVEFVGPLDRPEDGSDSLYKDADMKYSSALEVFYNKKRGLFAIQQRTPLVSVNYLNNFIVEIILPFLSKYNISEICIWDSLYAMVDQPIFKILFQSIKYCSCLANEGDNSLDSQQFLQWIISQVKFVRPISWQGAYGMADARDKFVDLYN-MSCLVLPLVSVGNIPQLSIDWLLNSQANEWEYLEALDSKYLVEFVGPLDRPEDGSDSLYKDADMKYSSALEVFYNKKRGLFAIQQRTPLVSVNYLNNFIVEIILPFLSKYNISEICIWDSLYAMVDQPIFKILFQSIKYCSCLANEGDNSLDSQQFLQWIISQVKFVRPISWQGAYGMADARDKFVDLYN-MSCLVLPLVSVGNIPQLSIDWLLNSQANEWEYLEALDSKYLVEFVGPLDRPEDGSDSLYKDADMKYSSALEVFYNKKRGLFAIQQRTPLVSVNYLNNFIVEIILPFLSKYNISEICIWDSLYAMVDQPIFKILFQSIKYCSCLANEGDNSLDSQQFLQWIISQVKFVRPISWQGAYGMADARDKFVDLYN-MSCLVLPLVSVGNIPQLSIDWLLNSQANEWEYLEALDSKYLVEFVGPLDRPEDGSDSLYKDADMKYSSALEVFYNKKRGLFAIQQRTPLVSVNYLNNFIVEIILPFLSKYNISEICIWDSLYAMVDQPIFKILFQSIKYCSCLANEGDNSLDSQQFLQWIISQVKFVRPISWQGAYGMADARDKFVDLYN,FDLTPPEFLN-NQLTPPQFIK-NNLSPPRYSA-NNLVPPQSIE-STLKPPEYIE-NNLVPDQFIL-CDLVPNQFVV-NPLEPPEFIN-NQLIPPQYKN-NDLLPPEFIQ,CTLQPPEFIT-CTLQPPEFIT-CTLQPPEFIT-CTLQPPEFIT-CTLQPPEFIT-CTLQPPEFIT-CTLQPPEFIT-CTLQPPEFIT-CTLQPPEFIT-CTLQPPEFIT
