contacts,cs,ce,Chain,Length,designed_receptor_seq,native_receptor_seq,designed_binder_seq,native_binder_seq
16.0,99,109,A,10,VPPLPDVVCRVYNVEYMDCTWDYRNQPVPVNLEITYRYDSEHKENKCSNYLYENDIVSGCRLEKEEIFLYTTFIVTIKNPLNPEEVKVQKMLRNRVVPYAPRNLKLFELDENKLELTWENDHYDRCLSHLVQWKTDEDEEWHEKEVDYSRTFTLPEVDGSKKYTFRVKSRYYPNCGDAEEWSDWSEPITWGEP-VPPLPDVVCRVYNVEYMDCTWDYRNQPVPVNLEITYRYDSENEVHECKDYLYENDVVSGCRLSKEEIFLYTDFIVTIKNPLDPSQVKVQTLLRNRVVPYAPRNLKLFELDKDKLELTWENDHYDRCLTHLVQWKTDEDEEWSEEEVDYSRRFTLPEVDGSKKYTFRVKSRYYPNCGDAEEWSDWSEPITWGSP-VPPLPDVVCRVYNVEYMDCTWDYRNQPVPVNLEITYRYRDNHTWHKCDNYLYTDNITSGCRLTKDEIFLYTDFIVTLKNPLNPAEVKVQTLLRDRVVPYAPKNLRLYKLDDNKLELTWEDDHYARCLSHLVQWKTDDDADWHEKEVDYSRTFTLPEVDGSKKYTFRVKSRYYPRCGDAEEWSDWSEPITWGSP-VPPLPDVVCRVYNVEYMDCTWDYRNQPVPVNLEITYRYDSSHTVHKCDNYLYTDSITSGCRLTKDEIFLYTDFIVTIKNPLNPAEIKTQTLLRNRVVPYAPRNLKLFELDDNKLELTWENDHYDRCLTHLVQWKTDEDEDWHSKEVDYSRTFTLPEVDGSKKYTFRVKSRYYPNCGDAEEWSDWSEPITWGSP-VPPLPDVVCRVYNVEYMDCTWDYRNQPVPVNLEITYRYDSSHTWNKCSNYLYTDSITSGCRLTKDQIFLYTTFIVTIKNPLNPSEIKTQKLLRNRVVPYAPRNLRLYELDKDKLELTWENDHYARCLSHLVQWKTDEDEDWHEKEVDYSRTFTLPEVDGSKKYTFRVKSRYYPRCGDAEEWSEWSEPITWGSP-VPPLPDVVCRVYNVEYMDCTWDYRNQPVPVNLEITYRYKSDHEWNKCENYLYENDIVSGCRLTKDQIFLYDDFIVVIKNPENPEEIKTQTMLRNRVVPYAPRNLKLYELDKDKLELTWENDHYDRCLSHLVQWKTDEDKEWHEEFVDYSRTFTLPEVDGSKKYTFRVKSRYYPRCGDAEEWSEWSEPITWGSP-VPPLPDVVCRVYNVEYMDCTWDYRNQPVPVNLELTYRYDSSHKVHKCSNYLYTDSITSGCRLTKDEIFLYTTFIVTIKNPLNPEEVKVQKLLRDRVVPYAPRNLKLFELDKDKLELTWENDHYARCLTHLVQWKTDEDEDWHEEFVDYSRRFTLPEVDGSKKYTFRVKSRYYPNCGDAEEWSDWSEPITWGSP-VPPLPDVECRVYNVEYMDCTWDYRNQPVPVNLEITYHYDSDHEEHKCENYLYENDIVSGCRLTKDEIFLYTDFVVTLKNPLNPEEKKVQTLLRNRVVPYAPRNLKLYKLDDNKLELTWENDHYDRCLSHLVQWKTDDDKEWHEKEVDYSRTFTLPEVDGSKKYTFRVKSRYYPRCGDAEEWSDWSEPITWGSP-VPPLPDVECRVYNVEYMDCTWDYRNQPVPVNLEITYRYESEHEWHECKDYLYEDDIVSGCRLTKDEIFLYTDFIVTIKNPENPEEVKVQTMLRDRVVPYAPRNLKLYELDENKLELTWENDHYDRCLSHLVQWKTDEDEDWHEEFVDYSRTFTLPEVDGSKKYTFRVKSRYYPRCGDAEEWSDWSEPITWGDP-VPPLPDVVCRVYNVEYMDCTWDYRNQPVPVNLEITYRYDSSHYPHKCEDYLYTDSITSGCRLTKDEIYLYTTFIVTIKNPLNPEEIKVQKLLRNRVVPYAPRNLRLFELDDNKLELTWENDHYARCLSHLVQWKTDEDEEWHEKEVDYSRTFTLPEVDGSKKYTFRVKSRYYPNCGDAEEWSEWSEPITWGSP,PLPLPEVQCFVFNVEYMNCTWQSSSEPQPTNLTLHYWYNSDNDVQKCSHYLFSEEITSGCQLQKKEIHLYQTFVVQLQDPREPRRQATQMLLQNLVIPWAPENLTLHKLSESQLELNWNNRFLNHCLEHLVQYRTDWDHSWTEQSVDYRHKFSLPSVDGQKRYTFRVRSRFNPLCGSAQHWSEWSHPIHWGSN-PLPLPEVQCFVFNVEYMNCTWQSSSEPQPTNLTLHYWYNSDNDVQKCSHYLFSEEITSGCQLQKKEIHLYQTFVVQLQDPREPRRQATQMLLQNLVIPWAPENLTLHKLSESQLELNWNNRFLNHCLEHLVQYRTDWDHSWTEQSVDYRHKFSLPSVDGQKRYTFRVRSRFNPLCGSAQHWSEWSHPIHWGSN-PLPLPEVQCFVFNVEYMNCTWQSSSEPQPTNLTLHYWYNSDNDVQKCSHYLFSEEITSGCQLQKKEIHLYQTFVVQLQDPREPRRQATQMLLQNLVIPWAPENLTLHKLSESQLELNWNNRFLNHCLEHLVQYRTDWDHSWTEQSVDYRHKFSLPSVDGQKRYTFRVRSRFNPLCGSAQHWSEWSHPIHWGSN-PLPLPEVQCFVFNVEYMNCTWQSSSEPQPTNLTLHYWYNSDNDVQKCSHYLFSEEITSGCQLQKKEIHLYQTFVVQLQDPREPRRQATQMLLQNLVIPWAPENLTLHKLSESQLELNWNNRFLNHCLEHLVQYRTDWDHSWTEQSVDYRHKFSLPSVDGQKRYTFRVRSRFNPLCGSAQHWSEWSHPIHWGSN-PLPLPEVQCFVFNVEYMNCTWQSSSEPQPTNLTLHYWYNSDNDVQKCSHYLFSEEITSGCQLQKKEIHLYQTFVVQLQDPREPRRQATQMLLQNLVIPWAPENLTLHKLSESQLELNWNNRFLNHCLEHLVQYRTDWDHSWTEQSVDYRHKFSLPSVDGQKRYTFRVRSRFNPLCGSAQHWSEWSHPIHWGSN-PLPLPEVQCFVFNVEYMNCTWQSSSEPQPTNLTLHYWYNSDNDVQKCSHYLFSEEITSGCQLQKKEIHLYQTFVVQLQDPREPRRQATQMLLQNLVIPWAPENLTLHKLSESQLELNWNNRFLNHCLEHLVQYRTDWDHSWTEQSVDYRHKFSLPSVDGQKRYTFRVRSRFNPLCGSAQHWSEWSHPIHWGSN-PLPLPEVQCFVFNVEYMNCTWQSSSEPQPTNLTLHYWYNSDNDVQKCSHYLFSEEITSGCQLQKKEIHLYQTFVVQLQDPREPRRQATQMLLQNLVIPWAPENLTLHKLSESQLELNWNNRFLNHCLEHLVQYRTDWDHSWTEQSVDYRHKFSLPSVDGQKRYTFRVRSRFNPLCGSAQHWSEWSHPIHWGSN-PLPLPEVQCFVFNVEYMNCTWQSSSEPQPTNLTLHYWYNSDNDVQKCSHYLFSEEITSGCQLQKKEIHLYQTFVVQLQDPREPRRQATQMLLQNLVIPWAPENLTLHKLSESQLELNWNNRFLNHCLEHLVQYRTDWDHSWTEQSVDYRHKFSLPSVDGQKRYTFRVRSRFNPLCGSAQHWSEWSHPIHWGSN-PLPLPEVQCFVFNVEYMNCTWQSSSEPQPTNLTLHYWYNSDNDVQKCSHYLFSEEITSGCQLQKKEIHLYQTFVVQLQDPREPRRQATQMLLQNLVIPWAPENLTLHKLSESQLELNWNNRFLNHCLEHLVQYRTDWDHSWTEQSVDYRHKFSLPSVDGQKRYTFRVRSRFNPLCGSAQHWSEWSHPIHWGSN-PLPLPEVQCFVFNVEYMNCTWQSSSEPQPTNLTLHYWYNSDNDVQKCSHYLFSEEITSGCQLQKKEIHLYQTFVVQLQDPREPRRQATQMLLQNLVIPWAPENLTLHKLSESQLELNWNNRFLNHCLEHLVQYRTDWDHSWTEQSVDYRHKFSLPSVDGQKRYTFRVRSRFNPLCGSAQHWSEWSHPIHWGSN,EEEEEEEEEE-EEEEEEEEEE-KKKKKKQQKN-EEEEEEEEEE-EEEEEEEEEE-EEEEEEEEEE-EEEEEEEEEE-EEEEEEEEEE-EEEEEEEEEE-EEEEEEEEEE,SFVHIVQMFI-SFVHIVQMFI-SFVHIVQMFI-SFVHIVQMFI-SFVHIVQMFI-SFVHIVQMFI-SFVHIVQMFI-SFVHIVQMFI-SFVHIVQMFI-SFVHIVQMFI
13.0,62,72,B,10,GSSMEEVLKLLIGDIIKDMDINIKLNTDGNVDPKCKITSMKCFIEELEKIKKASGNKEVEKKVEELKKLANGYLEKLGGKKEEGCPKCEDLPKDVKFLKYFEKIVKMFID-GSSWEKVLELLIGDILKSKNINIKLHTNGNVDPKCKITSMKCFIEELEKIKKESGDKEVEKKVEELKKLANGALKELGGKKEEGCPKCEDLPKDVKFLENFRKIVEMFID-GSSWEKVLELTIGEILKDKDINIKLNTNANVDPKCKITSMKCFIEELEKIKKASGDKEVEKKVEELKKLANGELKKLGGKKEEGCPKCEDLPKDVKFLKSFKKIVEMFID-GSSWEKVLELNIGKILEKKNINIKLNTNSEVDPKCKITSMKCFIEELEKIKKESGDKEVEKKVEELKKLANGELEKLGGKKEEGCPKCEDLPKDVKFLKSFEKIVKEFID-GSSWEKVLELNIGKLLEKMDINIKLNTDGNVDPKCKITAMKCFIEELEKIKKASGNEEVEKTVKNLKKEANGALEKLGGKKEENCPKCEDLPKDVKFLKNFEKIVKMFID-GSSWEKVLELNIGKLLEKKNINIKLNTDGNVDPKCKITSMKCFIEELEKIKKESGDKEVEKKVKELKKLANGELKKLGGKKEKNCPKCSDLPKDVKFLKNFEKIVKMFID-GSSWEKVLELNIGKILESKNINIKLHTEGNVDPKCKITAMKCFIEELEKIKKESGDKEVEKKVEELKKEANGELKKLGGKKEEGCPKCEDLPKDVKFLKCFEKIVKEFID-GSSWEKVLELNIGKILEKKNINIKLHTNSEVDPKCKITSMKCFIEELEKIKKESGDKEVEKKVKELKKEANGALKKLGGKKEEGCPKCSDLPKDVKFLKSFEKIVKEFID-GSSWEKVLEDLIGDILKDKDINIKLHTDGNVDPKCKITAMKCFIEELEKIKKASGDKEVEKRVKNLKKDANGALKKLGGKKEKGCPKCSDLPKDVKFLKNFKKIVEMFID-GSSMERVLELLIGDIIKDMDINIKLNTDGNVDPKCKITSMKCFIEELEKIKKASGNEEVEKKVKELKKEANGYLKKLGGKKETGCPKCEDLPKDVKFLKNFKKIVEMFID,MGNWVNVISDLIEDLIQSMHIDATLYTESDVHPSCKVTAMKCFLLELQVISLESGDASIHDTVENLIILANNSLSSNGNVTESGCKECEELEENIEFLQSFVHIVQMFIN-MGNWVNVISDLIEDLIQSMHIDATLYTESDVHPSCKVTAMKCFLLELQVISLESGDASIHDTVENLIILANNSLSSNGNVTESGCKECEELEENIEFLQSFVHIVQMFIN-MGNWVNVISDLIEDLIQSMHIDATLYTESDVHPSCKVTAMKCFLLELQVISLESGDASIHDTVENLIILANNSLSSNGNVTESGCKECEELEENIEFLQSFVHIVQMFIN-MGNWVNVISDLIEDLIQSMHIDATLYTESDVHPSCKVTAMKCFLLELQVISLESGDASIHDTVENLIILANNSLSSNGNVTESGCKECEELEENIEFLQSFVHIVQMFIN-MGNWVNVISDLIEDLIQSMHIDATLYTESDVHPSCKVTAMKCFLLELQVISLESGDASIHDTVENLIILANNSLSSNGNVTESGCKECEELEENIEFLQSFVHIVQMFIN-MGNWVNVISDLIEDLIQSMHIDATLYTESDVHPSCKVTAMKCFLLELQVISLESGDASIHDTVENLIILANNSLSSNGNVTESGCKECEELEENIEFLQSFVHIVQMFIN-MGNWVNVISDLIEDLIQSMHIDATLYTESDVHPSCKVTAMKCFLLELQVISLESGDASIHDTVENLIILANNSLSSNGNVTESGCKECEELEENIEFLQSFVHIVQMFIN-MGNWVNVISDLIEDLIQSMHIDATLYTESDVHPSCKVTAMKCFLLELQVISLESGDASIHDTVENLIILANNSLSSNGNVTESGCKECEELEENIEFLQSFVHIVQMFIN-MGNWVNVISDLIEDLIQSMHIDATLYTESDVHPSCKVTAMKCFLLELQVISLESGDASIHDTVENLIILANNSLSSNGNVTESGCKECEELEENIEFLQSFVHIVQMFIN-MGNWVNVISDLIEDLIQSMHIDATLYTESDVHPSCKVTAMKCFLLELQVISLESGDASIHDTVENLIILANNSLSSNGNVTESGCKECEELEENIEFLQSFVHIVQMFIN,EPEKFFKYLP-KPEEFFKYLP-KPEEFHKYEP-KPEEFKKYEP-EPEKVFKYLP-KPEDFHKYLP-KPEDFFKYLP-KPEEFHKYKP-KPEDFDKYKP-EPEKYFKYLP,QKKEIHLYQT-QKKEIHLYQT-QKKEIHLYQT-QKKEIHLYQT-QKKEIHLYQT-QKKEIHLYQT-QKKEIHLYQT-QKKEIHLYQT-QKKEIHLYQT-QKKEIHLYQT
