contacts,cs,ce,Chain,Length,designed_receptor_seq,native_receptor_seq,designed_binder_seq,native_binder_seq
17.0,72,82,A,10,MKPDRGRLLRRGLLLFGAVAGVLLGLLLPLVLYFIPPAAGGEGGGALLLDAQGQAVSAAELLAAEAAGRRRLVRGLDGRPVYLDAPARRGIDAVCTHLGCTVPWDAAAQRFVCPCHGSAYDAQGRVLAGPAPEDLDLFDLRLEGDRFVVSRWQAACPLHGAAPAHL-MKPDRGRLLRRGLLLFGLLAGVLLGLALPLVLYFIPPAAGGEGGGALLLDAQGQAVSAAELLAAEAAGRRLLVQGLDGRPVYLPAPAARGIDAVCTHLGCTVPWHAEEQRFVCPCHGSAYDAQGRVLEGPAPDDLALFDLRLEGDRFVVSAWQQACPLHGAAPAWA-MKPDRGRLLRRGLIAGGVVLGVVLGLLVPVVLYFIPPAAGGAGGGARLLDAQGQAVSAADLLARAAAGRWQLVQGLDGRPTYLPAPARRGIDAVCTHLGCTVPWHAEQQRFVCPCHGSAYDAQGRVLAGPAPQDLALFDLRLEGDTFVVSAWQQACPLHGQAPAWA-MKPDRGRLLRRGILLFGLVAGLLLGLALPLVLYFIPPAAGGAGGGALLLDAQGQAVSAADLLAANAAGRAQLVQGLDGRPVYLRDGARLGIDAVCTHLGCTVPWHAEQQRFVCPCHGSAYDAQGRVLAGPAPDDLALFDLRLEGDQLQVSAWQQACPLHGQAPWYA-MKPDRGTLLRRGILLFGAVAGVLLGLALPLVLYFIPPAAGGAGGGAALLDAQGQAVSAADLLAANAAGRWQLVRGLDGRPVYVRDGQAVGIDAVCTHLGCTVPWHADRQRFVCPCHGSAYDAQGRVLDGPAPDDLDLFALTLEGDRLQVSRWQQACPRHGAAPADG-MKPDRGRLLRRGLLLFGLLAGVLLGLLLPLVLYFIPPAAGGEGGGARLLDAQGQAVSLADLLAANAAGRRLLVRGLDGRPVYLDAPAARGIDAVCTHLGCTVPWHAEQQRFVCPCHGSAYDAQGRVLEGPAPDDLDLFDLRAEGDALLVSRWQQACPLHGAAPHYA-MKPDRGRLLRRGLLLFGLVAGVLLGLLLPVVLHFIPPAAGGAGGGALLLDAAGGAVSAADLLAANAAGRARLVRGLDGRPVYLRDGAAVGIDAVCTHLGCTVPWHAEAARFVCPCHGSAYDAAGRVLEGPAPRDLALFDLRLEGDRFVVSAWTRDCPLHGAAPDYA-MKPDRGRLLRRGLLLFGLLAGVLLGLLLPLVLYFIPPAEGGAAGGALLLDAQGQAVSLADLLAAQAAGRRLLVQGLDGRPTYLRAPAAQGIDAVCTHLGCTVPWHAEQQRFVCPCHGSAYDAQGRVLAGPAPDDLALFDLRAEGDRLLVSAWQQACPLHGAAPAHA-MKPDRGRLLRRGLIAGGIVLGLLLGLALPVVLHFIPPAAGGAGGGALLLDAQGQAVSAAALLAANAAGRAQLVQGLDGRPVYLRAPAALGIDAVCTHLGCTVPWHAAEQRFVCPCHGSAYDAQGRVLAGPAPRDLALFDLRLEGDRFVVSAWQQACPLHGQAPWWA-MKPDRGRLLRRGLIAGGIVLGVLLGLALPLVLYFIPPAEGGAAGGALLLDAQGQAVSAAALLAAQAAGARLLVQGLDGRPVYLDAPAARGIDAVCTHLGCTVPWHAAEQRFVCPCHGSAYDAQGRVLAGPAPADLALFDLRLEGDRLLVSAWQQACPLHGAAPAWA,DVPDMGRRQFMNLLTFGTVTGVALGALYPVVNYFIPPAAGGAGGGTTAKDELGNDVSVSKFLESHNVGDRTLVQGLKGDPTYIVAITDYGINAVCTHLGCVVPWNAAENKFKCPCHGSQYDATGKVVRGPAPKSLALSHAKTENDKIVLTSWTETDFRTGEEPWWS-DVPDMGRRQFMNLLTFGTVTGVALGALYPVVNYFIPPAAGGAGGGTTAKDELGNDVSVSKFLESHNVGDRTLVQGLKGDPTYIVAITDYGINAVCTHLGCVVPWNAAENKFKCPCHGSQYDATGKVVRGPAPKSLALSHAKTENDKIVLTSWTETDFRTGEEPWWS-DVPDMGRRQFMNLLTFGTVTGVALGALYPVVNYFIPPAAGGAGGGTTAKDELGNDVSVSKFLESHNVGDRTLVQGLKGDPTYIVAITDYGINAVCTHLGCVVPWNAAENKFKCPCHGSQYDATGKVVRGPAPKSLALSHAKTENDKIVLTSWTETDFRTGEEPWWS-DVPDMGRRQFMNLLTFGTVTGVALGALYPVVNYFIPPAAGGAGGGTTAKDELGNDVSVSKFLESHNVGDRTLVQGLKGDPTYIVAITDYGINAVCTHLGCVVPWNAAENKFKCPCHGSQYDATGKVVRGPAPKSLALSHAKTENDKIVLTSWTETDFRTGEEPWWS-DVPDMGRRQFMNLLTFGTVTGVALGALYPVVNYFIPPAAGGAGGGTTAKDELGNDVSVSKFLESHNVGDRTLVQGLKGDPTYIVAITDYGINAVCTHLGCVVPWNAAENKFKCPCHGSQYDATGKVVRGPAPKSLALSHAKTENDKIVLTSWTETDFRTGEEPWWS-DVPDMGRRQFMNLLTFGTVTGVALGALYPVVNYFIPPAAGGAGGGTTAKDELGNDVSVSKFLESHNVGDRTLVQGLKGDPTYIVAITDYGINAVCTHLGCVVPWNAAENKFKCPCHGSQYDATGKVVRGPAPKSLALSHAKTENDKIVLTSWTETDFRTGEEPWWS-DVPDMGRRQFMNLLTFGTVTGVALGALYPVVNYFIPPAAGGAGGGTTAKDELGNDVSVSKFLESHNVGDRTLVQGLKGDPTYIVAITDYGINAVCTHLGCVVPWNAAENKFKCPCHGSQYDATGKVVRGPAPKSLALSHAKTENDKIVLTSWTETDFRTGEEPWWS-DVPDMGRRQFMNLLTFGTVTGVALGALYPVVNYFIPPAAGGAGGGTTAKDELGNDVSVSKFLESHNVGDRTLVQGLKGDPTYIVAITDYGINAVCTHLGCVVPWNAAENKFKCPCHGSQYDATGKVVRGPAPKSLALSHAKTENDKIVLTSWTETDFRTGEEPWWS-DVPDMGRRQFMNLLTFGTVTGVALGALYPVVNYFIPPAAGGAGGGTTAKDELGNDVSVSKFLESHNVGDRTLVQGLKGDPTYIVAITDYGINAVCTHLGCVVPWNAAENKFKCPCHGSQYDATGKVVRGPAPKSLALSHAKTENDKIVLTSWTETDFRTGEEPWWS-DVPDMGRRQFMNLLTFGTVTGVALGALYPVVNYFIPPAAGGAGGGTTAKDELGNDVSVSKFLESHNVGDRTLVQGLKGDPTYIVAITDYGINAVCTHLGCVVPWNAAENKFKCPCHGSQYDATGKVVRGPAPKSLALSHAKTENDKIVLTSWTETDFRTGEEPWWS,AGRLHFGALL-AGRLAWGALL-AGLLHFGALL-AGRWHFGALL-AGRLHFGALL-AGRLAWGALL-AGRLAFGALL-AGRWHWGALL-AGRLAFGALL-AGRLAWGALL,MNEVNFGWLI-MNEVNFGWLI-MNEVNFGWLI-MNEVNFGWLI-MNEVNFGWLI-MNEVNFGWLI-MNEVNFGWLI-MNEVNFGWLI-MNEVNFGWLI-MNEVNFGWLI
22.0,27,37,B,10,MPDLYSEFEKYLHISEIIEWITSRTTPPHVDWWWLMGGLTLLCFIVQAVTGFAMTFYYKPDTATAFSSVQYILNDVNYGWLVRTLHHWTASLMILTMILHFIRVLKTGGYRKPREWTWISGIILLVLAISFGLTGYALPWDQMGYWAVTVISNVPDIIPVIGETISKIIKGGESVGQATLDRFFLAHVLFLPILTFIFMFIHIAIVLKLGLAGPV-MPDLYSEFEKYLHISDIIEWITSKTTPPHVDWWWLMGGLTLLCFLVQVVTGFAMTFYYKPDIATAFSSVEYIQNVVNYGWLVRTLHHWTASLMILTMILHFIRVLKTGGYRKPREWTWISGIILLLLAISFGLTGYALPWDQMGYWAVSVISNVPRIIPIIGETISNLIRGGDSVGQATLTRFFWAHVVFLPFLTFIFMAIHIIIVLKLGLAGPV-MPDLYSEFEKYLHISEIIEWITSRTTPPHVDWWWLMGGLTLLCFIVQVVTGFAMTFYYKPDIATAFSSVQYIQNVVNYGWLVRSLHHWTASLMILTMILHFIRVLKTGGYRKPREWTWISGIILLVLTIAFGLTGYALPWDQMGYWAVTVISGVPDIIPVVGKTISELIRGGESVGQATLTRFFWAHVVFLPFLTFIFMFIHIAIVLKLGLAGPV-MPDLYSELEKYLHLSEIKEWIFSRTTPPHVDWWWLMGGLTLLCFLVQVVTGFAMTFYYQPDTATAFSSVQYIQNEVNYGWLVRTLHHWTASLMILTMILHFFRVLLTGGYRKPREWTWISGIILLVLTVAFGVTGYALPWDQLGYWAVTVVSNVPDVIPVIGETISKLIKGGESVGQATLTRFFWAHVVFLPFATLIFTFIHLAIVLKLGLAGPV-MPDLYSEFEKYLDISAIKEWIFSRTTPPHVDWWWLMGGLTLLCFLVQVVTGFAMTFYYKPDIATAFSSVEYIQNVVNYGWLVRTLHHWTASLMILTMILHVFRVLLTGGYRKPREWTWISGIILLLLTIAFGLTGYALPWDQMGYWAVSVVSGVPDIIPVIGETISKLIRGGESVGQATLDRFFWAHVVLLPFLTLIFSFIHIAIVLKLGLAGPV-MPDLFSEFEKYLHISEIIEWITSRTTPPHVDWWWLMGGLTLLCFIVQVITGFAMTFYYKPDTASAFSSVQYIMNDVNYGWLVRTLHHWTASLMILTMILHFIRVLKTGGYRKPREWTWISGIILLILAVSFGLTGYALPWDQMGYWAVSVVSNVPDIIPVIGETISKIIKGGDSVGQATLTRFFYAHVLFLPFLTFIFAFIHIAIVLKLGLAGPV-MPDLYSEFEKYLHISEIIEWITSRTTPPHVDWWWLMGGLTLLCFIVQVVTGFAMTFYYKPDTATAFYSVQYIQNVVNYGWLVRTLHHWTASLMVLTMILHFIRVLKTGGYRKPREWTWISGIILLLLTVAFGLTGYALPWDQMGYWAVTVVSNVPDIIPVIGKTISNLIKGGESVGQATLTRFFWAHVVLLPFLTLIFSFIHIAIVLKLGLAGPV-MPDLYSELEKYLHISEIIEWITSRTTPPHVDWWWLMGGLTLLCFIVQVVTGFAMTFYYKPDTASAFYSVQYIQNVVNYGWLVRTLHHWTASLMVLTMILHFIRVLKTGGYRKPREWTWISGIILLILTVAFGLTGYALPWDQLGYWAVTVISNVPDIIPVIGKTISYLIRGGESVGQATLDRFFWAHVVLLPFLTLIFSFIHIAIVLKLGLAGPV-MPDLWSELEKHLHISEIIEWITSRTTPPHVDWWWLMGGLTLLCFIVQVITGFAMTFYYKPDIATAFSSVQYIQNVVNYGWLVRTLHHWTASLMILTMILHFIRVLKTGGYRKPREWTWISGIILLVLTVAFGLTGYALPWDQMGYWAVSVVSNVPDIIPVIGKTISNIIKGGESVGQATLTRFFWAHVVLLPFLTLIFSFIHIAIVLKLGLAGPI-MPDLWSEYEKYLHLSAIKEWIFSRTVPPHVDWWWLMGGLTLLCFIVQAVTGFAMTFYYKPDTATAFYSVQYINNVVNYGWLVRTLHHWTASLMILTMILHFIRVLTTGGYRKPREWTWISGIILLVLAVAFGLTGYALPWDQMGYWAVSVVSGVPDVIPVIGKTISNIIKGGDSVGQATLTRFFWAHVVFLPFLTLIFAFIHIAIVLKLGLAGPV,MANVYDWFEERLEIQAIAEDVTSKYVPPHVNIFYCLGGITLVCFLIQFATGFAMTFYYKPTVAEAYSSVQYIMNEVNFGWLIRSIHRWSASMMVLMMILHVFRVYLTGGFKKPRELTWVSGVILAVITVSFGVTGYSLPWDQVGYWAVKIVSGVPEAIPVVGVLISDLLRGGSSVGQATLTRYYSAHTFVLPWLIAVFMLFHFLMIRKQGISGPL-MANVYDWFEERLEIQAIAEDVTSKYVPPHVNIFYCLGGITLVCFLIQFATGFAMTFYYKPTVAEAYSSVQYIMNEVNFGWLIRSIHRWSASMMVLMMILHVFRVYLTGGFKKPRELTWVSGVILAVITVSFGVTGYSLPWDQVGYWAVKIVSGVPEAIPVVGVLISDLLRGGSSVGQATLTRYYSAHTFVLPWLIAVFMLFHFLMIRKQGISGPL-MANVYDWFEERLEIQAIAEDVTSKYVPPHVNIFYCLGGITLVCFLIQFATGFAMTFYYKPTVAEAYSSVQYIMNEVNFGWLIRSIHRWSASMMVLMMILHVFRVYLTGGFKKPRELTWVSGVILAVITVSFGVTGYSLPWDQVGYWAVKIVSGVPEAIPVVGVLISDLLRGGSSVGQATLTRYYSAHTFVLPWLIAVFMLFHFLMIRKQGISGPL-MANVYDWFEERLEIQAIAEDVTSKYVPPHVNIFYCLGGITLVCFLIQFATGFAMTFYYKPTVAEAYSSVQYIMNEVNFGWLIRSIHRWSASMMVLMMILHVFRVYLTGGFKKPRELTWVSGVILAVITVSFGVTGYSLPWDQVGYWAVKIVSGVPEAIPVVGVLISDLLRGGSSVGQATLTRYYSAHTFVLPWLIAVFMLFHFLMIRKQGISGPL-MANVYDWFEERLEIQAIAEDVTSKYVPPHVNIFYCLGGITLVCFLIQFATGFAMTFYYKPTVAEAYSSVQYIMNEVNFGWLIRSIHRWSASMMVLMMILHVFRVYLTGGFKKPRELTWVSGVILAVITVSFGVTGYSLPWDQVGYWAVKIVSGVPEAIPVVGVLISDLLRGGSSVGQATLTRYYSAHTFVLPWLIAVFMLFHFLMIRKQGISGPL-MANVYDWFEERLEIQAIAEDVTSKYVPPHVNIFYCLGGITLVCFLIQFATGFAMTFYYKPTVAEAYSSVQYIMNEVNFGWLIRSIHRWSASMMVLMMILHVFRVYLTGGFKKPRELTWVSGVILAVITVSFGVTGYSLPWDQVGYWAVKIVSGVPEAIPVVGVLISDLLRGGSSVGQATLTRYYSAHTFVLPWLIAVFMLFHFLMIRKQGISGPL-MANVYDWFEERLEIQAIAEDVTSKYVPPHVNIFYCLGGITLVCFLIQFATGFAMTFYYKPTVAEAYSSVQYIMNEVNFGWLIRSIHRWSASMMVLMMILHVFRVYLTGGFKKPRELTWVSGVILAVITVSFGVTGYSLPWDQVGYWAVKIVSGVPEAIPVVGVLISDLLRGGSSVGQATLTRYYSAHTFVLPWLIAVFMLFHFLMIRKQGISGPL-MANVYDWFEERLEIQAIAEDVTSKYVPPHVNIFYCLGGITLVCFLIQFATGFAMTFYYKPTVAEAYSSVQYIMNEVNFGWLIRSIHRWSASMMVLMMILHVFRVYLTGGFKKPRELTWVSGVILAVITVSFGVTGYSLPWDQVGYWAVKIVSGVPEAIPVVGVLISDLLRGGSSVGQATLTRYYSAHTFVLPWLIAVFMLFHFLMIRKQGISGPL-MANVYDWFEERLEIQAIAEDVTSKYVPPHVNIFYCLGGITLVCFLIQFATGFAMTFYYKPTVAEAYSSVQYIMNEVNFGWLIRSIHRWSASMMVLMMILHVFRVYLTGGFKKPRELTWVSGVILAVITVSFGVTGYSLPWDQVGYWAVKIVSGVPEAIPVVGVLISDLLRGGSSVGQATLTRYYSAHTFVLPWLIAVFMLFHFLMIRKQGISGPL-MANVYDWFEERLEIQAIAEDVTSKYVPPHVNIFYCLGGITLVCFLIQFATGFAMTFYYKPTVAEAYSSVQYIMNEVNFGWLIRSIHRWSASMMVLMMILHVFRVYLTGGFKKPRELTWVSGVILAVITVSFGVTGYSLPWDQVGYWAVKIVSGVPEAIPVVGVLISDLLRGGSSVGQATLTRYYSAHTFVLPWLIAVFMLFHFLMIRKQGISGPL,KPFIGFFKPP-KPLIGFFKPP-KPFIGFFKPP-KPLIGFFKPP-KPFIGFFKPP-KPFIGFFKPP-KPFIGFFKPP-KPLIGFFKPP-KPFIGFFKPP-KPLIGFFKPP,YPVVNYFIPP-YPVVNYFIPP-YPVVNYFIPP-YPVVNYFIPP-YPVVNYFIPP-YPVVNYFIPP-YPVVNYFIPP-YPVVNYFIPP-YPVVNYFIPP-YPVVNYFIPP
