contacts,cs,ce,Chain,Length,designed_receptor_seq,native_receptor_seq,designed_binder_seq,native_binder_seq
17.0,72,82,A,10,MSKNFGYRLLVFHLTYGAILGIVIGLLIPTIYNTIPPSVEKDGGFAELLDQSGRHVTIAEMQANNKADEWDIVLGLHGEPTYVRGLDVVGINAVCTHLGCTVPWDAARQRFVCPCHGSSYNRNGRTESGPAPQDLRKFHLNFTNETFIISFWEEMCPIHGSIPNDV-MHPNEGERILQCIKTYGSVLGVVIGLLIPVIFFYIPPIKGWLAGGSQLLDQSGKKVNQQRLVDAFAFAHWNLVKGLDGFPVYLPVGERTGINAICTHLGCTVPWHDKEAKFKCPCHGSMYDAAGNTVEGPSPKNLKHFYVEAEDQNLKVKLDMANSPITGDNPDDR-MIRNTGQLLKIGIRLIGILTGVVIGALIPLVLFFVPPKKGELAGGAMLVDEKGEQLLLSELQAFHDVEAFQLVMGLEGRPHYVRALKSVGIDAVCTHRGCTVPWHESEQRFTCPCHGSRYDTAGAVLEGPAPSDLRCVSLQAEGENLVVQDWVQACPLHGHKPDDA-NQPTSGELIRRRILFYGAVSGVVLVLLLPLFKFVLPPHDHATAGGISLVDAAGTTVYAASLKAEQHLHFTKKLAGLNGRPLYLQDFQSVGIDAVCTHLGCVIPWNASAQQYVCPCHGSRFDHQGAVLDGPAPNDLAWYHLELRGDRFIATKWTRNCPRHGLVPQWQ-MLSKRGMIQRVYIVNWGIIIGGSIGYLAPLILHWVPPDKGGQEGGLRLLNSDGEDVQVELLKATELVGLRKLFRGLHGRPFYVSPIDTFGIDAVCTHLGCVVPWDAERKKYVCPCHGSQFNDQGEVTAGPAPVDLDYANVMQRDHQIYIESWENSDILKGEIPWFD-MHPSDGRTVAVGLVVFGVVFGAIVGMARPVIDFWTPPMAKVRAGGAALLDASGQAVEAADFVATHEDGRALLVVGLDGEPTYVFAPTRVGISAICTHLGCVVPWDAAQARFVCPCHGSAFDARGGVVSGPAPESLKHCEVKVENDRFSLSRWNQTCPFHGVKPTDG-ERVQRGQFLFLLTCCGGLFLGLLIGLATPVIYHFVPPSLGEVDGGYVLQNKEGGVLSLSEWKDVGSKGERALVKGLEGRPTYVQDPTDVGINAVCTHMGCNVPFDKNSDRWVCPCHGSSYNKKGELIKGPAPDHLELVNLKEEGDTIVITHWTDKSPVTGDHPTDG-DAIAVGEFLRRSVITVGIVLGFVLGLQLPIQNRFRPPARNLQGGGEVLLDRDGSEVLASDLLRNHQFGAHLLVQGLDGEPFYLRRPQTFGINAVCTHQGCVVPWSDAEQRFVCPCHGSSYDIHGKVIDGPAPKDLALAALEEQNNHFAVSHLSTRCPFHGQIPWYT-GSEAFGRRILSGIRSYGAVAGSFLGAAIPVYYATVPPEASVAGGGTQLVDARGRVVTKQQILAAVTTGKKQLVQGLNGRPTYVFNPDSYGIDAICTHQGCTVPWDAEKSVFVCPCHGSQYDMDGEVTKGPAPNDLDHFSVEINANSFQITDWLSHCPRHGYDPQQV-MVPITGRRRLIFVVAFGAVAGFAIGLLVPVIFAFVPPRDGLAGGGHTLTDASGGTIRAADLVANAAASGWQLFNGLDGQPVYIRDLKSRGINAICTHQGCSVPWLAAEKRFVCPCHGSAYDAQGGVTTGPAPNNLQLFNVAVAADTILVTAWDRACVYHGLAPWYD,DVPDMGRRQFMNLLTFGTVTGVALGALYPVVNYFIPPAAGGAGGGTTAKDELGNDVSVSKFLESHNVGDRTLVQGLKGDPTYIVAITDYGINAVCTHLGCVVPWNAAENKFKCPCHGSQYDATGKVVRGPAPKSLALSHAKTENDKIVLTSWTETDFRTGEEPWWS-DVPDMGRRQFMNLLTFGTVTGVALGALYPVVNYFIPPAAGGAGGGTTAKDELGNDVSVSKFLESHNVGDRTLVQGLKGDPTYIVAITDYGINAVCTHLGCVVPWNAAENKFKCPCHGSQYDATGKVVRGPAPKSLALSHAKTENDKIVLTSWTETDFRTGEEPWWS-DVPDMGRRQFMNLLTFGTVTGVALGALYPVVNYFIPPAAGGAGGGTTAKDELGNDVSVSKFLESHNVGDRTLVQGLKGDPTYIVAITDYGINAVCTHLGCVVPWNAAENKFKCPCHGSQYDATGKVVRGPAPKSLALSHAKTENDKIVLTSWTETDFRTGEEPWWS-DVPDMGRRQFMNLLTFGTVTGVALGALYPVVNYFIPPAAGGAGGGTTAKDELGNDVSVSKFLESHNVGDRTLVQGLKGDPTYIVAITDYGINAVCTHLGCVVPWNAAENKFKCPCHGSQYDATGKVVRGPAPKSLALSHAKTENDKIVLTSWTETDFRTGEEPWWS-DVPDMGRRQFMNLLTFGTVTGVALGALYPVVNYFIPPAAGGAGGGTTAKDELGNDVSVSKFLESHNVGDRTLVQGLKGDPTYIVAITDYGINAVCTHLGCVVPWNAAENKFKCPCHGSQYDATGKVVRGPAPKSLALSHAKTENDKIVLTSWTETDFRTGEEPWWS-DVPDMGRRQFMNLLTFGTVTGVALGALYPVVNYFIPPAAGGAGGGTTAKDELGNDVSVSKFLESHNVGDRTLVQGLKGDPTYIVAITDYGINAVCTHLGCVVPWNAAENKFKCPCHGSQYDATGKVVRGPAPKSLALSHAKTENDKIVLTSWTETDFRTGEEPWWS-DVPDMGRRQFMNLLTFGTVTGVALGALYPVVNYFIPPAAGGAGGGTTAKDELGNDVSVSKFLESHNVGDRTLVQGLKGDPTYIVAITDYGINAVCTHLGCVVPWNAAENKFKCPCHGSQYDATGKVVRGPAPKSLALSHAKTENDKIVLTSWTETDFRTGEEPWWS-DVPDMGRRQFMNLLTFGTVTGVALGALYPVVNYFIPPAAGGAGGGTTAKDELGNDVSVSKFLESHNVGDRTLVQGLKGDPTYIVAITDYGINAVCTHLGCVVPWNAAENKFKCPCHGSQYDATGKVVRGPAPKSLALSHAKTENDKIVLTSWTETDFRTGEEPWWS-DVPDMGRRQFMNLLTFGTVTGVALGALYPVVNYFIPPAAGGAGGGTTAKDELGNDVSVSKFLESHNVGDRTLVQGLKGDPTYIVAITDYGINAVCTHLGCVVPWNAAENKFKCPCHGSQYDATGKVVRGPAPKSLALSHAKTENDKIVLTSWTETDFRTGEEPWWS-DVPDMGRRQFMNLLTFGTVTGVALGALYPVVNYFIPPAAGGAGGGTTAKDELGNDVSVSKFLESHNVGDRTLVQGLKGDPTYIVAITDYGINAVCTHLGCVVPWNAAENKFKCPCHGSQYDATGKVVRGPAPKSLALSHAKTENDKIVLTSWTETDFRTGEEPWWS,VGNTHWGAYW-FGLVNFGWLF-ANTFSFGLLF-WHAVNWGWLI-GGIVNYGEWF-ADLIHYGALR-DGIIRFGRIM-LGLIHFGNLF-GGTVSFGRLL-EGSQRFGKLY,MNEVNFGWLI-MNEVNFGWLI-MNEVNFGWLI-MNEVNFGWLI-MNEVNFGWLI-MNEVNFGWLI-MNEVNFGWLI-MNEVNFGWLI-MNEVNFGWLI-MNEVNFGWLI
22.0,27,37,B,10,VHNEYSEFEKYFYFEKIKEWILSKSKPPHADFWYLFGGMTAVCFLILAVSGFAMTFYYEPNTNTAFESVNRIMNEVNYGDLIRKIHFGTSMLLISTMMLHIYKVLSFGGYRKGREFTWITGMILMILSMAYGVTGYSLPWDNLGKYALEVVSNVPKVIPTFGNTLSKILKGGESVGQATLVRFYNAHVYILPFLTFIFAFFHIWEIIRLGLAGPI-MPNLVEQYESYIRISEWWRWLFSKETPPHVDAWFNFGGLNFACFVILVITGFAMTFYYQPNILTAFESVQYILGVVNYGQIIRYTHFGMSMLSLALMILHVVRVMMTGGFRKPRELSWIAGIILLLLTMSFGVTGYALPWNQIGTWGLSTIINVPRVIPLIGDQISSWIKGGDIVGQATLIRFYAAHVWFLPVFTMVFAFIHTAVVLYLGLNGPQ-MRSRLAAYEAVLNIEEILLFKNAKIRPPHVAYWWKMGGMAWAMFMLQLVSGFAMTFYYKPDTALAFFSINYIINTVNYGDLMRWLHRWTAFTLIATMILHFFRILANGGYRRGRELTWLSGVIILILTMSFGLTGYALPWNQLGTWGIDIIDNVPRIIPVIGDAISFLIRGGDATGQATLIRFYYMHVWFLPLLTLLFTFIHTVMIMKLGASGPT-MPDMLEDLERFLNISALMRYARSKRKPPHVDVWWYFGGLALFCFIVQAISGFAMTFYYVPATAAAFESVQYIREVVNYGYLIREAHQMMAYALILTMLLHIYRIIFTGGYKRGREWNWITGIILFILAIAHGITGYALPYDQVGYWAVTVISNVPIIIPFIGEAISRFIRGGETVGQATLVRFFGAHVLILPVLTAAFMFRHLAIILKKGLAGPA-MIDLYSTLNKSLSIEAVLKWVFSKESPPHADYWFLWGGLTLLCFLVQAISGFAMTFYYQPEIANAFSSVEYIQYIVNYGWLIRNIHFFTTHLAIFTMILHIIRVMKTGGYKQGREVIFISGLILIALTIAFGVAGYSLPWDQDGFWGVTLVSNLPDIIPVFGKSISNLIRGGAVVGQATLYRFYLLHVTVLPLLTFIFTFIHLAIITKLGLNGPQ-MKNLWLKYEAYFHFSKIVEFLFSYTVPPHVDWWWTFGGMAMAAMLVEFVTGFLMTFYYQPTVTKAYSSINYIINEVNFGWLVRFLHHWVSSFAMMLMIMHVMRVLKTGGWVFPRELTWITGIILLVLSISFGVTGYALPWDQAGFWSIDVISHIPEVIPVAGEAISVWVRGGLEVGQATLHRFFMLHVVILPFLTFIFMFIHLLVVVKLGLAGPY-MPDYLADYDSYLSTRKIEEDIFSRSTPPHIDLWWLFGGVSIVCFIVMLISGFAMTWYYTPDTLAAHSSVDYINNKVNYGELVRLTHRYTAFAMILAMIIHAMRILWTGGYAYPREWNWRTGLILIGLTIAFGITGYIMPWDQLGYWAADILAGVPRWIPYFGETISAIIRGGAAVGQATLIRFFWLHVVFLPFATGAFVYFHVRKVVKLGDSGPK-KPVIKKFYEEHLNLEALWDFLRARKFPPHWDAWWLMGGLAILCFLVEVITGFAMTFYYRPEVAEAYDSLNYIMNTVNYGWIVRTLHHWTARLMMLFMFLHVLRVLTTGGFKFGRQWNMVSGLILILLAVMFGFTGYALPWDQMGYWSITVMAGVPEQIPYFGAAISHLVRGGYYVGQATLVNAYYAHTVYLPFLTLIFVFIHMRRVLDLGLAGPA-FPDIWEYYESHLDITAVKENVFSRTYPPHVDTWWNFGGVALVCFLIQVITGYAMTAYYKPHVTDAFRSVQYIFETVNFGDLIRSLHHFFMAFMIISTILHIMRVLMSGGYRKPREYAWITGIILIFLTVAFGFSGYALPWDQMGYWGATVVSGIPDVIPIVGKAISYVLRGGASVGQDTLVRFFALHTWVLPFLTMIFVAIHLIILFKLGEAGPV-TAAWFETYEEHFQITKLLKWLWSWRIPPHVDVWWFFGGLAVLCYIVQFVTGYAMTFYYRPTIAEAYDSVTYINKIVAYGNFARTLHHWFALAMLFMYCMHMLRVFSTGGWKYPREWTWVAGLIMAILSVSFGATGYVLPWDQIGIWGMSTVVNVPDAIPFLGEYISEVLKGGDAVGQATLSRMYAAHVKFLPWMTFIFVLIHVAIILKNGLSGPV,MANVYDWFEERLEIQAIAEDVTSKYVPPHVNIFYCLGGITLVCFLIQFATGFAMTFYYKPTVAEAYSSVQYIMNEVNFGWLIRSIHRWSASMMVLMMILHVFRVYLTGGFKKPRELTWVSGVILAVITVSFGVTGYSLPWDQVGYWAVKIVSGVPEAIPVVGVLISDLLRGGSSVGQATLTRYYSAHTFVLPWLIAVFMLFHFLMIRKQGISGPL-MANVYDWFEERLEIQAIAEDVTSKYVPPHVNIFYCLGGITLVCFLIQFATGFAMTFYYKPTVAEAYSSVQYIMNEVNFGWLIRSIHRWSASMMVLMMILHVFRVYLTGGFKKPRELTWVSGVILAVITVSFGVTGYSLPWDQVGYWAVKIVSGVPEAIPVVGVLISDLLRGGSSVGQATLTRYYSAHTFVLPWLIAVFMLFHFLMIRKQGISGPL-MANVYDWFEERLEIQAIAEDVTSKYVPPHVNIFYCLGGITLVCFLIQFATGFAMTFYYKPTVAEAYSSVQYIMNEVNFGWLIRSIHRWSASMMVLMMILHVFRVYLTGGFKKPRELTWVSGVILAVITVSFGVTGYSLPWDQVGYWAVKIVSGVPEAIPVVGVLISDLLRGGSSVGQATLTRYYSAHTFVLPWLIAVFMLFHFLMIRKQGISGPL-MANVYDWFEERLEIQAIAEDVTSKYVPPHVNIFYCLGGITLVCFLIQFATGFAMTFYYKPTVAEAYSSVQYIMNEVNFGWLIRSIHRWSASMMVLMMILHVFRVYLTGGFKKPRELTWVSGVILAVITVSFGVTGYSLPWDQVGYWAVKIVSGVPEAIPVVGVLISDLLRGGSSVGQATLTRYYSAHTFVLPWLIAVFMLFHFLMIRKQGISGPL-MANVYDWFEERLEIQAIAEDVTSKYVPPHVNIFYCLGGITLVCFLIQFATGFAMTFYYKPTVAEAYSSVQYIMNEVNFGWLIRSIHRWSASMMVLMMILHVFRVYLTGGFKKPRELTWVSGVILAVITVSFGVTGYSLPWDQVGYWAVKIVSGVPEAIPVVGVLISDLLRGGSSVGQATLTRYYSAHTFVLPWLIAVFMLFHFLMIRKQGISGPL-MANVYDWFEERLEIQAIAEDVTSKYVPPHVNIFYCLGGITLVCFLIQFATGFAMTFYYKPTVAEAYSSVQYIMNEVNFGWLIRSIHRWSASMMVLMMILHVFRVYLTGGFKKPRELTWVSGVILAVITVSFGVTGYSLPWDQVGYWAVKIVSGVPEAIPVVGVLISDLLRGGSSVGQATLTRYYSAHTFVLPWLIAVFMLFHFLMIRKQGISGPL-MANVYDWFEERLEIQAIAEDVTSKYVPPHVNIFYCLGGITLVCFLIQFATGFAMTFYYKPTVAEAYSSVQYIMNEVNFGWLIRSIHRWSASMMVLMMILHVFRVYLTGGFKKPRELTWVSGVILAVITVSFGVTGYSLPWDQVGYWAVKIVSGVPEAIPVVGVLISDLLRGGSSVGQATLTRYYSAHTFVLPWLIAVFMLFHFLMIRKQGISGPL-MANVYDWFEERLEIQAIAEDVTSKYVPPHVNIFYCLGGITLVCFLIQFATGFAMTFYYKPTVAEAYSSVQYIMNEVNFGWLIRSIHRWSASMMVLMMILHVFRVYLTGGFKKPRELTWVSGVILAVITVSFGVTGYSLPWDQVGYWAVKIVSGVPEAIPVVGVLISDLLRGGSSVGQATLTRYYSAHTFVLPWLIAVFMLFHFLMIRKQGISGPL-MANVYDWFEERLEIQAIAEDVTSKYVPPHVNIFYCLGGITLVCFLIQFATGFAMTFYYKPTVAEAYSSVQYIMNEVNFGWLIRSIHRWSASMMVLMMILHVFRVYLTGGFKKPRELTWVSGVILAVITVSFGVTGYSLPWDQVGYWAVKIVSGVPEAIPVVGVLISDLLRGGSSVGQATLTRYYSAHTFVLPWLIAVFMLFHFLMIRKQGISGPL-MANVYDWFEERLEIQAIAEDVTSKYVPPHVNIFYCLGGITLVCFLIQFATGFAMTFYYKPTVAEAYSSVQYIMNEVNFGWLIRSIHRWSASMMVLMMILHVFRVYLTGGFKKPRELTWVSGVILAVITVSFGVTGYSLPWDQVGYWAVKIVSGVPEAIPVVGVLISDLLRGGSSVGQATLTRYYSAHTFVLPWLIAVFMLFHFLMIRKQGISGPL,FPIVNFFKPP-KPLIGFFKPP-APLRGFFTPP-EPMVKFWKPP-KPILGFFKPP-TPLKDFIKPP-NPFIGYFKPP-HPFLGFFKPP-NPFIGFLKPP-PPYLQFFRPP,YPVVNYFIPP-YPVVNYFIPP-YPVVNYFIPP-YPVVNYFIPP-YPVVNYFIPP-YPVVNYFIPP-YPVVNYFIPP-YPVVNYFIPP-YPVVNYFIPP-YPVVNYFIPP
