contacts,cs,ce,Chain,Length,designed_receptor_seq,native_receptor_seq,designed_binder_seq,native_binder_seq
10.0,115,125,A,10,SHFPILDLGIVSTTIPFCVTNFYLARWQKEHPEVNCG-PYFPTDLEGLVRVFLPLTFLWFLSSFLFYRFPLETGG-TVNPVVAGLLLGYAVPVIYLYYLTEYLSYHHPSAIGG-VYNPQRDGGIIGTLVPVILGFFANAWLNWEYPFENGG-PVAPIVSLGLAFYSVICVAGYFAQARREFENPYVQGG-MTNPWAAGGQAGALAPVVYGYFRAAMAEYNNPSEFGL-MFYPFEAGLYLGLLFPLTLYYFVAAFRVYQFPVAEGG-EMNPIKEGGVLGLTLVTVTGYFIYAWLNYLQPMDYGG-MFFPLLQGGMIFFTWPFCRGYFWLAFQLKVNPLDRGG-SFSPKLWGGVCLVFTVSMTGYYIYALVEYWSPMEAGG,MVEPLLSGIVLGLIVVTLAGLFYAAYKQYKRPNELGG-MVEPLLSGIVLGLIVVTLAGLFYAAYKQYKRPNELGG-MVEPLLSGIVLGLIVVTLAGLFYAAYKQYKRPNELGG-MVEPLLSGIVLGLIVVTLAGLFYAAYKQYKRPNELGG-MVEPLLSGIVLGLIVVTLAGLFYAAYKQYKRPNELGG-MVEPLLSGIVLGLIVVTLAGLFYAAYKQYKRPNELGG-MVEPLLSGIVLGLIVVTLAGLFYAAYKQYKRPNELGG-MVEPLLSGIVLGLIVVTLAGLFYAAYKQYKRPNELGG-MVEPLLSGIVLGLIVVTLAGLFYAAYKQYKRPNELGG-MVEPLLSGIVLGLIVVTLAGLFYAAYKQYKRPNELGG,GGEVKVNPFC-RRDEWINPFC-DAEWKSNPYW-QAQAFLNPYV-KIDRQTNPYT-YGFYNINPFR-KRERQTNPYR-RWCFNLNPWQ-FYDDKINPFL-ILDQHCNPYC,NVNKFQNPFR-NVNKFQNPFR-NVNKFQNPFR-NVNKFQNPFR-NVNKFQNPFR-NVNKFQNPFR-NVNKFQNPFR-NVNKFQNPFR-NVNKFQNPFR-NVNKFQNPFR
10.0,0,10,B,10,MDEWEKPDLSNPELLAMDKRGDGFFDFGVPVWPKFAAYALPLLVAGWAALEAAYEMARPIKLRAPFDPHKVPDERLPWLLFYPLWFVYTTVPDRKQGGLLYAAVPLGLLMAPVLVKVNWHMAPWRQPLKFAFVVLGWLFMDHWGRGAVLPRDKANTLGVW-MTLYYFPNWSDPALVAQQARGDGFDRFGVPFYPDFAVKVLPWLVLGTAAIAVFWRVTHPAGQGAPLNPWESPDGDLPLFLFAPAIAAMRQLPNRILGGITMVAVPLGYLLIPYIDDEDYAWRPWNRPIKLALLLAGAALWFFLGEGAVLPLEDFETLGFR-MTEWVSPDLENPEYLAGRAEGRADFLYGTPPWPYYAARRLPWLVTGAAALLLFHRLTDPACVGEPYDPAAEPRTNFPFIVLYPARWILRTLPDKAAGWVALVAVPLGVALIPLLWRADDQLDPHDQPVADALFLFGYAATYWLGVGEVLPSACWRSLGLA-MFRWVAPDLSDPVYLQELAKGNGHLRFGIPPVPHFAVWELPLVVLGIAAGVLALRALWPTRVGTPFDPQALPEGQLPTLVFYPLDNVVRVLPNAILGWLMLLSMPLGFASVPALWLVNSAGAPWDRPVFTALAVFGLALTLFCGIGAMLPLDKSSDLGLT-NQKWSQPDRNNPVFLAELRRGQGHMWFGVPPYPYFMNNFAPLLVIGMAAVAAFEALTNPVTQGTPQNPTLTPEGHHPIIVWYPLWAIYRRLPNRLAGLIALAAVPFGLALIPFITSHNQKLNPQDRPTASAFLLAGVLAYFFLGAGAVLPIEQAWNLGIR-ALEYQAPNLTDPAFLATAAQGDGYFAYGVPPWPDFAARRVPWLVGGSAALLLLYRLLKPADQGQPWDPRHAPAGNHPRLYLYPLYSIWHRLPNRVAGMLALLAVPLGAWALPFLWHQDSALDPLHQPLRSALDILGLNLFLFLGVGAALPASRYSTLGIA-MVKFTAPDREDPTYLEKEARGDGDLEFGVPVAPYFLLKELPIVVAGTAALLLLLALVVPATEGAPFDPTHLPEGNLPTQILYPAWFVTKQLPNVVLGWLMLAAIPLGLAMIPLLERTDDEGYPYNQPLRTLLDLAGVLYWAFLGIGATLPAADAYNLGLS-EVQWHAPDLSDPHFMAEVSRGEGDWRFGVPMFPTFALFQLPIWVIGIAAVVLLHRQLKPAEKGSPYDPYAAPSGNYPTMNMFPLTNIMRRLPNQRLGNWICIAIPLGFALLPFLMRADDLGAPQFNPFALAMLALGTLINEFLGLGYTLPEEQFDKLGIR-QAAWVAPDLSDPAFLAQVAQGNGYFYYGTPPYPFWATQRLPWAILGCAAVAALLTVLWPREQGEPFNPYTRPLSNLPTLLAAPLYALSAVIPNRLLGLLAHVAVPLGLLALPFLWRRDTAQDPSQRPRAFALMLAGICLMLFLGRGATLPTEQWRHLGLF-MLTWHWPDWSDPVNQARWAKGEGFHEFGTPPYPYFLADLLPLLVGGAALVALLYYLLVPKRRGTPWDPLATPVGRLPVFIMYPAEAVARRLPDRRAGRLALLAVPLGFLLVPLAFLRDQAGAPEDRPVFALVLMLGWLATLFLGLGYVRPLAEWRTLGLT,MATHKKPDLSDPTLRAKLAKGMGHNYYGEPAWPNDLLYVFPIVIMGSFACIVALAVLDPAMTGEPANPFATPLEILPEWYLYPVFQILRSLPNKLLGVLAMASVPLGLILVPFIENVNKFQNPFRRPVATTVFLFGTLVTLWLGIGAALPLDKSLTLGLF-MATHKKPDLSDPTLRAKLAKGMGHNYYGEPAWPNDLLYVFPIVIMGSFACIVALAVLDPAMTGEPANPFATPLEILPEWYLYPVFQILRSLPNKLLGVLAMASVPLGLILVPFIENVNKFQNPFRRPVATTVFLFGTLVTLWLGIGAALPLDKSLTLGLF-MATHKKPDLSDPTLRAKLAKGMGHNYYGEPAWPNDLLYVFPIVIMGSFACIVALAVLDPAMTGEPANPFATPLEILPEWYLYPVFQILRSLPNKLLGVLAMASVPLGLILVPFIENVNKFQNPFRRPVATTVFLFGTLVTLWLGIGAALPLDKSLTLGLF-MATHKKPDLSDPTLRAKLAKGMGHNYYGEPAWPNDLLYVFPIVIMGSFACIVALAVLDPAMTGEPANPFATPLEILPEWYLYPVFQILRSLPNKLLGVLAMASVPLGLILVPFIENVNKFQNPFRRPVATTVFLFGTLVTLWLGIGAALPLDKSLTLGLF-MATHKKPDLSDPTLRAKLAKGMGHNYYGEPAWPNDLLYVFPIVIMGSFACIVALAVLDPAMTGEPANPFATPLEILPEWYLYPVFQILRSLPNKLLGVLAMASVPLGLILVPFIENVNKFQNPFRRPVATTVFLFGTLVTLWLGIGAALPLDKSLTLGLF-MATHKKPDLSDPTLRAKLAKGMGHNYYGEPAWPNDLLYVFPIVIMGSFACIVALAVLDPAMTGEPANPFATPLEILPEWYLYPVFQILRSLPNKLLGVLAMASVPLGLILVPFIENVNKFQNPFRRPVATTVFLFGTLVTLWLGIGAALPLDKSLTLGLF-MATHKKPDLSDPTLRAKLAKGMGHNYYGEPAWPNDLLYVFPIVIMGSFACIVALAVLDPAMTGEPANPFATPLEILPEWYLYPVFQILRSLPNKLLGVLAMASVPLGLILVPFIENVNKFQNPFRRPVATTVFLFGTLVTLWLGIGAALPLDKSLTLGLF-MATHKKPDLSDPTLRAKLAKGMGHNYYGEPAWPNDLLYVFPIVIMGSFACIVALAVLDPAMTGEPANPFATPLEILPEWYLYPVFQILRSLPNKLLGVLAMASVPLGLILVPFIENVNKFQNPFRRPVATTVFLFGTLVTLWLGIGAALPLDKSLTLGLF-MATHKKPDLSDPTLRAKLAKGMGHNYYGEPAWPNDLLYVFPIVIMGSFACIVALAVLDPAMTGEPANPFATPLEILPEWYLYPVFQILRSLPNKLLGVLAMASVPLGLILVPFIENVNKFQNPFRRPVATTVFLFGTLVTLWLGIGAALPLDKSLTLGLF-MATHKKPDLSDPTLRAKLAKGMGHNYYGEPAWPNDLLYVFPIVIMGSFACIVALAVLDPAMTGEPANPFATPLEILPEWYLYPVFQILRSLPNKLLGVLAMASVPLGLILVPFIENVNKFQNPFRRPVATTVFLFGTLVTLWLGIGAALPLDKSLTLGLF,PYDPVTAGMS-PFDPVLWGLL-PHHPLFEGIY-PVHPVTRGLF-PWHPLLAGWM-PFRPAEAGLA-PYDPLAAGLW-PYNPIIAGSC-PFDPLLFGLL-PRQPLADGLL,MVEPLLSGIV-MVEPLLSGIV-MVEPLLSGIV-MVEPLLSGIV-MVEPLLSGIV-MVEPLLSGIV-MVEPLLSGIV-MVEPLLSGIV-MVEPLLSGIV-MVEPLLSGIV
