contacts,cs,ce,Chain,Length,designed_receptor_seq,native_receptor_seq,designed_binder_seq,native_binder_seq
28.0,115,125,A,10,MEFDFVYAIVTIILLLILGPLWVVYPLVPVVKEPDFIGRPVVLKNPNGLSRCIGCKACADACPAKAIKVVPGVNVPTTPFSISETHAKELQIDLTMCIFCGACERACPSGGVVLGYWFEQMYAEEDKLIYTKQQMLDDVNGTVPMIEAAKKEGKPVKVGFQVPFVREELKGVEAPLGNHV-NRDRIREMMKLLDVLAKRGMLKINYPHEPLILDPDYIGKPVIIRQQSGLSRCIGCSWCASACPAIAIHIVECMNDPKRPVSTSHRYAKTVEIDLLKCIFCNNCALACPSGGFVPGYYFDMKDDEESHLKYSKEEMVEDRFGTVPERKIAKEKKEAVVVGIKVPFSPPELRGLIVPIGGGK-MELLNEVRAAVRRAIDEMGTALVDYPTVRKPLTPDVVGRPVFLKKPNGMWRCIGCRACAAACPAFAITIAQAENDPADPWSEAVTTAALVTVDLLTCIECGACETACPSGGLVPGYYFELTDIDPETLVYTADDMVSEVYGTVPQRRAAKDHGHPVTVGFQVPYVRKELKGVVAPVAGQP-AAMGVASFAQAWGAGFTSGVVFERNPQIRRIVRPEDVGRPTLLKNKDGTSRCVGCAQCAAACPAKAISVKEAFNDPADPQAVDTTWAAVVEIDLLACIRCASCARACPHGGLQPGYEFERQDRRKDRLIIGLMDMTEDIRGTQPERIKAIETGEKVVRGIVVPYVRDEVEGVKEPLFGED-STVKEKIFADIKASIISEGFSVVLYPNIPMVLHPEVIGRPVTVAYPNGLSRCIGCEDCAKACPSNAIQIVPALNLPFIPKATTMLYSKIVEIDMLACLFCGSCEKACPTGGIVRGYCFESEIAFKDDAIYTLEQMVGSVTGTVPMRMEAEKSGEPVVTGFKVPFVRDELEGVKVPIEGKE-MLRYLVYFLLLAALVVFVGNFKTQYPSEKAELHPEFVGRPVLLKEPDGLWRCIGCAMCAAACPAKAIRVERALNDPTQPIATTKRYSSIVEVDLLVCNMCAACEKACPDGALVPGYCFEFRQENIDDLVYKRTDMVEEVDGCKPCIARAKAKGEPVDNGYVVPYVRDALKGVIAPLLGLT-SGVIKLFKDFQREIDAQNGSITIHWPAEVVKEEVDFVGLPRVLKDEDGLFRCIGCANCAIACPAQAISVVVALNDPKYPVAISSTYGELIEIDLLKCLFCAACERACPSGGIVHGYCYECIDVFEENLVVKKLDLQVDHYGSLPMLARAEATQTPVKVGIQVPFVRDEMAGVVVPNADGE-AGSLEAIQGVLEGVERLASHTERVWPKQPVELVPNVIGRPRLLRRPNGLSRCIGCAQCAEACPAQAIVVGSALNKPESPRAIGTQFAAVIRIDMLKCIHCAYCERACPSGGLVPGYCFEHSHDDEAELIYGFDQMTVDIVGTKPQRDRANATGKPVTHGYVLPYVREELEGLSAPLKGLD-VSNSARTLLKILTSLKTTGPYHTKWPEEPVLLDVLVKGRPILLRHPDGLERCIGCALCAAACPAFAIQIEIASNAPEHPIAKWTTHAKRLEVDLLTCIQCGACEAACPAGALVCGYCFEMENEFPEDLIYGREEMIETVVGSRPQRQRALRRGEPVKYGIVVPETRRELEGVEKPVLGEV-SAEFEKLTDTTRSVLQQLGPHTVEYPDVPVERAPDDVGRPVLLREDDGLSRCIGCAACAEACPASAIEITPAENDPENPVSDDDTYADDVTIDLLKCIFCGDCEQACPEGAIVPGYEFRRRDANRFDLVYGLDQMIEEVYGTIPMRKRAEDTGEEVEVGYVVPYVPEALKGLDEPEAGQS,TLKALAQSLGITLKYLFSKPVTVPYPDAPVALKPRFHGRHVLTRHPNGLEKCIGCSLCAAACPAYAIYVEPAENDPENPVSAGERYAKVYEINMLRCIFCGLCEEACPTGAIVLGYDFEMADYEYSDLVYGKEDMLVDVVGTKPQRREAKRTGKPVKVGYVVPYVRPELEGFKAPTEGGK-TLKALAQSLGITLKYLFSKPVTVPYPDAPVALKPRFHGRHVLTRHPNGLEKCIGCSLCAAACPAYAIYVEPAENDPENPVSAGERYAKVYEINMLRCIFCGLCEEACPTGAIVLGYDFEMADYEYSDLVYGKEDMLVDVVGTKPQRREAKRTGKPVKVGYVVPYVRPELEGFKAPTEGGK-TLKALAQSLGITLKYLFSKPVTVPYPDAPVALKPRFHGRHVLTRHPNGLEKCIGCSLCAAACPAYAIYVEPAENDPENPVSAGERYAKVYEINMLRCIFCGLCEEACPTGAIVLGYDFEMADYEYSDLVYGKEDMLVDVVGTKPQRREAKRTGKPVKVGYVVPYVRPELEGFKAPTEGGK-TLKALAQSLGITLKYLFSKPVTVPYPDAPVALKPRFHGRHVLTRHPNGLEKCIGCSLCAAACPAYAIYVEPAENDPENPVSAGERYAKVYEINMLRCIFCGLCEEACPTGAIVLGYDFEMADYEYSDLVYGKEDMLVDVVGTKPQRREAKRTGKPVKVGYVVPYVRPELEGFKAPTEGGK-TLKALAQSLGITLKYLFSKPVTVPYPDAPVALKPRFHGRHVLTRHPNGLEKCIGCSLCAAACPAYAIYVEPAENDPENPVSAGERYAKVYEINMLRCIFCGLCEEACPTGAIVLGYDFEMADYEYSDLVYGKEDMLVDVVGTKPQRREAKRTGKPVKVGYVVPYVRPELEGFKAPTEGGK-TLKALAQSLGITLKYLFSKPVTVPYPDAPVALKPRFHGRHVLTRHPNGLEKCIGCSLCAAACPAYAIYVEPAENDPENPVSAGERYAKVYEINMLRCIFCGLCEEACPTGAIVLGYDFEMADYEYSDLVYGKEDMLVDVVGTKPQRREAKRTGKPVKVGYVVPYVRPELEGFKAPTEGGK-TLKALAQSLGITLKYLFSKPVTVPYPDAPVALKPRFHGRHVLTRHPNGLEKCIGCSLCAAACPAYAIYVEPAENDPENPVSAGERYAKVYEINMLRCIFCGLCEEACPTGAIVLGYDFEMADYEYSDLVYGKEDMLVDVVGTKPQRREAKRTGKPVKVGYVVPYVRPELEGFKAPTEGGK-TLKALAQSLGITLKYLFSKPVTVPYPDAPVALKPRFHGRHVLTRHPNGLEKCIGCSLCAAACPAYAIYVEPAENDPENPVSAGERYAKVYEINMLRCIFCGLCEEACPTGAIVLGYDFEMADYEYSDLVYGKEDMLVDVVGTKPQRREAKRTGKPVKVGYVVPYVRPELEGFKAPTEGGK-TLKALAQSLGITLKYLFSKPVTVPYPDAPVALKPRFHGRHVLTRHPNGLEKCIGCSLCAAACPAYAIYVEPAENDPENPVSAGERYAKVYEINMLRCIFCGLCEEACPTGAIVLGYDFEMADYEYSDLVYGKEDMLVDVVGTKPQRREAKRTGKPVKVGYVVPYVRPELEGFKAPTEGGK-TLKALAQSLGITLKYLFSKPVTVPYPDAPVALKPRFHGRHVLTRHPNGLEKCIGCSLCAAACPAYAIYVEPAENDPENPVSAGERYAKVYEINMLRCIFCGLCEEACPTGAIVLGYDFEMADYEYSDLVYGKEDMLVDVVGTKPQRREAKRTGKPVKVGYVVPYVRPELEGFKAPTEGGK,HNPGQPPDPH-FSPGEPSAPV-IKPRNPPDPD-VNPGHPPLPE-YRPGSPKLTQ-YNPGSPPLPD-INPGVPPRPY-ITPGAPPLPV-IKPGYPPLPW-IDPGAPPLPV,YVPGCPPRPE-YVPGCPPRPE-YVPGCPPRPE-YVPGCPPRPE-YVPGCPPRPE-YVPGCPPRPE-YVPGCPPRPE-YVPGCPPRPE-YVPGCPPRPE-YVPGCPPRPE
46.0,117,127,B,10,AMGTFTRTGRQRVLRALALGAVVYYSGMACCAVEMLNISAKAEFDVLGFSDPKRAEVLLVAGTLTKKMAPGLRKSFLDMPAPKTVIAVGACAVAGGYFKDYTTVKEVESVVPVDVYVPGCPPRPEAILTAILLTKRKLLGELHDSKGAAVPPFNDHKVVAA-GSGMSDDGMQLREAARLADQLWVFTFALACCEVELLNLELGSRFYQRSSGDPRECDVMLVAGTLTRRMAPALKRAWKAMPQPRLVVAVGTCAVWGGMYSSYSSLANVGLVVPVDVYVPGCPPRPESIKDALLALKSQVRREAFDSQGRLVPPFTHGQYVQE-MAGVEDIEQAEEAKVAEAIGLVPFTYGLSCCQIEVQAFSTGAVDLFGVSVSPRQAGVMLVAGTLTNRLAPGLRRVFEDMPDPKIVIAIGTCATQGGTFASYAVTKSVERIVPVDVYVPGCPPRPEAILGAINLARRIIMGDALSKDGVVLPPFRRMNSAKK-MAGALSKKKLEDIKRDIAENLVVYTFPIACCNEEIMAATLENPDIMERYVNPRRASVLMVAGTLTNKMAPALRKLFRQMPDPKIVIAVGTCASVGGVYTQYYSVKNVRDIVPVDVYVPGCPPKPETIIDAISKAAEMVRGKSLDVEGNEQPPFKNVIQNKL-GSGTTSAAETRRYQDLLSQGLVPFCYAMACCAIEMITADFQVFRVGELGMSPRDANVMVIAGTLTRKTAPNLQRMFEQMPLPKLVIAMGTCANSGGPTYGPTINVSVERIVPVDIYVPGCPPRPEALFDALVMVREKVRGTAYDKEGKLLPPFKLKQREEE-NYYDKVDIIEKALFKAIAQNCIPFTVGAGTCSLEMMHVLKQDNALMVQGADPRHADCMIVAGTVTNKMAPIVRRVYEEMPSPKVVVAVGACAVIGGMYCSYASVTSVEDIVPVDVYAPGCPPRPESIMEALALINEQIKGHAFGVDGNLLPPFRDHIKHYK-SLGIDLTDSQMAYLRSISSGLQPYHVALGCCGIELLAFEMLETRFNHVGKDPRVCETMIISGTLPVKVAPLVKRRFDEMPRLKVVVAVGSCACVGGPFNNYATVLNIGNIVPVDIYVPGCPPRPENILTAMTLLERKVLNLAYDKSGNKLPPYINELVKLK-RCGERSTEAQARWLKKVAVGISPLTLGLACCGLEVSELFVKTDVHEYAQKSPRQSDLMVVAGSLTRKMAPGLQRLFREMPPPRHVLAVGACAVYGGYYDDYSVVRNVAEVVPIDIYVPGCPPRPESVIEAVLFLARKIEGLAANAKGEMLPPFKQEEEDGA-SLGLGSKEAKAKLMKLWAEGLVPFTFSAGCCAIELMAADYFTPGINGIIFCPREANVMLVAGTVATKMAPALRKAYDDMPEPKYVIAIGACATTGGFIDNYATVQSVAQVVPVDIYVPGCPPRPEAIFDAIILLQRQVKGELYDENGNLIPPFNAHRRKES-MTTIKTKEERLAFLKKYANNLLPFTFGLACCWIECMAAELDGLEFVDISASPRRAELMVVAGTIRNKMAPGIKKLWQQMSEPKAVMAVGACATFGGIYYNYASVRQISDVVPVDVYCPGCPPRPEAIVQAVVNMQARVLGENTDRYGSTLPPFSRQNDKKA,REGILFTTLEKLVAWGRSNSLWPATFGLACCAIEMMASTDARNDLARFGASPRQADVMIVAGRLSKKMAPVMRRVWEQMPDPKWVISMGACASSGGMFNNYAIVQNVDSVVPVDVYVPGCPPRPEALIYAVMQLQKKVRGQAYNERGERLPPVAAWKRTRG-REGILFTTLEKLVAWGRSNSLWPATFGLACCAIEMMASTDARNDLARFGASPRQADVMIVAGRLSKKMAPVMRRVWEQMPDPKWVISMGACASSGGMFNNYAIVQNVDSVVPVDVYVPGCPPRPEALIYAVMQLQKKVRGQAYNERGERLPPVAAWKRTRG-REGILFTTLEKLVAWGRSNSLWPATFGLACCAIEMMASTDARNDLARFGASPRQADVMIVAGRLSKKMAPVMRRVWEQMPDPKWVISMGACASSGGMFNNYAIVQNVDSVVPVDVYVPGCPPRPEALIYAVMQLQKKVRGQAYNERGERLPPVAAWKRTRG-REGILFTTLEKLVAWGRSNSLWPATFGLACCAIEMMASTDARNDLARFGASPRQADVMIVAGRLSKKMAPVMRRVWEQMPDPKWVISMGACASSGGMFNNYAIVQNVDSVVPVDVYVPGCPPRPEALIYAVMQLQKKVRGQAYNERGERLPPVAAWKRTRG-REGILFTTLEKLVAWGRSNSLWPATFGLACCAIEMMASTDARNDLARFGASPRQADVMIVAGRLSKKMAPVMRRVWEQMPDPKWVISMGACASSGGMFNNYAIVQNVDSVVPVDVYVPGCPPRPEALIYAVMQLQKKVRGQAYNERGERLPPVAAWKRTRG-REGILFTTLEKLVAWGRSNSLWPATFGLACCAIEMMASTDARNDLARFGASPRQADVMIVAGRLSKKMAPVMRRVWEQMPDPKWVISMGACASSGGMFNNYAIVQNVDSVVPVDVYVPGCPPRPEALIYAVMQLQKKVRGQAYNERGERLPPVAAWKRTRG-REGILFTTLEKLVAWGRSNSLWPATFGLACCAIEMMASTDARNDLARFGASPRQADVMIVAGRLSKKMAPVMRRVWEQMPDPKWVISMGACASSGGMFNNYAIVQNVDSVVPVDVYVPGCPPRPEALIYAVMQLQKKVRGQAYNERGERLPPVAAWKRTRG-REGILFTTLEKLVAWGRSNSLWPATFGLACCAIEMMASTDARNDLARFGASPRQADVMIVAGRLSKKMAPVMRRVWEQMPDPKWVISMGACASSGGMFNNYAIVQNVDSVVPVDVYVPGCPPRPEALIYAVMQLQKKVRGQAYNERGERLPPVAAWKRTRG-REGILFTTLEKLVAWGRSNSLWPATFGLACCAIEMMASTDARNDLARFGASPRQADVMIVAGRLSKKMAPVMRRVWEQMPDPKWVISMGACASSGGMFNNYAIVQNVDSVVPVDVYVPGCPPRPEALIYAVMQLQKKVRGQAYNERGERLPPVAAWKRTRG-REGILFTTLEKLVAWGRSNSLWPATFGLACCAIEMMASTDARNDLARFGASPRQADVMIVAGRLSKKMAPVMRRVWEQMPDPKWVISMGACASSGGMFNNYAIVQNVDSVVPVDVYVPGCPPRPEALIYAVMQLQKKVRGQAYNERGERLPPVAAWKRTRG,TLTATTERTF-RLIASLDLEN-YEGADTVRFS-YHGATVMREE-YHAAEPVVFD-SFNAQAYREE-FKGAKFFVNE-IRQGLFTPKD-PRIAHALLQD-WATTSDNYDD,FEMADYEYSD-FEMADYEYSD-FEMADYEYSD-FEMADYEYSD-FEMADYEYSD-FEMADYEYSD-FEMADYEYSD-FEMADYEYSD-FEMADYEYSD-FEMADYEYSD
