contacts,cs,ce,Chain,Length,designed_receptor_seq,native_receptor_seq,designed_binder_seq,native_binder_seq
21.0,155,165,A,10,MSDLVKTLIKVGEALERAGLESVNYPEERMLLEPDVVGLPRILKRPDGLSRCIGCSACAAACPADAIYVEPALNDPEDPVAVSGTWAKKLEVDLDACTFCGACEKACPAGAVVLGYYFEFQDEDPMDRVLTKEELLEEVVGTRPMRRKAEETGEPVKVGYVVPYVRDELSGVVAPVRGGD-SSMEAKLIELIEEIERRLGIKPINYPEEPVRLEPWDVGLPRLLKNPDGLWRCIGCASCAAACPANAIYVKQGINDPEDPVSRSDIWAERLEVNLLACTFCGACERACPAGAIVYGYYFEFRTDDPADAVIDEWDMVEEVYGTRPMRRAAEKNGVPVVPGFVVPYVRPELDGVEVPVDGRP-AAEYAASREAVENVLKESGFKSVEWPEEPVKLPVDVIGKPRILKEPDGLSRCIGCAACAAACPAGCILVEQAVNDPDDPVAVSGIWAKTIEINLNACVFCGRCEKACPSGGVVPGYYFEYDDDDPMDAVYTLEEMTEDVVGTRPMRRAAEETGEPVVVGFVVPYVREELKGVQVPVDGEE-MSVLRLLERLVEEALRRAGPVRVDFPREPAVLEPDVVGLPRILREPDGLSRCVGCGRCARACPAEAIYVEEAINDPEDPVARSYRYARRVEVNLLACILCGSCERACPAGALVPGYYLDYESEDYRELVYTLDEMTEDVYGTVPMRRRADATGEPVEVGFVVPYVREELAGVEAPVDGRA-MEDLKEKLKKILEEAEKEGKPRVNVPEEKLELKPDVVGLPRILKNPDGLSRCIGCADCAAACPATAIYVEPAINDPEDPVAVDDRYAKIVQINLLACVLCGACEKACPAGGIVLGYDFEFVDEDEEARIYGLWEMIEEVDGTRPQRRAARETGEPVERPYVVPYVREELEGVKVPVKGKE-MPHIDRFLKDVKDALKEAGGKKVEVPVEPAVLEPEVIGLPRILRNPDGLYRCIGCSACAAACPAKCILVEPAINDPEDPVAVSDTWAKTLQVNLLACTFCGACEEACPSGAVVFGYYFEFDDDDPDIAIYGLDQMLDTVVGTVPQRREAEATGKPVTVGIKVPYVREELVGVEVPTRGAD-TDILDEIRKRIEEIFDKIGSGTTHVPDVPIELEPDVVGKPRILKEPDGLWRCIGCAACAAACPANAILIEEAINDPEKPVAKSGRYAARVQINMNACMFCGACETACPSGGIVPGYYFEMADDDPKARIYDLDEMTEDVVGTVPQRRAARATGKPVKVGFVVPYVREELKGVTAPVDGKP-GSELFKERLARIEKEIEEGRLEVLVPEVPRVLEPGVIGKPRLLREEDGLWRCIGCAACAAACPARAIFIEEALNDPDDPVASGDRFAKVLEINMLACTFCGACEEACPSGGLVPGYYFEHADEDPEDRIYSKDEMVEEVFGTRPMRRLAEETGEPVEVPYVLPYVRDELEGVEVPVLGED-SGILDKISGAVAGALKKLGRKETNIPETPAVLDVNVVGLPRILKNPDGLERCIGCAACAAACPARCILVEPALNDPENPVAQGDTYAKIIEINLDACILCGACEKACPSGGVVFGYYYEFEDDDPEKRVITKEEMTEDVFGTVPMRKAAEATGEPVEVGFVVPYVRPELKGVKAPIAGRE-MEKTKEVLGKVVELFEELGGVEVDVPEEPMELEPDVIGLPRILKRPDGLWRCIGCAECAIACPAKAILVETGVNDPEDPVATDYLYAKTLQINLDACVFCGSCEEACPAGAVVPGYYFEMEDADPWDRVYTREEMVEEVFGTVPQRRAAEATGRPVKVDIVLPYVREELEGVEVPVKGAE,TLKALAQSLGITLKYLFSKPVTVPYPDAPVALKPRFHGRHVLTRHPNGLEKCIGCSLCAAACPAYAIYVEPAENDPENPVSAGERYAKVYEINMLRCIFCGLCEEACPTGAIVLGYDFEMADYEYSDLVYGKEDMLVDVVGTKPQRREAKRTGKPVKVGYVVPYVRPELEGFKAPTEGGK-TLKALAQSLGITLKYLFSKPVTVPYPDAPVALKPRFHGRHVLTRHPNGLEKCIGCSLCAAACPAYAIYVEPAENDPENPVSAGERYAKVYEINMLRCIFCGLCEEACPTGAIVLGYDFEMADYEYSDLVYGKEDMLVDVVGTKPQRREAKRTGKPVKVGYVVPYVRPELEGFKAPTEGGK-TLKALAQSLGITLKYLFSKPVTVPYPDAPVALKPRFHGRHVLTRHPNGLEKCIGCSLCAAACPAYAIYVEPAENDPENPVSAGERYAKVYEINMLRCIFCGLCEEACPTGAIVLGYDFEMADYEYSDLVYGKEDMLVDVVGTKPQRREAKRTGKPVKVGYVVPYVRPELEGFKAPTEGGK-TLKALAQSLGITLKYLFSKPVTVPYPDAPVALKPRFHGRHVLTRHPNGLEKCIGCSLCAAACPAYAIYVEPAENDPENPVSAGERYAKVYEINMLRCIFCGLCEEACPTGAIVLGYDFEMADYEYSDLVYGKEDMLVDVVGTKPQRREAKRTGKPVKVGYVVPYVRPELEGFKAPTEGGK-TLKALAQSLGITLKYLFSKPVTVPYPDAPVALKPRFHGRHVLTRHPNGLEKCIGCSLCAAACPAYAIYVEPAENDPENPVSAGERYAKVYEINMLRCIFCGLCEEACPTGAIVLGYDFEMADYEYSDLVYGKEDMLVDVVGTKPQRREAKRTGKPVKVGYVVPYVRPELEGFKAPTEGGK-TLKALAQSLGITLKYLFSKPVTVPYPDAPVALKPRFHGRHVLTRHPNGLEKCIGCSLCAAACPAYAIYVEPAENDPENPVSAGERYAKVYEINMLRCIFCGLCEEACPTGAIVLGYDFEMADYEYSDLVYGKEDMLVDVVGTKPQRREAKRTGKPVKVGYVVPYVRPELEGFKAPTEGGK-TLKALAQSLGITLKYLFSKPVTVPYPDAPVALKPRFHGRHVLTRHPNGLEKCIGCSLCAAACPAYAIYVEPAENDPENPVSAGERYAKVYEINMLRCIFCGLCEEACPTGAIVLGYDFEMADYEYSDLVYGKEDMLVDVVGTKPQRREAKRTGKPVKVGYVVPYVRPELEGFKAPTEGGK-TLKALAQSLGITLKYLFSKPVTVPYPDAPVALKPRFHGRHVLTRHPNGLEKCIGCSLCAAACPAYAIYVEPAENDPENPVSAGERYAKVYEINMLRCIFCGLCEEACPTGAIVLGYDFEMADYEYSDLVYGKEDMLVDVVGTKPQRREAKRTGKPVKVGYVVPYVRPELEGFKAPTEGGK-TLKALAQSLGITLKYLFSKPVTVPYPDAPVALKPRFHGRHVLTRHPNGLEKCIGCSLCAAACPAYAIYVEPAENDPENPVSAGERYAKVYEINMLRCIFCGLCEEACPTGAIVLGYDFEMADYEYSDLVYGKEDMLVDVVGTKPQRREAKRTGKPVKVGYVVPYVRPELEGFKAPTEGGK-TLKALAQSLGITLKYLFSKPVTVPYPDAPVALKPRFHGRHVLTRHPNGLEKCIGCSLCAAACPAYAIYVEPAENDPENPVSAGERYAKVYEINMLRCIFCGLCEEACPTGAIVLGYDFEMADYEYSDLVYGKEDMLVDVVGTKPQRREAKRTGKPVKVGYVVPYVRPELEGFKAPTEGGK,PVVFRGGRVL-PVVFRGGRTL-PVEFRGGRRL-PVRFLGGAEL-PVRFRGGRKL-PVVFKGGETL-PVKFKGGLVL-PVYFRGGREL-KVRFTGGREL-VVRFKGGLVL,PTLFREGRYI-PTLFREGRYI-PTLFREGRYI-PTLFREGRYI-PTLFREGRYI-PTLFREGRYI-PTLFREGRYI-PTLFREGRYI-PTLFREGRYI-PTLFREGRYI
10.0,58,68,B,10,MLFEKLKEEALKRGYPIYEDERGNLYVELPREKFKEYMREIREMGFDYLHTITGVDYLERKEPVPSRFEVVYHFENYPYGENGDGSRFAVRVFIPEDEPKLPSLVEEWEAARWQEREVYDMFGIRFEGHPEQVRLFVPEDYEGHPLRKDFPLGLEPVRFEGGRLILPEEAALVLRGTDPGFGERRGGRWAGHFEVV-DRLQELKDLAEQRGYPIHEDGSGYLYVELPLEEYAEFCRWLKEAGYDYLHAITGHDYLDFAEPVPERFEVVYHFEVDPDGEEGDGDRLRVKVFVPEEEPRLPSLYEEWDAAEWQERETYDMFGIVHEGLPGQERILTPEDYEGHPLRKDEPIGLEPVEFEDGVVIWPEEATAVKGPRDPGPGPWRGGREAGYSPDL-MKLEELLKEARKRGYPIREDASGVVWVELPREEFREFCRWVKTLGYTFLHAITGVDYLERPEPVPERYEVVYHFVVDPNGPDGDGDHLFVRVFVPEDEPVLPSLAEEWEAARWHERETYDMFGIRHEGLPEQKRLILPEDWKGHPLRKDYPLGLRPVVFEGGRVIWPEEARVLKGPWDPGPWDERGGREEGWRPVE-MLLEKLLEAAREKGWPIGEREDGIVYVEVPREEFREVMKAVREAGFDYLHAITGVDYLDYVEPVPERFEVVYHVFVDPFGEEGDGSSFLIRVFVPEEEPRLPTLAEEWEAAKWQERETYDMFGIVHEGLPEQRRMMVWEDFEGHPLRKDFPPGREPVEFEGGRVVEPREACIHVGARGRGYLEERGGEERGYRPEE-MLLEELLEYARKRGYPIEERGDGVRYLTLPREDFEKICTELFKMGFTYLHAITGIDYLDYYKPVPERFEVVYHFEKDPFGEGGDGDRFRVRVFVPLEEPRLPSLYKEWEAARWQEREVYDMFGIRFEGLPEQKRLVTPEDYEGHPWRKDVPIGVHPVVFEGGKIIVPEEACVHIGPRDPGFSEERGGRWAGFRFEP-SLLKQLIDYAKTHGYPINEDDSGKLWVELPRDEFEQVNRWLKELGYDYLSAITGIDYLNLAQPVPERYELVYHYRVNPYGPNGDGSSLSIRVFVPKDDPRLPSLADLWKAAEWHEREAYDLFGIRFEGLPEQKRILMWDDYEGHPLRKDFPKGVKPVVFEGGKVIYPELARYVGREDDPGPLEYRGGRFEGFKIVR-ALLDELLERARERGYPIGENDKGTVFVELPREEFAEEMKWVREAGFDFLHAITGVDYLERVEPVPERFDLVYHLLKDPEGEEGDGSRFRVRVYVPEEEPELPSLSEEWEAANWHEREAYDMFGIRFRGHPEQRRLFLPEDYEGHPLRKDVPFGEKPVEFEGGRVVRPEEARVVLGPTDPGYLERRGGRWEGYREEE-MLLSRLLEKAEAEGWPISTDDFGQTFVELPREKFAEETAWLREAGFDYLHSITGIDYLHYRTEVPERFEVVYHFERIPWGEGGDGDRFSVKVYVPEEDPRLPSLYEQWEAARWHEREVYDMFGIRFEGHPDQRRMLLPEDYEGHPWRKDEPIGLEPVVFEGGRIIIPELARWGLGPEDPGPWEERGGKWRGFKPDF-MNLEALLAYARERGYPLTEREDGVLFVTLPREEFAEITREIERRGYDYLHAVTGVDFLERAEPVPERFEVVYHFLVLPWGEEGDGTRFRVKVFVPEEEPRLPSLADLWEAARWQEREVYDMFGIRFEGHPEQRRLLMPEDWEGHPYRKDVPLGLRPVEFEGGRVIWPEEARYVQGPWDRGPWDRRGGRWEGFEEVV-SNLEKLLQLAEERGWPIAEDRRGRRWVELPREEFREFCEWVRELGFDLLHAITGVDYLERAAPVPERFEVVYHFEVDPEREGGDGSRLRVKVFVPREGPELPSLADLWDAAIWHERETYDMFGIRFRGHPEQKRLLAWEDYEGHPLRKDFPPGLRPVEFEGGRIILPERARFAIGPRDPGPGPERGGRWAGWRPVP,MRLERVLEEARAKGYPIEDNGLGNLWVVLPRERFKEEMAHYKAMGFNFLADIVGLDYLTYPDPRPERFAVVYELVSLPGWKDGDGSRFFVRVYVPEEDPRLPTVTDLWGSANFLEREVYDLFGIVFEGHPDLRKILTPEDLEGHPLRKDYPLGETPTLFREGRYIIPAEFRAALTGKDPGLTFYKGGSRKGYRSLW-MRLERVLEEARAKGYPIEDNGLGNLWVVLPRERFKEEMAHYKAMGFNFLADIVGLDYLTYPDPRPERFAVVYELVSLPGWKDGDGSRFFVRVYVPEEDPRLPTVTDLWGSANFLEREVYDLFGIVFEGHPDLRKILTPEDLEGHPLRKDYPLGETPTLFREGRYIIPAEFRAALTGKDPGLTFYKGGSRKGYRSLW-MRLERVLEEARAKGYPIEDNGLGNLWVVLPRERFKEEMAHYKAMGFNFLADIVGLDYLTYPDPRPERFAVVYELVSLPGWKDGDGSRFFVRVYVPEEDPRLPTVTDLWGSANFLEREVYDLFGIVFEGHPDLRKILTPEDLEGHPLRKDYPLGETPTLFREGRYIIPAEFRAALTGKDPGLTFYKGGSRKGYRSLW-MRLERVLEEARAKGYPIEDNGLGNLWVVLPRERFKEEMAHYKAMGFNFLADIVGLDYLTYPDPRPERFAVVYELVSLPGWKDGDGSRFFVRVYVPEEDPRLPTVTDLWGSANFLEREVYDLFGIVFEGHPDLRKILTPEDLEGHPLRKDYPLGETPTLFREGRYIIPAEFRAALTGKDPGLTFYKGGSRKGYRSLW-MRLERVLEEARAKGYPIEDNGLGNLWVVLPRERFKEEMAHYKAMGFNFLADIVGLDYLTYPDPRPERFAVVYELVSLPGWKDGDGSRFFVRVYVPEEDPRLPTVTDLWGSANFLEREVYDLFGIVFEGHPDLRKILTPEDLEGHPLRKDYPLGETPTLFREGRYIIPAEFRAALTGKDPGLTFYKGGSRKGYRSLW-MRLERVLEEARAKGYPIEDNGLGNLWVVLPRERFKEEMAHYKAMGFNFLADIVGLDYLTYPDPRPERFAVVYELVSLPGWKDGDGSRFFVRVYVPEEDPRLPTVTDLWGSANFLEREVYDLFGIVFEGHPDLRKILTPEDLEGHPLRKDYPLGETPTLFREGRYIIPAEFRAALTGKDPGLTFYKGGSRKGYRSLW-MRLERVLEEARAKGYPIEDNGLGNLWVVLPRERFKEEMAHYKAMGFNFLADIVGLDYLTYPDPRPERFAVVYELVSLPGWKDGDGSRFFVRVYVPEEDPRLPTVTDLWGSANFLEREVYDLFGIVFEGHPDLRKILTPEDLEGHPLRKDYPLGETPTLFREGRYIIPAEFRAALTGKDPGLTFYKGGSRKGYRSLW-MRLERVLEEARAKGYPIEDNGLGNLWVVLPRERFKEEMAHYKAMGFNFLADIVGLDYLTYPDPRPERFAVVYELVSLPGWKDGDGSRFFVRVYVPEEDPRLPTVTDLWGSANFLEREVYDLFGIVFEGHPDLRKILTPEDLEGHPLRKDYPLGETPTLFREGRYIIPAEFRAALTGKDPGLTFYKGGSRKGYRSLW-MRLERVLEEARAKGYPIEDNGLGNLWVVLPRERFKEEMAHYKAMGFNFLADIVGLDYLTYPDPRPERFAVVYELVSLPGWKDGDGSRFFVRVYVPEEDPRLPTVTDLWGSANFLEREVYDLFGIVFEGHPDLRKILTPEDLEGHPLRKDYPLGETPTLFREGRYIIPAEFRAALTGKDPGLTFYKGGSRKGYRSLW-MRLERVLEEARAKGYPIEDNGLGNLWVVLPRERFKEEMAHYKAMGFNFLADIVGLDYLTYPDPRPERFAVVYELVSLPGWKDGDGSRFFVRVYVPEEDPRLPTVTDLWGSANFLEREVYDLFGIVFEGHPDLRKILTPEDLEGHPLRKDYPLGETPTLFREGRYIIPAEFRAALTGKDPGLTFYKGGSRKGYRSLW,PEECPEYACP-PAECPEFAHP-PWEDPWWRHP-PVEDPEWRRP-PEECPAFACP-IYCCPTFACP-PEEDPEYRYP-PRLCPHFAIP-PWDCPHCVEP-REECPEFARP,AAACPAYAIY-AAACPAYAIY-AAACPAYAIY-AAACPAYAIY-AAACPAYAIY-AAACPAYAIY-AAACPAYAIY-AAACPAYAIY-AAACPAYAIY-AAACPAYAIY
