contacts,cs,ce,Chain,Length,designed_receptor_seq,native_receptor_seq,designed_binder_seq,native_binder_seq
19.0,33,43,A,10,AEEAAAERLAELERLLEEGRVEVRVPEEPLLLEPEVVGKPRLLRKPDGLWRCIGCAACAAACPADAITVEPALNDPEDPVAVTDRYAAVVEVDLEACVFCGACEEACPAGALVPGYYFEEEDEDPEERVYTLEEMLEEVVGTRPQRRAAEETGEPVEVPFVVPYVREELRGVEAPVEGAE-MEELKKILEEIKKELEEKGVKVVKYPEEPVKLEPDVIGRPVILKKPDGLSRCIGCAACAAACPAKAITVEPALNDPEKPVAVTDTYAKKIEIDLDKCIFCGACEKACPAGALVPGYYFEEEDEDPEKRIYKLEDMLEEVVGTRPMREAAKKTGKPVKVGYVVPYVREELKGVKVPVEGKE-AEEFAKELKEILDKLKEEGKVEVKYPEEPVKLEPDVIGRPVLLKKPDGLWRCIGCAACAAACPANAITVEQAENDPENPVAVTDTYAKKLTIDLDKCIFCGACEKACPAGALVPGYYFEEEDEDPEERVYTKEEMLEEVVGTRPQRRAAEETGEPVEVGYVVPYVRDELKGVEVPVEGKE-AAELAAEREALLEKLREAGLPVVRYPEEPVRLEPEVVGKPVLLRKPDGLWRCIGCAACAAACPAGAITVEPALNDPEDPVAATDTYARVVRIDLLACVFCGACERACPAGALVPGYCFEFEDEDPEERVYTLEEMLEEVVGTRPQRRAAEATGEPVEVGYVVPYVRPELRGVEAPVEGAE-MEELKKILEEIKKELEEKGVKVVEYPKEPVKLEPDVVGRPVLLKKPNGLWRCIGCAACAAACPANAITVEPALNDPENPVAVTDTYAKKIEIDLDKCIFCGACEKACPAGALVPGYYFEEETEDPEEAVYTLEEMLEEVVGTRPQRRAAEETGKPVKVGYVVPYVREELKGVEVPVEGKE-AGVLAAVLGAVLLVLLLLGPRRVRVPEEPRVLEPDVVGRPVLLRKPDGLWRCIGCAACAAACPAEAITVEPALNDPEDPVACTDRYAAVVEIDLDACVFCGACEEACPAGALVPGYWFEEETEDREEAVYTLEEMLEEVVGTRPQRRAAEETGEPVEVGFVVPYVREELRGVEAPVEGAE-MSELEKIRKEILEKLKEAGVKVVDYPKEPVKLEPDVVGRPVLLKKPNGLSRCIGCAACAAACPANAITVVPAVNDPENPVAVTDTYAKVVEIDLDKCIFCGACEKACPAGALVPGYYFEEEDEDPEERVYKLEDMLEEVVGTRPQRRAAEATGKPVKVGYVVPYVREELKGVKVPVEGKE-MEELKKILKEIKEKIEKEGKKVVEYPKEPVKLEPDVIGRPVLLKKPDGLSRCIGCAACAAACPANAITVVEAENDPENPVAVTDTYAKELKIDLEKCIFCGACEKACPAGALVPGYYFEMEDEDPEKRVYTKEEMLEEVVGTRPMREAAKKTGKPVKVGFVVPYVREELKGVKVPVEGKE-AAAAAAVAAAVAAVLLLRGPRRVDVPAEPAVLEPDVVGRPVLLRKPDGLSRCIGCAACAAACPAQAITVEPALNDPEDPVAATDTYAAVVEVDLDACVFCGACERACPAGALVPGYCDEGEDADPEDRVLTLDEMTEDVVGTRPQRRAAEADGEPVEVGFVVPYVRDELAGVEAPVAGAD-AAEAAAEREAVLEALREAGVPVVRYPEEPLVLEPEVVGKPVLLRKPDGLWRCIGCAACAAACPAGAITVEPALNDPEDPVAATDTYAAVVRIDLDACVFCGACEEACPAGALVPGYCFEYEDEDPEERVYGLEDMVEEVVGTRPQRRAAEATGEPVEVPFVVPYVREELRGVEVPVEGAE,TLKALAQSLGITLKYLFSKPVTVPYPDAPVALKPRFHGRHVLTRHPNGLEKCIGCSLCAAACPAYAIYVEPAENDPENPVSAGERYAKVYEINMLRCIFCGLCEEACPTGAIVLGYDFEMADYEYSDLVYGKEDMLVDVVGTKPQRREAKRTGKPVKVGYVVPYVRPELEGFKAPTEGGK-TLKALAQSLGITLKYLFSKPVTVPYPDAPVALKPRFHGRHVLTRHPNGLEKCIGCSLCAAACPAYAIYVEPAENDPENPVSAGERYAKVYEINMLRCIFCGLCEEACPTGAIVLGYDFEMADYEYSDLVYGKEDMLVDVVGTKPQRREAKRTGKPVKVGYVVPYVRPELEGFKAPTEGGK-TLKALAQSLGITLKYLFSKPVTVPYPDAPVALKPRFHGRHVLTRHPNGLEKCIGCSLCAAACPAYAIYVEPAENDPENPVSAGERYAKVYEINMLRCIFCGLCEEACPTGAIVLGYDFEMADYEYSDLVYGKEDMLVDVVGTKPQRREAKRTGKPVKVGYVVPYVRPELEGFKAPTEGGK-TLKALAQSLGITLKYLFSKPVTVPYPDAPVALKPRFHGRHVLTRHPNGLEKCIGCSLCAAACPAYAIYVEPAENDPENPVSAGERYAKVYEINMLRCIFCGLCEEACPTGAIVLGYDFEMADYEYSDLVYGKEDMLVDVVGTKPQRREAKRTGKPVKVGYVVPYVRPELEGFKAPTEGGK-TLKALAQSLGITLKYLFSKPVTVPYPDAPVALKPRFHGRHVLTRHPNGLEKCIGCSLCAAACPAYAIYVEPAENDPENPVSAGERYAKVYEINMLRCIFCGLCEEACPTGAIVLGYDFEMADYEYSDLVYGKEDMLVDVVGTKPQRREAKRTGKPVKVGYVVPYVRPELEGFKAPTEGGK-TLKALAQSLGITLKYLFSKPVTVPYPDAPVALKPRFHGRHVLTRHPNGLEKCIGCSLCAAACPAYAIYVEPAENDPENPVSAGERYAKVYEINMLRCIFCGLCEEACPTGAIVLGYDFEMADYEYSDLVYGKEDMLVDVVGTKPQRREAKRTGKPVKVGYVVPYVRPELEGFKAPTEGGK-TLKALAQSLGITLKYLFSKPVTVPYPDAPVALKPRFHGRHVLTRHPNGLEKCIGCSLCAAACPAYAIYVEPAENDPENPVSAGERYAKVYEINMLRCIFCGLCEEACPTGAIVLGYDFEMADYEYSDLVYGKEDMLVDVVGTKPQRREAKRTGKPVKVGYVVPYVRPELEGFKAPTEGGK-TLKALAQSLGITLKYLFSKPVTVPYPDAPVALKPRFHGRHVLTRHPNGLEKCIGCSLCAAACPAYAIYVEPAENDPENPVSAGERYAKVYEINMLRCIFCGLCEEACPTGAIVLGYDFEMADYEYSDLVYGKEDMLVDVVGTKPQRREAKRTGKPVKVGYVVPYVRPELEGFKAPTEGGK-TLKALAQSLGITLKYLFSKPVTVPYPDAPVALKPRFHGRHVLTRHPNGLEKCIGCSLCAAACPAYAIYVEPAENDPENPVSAGERYAKVYEINMLRCIFCGLCEEACPTGAIVLGYDFEMADYEYSDLVYGKEDMLVDVVGTKPQRREAKRTGKPVKVGYVVPYVRPELEGFKAPTEGGK-TLKALAQSLGITLKYLFSKPVTVPYPDAPVALKPRFHGRHVLTRHPNGLEKCIGCSLCAAACPAYAIYVEPAENDPENPVSAGERYAKVYEINMLRCIFCGLCEEACPTGAIVLGYDFEMADYEYSDLVYGKEDMLVDVVGTKPQRREAKRTGKPVKVGYVVPYVRPELEGFKAPTEGGK,EEEEEAFGRP-VPEEKAFAKP-EEEEEAYGKP-EEEEEAFGKP-EEEEEAFKKP-EEEECCYGRP-VPEEEAYKKP-VPEEKAYGKP-APEEVAFARA-EEEEEAFGRP,DFPDFIYRME-DFPDFIYRME-DFPDFIYRME-DFPDFIYRME-DFPDFIYRME-DFPDFIYRME-DFPDFIYRME-DFPDFIYRME-DFPDFIYRME-DFPDFIYRME
9.0,43,53,B,10,SNAEETLYREWLRVLGWLEEFARERGVRFEREREFAEFRFAGGRPFGLPLRLGDAALLDAEGRPFFRAFVSPPDAPRKRIGLRLPRERFHLTLDYRPGEGLVAGERPLTREWLFRLMEEALRRLARG-SNAEEVLYEEWKRVLGWLEEFARERGVRFEREREFKEFRYGGGRPYGLPLRLGYASLRDAEGRPFFRAGVSEPDEPRKRIYFHLPREDFNLRLDYRPGEGLVAGERPVTREWLFELMERALREIARG-SNAEDELYRAWEQVLGWLREFAEREGVRFEEDERFAEFLFAGGRPFGLPNRLAFASLRDAEGRPFFRAYVSRPSEPRKRIGFYLPREKFRLSLDYRPGEGLVAGERPVTREWLFELMRRALEEVARG-SNAMDELYRQWEQVLGWLREFAEAEGVRFEEDERFAEFLFAGGRPFDLPNRLRFASLRDAEGRPFFRAYVSEPDEPRPRIGFYLPREKARFTLDYRPGEGLVIGERPFTRERLFELMREALERIARG-SNAEETLYREWQRVLGWLREFAEERGVRFEEEERFAEYLFAGGRPYGLPLRLRRAALLDAEGRPFFRAEVSEPDEPRKRIGLYLPRERFRLWLDYRPGEGLVAGERPLTREWLFELMERALREVARG-SNAEEELYRQWLEVLGWLEEFARERGVRFEREREFKEFLYAGGKPFDLPNRLAFASLRDAEGRPFFRAYVSPPDAPRKRIGFYLPHEDFRLTLDYRPGEGLVAGERPVTREWLFELMERALREIARG-SNAENELYRQWQQVLDWLQEFAEAEGVRFEVDRRFKEFLYAGGKPFTLPNRVGDASLRDAEGRPFFRAYVSEPTAPRKRIGFYLPREDFRLTLDYRPGEGLVAGERPVTREWLFELMREALERIARG-SNAEGELYRQWQQVLGWLREFAEAEGVRFEEEERFAEYLFAGGRPYGLPNRLRRASLRDAEGRPFFVAEVSPPDAPRKRIGFYLPHERFRLSLDYRPGEGLVAGERPVTREWLFELMRRALEEVARG-SNAMETLYQEWLRVLGWLEEFARERGVRFEREREFKEFRYAGGRPFDLPNRLAFASLRDAEGRPFFRAYVSEPDAPRKRIGFYLPREKFRLTLDYRPGEGLVAGERPVTREWLFELMERALRELARG-SNAEEVLYEEWKRVLGWLEEFAEERGVRFEVEEEFAEYRFAGGRPFDLPLRVRRASLRDAEGRPFFVAEVSPPDAPRKRIGFYLPREDFRLTLDYRPGEGLVAGEEPVTREWLFELMERALEEIARG,ASSERELYEAWVELLSWMREYAQAKGVRFEKEADFPDFIYRMERPYDLPTTIMTASLSDGLGEPFLLADVSPRHAKLKRIGLRLPRAHIHLHAHYEPGKGLVTGKIPLTKERFFALADRAREALAFA-ASSERELYEAWVELLSWMREYAQAKGVRFEKEADFPDFIYRMERPYDLPTTIMTASLSDGLGEPFLLADVSPRHAKLKRIGLRLPRAHIHLHAHYEPGKGLVTGKIPLTKERFFALADRAREALAFA-ASSERELYEAWVELLSWMREYAQAKGVRFEKEADFPDFIYRMERPYDLPTTIMTASLSDGLGEPFLLADVSPRHAKLKRIGLRLPRAHIHLHAHYEPGKGLVTGKIPLTKERFFALADRAREALAFA-ASSERELYEAWVELLSWMREYAQAKGVRFEKEADFPDFIYRMERPYDLPTTIMTASLSDGLGEPFLLADVSPRHAKLKRIGLRLPRAHIHLHAHYEPGKGLVTGKIPLTKERFFALADRAREALAFA-ASSERELYEAWVELLSWMREYAQAKGVRFEKEADFPDFIYRMERPYDLPTTIMTASLSDGLGEPFLLADVSPRHAKLKRIGLRLPRAHIHLHAHYEPGKGLVTGKIPLTKERFFALADRAREALAFA-ASSERELYEAWVELLSWMREYAQAKGVRFEKEADFPDFIYRMERPYDLPTTIMTASLSDGLGEPFLLADVSPRHAKLKRIGLRLPRAHIHLHAHYEPGKGLVTGKIPLTKERFFALADRAREALAFA-ASSERELYEAWVELLSWMREYAQAKGVRFEKEADFPDFIYRMERPYDLPTTIMTASLSDGLGEPFLLADVSPRHAKLKRIGLRLPRAHIHLHAHYEPGKGLVTGKIPLTKERFFALADRAREALAFA-ASSERELYEAWVELLSWMREYAQAKGVRFEKEADFPDFIYRMERPYDLPTTIMTASLSDGLGEPFLLADVSPRHAKLKRIGLRLPRAHIHLHAHYEPGKGLVTGKIPLTKERFFALADRAREALAFA-ASSERELYEAWVELLSWMREYAQAKGVRFEKEADFPDFIYRMERPYDLPTTIMTASLSDGLGEPFLLADVSPRHAKLKRIGLRLPRAHIHLHAHYEPGKGLVTGKIPLTKERFFALADRAREALAFA-ASSERELYEAWVELLSWMREYAQAKGVRFEKEADFPDFIYRMERPYDLPTTIMTASLSDGLGEPFLLADVSPRHAKLKRIGLRLPRAHIHLHAHYEPGKGLVTGKIPLTKERFFALADRAREALAFA,RKPDGSPLEG-RKPDGSPVRG-RKPDGSPVLG-RKPDGSPVLG-RKPDGTPVEG-RKPDGTPVRG-RKPDGSPIRG-RKPDGSPVEG-RKPDGTPVRG-EKPDGTPKEG,RHPNGLEKCI-RHPNGLEKCI-RHPNGLEKCI-RHPNGLEKCI-RHPNGLEKCI-RHPNGLEKCI-RHPNGLEKCI-RHPNGLEKCI-RHPNGLEKCI-RHPNGLEKCI
