contacts,cs,ce,Chain,Length,designed_receptor_seq,native_receptor_seq,designed_binder_seq,native_binder_seq
18.0,12,22,A,10,MKRIGISGFLGSGKTTLVEKLTQRLSKDHEMAIITNDVFTEIDAERLCEGADLPEDRVIPVETGGCPHRAINDDPAKVLEAVEEMKGRFPDLELLLIESGGDNLSATFSPEVADYTIFVMDVATGDDVPRKGGPGITAADLVLVNKIDLAPYVGADLDRIERDLREMRGDKPFILTSLKEDRGLEEVEAWIRETAG-MKRIGISGFLGSGKTTLVEKLTQRLSKDHEMAIITNDVFTEIDAERLCEGADLPEDRVIPVETGGCPHRAINDDPALVLEAVEEMKGRFPDLELLLIESGGDNLAATFNPEVADYTIFVMDVATGDDVPRKGGPGITAADLVLVNKIDLAPYVGADLDRIERDLREMRGDKPFILTSLKEDRGLDEVEAWIRETAG-MKRIGISGFLGSGKTTLVEKLTQRLSAEHEMAIITNDVFTEIDAEMLCEGADLPEDRVIPVETGGLPHIAISEDPAKVLEAVEEMKGRFPDLELLLIESGGDNLSATFSPEVADYTIFVIDVATGDDVPRKGGPGITESDLLLVNKIDLAPYVGADLDRIEEEMREMRGDKPFILTSLREDRGLEEVEAWIRETAG-MKKIGISGFLGSGKTTLVEKLTQRLSKDHEMAIITNDVFTEIDAEMLCEGADLPEDRVIPVETGGCPHRAINDDPAKVLEAVEEMKGRFPDLELLLIESGGDNLSATFSPEVADYTIFVMDVATGDDVPRKGGPGITAADLVLVNKIDLAPFVGADLDKIERDLREMRGDKPFILTSLKEDRGLDEVIAWIEKEAG-MKKIGISGFLGSGKTTLVEKLTRRLSKDHEMAIITNDVFTEIDAERLCEGAELPEDRVIPVETGGCPHRAISDDPAKVLEAVEEMKGRFPDLELLLIESGGDNLAATFSPEVADYTIFVMDVATGDDVPRKGGPGITAADLVLVNKIDLAPYVGADLEKIERDLKEMRGDKPFILTSLREDRGLDEVVAWIEKEAG-MKRIGISGFLGSGKTTLVEKLTQRLSKDHEMAIITNDVYTEIDAEMLCEGADLPEDRVIPVETGGCPHRAISDDPAKVLEAVEEMKGRFPDLELLLIESGGDNLSATFSPEVADYTIFVMDVATGDDVPRKGGPGITASDLVLVNKIDLAPFVGADLDKIERDLREMRGDKPFILTSLKEDRGLDEVEAWIKEKAG-MKRIGISGFLGSGKTTLVEKLTQRLSAEHEMAIITNDVYTEIDAEMLCEGADLPEDRVIPVETGGCPHRAINDDPARVLEAVEEMKGRFPDLELLLIESGGDNLAATFSPEVADYTIFVMDVATGDDVPRKGGPGITAADLVLVNKIDLAPYVGADLDRIEEELREMRGDKPFILTSLREDRGLEEVEAWIREVAG-MKRIGISGFLGSGKTTLVEKLTQRLSKDHEMAIITNDVFEINAEEQLCENADLPEDRVIAVETGGLPHIAISDDPAKVLEAVEEMKGRFPDLELLLIESGGDNLAATFNPEVADYTIFVIDVATGDDVPRKGGPGITAADLLLVNKIDLAPYVGADLDKIEEDMRKMRGDKPFILTSLKEDRGLDEVVAWIEKEAG-MKRIGISGPAGSGKTTLVEKLTRRLSKEHEMAIITNDVYTEIDAELLCIGADLPEDRVIPVETGGCPHRAISDDPAKVLEAVEEMKGRFPDLELLLIESGGDNLSATFNPEVADYTIFVMDVATGDDVPRKGGPGITAADLVLVNKIDLAPYVGADLDKIERDLREMRGDKPFILTSLKEDRGLDEVIAWIKEKAG-MKRIGISGPLGSGKTTLVEKLTRRLSKDHEMAIITNDVYTEIDAELLCEGADLPEDRVIPVETGGCPHRAISDDPAKVLEAVEEMKGRFPDLELLLIESGGDNLSATFSPEVADYTIFVMDVATGDDVPRKGGPGITASDLVLVNKIDLAPYVGADLEKIERDLREMRGDKPFILTSLKEDRGLDEVVEWIKKEAG,MVKIGVCGPVGSGKTALIEALTRHMSKDYDMAVITNDIYTKEDAEFMCKNSVMPRERIIGVETGGCPHTAIREDASMNLEAVEEMHGRFPNLELLLIESGGDNLSATFNPELADFTIFVIDVAEGDKIPRKGGPGITRSDLLVINKIDLAPYVGADLKVMERDSKKMRGEKPFIFTNIRAKEGLDDVIAWIKRNAL-MVKIGVCGPVGSGKTALIEALTRHMSKDYDMAVITNDIYTKEDAEFMCKNSVMPRERIIGVETGGCPHTAIREDASMNLEAVEEMHGRFPNLELLLIESGGDNLSATFNPELADFTIFVIDVAEGDKIPRKGGPGITRSDLLVINKIDLAPYVGADLKVMERDSKKMRGEKPFIFTNIRAKEGLDDVIAWIKRNAL-MVKIGVCGPVGSGKTALIEALTRHMSKDYDMAVITNDIYTKEDAEFMCKNSVMPRERIIGVETGGCPHTAIREDASMNLEAVEEMHGRFPNLELLLIESGGDNLSATFNPELADFTIFVIDVAEGDKIPRKGGPGITRSDLLVINKIDLAPYVGADLKVMERDSKKMRGEKPFIFTNIRAKEGLDDVIAWIKRNAL-MVKIGVCGPVGSGKTALIEALTRHMSKDYDMAVITNDIYTKEDAEFMCKNSVMPRERIIGVETGGCPHTAIREDASMNLEAVEEMHGRFPNLELLLIESGGDNLSATFNPELADFTIFVIDVAEGDKIPRKGGPGITRSDLLVINKIDLAPYVGADLKVMERDSKKMRGEKPFIFTNIRAKEGLDDVIAWIKRNAL-MVKIGVCGPVGSGKTALIEALTRHMSKDYDMAVITNDIYTKEDAEFMCKNSVMPRERIIGVETGGCPHTAIREDASMNLEAVEEMHGRFPNLELLLIESGGDNLSATFNPELADFTIFVIDVAEGDKIPRKGGPGITRSDLLVINKIDLAPYVGADLKVMERDSKKMRGEKPFIFTNIRAKEGLDDVIAWIKRNAL-MVKIGVCGPVGSGKTALIEALTRHMSKDYDMAVITNDIYTKEDAEFMCKNSVMPRERIIGVETGGCPHTAIREDASMNLEAVEEMHGRFPNLELLLIESGGDNLSATFNPELADFTIFVIDVAEGDKIPRKGGPGITRSDLLVINKIDLAPYVGADLKVMERDSKKMRGEKPFIFTNIRAKEGLDDVIAWIKRNAL-MVKIGVCGPVGSGKTALIEALTRHMSKDYDMAVITNDIYTKEDAEFMCKNSVMPRERIIGVETGGCPHTAIREDASMNLEAVEEMHGRFPNLELLLIESGGDNLSATFNPELADFTIFVIDVAEGDKIPRKGGPGITRSDLLVINKIDLAPYVGADLKVMERDSKKMRGEKPFIFTNIRAKEGLDDVIAWIKRNAL-MVKIGVCGPVGSGKTALIEALTRHMSKDYDMAVITNDIYTKEDAEFMCKNSVMPRERIIGVETGGCPHTAIREDASMNLEAVEEMHGRFPNLELLLIESGGDNLSATFNPELADFTIFVIDVAEGDKIPRKGGPGITRSDLLVINKIDLAPYVGADLKVMERDSKKMRGEKPFIFTNIRAKEGLDDVIAWIKRNAL-MVKIGVCGPVGSGKTALIEALTRHMSKDYDMAVITNDIYTKEDAEFMCKNSVMPRERIIGVETGGCPHTAIREDASMNLEAVEEMHGRFPNLELLLIESGGDNLSATFNPELADFTIFVIDVAEGDKIPRKGGPGITRSDLLVINKIDLAPYVGADLKVMERDSKKMRGEKPFIFTNIRAKEGLDDVIAWIKRNAL-MVKIGVCGPVGSGKTALIEALTRHMSKDYDMAVITNDIYTKEDAEFMCKNSVMPRERIIGVETGGCPHTAIREDASMNLEAVEEMHGRFPNLELLLIESGGDNLSATFNPELADFTIFVIDVAEGDKIPRKGGPGITRSDLLVINKIDLAPYVGADLKVMERDSKKMRGEKPFIFTNIRAKEGLDDVIAWIKRNAL,EPEEPDGEYA-DPFFPDGEYA-EEEEPDGEYA-DPFFPDGEYA-EEEEPEGWYA-EEEEPDGEYA-EEEEPEGWYA-EEEEPDGEYA-EEEEPDGEYA-EEEEPEGWYA,DAVFPIGSYT-DAVFPIGSYT-DAVFPIGSYT-DAVFPIGSYT-DAVFPIGSYT-DAVFPIGSYT-DAVFPIGSYT-DAVFPIGSYT-DAVFPIGSYT-DAVFPIGSYT
21.0,70,80,B,10,GMNNEELIKYVNDPKFPIGMHEFTFGLETFIVEKKVTDEESMLGFLKDFLNTVVLYKSLLSLKLTYEAAKKEDLEEILKVEEIIYKSTKPLSLRLAGYLLGKNFIKELLSRKDIDLGEFFNKYAKEVKYPTLNTSYGVFTASLGIELKKALEYFLKRITENIVENGVKLVPLEKESGERILKKLEEPFEKLIEKTLELDESYLMKKSNEIYEMAEKHLGLKEKKTLS-MLNNEELIKYVNDPKFPIGMKEFTFGLETFIVEKKVTDKESMLGFLKNFLNTIHLYKSLLSLKLTYEAALKGDLEKILEVEEKIYKNTKPLLLRLANYLLGKNFIKELLSRKDIDLGEFFNKYAKEVKYPTHSTAYGVFTASLGIELKKALEYFLKRITVNLVKNGVKLVPLKEEEGEEILKELEEPFEKLIEKTLELDESYLCKKSFEFYLMAIKHLFLKEKKTLS-MLNNEELIKYVNDPKFPIGMHEYTFGLETFIKEKLVTDKESMLGFLKDFLNTVHLYKSLLSLKLTYEAALKGDLEKILEVEKIIYESTKPKSLREAFYLLGKNFIKELLSRKDLDLGEFFNKYAKEVKYPTHSTAYGVFTASLGIELKKALEYFLKRITVNIVENGVKLVPLEKEEGEEILKELEEPFEKLIEKTLELDESYLCKKSNIFDIMAELHEGLKEKKTLS-MLDNNEFIKYVNDPSFPIGMKDFTFGLETFIVEKKVTDKESMLGFLKDFLSTVVLYKSLLSLKLTYEAALKGDLEEILKVEEIIYKSTKPLSLRLAGYLLGKNFIKELLSRKDIDLGEFFNKYAKEVKYPTLFTSYGVFTASLGIELKKALEYFLKRITVNLVKNGVKLVPLEEEEGEEILKELEEPFEKLIEKTLELDESYLCKKSFEIDIMAILHEGLKEKKTLS-MLNNEELIKYVNDPKFPIGMHEYTFGLETFIVEKKVTDKESMLGFLKDFLNTVVLYKSLLSLKLTYEAALKGDLEKILEIEKIIYESTKPKSLREAGYLLGKNFIKELLSRKDIDLGEFFNKYAKEVKYPTHDTAYGVFTASLGIELKKALEYFLKRITVNLVENGVKLVPLEKEEGEEILKELEEPFEKLIEKTLELDESYLCKKSGEIEEMAEKHENLKVKKKKS-MLNNEEFIKYVNDPKFPIGLKEYTFGLETFIVEKKVTDEESMLGFLKDFLNTVVLYKSLLSLKLTYEAALKGDLEEILKVEEIIYKSTKPLSLRLAGYLLGKNFIKELLSRKDIDLGEFFNKYAEKVKYPTLFTSYGVFTASLGIELKKALEYFLKRITENIVENGVKLVPLKKEEGERILKKLEEPFEKLIEKTLELDESYLCKKSFEFDVYAELHEFLKEKKTLS-SLNNEELIKYVNDPKFPIGMKEYTFGLETFIVEKKVTDKESMLGFLKDFLNTIHLYKSLLSLKLTYEAALKEDLEKILEIEEKIYKNTKPKLLREAFYLLGKNFIKELLSRKDIDLGEFFNKYAKEVKYPTHDTSYGVFTASLGIELKKALEYFLKRITVNLVENGVKLVPLEKEEGEEILKELEEPFEKLIEKTLELDESYLCKKSGEFYEMAEKSENLKEKKYKS-MLNNEELIKYVNDPKFPIGLHEFTFGLETYIVEKKVVDEESMLGFLKDFLNTVHLYKSLLSLKLTYEAAKKGDLEEILKIEEIIYKSTKPKSLREAFYLLGKNFIKELLSRKDIDLGEFFNKYAKEVKYPTHSTAYGVFTASLGIELKKALEYFLKRITENIVENGVKLVPLKKEEGERILKKLEEPFEKLIEKTLELDESYLCKKSGEFYEMAEKHENLKEKKYLS-MLNNEEFIKYVNDPKFPIGMEEYTFGLETFIVEKKVTDKESMLGFLKDFLNTIHLYKSLLSLKLTYEAALKGDLEEILKVEEIIYKSTKPKSLREAFYLLGKNFIKELLSRKDIDLGEFFNKYAKEVKYPTHSTSYGVFTASLGIELKKALEYFLKRITENIVENGVKLVPLEKEEGEEILKELKEPFEKLIEKTLELDESYLCKKSGEFYEMAEKHENLKEKKYLS-MLNNEEFIKYVNDPKFPIGMHEFTFGLETYIVEKKVTDKESMLGFLKDFLNTVHLYKSLLSLKLTYEAALKGDLEEILKVEEIIYKSTKPLSLRLANYLLGKNFIKELLSRKDIDLGEFFNKYAKEVKYPTHSTSYGVFTASLGIELKKALEYFLKRITVNLVKNGVKLVPLEEEEGEEILKELEEPFEKLIEKTLELDESYLCKKSFEFDLMAIKHLGLKEKKYLS,HVDNEFLILQVNDAVFPIGSYTHSFGLETYIQQKKVTNKESALEYLKANLSSQFLYTEMLSLKLTYESALQQDLKKILGVEEVIMLSTSPMELRLANQKLGNRFIKTLQAMNELDMGEFFNAYAQKTKDPTHATSYGVFAASLGIELKKALRHYLYAQTSNMVINCVKSVPLSQNDGQKILLSLQSPFNQLIEKTLELDESHLCTASVQNDIKAMQHESLYSRLYMS-HVDNEFLILQVNDAVFPIGSYTHSFGLETYIQQKKVTNKESALEYLKANLSSQFLYTEMLSLKLTYESALQQDLKKILGVEEVIMLSTSPMELRLANQKLGNRFIKTLQAMNELDMGEFFNAYAQKTKDPTHATSYGVFAASLGIELKKALRHYLYAQTSNMVINCVKSVPLSQNDGQKILLSLQSPFNQLIEKTLELDESHLCTASVQNDIKAMQHESLYSRLYMS-HVDNEFLILQVNDAVFPIGSYTHSFGLETYIQQKKVTNKESALEYLKANLSSQFLYTEMLSLKLTYESALQQDLKKILGVEEVIMLSTSPMELRLANQKLGNRFIKTLQAMNELDMGEFFNAYAQKTKDPTHATSYGVFAASLGIELKKALRHYLYAQTSNMVINCVKSVPLSQNDGQKILLSLQSPFNQLIEKTLELDESHLCTASVQNDIKAMQHESLYSRLYMS-HVDNEFLILQVNDAVFPIGSYTHSFGLETYIQQKKVTNKESALEYLKANLSSQFLYTEMLSLKLTYESALQQDLKKILGVEEVIMLSTSPMELRLANQKLGNRFIKTLQAMNELDMGEFFNAYAQKTKDPTHATSYGVFAASLGIELKKALRHYLYAQTSNMVINCVKSVPLSQNDGQKILLSLQSPFNQLIEKTLELDESHLCTASVQNDIKAMQHESLYSRLYMS-HVDNEFLILQVNDAVFPIGSYTHSFGLETYIQQKKVTNKESALEYLKANLSSQFLYTEMLSLKLTYESALQQDLKKILGVEEVIMLSTSPMELRLANQKLGNRFIKTLQAMNELDMGEFFNAYAQKTKDPTHATSYGVFAASLGIELKKALRHYLYAQTSNMVINCVKSVPLSQNDGQKILLSLQSPFNQLIEKTLELDESHLCTASVQNDIKAMQHESLYSRLYMS-HVDNEFLILQVNDAVFPIGSYTHSFGLETYIQQKKVTNKESALEYLKANLSSQFLYTEMLSLKLTYESALQQDLKKILGVEEVIMLSTSPMELRLANQKLGNRFIKTLQAMNELDMGEFFNAYAQKTKDPTHATSYGVFAASLGIELKKALRHYLYAQTSNMVINCVKSVPLSQNDGQKILLSLQSPFNQLIEKTLELDESHLCTASVQNDIKAMQHESLYSRLYMS-HVDNEFLILQVNDAVFPIGSYTHSFGLETYIQQKKVTNKESALEYLKANLSSQFLYTEMLSLKLTYESALQQDLKKILGVEEVIMLSTSPMELRLANQKLGNRFIKTLQAMNELDMGEFFNAYAQKTKDPTHATSYGVFAASLGIELKKALRHYLYAQTSNMVINCVKSVPLSQNDGQKILLSLQSPFNQLIEKTLELDESHLCTASVQNDIKAMQHESLYSRLYMS-HVDNEFLILQVNDAVFPIGSYTHSFGLETYIQQKKVTNKESALEYLKANLSSQFLYTEMLSLKLTYESALQQDLKKILGVEEVIMLSTSPMELRLANQKLGNRFIKTLQAMNELDMGEFFNAYAQKTKDPTHATSYGVFAASLGIELKKALRHYLYAQTSNMVINCVKSVPLSQNDGQKILLSLQSPFNQLIEKTLELDESHLCTASVQNDIKAMQHESLYSRLYMS-HVDNEFLILQVNDAVFPIGSYTHSFGLETYIQQKKVTNKESALEYLKANLSSQFLYTEMLSLKLTYESALQQDLKKILGVEEVIMLSTSPMELRLANQKLGNRFIKTLQAMNELDMGEFFNAYAQKTKDPTHATSYGVFAASLGIELKKALRHYLYAQTSNMVINCVKSVPLSQNDGQKILLSLQSPFNQLIEKTLELDESHLCTASVQNDIKAMQHESLYSRLYMS-HVDNEFLILQVNDAVFPIGSYTHSFGLETYIQQKKVTNKESALEYLKANLSSQFLYTEMLSLKLTYESALQQDLKKILGVEEVIMLSTSPMELRLANQKLGNRFIKTLQAMNELDMGEFFNAYAQKTKDPTHATSYGVFAASLGIELKKALRHYLYAQTSNMVINCVKSVPLSQNDGQKILLSLQSPFNQLIEKTLELDESHLCTASVQNDIKAMQHESLYSRLYMS,LKEDPSVILS-GLKDPSVILS-LKEDPSVILS-KEKDPSVLKA-PYCDPSVEKA-KEEDPSVLKA-LEEDPSVLLS-LGKDPSVILS-EKEDPSVKKA-GLKDPSVLLS,IREDASMNLE-IREDASMNLE-IREDASMNLE-IREDASMNLE-IREDASMNLE-IREDASMNLE-IREDASMNLE-IREDASMNLE-IREDASMNLE-IREDASMNLE
