contacts,cs,ce,Chain,Length,designed_receptor_seq,native_receptor_seq,designed_binder_seq,native_binder_seq
36.0,1,11,A,10,HREQYIDLVMTADSLKNRHVECSERARIIDLKAVLCRRLAADPDQIDILYQGLSIDQNQSILQLQTSRWRGQPSPVLLQFRV-GAMERLDLQLKADKLQDRYVTCSSEATVAMLKKELCRRRELNPLNVEIMYQRQVLAEDLTLRAIKDSRWKGQPDPMLLEYRC-SGSQQLELRLNKQELRQNYISCEQTATISDLKLLLCKHLKIDPQQLRILYKNEELKEDMTMLEVVQSEWTGKPSPMLLEYVI-GSHMKLNLLLKEGRLTAAYVTCSMSARIKDLREILCQDLKVDPRNLSLLFNEEVLPDDISVESIRDSQWEGKPEPLELQYDV-GSHMKINLKLENDKLRKHYVTCSVEAKVVDLKKLVCTELDINPKNLNILCDNKILLDKISIQAIVNDKYQGKPSPLLLQYNI-GSEDRVSLRLCAKALEQNYVVCSEQAKVAHLRQLLCHTCKVDPQRLQILYSDQVLPENMTIRDIIMNRWRGLPSPMMLQYRI-EGAAMLSLVLRPAHLEANFVTCSERSVVSELKDLLCEREELDPRGLRLQHVGETLPEKRSMRQIQEERWEGHPDPLELEYSV-AAGMRLHLQLVAGGLNRQYIQCSRRATVQDLRELLCTELRVSPQNLRVMFRNQVLPDEMTMREIMDSHWTGMPSPVHLEYSI-KTTARLELKLSLSGLRRSYIQCSEDAQVRHLRSLLCQKLACKPADIDILYQSQRLPADLTIRQIVEARWLGKPMPLLLEYTI-GSSGRVDLLLVEAGLRDRYVTCSVDARIKDLKLLICQRLRKDPAQLRLLYNSIELPDEVTIAEIIQCQWRGQPAPMLLQYQV,GTREQLNLCLERLVLQNKYVRCSVRAEVRHLRRVLCHRLMLNPQHVQLLFDNEVLPDHMTMKQIWLSRWFGKPSPLLLQYSV-GTREQLNLCLERLVLQNKYVRCSVRAEVRHLRRVLCHRLMLNPQHVQLLFDNEVLPDHMTMKQIWLSRWFGKPSPLLLQYSV-GTREQLNLCLERLVLQNKYVRCSVRAEVRHLRRVLCHRLMLNPQHVQLLFDNEVLPDHMTMKQIWLSRWFGKPSPLLLQYSV-GTREQLNLCLERLVLQNKYVRCSVRAEVRHLRRVLCHRLMLNPQHVQLLFDNEVLPDHMTMKQIWLSRWFGKPSPLLLQYSV-GTREQLNLCLERLVLQNKYVRCSVRAEVRHLRRVLCHRLMLNPQHVQLLFDNEVLPDHMTMKQIWLSRWFGKPSPLLLQYSV-GTREQLNLCLERLVLQNKYVRCSVRAEVRHLRRVLCHRLMLNPQHVQLLFDNEVLPDHMTMKQIWLSRWFGKPSPLLLQYSV-GTREQLNLCLERLVLQNKYVRCSVRAEVRHLRRVLCHRLMLNPQHVQLLFDNEVLPDHMTMKQIWLSRWFGKPSPLLLQYSV-GTREQLNLCLERLVLQNKYVRCSVRAEVRHLRRVLCHRLMLNPQHVQLLFDNEVLPDHMTMKQIWLSRWFGKPSPLLLQYSV-GTREQLNLCLERLVLQNKYVRCSVRAEVRHLRRVLCHRLMLNPQHVQLLFDNEVLPDHMTMKQIWLSRWFGKPSPLLLQYSV-GTREQLNLCLERLVLQNKYVRCSVRAEVRHLRRVLCHRLMLNPQHVQLLFDNEVLPDHMTMKQIWLSRWFGKPSPLLLQYSV,ITFLTSDAPP-YHFEASRAPS-FFFQTAKQPP-IKFHRSSKPP-TLFKRSAFPM-VKFLTSSSPP-SAFAASSVPL-LRFRHGAYPP-QEFLASNIPL-VVFGEAASPP,FMFELSDKPL-FMFELSDKPL-FMFELSDKPL-FMFELSDKPL-FMFELSDKPL-FMFELSDKPL-FMFELSDKPL-FMFELSDKPL-FMFELSDKPL-FMFELSDKPL
32.0,16,26,B,10,PHLHIKSVTPLLPRYCLRVSKLETFSEYFLFQDVLAKLKMSSDEFRRRFPGFEIVEMPAQLFGEQVAQSNEITPAERPLFEKVSLVRFEPALAILLGADVTFTSAHI-GFLLRLSHTPLLPRYRLRVIKEAEEANYHLLEDVLNELDLTLSVFQRRFPGFLVKTMPAKQFGQQAAESEFIEPEQQPEKKVVVLVEDRPELAVRLGNQIVIVSAQT-MFLLHESETPLLPCYELRVDRSKGHSFYYLLDDVLGRLQLSYARFERLYPKFNVRQMPASDFEQQCATSKMLKPEELPPHRTVSLVSDCPRLWTLLGCQVKYVSEQM-AYLFVFSVVPLLPKYRLKTRQDYQKRWYYLLDDVLKKLCLSFSKFNKHRPNFHVITMPAAKFGEQVATSKHITPAEEPIDKVVTLISDEPSLWTLLGCTVVSISSYG-GYILSRCSSPLLPRYSLRIDFTSARSEYYLLEDVLDRLDMTFQNFTLKFPNFQIKTMPKAAFHAQVADSDHILPSERPPVGKVKLVRFEPSLETILGQAVVWLSVDQ-GYTLLLAHTPLLPRYSLCVRETSSAEHYFLLHDVLDRLHLSFATFQRYHPGFLVVEMPAAQFGIQVAHSSRLTPEQQDYYATVRLIQDQPSLAVLLGCLVWTVSRNL-NTIEVRSDQPLLPRHRLCTDSASAPSWYYLLDDVLEKLELSYETFSMKYPGFQVVAMPAEEFGQQVAESKRLTPAELPADQHVMLIKDQPELHTLLGCIVRHISADK-TYTLVRGSRPLLPRFRLKISADNEETNWYLLDDVLKQLQLSLRTFRTHYPNHSIKSMPATVFGEQVKRSSFLSPGDRPIHQYVTLIQDQPDLWKLLGCIVDQVSKAD-GMRLVGSSEPLLPRWCLRIDEQSAFEHWYLLSSVLERLKMTRSAFMQSYPGFKIVTMPADLFGEQVRKSDILNPDELPPDKVVTLVQDEPQLQILLGCYVFEVSHRL-SHVLYRAAGPLLPLYRLRISDETGPDHYFLLCDVLAALRLSYSRFTTYYPGYCIRQMPATRFGEQVSTSRFLRPDERVHENAVTLVTFQPELCVILGCKVDVVSEAG,DFMFELSDKPLLPCYNLQVSVSRGPCNWFLFSDVLKRLKLSSRIFQARFPHFEITTMPKAEFYRQVASSQLLTPAERPSSETVELVRYEPDLLRLLGSEVEFQSCNS-DFMFELSDKPLLPCYNLQVSVSRGPCNWFLFSDVLKRLKLSSRIFQARFPHFEITTMPKAEFYRQVASSQLLTPAERPSSETVELVRYEPDLLRLLGSEVEFQSCNS-DFMFELSDKPLLPCYNLQVSVSRGPCNWFLFSDVLKRLKLSSRIFQARFPHFEITTMPKAEFYRQVASSQLLTPAERPSSETVELVRYEPDLLRLLGSEVEFQSCNS-DFMFELSDKPLLPCYNLQVSVSRGPCNWFLFSDVLKRLKLSSRIFQARFPHFEITTMPKAEFYRQVASSQLLTPAERPSSETVELVRYEPDLLRLLGSEVEFQSCNS-DFMFELSDKPLLPCYNLQVSVSRGPCNWFLFSDVLKRLKLSSRIFQARFPHFEITTMPKAEFYRQVASSQLLTPAERPSSETVELVRYEPDLLRLLGSEVEFQSCNS-DFMFELSDKPLLPCYNLQVSVSRGPCNWFLFSDVLKRLKLSSRIFQARFPHFEITTMPKAEFYRQVASSQLLTPAERPSSETVELVRYEPDLLRLLGSEVEFQSCNS-DFMFELSDKPLLPCYNLQVSVSRGPCNWFLFSDVLKRLKLSSRIFQARFPHFEITTMPKAEFYRQVASSQLLTPAERPSSETVELVRYEPDLLRLLGSEVEFQSCNS-DFMFELSDKPLLPCYNLQVSVSRGPCNWFLFSDVLKRLKLSSRIFQARFPHFEITTMPKAEFYRQVASSQLLTPAERPSSETVELVRYEPDLLRLLGSEVEFQSCNS-DFMFELSDKPLLPCYNLQVSVSRGPCNWFLFSDVLKRLKLSSRIFQARFPHFEITTMPKAEFYRQVASSQLLTPAERPSSETVELVRYEPDLLRLLGSEVEFQSCNS-DFMFELSDKPLLPCYNLQVSVSRGPCNWFLFSDVLKRLKLSSRIFQARFPHFEITTMPKAEFYRQVASSQLLTPAERPSSETVELVRYEPDLLRLLGSEVEFQSCNS,PAFVFSSVND-PSYCWFDDSF-PCYRRWSHHA-SPFVACEITC-PHYVWYSKEY-PHHIWCSSHF-PCFIWRSETY-PIYTAMENSF-PNHIWCDVNY-PCHIAASDDF,NKYVRCSVRA-NKYVRCSVRA-NKYVRCSVRA-NKYVRCSVRA-NKYVRCSVRA-NKYVRCSVRA-NKYVRCSVRA-NKYVRCSVRA-NKYVRCSVRA-NKYVRCSVRA
