contacts,cs,ce,Chain,Length,designed_receptor_seq,native_receptor_seq,designed_binder_seq,native_binder_seq
28.0,141,151,A,10,MNRDLIFMGTLMALNAAIAQVRIGVGAVSFSLTFLITALIAHWFGPRLGMLAAFLVDMASVLLFGGPFFPGFSLSAVFGALIYAEFLHRREVSWGRVAGAVVLNQVLSSVLFTWIYTFVLGGMPFWQVLPSRLLKDAIVTPFEIAAVYLLLTSRLVSEIQRRLP-MNSKLLFIGALMALSWKLSLIRIGFGPVSFTLVFLITALISRWFGPLIGGLSAFLVDLFGTYLFGGPFFPGFTLAAVFAAGIYSFFLYKKPVTWGRVAGAVLLNTLTVGALYTLILTLFLGGLPFFELLPVRLARNLLVAPFEIVAIYLLLTSPLVLRVEKALE-MNKELLFIGLLMALSFKLALYKIGAGEFAFSLVFLITALIANLFGPVWGGLVAFLVDITGTLLLGGPFFPGFSLSAVLGAYIYAVFLYKKPITWGRVLGANLLNWFLAALFNTYILHALVGGIPFFEILPARLLSDLIVLPFDILATYLTLTSKLYQRIKEDLP-MNREQLFVGLLMALAFKLSRIKLGVGSFSVSLVFLVTALIARLYGPWWGGLVAFLFDAAGTLLFGGPFFPGYTLTAVLGALIYSYFLYRRPVSFGRVLGANLLTFVVYTILTTVIFSLVLGHIPFLDLLPVRLARNAFVLPFEVLATYLLLTSRFYQRVERALP-MNRELLFVGVLMALSHVLARFEIGFGRVSFSLVFLITALVARLFGPVWGGLVAFLVDLSGSLLFGGPFFPGFSLSAVFGALIYAFFLYRRPVSFGAVFGAVLVNAVTVTVFSGLIYAYLLGGVPFLSFLPTRLLRNLVVLPFEILAIYLLLTSRLVRRLEERLR-MSKEFLFIGALMALSFLLSRFTVGVGEIRFSLVFLITAIISHLFGPIWGGLVAALVDFTSMLLTGGPFFPGFTVSAVLGALIYSFFLHKKEINWGRVAGAVILNALIASLFYTFIYHLLLGNIPFFELLPIRVLRNLVVLPFEILAIYLLLTSKIYLKIKAELE-MNRKLLFIGLLMALSFNLSKVEIGFGNVRISLTFLITALVARLFGPWWGGLVAFLVDAAGTLLYGGPFFPGFKLSAVFGALIYSLFLYKKPVSWGRVLGAEVLNAILFGVVNSLVLVLLVGGVPFLKVLPVRLASNAVILPFEIVATYLLLTSSLVRKVEKALE-MNRELLFIGLLMALAYWLSLFRFGGGQVSFSLVFLITALIAHLFGPKWGGLVAFLFDLTGTFLFGGPFYPGFSLSAVLGALIYAIFLYRRPISWGRVAGACLLTAVIFGVLGTLIVWLTLYGQPLLAVLPVRLARNAVVLPFEIVAVYLLLTSRLFRRLERALP-MNKKFVFIGVLMALDRLLALVKIGVGGISVSLTFLITALIAHLFGPVWGGIVAFLVDYSGALLFGGPFFPGFTLSSIFGALIYALFLYKKPVSFGRVLGAVVLDNVLVTVFYTLILSLLFGKTPFLELLPVRLLKDAIITPFRILATYVLLTSRLYQRLEQKLE-MGMNTLFIGILMGLAFNLSQFKIGGWDLSFSLTFLISALIAHLYGPWWGGIVAALWDFGSTIMFGYPFFPGFTLTAVLGAYIYAVFLYKKPVNWGRVAGAVILNLVLFAFIGTFWLAILQNGIPYLEILPQRVASNLVVAPFEIVAIYLLLTSKWYQRLRAKLR,DTLSMVTMGVLMALQLVISRFSVGNNFIKVSFTFLIVALIAKWFGPWWGMLTAAVVDVIGTLMTGGPFFIGFTVSAVLGSLIYAVFLYRQPVSWWRVIGASVLIALLVNTLLNTLWVTIMYQTPFWSLLPVRALKELIVTPVQIVLVYLLLKSQVIQMIQARLN-DTLSMVTMGVLMALQLVISRFSVGNNFIKVSFTFLIVALIAKWFGPWWGMLTAAVVDVIGTLMTGGPFFIGFTVSAVLGSLIYAVFLYRQPVSWWRVIGASVLIALLVNTLLNTLWVTIMYQTPFWSLLPVRALKELIVTPVQIVLVYLLLKSQVIQMIQARLN-DTLSMVTMGVLMALQLVISRFSVGNNFIKVSFTFLIVALIAKWFGPWWGMLTAAVVDVIGTLMTGGPFFIGFTVSAVLGSLIYAVFLYRQPVSWWRVIGASVLIALLVNTLLNTLWVTIMYQTPFWSLLPVRALKELIVTPVQIVLVYLLLKSQVIQMIQARLN-DTLSMVTMGVLMALQLVISRFSVGNNFIKVSFTFLIVALIAKWFGPWWGMLTAAVVDVIGTLMTGGPFFIGFTVSAVLGSLIYAVFLYRQPVSWWRVIGASVLIALLVNTLLNTLWVTIMYQTPFWSLLPVRALKELIVTPVQIVLVYLLLKSQVIQMIQARLN-DTLSMVTMGVLMALQLVISRFSVGNNFIKVSFTFLIVALIAKWFGPWWGMLTAAVVDVIGTLMTGGPFFIGFTVSAVLGSLIYAVFLYRQPVSWWRVIGASVLIALLVNTLLNTLWVTIMYQTPFWSLLPVRALKELIVTPVQIVLVYLLLKSQVIQMIQARLN-DTLSMVTMGVLMALQLVISRFSVGNNFIKVSFTFLIVALIAKWFGPWWGMLTAAVVDVIGTLMTGGPFFIGFTVSAVLGSLIYAVFLYRQPVSWWRVIGASVLIALLVNTLLNTLWVTIMYQTPFWSLLPVRALKELIVTPVQIVLVYLLLKSQVIQMIQARLN-DTLSMVTMGVLMALQLVISRFSVGNNFIKVSFTFLIVALIAKWFGPWWGMLTAAVVDVIGTLMTGGPFFIGFTVSAVLGSLIYAVFLYRQPVSWWRVIGASVLIALLVNTLLNTLWVTIMYQTPFWSLLPVRALKELIVTPVQIVLVYLLLKSQVIQMIQARLN-DTLSMVTMGVLMALQLVISRFSVGNNFIKVSFTFLIVALIAKWFGPWWGMLTAAVVDVIGTLMTGGPFFIGFTVSAVLGSLIYAVFLYRQPVSWWRVIGASVLIALLVNTLLNTLWVTIMYQTPFWSLLPVRALKELIVTPVQIVLVYLLLKSQVIQMIQARLN-DTLSMVTMGVLMALQLVISRFSVGNNFIKVSFTFLIVALIAKWFGPWWGMLTAAVVDVIGTLMTGGPFFIGFTVSAVLGSLIYAVFLYRQPVSWWRVIGASVLIALLVNTLLNTLWVTIMYQTPFWSLLPVRALKELIVTPVQIVLVYLLLKSQVIQMIQARLN-DTLSMVTMGVLMALQLVISRFSVGNNFIKVSFTFLIVALIAKWFGPWWGMLTAAVVDVIGTLMTGGPFFIGFTVSAVLGSLIYAVFLYRQPVSWWRVIGASVLIALLVNTLLNTLWVTIMYQTPFWSLLPVRALKELIVTPVQIVLVYLLLKSQVIQMIQARLN,VGLAIALLLL-VGLAVALLLL-LLVVVALIFF-LMLAVALLFW-LGFAVALIFF-LGLAIALILF-LMLAVALIFL-PMLAVALLGL-FGVAIALVLL-LGLLIALVLW,MMLSIALRFV-MMLSIALRFV-MMLSIALRFV-MMLSIALRFV-MMLSIALRFV-MMLSIALRFV-MMLSIALRFV-MMLSIALRFV-MMLSIALRFV-MMLSIALRFV
43.0,4,14,B,10,MGLLSRFDPSAPRSDPRLKLLLVLLFNLALWLTRDARQWLLLLAFTALLLALSRLRGEDYLRGLRPFLWLLLFLNLLWLLFGPGVSLAALQGVLYLSLRGLLIIWFFKLFLLTTAPLELLDALEQLLRPLRRLRFPVEEFALLLAIALRFVPTLLAEAQAIREAQQARGVRFGAGGLAAALRALLPLLVPLLLRAFERALLLALALEARGFGRPEERGRFRRLRPGWWDALLLLLFLLFLLALLA-MGLLDKYNPAAYNKDPRVKIILGLLFIFILYNVKNLVQWVFLLLYTALLIILSKTKGKEYLKGIKPFLWLIPFLNLLILLLNGGITLESIKGVLFVSLKLFLLITWLTLVVLTTDPVELLDSLSYLLEPLEKVKVPVQELYLIASIALRFIPTLSEELRRIMEAQRARGVEFGKGGLLSRIKNLIPIVVPLFVSAFEKAIVLATALVTRGFGDPRARTSFIELKLNRYDVILIILFILMFIAVFL-MGSMAQPNPAAVNVDPRLRLVLSLLFVLALWAVRSGWQWALLGAYALLVIASSRIDGRAYWEGLRPFLWLLPLLVVLQLLAGRGVSAAAWLGAGQLLLRGLLVVWWLTLLVLTTAPVDLLAALHRLLAPLRRVRVPVDLLSLMASIALRFLPTLSREALAIRDAQAARGARFGEGGLAARLRSLLPLLVPLFFSAFRGAWEMAVAMEARGFGDAEARTSLDVLRPDRYDVLFAAGFLLFLVGVGL-MGALFRPDPRAPAADPRVKVLLNLLFVVVLWVVRDAWQWLGLAAFAALALAASRTGLPGYLRGLRPFLFFVVFLNVALLLAGGGVSAEAVRGVGYVSFRLLLAILWSRWFVLTTRPDEFLLALERLLRPLRRVRVPVDELALLAGIALRFVPTLSDELRRIREAQAARGAEFGRGGLRARVRALVPLVVPLVVSAFEGARRLALAMRARGFGRPEERGRLETLRPGRADVLLLLGFAVFAVWVLL-MGLNAVYDPEAIRTDPRVKLLLGLAFVFVLFLTRDAWQWLLLGAFLGLLIVLSRTPGRTYYQGLRPFLWLIVFLNVLWLIAGGGITEAAILGIGHLTLRFLLVVLFFTLLALTTDPAELLQGLSRVLRPLERVRVPVDELALMAAVALRYLPTLQAELRAIRDAQRARGVAYGAGGLRARLRALVPLVVPLFFSAFRGADEMALALTARGFGAADARTELRQLRLDREDVVLALAFALLVVALFG-MGLSALRNPAAVITDPRLRLLLIALFSILLWRTRGLAQLLVLLAFTGLVLAASRQAGPAYWRGLRPFLWLIVLINLLNLLFGGGVTAASLWGVGLTLLRNLLFITLGTLFVLTTRPVDLLLALDRVLAPLRRVRFPVAEFSLMLGIALRFVPTLAAEARAIREAQEARGVRFGEGGLLRRVRALIPLLVPLLLVAFRGAWESALAMEARGFGRAEERGEFLQLRLGREDVLVALLFLVAALALGL-AADLSVVNPDARLRDPRVKLVLGLLFSFVLWLTTNWIQLVVLLAFSTYLLVRSRMRGRDYLDGVKPFLWFIPFFLILQLVAGGGISLEALRGVGIFGLRFLLIIVWFTWLTLTTEPLDLLDGLEQLLRPLRRLRVPVDLLSLMAGIALRFVPTLSEEAERIREAQEARGVDFGAGGFLARVRSLVPLIVPLFLSAFRGAWESALALEARGYGDAEARTRLRRLELRRQDVLLLVAFAVAALALLL-MGQLAQPIEGAPVTDPRLRLVLLLLFGFALYAVDGWAQWIVLGAFTALLIVASRIGGAGYARGLVPFLPFIVILNVLQLLVNGGVTAEAVAGVGRVALRALLVIVFAALFSLTTSPFALLDALHALLRPLRRLRVPVDELAFMAAIALRFVPTLAAESRQIREAQRARGVAFGAGGWLERLRALVPLLVPLFVFAFERAAVSALALQARGFGRAEERGRLRTLRPTRADVVLAAAFLVFLVALGF-MTTLAAPDPGAPARDPRLWLALTAAFATVLWLTRDAVQWLLLGAYAVLLVVASRTRPGGYLRGLRPFLWLVPLLLVLQLLFGPGLDRSALAGAGYLALRLLLVVLWFTLLALTTDPADLLRALERLLRPLRRIRVPVDELAFLAGVALRFVPTLAGELRAIRDAQRARGVEFGRGGLVARLRALLPLVVPLLLSAFRGADEMAVALEARGFGSAEERTSRVELAPGRLDLLLALGFLLFAVGVLA-MGLLDRYLPGAPADEPRIKLLLSLAFSLVLFYTRSLVQWALLLAFTALLLAASRVRGRDYLRGLRPFLWLIVLINVLNLVLGGGVSAESLLGVGYLTLRFLLVIVFFKLFVLTTRPVDLLDALTVLLRPLERVRVPVDELALMLGIALRFVPTLAEVAVAIREAQEARGVRFGEGGLLRRVRNLVPLVVPLFFVAFRGAWEMAVAMAARGFGRPEERGRLRRLEPGRADVLALGAFLVFAVAVLL,FGRYLPLDSVVHRLDPRAKLMLSFCYIIVVFLANNIWSYAILIAFTVGAILSSKISLGFFLKGIRPLLWLIVFTVVLQLLFSINVTQDGLINAGYIFVRFLLIIMMSTLLTLSTQPLDIATGLASLMKPLRWVKVPVDTLAMMLSIALRFVPTLMDEATKIMNAQRARGVDFGEGGLFKQAKSLIPLMVPLFMSAFNRAEDLSTAMEARGYQDSEHRSQYRILTWQRRDTVTWLLFLLGFVAILI-FGRYLPLDSVVHRLDPRAKLMLSFCYIIVVFLANNIWSYAILIAFTVGAILSSKISLGFFLKGIRPLLWLIVFTVVLQLLFSINVTQDGLINAGYIFVRFLLIIMMSTLLTLSTQPLDIATGLASLMKPLRWVKVPVDTLAMMLSIALRFVPTLMDEATKIMNAQRARGVDFGEGGLFKQAKSLIPLMVPLFMSAFNRAEDLSTAMEARGYQDSEHRSQYRILTWQRRDTVTWLLFLLGFVAILI-FGRYLPLDSVVHRLDPRAKLMLSFCYIIVVFLANNIWSYAILIAFTVGAILSSKISLGFFLKGIRPLLWLIVFTVVLQLLFSINVTQDGLINAGYIFVRFLLIIMMSTLLTLSTQPLDIATGLASLMKPLRWVKVPVDTLAMMLSIALRFVPTLMDEATKIMNAQRARGVDFGEGGLFKQAKSLIPLMVPLFMSAFNRAEDLSTAMEARGYQDSEHRSQYRILTWQRRDTVTWLLFLLGFVAILI-FGRYLPLDSVVHRLDPRAKLMLSFCYIIVVFLANNIWSYAILIAFTVGAILSSKISLGFFLKGIRPLLWLIVFTVVLQLLFSINVTQDGLINAGYIFVRFLLIIMMSTLLTLSTQPLDIATGLASLMKPLRWVKVPVDTLAMMLSIALRFVPTLMDEATKIMNAQRARGVDFGEGGLFKQAKSLIPLMVPLFMSAFNRAEDLSTAMEARGYQDSEHRSQYRILTWQRRDTVTWLLFLLGFVAILI-FGRYLPLDSVVHRLDPRAKLMLSFCYIIVVFLANNIWSYAILIAFTVGAILSSKISLGFFLKGIRPLLWLIVFTVVLQLLFSINVTQDGLINAGYIFVRFLLIIMMSTLLTLSTQPLDIATGLASLMKPLRWVKVPVDTLAMMLSIALRFVPTLMDEATKIMNAQRARGVDFGEGGLFKQAKSLIPLMVPLFMSAFNRAEDLSTAMEARGYQDSEHRSQYRILTWQRRDTVTWLLFLLGFVAILI-FGRYLPLDSVVHRLDPRAKLMLSFCYIIVVFLANNIWSYAILIAFTVGAILSSKISLGFFLKGIRPLLWLIVFTVVLQLLFSINVTQDGLINAGYIFVRFLLIIMMSTLLTLSTQPLDIATGLASLMKPLRWVKVPVDTLAMMLSIALRFVPTLMDEATKIMNAQRARGVDFGEGGLFKQAKSLIPLMVPLFMSAFNRAEDLSTAMEARGYQDSEHRSQYRILTWQRRDTVTWLLFLLGFVAILI-FGRYLPLDSVVHRLDPRAKLMLSFCYIIVVFLANNIWSYAILIAFTVGAILSSKISLGFFLKGIRPLLWLIVFTVVLQLLFSINVTQDGLINAGYIFVRFLLIIMMSTLLTLSTQPLDIATGLASLMKPLRWVKVPVDTLAMMLSIALRFVPTLMDEATKIMNAQRARGVDFGEGGLFKQAKSLIPLMVPLFMSAFNRAEDLSTAMEARGYQDSEHRSQYRILTWQRRDTVTWLLFLLGFVAILI-FGRYLPLDSVVHRLDPRAKLMLSFCYIIVVFLANNIWSYAILIAFTVGAILSSKISLGFFLKGIRPLLWLIVFTVVLQLLFSINVTQDGLINAGYIFVRFLLIIMMSTLLTLSTQPLDIATGLASLMKPLRWVKVPVDTLAMMLSIALRFVPTLMDEATKIMNAQRARGVDFGEGGLFKQAKSLIPLMVPLFMSAFNRAEDLSTAMEARGYQDSEHRSQYRILTWQRRDTVTWLLFLLGFVAILI-FGRYLPLDSVVHRLDPRAKLMLSFCYIIVVFLANNIWSYAILIAFTVGAILSSKISLGFFLKGIRPLLWLIVFTVVLQLLFSINVTQDGLINAGYIFVRFLLIIMMSTLLTLSTQPLDIATGLASLMKPLRWVKVPVDTLAMMLSIALRFVPTLMDEATKIMNAQRARGVDFGEGGLFKQAKSLIPLMVPLFMSAFNRAEDLSTAMEARGYQDSEHRSQYRILTWQRRDTVTWLLFLLGFVAILI-FGRYLPLDSVVHRLDPRAKLMLSFCYIIVVFLANNIWSYAILIAFTVGAILSSKISLGFFLKGIRPLLWLIVFTVVLQLLFSINVTQDGLINAGYIFVRFLLIIMMSTLLTLSTQPLDIATGLASLMKPLRWVKVPVDTLAMMLSIALRFVPTLMDEATKIMNAQRARGVDFGEGGLFKQAKSLIPLMVPLFMSAFNRAEDLSTAMEARGYQDSEHRSQYRILTWQRRDTVTWLLFLLGFVAILI,PVLLGVLLAL-IVLVGVLIAL-VMALGVALAL-LVLAGVALAL-TVALGVALAL-TFAAGVLLAL-LWLIGVLLAL-VHAVGVALAL-LVRAGVLLAL-TVAVGVLLAL,MVTMGVLMAL-MVTMGVLMAL-MVTMGVLMAL-MVTMGVLMAL-MVTMGVLMAL-MVTMGVLMAL-MVTMGVLMAL-MVTMGVLMAL-MVTMGVLMAL-MVTMGVLMAL
