contacts,cs,ce,Chain,Length,designed_receptor_seq,native_receptor_seq,designed_binder_seq,native_binder_seq
28.0,141,151,A,10,MNKKLLFIGILMALSFNLSRFKIGFGEISFSLVFLITALISHLFGPKWGGITAFLVDLTGTLLFGGPFFPGFTLSAILGALIYAYFLYKKEISWGRVLGANLLNALLVGLFNTLILVLFLGGVPFLELLPVRLLRNLIVLPFEILATYLLLTSKLVKKIEKELE-MNKKLLFIGILMALSFNLSLIKIGEGPISFSLVFLITALISHLFGPKWGGITAFLVDLIGMLLFGGPFFPGFTLSAILGALIYSYFLYKKEISWGRVAGAVILNTILVTFLGTIILSLLLGGIPFLEILPIRLLRNLIVTPFEIIAIYLLLTSKIVKKIEKELK-MNRELLFIGLLMALSFNLSRFKIGLGPVSFSLTFLITALIAHLFGPLWGGIVAFLVDLTGMLLFGGPFFPGFSLSAVLGALIYAFFLYRREISWGRVAGAVLLNWLVSTLLGTLILVLLLGGVPFLEVLPVRLLRNLLVLPFEILAIYLLLTSRLVRRLEEELR-MNKKLLFIGILMALSFNLSRFKIGFGEISFSLVFLITALISHLFGPKWGMLSAFLVDLTGMLLFGGPFFPGFTLSAMLGAFIYAIFLYKKEISWGRVAGACLLNWLLYTLFGTLILSLFLGGIPFLELLPVRLLRNLIVLPFEIIAIYLLLTSKLVKKIEKELE-MNKRLLFIGLLMALSFNLSLIKIGSGPISFSLTFLITALIAHLFGPKWGGITAFLVDLTGTLLFGGPFFPGFTLSAILGALIYAYFLYKKEISWGRVLGANLLNALLVGLLGTLILSLLLGGIPFLELLPVRLASNLIVLPFDILATYLLLTSKLYQKLEKELP-MNRELLFIGLLMALSFNLSRFKIGLGPVSFSLTFLITALISHLFGPLWGGITAFLVDLTGTLLFGGPFFPGFSLSAVLGALIYAYFLYKKEISWGRVAGAVLLNWLLVSLFGTLILSLLLGGVPFLELLPVRLLRNLLVLPFEILAIYLLLTSRLVRRLEEELR-MNKRLLFIGLLMALSFNLARFKIGLGPVSFSLVFLITALIAHLFGPVWGGITAFLVDLAGTLLFGGPFFPGFTLTAVLGALIYAYFLYKKEISWGRVAGAVLLNTLLVGLLGTLILVLLLGGVPFLELLPVRLARNLLVAPFEIAAIYLLLTSRLVQRLERELP-MNKKLLFIGLLMALSFNLSRFKIGFGPVSFSLTFLITALISHLFGPKWGGITAFLVDLTGMLLFGGPFFPGFSLSAVLGALIYAYFLYKKEISWGRVAGAVILNTLLVGLLGTLIYTLLLGGIPFLSLLPVRLLRNLIVTPFEIVAIYLLLTSKLVKKIEKELK-MNRELLFIGLLMALSFNLSRFKIGFGPVSFSLTFLITALISHLFGPLWGGIVAFLVDLTGMLLFGGPFFPGFTLSAVLGALIYSVFLYRREVSWGRVAGAVLLNTLLSGLLGTLILSLLLGGVPFLELLPVRLARNLLVAPFEIVAIYLLLTSRLVRRLERELR-MNKRLLFIGILMALSFNLSRFKIGFGPISFSLTFLITALISYLFGPIWGGITAFLVDLTGTLLFGGPFFPGFSLSAVLGAFIYAIFLYKKEISWGRVFGACLLNWLVSTFLGTLILSLFLGGVPFLELLPVRLLRNLIVLPFEILAIYLLLTSKLVKKIEEKLK,DTLSMVTMGVLMALQLVISRFSVGNNFIKVSFTFLIVALIAKWFGPWWGMLTAAVVDVIGTLMTGGPFFIGFTVSAVLGSLIYAVFLYRQPVSWWRVIGASVLIALLVNTLLNTLWVTIMYQTPFWSLLPVRALKELIVTPVQIVLVYLLLKSQVIQMIQARLN-DTLSMVTMGVLMALQLVISRFSVGNNFIKVSFTFLIVALIAKWFGPWWGMLTAAVVDVIGTLMTGGPFFIGFTVSAVLGSLIYAVFLYRQPVSWWRVIGASVLIALLVNTLLNTLWVTIMYQTPFWSLLPVRALKELIVTPVQIVLVYLLLKSQVIQMIQARLN-DTLSMVTMGVLMALQLVISRFSVGNNFIKVSFTFLIVALIAKWFGPWWGMLTAAVVDVIGTLMTGGPFFIGFTVSAVLGSLIYAVFLYRQPVSWWRVIGASVLIALLVNTLLNTLWVTIMYQTPFWSLLPVRALKELIVTPVQIVLVYLLLKSQVIQMIQARLN-DTLSMVTMGVLMALQLVISRFSVGNNFIKVSFTFLIVALIAKWFGPWWGMLTAAVVDVIGTLMTGGPFFIGFTVSAVLGSLIYAVFLYRQPVSWWRVIGASVLIALLVNTLLNTLWVTIMYQTPFWSLLPVRALKELIVTPVQIVLVYLLLKSQVIQMIQARLN-DTLSMVTMGVLMALQLVISRFSVGNNFIKVSFTFLIVALIAKWFGPWWGMLTAAVVDVIGTLMTGGPFFIGFTVSAVLGSLIYAVFLYRQPVSWWRVIGASVLIALLVNTLLNTLWVTIMYQTPFWSLLPVRALKELIVTPVQIVLVYLLLKSQVIQMIQARLN-DTLSMVTMGVLMALQLVISRFSVGNNFIKVSFTFLIVALIAKWFGPWWGMLTAAVVDVIGTLMTGGPFFIGFTVSAVLGSLIYAVFLYRQPVSWWRVIGASVLIALLVNTLLNTLWVTIMYQTPFWSLLPVRALKELIVTPVQIVLVYLLLKSQVIQMIQARLN-DTLSMVTMGVLMALQLVISRFSVGNNFIKVSFTFLIVALIAKWFGPWWGMLTAAVVDVIGTLMTGGPFFIGFTVSAVLGSLIYAVFLYRQPVSWWRVIGASVLIALLVNTLLNTLWVTIMYQTPFWSLLPVRALKELIVTPVQIVLVYLLLKSQVIQMIQARLN-DTLSMVTMGVLMALQLVISRFSVGNNFIKVSFTFLIVALIAKWFGPWWGMLTAAVVDVIGTLMTGGPFFIGFTVSAVLGSLIYAVFLYRQPVSWWRVIGASVLIALLVNTLLNTLWVTIMYQTPFWSLLPVRALKELIVTPVQIVLVYLLLKSQVIQMIQARLN-DTLSMVTMGVLMALQLVISRFSVGNNFIKVSFTFLIVALIAKWFGPWWGMLTAAVVDVIGTLMTGGPFFIGFTVSAVLGSLIYAVFLYRQPVSWWRVIGASVLIALLVNTLLNTLWVTIMYQTPFWSLLPVRALKELIVTPVQIVLVYLLLKSQVIQMIQARLN-DTLSMVTMGVLMALQLVISRFSVGNNFIKVSFTFLIVALIAKWFGPWWGMLTAAVVDVIGTLMTGGPFFIGFTVSAVLGSLIYAVFLYRQPVSWWRVIGASVLIALLVNTLLNTLWVTIMYQTPFWSLLPVRALKELIVTPVQIVLVYLLLKSQVIQMIQARLN,IGLAIALIFF-IGVIIALIFL-LGLAVALLFL-IGLAIALIFL-LGLAIALLFF-LGVLVALLFL-LGLAVALLFL-IGVAIALIFL-LGVAVALLFL-LGVLIALIFL,MMLSIALRFV-MMLSIALRFV-MMLSIALRFV-MMLSIALRFV-MMLSIALRFV-MMLSIALRFV-MMLSIALRFV-MMLSIALRFV-MMLSIALRFV-MMLSIALRFV
43.0,4,14,B,10,MGLFDRYNPEAPRTDPRLKLLLTLAFVFALFLTRDAVQWLLLGAFTLFLLVSSRLGGREYLRGLRPFLWLIPFLLLLQLLLGGGVSAAALAGVGYLGLRFLLVIWFSTLFALTTRPLDLLDALVWLLRPLRRLRVPVDELALLAGIALRFVPTLAAEARRIREAQEARGVRFGEGGLLARLRALLPLLVPLFFRAFDGALVLALALRARGFGDPEARGRLRRLRPGRADLLLALAFLVFLVGLLL-MGLLDRYIPGAYRDDPRLKLLLVLAFSFALFLTRDAVQWLLLGAFTAFLLLSSRLPGRAYLRGLRPFLWLIPFLLLLQLLLGGGVSAAALAGVGYLGLRFLLVVWFSTLFVLTTRPLDLLDALERLLRPLERVRVPVEELALLAGIALRFVPTLAAEARRIREAQEARGVRFGEGGLLARLRALLPLLVPLFLRAFDGAARLALALEARGFGRAEARGRLRRLRPGRADLLLALAFLAFLAALLL-MGLLDRYNPEAVRTDPRLRLVLVLLFSFALWLTRDAVQWLVLLAFTAFLLVRSRLGGRGYLRGLRPFLWLIPFLLVLQLLLGGGVSAEAVRGVGYLGLRLLLVIVFSTWFVLTTRPLDLLDALVWLLRPLERVRVPVEELALMAGIALRFVPTLAEEARRIREAQEARGVRFGEGGLLRRLRALVPLLVPLFLRAFEGAWRLALALEARGFGRPEERGRLRRLRPGREDVLLLLAFLVFLVALLL-MGLLDRYIPGAPREDPRLKLLLTLAFVFALFLTRDAAQWAVLLAFTAFLLAASRLGGRGYLRGLRPFLWLIPFLLLLQLLLGGGVSAAALAGVGYLGLRFLLVVWWFTLFLLTTRPLDLLDALAWLLRPLRRLRVPVDELALLAGIALRFVPTLAAEARRIREAQEARGVRFGEGGLLARLRALLPLLVPLFLRAFEGALALALALEARGFGRAEERGRLRRLRPGRADLLLALAFLVFLLALLA-MGLLDRYNPEAPRTDPRLKLLLVLLFSFALFLTRDALQWLLLGAFTAFLLLRSRLPGRAYLRGLRPFLWLIPFLLLLQLLLGGGVSAAALAGVGYLGLRLLLVIWFSTLFLLTTRPLDLLDALAWLLRPLRRLRVPVDELALMAGIALRFVPTLAAELRAIREAQEARGVRFGEGGLLARLRALLPLLVPLFFRAFDGALRLALALEARGFGDPEARGELRRLRPGRADLLLLAGFLVFLLGLLL-MGLLDRYNPEAPREDPRLKLLLTLLFVFALFLTRDARQWLVLGAFTAFLLAASRLRGRDYLRGLRPFLWLIPFLLLLQLLLGGGVSAAALAGAGYLGLRLLLVIWWFTLLLLTTRPLDLLDALAWLLRPLRRLRVPVDELALLAGIALRFVPTLAAEARRIREAQEARGARFGEGGLLARLRALLPLLVPLFLRAFEGAWRLALALEARGFGRPEERGRLRRLRPGRWDLLLAAAFLVFLLALLL-MGLLDRYDPRAPREDPRLKLLLVLAFSFVLWLTRDAVQWLVLGAFTAFLLVRSRLPGRAYLRGLRPFLWLIPFLLLLQLLLGGGVSAAAVGGVGYLGLRLLLVIWFSTLFLLTTRPLDLLDALAWLLRPLRRLRVPVDELALLAGIALRFVPTLAAEARAIREAQEARGVRFGEGGLLARLRALLPLLVPLFLRAFEGAWRLALALEARGFGRPEERGELRRLRPGRWDLLLALAFLVALVALLL-MGLLDRPIPGAPRDDPRLKLLLVLLFSFALWLTRDAVQWLVLGAFTALLLAASRLPGRAYLRGLRPFLWLIPFLLLLQLLLGGGVSAAALLGAGRLGLRLLLVIWFSTLFALTTRPLDLLDALAWLLRPLRRLRVPVDELALLAGIALRFVPTLAAEARRIREAQEARGARFGEGGLLARLRALLPLLLPLLLSAFRGAAELALALEARGFGRAEARGRLRRLRPGRADLLLALAFLLFLLALLA-MGLLDRYIPGAPREDPRLKLLLTLLFVFALFLTRDAVQWLLLGAFLAFLLLSSRLGGRGYLRGLRPFLWLIPFLLLLQLLLGGGVSAAALGGVGYLGLRFLLVVWFSTLFLLTTRPLDLLDALAWLLRPLRRLRVPVDELALLAGIALRFVPTLAAEARRIREAQEARGVRFGEGGLLARLRALLPLLVPLFLRAFEGALVLALALEARGFGRPEERGRLRRLRPGRWDLLLLLGFLVFLLGLLL-MGLLDRYIPGAYREDPRVKLLLVLLFSFALFLTRDAVQWLLLGAFTLFLLLSSRLPGRAYLRGLRPFLWLIPFLLLLQLLLGGGVSAAAVLGVGYLGLRFLLVIWFSTLFLLTTRPLDLLDALERLLRPLRRLRVPVDELALLAGIALRFVPTLLEEARRIREAQEARGVRFGEGGLLARLRALLPLLVPLFLRAFEGAARLALALEARGFGRPEERGRLRRLRPGRADLLLLLAFLLFLLALLL,FGRYLPLDSVVHRLDPRAKLMLSFCYIIVVFLANNIWSYAILIAFTVGAILSSKISLGFFLKGIRPLLWLIVFTVVLQLLFSINVTQDGLINAGYIFVRFLLIIMMSTLLTLSTQPLDIATGLASLMKPLRWVKVPVDTLAMMLSIALRFVPTLMDEATKIMNAQRARGVDFGEGGLFKQAKSLIPLMVPLFMSAFNRAEDLSTAMEARGYQDSEHRSQYRILTWQRRDTVTWLLFLLGFVAILI-FGRYLPLDSVVHRLDPRAKLMLSFCYIIVVFLANNIWSYAILIAFTVGAILSSKISLGFFLKGIRPLLWLIVFTVVLQLLFSINVTQDGLINAGYIFVRFLLIIMMSTLLTLSTQPLDIATGLASLMKPLRWVKVPVDTLAMMLSIALRFVPTLMDEATKIMNAQRARGVDFGEGGLFKQAKSLIPLMVPLFMSAFNRAEDLSTAMEARGYQDSEHRSQYRILTWQRRDTVTWLLFLLGFVAILI-FGRYLPLDSVVHRLDPRAKLMLSFCYIIVVFLANNIWSYAILIAFTVGAILSSKISLGFFLKGIRPLLWLIVFTVVLQLLFSINVTQDGLINAGYIFVRFLLIIMMSTLLTLSTQPLDIATGLASLMKPLRWVKVPVDTLAMMLSIALRFVPTLMDEATKIMNAQRARGVDFGEGGLFKQAKSLIPLMVPLFMSAFNRAEDLSTAMEARGYQDSEHRSQYRILTWQRRDTVTWLLFLLGFVAILI-FGRYLPLDSVVHRLDPRAKLMLSFCYIIVVFLANNIWSYAILIAFTVGAILSSKISLGFFLKGIRPLLWLIVFTVVLQLLFSINVTQDGLINAGYIFVRFLLIIMMSTLLTLSTQPLDIATGLASLMKPLRWVKVPVDTLAMMLSIALRFVPTLMDEATKIMNAQRARGVDFGEGGLFKQAKSLIPLMVPLFMSAFNRAEDLSTAMEARGYQDSEHRSQYRILTWQRRDTVTWLLFLLGFVAILI-FGRYLPLDSVVHRLDPRAKLMLSFCYIIVVFLANNIWSYAILIAFTVGAILSSKISLGFFLKGIRPLLWLIVFTVVLQLLFSINVTQDGLINAGYIFVRFLLIIMMSTLLTLSTQPLDIATGLASLMKPLRWVKVPVDTLAMMLSIALRFVPTLMDEATKIMNAQRARGVDFGEGGLFKQAKSLIPLMVPLFMSAFNRAEDLSTAMEARGYQDSEHRSQYRILTWQRRDTVTWLLFLLGFVAILI-FGRYLPLDSVVHRLDPRAKLMLSFCYIIVVFLANNIWSYAILIAFTVGAILSSKISLGFFLKGIRPLLWLIVFTVVLQLLFSINVTQDGLINAGYIFVRFLLIIMMSTLLTLSTQPLDIATGLASLMKPLRWVKVPVDTLAMMLSIALRFVPTLMDEATKIMNAQRARGVDFGEGGLFKQAKSLIPLMVPLFMSAFNRAEDLSTAMEARGYQDSEHRSQYRILTWQRRDTVTWLLFLLGFVAILI-FGRYLPLDSVVHRLDPRAKLMLSFCYIIVVFLANNIWSYAILIAFTVGAILSSKISLGFFLKGIRPLLWLIVFTVVLQLLFSINVTQDGLINAGYIFVRFLLIIMMSTLLTLSTQPLDIATGLASLMKPLRWVKVPVDTLAMMLSIALRFVPTLMDEATKIMNAQRARGVDFGEGGLFKQAKSLIPLMVPLFMSAFNRAEDLSTAMEARGYQDSEHRSQYRILTWQRRDTVTWLLFLLGFVAILI-FGRYLPLDSVVHRLDPRAKLMLSFCYIIVVFLANNIWSYAILIAFTVGAILSSKISLGFFLKGIRPLLWLIVFTVVLQLLFSINVTQDGLINAGYIFVRFLLIIMMSTLLTLSTQPLDIATGLASLMKPLRWVKVPVDTLAMMLSIALRFVPTLMDEATKIMNAQRARGVDFGEGGLFKQAKSLIPLMVPLFMSAFNRAEDLSTAMEARGYQDSEHRSQYRILTWQRRDTVTWLLFLLGFVAILI-FGRYLPLDSVVHRLDPRAKLMLSFCYIIVVFLANNIWSYAILIAFTVGAILSSKISLGFFLKGIRPLLWLIVFTVVLQLLFSINVTQDGLINAGYIFVRFLLIIMMSTLLTLSTQPLDIATGLASLMKPLRWVKVPVDTLAMMLSIALRFVPTLMDEATKIMNAQRARGVDFGEGGLFKQAKSLIPLMVPLFMSAFNRAEDLSTAMEARGYQDSEHRSQYRILTWQRRDTVTWLLFLLGFVAILI-FGRYLPLDSVVHRLDPRAKLMLSFCYIIVVFLANNIWSYAILIAFTVGAILSSKISLGFFLKGIRPLLWLIVFTVVLQLLFSINVTQDGLINAGYIFVRFLLIIMMSTLLTLSTQPLDIATGLASLMKPLRWVKVPVDTLAMMLSIALRFVPTLMDEATKIMNAQRARGVDFGEGGLFKQAKSLIPLMVPLFMSAFNRAEDLSTAMEARGYQDSEHRSQYRILTWQRRDTVTWLLFLLGFVAILI,TVALGVLLAL-LVAAGVALAL-VVALGVLLAL-LVAAGVLLAL-TVALGVALAL-LVLAGVLLAL-VVALGVLLAL-LVAAGVALAL-LVLLGVLLAL-LVAAGVLLAL,MVTMGVLMAL-MVTMGVLMAL-MVTMGVLMAL-MVTMGVLMAL-MVTMGVLMAL-MVTMGVLMAL-MVTMGVLMAL-MVTMGVLMAL-MVTMGVLMAL-MVTMGVLMAL
