contacts,cs,ce,Chain,Length,designed_receptor_seq,native_receptor_seq,designed_binder_seq,native_binder_seq
20.0,64,74,A,10,GFVPDGTGDCGYRCLAFVNGATVTSSGCGPELYCDRDLAYQVFRRSPVFTVTTPGGRVCPNARYAIVCDEWHWYVERADGVGLCDDEACFRGVCDCTRRTGPPPRPVSAAELDEILRAATAGNVRVA-GFVPDGSGDCGYRCLAHVNGASVTSSGCSESLRCDRALAYQVFRRSPVFTVTLPGGRVCPNARYAVVCDENHWSVQVADGVGLCRDVLCYDGICDCTQESGPPPEPVSAADLDEILRAATFGRVRVS-GYRPDGTGDCGYRCLAYVNGATVASSGTGPELYCDRDLAYEVFKRSPVFTVTVPGGRVCPNARYAIVCDADHWRVEEASGVGLCRDILCFDGICSCEREDGAPPAPVSADSLDRILRHATFGNVRVE-GFVPPGDGACGYRCLAFVNGATVTSDGCSEELWCDRDLAYRVFERSPVFTVTVPGGAVCPNARYAIVCDRDHWYVERADGVGLCADVRCFDGICDCERREGPPPDPVSAEDLDAILREATDGNVRVD-GFRPPGDGACGYRCLAFVNGARVRSRGCGPALRCDRDLAYEVFRRAPVFTVTRPGGAVCPNARYAIVCDRDHWHVERASGVGLCRDEACFRGVCGCTREEGPPPRPVPAAVLHELLREATFGRVQVE-GFVPDGTGDCGYRCLAYVNGATVTSGGCSSSLWCDRRLAYEVFRRSPVFTVTVPGGRVCPNAAYAIVNDNEHWRVERADGVGLCRDEACFDGICGCTRQAGPPPRPVPADELDALLREATFGAVRVD-GFVPDGTGDCGYRCLAHVNGARVVSAGTGPDLWCDRLLAYEVFRRSPVFTVTTPGGRVCPNARYAVVCDDDHWRVEEADGVGLCRDAYCFYGVCECERRDGAPPAPVSASELDRILREATYGNVRVE-GFRPPGDGACGYRCLAFVNGATVESQGCSPALYCDREMAYRVFERSPVFTVTVPGGAVCPNARFAVVCDDFHWRVERADGVGLCKDIACFDGICTCERLDGEPPRPVSADELDELLRAATFGNVRVA-GYRPDGSGDCGYRCLAFVNGATVRSSGCGPELWCDRHLAFRVFERSPVFTVTIPGGRVCPNARYAVVCDADHWRVERADGVGLCRDVFCFHGICDCERRSGPPPAPVSREELDRLLFEATRGNVRVE-GFVPDGTGDCGYRCLAFVNGATVESAGCSPRLHCDDALAYEVFRRSPVFTVTTPGGRTCPNARYALVNDRDHWYVERAGGVGLCRDIDCFRGICDCSREEGPPPPPVSADELDRILYAATWGNVRVR,GYNPPGDGACGYRCLAFMNGATVVSAGCSSDLWCDDELAYRVFQLSPTFTVTIPGGRVCPNAKYAMICDKQHWRVKRAKGVGLCLDESCFRGICNCQRMSGPPPAPVSAAVLDHILEAATFGNVRVV-GYNPPGDGACGYRCLAFMNGATVVSAGCSSDLWCDDELAYRVFQLSPTFTVTIPGGRVCPNAKYAMICDKQHWRVKRAKGVGLCLDESCFRGICNCQRMSGPPPAPVSAAVLDHILEAATFGNVRVV-GYNPPGDGACGYRCLAFMNGATVVSAGCSSDLWCDDELAYRVFQLSPTFTVTIPGGRVCPNAKYAMICDKQHWRVKRAKGVGLCLDESCFRGICNCQRMSGPPPAPVSAAVLDHILEAATFGNVRVV-GYNPPGDGACGYRCLAFMNGATVVSAGCSSDLWCDDELAYRVFQLSPTFTVTIPGGRVCPNAKYAMICDKQHWRVKRAKGVGLCLDESCFRGICNCQRMSGPPPAPVSAAVLDHILEAATFGNVRVV-GYNPPGDGACGYRCLAFMNGATVVSAGCSSDLWCDDELAYRVFQLSPTFTVTIPGGRVCPNAKYAMICDKQHWRVKRAKGVGLCLDESCFRGICNCQRMSGPPPAPVSAAVLDHILEAATFGNVRVV-GYNPPGDGACGYRCLAFMNGATVVSAGCSSDLWCDDELAYRVFQLSPTFTVTIPGGRVCPNAKYAMICDKQHWRVKRAKGVGLCLDESCFRGICNCQRMSGPPPAPVSAAVLDHILEAATFGNVRVV-GYNPPGDGACGYRCLAFMNGATVVSAGCSSDLWCDDELAYRVFQLSPTFTVTIPGGRVCPNAKYAMICDKQHWRVKRAKGVGLCLDESCFRGICNCQRMSGPPPAPVSAAVLDHILEAATFGNVRVV-GYNPPGDGACGYRCLAFMNGATVVSAGCSSDLWCDDELAYRVFQLSPTFTVTIPGGRVCPNAKYAMICDKQHWRVKRAKGVGLCLDESCFRGICNCQRMSGPPPAPVSAAVLDHILEAATFGNVRVV-GYNPPGDGACGYRCLAFMNGATVVSAGCSSDLWCDDELAYRVFQLSPTFTVTIPGGRVCPNAKYAMICDKQHWRVKRAKGVGLCLDESCFRGICNCQRMSGPPPAPVSAAVLDHILEAATFGNVRVV-GYNPPGDGACGYRCLAFMNGATVVSAGCSSDLWCDDELAYRVFQLSPTFTVTIPGGRVCPNAKYAMICDKQHWRVKRAKGVGLCLDESCFRGICNCQRMSGPPPAPVSAAVLDHILEAATFGNVRVV,GTFHVTYHLP-GTAALTHHLG-GTLKVVYHLG-GVRHVVRHLR-GRRVVTYRLG-GRAHVVRYLG-GRAVVVYDLP-GRHALVRYLA-GLARVVYDLP-GRVRVTHYLG,STLHLVLRLR-STLHLVLRLR-STLHLVLRLR-STLHLVLRLR-STLHLVLRLR-STLHLVLRLR-STLHLVLRLR-STLHLVLRLR-STLHLVLRLR-STLHLVLRLR
10.0,27,37,B,10,MQIFVKTLTGKTITLEVEPSDTIENVKAKIQDKEGIPPDQQRLIFAGKQLEDGRTLSDYNIQKESTLHLVLRLRG-GSIFVKTLTGKTITLEVEPSDTIENVKAKIQDKEGIPPDQQRLIFAGKQLEDGRTLSDYNIQKESTLHLVLRLRG-GKIFVKTLTGKTITLEVEPSDTIDNVKAKIQDKEGIPPDQQRLIFAGKQLEDGRTLSDYNIQKESTLHLVLRLRG-GKIFVKTLTGKTITLEVEPSDTIENVKAKIQDKEGIPPDQQRLIFAGKQLEDGRTLSDYNIQKESTLHLVLRLRG-GRIFVKTLTGKTITLEVEPSDTIDNVKAKIQDKEGIPPDQQRLIFAGKQLEDGRTLSDYNIQKESTLHLVLRLRG-MQIFVKTLTGKTITLEVEPSDTIENVKAKIQDKEGIPPDQQRLIFAGKQLEDGRTLSDYNIQKESTLHLVLRLRG-HKIFVKTLTGKTITLEVEPSDTIDNVKAKIQDKEGIPPDQQRLIFAGKQLEDGRTLSDYNIQKESTLHLVLRLRG-GKIFVKTLTGKTITLEVEPSDTIDNVKAKIQDKEGIPPDQQRLIFAGKQLEDGRTLSDYNIQKESTLHLVLRLRG-AMIFVKTLTGKTITLEVEPSDTIDNVKAKIQDKEGIPPDQQRLIFAGKQLEDGRTLSDYNIQKESTLHLVLRLRG-GSIFVKTLTGKTITLEVEPSDTIENVKAKIQDKEGIPPDQQRLIFAGKQLEDGRTLSDYNIQKESTLHLVLRLRG,MQIFVKTLTGKTITLEVEPSDTIENVKAKIQDKEGIPPDQQRLIFAGKQLEDGRTLSDYNIQKESTLHLVLRLRG-MQIFVKTLTGKTITLEVEPSDTIENVKAKIQDKEGIPPDQQRLIFAGKQLEDGRTLSDYNIQKESTLHLVLRLRG-MQIFVKTLTGKTITLEVEPSDTIENVKAKIQDKEGIPPDQQRLIFAGKQLEDGRTLSDYNIQKESTLHLVLRLRG-MQIFVKTLTGKTITLEVEPSDTIENVKAKIQDKEGIPPDQQRLIFAGKQLEDGRTLSDYNIQKESTLHLVLRLRG-MQIFVKTLTGKTITLEVEPSDTIENVKAKIQDKEGIPPDQQRLIFAGKQLEDGRTLSDYNIQKESTLHLVLRLRG-MQIFVKTLTGKTITLEVEPSDTIENVKAKIQDKEGIPPDQQRLIFAGKQLEDGRTLSDYNIQKESTLHLVLRLRG-MQIFVKTLTGKTITLEVEPSDTIENVKAKIQDKEGIPPDQQRLIFAGKQLEDGRTLSDYNIQKESTLHLVLRLRG-MQIFVKTLTGKTITLEVEPSDTIENVKAKIQDKEGIPPDQQRLIFAGKQLEDGRTLSDYNIQKESTLHLVLRLRG-MQIFVKTLTGKTITLEVEPSDTIENVKAKIQDKEGIPPDQQRLIFAGKQLEDGRTLSDYNIQKESTLHLVLRLRG-MQIFVKTLTGKTITLEVEPSDTIENVKAKIQDKEGIPPDQQRLIFAGKQLEDGRTLSDYNIQKESTLHLVLRLRG,GKTITLEGSS-GKTITLEGSE-GKTITLEGSK-GKTITLEGSE-GKTITLEGSK-GKTITLEGSK-GKTITLDVTL-GKTITLETSL-GKTITLETSD-GKTITLDCTK,CSSDLWCDDE-CSSDLWCDDE-CSSDLWCDDE-CSSDLWCDDE-CSSDLWCDDE-CSSDLWCDDE-CSSDLWCDDE-CSSDLWCDDE-CSSDLWCDDE-CSSDLWCDDE
