contacts,cs,ce,Chain,Length,designed_receptor_seq,native_receptor_seq,designed_binder_seq,native_binder_seq
25.0,90,100,A,10,MSVTLRSSDGFDFTVAKTCALKSETLRTMFTGPGVTKENEEQEVKLQDVPSHVLQVVCGYFKHKMDFNETDVNTPEFPVLPEVVLELIIAANKLDT-KHVVLRSKDGFDFRVHEVFAFISGTLRDMFTGPGNFEEGAPKEYIFEDIPSYVLQRVCEYFYYTVTFDAESDKEPDFPLEPEIILSLLRAASFLDV-SDVMITSSDGHVFTVHKEFALISGTILDMLTGPGQFAENTIKKVTLHDIPSHVLSTVCGYFEFYSTRDNDSSEEPNFPIDPEICLDLQRAAKFLDM-ANIVLRSSDGFDFEAHRNCALESETIKHMLAGPGAFKDGETMCVTFEDVPSHVLEKLVGYCRYHMDRDDTDADDPSFPVETQVTLELLRAANWFNC-QEARLVSSDGFTFIVKISYALISGTFRDMLEGPGAFQDDEEKEIVLSDVPSYVLATVCGYFCHTDTYDDSDEEEPSFPIDPKIVLDLLLAAHFLES-HTIILRSSDGYDFTVLEQAACLSGTLRDMMEGPGVFADDQPKTVKLDDVPSHVLRRVCGLFWHIQSWDENKEVVPSFPIEEKIRLQLSRAAEMLKI-ASVVLRSSDGVDFTVKLQHALVSGTLRDMLEGPGSFTERQEAVVELRDVPSHVLAFVCGYFVHYKTYKTDQTQRPLFPLKPEIPAEFERAALLLRV-NKAILKSSDGFEFQVLKEYLLISQFLEEALKGPGKFAKDQPAQYVFTDIPSHILCVVCGYMKYHAEYSAKTEERPCFPIDDDIPLELIRAANKLQI-MSVILKSSDGHKFEIHECQALISGTIRTMLEGPGAFSDEEEKEVVFEDTPSYVLETVCGYFVFHAKLNFISEDVPQFPVARKVPLELLTCMSALDC-KAVTLRSSDGHDFEVAKHFALVSGTLRTMLSGPGQFAEGEAESVFLQDIPSYVLATVVSLCYYLDNFDLDDDEAPLFPLDDCVVGELMLAANYLDI,MYVKLISSDGHEFIVKREHALTSGTIKAMLSGPGQFAENETNEVNFREIPSHVLSKVCMYFTYKVRYTNSSTEIPEFPIAPEIPLELLMAANFLDC-MYVKLISSDGHEFIVKREHALTSGTIKAMLSGPGQFAENETNEVNFREIPSHVLSKVCMYFTYKVRYTNSSTEIPEFPIAPEIPLELLMAANFLDC-MYVKLISSDGHEFIVKREHALTSGTIKAMLSGPGQFAENETNEVNFREIPSHVLSKVCMYFTYKVRYTNSSTEIPEFPIAPEIPLELLMAANFLDC-MYVKLISSDGHEFIVKREHALTSGTIKAMLSGPGQFAENETNEVNFREIPSHVLSKVCMYFTYKVRYTNSSTEIPEFPIAPEIPLELLMAANFLDC-MYVKLISSDGHEFIVKREHALTSGTIKAMLSGPGQFAENETNEVNFREIPSHVLSKVCMYFTYKVRYTNSSTEIPEFPIAPEIPLELLMAANFLDC-MYVKLISSDGHEFIVKREHALTSGTIKAMLSGPGQFAENETNEVNFREIPSHVLSKVCMYFTYKVRYTNSSTEIPEFPIAPEIPLELLMAANFLDC-MYVKLISSDGHEFIVKREHALTSGTIKAMLSGPGQFAENETNEVNFREIPSHVLSKVCMYFTYKVRYTNSSTEIPEFPIAPEIPLELLMAANFLDC-MYVKLISSDGHEFIVKREHALTSGTIKAMLSGPGQFAENETNEVNFREIPSHVLSKVCMYFTYKVRYTNSSTEIPEFPIAPEIPLELLMAANFLDC-MYVKLISSDGHEFIVKREHALTSGTIKAMLSGPGQFAENETNEVNFREIPSHVLSKVCMYFTYKVRYTNSSTEIPEFPIAPEIPLELLMAANFLDC-MYVKLISSDGHEFIVKREHALTSGTIKAMLSGPGQFAENETNEVNFREIPSHVLSKVCMYFTYKVRYTNSSTEIPEFPIAPEIPLELLMAANFLDC,KPLESPPKLP-APLTKPPELP-NPLAKPPERP-SPLKEPPRLP-KPLLDPPEYP-EPDAAPPAFP-VPLSAPPSLP-NPLAAPPALP-EPLAEPPAEP-KPLKEPPMYP,EPFSSPPELP-EPFSSPPELP-EPFSSPPELP-EPFSSPPELP-EPFSSPPELP-EPFSSPPELP-EPFSSPPELP-EPFSSPPELP-EPFSSPPELP-EPFSSPPELP
20.0,6,16,B,10,PMVFLRVASERVALLTHMEITATVEELKQVVMGEFNVPPHKQQLFLSKMRCDDGLSLGQNGFTESNCVPSNPCQVGLSLMSNKRFYTLQQTPLKEPPHVPDELR-SKVFLSIRSQSETLLTSMFVTSTILELKEEYKGKFNREPNNQRLFHKSKKLINGDTLGECGFTEQNCLPQDPSLVGLSFKNDVSFTELVETAYRSFPKTPKALK-GQVWLLVRDLRDYLLTSMSATSTVLELKQVVQGTTDAPPQSQQLWMMDQQLVNGNTLGQCGFTGDNSTPENPSTVGLAFLNGTHFDILQVTPSKRPPATPSWAQ-MYVYLRVQNHNWSLYTRMMAHATVQALKLQVQGLFETKPENQELYRRDLLLQDGATLGEVGFTGHNATPSEPSVVGLAVRGVARFFVLEVTPAVIPPVLPDVLQ-PNVYLQVVWSKNKLYTEMFVSSTVYELKLVIDGILDVPPFMQQLYRRETLLVDGKTLGETGLTGDNCVPSAPCIIGLAFKDGSSYLSLQINPLSSPPLTPKEDI-SMTHLCIVDRRKRLYTEMAASSTVQQLKNVIQGKFDVYPHQQRLYHQKAILTDGDSLQDCGLTYSNCVPDNPAVIGLALRDMSVYADMAMAPPELPPQCPASRT-SMVYLLIRSRWDRLLTEMLERDTVFQLKCVIQGAFQRDPRDQRLYHENQVLDDGKTLGEAGFTGLNSTPQQPAVVGLATKDGATFHKLVVSPYRLPPATPVQFQ-LLVYLSVQDRSRTLYTAMKELSTVLQLKELVQGKFDVLPNEQRLFHDQIELDNGWTLGQCGFTTDTSTPSDPSIVGLAQKNGDTFEELQVSPWTEPPERPLSER-PLVWLCIEWSRHYLLTQAQEQSTVDALKHLVQGVFLVPPDNQRLYAYNAELENGATLGEKGFTGDSSTPQAPSTVGLAMKNALCFYEYKVDPLRQPPLCPRMMR-PRVFLRLAWDSLTLLTHMAADSTVLQLKHLLQGVFNRPPDKQQLFRENIKLDDGKTLGEVGLTEENSVPTAPLLVGLAFKNGKDYEELKITPLVEPPEVPEKKR,MDVFLMIRRHKTTIFTDAKESSTVFELKRIVEGILKRPPEEQRLYKDDQLLDDGKTLGECGFTSQTARPQAPATVGLAFRADDTFEALRIEPFSSPPELPDVMK-MDVFLMIRRHKTTIFTDAKESSTVFELKRIVEGILKRPPEEQRLYKDDQLLDDGKTLGECGFTSQTARPQAPATVGLAFRADDTFEALRIEPFSSPPELPDVMK-MDVFLMIRRHKTTIFTDAKESSTVFELKRIVEGILKRPPEEQRLYKDDQLLDDGKTLGECGFTSQTARPQAPATVGLAFRADDTFEALRIEPFSSPPELPDVMK-MDVFLMIRRHKTTIFTDAKESSTVFELKRIVEGILKRPPEEQRLYKDDQLLDDGKTLGECGFTSQTARPQAPATVGLAFRADDTFEALRIEPFSSPPELPDVMK-MDVFLMIRRHKTTIFTDAKESSTVFELKRIVEGILKRPPEEQRLYKDDQLLDDGKTLGECGFTSQTARPQAPATVGLAFRADDTFEALRIEPFSSPPELPDVMK-MDVFLMIRRHKTTIFTDAKESSTVFELKRIVEGILKRPPEEQRLYKDDQLLDDGKTLGECGFTSQTARPQAPATVGLAFRADDTFEALRIEPFSSPPELPDVMK-MDVFLMIRRHKTTIFTDAKESSTVFELKRIVEGILKRPPEEQRLYKDDQLLDDGKTLGECGFTSQTARPQAPATVGLAFRADDTFEALRIEPFSSPPELPDVMK-MDVFLMIRRHKTTIFTDAKESSTVFELKRIVEGILKRPPEEQRLYKDDQLLDDGKTLGECGFTSQTARPQAPATVGLAFRADDTFEALRIEPFSSPPELPDVMK-MDVFLMIRRHKTTIFTDAKESSTVFELKRIVEGILKRPPEEQRLYKDDQLLDDGKTLGECGFTSQTARPQAPATVGLAFRADDTFEALRIEPFSSPPELPDVMK-MDVFLMIRRHKTTIFTDAKESSTVFELKRIVEGILKRPPEEQRLYKDDQLLDDGKTLGECGFTSQTARPQAPATVGLAFRADDTFEALRIEPFSSPPELPDVMK,DHFGVAVVTP-DVFGHKVITP-DVYGFRTIEP-DSFGHQWITP-NENGHAVMVP-TRFGHQVLTP-DEHGDLTHYG-DYFGFSFIFP-GEDGFMFWRP-DEHGMLYLVP,SSDGHEFIVK-SSDGHEFIVK-SSDGHEFIVK-SSDGHEFIVK-SSDGHEFIVK-SSDGHEFIVK-SSDGHEFIVK-SSDGHEFIVK-SSDGHEFIVK-SSDGHEFIVK
