contacts,cs,ce,Chain,Length,designed_receptor_seq,native_receptor_seq,designed_binder_seq,native_binder_seq
10.0,33,43,A,10,GSSGSSGWDVEIIDENGNIDGDEDEILGSELVFLVNADDGTSFGRGDAIIMYNSDTRAFNVYLVHSIVLNSEKSEVKIRVFRFLQWFELDPLSFYRQFYPDLVSRNLPEEELLELYAENVNKNQLYLTSYLTSVDLKDFVDIGRILPAEVWEDEEIEKEASIHFLCRYATTPDASKFVPIDVFKIQSLVKKLRPEVSYEFIKSVTQPDEEG-EIDDLAGWKVEIFDENGKKGGSLLSIGGGKKVALVHEKNGIRFTRGDCIRMFNGETNSFSTYLVHEIVLNTQNRKVDIRVFKFLDWNELNPQRFFKEFAPEFVEADLPEDFFKQVYEENINKNELFLTYKRTTISLKNFIDIGEILPEEVWKDETIEKEADKHFLCRYACTPEANNFVPIDVFKIQKCIQELKPELSGRLIELITKPEVKG-PKKDLEGWEVVIKDRKGKIGGTKTAEVGSDEVFLRHKDNGMEFGKGDAIIMYCGKTNSYHVYLVHEIKTDTKEKTVEIRVFKFLKYDELKPKTFFKQFHPDFVKKELPDEFFEELYKSSVNKNELFLTSQLTTISLKNFVDIGKILPAEEWKNEAITKEENKHFLCRYATTPSANKFVPINVFEIISKVRTLAPFESYYYIKTITRPVDTG-ARDDLKGWKVVEYDEEGKRGGKLTERKGGSKVVLRNKDNGLEFGRGEAIIMWDNEVEDFSVYLVQDIVLNTKDSDVEIRVFKFLKAHELDPIRFYQEFYPELVEANLPESVLKEIYSSSFKKNELYLTYKLTTVKLSNFIDIGELVPEEEWNDEEIEKEENFHFLCRYATDPQARNFVPIDIFEVIKKVKNLDPITSGLYIRTVTDPLKLG-MSLDLLGWRVEVTSRQGVVGGKLSDIIGSEEVFLVNDEDGTSFGKGDAIIMLNNETRQYKVYLVHEIILNSKDKSVEIRVFKFLQWFEQNPLEFYKQFYPALVKANLPEEFLRELYESSINKQELYLTSELTTISLHNFLDIGRILPEESWKSESIEKIADFDFLVKYASDPQARQFVPIDVFDIITKIRTMSPLESYLYIKEVTTPIIEG-PKHDLKGWRVEIYDENGKKGGNLFSKSGGKHVRLVHEDDGTSFGKGDAIIMWDNETQTNRVYLVQEIELNTDSRAVNIRVFKFLEWFELDPLEYYKQFAPELYERNLPDAYFQEVYDKSFNRQELYLTSKLTTISLNNFVDVGKILPVEEWEDEEIEKEEDIHFLVRYASTPSAKKFKPIDVFKIISKIQNLSPKISGRFIKTVTVPKIDG-PRDDLLGWDVVVKDSRGHEGGEGDDEEGGFEVYLKERSTGLSFGQGDAIIMKDDELETYRVYLVHSIVLNTRDSAVEIRVFRFLKWFELDPLSWFKQFHPEKVELELPEEEFYELYEKEINKNQLYLTAKLTSVKLSNFVDVGRILPEEEWKNKDVEKVADVDFLCRYATTPEAKEFVPIDVFEIIRHVRTLSPVESGVLIRELSKPVKIG-GSADLVGWRVEITDENGRYGGDDSDEIGSLHVRLVHEENGQAFGKGDVIIMWDEETQSYRVYLVHEIVLNTKDKAVRIRVFRFLSYYELDPLTYFKQFDPELVKANLPKEVLEEVYLRTVNKQQLYLTSKLTEISLKNFVDIGVILPEEEWKDKSVEKTKDVHFLCRYMSTPSAKNFVPINVFEIIEKIQTLKPIESYRYIQEISKPIDEG-PKADLEGWEVRVYNRRGALEGNGDEEIGEYCVELVHSANGEAFSRGDAVIFYDDSTKSCSVYLVHSIERNTEDRAVEIRVFRFLQWFELNPLEYYRQFDPEFITANAPAEFFEKLYEQNIDRNELFLTSKLTTVKLSDFVDVGRILPATAFADESIEKERDVHWLCRFATTPEALRFVPIDVFEIISNIKSLSPEISGIYLESVSRPDDDG-MKKDLEGWKVIIKDNKENVGGKAEEEKGGYEVFLVNEENGLAFGRGDAIVMWDDSVLKEKVYLVQEIVLNTENKDVEIRVFRFLEWFELDPKKYFEQFDPELVKKKLPEEFLEKLYKENILKNELYLTAKLTSVKLSNFVDIGKILPEEVWNDKNIDKKENIHFLCKYATTPSADKFVPIDFFEIQKKVRELKPEESYEYIKEVTKPKHKG,TLKDLDGWQVIITDDQGRVIRRRSRKRGGENVFLKRISDGLSFGKGESVIFNDNVTETYSVYLIHEIRLNTLNNVVEIWVFSYLRWFELKPKLYYEQFRPDLIKEDHPLEFYKDKFFNEVNKSELYLTAELSEIWLKDFIAVGQILPESQWNDSSIDKIEDRDFLVRYACEPTAEKFVPIDIFQIIRRVKEMEPKQSNEYLKRVSVPVSGQ-TLKDLDGWQVIITDDQGRVIRRRSRKRGGENVFLKRISDGLSFGKGESVIFNDNVTETYSVYLIHEIRLNTLNNVVEIWVFSYLRWFELKPKLYYEQFRPDLIKEDHPLEFYKDKFFNEVNKSELYLTAELSEIWLKDFIAVGQILPESQWNDSSIDKIEDRDFLVRYACEPTAEKFVPIDIFQIIRRVKEMEPKQSNEYLKRVSVPVSGQ-TLKDLDGWQVIITDDQGRVIRRRSRKRGGENVFLKRISDGLSFGKGESVIFNDNVTETYSVYLIHEIRLNTLNNVVEIWVFSYLRWFELKPKLYYEQFRPDLIKEDHPLEFYKDKFFNEVNKSELYLTAELSEIWLKDFIAVGQILPESQWNDSSIDKIEDRDFLVRYACEPTAEKFVPIDIFQIIRRVKEMEPKQSNEYLKRVSVPVSGQ-TLKDLDGWQVIITDDQGRVIRRRSRKRGGENVFLKRISDGLSFGKGESVIFNDNVTETYSVYLIHEIRLNTLNNVVEIWVFSYLRWFELKPKLYYEQFRPDLIKEDHPLEFYKDKFFNEVNKSELYLTAELSEIWLKDFIAVGQILPESQWNDSSIDKIEDRDFLVRYACEPTAEKFVPIDIFQIIRRVKEMEPKQSNEYLKRVSVPVSGQ-TLKDLDGWQVIITDDQGRVIRRRSRKRGGENVFLKRISDGLSFGKGESVIFNDNVTETYSVYLIHEIRLNTLNNVVEIWVFSYLRWFELKPKLYYEQFRPDLIKEDHPLEFYKDKFFNEVNKSELYLTAELSEIWLKDFIAVGQILPESQWNDSSIDKIEDRDFLVRYACEPTAEKFVPIDIFQIIRRVKEMEPKQSNEYLKRVSVPVSGQ-TLKDLDGWQVIITDDQGRVIRRRSRKRGGENVFLKRISDGLSFGKGESVIFNDNVTETYSVYLIHEIRLNTLNNVVEIWVFSYLRWFELKPKLYYEQFRPDLIKEDHPLEFYKDKFFNEVNKSELYLTAELSEIWLKDFIAVGQILPESQWNDSSIDKIEDRDFLVRYACEPTAEKFVPIDIFQIIRRVKEMEPKQSNEYLKRVSVPVSGQ-TLKDLDGWQVIITDDQGRVIRRRSRKRGGENVFLKRISDGLSFGKGESVIFNDNVTETYSVYLIHEIRLNTLNNVVEIWVFSYLRWFELKPKLYYEQFRPDLIKEDHPLEFYKDKFFNEVNKSELYLTAELSEIWLKDFIAVGQILPESQWNDSSIDKIEDRDFLVRYACEPTAEKFVPIDIFQIIRRVKEMEPKQSNEYLKRVSVPVSGQ-TLKDLDGWQVIITDDQGRVIRRRSRKRGGENVFLKRISDGLSFGKGESVIFNDNVTETYSVYLIHEIRLNTLNNVVEIWVFSYLRWFELKPKLYYEQFRPDLIKEDHPLEFYKDKFFNEVNKSELYLTAELSEIWLKDFIAVGQILPESQWNDSSIDKIEDRDFLVRYACEPTAEKFVPIDIFQIIRRVKEMEPKQSNEYLKRVSVPVSGQ-TLKDLDGWQVIITDDQGRVIRRRSRKRGGENVFLKRISDGLSFGKGESVIFNDNVTETYSVYLIHEIRLNTLNNVVEIWVFSYLRWFELKPKLYYEQFRPDLIKEDHPLEFYKDKFFNEVNKSELYLTAELSEIWLKDFIAVGQILPESQWNDSSIDKIEDRDFLVRYACEPTAEKFVPIDIFQIIRRVKEMEPKQSNEYLKRVSVPVSGQ-TLKDLDGWQVIITDDQGRVIRRRSRKRGGENVFLKRISDGLSFGKGESVIFNDNVTETYSVYLIHEIRLNTLNNVVEIWVFSYLRWFELKPKLYYEQFRPDLIKEDHPLEFYKDKFFNEVNKSELYLTAELSEIWLKDFIAVGQILPESQWNDSSIDKIEDRDFLVRYACEPTAEKFVPIDIFQIIRRVKEMEPKQSNEYLKRVSVPVSGQ,EELEELISVE-EEEEEEEEVE-TFKELLRIVD-RLFELIVKTK-KGINTLREVK-RFEELFKSTE-KAKSLLEKVE-REEELLEKTE-HLEALLIETD-KKKKKLVKVE,REIAQDFKTD-REIAQDFKTD-REIAQDFKTD-REIAQDFKTD-REIAQDFKTD-REIAQDFKTD-REIAQDFKTD-REIAQDFKTD-REIAQDFKTD-REIAQDFKTD
7.0,123,133,B,10,GSHMPGGVAKAIKLFKEETAKLLFAVAPFQRLVREIARDVKKDLRFQSSAIGALQEACEAYLVGLTQDANLCARHNKRKTVIARDVQLARRIGGRP-MTEKPGGIAKKALQKIQKSDKLLFAKAPFQRLVREISRDVKKDVRFSSQAIGALQEAGEAYLVALFEDAALCARHAKRKRIITRDIQLARRIGGRK-GSHMPGGVAKAIQKYAAKTSDLLLRKQPFQRLLRQIAKDVKKNLRFSGQAIGALQEAVEAYLVSLLEDANLCARHNKRTTIIARDIQLSRRIGGRT-GSHMPGGIKKAIQQFAKKTTRLLFAKLPFQRLVREIAKDVKKDSGISAKALGALQEASEAYLVGLFEDANLCARHAKRKRIIARDLQLARRIRGER-MAKAPGGRAKRLLQKIRKSNELLLAKLPFQRLLREIARDVKKDSGFSAQALGALQEAVEAFLVSLFEDANLCARHAKRKTVIARDVQLAKRIGGRP-GSHMPGGIAKYAKQTLKKAKVLLFPKLPFQRLIREIARDSLKDLRFQAAAIGALQEACEAYLVGLLEDANLCARHNKRVRILTRDVQIARRIGGRP-GSHMPGGIKKAIKKFTKESDELLLKKAPFQRLVREISRDVKKDCGFASRAIGALQEACEAYLVGLLEDANLCARHAKRKTILTRDVQLARRIGGRP-GSHMPGGIAKAIKLFKEETEELLFPKLPIQRLVREIAKDVKKDAGFTGAAIGALQEACEAYLVGLLEDANLCARHAKRKTINARDVQLARRIGGRP-MSKAPGGKAKRQLLQFQKSDELLLAKAPFQRLLREIAQDVKKDVRFSGRAVGALQEACEAYLVALIEAASRVARDNKRKTIMARDIQLARRIGGRT-GAMSPGGVAKLAQQAFAKADKLLLKKLPFQKLLREIARDAKKNLRFSSRAVGALQEACEAFLVELLERANLAARDNKRVRIASRDIQLARRIGGRP,HRYKPGTVALREIRRFQKSTELLIRKLPFQRLVREIAQDFKTDLRFQSSAIGALQESVEAYLVSLFEDTNLAAIHAKRVTIQKKDIKLARRLRGER-HRYKPGTVALREIRRFQKSTELLIRKLPFQRLVREIAQDFKTDLRFQSSAIGALQESVEAYLVSLFEDTNLAAIHAKRVTIQKKDIKLARRLRGER-HRYKPGTVALREIRRFQKSTELLIRKLPFQRLVREIAQDFKTDLRFQSSAIGALQESVEAYLVSLFEDTNLAAIHAKRVTIQKKDIKLARRLRGER-HRYKPGTVALREIRRFQKSTELLIRKLPFQRLVREIAQDFKTDLRFQSSAIGALQESVEAYLVSLFEDTNLAAIHAKRVTIQKKDIKLARRLRGER-HRYKPGTVALREIRRFQKSTELLIRKLPFQRLVREIAQDFKTDLRFQSSAIGALQESVEAYLVSLFEDTNLAAIHAKRVTIQKKDIKLARRLRGER-HRYKPGTVALREIRRFQKSTELLIRKLPFQRLVREIAQDFKTDLRFQSSAIGALQESVEAYLVSLFEDTNLAAIHAKRVTIQKKDIKLARRLRGER-HRYKPGTVALREIRRFQKSTELLIRKLPFQRLVREIAQDFKTDLRFQSSAIGALQESVEAYLVSLFEDTNLAAIHAKRVTIQKKDIKLARRLRGER-HRYKPGTVALREIRRFQKSTELLIRKLPFQRLVREIAQDFKTDLRFQSSAIGALQESVEAYLVSLFEDTNLAAIHAKRVTIQKKDIKLARRLRGER-HRYKPGTVALREIRRFQKSTELLIRKLPFQRLVREIAQDFKTDLRFQSSAIGALQESVEAYLVSLFEDTNLAAIHAKRVTIQKKDIKLARRLRGER-HRYKPGTVALREIRRFQKSTELLIRKLPFQRLVREIAQDFKTDLRFQSSAIGALQESVEAYLVSLFEDTNLAAIHAKRVTIQKKDIKLARRLRGER,VPKVVKAKKK-VPEKTEKEKK-GPKLTQSLSG-VPEDLDVETE-VPAKTEEKAE-RPLREDDKDN-IPDVDLEEEE-VPKAVVKEGG-QPVDDLYKKG-VPKKTEEIEA,ELYLTAELSE-ELYLTAELSE-ELYLTAELSE-ELYLTAELSE-ELYLTAELSE-ELYLTAELSE-ELYLTAELSE-ELYLTAELSE-ELYLTAELSE-ELYLTAELSE
