contacts,cs,ce,Chain,Length,designed_receptor_seq,native_receptor_seq,designed_binder_seq,native_binder_seq
31.0,64,74,A,10,VSKVRARTEGGLPLRTIRFPRKMAEIFLQEVRPQVIRNLETCGILAGNLIDNEYLVTDLIIPPHRATADSTGTTDVDAMFELLSSTRKLILGWIHTHPSAPCFLSSIGRRNHCYHQILNREAVCIIQAPSQKRNGIFQLLQPTGLQKVILDRKLGSYHPLQGRIYQEVDTPGHVSLVESYLKVRDLRDE-SNAVHAHTEGGQPLRTILLPRSLIDVFLHEVAPEVTANLETGAILAGRLEKDEYRVTDLVIPHQTSTAYWTGTTAQEELAALLDERDLLLLGWIHTHPLAECFLSSVGMRNHCYYQLAMPEAIAIVTAPSKQEFGVFQLLQPSGIGEVLADWTEGFFHPFKGQVYRLVDTPGHVTFESLDLRVVDLRTE-ESLVNAYTEGGDPLSTIFLPNNLRDVFLQEVQPDIDALLETGGVLAGKLIDNSYYITTLVIPEQTSTHVFTGTTDVEKMADILESRNELVLGRIHTHPLGPCYMTSVGKRDHMYFQLLLREAVLIVCAPSQNEDGTFMLLDPDGIGKIIQDEKNGLRHPFAGKIYKAVESPGHVEEIDSELVVIDLRDQ-ANAVYSYTEGGSPLRKIFLPNKLRYVFLEEVQPYIEKDLECGGILCGMNIENSYYVTDLVIPRQFSTAYWMGTTNTAELKALLESRNLLVLGAIHTHPRADCYLSGVGIRTHQKYQQALREAVMIVCAPSHQQFGEFQLLDPSGIQKIVQDQSLGEDHPLAGSVHTSVTTPGHVEWIDSYLNVVNLRTS-GHMVNAYTDGGEPLKTIYLPKKLIDIFLEKVRPDIKANLEAGGVLAGKLIDNAYFVTDLVVPAQDSTHYWVGTTDVLQLYELLAERDLLILGAIHTHPDAPCYMSSVDMRNHCFFQKALSEAVMIVCAPSANDWGIFALLQPEGIQVIERDITPGRVHPMEGQVYKEVDTPGHVIFEESKLEVVDLRPY-SNAINAYTEGGRPLRTILLPNQLRDTFLAEVRPRVSQNQESGGVLAGTLERNEYRVTDLVIPMQTSTATTEGTTDTAQMHSLLRSRHLLVLGNIHTHPSDINYMSSTDMKNHCNFQNDLREAISIICAPSHNTWGIYQLLQPEGINKVNADRSSGRYSPMDGEIYTLVVTPGHVQEVDTELTVVDLRSA-SNAVRAYTEGGKPLRTIQMPNTLYNVFLEQVFPRIKKNLECGGVLCGKLEENEYRVEELVIPMQVATATTCGTIQTAELTALLRSESLLVLGWIHTHPTAQCYMSGVGMRSHCEFQRALSEAIAIVLAPSENRSGTFCLLQPSGIHIINNDASPGRIHPFDGKIYQLVDTPGHVREVDSTLAVKDLRID-SNAVYASTEGGKPLKTIFLPKQLEQIFLEQVNPLVTANLEAGGVLAGELQEEAYFVTHLIIPSQESTELYWGTTDNAKLEALLQERQLLTLGCIHTHPMEECFMSSVDQRMHCHFQLFLDEAILVVQAPSQHAYGVFQLLQPRGLQKVAADVSPGNNHPFMGVIHKEVDTPGHVQAVKSELTVVDLREQ-QHHHHAWTEGGEPLKTIYLPRSLERVFLEAVEPRVKAELETEGILAGTLEEDAYYITDLVIPQSESTADNCGTTDTERLASFLASRNLLLLGWIHTHPKADCLMSDVGRKNHCHFQQQLREAVAIVLAPSHETSGVFQLLQPEGIGKIENDKRPGLVHPFDGDVSRLVTTPGHVRRTDSDLTVVDLRTA-SNAIHSHTLGGKPLRRIYLPEKLRQVFLEKVAPMVEANRECGGVLAGVHRENAYYVTDLVIPSHTSTASYFGTTDNERLWQLLFNRRLLILGWIHTHPQAPCFMSSVDRRTHAHYQLQRIEAVMIVMAPSHQESGIFRLLDPSGLNAVIRDRSPGAYHPFSGKIDELVDSPGHVESVNSRLRVEDLRPY,TFKIHAYTEGGKPLRTIYLPKLLKKVFLDVVKPNTKKNLETCGILCGKLRQNAFFITHLVIPLQEATSDTCGTTDEASLFEFQDKHNLLTLGWIHTHPTQTCFMSSVDLHTHCSYQLMLPEAIAIVMAPSKNTSGIFRLLDPEGLQTIVKCRKPGLFHPHEGKVYTMVAQPGHVREINSKLQVVDLRVK-TFKIHAYTEGGKPLRTIYLPKLLKKVFLDVVKPNTKKNLETCGILCGKLRQNAFFITHLVIPLQEATSDTCGTTDEASLFEFQDKHNLLTLGWIHTHPTQTCFMSSVDLHTHCSYQLMLPEAIAIVMAPSKNTSGIFRLLDPEGLQTIVKCRKPGLFHPHEGKVYTMVAQPGHVREINSKLQVVDLRVK-TFKIHAYTEGGKPLRTIYLPKLLKKVFLDVVKPNTKKNLETCGILCGKLRQNAFFITHLVIPLQEATSDTCGTTDEASLFEFQDKHNLLTLGWIHTHPTQTCFMSSVDLHTHCSYQLMLPEAIAIVMAPSKNTSGIFRLLDPEGLQTIVKCRKPGLFHPHEGKVYTMVAQPGHVREINSKLQVVDLRVK-TFKIHAYTEGGKPLRTIYLPKLLKKVFLDVVKPNTKKNLETCGILCGKLRQNAFFITHLVIPLQEATSDTCGTTDEASLFEFQDKHNLLTLGWIHTHPTQTCFMSSVDLHTHCSYQLMLPEAIAIVMAPSKNTSGIFRLLDPEGLQTIVKCRKPGLFHPHEGKVYTMVAQPGHVREINSKLQVVDLRVK-TFKIHAYTEGGKPLRTIYLPKLLKKVFLDVVKPNTKKNLETCGILCGKLRQNAFFITHLVIPLQEATSDTCGTTDEASLFEFQDKHNLLTLGWIHTHPTQTCFMSSVDLHTHCSYQLMLPEAIAIVMAPSKNTSGIFRLLDPEGLQTIVKCRKPGLFHPHEGKVYTMVAQPGHVREINSKLQVVDLRVK-TFKIHAYTEGGKPLRTIYLPKLLKKVFLDVVKPNTKKNLETCGILCGKLRQNAFFITHLVIPLQEATSDTCGTTDEASLFEFQDKHNLLTLGWIHTHPTQTCFMSSVDLHTHCSYQLMLPEAIAIVMAPSKNTSGIFRLLDPEGLQTIVKCRKPGLFHPHEGKVYTMVAQPGHVREINSKLQVVDLRVK-TFKIHAYTEGGKPLRTIYLPKLLKKVFLDVVKPNTKKNLETCGILCGKLRQNAFFITHLVIPLQEATSDTCGTTDEASLFEFQDKHNLLTLGWIHTHPTQTCFMSSVDLHTHCSYQLMLPEAIAIVMAPSKNTSGIFRLLDPEGLQTIVKCRKPGLFHPHEGKVYTMVAQPGHVREINSKLQVVDLRVK-TFKIHAYTEGGKPLRTIYLPKLLKKVFLDVVKPNTKKNLETCGILCGKLRQNAFFITHLVIPLQEATSDTCGTTDEASLFEFQDKHNLLTLGWIHTHPTQTCFMSSVDLHTHCSYQLMLPEAIAIVMAPSKNTSGIFRLLDPEGLQTIVKCRKPGLFHPHEGKVYTMVAQPGHVREINSKLQVVDLRVK-TFKIHAYTEGGKPLRTIYLPKLLKKVFLDVVKPNTKKNLETCGILCGKLRQNAFFITHLVIPLQEATSDTCGTTDEASLFEFQDKHNLLTLGWIHTHPTQTCFMSSVDLHTHCSYQLMLPEAIAIVMAPSKNTSGIFRLLDPEGLQTIVKCRKPGLFHPHEGKVYTMVAQPGHVREINSKLQVVDLRVK-TFKIHAYTEGGKPLRTIYLPKLLKKVFLDVVKPNTKKNLETCGILCGKLRQNAFFITHLVIPLQEATSDTCGTTDEASLFEFQDKHNLLTLGWIHTHPTQTCFMSSVDLHTHCSYQLMLPEAIAIVMAPSKNTSGIFRLLDPEGLQTIVKCRKPGLFHPHEGKVYTMVAQPGHVREINSKLQVVDLRVK,LSVWHQFYFQ-YLNETTLFGH-DWERLVLQMH-HQVQVTWAIG-QQNAIMMNYT-QTLFEELEFN-EFIRLTLTFD-PRFFYKLALE-IITSKTLSLG-GDIKINYTIY,STLHLVLRLR-STLHLVLRLR-STLHLVLRLR-STLHLVLRLR-STLHLVLRLR-STLHLVLRLR-STLHLVLRLR-STLHLVLRLR-STLHLVLRLR-STLHLVLRLR
23.0,109,119,B,10,LQIFVKTLSGKTITLEVEPSDTIENVKAKIQDKEGIPPDQQRLIFAGKQLEDGRTLSDYNIQKESTLHLVLKLRGG-MQIFVKTLTGKTITLEVESTDTIENVKAKIQDKEGIPPDQQRLIFAGKQLEDGRTLSDYNIQKESTLHLVLKLRGG-LQIFVKTLTGKTITLEVENSDTIDNVKAKIQDKEGIPPDQQRLIFAGKQLEDGRTLSDYNIQKESTLHLVLRLRGG-LMIFVKTLTGKTITLEVEPSDTIENVKAKIQDKEGIPPDQQRLIYAGKQLEDGRTLSDYNIQKESTLHLVLKLRGG-MIIRVKTLTGKTIYLDVEPSDTIINVKAKIQDQEGIPPDQQRLIFAGKQLEDGRTLSDYNIQKESTLHLVLRFRGG-MQIFVKTLTGKTITLEVEPSDTIENVKAKIQDKEGIPPDQQRLIFAGKQLEDGRTLSDYNIQKESTLHLVLRLRGG-MQIFVKTLTGKTITLEVEPSDTIDNVKAKIQDKEGIPPDQQRLIFAGKQLEDGRTLSDYNIQKESTLHLVLRLRGG-HMIFVKTLTGKTITLEVEPSDTIENVKAKIQDKEGIPPDQQRLIFAGKQLEDGRTLSDYNIQKESTLHLVLRLRGG-GMIFVKTLTGKTITLEVESSDTIENVKAKIQDKEGIPPDQQRLIFAGKQLEDGRTLADYNIQKESTLHLVLKLRGG-MHIFVKTLTGKTIELEVESSDTIENVKAKIQDKEGIPPDQQRLIFAGKQLEDGRTLSDYNIQKESTLHLVLRLRGG,MQIFVKTLTGKTITLEVEPSDTIENVKAKIQDKEGIPPDQQRLIFAGKQLEDGRTLSDYNIQKESTLHLVLRLRGG-MQIFVKTLTGKTITLEVEPSDTIENVKAKIQDKEGIPPDQQRLIFAGKQLEDGRTLSDYNIQKESTLHLVLRLRGG-MQIFVKTLTGKTITLEVEPSDTIENVKAKIQDKEGIPPDQQRLIFAGKQLEDGRTLSDYNIQKESTLHLVLRLRGG-MQIFVKTLTGKTITLEVEPSDTIENVKAKIQDKEGIPPDQQRLIFAGKQLEDGRTLSDYNIQKESTLHLVLRLRGG-MQIFVKTLTGKTITLEVEPSDTIENVKAKIQDKEGIPPDQQRLIFAGKQLEDGRTLSDYNIQKESTLHLVLRLRGG-MQIFVKTLTGKTITLEVEPSDTIENVKAKIQDKEGIPPDQQRLIFAGKQLEDGRTLSDYNIQKESTLHLVLRLRGG-MQIFVKTLTGKTITLEVEPSDTIENVKAKIQDKEGIPPDQQRLIFAGKQLEDGRTLSDYNIQKESTLHLVLRLRGG-MQIFVKTLTGKTITLEVEPSDTIENVKAKIQDKEGIPPDQQRLIFAGKQLEDGRTLSDYNIQKESTLHLVLRLRGG-MQIFVKTLTGKTITLEVEPSDTIENVKAKIQDKEGIPPDQQRLIFAGKQLEDGRTLSDYNIQKESTLHLVLRLRGG-MQIFVKTLTGKTITLEVEPSDTIENVKAKIQDKEGIPPDQQRLIFAGKQLEDGRTLSDYNIQKESTLHLVLRLRGG,KGQDSEEKIK-KTITCDRILD-KTIEDYIKEK-KTITVFVKTL-ARNNCHKILR-KAKDSTRILT-KTITCKTITG-LFLRSFSRLK-YGHMAKQIEG-DGQTSLEKIR,HTHCSYQLML-HTHCSYQLML-HTHCSYQLML-HTHCSYQLML-HTHCSYQLML-HTHCSYQLML-HTHCSYQLML-HTHCSYQLML-HTHCSYQLML-HTHCSYQLML
