contacts,cs,ce,Chain,Length,designed_receptor_seq,native_receptor_seq,designed_binder_seq,native_binder_seq
25.0,90,100,A,10,GIQTVKIVEKGGGTVKPGGSMLLTADCSGFPFEKTPLCWVRQKPGQGWEWVAYISADASKKYLADAYRGRFAISRNNAENTLYLKMNDLKPEDTAVYYCVRGLADNLQLTNDFENHWGKGAPVTVTD-GVAQVSIVEKGGGTVKPGGTLTLTADNSGYDFAKTPMNWVRQAPGQGLQWVAYISADSSQKYYNDAVKGRFAISRDNSKNTLYLKMNNLKPADTATYYCVKGLDDDLKLTDDYANNWGKGAEVKVTN-GSSKVVIKERGGGTVKPGGSMLFEAECSGFDFSKTPMCWVRKSPGQGFEWVAYISADSSKIYLADAYKGRFDISRDNAKSTLYLKANKLKPEDTATYYCVAGLKDNLHLTDNLKESWGNGAPLTVTK-GSETVSIKEKGGGTVKPGGSMKLEADCSGFPFEKTPLAWVRRSPGEGWKWVAYISADKSKKYLSDEVKGRFEISRNNSKKTLYLQMNNLEPSDTATYYCVKGLKNDLKLTDDEKNYWGKGTKVEVTN-GKEKVSIVEKGGGTVKPGGSMKLEAQCSGFPFENTPMFWVRKRPGEGWEAVAYISADASEKYLADAYKGRFEISRNNDAKTLYLEMNKLEPSDTATYYCVAGLKDELYLTDDYENYWGKGTRVTVTD-GVLAVKIVEKGGGVVKPGGSLKLEAEHSGYPFEKTPMMWVRKKPGEGWEGVAYISADASEKYLDKKYEGRFKISRDNSKNTLYLEMNKLQPEDTATYYCVKGLDKDLKLTNDWENHWGKGTKVEVTN-GKETVSIKEKGGGTVKPGGSMLFTADCSGFPFENTPLCWVRKSPGKGWQWVAYISADKSKKYLADAYKGRFHISRNNAKNTLYLKANKLQPSDTAVYYCVKGLSDKLQLTNNLSANWGSGSYLEVTN-GVRAVKIVERGGGTVKPGGTLTLQADHSGFDFSKTPLFWVRQSPGRGWEWVAYISADASKTYLSDAVKGRFKISRNNKKNTLYLKMNKLKPSDTAVYYCVRGLKDDLHMTDDFEKNWGKGAKVKVTN-GAMAVKITEKGGGTVKPGGSMHLTATCSGFDFAKTPMNWVRKAPGAGFKWVAYISADSSEKYLDNAYKGRFNISRNNAKSTLYLDMNKLVAADTATYYCVKGLKANLRLTNDLKNYWGKGTAVTVTA-GVEVVTIQEKGGGTVKPGGSMTLTADNSGFDFSKTPLFWVRKAPGQGWEGVAYISADSSKKLLADAYKGRFSISRNNSKNTLYLDMNQLKPEDTATYYCVRGLSDTVALTDDYKNSWGSGSVVTVTA,SMAEVQLLESGGGLVQPGGSLRLSCAASGFSFSHSPMNWVRQAPGKGLEWVSYISYNSSSIYYADSVKGRFTISRDNSKNTLYLQMNSLRAEDTAVYYCARGLTESLELTADWFDYWGQGTLVTVSS-SMAEVQLLESGGGLVQPGGSLRLSCAASGFSFSHSPMNWVRQAPGKGLEWVSYISYNSSSIYYADSVKGRFTISRDNSKNTLYLQMNSLRAEDTAVYYCARGLTESLELTADWFDYWGQGTLVTVSS-SMAEVQLLESGGGLVQPGGSLRLSCAASGFSFSHSPMNWVRQAPGKGLEWVSYISYNSSSIYYADSVKGRFTISRDNSKNTLYLQMNSLRAEDTAVYYCARGLTESLELTADWFDYWGQGTLVTVSS-SMAEVQLLESGGGLVQPGGSLRLSCAASGFSFSHSPMNWVRQAPGKGLEWVSYISYNSSSIYYADSVKGRFTISRDNSKNTLYLQMNSLRAEDTAVYYCARGLTESLELTADWFDYWGQGTLVTVSS-SMAEVQLLESGGGLVQPGGSLRLSCAASGFSFSHSPMNWVRQAPGKGLEWVSYISYNSSSIYYADSVKGRFTISRDNSKNTLYLQMNSLRAEDTAVYYCARGLTESLELTADWFDYWGQGTLVTVSS-SMAEVQLLESGGGLVQPGGSLRLSCAASGFSFSHSPMNWVRQAPGKGLEWVSYISYNSSSIYYADSVKGRFTISRDNSKNTLYLQMNSLRAEDTAVYYCARGLTESLELTADWFDYWGQGTLVTVSS-SMAEVQLLESGGGLVQPGGSLRLSCAASGFSFSHSPMNWVRQAPGKGLEWVSYISYNSSSIYYADSVKGRFTISRDNSKNTLYLQMNSLRAEDTAVYYCARGLTESLELTADWFDYWGQGTLVTVSS-SMAEVQLLESGGGLVQPGGSLRLSCAASGFSFSHSPMNWVRQAPGKGLEWVSYISYNSSSIYYADSVKGRFTISRDNSKNTLYLQMNSLRAEDTAVYYCARGLTESLELTADWFDYWGQGTLVTVSS-SMAEVQLLESGGGLVQPGGSLRLSCAASGFSFSHSPMNWVRQAPGKGLEWVSYISYNSSSIYYADSVKGRFTISRDNSKNTLYLQMNSLRAEDTAVYYCARGLTESLELTADWFDYWGQGTLVTVSS-SMAEVQLLESGGGLVQPGGSLRLSCAASGFSFSHSPMNWVRQAPGKGLEWVSYISYNSSSIYYADSVKGRFTISRDNSKNTLYLQMNSLRAEDTAVYYCARGLTESLELTADWFDYWGQGTLVTVSS,TGVNDMVLKL-AAPNTMTLEN-NGPSTMTLNK-GYSNLMTLEK-SGKYTMRLKK-EEPNTLRLED-AGKNTMTLKE-GGANTVKLVK-AGTNTMVLDE-VGAKTLTLKK,IRAYEMTMRV-IRAYEMTMRV-IRAYEMTMRV-IRAYEMTMRV-IRAYEMTMRV-IRAYEMTMRV-IRAYEMTMRV-IRAYEMTMRV-IRAYEMTMRV-IRAYEMTMRV
48.0,103,113,B,10,EGSHMPRLLVIEIPPEDLLCGGCSQRIDEKEFLYAIDKYWHRDCLLCGECGAELMEEGNVLYYKDGKMLCEEDYERLYGEKGTCAACRQRIEVDTRVMVVKEKTYHEECFRCAVCSEKFSEGDRYVLVDDKIICEKDILRFFQEIG-SGSSGPSLLRLEIPPEDLVCGGCSQRIDSVEFLYALDCFWHRDCLLCGECGASLLHKGDVLFYKDGKALCRDCFERRYGKNGVCAACKRKIELNEELMTVKDKTYHLSCFKCAICERHFEKGDKYVLKDDQIICKKCVEDNEKKTG-SNAMEPVKLVIEIPPEELVCGGCSEKIDEKSFLFAKDKYWHMECLLCGECGAKLMDEGKKFYYKDGEELCYECFERKYGKNSVCAACKKKIEVNEKVMTVEKKTYHLDCFKCAVCKKNFKEGDKFILSGDDIICEKDVEEFEKEKG-DGDTVPIKIVLDIPPEKLICGGCQQKINDLVFLYAIDKFWHESCLLCGECGAELMVEGNALYYKDGKKLCEADYERVYGDRGKCSRCNTKIEANETVMRVRNKVYHLDCFKCAECSQNFEVGDKFILEGNNIICERDVEEYEKKTG-GSSHMPELLRREIPPQELICGGCQERINERLFLFANDKYWHEECLLCGECGSQLLEDGNKLYLKDGLELCRDCFERRFGDDGVCAACKKKIEVDEITMMVEDKKYHGDCFKCAVCNQKFNDGDKFVLVNTDIICEKCVEEGKKRLG-GSSHMPILKIDQIPPELLICGGCQKKIDEERFLYALDHYWHEDCLLCGECGTALGEDGDKLYFKDGKKLCERDYERLYGESSLCAACSEKIKVDERIMQAQDKTYHESCFRCAVCRRKFSKGDKFVLRDDEIICERDVERFEEITG-SGSSSPVLEVREIPPDDLVCGGCSERIGEERFLYALDKYWHEDCLLCGECGARLMDQGRVLYHKDGKDLCERCYNRRYGDNSVCAACSKKIDVDTLVMRVKEKDYHMECFKCAKCSKQFEEGDKFVLKDDQIICERCVEESKRKRG-GSSHHHHHHSSSTPPESLVCGGCSEKIGEEKFLFALDKYWHEDCLLCGECGCKLGEEGDKLYFKDGKMLCEKDYERLFGIRALCAACRKKIEVNEEIMMVQNKKYHGNCFKCAKCSKKFEKGDEFVLVDDKIICKKDIEEFEKKTG-GSSHHHHHHSSGIPPEDLICGGCNKKIGDNKFLFALEKYWHENCLLCGECGCSLGEIGDKLFFKDGKMLCKKDFDRVYGKENVCAACKKKIEKDTKVMQAENKVYHEKCFKCAKCKRSFEKGDKFVQIQDKLICEEDVKKAEEKKG-GSHMKPILKVTEIPPEALVCGGCSEKINEKEFVYALDKYWHKDCLLCGECGASLGDVGEKLFYKDGKVLCKECFERKYGENSICAACKKKIKVNEEVMTVQDKTYHLDCFACAVCKKKFDEGDKYILVQDKIICKDCVDKGLEEMG,DPSEEPVDEVLQIPPSLLTCGGCQQNIGDRYFLKAIDQYWHEDCLSCDLCGCRLGEVGRRLYYKLGRKLCRRDYLRLFGQDGLCASCDKRIRAYEMTMRVKDKVYHLECFKCAACQKHFCVGDRYLLINSDIVCEQDIYEWTKING-DPSEEPVDEVLQIPPSLLTCGGCQQNIGDRYFLKAIDQYWHEDCLSCDLCGCRLGEVGRRLYYKLGRKLCRRDYLRLFGQDGLCASCDKRIRAYEMTMRVKDKVYHLECFKCAACQKHFCVGDRYLLINSDIVCEQDIYEWTKING-DPSEEPVDEVLQIPPSLLTCGGCQQNIGDRYFLKAIDQYWHEDCLSCDLCGCRLGEVGRRLYYKLGRKLCRRDYLRLFGQDGLCASCDKRIRAYEMTMRVKDKVYHLECFKCAACQKHFCVGDRYLLINSDIVCEQDIYEWTKING-DPSEEPVDEVLQIPPSLLTCGGCQQNIGDRYFLKAIDQYWHEDCLSCDLCGCRLGEVGRRLYYKLGRKLCRRDYLRLFGQDGLCASCDKRIRAYEMTMRVKDKVYHLECFKCAACQKHFCVGDRYLLINSDIVCEQDIYEWTKING-DPSEEPVDEVLQIPPSLLTCGGCQQNIGDRYFLKAIDQYWHEDCLSCDLCGCRLGEVGRRLYYKLGRKLCRRDYLRLFGQDGLCASCDKRIRAYEMTMRVKDKVYHLECFKCAACQKHFCVGDRYLLINSDIVCEQDIYEWTKING-DPSEEPVDEVLQIPPSLLTCGGCQQNIGDRYFLKAIDQYWHEDCLSCDLCGCRLGEVGRRLYYKLGRKLCRRDYLRLFGQDGLCASCDKRIRAYEMTMRVKDKVYHLECFKCAACQKHFCVGDRYLLINSDIVCEQDIYEWTKING-DPSEEPVDEVLQIPPSLLTCGGCQQNIGDRYFLKAIDQYWHEDCLSCDLCGCRLGEVGRRLYYKLGRKLCRRDYLRLFGQDGLCASCDKRIRAYEMTMRVKDKVYHLECFKCAACQKHFCVGDRYLLINSDIVCEQDIYEWTKING-DPSEEPVDEVLQIPPSLLTCGGCQQNIGDRYFLKAIDQYWHEDCLSCDLCGCRLGEVGRRLYYKLGRKLCRRDYLRLFGQDGLCASCDKRIRAYEMTMRVKDKVYHLECFKCAACQKHFCVGDRYLLINSDIVCEQDIYEWTKING-DPSEEPVDEVLQIPPSLLTCGGCQQNIGDRYFLKAIDQYWHEDCLSCDLCGCRLGEVGRRLYYKLGRKLCRRDYLRLFGQDGLCASCDKRIRAYEMTMRVKDKVYHLECFKCAACQKHFCVGDRYLLINSDIVCEQDIYEWTKING-DPSEEPVDEVLQIPPSLLTCGGCQQNIGDRYFLKAIDQYWHEDCLSCDLCGCRLGEVGRRLYYKLGRKLCRRDYLRLFGQDGLCASCDKRIRAYEMTMRVKDKVYHLECFKCAACQKHFCVGDRYLLINSDIVCEQDIYEWTKING,KEAKKLYAEG-KNCLSLDATG-KKCNALSADA-KEANQLHADG-DHCKCLSADG-EKCNALEATD-KKCNLLSADG-KECKSKSAKD-KECNQLNAEG-KECNKKNAKG,TESLELTADW-TESLELTADW-TESLELTADW-TESLELTADW-TESLELTADW-TESLELTADW-TESLELTADW-TESLELTADW-TESLELTADW-TESLELTADW
