contacts,cs,ce,Chain,Length,designed_receptor_seq,native_receptor_seq,designed_binder_seq,native_binder_seq
18.0,23,33,A,10,HHGLENFLREQEITCPKCQTKFKLRRGGNRLLTCSVCSHTFCGGCFNEFYGPDECPFPGCEVAGALHNHCPIDCPFYLERWSAAKLQELLTRNDVEFATEPPAGSSKVPGGGCRVMLLKEVPDGYKEEHCGEEVPEGHAGLCTRHYKEYLISLIQAHSLDPRELYEVAQCERAYERYLQVKPAPREGEEPPAYKERLLSVLTSSVPLGQKIPRLEG-GNGLENFLKKQEIVCPKCKTTFEKERGGCNLLTCEVCSFQFCGGCFNQFYGPNECPEPGCEKKNALHNHCPIDSPYYLQHWDAAELQNLLKKNNVAFATEPPAGSTAVPGGGCRVILLKKVPEGWKRQACGEETPAGHAGLCDEHYREYLISLIQAHRLDPRGQYRVEELERAYRRYLKTDPKPLEGEKPPDYAARLLSTLTSRVPLGQKIPRMAD-MNGLENFLKDQEIVCPNCQQKFTLARGGDRYVTCTVCQYQFCGGCFEQYYAPNECPIPGCSKWQSLHSHCPRDCAHYLIHWSAEKLEQLLSDNNQEFAREPPAGGVAVPGGGCQVILLKKVPDGLQKQACGNFTPAGHAGLCEDHYKEYLISLINRHRLDPRQQYQVAQLEQAYRRYLRQTPAPQAGEAPPEYAARLLRELTQRVPLGEQIPRLDD-GHGLEGFLARRGITCPRCRTRFTLARGGGPLLTCSVCSHQFCGGCYNEYFGPNEAPYPGDLCAGALHSRCPRDCPEYLRHWEARELERLLLRNGVRFARQPPAGSVAVPGGGCEVVLLKEVPEGWEERHCGDETPEGHAGLCAGHYKEYLISLIQQHRLDPAGLYETAELERAYRRYLRTEPQPREGERPPEYARRLLSELTSSVPLGERIPRRDG-MDGLARFLADQTITCPKCRTEFTRRRGGDVLLTCRVCTHRFCGGCFNEFYGPNECPEPGCQRFASLHAHHPRDCPAFLQNWSAARLEQLLRDNRVAFAREPPAGEQAVPGGGCRVLLLAEVPDGWAERACGEATPDGHAGLCDSHYRDYLISLIQRHALDPAGQFEVAEHERAYRRYLHQTPKPREGEEPPAYAARLLSELTSSVPLGEKIPKLRG-GHGLEGFLREQGISCPKCQTLFTRRRGGNRLLTCTVCQFQFCGGCFEQFYGPDVCPAPGCRRAASLHGHHPVDSPFYLIRWSAQRLEQLLSDNNVAFAREPPAGSVAVPGGGCRVQLLARVPRGEKEEACGAATPAGHAGLCDGHYKEYLISLIQRHRLDPRGQYRVEQLERAYERYLRQTPAPAAGEAPPAYAARLLSVLTARVPLGERIPRLDG-ENGLENFLKEQEIVCPNCRTSFKRRRGGDRLLRCSVCSFMFCGGCFNRYYAANESPYPGDDNRDALHAHCPIDCPEYLQHWSAEKLEELLSANNVSFRREPPEGSRKVPGGGCRVLLLKEVPEGEEERACGEETPEGHAGLCEKHYKEYLISLIQKHRLDPRELYEVAELERAYRRYLREEPRPREGEAPPEYAARLLDVLTRSVPLGENIPRREG-SGGLENFLADQQIQCPQCKTVYTKQRGGDSFFTCSVCTHKFCTGCFNAFYDRNESPYPGDLASHALHGHCPRDCPHYLQNWSAANLERLLSDNNQSFATEPPAGSTAVPGGGCQVLLLKEVPDGKQEQHCGEETPAGHAGLCKDHYKRYLITLIQAHSLDPREQYLVAELERAYTRYLNTTPAPRAGEEPPAYAARLLSELTSSVPLGQQIPRLQG-MGGLENFLKEQQIVCPKCRTSYALKRGGDRFLTCTKCSFQFCGGCFNQFFGPNESPFPGDITADSLHSFCPRDCPFFLIRWEAADLQKLLTKNDVSFAREPPAGEEEVPGGGCRVVLEAEVPDGLKEQHCGAETPAGHAGLCTEHYKEYLISLIQAHALDPRELFRVAEHQKAYARYLLEVPRPEEGEEPPAYAARLLDVLTKRVPLGEQIPRLKG-GPGLEGFLAEQEIVCPKCETRFTLRRGGNRLLECSVCQFTFCGGCNNQFYGPNTCPEPGCERSSSLHGHHPRDCPYFLQHWSAQKLEQLLSDNGVSFAREPPAGSRAVPGGGCRVVLEKEVPNGREETACGAETPAGHAGLCDHHYKEYLISLIQAHSLDPADTYEVAELERAYRRYLKRAPAPREGEKPPAYAARLLEELKASVPLGQRIPRLDP,AQGLAMYLQENGIDCPKCKFSYALARGGCMHFHCTQCRHQFCSGCYNAFYAKNKCPEPNCRVKKSLHGHHPRDCLFYLRDWTALRLQKLLQDNNVMFNTEPPAGARAVPGGGCRVIEQKEVPNGLRDEACGKETPAGYAGLCQAHYKEYLVSLINAHSLDPATLYEVEELETATERYLHVRPQPLAGEDPPAYQARLLQKLTEEVPLGQSIPRRRK-AQGLAMYLQENGIDCPKCKFSYALARGGCMHFHCTQCRHQFCSGCYNAFYAKNKCPEPNCRVKKSLHGHHPRDCLFYLRDWTALRLQKLLQDNNVMFNTEPPAGARAVPGGGCRVIEQKEVPNGLRDEACGKETPAGYAGLCQAHYKEYLVSLINAHSLDPATLYEVEELETATERYLHVRPQPLAGEDPPAYQARLLQKLTEEVPLGQSIPRRRK-AQGLAMYLQENGIDCPKCKFSYALARGGCMHFHCTQCRHQFCSGCYNAFYAKNKCPEPNCRVKKSLHGHHPRDCLFYLRDWTALRLQKLLQDNNVMFNTEPPAGARAVPGGGCRVIEQKEVPNGLRDEACGKETPAGYAGLCQAHYKEYLVSLINAHSLDPATLYEVEELETATERYLHVRPQPLAGEDPPAYQARLLQKLTEEVPLGQSIPRRRK-AQGLAMYLQENGIDCPKCKFSYALARGGCMHFHCTQCRHQFCSGCYNAFYAKNKCPEPNCRVKKSLHGHHPRDCLFYLRDWTALRLQKLLQDNNVMFNTEPPAGARAVPGGGCRVIEQKEVPNGLRDEACGKETPAGYAGLCQAHYKEYLVSLINAHSLDPATLYEVEELETATERYLHVRPQPLAGEDPPAYQARLLQKLTEEVPLGQSIPRRRK-AQGLAMYLQENGIDCPKCKFSYALARGGCMHFHCTQCRHQFCSGCYNAFYAKNKCPEPNCRVKKSLHGHHPRDCLFYLRDWTALRLQKLLQDNNVMFNTEPPAGARAVPGGGCRVIEQKEVPNGLRDEACGKETPAGYAGLCQAHYKEYLVSLINAHSLDPATLYEVEELETATERYLHVRPQPLAGEDPPAYQARLLQKLTEEVPLGQSIPRRRK-AQGLAMYLQENGIDCPKCKFSYALARGGCMHFHCTQCRHQFCSGCYNAFYAKNKCPEPNCRVKKSLHGHHPRDCLFYLRDWTALRLQKLLQDNNVMFNTEPPAGARAVPGGGCRVIEQKEVPNGLRDEACGKETPAGYAGLCQAHYKEYLVSLINAHSLDPATLYEVEELETATERYLHVRPQPLAGEDPPAYQARLLQKLTEEVPLGQSIPRRRK-AQGLAMYLQENGIDCPKCKFSYALARGGCMHFHCTQCRHQFCSGCYNAFYAKNKCPEPNCRVKKSLHGHHPRDCLFYLRDWTALRLQKLLQDNNVMFNTEPPAGARAVPGGGCRVIEQKEVPNGLRDEACGKETPAGYAGLCQAHYKEYLVSLINAHSLDPATLYEVEELETATERYLHVRPQPLAGEDPPAYQARLLQKLTEEVPLGQSIPRRRK-AQGLAMYLQENGIDCPKCKFSYALARGGCMHFHCTQCRHQFCSGCYNAFYAKNKCPEPNCRVKKSLHGHHPRDCLFYLRDWTALRLQKLLQDNNVMFNTEPPAGARAVPGGGCRVIEQKEVPNGLRDEACGKETPAGYAGLCQAHYKEYLVSLINAHSLDPATLYEVEELETATERYLHVRPQPLAGEDPPAYQARLLQKLTEEVPLGQSIPRRRK-AQGLAMYLQENGIDCPKCKFSYALARGGCMHFHCTQCRHQFCSGCYNAFYAKNKCPEPNCRVKKSLHGHHPRDCLFYLRDWTALRLQKLLQDNNVMFNTEPPAGARAVPGGGCRVIEQKEVPNGLRDEACGKETPAGYAGLCQAHYKEYLVSLINAHSLDPATLYEVEELETATERYLHVRPQPLAGEDPPAYQARLLQKLTEEVPLGQSIPRRRK-AQGLAMYLQENGIDCPKCKFSYALARGGCMHFHCTQCRHQFCSGCYNAFYAKNKCPEPNCRVKKSLHGHHPRDCLFYLRDWTALRLQKLLQDNNVMFNTEPPAGARAVPGGGCRVIEQKEVPNGLRDEACGKETPAGYAGLCQAHYKEYLVSLINAHSLDPATLYEVEELETATERYLHVRPQPLAGEDPPAYQARLLQKLTEEVPLGQSIPRRRK,KQLELFIRRG-ANLEKFIEEF-DGALKFIEEG-ENAERFVERG-PGLLQHILRG-AGLDLFREEG-ASLRKFIEEG-GGVLLFQARG-EEEEEEEEEG-ANRQKFAERG,ENVKAKIQDK-ENVKAKIQDK-ENVKAKIQDK-ENVKAKIQDK-ENVKAKIQDK-ENVKAKIQDK-ENVKAKIQDK-ENVKAKIQDK-ENVKAKIQDK-ENVKAKIQDK
22.0,57,67,B,10,MQIFVKTLTGKTITLEVEPSDTIENVKAKIQDKEGIPPDQQRLIFAGKQLEDGRTLSDYNIQKESTLHLVLRLRGG-MQIFVKTLTGKTITLEVEPSDTIDNVKAKIQDKEGIPPDQQRLIFAGKQLEDGRTLSDYNIQKESTLHLVLRLRGG-MQIFVKTLTGKTITLEVEPSDTIDNVKAKIQDKEGIPPDQQRLIFAGKQLEDGRTLSDYNIQKESTLHLVLRLRGG-MQIFVKTLTGKTITLEVEPSDTIENVKAKIQDKEGIPPDQQRLIFAGKQLEDGRTLADYNIQKESTLHLVLRLRGG-MQIFVKTLTGKTITLEVEPSDTIENVKAKIQDKEGIPPDQQRLIFAGKQLEDGRTLSDYNIQKESTLHLVLRLRGG-MQIFVKTLTGKTITLEVEPSDTIDNVKAKIQDKEGIPPDQQRLIFAGKQLEDGRTLSDYNIQKESTLHLVLRLRGG-MQIFVKTLTGKTITLEVEPSDTIDNVKAKIQDKEGIPPDQQRLIFAGKQLEDGRTLSDYNIQKESTLHLVLRLRGG-VQIFVKTLTGKTITLEVEPSDTIDNVKAKIQDKEGIPPDQQRLIFAGKQLEDGRTLSDYNIQKESTLHLVLRLRGG-MQIFVKTLTGKTITLEVEPSDTIENVKAKIQDKEGIPPDQQRLIFAGKQLEDGRTLSDYNIQKESTLHLVLRLRGG-MQIFVKTLTGKTITLEVEPSDTIENVKAKIQDKEGIPPDQQRLIFAGKQLEDGRTLSDYNIQKESTLHLVLRLRGG,MQIFVKTLTGKTITLEVEPSDTIENVKAKIQDKEGIPPDQQRLIFAGKQLEDGRTLSDYNIQKESTLHLVLRLRGG-MQIFVKTLTGKTITLEVEPSDTIENVKAKIQDKEGIPPDQQRLIFAGKQLEDGRTLSDYNIQKESTLHLVLRLRGG-MQIFVKTLTGKTITLEVEPSDTIENVKAKIQDKEGIPPDQQRLIFAGKQLEDGRTLSDYNIQKESTLHLVLRLRGG-MQIFVKTLTGKTITLEVEPSDTIENVKAKIQDKEGIPPDQQRLIFAGKQLEDGRTLSDYNIQKESTLHLVLRLRGG-MQIFVKTLTGKTITLEVEPSDTIENVKAKIQDKEGIPPDQQRLIFAGKQLEDGRTLSDYNIQKESTLHLVLRLRGG-MQIFVKTLTGKTITLEVEPSDTIENVKAKIQDKEGIPPDQQRLIFAGKQLEDGRTLSDYNIQKESTLHLVLRLRGG-MQIFVKTLTGKTITLEVEPSDTIENVKAKIQDKEGIPPDQQRLIFAGKQLEDGRTLSDYNIQKESTLHLVLRLRGG-MQIFVKTLTGKTITLEVEPSDTIENVKAKIQDKEGIPPDQQRLIFAGKQLEDGRTLSDYNIQKESTLHLVLRLRGG-MQIFVKTLTGKTITLEVEPSDTIENVKAKIQDKEGIPPDQQRLIFAGKQLEDGRTLSDYNIQKESTLHLVLRLRGG-MQIFVKTLTGKTITLEVEPSDTIENVKAKIQDKEGIPPDQQRLIFAGKQLEDGRTLSDYNIQKESTLHLVLRLRGG,KTITLEARLS-KTITLEDKNS-KTITLEARLL-KTITLEGRTI-KTITLEARNC-KTITLEARLS-KTITLEGRTI-KTITVDGRTI-KTITLEARLS-KTITLEGRTL,PNCRVKKSLH-PNCRVKKSLH-PNCRVKKSLH-PNCRVKKSLH-PNCRVKKSLH-PNCRVKKSLH-PNCRVKKSLH-PNCRVKKSLH-PNCRVKKSLH-PNCRVKKSLH
