contacts,cs,ce,Chain,Length,designed_receptor_seq,native_receptor_seq,designed_binder_seq,native_binder_seq
11.0,267,277,A,10,NDCAVGVIEFTRWQADEKFQVMVAGQVFWTDKRDFVPRLECAQESGKVVTIRAADCGAGKRFSKVEFEDA-VICAKGTIEFSQNTKDKRFVVKVAGKEYWTCEKSLEPVLECARENGWVVEIEDKVCGEGRRFDSVKFENG-VECARGTISSWKDSADDRYWVRVAGKDYWTNCSVFRPVLEAARRTGCTVTVLADECGDDKHFHSVQFELG-QVCATGKIEFTRRTADQRFQVQVAGTVYWTNKVAFVPRLEDAETRGYTVTIEAETCGQGMQFSRVLFADG-MICSKGKIEYTKRTGDRRFVVRVAGTDYWTDFKIFEPKLTEAQEMGHIVEIKAEKCGAGEYFRQVGFEMG-VRCASGKIEYTRGTRDLRYWVQVAGVSFWTDRKKFYPLLNCAEVAGYIVTVVARECGKNQWFNRVLFDYG-TDCAQGKIEYTKGTNDKRYQVKVAGTVFWTDETYFYPLLKCAEETGQTVTIKAETCGDGLPFHLVDFEDG-KTCAEGKIDFHRGSKDARFFVRVAGVDYYTEWTDFVPLLRSAQEYGCIVTVVNEECGEGKHFSKVRFDSG-EDCAVGQIEFSRMTADDRYEVKVAGRVFWTDKADFVPVLEAAQKLGYTVTIRANSCGEGQSFNEVGFERG-MQCAKGTIEFSEQTPDARYYVRVAGTAFWTNCKLMVPVLEAAERLGYVVTIENTTCLDSAYFRSVLLSDG,ADCAKGKIEFSKYNEDDTFTVKVDGKEYWTSRWNLQPLLQSAQLTGMTVTIKSSTCESGSGFAEVQFNND-ADCAKGKIEFSKYNEDDTFTVKVDGKEYWTSRWNLQPLLQSAQLTGMTVTIKSSTCESGSGFAEVQFNND-ADCAKGKIEFSKYNEDDTFTVKVDGKEYWTSRWNLQPLLQSAQLTGMTVTIKSSTCESGSGFAEVQFNND-ADCAKGKIEFSKYNEDDTFTVKVDGKEYWTSRWNLQPLLQSAQLTGMTVTIKSSTCESGSGFAEVQFNND-ADCAKGKIEFSKYNEDDTFTVKVDGKEYWTSRWNLQPLLQSAQLTGMTVTIKSSTCESGSGFAEVQFNND-ADCAKGKIEFSKYNEDDTFTVKVDGKEYWTSRWNLQPLLQSAQLTGMTVTIKSSTCESGSGFAEVQFNND-ADCAKGKIEFSKYNEDDTFTVKVDGKEYWTSRWNLQPLLQSAQLTGMTVTIKSSTCESGSGFAEVQFNND-ADCAKGKIEFSKYNEDDTFTVKVDGKEYWTSRWNLQPLLQSAQLTGMTVTIKSSTCESGSGFAEVQFNND-ADCAKGKIEFSKYNEDDTFTVKVDGKEYWTSRWNLQPLLQSAQLTGMTVTIKSSTCESGSGFAEVQFNND-ADCAKGKIEFSKYNEDDTFTVKVDGKEYWTSRWNLQPLLQSAQLTGMTVTIKSSTCESGSGFAEVQFNND,CGAQPNLSQW-CGKAPEIANL-CGNDVAMRRR-AGKVADRLKN-KRLEHHHHHH-CDNIEHHHHH-CGNTPDLLKY-AGERPDLKKY-YGEWPHPLLE-AGWSHMLEEE,FLNRKSQFLY-FLNRKSQFLY-FLNRKSQFLY-FLNRKSQFLY-FLNRKSQFLY-FLNRKSQFLY-FLNRKSQFLY-FLNRKSQFLY-FLNRKSQFLY-FLNRKSQFLY
16.0,35,45,B,10,MEFVIDFSTERSYVDSIDSIQKSISTPLINLCSGNSCVSVINPVPPGTYFLIEIRGLEPKQQSLNHLRLVVEQGGLHTAGFIDTSRKTFYQFEDYKNINVPGLTTVKMNTDSSDATLCKVAKLDRKGMRISRKSLQEAYMALMSFQGDTATKEASQAMLKFVSVTSKAIRFKRIQNNFQHALSEAEPEYTVTPGDVNLTDNWGRISRVLPKYRGEKGVIVGRIQFYDQDAILGTVAVIYNTSSCRADGDIPVRVINNKLFDYRTVESYTDNTDARDFYRQN-MEFIIDFSTQFSYLRSLENIRQAIATPLQNICVGNKCVSVINPAPPGTYFLINVSGLIPNQQELNNLTLVIEQATLKCAGFIDSNRKTFFRFKNHQNIKVPGLDTINMLTDSSEFTLQKIANEDRAGMQISRKSLIDAYNSLIKFSGKEATEQASQAMLRYITVTANALRFSAIENAFKIALTDTSPVYTQTPEDVNLTLNWGRISRVLPQYKGEAGVKVGRITFANMSDILGTVGVILNCSLCQQQGNVPTEVINDVLYDSLTYASFNNQPDAKSYYSER-MEFTIDFSTTVDYTNSLQDIIKRIATPLEDVCEGNECVSVIKPFPQGTFFLIHIAGLKPNEADLDNLTLIIEKGILAMAGFINTKERTFYRFSDFKNVHVPGYKTVAMDTDSSDETLQKVAHMRRVGMRISKSTLIKAYNSLMSFKGRTATKWASRAMLRYTTVTTHALQFRKIQSNFKSALSASAPVYIQTPDDYALTQNWGRISGVLPEYRGESGVRIGQIFFRNINKILNTVGVIHNCNECTDKGNIPVVVKNNILWLAETLESFNNWRNIDEFTADS-MRFVIDFTSEDTYVSSLNNIRESIAIPLKNICEGNNCVSVIKEAPPGTYFLIRVRGLLPFEDAYNYLTLVIEQGLLCMAGFIDSKKSVYYRFADFRHIIVPGKRTVNMETDSSLETLERIAHLRMEGMSISRDSLVKAYKSLMSFSGSTMTRNAARAMLRYITVTAEALKFEFIQNNFKEALTRRSPIYTMTPNDVKLTQNWGRISRVLPNYRGQKGVSVGRIEFLDINDILNSVSVILNCNYCRATGSVPTKVIKNKLYESETIASFTNQPDAEAYYRNL-STFTIDFSTVETYQQSINSIQDFISTPLSNINQGSTSVSVINPFPPGSYFLIKIAGLDAYKHAYDNLILVIEQGNLKEAGFINSQSRTFFRFADFEQIEKPGVNTVVMNTDSSYATLMEVAVLNRRGMSISRESLIDAYEALMTFRGTTLTKDAAQAILRYTRVTNEALRFRKILNEFQDALSESRPTYIATPGDVELTASWGRISRVLPEYRGESGVRVGRMIWKNLDAILGTVGVIYNCNNCTKFGDRPTIVVNNVLYDEDTLYSFENRGMAQDFFSDP-TRFVIDFSTPVSYTSSLNSIRRNIASPLTNLCRGEICVSIIRPVPPGTYFEVDIRGLVPRRNFYNNLTLIIERGTLKEAGFVNTSRKTFYRFADFSFITVPGLRTVDMETNSSYRELEQVARENIIGMSISRASLVTAYEALMSFSGRTATRDASRAMLRYETVTTKAIKFRYIENGFKFALNRSNPTYVVTPNWYKLTQSWGRISRVLPMYRGESGVAIGRVVFRDEDDILGTVGVIFNCNECISFGNQPVLVINNVLWDRGTFDSYNNEIDVTRFYSSI-LNFSIDFSTRYTYRKSINSIIKKISEPLENIKIGNNSVSVIKENPPGSFFLVNIKGLKPFSKTHSYLTLVVEEGSLKVAGFIDSNKNVFYRFKDFKNIKVPGVKTVEMKTNSTLTTLQKVAQQGMIGMKVTRESLIEAYNSLMDFSGEKATKNASQAILKYVTVTADALKFNKITNEFMFALNVNNPAYELSPGNVKLTSSWGRISSVLPQYKGESGVKVGQISFKDINNILGTVSVIFNCSTCRSTGYTPVTILNNELWDSVTLENFLNQPEVSNFFQNN-MEFIIDFSTESTYENSLRLIRKAISTPLENICEGDNCVSVVKPVPPGSYFTIEIRGLERFEELFNDLTLVIETDTLKTAGFINTKTNTYFRFADHAHIEVEGMETVKLKTDSSWETLEKIADEERNGMKISRESLVEAYRALMDFRGTEATKYASRAMLRYVTVTTDALRFTDIANDFKEALSVAEPVYQMTPHNVRLTQSWGRISEVLPQYRGEKGVMVGAIRASNLSDILGTVGTIHNCSACHYKGNKPIKIINDVLYDSETFEMFHDDRDLDSFYREH-MGFIIDFSTESTYVNSLQQIIDSIATPLQNIKIGNLSVSVINPVPPGTYFLVEIRGLQPNKKLYNNLTLVIEQGSLKVAGFIDEQDKTFYRFADFAHIQVPGVTTVNMLTDSSMETLQTVADQNMTGMKISRQSLVDAYLSLMSFSGVTMTKNASMALLRFITVTSKAIRFRKIENEFKDALTIRTPTYTMTPGDYKLTKNWGRISGVLPQYKGQSGVQVGEIFFDNVSDILGNVGVILNCSQCKTSGDKPTLVINNTLYDSDTYEEFNSELDYLNFYKSQ-MNFIIDFSTRQTYVQSLNSIISSIATPLNNINIGKNSVSVIRKSPPGSYFKVKVRGLKKYRNELSNLRLIIEQGTLNTAGFIDSNRSVYYRFSDFKHINVPGLKTIDLNTDSSLRTLQKVAKERREGMKITKKSLIEAYNALMSFTGSTMTKEAAEAILRYRLVTSEAIRFRQIENNFKTALSRTQPAYTNTPGDFELTQSWGKISSVLPQYKGEDGVKVGRIRFTDVRDILGTVSVIYNCKSCLSTGSIPTIVLQNTLYNSKTANQFNDSIDIREYENRA,REFTIDFSTQQSYVSSLNSIRTEISTPLEHISQGTTSVSVINHTPPGSYFAVDIRGLDVYQARFDHLRLIIEQNNLYVAGFVNTATNTFYRFSDFTHISVPGVTTVSMTTDSSYTTLQRVAALERSGMQISRHSLVSSYLALMEFSGNTMTRDASRAVLRFVTVTAEALRFRQIQREFRQALSETAPVYTMTPGDVDLTLNWGRISNVLPEYRGEDGVRVGRISFNNISAILGTVAVILNCHECQITGDRPVIKINNTLWESNTAAAFLNRKSQFLYTTGK-REFTIDFSTQQSYVSSLNSIRTEISTPLEHISQGTTSVSVINHTPPGSYFAVDIRGLDVYQARFDHLRLIIEQNNLYVAGFVNTATNTFYRFSDFTHISVPGVTTVSMTTDSSYTTLQRVAALERSGMQISRHSLVSSYLALMEFSGNTMTRDASRAVLRFVTVTAEALRFRQIQREFRQALSETAPVYTMTPGDVDLTLNWGRISNVLPEYRGEDGVRVGRISFNNISAILGTVAVILNCHECQITGDRPVIKINNTLWESNTAAAFLNRKSQFLYTTGK-REFTIDFSTQQSYVSSLNSIRTEISTPLEHISQGTTSVSVINHTPPGSYFAVDIRGLDVYQARFDHLRLIIEQNNLYVAGFVNTATNTFYRFSDFTHISVPGVTTVSMTTDSSYTTLQRVAALERSGMQISRHSLVSSYLALMEFSGNTMTRDASRAVLRFVTVTAEALRFRQIQREFRQALSETAPVYTMTPGDVDLTLNWGRISNVLPEYRGEDGVRVGRISFNNISAILGTVAVILNCHECQITGDRPVIKINNTLWESNTAAAFLNRKSQFLYTTGK-REFTIDFSTQQSYVSSLNSIRTEISTPLEHISQGTTSVSVINHTPPGSYFAVDIRGLDVYQARFDHLRLIIEQNNLYVAGFVNTATNTFYRFSDFTHISVPGVTTVSMTTDSSYTTLQRVAALERSGMQISRHSLVSSYLALMEFSGNTMTRDASRAVLRFVTVTAEALRFRQIQREFRQALSETAPVYTMTPGDVDLTLNWGRISNVLPEYRGEDGVRVGRISFNNISAILGTVAVILNCHECQITGDRPVIKINNTLWESNTAAAFLNRKSQFLYTTGK-REFTIDFSTQQSYVSSLNSIRTEISTPLEHISQGTTSVSVINHTPPGSYFAVDIRGLDVYQARFDHLRLIIEQNNLYVAGFVNTATNTFYRFSDFTHISVPGVTTVSMTTDSSYTTLQRVAALERSGMQISRHSLVSSYLALMEFSGNTMTRDASRAVLRFVTVTAEALRFRQIQREFRQALSETAPVYTMTPGDVDLTLNWGRISNVLPEYRGEDGVRVGRISFNNISAILGTVAVILNCHECQITGDRPVIKINNTLWESNTAAAFLNRKSQFLYTTGK-REFTIDFSTQQSYVSSLNSIRTEISTPLEHISQGTTSVSVINHTPPGSYFAVDIRGLDVYQARFDHLRLIIEQNNLYVAGFVNTATNTFYRFSDFTHISVPGVTTVSMTTDSSYTTLQRVAALERSGMQISRHSLVSSYLALMEFSGNTMTRDASRAVLRFVTVTAEALRFRQIQREFRQALSETAPVYTMTPGDVDLTLNWGRISNVLPEYRGEDGVRVGRISFNNISAILGTVAVILNCHECQITGDRPVIKINNTLWESNTAAAFLNRKSQFLYTTGK-REFTIDFSTQQSYVSSLNSIRTEISTPLEHISQGTTSVSVINHTPPGSYFAVDIRGLDVYQARFDHLRLIIEQNNLYVAGFVNTATNTFYRFSDFTHISVPGVTTVSMTTDSSYTTLQRVAALERSGMQISRHSLVSSYLALMEFSGNTMTRDASRAVLRFVTVTAEALRFRQIQREFRQALSETAPVYTMTPGDVDLTLNWGRISNVLPEYRGEDGVRVGRISFNNISAILGTVAVILNCHECQITGDRPVIKINNTLWESNTAAAFLNRKSQFLYTTGK-REFTIDFSTQQSYVSSLNSIRTEISTPLEHISQGTTSVSVINHTPPGSYFAVDIRGLDVYQARFDHLRLIIEQNNLYVAGFVNTATNTFYRFSDFTHISVPGVTTVSMTTDSSYTTLQRVAALERSGMQISRHSLVSSYLALMEFSGNTMTRDASRAVLRFVTVTAEALRFRQIQREFRQALSETAPVYTMTPGDVDLTLNWGRISNVLPEYRGEDGVRVGRISFNNISAILGTVAVILNCHECQITGDRPVIKINNTLWESNTAAAFLNRKSQFLYTTGK-REFTIDFSTQQSYVSSLNSIRTEISTPLEHISQGTTSVSVINHTPPGSYFAVDIRGLDVYQARFDHLRLIIEQNNLYVAGFVNTATNTFYRFSDFTHISVPGVTTVSMTTDSSYTTLQRVAALERSGMQISRHSLVSSYLALMEFSGNTMTRDASRAVLRFVTVTAEALRFRQIQREFRQALSETAPVYTMTPGDVDLTLNWGRISNVLPEYRGEDGVRVGRISFNNISAILGTVAVILNCHECQITGDRPVIKINNTLWESNTAAAFLNRKSQFLYTTGK-REFTIDFSTQQSYVSSLNSIRTEISTPLEHISQGTTSVSVINHTPPGSYFAVDIRGLDVYQARFDHLRLIIEQNNLYVAGFVNTATNTFYRFSDFTHISVPGVTTVSMTTDSSYTTLQRVAALERSGMQISRHSLVSSYLALMEFSGNTMTRDASRAVLRFVTVTAEALRFRQIQREFRQALSETAPVYTMTPGDVDLTLNWGRISNVLPEYRGEDGVRVGRISFNNISAILGTVAVILNCHECQITGDRPVIKINNTLWESNTAAAFLNRKSQFLYTTGK,IPKEQAKVRT-QPVRHARDIM-TPYNVAKYLT-DPILRAAELT-WPALIDKYQS-RPYFEALERL-IPLLEALKKT-VPFRRRAKIT-VPAENAARRT-NPILKALRRN,QPLLQSAQLT-QPLLQSAQLT-QPLLQSAQLT-QPLLQSAQLT-QPLLQSAQLT-QPLLQSAQLT-QPLLQSAQLT-QPLLQSAQLT-QPLLQSAQLT-QPLLQSAQLT
