contacts,cs,ce,Chain,Length,designed_receptor_seq,native_receptor_seq,designed_binder_seq,native_binder_seq
33.0,260,270,A,10,MAHLDQRLACISASSNSSWPFPDDLAAYLKGYVPDEEDLIQTYAEIYELTSEELDLIFIEGFNAHKEKDYTASINVFQWLIFFNPFVRIYWFQYGASLFESSRYEESIQAFKVTALLDAIDPMPWYFMALCYINLDDPVQARAALQSARIRAQENPANQALAKLINEYLS-EPHLENLIRRISFNSSSKYPFPNDLKAYLYGYHPDAYTCVETYAELFKISEDETEEVFQEGFEAFKASNYERSIEIFQWLVFFNPFHEDYWLRLGQSLYHSKNFIDALSAFGVAAVLNKYAPEPFFFQALCYYALKDEVKARDALNQAQIRAFDVPEYMDLAIEIERIQA-RPELDSLIERISKNSGKQYPFPDNLKRWLEGFVPDRNIKKDSFQSIYDVTEEELRKIFEEGRKMYKKCDFDQAIIVFRWLVFFNPFVWTYWFELGDSLFMSSDYVEALEAYGVTAELDNENPYPNYYSYLCHFLLDNSNLDEEALQDAYEKAKDSPKYEQLTEEIHALLS-MDHLQSIIASISQRSDQSYPFPDDLSSWLRGFVPDANQNQATWQQIFKISTRELEEIYLEGYDAYKADDYSKSIEIFRWLIFFDPFQQRFWFKYGRALYKQRDFVNSLHAFEVTASLWAADPLPHYYSYECYRSINDTTKAEEALESAYQRARKNPLYERLAIEIDQLRR-MTKLEGLLARIASSTNAAFPFPDDLSAYLAGYVPDEDIEEDTFETIFAVTTIELQEIFVEGFDAFQEERFDVAIEIFQWLVFFNPFIADYWWMLGSALHKAERWSEALQAYGVTETLQEDAPTPAYYAYLAYVATDNEAAAEEQLERAWTRARDKPKFARLTERIDFVRA-PPKLEELLHNIAKLSKENWPFPENLNKYLDGFVPNRYENKATNQRIFQISSASLQEIFIEGFNAFKDIDYWTAINIFRWLIFFDPFVSRYWLNYGISLDRSEEYEMALQAYGVCAKLDVESPTPYFRQAKLFQLLERSDEAFNALESALERARNDPKFNKLTRLIKDFIK-VPELDRLVERIARRTDLDFPFPDDLKAWLKGFVPDARIRKSTYQQIYNVSETELYKVFIEGFNALEAENYQSAIRTFQWLVFFNPFEARYWFMLGKSLFKSENYVDALQAFGVTAQLDTKDPYPYYYCAICYTLLEDEDAAYTALIEAQIRAETTPEHQELAQKIRQINH-MDKLQETLDRISFASSDDFPFPDDFERFLRGYVPDKIRFKKTYQEIFELSEETLEEIYVEGRNAYKKSDYSSAIDIFQWLVFFNPFNRTYWSSYGLSLYKNKNYKRAAQAFGVTSELSAQDPYPYYNLAIVYQKEGKLDKAESAFQEAAIRASENPKWAELSDYIKEIQK-SPFLDNIIKSIAASSNTAYPFPEDLDAWLEGYVPDLFDQHETFQEVYTITEDDLEKIFIEGFDAFNMENYSKAIEIFQWLVFFNPFVFVYWNHLGDSLYKSHDYELAAQAYGVTSILNEFDPYPHYFLYKIYRKMNQSDEADHALEMAIKRAENNPETLSLAKELEAIRS-HPHLEELVKQIAKKSSVDFPFPDDLKSYLKGFVPDANKEIRTWQEIFNLTRDELQKIYMEGYDAFLAQDYDAAEKIFRWLVFFNPFIAKYWWHLGRALMKQNNFDEALEAFGVTAELNKKDPFPHYYSFECFKCLQQTDKAENALEEARVLAFNKPEYQALAKKIDKVMH,MSHLNYLLEKIAASSKEDFPFPDDLESYLEGYVPDKNIALDTYQKIFKISSEDLEKVYKEGYHAYLDKDYAKSITVFRWLVFFNPFVSKFWFSLGASLHMSEQYSQALHAYGVTAVLRDKDPYPHYYAYICYTLTNEHEEAEKALEMAWVRAQHKPLYNELKEEILDIRK-MSHLNYLLEKIAASSKEDFPFPDDLESYLEGYVPDKNIALDTYQKIFKISSEDLEKVYKEGYHAYLDKDYAKSITVFRWLVFFNPFVSKFWFSLGASLHMSEQYSQALHAYGVTAVLRDKDPYPHYYAYICYTLTNEHEEAEKALEMAWVRAQHKPLYNELKEEILDIRK-MSHLNYLLEKIAASSKEDFPFPDDLESYLEGYVPDKNIALDTYQKIFKISSEDLEKVYKEGYHAYLDKDYAKSITVFRWLVFFNPFVSKFWFSLGASLHMSEQYSQALHAYGVTAVLRDKDPYPHYYAYICYTLTNEHEEAEKALEMAWVRAQHKPLYNELKEEILDIRK-MSHLNYLLEKIAASSKEDFPFPDDLESYLEGYVPDKNIALDTYQKIFKISSEDLEKVYKEGYHAYLDKDYAKSITVFRWLVFFNPFVSKFWFSLGASLHMSEQYSQALHAYGVTAVLRDKDPYPHYYAYICYTLTNEHEEAEKALEMAWVRAQHKPLYNELKEEILDIRK-MSHLNYLLEKIAASSKEDFPFPDDLESYLEGYVPDKNIALDTYQKIFKISSEDLEKVYKEGYHAYLDKDYAKSITVFRWLVFFNPFVSKFWFSLGASLHMSEQYSQALHAYGVTAVLRDKDPYPHYYAYICYTLTNEHEEAEKALEMAWVRAQHKPLYNELKEEILDIRK-MSHLNYLLEKIAASSKEDFPFPDDLESYLEGYVPDKNIALDTYQKIFKISSEDLEKVYKEGYHAYLDKDYAKSITVFRWLVFFNPFVSKFWFSLGASLHMSEQYSQALHAYGVTAVLRDKDPYPHYYAYICYTLTNEHEEAEKALEMAWVRAQHKPLYNELKEEILDIRK-MSHLNYLLEKIAASSKEDFPFPDDLESYLEGYVPDKNIALDTYQKIFKISSEDLEKVYKEGYHAYLDKDYAKSITVFRWLVFFNPFVSKFWFSLGASLHMSEQYSQALHAYGVTAVLRDKDPYPHYYAYICYTLTNEHEEAEKALEMAWVRAQHKPLYNELKEEILDIRK-MSHLNYLLEKIAASSKEDFPFPDDLESYLEGYVPDKNIALDTYQKIFKISSEDLEKVYKEGYHAYLDKDYAKSITVFRWLVFFNPFVSKFWFSLGASLHMSEQYSQALHAYGVTAVLRDKDPYPHYYAYICYTLTNEHEEAEKALEMAWVRAQHKPLYNELKEEILDIRK-MSHLNYLLEKIAASSKEDFPFPDDLESYLEGYVPDKNIALDTYQKIFKISSEDLEKVYKEGYHAYLDKDYAKSITVFRWLVFFNPFVSKFWFSLGASLHMSEQYSQALHAYGVTAVLRDKDPYPHYYAYICYTLTNEHEEAEKALEMAWVRAQHKPLYNELKEEILDIRK-MSHLNYLLEKIAASSKEDFPFPDDLESYLEGYVPDKNIALDTYQKIFKISSEDLEKVYKEGYHAYLDKDYAKSITVFRWLVFFNPFVSKFWFSLGASLHMSEQYSQALHAYGVTAVLRDKDPYPHYYAYICYTLTNEHEEAEKALEMAWVRAQHKPLYNELKEEILDIRK,YPASLLSSAP-VPAKNYISAP-KPASDELRLE-PSAALFRSAP-SPAAQRKTAP-PPARLFDKLP-IPAALDLGAP-TPAASYDSAP-VPASLILSAP-QPASLFSSAP,TSSRLFSSAD-TSSRLFSSAD-TSSRLFSSAD-TSSRLFSSAD-TSSRLFSSAD-TSSRLFSSAD-TSSRLFSSAD-TSSRLFSSAD-TSSRLFSSAD-TSSRLFSSAD
35.0,13,23,B,10,MDLASKYAARNAEISGERLQGLRESIGSNATPKDILAKVREQVKYPAIQELALHYLVDVTPPKEGSKRQALVVAKNVHRATYGRVAQGAADILFSAQQFAARLRVEPSGLRDLFMEISGQRMTCEELYLLFSARFSIDDMAIVARFIQDGIEKGLIIRNPFVPQAQLKVLQAETNRLEARLTSYHYFNRQLPRLLAHLKSIGIQVPSKLNHVRVSEAYLSMVENRSPTAQHILEAVQNLIGKNKHAVEGILHLFLESMQNTSDRLFASEVHRKELGKQLTAALLINRRD-PDLASLYAAYDSRISGEQLQGLYNAIGTSATPADINASVVEMITQPSIQSLAMNYLVDVTPPLEGRKKDALIEAKGAWISFKGELAVGAAMIDLLAQRYAAALDTTPEGLRSLFLEVSGQKRSRDDLYALFSSLYEQDAMAVVAEFIQAGMTQGLVLRGPYTPVTNLAVLRDENAGLEARLTAYRYFSYEVPKLLRRLAAVGIAVPERLDYRRVSQKYQEIINQKNPTAAQVLDAVEELIGHNRLAVSGVLHLFKASLRSVSARLFRSDRVKATLGDQIEDALKVNEQQ-MDLADKFAKGNSEITGEKLRGLWSAIGSEATPSDILEKVDSMIENPALQELALDYLVAVTPPESGRLKRSLVVARGVHRKAYGIKAIGSRDIRFASQRYAARLQESPQGLRSLFREVSGRFATRDELLTLLRSRFSVKEMVIVSQYLQEGMRIGLERRDPFVPEELLKTLVMNVNELQARLTAYEYFAKRLPELKAKLANIGVETPQRLDDTVVSEAFLRLISDENPTAGSVLDTVQELIGNHKKAVKGVLLLFKDSLSRTSKRLFRSKERKINLGKKVDEALVIVMTK-VNLASLYAQGNKEVTGERLEGIRKKIGDDATPDDILLILINEVSEPEIQHLALDYLVEVTPPEKGSLKVNLTIAKGVHEATFGYKATGARRVLFLAQEYAAELNKKPSELRELFLEVVGSEKSQDELFEMLSERFEIQQMKTVSQFLHAGMKENLKLDNPFVPDEEVEILIKNNNELQARLTSYQYFATHLPELVDELKAKGVVVPTSLDYIKVSEAFLSIINDRNPTADTVESSVKNLIGNEKDSVAGVLRLFLMSLVHTSARLFKSSQTKKQLGIEIGASLKRLVKP-ANLADLYAEGDSQVTGSQLRGLLQSIGAAATPADINTEVTRQIGFPSIQSHAMNYLVDVTPPASGAKKTALKIAKGNLVLQYGEKATGALERMYHAQSYAAKLDAKPSELMDMFNRVSGAQMSTQALYDELSSQYDISDMTVVSDYLIAGESRGLLSHKPYRPVDQLVRLIAENEDLQARLTAYTFFKTQVPVLLSQLQSQGVTTPADWDYITVSETFLKVINNKTPTAEKVQQAVENLVGHDTESVAGVLELFEDSMDKTSARLWESAAQKEKLGREITNALRTLRKG-SDLAATYAAGNALITGAKLNGLASSIGSTSSPKNILEKVRKQVEEPEIQEHALQYLVAVTPPSAGVLKRNLVVAKGVHEDEHGFRAKGALDVLFLAQKYAEKLDQTPSGLRDLFRHVSGRKMTMDELYELFSTSFKIDEMSIVSRFIEAGLKQGKIKNNPFVPIEDLTVLLENTRNLEARLTAYRFFKKEVPVLVKTLKDKGISVPADFNSVKVSEAYLKIIEEATPTADTVLATVRNLVGNDYEAVRGILNLLKLALSKTSDRLFKSEANRKQLGTEISEALKKESAR-SDMAEVFAEGTKTVTGDRLKGLEDSIGSDSTPEDILKKVRAQFSNPAIQYLALDYLVAVTPPQDGSLKSALVKAKGIHAKEFGRLAMGSYDVLYLSQSFAAQLRASPNGLRYLFMRVSGKFMSTDELYSLFSELYAVDDMTTVAAFLQAGMKRGLKNDNPYEPRERLIQAIRENNHLQARLTSYMFFAIRVPVLIKELRSIGVKVPSRWNSTLVSRTFLTIINDKEPTAEAVLASVRQLIGEDVRAVTGVLKLLLASLKKTSDRLYSTEQTKRQLGMCIAQALIKVSRT-QCLADQYAANNSMISGTRLQGLFNAIGRLSTPKDIRQQVTRQVEEPAIQYLAMDYLVAVTPPDLGDLKEALQIARGVWAEQYGRRAEGARNILLLAQRFAAQLQVTPSELQQLFLDITGQHKSRNQLYTLLQSRFRIDEMITVAQFMTAGMEQGLINRDPYVPTTQLLTLIKQNELLQAKLTAYEYFQIRLPELLQHLRSIGVIVPTQLDSQKVSEAFLQIVNRRQPTAESVLQSVRDLIGSDILAVSGILNLFKDSLNKTSDRLFASHEIRSQLGEQITEALSSVNNP-LDLAASFAEGNLCITGEQLNGLRETIGQEATPEDILSSVRLRIADPAVQYLAMDYLVAVTPPKKGLLQLNLIIARNMLEFEKGRRARGARHILYLAQRFAAQLETKPEGLMTLYLEVVGQDMSRERLLALLQEKYQLDEMSVVSAFLHAGMRAELLEEDPFVPLERLTQRIHNNNMLEARLTAFEFFRVELPTLLKELQARGITTPELLDSLAVSEAFLSIIQDSQPTANSVLSAVKQLIGNDQQAVLGVLELFLNSLDHTSDRLFKNAMIKQLLGLQMALALRVQAQP-HDLATIYARNTAMISGTALRGLQSSIGADSSPADILSKVTAAVREPSIQALALDYLVAVTPPEQGQLRMALLTARGQWIEQQGSAAVGARNVLLLAQDYASQLEVKPMGLMADFSELAGQDKSKRELYLFFKTRYQTEDMVIVSQYLQAGMRFGQMIKNPFIPSSQLVKLLRSNNDLQALLTTYQYFKAELPKLQSKLKSIGIKLPTSLDSVRVSETYLQVIRDTQPTANAVTQAVKDLIGNDVLAVDGVLNLYLDALTKTSERLFLDEKNRTTLGKQIANALSVNQRF,TDLADKYASGNSEISGQELRGLRDAIGDDASPEDILALVQEKIKDPALQSTALDYLVQTTPPSQGKLKEALIQARNTHTEQFGRTAIGAKNILFASQEYADQLNVSPSGLRSLYLEVTGDTHTCDQLLSMLQDRYTYQDMAIVSSFLMKGMATGLKRQGPYVPSAQLQVLMTETRNLQAVLTSYDYFESRVPILLDSLKAEGIQTPSDLNFVKVAESYHKIINDKFPTASKVEREVRNLIGDDVDSVTGVLNLFFSALRQTSSRLFSSADKRQQLGAMIANALDAVNIN-TDLADKYASGNSEISGQELRGLRDAIGDDASPEDILALVQEKIKDPALQSTALDYLVQTTPPSQGKLKEALIQARNTHTEQFGRTAIGAKNILFASQEYADQLNVSPSGLRSLYLEVTGDTHTCDQLLSMLQDRYTYQDMAIVSSFLMKGMATGLKRQGPYVPSAQLQVLMTETRNLQAVLTSYDYFESRVPILLDSLKAEGIQTPSDLNFVKVAESYHKIINDKFPTASKVEREVRNLIGDDVDSVTGVLNLFFSALRQTSSRLFSSADKRQQLGAMIANALDAVNIN-TDLADKYASGNSEISGQELRGLRDAIGDDASPEDILALVQEKIKDPALQSTALDYLVQTTPPSQGKLKEALIQARNTHTEQFGRTAIGAKNILFASQEYADQLNVSPSGLRSLYLEVTGDTHTCDQLLSMLQDRYTYQDMAIVSSFLMKGMATGLKRQGPYVPSAQLQVLMTETRNLQAVLTSYDYFESRVPILLDSLKAEGIQTPSDLNFVKVAESYHKIINDKFPTASKVEREVRNLIGDDVDSVTGVLNLFFSALRQTSSRLFSSADKRQQLGAMIANALDAVNIN-TDLADKYASGNSEISGQELRGLRDAIGDDASPEDILALVQEKIKDPALQSTALDYLVQTTPPSQGKLKEALIQARNTHTEQFGRTAIGAKNILFASQEYADQLNVSPSGLRSLYLEVTGDTHTCDQLLSMLQDRYTYQDMAIVSSFLMKGMATGLKRQGPYVPSAQLQVLMTETRNLQAVLTSYDYFESRVPILLDSLKAEGIQTPSDLNFVKVAESYHKIINDKFPTASKVEREVRNLIGDDVDSVTGVLNLFFSALRQTSSRLFSSADKRQQLGAMIANALDAVNIN-TDLADKYASGNSEISGQELRGLRDAIGDDASPEDILALVQEKIKDPALQSTALDYLVQTTPPSQGKLKEALIQARNTHTEQFGRTAIGAKNILFASQEYADQLNVSPSGLRSLYLEVTGDTHTCDQLLSMLQDRYTYQDMAIVSSFLMKGMATGLKRQGPYVPSAQLQVLMTETRNLQAVLTSYDYFESRVPILLDSLKAEGIQTPSDLNFVKVAESYHKIINDKFPTASKVEREVRNLIGDDVDSVTGVLNLFFSALRQTSSRLFSSADKRQQLGAMIANALDAVNIN-TDLADKYASGNSEISGQELRGLRDAIGDDASPEDILALVQEKIKDPALQSTALDYLVQTTPPSQGKLKEALIQARNTHTEQFGRTAIGAKNILFASQEYADQLNVSPSGLRSLYLEVTGDTHTCDQLLSMLQDRYTYQDMAIVSSFLMKGMATGLKRQGPYVPSAQLQVLMTETRNLQAVLTSYDYFESRVPILLDSLKAEGIQTPSDLNFVKVAESYHKIINDKFPTASKVEREVRNLIGDDVDSVTGVLNLFFSALRQTSSRLFSSADKRQQLGAMIANALDAVNIN-TDLADKYASGNSEISGQELRGLRDAIGDDASPEDILALVQEKIKDPALQSTALDYLVQTTPPSQGKLKEALIQARNTHTEQFGRTAIGAKNILFASQEYADQLNVSPSGLRSLYLEVTGDTHTCDQLLSMLQDRYTYQDMAIVSSFLMKGMATGLKRQGPYVPSAQLQVLMTETRNLQAVLTSYDYFESRVPILLDSLKAEGIQTPSDLNFVKVAESYHKIINDKFPTASKVEREVRNLIGDDVDSVTGVLNLFFSALRQTSSRLFSSADKRQQLGAMIANALDAVNIN-TDLADKYASGNSEISGQELRGLRDAIGDDASPEDILALVQEKIKDPALQSTALDYLVQTTPPSQGKLKEALIQARNTHTEQFGRTAIGAKNILFASQEYADQLNVSPSGLRSLYLEVTGDTHTCDQLLSMLQDRYTYQDMAIVSSFLMKGMATGLKRQGPYVPSAQLQVLMTETRNLQAVLTSYDYFESRVPILLDSLKAEGIQTPSDLNFVKVAESYHKIINDKFPTASKVEREVRNLIGDDVDSVTGVLNLFFSALRQTSSRLFSSADKRQQLGAMIANALDAVNIN-TDLADKYASGNSEISGQELRGLRDAIGDDASPEDILALVQEKIKDPALQSTALDYLVQTTPPSQGKLKEALIQARNTHTEQFGRTAIGAKNILFASQEYADQLNVSPSGLRSLYLEVTGDTHTCDQLLSMLQDRYTYQDMAIVSSFLMKGMATGLKRQGPYVPSAQLQVLMTETRNLQAVLTSYDYFESRVPILLDSLKAEGIQTPSDLNFVKVAESYHKIINDKFPTASKVEREVRNLIGDDVDSVTGVLNLFFSALRQTSSRLFSSADKRQQLGAMIANALDAVNIN-TDLADKYASGNSEISGQELRGLRDAIGDDASPEDILALVQEKIKDPALQSTALDYLVQTTPPSQGKLKEALIQARNTHTEQFGRTAIGAKNILFASQEYADQLNVSPSGLRSLYLEVTGDTHTCDQLLSMLQDRYTYQDMAIVSSFLMKGMATGLKRQGPYVPSAQLQVLMTETRNLQAVLTSYDYFESRVPILLDSLKAEGIQTPSDLNFVKVAESYHKIINDKFPTASKVEREVRNLIGDDVDSVTGVLNLFFSALRQTSSRLFSSADKRQQLGAMIANALDAVNIN,QSNEALPFPI-ITSERMPLPV-FTDEDYPYPD-ESYEEMPFPS-DTNERRPYPE-DSDEDYPRPL-LTTELYPLPL-LTSETYPYPD-ATLELMPFPF-YTNESYPFPV,SSKEDFPFPD-SSKEDFPFPD-SSKEDFPFPD-SSKEDFPFPD-SSKEDFPFPD-SSKEDFPFPD-SSKEDFPFPD-SSKEDFPFPD-SSKEDFPFPD-SSKEDFPFPD
