contacts,cs,ce,Chain,Length,designed_receptor_seq,native_receptor_seq,designed_binder_seq,native_binder_seq
13.0,64,74,A,10,KTIEALTKGLEKTLWAACVDENRGANA-RLDTVLAKIEDEWWAERCIHPERLENE-MHRAKLAKARTRKRWLTHVAKRRGLYR-ETLMNINGRLSAVLHKRCCDSNREKNN-EEEKRVQLMVSQINWLLDVDQNRPDYD-KTTKGIRLRVRTILHAAAVSEKAEEHR-GSHMDEVQRIRDLCIKKYQDYQRKQNQ-KTVEDLETLVNRLLYMTRVSPKRALFH-ELCKEREAELRALLHKKAVAADRAGHA-AQRRMKKLQIEKILAQLCVSAEASKKT,DEDVKKWREERKKMWLLKISNNKQKHM-DEDVKKWREERKKMWLLKISNNKQKHM-DEDVKKWREERKKMWLLKISNNKQKHM-DEDVKKWREERKKMWLLKISNNKQKHM-DEDVKKWREERKKMWLLKISNNKQKHM-DEDVKKWREERKKMWLLKISNNKQKHM-DEDVKKWREERKKMWLLKISNNKQKHM-DEDVKKWREERKKMWLLKISNNKQKHM-DEDVKKWREERKKMWLLKISNNKQKHM-DEDVKKWREERKKMWLLKISNNKQKHM,ALSRYRDSKP-WKQMAKEGRA-TARNFKMGTP-QKAKYLLSQD-HGERYLLSIV-EWVKFLEGRS-QVQNFNQSTP-SILSHLESKK-SAQRFLRGQP-TFGRFKASIH,PLLCEDKNVP-PLLCEDKNVP-PLLCEDKNVP-PLLCEDKNVP-PLLCEDKNVP-PLLCEDKNVP-PLLCEDKNVP-PLLCEDKNVP-PLLCEDKNVP-PLLCEDKNVP
29.0,11,21,B,10,ADDRAFPLADSVLTQEILTTVALAAKLQELDVGALASLRRLSFGEALLIVMAADCAPIGSLMSIPLACWAQSVPFIFVKSGHALGAACGVNQPVICCSITARADSPIAAQIAQIKVKISELI-ADPRAYPLADELLEKEILSLVQDAKIKSQLRIGARASYQELLKGNALLVVMAADCEPIEVLMDLPRQCFIRSVPFVFVKSKIKLGEACGVDKPVKACAITRDLSSDTAKKIRDIIIAIESIL-ANSNAFPLADKTLTSEILSTVKEAAAAKQLVNGATGSSIQLERGKALLVVMAADTIPIRNLMSIPKMCYERSVPFVFVESSLQLGKACGVSQPVNAAAITRNRETNIKAKIATIVTKIQKLL-SDPLAWPLANDNLSSSILSTIAKAAYLRQLDIGARNSLQTLLQGKALCVVMAADCYPIDMLMGMPLLCFEASVPYVFVRSSKALGEACGVPVPVECCAITSDAGSDTQDEISNIVTQIESIG-ANPMASPLAPSELTEKILGTVSLAAKRRMLRIGMDASKKSLMEGNALFVVMAADTSPIERLLKIPVLCFQKSVPYVFVESQRALGLACGVDKPVVACALIKDNLSLIKKEIDGIVVEIESLL-LNPLAYPLANDELSSQILSLVAEAQTGENLEVGAKGSVAKLLMGDALFIIMAADTAPIERLMFLPILCYAMSVPFIFVPSSTALGQACGVSEPVVAASIVANPGESIKAKIEEIVVEIEKLL-ADPRAWPLADSRMTQEILGIVDDARIQGQLVTGGKGSVARLLLGEAILVIMAADCMPIERLMFLPDLCHTKSVPYIFVPSSRLLGEACGVSRPVNCCAITRDGELMVESAVRQVVVRIAEVL-TDPRAFPLADAELEKKILSLVKEAQKEKELVLGLEGSLETLKKGEALFVVMAADTVPLGRLLEVPVECYRNSVPYVFVPSSVKLGEACGVSEPVTACCITKSSNTDTEAKIKEIVAEIQSIL-VNERAKPLADEELEKKILDIVSKAASSKQLVIGALGSIDTLLEGKALFVIMAADTAPIEKLMYIPVLCYMKSVPFVFVDSSLRLGKACGVNERVEAAAIIQDPNSDTKLKIDEIVKQITKIM-MNSNAFPLANDKLEEEILSVIALAQKEKCLKIGAFGSIKKLLEGDALFIVMAADCEPIERLLSLPILCYQRSVPFVFVSSSNKLGYSCGIGYPVIACAITANKTSNLRSQIQSIVREISSLI,PNPKAFPLADAALTQQILDVVQQAANLRQLKKGANEATKTLNRGISEFIIMAADCEPIEILLHLPLLCEDKNVPYVFVPSRVALGRACGVSRPVIAASITTNDASAIKTQIYAVKDKIETLL-PNPKAFPLADAALTQQILDVVQQAANLRQLKKGANEATKTLNRGISEFIIMAADCEPIEILLHLPLLCEDKNVPYVFVPSRVALGRACGVSRPVIAASITTNDASAIKTQIYAVKDKIETLL-PNPKAFPLADAALTQQILDVVQQAANLRQLKKGANEATKTLNRGISEFIIMAADCEPIEILLHLPLLCEDKNVPYVFVPSRVALGRACGVSRPVIAASITTNDASAIKTQIYAVKDKIETLL-PNPKAFPLADAALTQQILDVVQQAANLRQLKKGANEATKTLNRGISEFIIMAADCEPIEILLHLPLLCEDKNVPYVFVPSRVALGRACGVSRPVIAASITTNDASAIKTQIYAVKDKIETLL-PNPKAFPLADAALTQQILDVVQQAANLRQLKKGANEATKTLNRGISEFIIMAADCEPIEILLHLPLLCEDKNVPYVFVPSRVALGRACGVSRPVIAASITTNDASAIKTQIYAVKDKIETLL-PNPKAFPLADAALTQQILDVVQQAANLRQLKKGANEATKTLNRGISEFIIMAADCEPIEILLHLPLLCEDKNVPYVFVPSRVALGRACGVSRPVIAASITTNDASAIKTQIYAVKDKIETLL-PNPKAFPLADAALTQQILDVVQQAANLRQLKKGANEATKTLNRGISEFIIMAADCEPIEILLHLPLLCEDKNVPYVFVPSRVALGRACGVSRPVIAASITTNDASAIKTQIYAVKDKIETLL-PNPKAFPLADAALTQQILDVVQQAANLRQLKKGANEATKTLNRGISEFIIMAADCEPIEILLHLPLLCEDKNVPYVFVPSRVALGRACGVSRPVIAASITTNDASAIKTQIYAVKDKIETLL-PNPKAFPLADAALTQQILDVVQQAANLRQLKKGANEATKTLNRGISEFIIMAADCEPIEILLHLPLLCEDKNVPYVFVPSRVALGRACGVSRPVIAASITTNDASAIKTQIYAVKDKIETLL-PNPKAFPLADAALTQQILDVVQQAANLRQLKKGANEATKTLNRGISEFIIMAADCEPIEILLHLPLLCEDKNVPYVFVPSRVALGRACGVSRPVIAASITTNDASAIKTQIYAVKDKIETLL,TALYMERIES-RHEWLEKIAR-QEDYVKLIAP-IKDFIESIRP-KTRYLEEISR-KEHYSKAIAL-RKRWLECVMP-KALWLKNVAP-KKLFKEKIKP-AYNYKKKIFE,KKMWLLKISN-KKMWLLKISN-KKMWLLKISN-KKMWLLKISN-KKMWLLKISN-KKMWLLKISN-KKMWLLKISN-KKMWLLKISN-KKMWLLKISN-KKMWLLKISN
