contacts,cs,ce,Chain,Length,designed_receptor_seq,native_receptor_seq,designed_binder_seq,native_binder_seq
19.0,113,123,A,10,PHLVIEATANLELRCSPGELLDRATAALGASGLFAEADIKARFVTLEHYRIGDAAVDRANLHATLRILEGRDIAARTLLGERLHAVLADAVAGGGAGGVAVSVEVVELDRASYAKAVG-PHLVIEATANLELRCSPGELLERANRALLASGLFEEEDIKSRFVTLEHYRIGEAAVERANLHATLRILEGRDIAARTLLGERLHAVLAEAVAGGGASGVAVSVEVVELDRASYAKAVG-PHLVIEATANLELRCSPGELLDRANAALLASGLFAEEDIKSRFVTLEHYRIGAAAEARANLHATLRILEGRDIAARTLLGERLHAVLADAVAGGGAGGVRVSVEVVELDRASYAKAVG-PHLVIEATANLELRCSPGELLERATAALGASGLFAEEDIKARFVTLEHYRIGAAAEARANLHATLRILEGRDIAARTLLGERLHAVLAEAVAGGGAAGVAVSVEVVELDRASYAKAVG-PHLVIEATANLELRCSPGELLERANAALLASGLFAEADIKSRFVTLEHYRIGDAAVERANLHATLRILEGRDIAARTLLGERLLAVLTDAVAGGGAGGVAVSVEVVELDRASYAKAVG-PHLVIEATANLELRCSPGELLDRATAALGASGLFAEADIKARFVTLEHYRIGDAAVARANLHATLRILEGRDIAARTLLGERLHAVLADAVAGGGAEGVAVSVEVVELDRASYAKAVG-PHLVIEATANLELRCSPGELLERANAALLASGLFEREDIKSRFVTLEHYRIGLADEARANLHATLRILEGRDIAAKTLLGERLLAVLTDAVAGGGAEGVAVSVEVVELDRASYAKFVG-PHLVIEATANLELRCSPGELLERATAALGASGLFAEEDIKARFVTLEHYRIGTAAVERANLHATLRILEGRDIAARTLLGERLHAVLAEAVAGGGAGGVAVSVEVVELDRASYAKAVG-PHLVIEATANLELRCSPGELLERANAALLASGLFEREDIKSRFVTLEHYRIGLADEARANLHATLRILEGRDIAAKTLLGERLLAVLTEAVAGGGASGVAVSVEVVELDRASYAKAVG-PHLVIEATANLELRCSPGELLERANRALLASGLFEEADIKSRFVTLEHYRIGDAAVERANLHATLRILEGRDIAAKTLLGERLLAVLTEAVAGGGASGVAVSVEVVELDRASYAKAVG,PHLVIEATANLRLETSPGELLEQANKALFASGQFGEADIKSRFVTLEAYRQGTAAVERAYLHACLSILDGRDIATRTLLGASLCAVLAEAVAGGGEEGVQVSVEVREMERLSYAKRVV-PHLVIEATANLRLETSPGELLEQANKALFASGQFGEADIKSRFVTLEAYRQGTAAVERAYLHACLSILDGRDIATRTLLGASLCAVLAEAVAGGGEEGVQVSVEVREMERLSYAKRVV-PHLVIEATANLRLETSPGELLEQANKALFASGQFGEADIKSRFVTLEAYRQGTAAVERAYLHACLSILDGRDIATRTLLGASLCAVLAEAVAGGGEEGVQVSVEVREMERLSYAKRVV-PHLVIEATANLRLETSPGELLEQANKALFASGQFGEADIKSRFVTLEAYRQGTAAVERAYLHACLSILDGRDIATRTLLGASLCAVLAEAVAGGGEEGVQVSVEVREMERLSYAKRVV-PHLVIEATANLRLETSPGELLEQANKALFASGQFGEADIKSRFVTLEAYRQGTAAVERAYLHACLSILDGRDIATRTLLGASLCAVLAEAVAGGGEEGVQVSVEVREMERLSYAKRVV-PHLVIEATANLRLETSPGELLEQANKALFASGQFGEADIKSRFVTLEAYRQGTAAVERAYLHACLSILDGRDIATRTLLGASLCAVLAEAVAGGGEEGVQVSVEVREMERLSYAKRVV-PHLVIEATANLRLETSPGELLEQANKALFASGQFGEADIKSRFVTLEAYRQGTAAVERAYLHACLSILDGRDIATRTLLGASLCAVLAEAVAGGGEEGVQVSVEVREMERLSYAKRVV-PHLVIEATANLRLETSPGELLEQANKALFASGQFGEADIKSRFVTLEAYRQGTAAVERAYLHACLSILDGRDIATRTLLGASLCAVLAEAVAGGGEEGVQVSVEVREMERLSYAKRVV-PHLVIEATANLRLETSPGELLEQANKALFASGQFGEADIKSRFVTLEAYRQGTAAVERAYLHACLSILDGRDIATRTLLGASLCAVLAEAVAGGGEEGVQVSVEVREMERLSYAKRVV-PHLVIEATANLRLETSPGELLEQANKALFASGQFGEADIKSRFVTLEAYRQGTAAVERAYLHACLSILDGRDIATRTLLGASLCAVLAEAVAGGGEEGVQVSVEVREMERLSYAKRVV,AGAAAAAALR-AGAAAAAALR-AGAAAAAALR-AGAAAAAALR-AGAAAAAALR-AGAAAAAALR-AGAAAAAALR-AGAAAAAALR-AGAAAAAALR-AGAAAAAALG,GAEAAAYLLA-GAEAAAYLLA-GAEAAAYLLA-GAEAAAYLLA-GAEAAAYLLA-GAEAAAYLLA-GAEAAAYLLA-GAEAAAYLLA-GAEAAAYLLA-GAEAAAYLLA
32.0,72,82,B,10,MKDPIIEANGTLDELQSFIGLAKEFVDEEMKGILEEIQNDIFTMMGEIGSLGKIKGISKEKIDWLVELIEKYLKEVGIVLPGGTLESAYLDICRTVSRRALRRVEVVAEKFGIGYKEAAYLLLLSDLLFLLARVIEIKKG-MEEPIKNANGTLDELQSFIGLAKEFVDEEMKGILEEIQNDIFDMMGEIGSLGKIKGISKEKIKKLVELIEKYLKEVGILLPGGTLESAFLDVCRTVSRRSLRRVEVVLEKFGIGGREAAYLLLLSRLLFLLARVIEIKKG-MKDPIIEANGTLDELQSFIGLAKEFVDEEMKGILEEIQNDIFTMMGEIGSLGKIKGISKEKIKKLVELIEKYLKEVGIVLPGGTLESAFLDVCRTVSRRALRRVEVVAEKFGIGKKEAAYLLLLSELLFLLARVIEIKKG-MEEPIKNANGTLDELQSFIGLAKEFVDEEMKGILEEIQNDIFTMMGEIGSLGKIKGISKEKIKKLVELIEKYEKEVGILLPGGTLESAFLDLCRTVSRRALRRVEVVAEKFGIGKKEAAYLLLLSRLLFLLARVIEIKKG-MKDPIIEANGTLDELQSFIGLAKEFVDEEMKGILEEIQNDIFDMMGEIGSLGKIKGISKEKIKKLVELIDKYLEKVGVLLPGGTLESAFLDVCRTVSRRSLRRVEVVAEKFGIGYKEAAYLLLLSDLLFLLARVIEIKKG-MKDPIIEANGTLDELQSFIGLAKEFVDEEMKGILEEIQNDIFDMMGEIGSLGKIKGISKEKIKKLVELIEKYLKEVGILLPGGTLESAFLDVCRTVARRSLRRVEVVAKEFGIGYKEAAYLLLLSDLLFLLARVIEIKKG-MKDPIIEANGTLDELQSFIGLAKEFVDEEMKGILEEIQNDIFDMMGEIGSLGKIKGISKEKIKKLVELIDKYLKEVGVLLPGGTLESAFLDVCRTVSRRALRRVEVVAEKFGIGYKEAAYLLLLSDLLFLLARVIEIKKG-MEEPIKNANGTLDELQSFIGLAKEFVDEEMKGILEEIQNDIFDMMGEIGSLGKIKGISKEKIKKLVELIDKYLKEVGIVLPGGTLESAFLDVCRTVSRRALRRVEVVAEKFGIGKKEAAYLLLLSDLLFLLARVIEIKKG-MKDPIIEANGTLDELLSFIGLAKEFVDEEMKGILEEIQNDIFTMMGEIGSLGKIKGISKEKIKKLVELIDKYLKEVGILLPGGTLESAFLDVCRTVSRRSLRRVEVVLEKFGIGGREAAYLLLLSDLLFLLARVIEIKKG-MEEPIKNANGTLDELQSFIGLAKEFVDEEMKGILEEIQNDIFDMMGEIGSKGKIKGISKEKIKKLVELIEKYLKEVGIVLPGGTLESAFLDVCRTVSRRALRRVEVVAEKFGIGKKEAAYLLLLSDLLFLLARVIEIKKG,KDSPIIEANGTLDELTSFIGEAKHYVDEEMKGILEEIQNDIYKIMGEIGSKGKIEGISEERIAWLLKLILRYMEMVNFVLPGGTLESAKLDVCRTIARRALRKVLTVTREFGIGAEAAAYLLALSDLLFLLARVIEIEKN-KDSPIIEANGTLDELTSFIGEAKHYVDEEMKGILEEIQNDIYKIMGEIGSKGKIEGISEERIAWLLKLILRYMEMVNFVLPGGTLESAKLDVCRTIARRALRKVLTVTREFGIGAEAAAYLLALSDLLFLLARVIEIEKN-KDSPIIEANGTLDELTSFIGEAKHYVDEEMKGILEEIQNDIYKIMGEIGSKGKIEGISEERIAWLLKLILRYMEMVNFVLPGGTLESAKLDVCRTIARRALRKVLTVTREFGIGAEAAAYLLALSDLLFLLARVIEIEKN-KDSPIIEANGTLDELTSFIGEAKHYVDEEMKGILEEIQNDIYKIMGEIGSKGKIEGISEERIAWLLKLILRYMEMVNFVLPGGTLESAKLDVCRTIARRALRKVLTVTREFGIGAEAAAYLLALSDLLFLLARVIEIEKN-KDSPIIEANGTLDELTSFIGEAKHYVDEEMKGILEEIQNDIYKIMGEIGSKGKIEGISEERIAWLLKLILRYMEMVNFVLPGGTLESAKLDVCRTIARRALRKVLTVTREFGIGAEAAAYLLALSDLLFLLARVIEIEKN-KDSPIIEANGTLDELTSFIGEAKHYVDEEMKGILEEIQNDIYKIMGEIGSKGKIEGISEERIAWLLKLILRYMEMVNFVLPGGTLESAKLDVCRTIARRALRKVLTVTREFGIGAEAAAYLLALSDLLFLLARVIEIEKN-KDSPIIEANGTLDELTSFIGEAKHYVDEEMKGILEEIQNDIYKIMGEIGSKGKIEGISEERIAWLLKLILRYMEMVNFVLPGGTLESAKLDVCRTIARRALRKVLTVTREFGIGAEAAAYLLALSDLLFLLARVIEIEKN-KDSPIIEANGTLDELTSFIGEAKHYVDEEMKGILEEIQNDIYKIMGEIGSKGKIEGISEERIAWLLKLILRYMEMVNFVLPGGTLESAKLDVCRTIARRALRKVLTVTREFGIGAEAAAYLLALSDLLFLLARVIEIEKN-KDSPIIEANGTLDELTSFIGEAKHYVDEEMKGILEEIQNDIYKIMGEIGSKGKIEGISEERIAWLLKLILRYMEMVNFVLPGGTLESAKLDVCRTIARRALRKVLTVTREFGIGAEAAAYLLALSDLLFLLARVIEIEKN-KDSPIIEANGTLDELTSFIGEAKHYVDEEMKGILEEIQNDIYKIMGEIGSKGKIEGISEERIAWLLKLILRYMEMVNFVLPGGTLESAKLDVCRTIARRALRKVLTVTREFGIGAEAAAYLLALSDLLFLLARVIEIEKN,EGIEIAEKLY-KGIEIAEKLL-EGVKVAEELL-EGLEVAEKLL-EGVEVAEKLR-EGIKVAEELY-EGIKVAEELY-EGEKIAKELY-EGIKIAEELY-EGVEVAEELY,IATRTLLGAS-IATRTLLGAS-IATRTLLGAS-IATRTLLGAS-IATRTLLGAS-IATRTLLGAS-IATRTLLGAS-IATRTLLGAS-IATRTLLGAS-IATRTLLGAS
