contacts,cs,ce,Chain,Length,designed_receptor_seq,native_receptor_seq,designed_binder_seq,native_binder_seq
36.0,200,210,A,10,GRTHMGPYPDKERSDPIRAEQSSILGTFEDNFDSIGSD-DPLVAAPEPVLQHSDPLVQAIEDVLGDCSAFSHNFGPE-RPLFQKPYQSYSYSCPILKLTDDTFGKCHVYAPNYGRK-APKYDEPRLKLDTDDPARKAVKEEYGEFWEVCNSVGDA-HPLKAWPIPNLDNNDPEFKAVTEVFGVFSKIKKGCGLF-SPSQADPVPVLDQKDPVKKESQSVFGDYEVLRPSFGNC-SPLFASPVIDEARNDPTREAVEKLFGKFEEIRSSVGTG-GPLYEQPEPVLNRSDPLEDAVLDQFGEFNKVRNELGKQ-RPLWKPPQPHDDIFDPVNEAVHRLYGEYEEVRRGIGLG-PPIRTMPRPSDKYDDPILQAQIDYYGDFAEKRKDLGKD,SPLFAEPYKVTSKEDKLSSRIQSMLGNYDEMKDFIGDR-SPLFAEPYKVTSKEDKLSSRIQSMLGNYDEMKDFIGDR-SPLFAEPYKVTSKEDKLSSRIQSMLGNYDEMKDFIGDR-SPLFAEPYKVTSKEDKLSSRIQSMLGNYDEMKDFIGDR-SPLFAEPYKVTSKEDKLSSRIQSMLGNYDEMKDFIGDR-SPLFAEPYKVTSKEDKLSSRIQSMLGNYDEMKDFIGDR-SPLFAEPYKVTSKEDKLSSRIQSMLGNYDEMKDFIGDR-SPLFAEPYKVTSKEDKLSSRIQSMLGNYDEMKDFIGDR-SPLFAEPYKVTSKEDKLSSRIQSMLGNYDEMKDFIGDR-SPLFAEPYKVTSKEDKLSSRIQSMLGNYDEMKDFIGDR,LSGLVIPPKS-CDYQQFPSVP-HCGLYFPKLP-WAGLEYPPKK-LSGLLFPRKP-RDGLEMPPLP-LGGLKFPKSP-KDGLRVPDVQ-WGFLYYPGQP-FDGSYQPRAK,WSNWEIPVST-WSNWEIPVST-WSNWEIPVST-WSNWEIPVST-WSNWEIPVST-WSNWEIPVST-WSNWEIPVST-WSNWEIPVST-WSNWEIPVST-WSNWEIPVST
39.0,0,10,B,10,MSQSQWYFSRTELQHTPSHELGLPYNEEMELRKWASKLIREMGRELQVRNETIATAMVYTHRFYRVRSGRHYHAKNVAPAALWLASKVEETPRKLRDVLRAAHLILHPSEALPPESSDFYMKTRRDILNYEMIILETLKFDMLQIHPSYFVRKMCARINASAELSACALYFADQILERTVFCMMYRPPEIACIAIFTSCCAFGQVVPRAKDGREWYEYVHPSIDLQFLQDEERKLVDVLRELPDKRKEQKRPPKEN-GSAEAWFYTKEELEDTPSMAHGMPTTAWRTLMREGAQLSLQMGQLLRLRRETIATCIQYLRRFYTRASTVVFPPSLVVPAAVYLAAKLEETPRDLRTVIHTDHRLQNPDEDVPSEDSTKFQQQKQELIDIEIRILRELEYSLAVSHPLFYILQTCTKVHASRRLTALACDYGNDAYELTDFYLMYPPPKCACVCIHLSCKEENQTIPLALDGREWYKYVSSSVTYEFLHEMEGHIEDEVKSLSEDENFTLAPLAEE-MSFWRWYYTIPELSDTPSHQLGCHPEAEQTYRRQAAGLIHEMGKGLKVTENTIATAIVYVHKFYRIQSFQNYSPRSIAPAALLLAAKIEETPRKLKHVIVTAHKILKPGEKIPNESSEEFQKTTDEILRNELLLLQTLEFQTTISHPYRYIRQTCNLVQATNESTVVAWDIGNCLLELTDFDLCLPPPQIACTAIYLTCKLKRDFIPLSEDGKPWFQYIEKRVTLEFLEKMAEYFEEKQQSLPNLLEHLKDILTYD-GSAETWLYTEDQLQSTPSHQQGIPPSEERQYRRQAANCLTTMGKYLVVRQQTIATSINYVDRFYRICSFSDYPPTLVAPAALYLASKVEESPKKLGMVIQAAHHVIYPNQTLPPESSAEWLKFCEETLRLELIILERLLFELATYHPELYVRESLRQVNADNYGSLLALWFADQILLNTLFCLQYYPPQIACVAVFTMAKQTERTVPLSVDGKPWYAYVDKSVTEAFLKEMDEEFEAVQKSLPYNNAEAWKPPKAG-HMDFLWKYTFEQLSLTPSNLHGIPRQDEKHFRREAASLILKMGIKLQVKKETMATAINYCHRFYTVKSFTSYLPMDICPAVLFLAAKVEESPRSLGKVAEVAWFLQNPGSALPDHESDAFRRMKRELRFLELVVLKELMFDLTIYHPYIYIVRTTVQIHAGLHARQLGLSFGLNIYDQTDFDLQLKPPMIACIAIYMTGLRMGLWVPLARDGRRWYEFVAEEVDFTLLKNLEAKVCERLRQNPLETLSDFDPEDSE-SDADRWYYTEEELQDRSSHRVGVPYLDELKLRRDAANLLAIMGVRCKVTDSAKATAIAFCHRFYTRASFRNFSPVSVAPGALFLASKVEESPRKLKKILKTAWSVKCPGEKFPEEDSEDFMEWKRLIKETEFIILETLGFSLTTVHPHYYIVRGCQQFKCSEEFTATAWEHGNDILERTQFDLMLVPPMQACVAVFLASKSLKMQVPKASDGKPWFHYVANAITLKELQDWTKRVDQVQASGDFEWVYTREPTPGP-MASNKWMYSEEELAKTPSNMFGVPKEDWLRLSRSGSCLLKAMGEKLRVTHSTIATAMQYFHRFYTVESVTKYKSIDVSPAALYLASKVEETPRQLHDVMESAFLLTSPQDRLPSIESAEYIQWRQRLVEDEWIILKTLEFQLNIEHPHYFVRKSCQLFQLEKDTQELALEFSWQSLTFTDFCLRYTAPQIACLCIFLACKKSHKHIPLARDGRPWFAFIHQKISLEFLTNWCAVVNQRISERPNVATGVWYPLDDE-KENLMWLYTKQQLQHTPSAEHGIPKEAEKDLRRSCATLLTQMGLRLDCTQKTIATSVVYFHRFYMVASFTEFYPEDVAPAALFLASKIEETPRKLTSVIKTAYEILHPHEALPDEESEKFLEWQKQVCALEIIILDKLNYQMIVTHPHYYIQKTTAMIKADKETAMLAHENGSHLLQITDFCLMLPPPQIACVAIFFSNKLREMTVPKSIHGAMWFQHVDAGITMEMLKDYTDIFIKKMEALPKVHETFKDIPAVA-MATELWYFSRTQLQETPSNKEGIPTEEEDYRLRIGATLTKQMGDKLQVRGTTVATAVNYMHRFYTVESFTLYLWSHVAPSVLLLASKIEEQPRQIEDILKVAHSLLNPEEPLPKKTSIEYLKDKKEVLKLEMRILETLGFQLNVTHPHTFIRSTCESVHAEREAKTLSWNFGNELLDKTKFCLMYHPEEIACVAVYYACKMLRLYIPRHKGGKTWYKDVARSVTQEFLEERAKTLQMEYKKMPDVRKAVASPVTAK-FEVEEWFYTEEQLERTASHWVGIPESEEGRNHREAAMLLRDMATRLLVRHKTMATAIVYFHRFYRIQSVRDYKSTVVAPAALYLAAKIEESPRKVDDVIRVSWRILKPREKLPDRSSQTYQDMKTGLVHTEFDILFRLKFELAVTHPYYFIRKTAEKVLMNSKGAAIALSFGDRILEVTDFCLIHEPEVIACVAIYFTCKTADMFIPRAQNGRPWFSFVDYNVRHQLLVAEATEFDVRMQEKPTTLQFLHEKLSSD,NNNKRWYFTREQLENSPSRRFGVDPDKELSYRQQAANLLQDMGQRLNVSQLTINTAIVYMHRFYMIQSFTQFPGNSVAPAALFLAAKVEEQPKKLEHVIKVAHTCLHPQESLPDTRSEAYLQQVQDLVILESIILQTLGFELTIDHPHTHVVKCTQLVRASKDLAQTSYFMATNSLHLTTFSLQYTPPVVACVCIHLACKWSNWEIPVSTDGKHWWEYVDATVTLELLDELTHEFLQILEKTPNRLKRIWNWRACE-NNNKRWYFTREQLENSPSRRFGVDPDKELSYRQQAANLLQDMGQRLNVSQLTINTAIVYMHRFYMIQSFTQFPGNSVAPAALFLAAKVEEQPKKLEHVIKVAHTCLHPQESLPDTRSEAYLQQVQDLVILESIILQTLGFELTIDHPHTHVVKCTQLVRASKDLAQTSYFMATNSLHLTTFSLQYTPPVVACVCIHLACKWSNWEIPVSTDGKHWWEYVDATVTLELLDELTHEFLQILEKTPNRLKRIWNWRACE-NNNKRWYFTREQLENSPSRRFGVDPDKELSYRQQAANLLQDMGQRLNVSQLTINTAIVYMHRFYMIQSFTQFPGNSVAPAALFLAAKVEEQPKKLEHVIKVAHTCLHPQESLPDTRSEAYLQQVQDLVILESIILQTLGFELTIDHPHTHVVKCTQLVRASKDLAQTSYFMATNSLHLTTFSLQYTPPVVACVCIHLACKWSNWEIPVSTDGKHWWEYVDATVTLELLDELTHEFLQILEKTPNRLKRIWNWRACE-NNNKRWYFTREQLENSPSRRFGVDPDKELSYRQQAANLLQDMGQRLNVSQLTINTAIVYMHRFYMIQSFTQFPGNSVAPAALFLAAKVEEQPKKLEHVIKVAHTCLHPQESLPDTRSEAYLQQVQDLVILESIILQTLGFELTIDHPHTHVVKCTQLVRASKDLAQTSYFMATNSLHLTTFSLQYTPPVVACVCIHLACKWSNWEIPVSTDGKHWWEYVDATVTLELLDELTHEFLQILEKTPNRLKRIWNWRACE-NNNKRWYFTREQLENSPSRRFGVDPDKELSYRQQAANLLQDMGQRLNVSQLTINTAIVYMHRFYMIQSFTQFPGNSVAPAALFLAAKVEEQPKKLEHVIKVAHTCLHPQESLPDTRSEAYLQQVQDLVILESIILQTLGFELTIDHPHTHVVKCTQLVRASKDLAQTSYFMATNSLHLTTFSLQYTPPVVACVCIHLACKWSNWEIPVSTDGKHWWEYVDATVTLELLDELTHEFLQILEKTPNRLKRIWNWRACE-NNNKRWYFTREQLENSPSRRFGVDPDKELSYRQQAANLLQDMGQRLNVSQLTINTAIVYMHRFYMIQSFTQFPGNSVAPAALFLAAKVEEQPKKLEHVIKVAHTCLHPQESLPDTRSEAYLQQVQDLVILESIILQTLGFELTIDHPHTHVVKCTQLVRASKDLAQTSYFMATNSLHLTTFSLQYTPPVVACVCIHLACKWSNWEIPVSTDGKHWWEYVDATVTLELLDELTHEFLQILEKTPNRLKRIWNWRACE-NNNKRWYFTREQLENSPSRRFGVDPDKELSYRQQAANLLQDMGQRLNVSQLTINTAIVYMHRFYMIQSFTQFPGNSVAPAALFLAAKVEEQPKKLEHVIKVAHTCLHPQESLPDTRSEAYLQQVQDLVILESIILQTLGFELTIDHPHTHVVKCTQLVRASKDLAQTSYFMATNSLHLTTFSLQYTPPVVACVCIHLACKWSNWEIPVSTDGKHWWEYVDATVTLELLDELTHEFLQILEKTPNRLKRIWNWRACE-NNNKRWYFTREQLENSPSRRFGVDPDKELSYRQQAANLLQDMGQRLNVSQLTINTAIVYMHRFYMIQSFTQFPGNSVAPAALFLAAKVEEQPKKLEHVIKVAHTCLHPQESLPDTRSEAYLQQVQDLVILESIILQTLGFELTIDHPHTHVVKCTQLVRASKDLAQTSYFMATNSLHLTTFSLQYTPPVVACVCIHLACKWSNWEIPVSTDGKHWWEYVDATVTLELLDELTHEFLQILEKTPNRLKRIWNWRACE-NNNKRWYFTREQLENSPSRRFGVDPDKELSYRQQAANLLQDMGQRLNVSQLTINTAIVYMHRFYMIQSFTQFPGNSVAPAALFLAAKVEEQPKKLEHVIKVAHTCLHPQESLPDTRSEAYLQQVQDLVILESIILQTLGFELTIDHPHTHVVKCTQLVRASKDLAQTSYFMATNSLHLTTFSLQYTPPVVACVCIHLACKWSNWEIPVSTDGKHWWEYVDATVTLELLDELTHEFLQILEKTPNRLKRIWNWRACE-NNNKRWYFTREQLENSPSRRFGVDPDKELSYRQQAANLLQDMGQRLNVSQLTINTAIVYMHRFYMIQSFTQFPGNSVAPAALFLAAKVEEQPKKLEHVIKVAHTCLHPQESLPDTRSEAYLQQVQDLVILESIILQTLGFELTIDHPHTHVVKCTQLVRASKDLAQTSYFMATNSLHLTTFSLQYTPPVVACVCIHLACKWSNWEIPVSTDGKHWWEYVDATVTLELLDELTHEFLQILEKTPNRLKRIWNWRACE,VPLWDQPTPC-NPHWARPTPV-FPAWAKPYPI-EPRWLYPSPT-IPLWAKPEPK-SPLWASPFPV-PRLWNFPFPK-DPMFKKPEPK-PPLFQEPVPV-ERMWEDPFPV,SPLFAEPYKV-SPLFAEPYKV-SPLFAEPYKV-SPLFAEPYKV-SPLFAEPYKV-SPLFAEPYKV-SPLFAEPYKV-SPLFAEPYKV-SPLFAEPYKV-SPLFAEPYKV
