contacts,cs,ce,Chain,Length,designed_receptor_seq,native_receptor_seq,designed_binder_seq,native_binder_seq
27.0,277,287,A,10,MSLLVVVTRNSPPQLLNRLAQHLDAIQRGVFVGYVSRQERNQIWWWVRQQDHYGQVVMTWLEYSKTGYQFITHGMHRNTPVQVNGLLGVCGMPSLFDDEAK-MSKVTVVTRYTPPKLRGELKKRLNQVRKGVYIGYVSRTELARIWEDIISLSNTGRVIMTWEENTETGFRYHTHGEYADVPVLVNGKLAAASKPRGEKTGDE-MSMLCVAVANVPPRLKRRLALSLEEVEKGVYVGYLTEREKNQIWSEIVELANNGRVVACWSTNTSTGFSYQMWGYDAASPVLVDGKLAAAARPSLEKARLQ-MSLLIVAVQDTPPALRGRLARQLDEVQEGVYVGMITQEQRAELWQDVVTMSYQGNVVMSWVTDTRTGYRFQQWGRHADTPVLYRGMTLTASRPDHRSLKYE-MPYLLVVTRDVPPALRGELRKVLKEIQRGVYVGVVSDQRRAEIWERIRTQSQDGRVIMAWVTNTETGFMFNTHGRERTTPVLVRGWLAGAERPSLSRQLDK-MERLVVAAANVPPVLMNALARDLAQVHQGVFVGEVTDEKRRELWAVIREQSENGRVMMAWVEDTLTGYRFETWGYRAKVPVLRQGWVYSAAQPEGWDQESA-MSVLVVAVDEVPPDLEGSLRMELRELQDGVYVGDVTLDERRRIWDNIERLANEGSVIMAWRTGTKTGYRFHTWGKNKEEPVLIDGKMRVAFLPDLTSHLEE-HFQLIVVTDQTPPVLRGRLANSLEEVQRGVFVGYVTKEERERIWAEVSKESQTGRVIMLWAENTKTGFSFETWGFEKEVPVLRDGVMLRAHRPFYYRNKLI-MSYLVVVTENVPPALRGKLATVLDEVKKGVYVGYVTEEERVMIWDQIVNQSRKGRVVMMWEEKSLSGYRYNAHGKNAEVPVLVAGRLLTARIPRLDDVLAH-SEVLVVTTQNVPPSLGGKLRQHLWEVRRGVYVGFVSENVRQDLWFQVVQLSDTGHVVMVWATDSLTGFSLHTHGSNAMTPILIDGILGIAEVPKLNESYLQ,MSMLVVVTENVPPRLRGRLAIWLLEVRAGVYVGDVSAKIREMIWEQIAGLAEEGNVVMAWATNTETGFEFQTFGLNRRTPVDLDGLRLVSFLPVGSSENLY-MSMLVVVTENVPPRLRGRLAIWLLEVRAGVYVGDVSAKIREMIWEQIAGLAEEGNVVMAWATNTETGFEFQTFGLNRRTPVDLDGLRLVSFLPVGSSENLY-MSMLVVVTENVPPRLRGRLAIWLLEVRAGVYVGDVSAKIREMIWEQIAGLAEEGNVVMAWATNTETGFEFQTFGLNRRTPVDLDGLRLVSFLPVGSSENLY-MSMLVVVTENVPPRLRGRLAIWLLEVRAGVYVGDVSAKIREMIWEQIAGLAEEGNVVMAWATNTETGFEFQTFGLNRRTPVDLDGLRLVSFLPVGSSENLY-MSMLVVVTENVPPRLRGRLAIWLLEVRAGVYVGDVSAKIREMIWEQIAGLAEEGNVVMAWATNTETGFEFQTFGLNRRTPVDLDGLRLVSFLPVGSSENLY-MSMLVVVTENVPPRLRGRLAIWLLEVRAGVYVGDVSAKIREMIWEQIAGLAEEGNVVMAWATNTETGFEFQTFGLNRRTPVDLDGLRLVSFLPVGSSENLY-MSMLVVVTENVPPRLRGRLAIWLLEVRAGVYVGDVSAKIREMIWEQIAGLAEEGNVVMAWATNTETGFEFQTFGLNRRTPVDLDGLRLVSFLPVGSSENLY-MSMLVVVTENVPPRLRGRLAIWLLEVRAGVYVGDVSAKIREMIWEQIAGLAEEGNVVMAWATNTETGFEFQTFGLNRRTPVDLDGLRLVSFLPVGSSENLY-MSMLVVVTENVPPRLRGRLAIWLLEVRAGVYVGDVSAKIREMIWEQIAGLAEEGNVVMAWATNTETGFEFQTFGLNRRTPVDLDGLRLVSFLPVGSSENLY-MSMLVVVTENVPPRLRGRLAIWLLEVRAGVYVGDVSAKIREMIWEQIAGLAEEGNVVMAWATNTETGFEFQTFGLNRRTPVDLDGLRLVSFLPVGSSENLY,APEIPDPVSW-APGIPKPKKL-PPAIPRPVEI-MPEIPLPVEL-APAIPRPVRL-TPEIPLPDID-APEIPHPITI-VPSIPRPVTV-RPVIPRPVTV-RPSVPEPVEQ,PVAIPLPVSL-PVAIPLPVSL-PVAIPLPVSL-PVAIPLPVSL-PVAIPLPVSL-PVAIPLPVSL-PVAIPLPVSL-PVAIPLPVSL-PVAIPLPVSL-PVAIPLPVSL
21.0,15,25,B,10,MGIIPIPLEERISSIDIAFGRIDVVNGRFVVVDSRGETMHIPIGSVAVVSLLPGVTVSSSAKQLAAMVGTVLVGTGPGGETVWFYGTPGGKSSDRLLYQSALAKDEKLRLMVVEKMFELQYGEPAPKEMSIEELRGLEGMKVREYYKRLADEWGVEFYGRIRSPQLDRCINAATACLYGTTLAAILAAGYDPSIGYIHRGAPSSFVHDIADIVKFRVINPAAYEIARRNPGDPVTAVRDACRDLFRANAILAKLIPLIHEVLAAGRIEPPEPPEAVKPEAVPIPIRNV-FGVIPQPLSSRIASVDIHSGTVDVVDGRFVVQDSAGKTSHVPVGAVACVRLSPGVAVTTAAISLASDLGTLLVGVGRHGYPLWYAGAPGGTRKDLLAYQAQAASDEDLRLRVVRRMYELRHGRPAPADLTVEQLRGLEGRLVKHRYQALAKDFGVTFKGREHERLLNICINAAQSCLYGITRAAILEAGYDPAVGFLHQGAPLSFVYDVADVMKFQTIDPAAFAIAATAPGRPEKAVAAKCRELFTANQTLARLRPLIHQVLAACEVQPPAPPELALPSRIPSPIADI-QGHMPIPLEARTAQVWLRRGTIDVREGAFVLVDDSGRHTHIPIGAVAVWRLQPGVTVTTAAIQQAARLGTLLVGVGDAGRTAWWAGYPGGDDRRRLLYQATIAADQTLRLKVVRRMFELKWGEPAPEAMTEEELRGLEGRRRRAEYARLASEYGVAWTGRDFTPLLNSCINAATHDLYGVTQAAILAAGYDPAVGYIHRGRPASFVLDISDVVRFAYITPAAFRIAAQAPGRPVEEVKRACIDRFTATDLLARLIPSIHHILAAAELAPPAPPEVRAPAASPRPIRQV-TNLEPVPLNRRRASLLIERGMIDVVNGSFVIVDDLGARFHVPIGSVACVFLMPGVRVSHDAMKMAAEVGTELVGVGFYGRTVWRSGFPGGTRLDLLAYQAMAAVDEELRLRVVRRMYELRWGAPAPESLTVEQLRGLEGRKTRALYALYAKQYGVEFSGRVFDPKLNLCINAGSSQLYGVTDSAILAAGFDPSVGFIHRGKPLSFVYDVADIVKHRYIDPASFEIASRSPGDPTARVAVKCADIFCFSKYLERLIPLIHDILAACEITPPEPPVVIEPVRHPLPQARS-MGLIPIPLRNRRSSVYIFSGKLDVVDGAFVVMDRAGLQTHIPIGSVACIFLNPGVEVSERAREVAAEVGTLLVGVGSRGAIVWWSGRPGGTRSDLLLYQATIARDTTLRLLCVRRMFELRFGAPAPEDLSESQLKGLEGELVRARYAEYAARHGVAFAGRRFAPELNLAIGAANACLYGITLAAIIRAGYDPSVGFIHRGEPYSFVFDISDVVKYRYITPVAFAIAKAKPGRPVEEVKAACREVFKAADLLARLEPLIQRILAAAHIEPPRPPEYAAPRIVPEPLRAR-MGVKPIPLSKTRSMIYLERGTVDVVKGRFVIRDDQGRELHVPIGAVAVIALAPGVKITSAAVRLAADVGTLLLGVERYGTPAYYASTPGGCDAQWLMFQLAAATDEVLRLRVVRRMYELRWGRPAPSDLTVEQLRGLEGRLVAERYAELAEKYGVEYAGRRSSPVLDTCINAATSCLYGVTEAAILRAGFDPSLGFIHRGKPLSFVYDIADIVKFRIVEPASFAIAVKNPGQPVAQVREACENLFELEDLLARMIPLIHRVLAACDLTPPAPPLMTLPDALPEPLSHT-SGSMPVPLRSRVAQRSVTTGRIDVVEGAFVVVDQKGARNHIPIGAIAVIALEPGVTVTTAAVERASQVGTLLLGVGQGGVPEWWSHSPGGTDMTLLNYQARCAADERLRLDVVQRMFELRFGRPAPKDLSVEEIRGLEGFHRRQRYLDLAQQYGVRFFGRETTPRLNRCINAAVHCLYGVTLAAIWAAGYDPSIGFLHKGKPLSFVYDVSDIVKYDLVVPAAFAIAAKNPGDPVAQVRRACVSIFRRRKFLADLIPLIREILAAARLKPPEPPRVVLPLEVPEPVRDL-GGGIPMPLKDTLSLLYIKHGTIDVRDGRFVLRDHVGRRVHVPIGAVAVVALEPGVRVTRAAMRRAAQVGCLLVKVGDGGATDWWIGAPGGERLDLLRFQAHAASDERLRLEVVKRMYELRWGEPAPESMSVEELRGLEGSFVRELYARLASEYGVVFRGRHVHDLLNVCINAAKDQLYGLTMSAIIAAGFDPAIGFIHRGQPYSFVYDVSDVVRFRYVVPAAFEIAKRRPGNPVDLVAERCREIFEAEELLARLEPLIHNVLAACRVRPPSPPIETIPRSYPAPVAAE-FGLVPRPLRSRKAMFYLYEGTIDVVEGAFVIRDETGNECHIPIGSIACIALRPGVRVTVRAAERAAEAGTLLVGVGKHGEPQFWLGAPGGRRADFLDYQTKAASDEDLKLKVVRRMYELRFGEPAPANLSVEQLVGLEGYKVKRRYARFAKEYGVKFEGRRNLDLLNVCINAARAQLYGVTCAAILSAGYDPAIGFIHQGQPMSFVYDIADIIKFRYIVPAAFAIARERPGDPVAAVAVACRRIFKKEQVLSMLEPLIEEILRASNIEPPSPPVINRPERRPEPERDQ-PGLQPIPLDWCISSIVLSEGTLDVVEGEFVRVDSRGFTMHIPVGAVACIRLLPGVKVTQSAVQLASEVGTLLIGVGVGGRPIFWVGVPGGLRQDLLRYQFQIASDEVLRRRCVERMFQLRWGQPAPENLTVEQLRGLEGGQVKTKYLQLATEYGVSFQGRSFKPELDMCINAANSSLYGLTLAAILRAGFDPSLGFIHQGKPMSFVCDVADVIRFKVVIPSSFAIASENPGNPISSVYRSCDRQFHKERLLARLIPLIKEILHAANIEPPAPPVIIHPAQVPRPLLDV,LPLNPIPLKDRVSMIFLQYGQIDVIDGAFVLIDKTGIRTHIPVGSVACIMLEPGTRVSHAAVRLAAQVGTLLVWVGEAGVRVYASGQPGGARSDKLLYQAKLALDEDLRLKVVRKMFELRFGEPAPARRSVEQLRGIEGSRVRATYALLAKQYGVTWNGRRYDDTINQCISAATSCLYGVTEAAILAAGYAPAIGFVHTGKPLSFVYDIADIIKFDTVVPKAFEIARRNPGEPDREVRLACRDIFRSSKTLAKLIPLIEDVLAAGEIQPPAPPEDAQPVAIPLPVSLG-LPLNPIPLKDRVSMIFLQYGQIDVIDGAFVLIDKTGIRTHIPVGSVACIMLEPGTRVSHAAVRLAAQVGTLLVWVGEAGVRVYASGQPGGARSDKLLYQAKLALDEDLRLKVVRKMFELRFGEPAPARRSVEQLRGIEGSRVRATYALLAKQYGVTWNGRRYDDTINQCISAATSCLYGVTEAAILAAGYAPAIGFVHTGKPLSFVYDIADIIKFDTVVPKAFEIARRNPGEPDREVRLACRDIFRSSKTLAKLIPLIEDVLAAGEIQPPAPPEDAQPVAIPLPVSLG-LPLNPIPLKDRVSMIFLQYGQIDVIDGAFVLIDKTGIRTHIPVGSVACIMLEPGTRVSHAAVRLAAQVGTLLVWVGEAGVRVYASGQPGGARSDKLLYQAKLALDEDLRLKVVRKMFELRFGEPAPARRSVEQLRGIEGSRVRATYALLAKQYGVTWNGRRYDDTINQCISAATSCLYGVTEAAILAAGYAPAIGFVHTGKPLSFVYDIADIIKFDTVVPKAFEIARRNPGEPDREVRLACRDIFRSSKTLAKLIPLIEDVLAAGEIQPPAPPEDAQPVAIPLPVSLG-LPLNPIPLKDRVSMIFLQYGQIDVIDGAFVLIDKTGIRTHIPVGSVACIMLEPGTRVSHAAVRLAAQVGTLLVWVGEAGVRVYASGQPGGARSDKLLYQAKLALDEDLRLKVVRKMFELRFGEPAPARRSVEQLRGIEGSRVRATYALLAKQYGVTWNGRRYDDTINQCISAATSCLYGVTEAAILAAGYAPAIGFVHTGKPLSFVYDIADIIKFDTVVPKAFEIARRNPGEPDREVRLACRDIFRSSKTLAKLIPLIEDVLAAGEIQPPAPPEDAQPVAIPLPVSLG-LPLNPIPLKDRVSMIFLQYGQIDVIDGAFVLIDKTGIRTHIPVGSVACIMLEPGTRVSHAAVRLAAQVGTLLVWVGEAGVRVYASGQPGGARSDKLLYQAKLALDEDLRLKVVRKMFELRFGEPAPARRSVEQLRGIEGSRVRATYALLAKQYGVTWNGRRYDDTINQCISAATSCLYGVTEAAILAAGYAPAIGFVHTGKPLSFVYDIADIIKFDTVVPKAFEIARRNPGEPDREVRLACRDIFRSSKTLAKLIPLIEDVLAAGEIQPPAPPEDAQPVAIPLPVSLG-LPLNPIPLKDRVSMIFLQYGQIDVIDGAFVLIDKTGIRTHIPVGSVACIMLEPGTRVSHAAVRLAAQVGTLLVWVGEAGVRVYASGQPGGARSDKLLYQAKLALDEDLRLKVVRKMFELRFGEPAPARRSVEQLRGIEGSRVRATYALLAKQYGVTWNGRRYDDTINQCISAATSCLYGVTEAAILAAGYAPAIGFVHTGKPLSFVYDIADIIKFDTVVPKAFEIARRNPGEPDREVRLACRDIFRSSKTLAKLIPLIEDVLAAGEIQPPAPPEDAQPVAIPLPVSLG-LPLNPIPLKDRVSMIFLQYGQIDVIDGAFVLIDKTGIRTHIPVGSVACIMLEPGTRVSHAAVRLAAQVGTLLVWVGEAGVRVYASGQPGGARSDKLLYQAKLALDEDLRLKVVRKMFELRFGEPAPARRSVEQLRGIEGSRVRATYALLAKQYGVTWNGRRYDDTINQCISAATSCLYGVTEAAILAAGYAPAIGFVHTGKPLSFVYDIADIIKFDTVVPKAFEIARRNPGEPDREVRLACRDIFRSSKTLAKLIPLIEDVLAAGEIQPPAPPEDAQPVAIPLPVSLG-LPLNPIPLKDRVSMIFLQYGQIDVIDGAFVLIDKTGIRTHIPVGSVACIMLEPGTRVSHAAVRLAAQVGTLLVWVGEAGVRVYASGQPGGARSDKLLYQAKLALDEDLRLKVVRKMFELRFGEPAPARRSVEQLRGIEGSRVRATYALLAKQYGVTWNGRRYDDTINQCISAATSCLYGVTEAAILAAGYAPAIGFVHTGKPLSFVYDIADIIKFDTVVPKAFEIARRNPGEPDREVRLACRDIFRSSKTLAKLIPLIEDVLAAGEIQPPAPPEDAQPVAIPLPVSLG-LPLNPIPLKDRVSMIFLQYGQIDVIDGAFVLIDKTGIRTHIPVGSVACIMLEPGTRVSHAAVRLAAQVGTLLVWVGEAGVRVYASGQPGGARSDKLLYQAKLALDEDLRLKVVRKMFELRFGEPAPARRSVEQLRGIEGSRVRATYALLAKQYGVTWNGRRYDDTINQCISAATSCLYGVTEAAILAAGYAPAIGFVHTGKPLSFVYDIADIIKFDTVVPKAFEIARRNPGEPDREVRLACRDIFRSSKTLAKLIPLIEDVLAAGEIQPPAPPEDAQPVAIPLPVSLG-LPLNPIPLKDRVSMIFLQYGQIDVIDGAFVLIDKTGIRTHIPVGSVACIMLEPGTRVSHAAVRLAAQVGTLLVWVGEAGVRVYASGQPGGARSDKLLYQAKLALDEDLRLKVVRKMFELRFGEPAPARRSVEQLRGIEGSRVRATYALLAKQYGVTWNGRRYDDTINQCISAATSCLYGVTEAAILAAGYAPAIGFVHTGKPLSFVYDIADIIKFDTVVPKAFEIARRNPGEPDREVRLACRDIFRSSKTLAKLIPLIEDVLAAGEIQPPAPPEDAQPVAIPLPVSLG,PDDRALWFLE-VACVNDWLQA-DALTAHWLRI-PVMLAWFYQI-PELLRMYLTA-ATDQALYKRI-PTLAADYEHI-MTEILDYFEA-PAYQALFELI-LKYKKIFEGI,RGRLAIWLLE-RGRLAIWLLE-RGRLAIWLLE-RGRLAIWLLE-RGRLAIWLLE-RGRLAIWLLE-RGRLAIWLLE-RGRLAIWLLE-RGRLAIWLLE-RGRLAIWLLE
