contacts,cs,ce,Chain,Length,designed_receptor_seq,native_receptor_seq,designed_binder_seq,native_binder_seq
32.0,40,50,A,10,MEQPIFLFKTADGFDGFFPDIIGCHFAGKTIEDLNSDAKSAWEHHIESLKAQGLPLPKPPLDPLSYVKDAEFISDGGHLGLVEIHP-LKWPIFYYKTLEGYDGHFPDIEGCFFAGKTMRDIKKDARVSYQLHIQTLKEQGYPLPQPPLDPSYYNNDKRINQNGGLIGIVEIYP-MLWPILYFKTEDGFDGYFPDVDGCYFAGRTIDDIKEDARRAYIRHIEDCKSLGVPLPLPPQMPSTYINDKQIKMDGGRLGWVAIDP-APWPVLMFKTADGWDGHFPDVKGCFFAGKSFDDIKASARSAFEAHIAELEAAGEPLPEPPGEPDTYHLNARLRAKGGMLGVVEIDP-MIWPILIFATETGYDGEFPDLDGCHFAGETVDDIKESAREAAFAHIEDLLSAGIPLPAPPENPLSYVEDERLAKNGGFLGMVMIDP-MKWPIIYYKTEEGYDGFFPDIEGCYFAGKTLDKIMKDAREAFSDHIEDLKAAGEPMPEPPANPGVVETDERLEKRGGEIGWVEVDP-LRWPIFLFRTEDGYDGFFPDIDGCFFAGQTVDDIKVCAQDAFTVHIDDLQALGLPLPEPPEDPGIYEADEVLQEGGGLLGWVSISP-MLWPIIYYQTADGYNGYFPDFEGCFFAGETIDEIKESAELAYEEHILHLQEMGEPLPLPPSHPDSYLSDERLDNRGGILGWVEITP-VKWPIFIYKTDAGWDGHFPDIKGCFFAGETIEEIKADAVEAFEEHISHLEEMGYPLPSPPGDPARYLNDLRFKQGGGVLGWVTINP-IVWPIFYFKTEDGWDGFFPDFDGCHFAGKTIDDICASACDAFDAHIRMLLEEGEPLPAPPETPASYYEDERLKEGGGTLGLVSINP,MIYPIFIFKTVEGFDGYFPDIDGCFFAGNTFADISKNAEEAFAVHIEALMNEGFPLPSPPKDPHRYIDDPRLKEEGGILGFVEIDP-MIYPIFIFKTVEGFDGYFPDIDGCFFAGNTFADISKNAEEAFAVHIEALMNEGFPLPSPPKDPHRYIDDPRLKEEGGILGFVEIDP-MIYPIFIFKTVEGFDGYFPDIDGCFFAGNTFADISKNAEEAFAVHIEALMNEGFPLPSPPKDPHRYIDDPRLKEEGGILGFVEIDP-MIYPIFIFKTVEGFDGYFPDIDGCFFAGNTFADISKNAEEAFAVHIEALMNEGFPLPSPPKDPHRYIDDPRLKEEGGILGFVEIDP-MIYPIFIFKTVEGFDGYFPDIDGCFFAGNTFADISKNAEEAFAVHIEALMNEGFPLPSPPKDPHRYIDDPRLKEEGGILGFVEIDP-MIYPIFIFKTVEGFDGYFPDIDGCFFAGNTFADISKNAEEAFAVHIEALMNEGFPLPSPPKDPHRYIDDPRLKEEGGILGFVEIDP-MIYPIFIFKTVEGFDGYFPDIDGCFFAGNTFADISKNAEEAFAVHIEALMNEGFPLPSPPKDPHRYIDDPRLKEEGGILGFVEIDP-MIYPIFIFKTVEGFDGYFPDIDGCFFAGNTFADISKNAEEAFAVHIEALMNEGFPLPSPPKDPHRYIDDPRLKEEGGILGFVEIDP-MIYPIFIFKTVEGFDGYFPDIDGCFFAGNTFADISKNAEEAFAVHIEALMNEGFPLPSPPKDPHRYIDDPRLKEEGGILGFVEIDP-MIYPIFIFKTVEGFDGYFPDIDGCFFAGNTFADISKNAEEAFAVHIEALMNEGFPLPSPPKDPHRYIDDPRLKEEGGILGFVEIDP,TQPFPQADIA-SDPFPTRTRA-SDPSPMKDIA-RRAYPTESTA-TDAYPVESIA-TKRAPCQDTA-TEPSPRASVS-TEPWPTEDRS-TFPYPVETKA-TQPTPVATMA,TLPYPRKDIS-TLPYPRKDIS-TLPYPRKDIS-TLPYPRKDIS-TLPYPRKDIS-TLPYPRKDIS-TLPYPRKDIS-TLPYPRKDIS-TLPYPRKDIS-TLPYPRKDIS
21.0,7,17,B,10,SSSEAIRLKLAEAGWESLGEVETKRGRVDTYRKPGVDKVIAIAFPKSDVSVDLVSRLERVAGIKIK-MRSLDVIKLLEDAGWENKGKRSHKRKAVKSLTKPGVNKTISLYFPASDISLGAIKALERVSGIRIK-MTSGNVIRILEDAGWQTEGYYKTSRGEKVILKKPGENKEIIIALPHQTVSEGMLKKLEEVAGIKLP-STSHEAVSLLKEAGWQSDGGSDMDAHSYITLRRPGVNRRIILQHPAGDVSDGAISSLEKVAGITFK-MKSQELIQVFKEAGWEKEGFRKNNKGTIVTLKKPGVDRVISIDVPAQDVSSGFLRHAEKVSGIKIP-MSSSVVAARLEQAGWELQGARQNRKGELQSLRKPGVDLVIELKLPVDSVSRGSLQKLEEVAGIRLP-MSSLEVKARLEQAGWMSEGARKTKKNMIRELVKPGVDKVISLFEPARDVSFGLLKKLEYTAGILIE-MDSYEIIHRLQQAGWKSDGAKQVKNRVVQTLRKPGQKQVLTLLRPQDDVSSGALRDLEKVAGIKLP-MSSEQLISRLKQAGWLDRGSQIKRNGLERTLTKPGVDRIITLKLPLADVSGCLILALQKIAGISIE-CSSGTVLRAMESAGWQKQGEKTTSKGSIVRLMKPGVDQIVELTLPAQDVSEGSIGEIEKVVGIELP,MESGELIKRLEDAGWQIRGGRKTNSGSHVTLCKPGVRKIITLPYPRKDISKGLLRQAQKIAGIKLS-MESGELIKRLEDAGWQIRGGRKTNSGSHVTLCKPGVRKIITLPYPRKDISKGLLRQAQKIAGIKLS-MESGELIKRLEDAGWQIRGGRKTNSGSHVTLCKPGVRKIITLPYPRKDISKGLLRQAQKIAGIKLS-MESGELIKRLEDAGWQIRGGRKTNSGSHVTLCKPGVRKIITLPYPRKDISKGLLRQAQKIAGIKLS-MESGELIKRLEDAGWQIRGGRKTNSGSHVTLCKPGVRKIITLPYPRKDISKGLLRQAQKIAGIKLS-MESGELIKRLEDAGWQIRGGRKTNSGSHVTLCKPGVRKIITLPYPRKDISKGLLRQAQKIAGIKLS-MESGELIKRLEDAGWQIRGGRKTNSGSHVTLCKPGVRKIITLPYPRKDISKGLLRQAQKIAGIKLS-MESGELIKRLEDAGWQIRGGRKTNSGSHVTLCKPGVRKIITLPYPRKDISKGLLRQAQKIAGIKLS-MESGELIKRLEDAGWQIRGGRKTNSGSHVTLCKPGVRKIITLPYPRKDISKGLLRQAQKIAGIKLS-MESGELIKRLEDAGWQIRGGRKTNSGSHVTLCKPGVRKIITLPYPRKDISKGLLRQAQKIAGIKLS,GKTTENFDGE-FTTKEGYDGF-ESTLAGYDGL-ALTASGSDGF-YRTILGYDGF-SRTNSGYDGY-AQTLQGKDGW-SKTKKGFDGY-CRTRAGYDGI-DQTRNGYNGW,FKTVEGFDGY-FKTVEGFDGY-FKTVEGFDGY-FKTVEGFDGY-FKTVEGFDGY-FKTVEGFDGY-FKTVEGFDGY-FKTVEGFDGY-FKTVEGFDGY-FKTVEGFDGY
