contacts,cs,ce,Chain,Length,designed_receptor_seq,native_receptor_seq,designed_binder_seq,native_binder_seq
17.0,97,107,A,10,MDVIPLPVLLERLYCKPRLTVVPILEVYPHLDHFIFIPSSVSLMRCGGCCLDPGLCCVPVKTSTVEKEILVIAPNVGLAYMKMTFTEHLECECRP-CEVVPLPVVLEALYCKPRLTVVPILEVYPHLNHFIFLPSSVSLMRCGGCCLDPGLRCVPVRTSTVERPILVIAPNVGLAYMKMTFTEHLECECRP-EEVVPLPVVLEALYCKPRLTRVPILEVYPHLNHFVFLPSSVDLMLCGGCCLDPGKKCVPVKTSTVEKPILVIAPNVGLAYMKMTFTEHLECECRP-MEVVPLPVLLEALYCKPRLTRVPILEVYPELDHFIFLPSSVDLMLCGGCCLDPGLCCVPVETSTVEKPILVIAPNVGLAYMLMTFTQHDKCECRP-CEEIPLPVLLEALYCKPRLTRVPILEVYPHLNHFIFLPSSVDLMLCGGCCLDPGLRCVPVRQSTVEKPILVIAPNVGLAYMKMTFTEHLECECRP-EEVVPLPVLLERLYCRPRLTRVPILEIYPHLNHFVFLPSSVDLMLCGGCCLDPGLCCVPVRESTVEKPILVIAPNVGLAYMRMTFTEHLECECRP-EEVVPLPVLLERLYCRPRLTRVPILEVYPHLDHFVFLPSSVDLMLCGGCCLDPGLRCVPVRQSTVERPILVIAPNVGLAYMLMTFTEHLECECRP-CEVIPLPVVLERLYCKPRLTRVPILEVYPHLDHFIFLPDSVDLMLCGGCCLDPGLCCVPVETSTVEKEILVIAPNVGLAYMKMTFTQHDKCECRP-FLVVPLPVVLERLYCRPRLTRVPILEVYPHLDHFVFLPSSVDLLRCGGCCLDPGLRCVPVRESTVERPILVIAPNVGLAYMRMTFTEHLECACLP-EEVVPLPVLLERLYCKPRLTRVPILEVYPHLNHFVFLPSSVDLLLCGGCCLDPGLRCVPVRRSTVERPILVIAPNVGLAYMKMTFTEHEECECRP,HEVVKFMDVYQRSYCHPIETLVDIFQEYPDEIEYIFKPSCVPLMRCGGCCNDEGLECVPTEESNITMQIMRIKPHQGQHIGEMSFLQHNKCECRP-HEVVKFMDVYQRSYCHPIETLVDIFQEYPDEIEYIFKPSCVPLMRCGGCCNDEGLECVPTEESNITMQIMRIKPHQGQHIGEMSFLQHNKCECRP-HEVVKFMDVYQRSYCHPIETLVDIFQEYPDEIEYIFKPSCVPLMRCGGCCNDEGLECVPTEESNITMQIMRIKPHQGQHIGEMSFLQHNKCECRP-HEVVKFMDVYQRSYCHPIETLVDIFQEYPDEIEYIFKPSCVPLMRCGGCCNDEGLECVPTEESNITMQIMRIKPHQGQHIGEMSFLQHNKCECRP-HEVVKFMDVYQRSYCHPIETLVDIFQEYPDEIEYIFKPSCVPLMRCGGCCNDEGLECVPTEESNITMQIMRIKPHQGQHIGEMSFLQHNKCECRP-HEVVKFMDVYQRSYCHPIETLVDIFQEYPDEIEYIFKPSCVPLMRCGGCCNDEGLECVPTEESNITMQIMRIKPHQGQHIGEMSFLQHNKCECRP-HEVVKFMDVYQRSYCHPIETLVDIFQEYPDEIEYIFKPSCVPLMRCGGCCNDEGLECVPTEESNITMQIMRIKPHQGQHIGEMSFLQHNKCECRP-HEVVKFMDVYQRSYCHPIETLVDIFQEYPDEIEYIFKPSCVPLMRCGGCCNDEGLECVPTEESNITMQIMRIKPHQGQHIGEMSFLQHNKCECRP-HEVVKFMDVYQRSYCHPIETLVDIFQEYPDEIEYIFKPSCVPLMRCGGCCNDEGLECVPTEESNITMQIMRIKPHQGQHIGEMSFLQHNKCECRP-HEVVKFMDVYQRSYCHPIETLVDIFQEYPDEIEYIFKPSCVPLMRCGGCCNDEGLECVPTEESNITMQIMRIKPHQGQHIGEMSFLQHNKCECRP,GSPFPVPGCV-RSPFPVPGCV-GSGFPVPGCV-RSPFPVPGCV-PSPFPVPGCL-RSPFPVPGCV-RSPFPVPGCV-RSPFPVPGCV-PSPLPVPGCL-RSPFPVPGCV,LSGVPVPGVW-LSGVPVPGVW-LSGVPVPGVW-LSGVPVPGVW-LSGVPVPGVW-LSGVPVPGVW-LSGVPVPGVW-LSGVPVPGVW-LSGVPVPGVW-LSGVPVPGVW
22.0,70,80,B,10,GSLENISGTWYIKSISVDLSSIKCLQGTITPTSITRLSGGDIQLTVTVTVNGQTQSVTATLSKTNNPGPYSAIGAINITKDTSAGSGNTYTFYSAGCNSSSPVPGYYLT-GSLENISGTWYIKSISVDLSSIQCLAGRITPTSVTRLSGGDLQLTVTVTVNGQTQSVTAVLSRTNTPGAYDAIGAISVSRVSSAGSGNTYQFSSAGCNSSSPVPGYYFN-GSLENVSGTWYIKSISVDLSSIKCLAGRITPTSITRLSGGDLQLTVTVTVNGQTQSVTATLSRTNNPGAYSAIGAINITRDSSAGSGNTYNFYSAGCNSSSPVPGYYFN-GSLENVSGTWYIQSISVDLSSVQCLAGRITPTSITRLSGGDLQLTVTVTVNGQTQSVTATLSRTNTPGPYSAIGAISVSRVSSASSGNTYEFSSAGCNSSSPVPGYYFT-GSLENISGTWYIKSISVDLSSIKCLQGRITPTSVTRLSGGDLQLTVTVTVNGQTQSVTAVLSRTNTPGPYDAIGAISISKVSSASSGNTYEFSSAGCNSSSPVPGYYFD-GSLENISGTWYIKSISVDLSSIKCLAGRITPTSVTRLSGGDLQLTVTVTVNGQTQSVTAVLSRTNTPGPYDAIGAISISKVSSASSGNTYQFSSAGCNSSSPVPGYYFN-SSLENISGTWYIKSISVDLSSIQCVQGRITPTSVTRLSGGDLQLSVTVTVNGQTQTVTAVLSRTNTPGPYSAIGAINISRVSSASSGNTYQFYSAGCNSSSPVPGYYFN-GSLEDVSGTWYIQSISVDLSSVQCLQGTVTPTSITRLSGGDLQLTVTVTVGGQTQSVTATLSRTNTPGPYSAIGAISITRDSSASSGDTYRFSSAGCSSSSPVPGYYFT-GSLENVSGTWYIKSISVDLSSVKCLQGTITPTSITRLSGGDLQLTVTVTVNGQTQSVTATLSRTKTPGPYDAIGAISVTKVSSAGSGDTYQFYSAGCNSSSPVPGYYFT-GSLEGVSGTWYIQSISVDLSSIQCVQGTVTPTSITRLSGGDLQLSITVTVNGQTQTVTATLSRTNNPGPYSAIGAINITRDTSAGSGNTYTFYSAGCNSPTPVPGYYFN,EEIQDVSGTWYLKAMTVDVGALRCLAGSVIPTTLTTLEGGNLEAKVTMHIKGRSQEVKAVLSKTDEPGIYTAIGGIHVAKIGRSHVKDHYIFYSEGCLSGVPVPGVWLV-EEIQDVSGTWYLKAMTVDVGALRCLAGSVIPTTLTTLEGGNLEAKVTMHIKGRSQEVKAVLSKTDEPGIYTAIGGIHVAKIGRSHVKDHYIFYSEGCLSGVPVPGVWLV-EEIQDVSGTWYLKAMTVDVGALRCLAGSVIPTTLTTLEGGNLEAKVTMHIKGRSQEVKAVLSKTDEPGIYTAIGGIHVAKIGRSHVKDHYIFYSEGCLSGVPVPGVWLV-EEIQDVSGTWYLKAMTVDVGALRCLAGSVIPTTLTTLEGGNLEAKVTMHIKGRSQEVKAVLSKTDEPGIYTAIGGIHVAKIGRSHVKDHYIFYSEGCLSGVPVPGVWLV-EEIQDVSGTWYLKAMTVDVGALRCLAGSVIPTTLTTLEGGNLEAKVTMHIKGRSQEVKAVLSKTDEPGIYTAIGGIHVAKIGRSHVKDHYIFYSEGCLSGVPVPGVWLV-EEIQDVSGTWYLKAMTVDVGALRCLAGSVIPTTLTTLEGGNLEAKVTMHIKGRSQEVKAVLSKTDEPGIYTAIGGIHVAKIGRSHVKDHYIFYSEGCLSGVPVPGVWLV-EEIQDVSGTWYLKAMTVDVGALRCLAGSVIPTTLTTLEGGNLEAKVTMHIKGRSQEVKAVLSKTDEPGIYTAIGGIHVAKIGRSHVKDHYIFYSEGCLSGVPVPGVWLV-EEIQDVSGTWYLKAMTVDVGALRCLAGSVIPTTLTTLEGGNLEAKVTMHIKGRSQEVKAVLSKTDEPGIYTAIGGIHVAKIGRSHVKDHYIFYSEGCLSGVPVPGVWLV-EEIQDVSGTWYLKAMTVDVGALRCLAGSVIPTTLTTLEGGNLEAKVTMHIKGRSQEVKAVLSKTDEPGIYTAIGGIHVAKIGRSHVKDHYIFYSEGCLSGVPVPGVWLV-EEIQDVSGTWYLKAMTVDVGALRCLAGSVIPTTLTTLEGGNLEAKVTMHIKGRSQEVKAVLSKTDEPGIYTAIGGIHVAKIGRSHVKDHYIFYSEGCLSGVPVPGVWLV,TITPNTGLNL-SITPNVGLNL-SITPNVGLNL-SITPNVGLHL-SITPNVGLNL-SITPNTGLHL-SITPNQGLHL-SITPGSGLHL-TITPNVGLHL-TIIPNVGLNL,RIKPHQGQHI-RIKPHQGQHI-RIKPHQGQHI-RIKPHQGQHI-RIKPHQGQHI-RIKPHQGQHI-RIKPHQGQHI-RIKPHQGQHI-RIKPHQGQHI-RIKPHQGQHI
