contacts,cs,ce,Chain,Length,designed_receptor_seq,native_receptor_seq,designed_binder_seq,native_binder_seq
17.0,97,107,A,10,HGSVPLPLLKALSYCQPRETEVEILDTYPLAYHYIFLPSSVHLNRCSGSCADPRLCCLPVQEVEKTENIKVIAPDHGQALLLMKFQQHQACECQP-AKIIDETTYKIYEYCHPRTTTVPILTKYPYDNFHVFGPSSVSLQRCSGCCCDPSKSCTPTRTSRVERSIKNIIPNVGMSYNLMKFQRDDECACIA-VMVMPLPARYEAARCSPRSTIVPINVIYPNLNWFIFIPSSVELLECSGCCSNPDWRCVPVKRSKHKMAIRVIAPNRGQAYRWFTFTEHLECECQP-GPLVPLPEVVEMMTCKPVTTVVPILETYPNANRFKFEPASVRLQRCSGCCLNDTKKCVPTKTSTVSKNIHVIAPRVGQANMTMKFTEHVACTCMP-LNVIPGQVRRLQEYCSPTTSVVPILEVYPRWHSLRFIPHSVELKRCNGCCDDPGRCCTPVRTSNRVMAVRVILPEVGMAYKRMRFAEHEECTCQP-YQRVPIPVIMKALTCQPRETVIPILQVYPHLSNYTFLPSSVSASLCSGCCSNANMRCQPVATSQYEQQIMLIAPDIGLSYQRMKFVQHQECRCQP-IKIVPPPVFEKAVYCHPRKTMVRIFEVYPHTRNNIFHPQSVTIQMCSGECLDPNLRCHSIMQVEKKLAVKNISPHSGQAIMAMTFLGHEECSCNP-IHQVPTPVHAREMRCKPQLTVVPILELYPTADYFVFKPESVGLWRCSGCCQNQNLQCVPVQKTKRNVSILMIRPNVGMTHNSLTFTEHLECSCEP-YHHMPLPLFLRNTTCQPRMTVVPILDIYPAADFLTFSPDSVNLMLCSGCCNDPRLQCVPIKQNEVEMDILAVYPNAGMSYQKLKFTEHLECSCRL-WDTVPAPVVEKLLACHPRLTVVPILEVYPSMDRDIFIPGSVDLRRCGGVCFSENKSCLPTHQSTVNLPILKIIPNTGAAEIMMTFTEHLECECKE,HEVVKFMDVYQRSYCHPIETLVDIFQEYPDEIEYIFKPSCVPLMRCGGCCNDEGLECVPTEESNITMQIMRIKPHQGQHIGEMSFLQHNKCECRP-HEVVKFMDVYQRSYCHPIETLVDIFQEYPDEIEYIFKPSCVPLMRCGGCCNDEGLECVPTEESNITMQIMRIKPHQGQHIGEMSFLQHNKCECRP-HEVVKFMDVYQRSYCHPIETLVDIFQEYPDEIEYIFKPSCVPLMRCGGCCNDEGLECVPTEESNITMQIMRIKPHQGQHIGEMSFLQHNKCECRP-HEVVKFMDVYQRSYCHPIETLVDIFQEYPDEIEYIFKPSCVPLMRCGGCCNDEGLECVPTEESNITMQIMRIKPHQGQHIGEMSFLQHNKCECRP-HEVVKFMDVYQRSYCHPIETLVDIFQEYPDEIEYIFKPSCVPLMRCGGCCNDEGLECVPTEESNITMQIMRIKPHQGQHIGEMSFLQHNKCECRP-HEVVKFMDVYQRSYCHPIETLVDIFQEYPDEIEYIFKPSCVPLMRCGGCCNDEGLECVPTEESNITMQIMRIKPHQGQHIGEMSFLQHNKCECRP-HEVVKFMDVYQRSYCHPIETLVDIFQEYPDEIEYIFKPSCVPLMRCGGCCNDEGLECVPTEESNITMQIMRIKPHQGQHIGEMSFLQHNKCECRP-HEVVKFMDVYQRSYCHPIETLVDIFQEYPDEIEYIFKPSCVPLMRCGGCCNDEGLECVPTEESNITMQIMRIKPHQGQHIGEMSFLQHNKCECRP-HEVVKFMDVYQRSYCHPIETLVDIFQEYPDEIEYIFKPSCVPLMRCGGCCNDEGLECVPTEESNITMQIMRIKPHQGQHIGEMSFLQHNKCECRP-HEVVKFMDVYQRSYCHPIETLVDIFQEYPDEIEYIFKPSCVPLMRCGGCCNDEGLECVPTEESNITMQIMRIKPHQGQHIGEMSFLQHNKCECRP,QSEHPLPGSR-HCATPVAGLC-MSSRPERGCR-YSSRPTPGHT-HSICPMYGFE-SSKEPVDGCV-SSPYVVPGKC-QSSVPIPGLQ-TSPKPMPGCT-KSKTPVGFCY,LSGVPVPGVW-LSGVPVPGVW-LSGVPVPGVW-LSGVPVPGVW-LSGVPVPGVW-LSGVPVPGVW-LSGVPVPGVW-LSGVPVPGVW-LSGVPVPGVW-LSGVPVPGVW
22.0,70,80,B,10,HMIEDISGTWYFETISVNLTPLRCVSGHVTPTEITRLELGNIRMQALVQVDGKEVTVTAVFSRKRTPTEFDNIGALRVVKVPTAGSGDQYAFKSAGCDSDEPVPGIYLQ-KSLKNIPGTWWIQSITVPVAAMRCVAGEVTPTAVQRKNGGELAVVVGVTVGGMPNTVGATLSARAAPGPYAAIGGVRIARSRTKTGGNTYRFDSAGCDSADPVPGVYYL-GDLQGVAGKWYIKAISLDLASEKCLAGFVTPKAVTRKEGGDLSVVSDVKVAGMPVEMQAVLSKEKEEGPYEAIGAINIKRNEDAFIGSTYQFSSQGCHSSQPVPGIYLE-DEISGIPGTWYIQGISIFLGPAKCVAGHVRPTRVTRLSGGDIELKIDINLGGGASNATTVLSRRRDPGPYADIGGMGITEDSAALAGSTYVFATAGCDSPLPVPGQYWT-GGLDKVPGNWYIESITISLKGIECVQGKVKFDDIKELKGGDLEFAITVKMRGKKETVKMTLSKEKTDGEYEKIGEVNVVMEKDADDGDTFRFYSKGCDSSHPVKGVCIE-SHINAVSGTWYIQSISIDLSNIRCVSGTVTPSDVTRLAGGNLQFAINISVYGNNQTVKVTLSRQQVDGSYSQIGAIYVDTLSSYGQANSFAFNSAGCQSAQPVPGIFIT-GALEGVEGVWFLQSISTDLRDYKCLSGAIIPAQTRRLNGGDLELAVKAEMDGKEREITAVLSKTQEEGRYDLIGGIQIKRDASEASGEHYRFWSGGCASPRPVPGLVYE-ARIKGIPGTWYIKSVSIDFSPLRCLAGHVTPTSVTRLAGGDIQLAVSLSRAGSSVSVTATLSKTSAGGGYAAIGAIAIRQDPTAQNGDDYLFRSAGCLSDTPVPGYVMP-DGHMAVSGVWYIQDISIDLTDVRCLRGTVIPTKIERLDEGDLRICVSITIFGKLHQICARLSKEYKAGKYDKIGGIKVKRIGAAKQGDKFSFDSDGCESRTPVPGIYMG-MTITNIAGTWHIKAITIDARSIRCVSGQVTPQSVTRLLGGNLKVSVQMNTAGKPTIITATLSRTQTPGDFDALGAVHIKSIAELAGGTFYAFNSSGCVSPNVVPGQIFN,EEIQDVSGTWYLKAMTVDVGALRCLAGSVIPTTLTTLEGGNLEAKVTMHIKGRSQEVKAVLSKTDEPGIYTAIGGIHVAKIGRSHVKDHYIFYSEGCLSGVPVPGVWLV-EEIQDVSGTWYLKAMTVDVGALRCLAGSVIPTTLTTLEGGNLEAKVTMHIKGRSQEVKAVLSKTDEPGIYTAIGGIHVAKIGRSHVKDHYIFYSEGCLSGVPVPGVWLV-EEIQDVSGTWYLKAMTVDVGALRCLAGSVIPTTLTTLEGGNLEAKVTMHIKGRSQEVKAVLSKTDEPGIYTAIGGIHVAKIGRSHVKDHYIFYSEGCLSGVPVPGVWLV-EEIQDVSGTWYLKAMTVDVGALRCLAGSVIPTTLTTLEGGNLEAKVTMHIKGRSQEVKAVLSKTDEPGIYTAIGGIHVAKIGRSHVKDHYIFYSEGCLSGVPVPGVWLV-EEIQDVSGTWYLKAMTVDVGALRCLAGSVIPTTLTTLEGGNLEAKVTMHIKGRSQEVKAVLSKTDEPGIYTAIGGIHVAKIGRSHVKDHYIFYSEGCLSGVPVPGVWLV-EEIQDVSGTWYLKAMTVDVGALRCLAGSVIPTTLTTLEGGNLEAKVTMHIKGRSQEVKAVLSKTDEPGIYTAIGGIHVAKIGRSHVKDHYIFYSEGCLSGVPVPGVWLV-EEIQDVSGTWYLKAMTVDVGALRCLAGSVIPTTLTTLEGGNLEAKVTMHIKGRSQEVKAVLSKTDEPGIYTAIGGIHVAKIGRSHVKDHYIFYSEGCLSGVPVPGVWLV-EEIQDVSGTWYLKAMTVDVGALRCLAGSVIPTTLTTLEGGNLEAKVTMHIKGRSQEVKAVLSKTDEPGIYTAIGGIHVAKIGRSHVKDHYIFYSEGCLSGVPVPGVWLV-EEIQDVSGTWYLKAMTVDVGALRCLAGSVIPTTLTTLEGGNLEAKVTMHIKGRSQEVKAVLSKTDEPGIYTAIGGIHVAKIGRSHVKDHYIFYSEGCLSGVPVPGVWLV-EEIQDVSGTWYLKAMTVDVGALRCLAGSVIPTTLTTLEGGNLEAKVTMHIKGRSQEVKAVLSKTDEPGIYTAIGGIHVAKIGRSHVKDHYIFYSEGCLSGVPVPGVWLV,GVIPLEGVHF-HRTPHVGLYR-LIFPDIGIHE-YRFPLVGLNQ-TVIPGVGIHL-HNLPQQGLHF-VQVPNVGCHL-SVTPNQGIHF-HIRPGYGLHR-NVIPNTGMNL,RIKPHQGQHI-RIKPHQGQHI-RIKPHQGQHI-RIKPHQGQHI-RIKPHQGQHI-RIKPHQGQHI-RIKPHQGQHI-RIKPHQGQHI-RIKPHQGQHI-RIKPHQGQHI
