contacts,cs,ce,Chain,Length,designed_receptor_seq,native_receptor_seq,designed_binder_seq,native_binder_seq
21.0,120,130,A,10,SNAMDELQAARTREALRLLDLPPESFVLDIGCGNGLSGRILTEEGKHRWIGLDISPEMLAQGLERKLGGELVLCDMGKGIPFKEGTFDAAISISALHHLGREEERERFFRSLFKALKKGGKFVAQVSPFGEEFLSAVLSAARKAGFEGGLVVTNPFSREKRALFLVLTSG-MDEQQLLQEELTRKALELLDLPPRSFVLDIGCGDGLSGRILEEEGDHRWIGLDISPEMLEKGLKRELGGELRLCDMGEGIPFEEGTFDAAISIAAIMEIGYEERLERFFRTLYRALKEGGRFVAQMIPRGEEELEAVLEAAERAGFVGGLVVTEPYSEVRRRIFLVLSTG-AMEEEALQSKLTEKAIELLDLEPKSYVLDIGCGYGLSGEILTRKGNHSYIGLDISPSMLEKGLERKLNGKLMLCDMGEGIPFEDGTFDAAISIAALQWIGEEEKLEKFFDTLFRALKKGGRFVAHMLPKGEEELEKVLDSAKKAGFEGGLVVTDPFSKRLRNYFLVLHTG-SNANKLRNEKQTRKALELLALKPKSYVLDIGCGNGLSGEILEKEGNHKWIGLDISPDMLEKGLKRNLGGKLALCDMGKGIPFKKGTFDAAISIAAIQWIGEEEKLETFFKTLFISLKEGGRFVAQMGPTGEEFLESVKKAAKKAGFEGGLVITKPFSFIRRNLFLVLTTG-MEDIIKLQEELTRKALELLDLKPKSYVLDIGCGSGITGEILEEEGEHSWIGLDISPEMLKKGLEKELKGKLMLCDMGEGIPFKEGTFDAAISINALHQVGGEEKLKKFFETLFKALKEGGKFVANMEPDGEEFLKAVGEAAKEAGFKGGLVVTDPFSDEKRNVFFVLTSG-MEEEKQRNRDLTLKALELLDLKPKSFVLDIGCGDGLSGEILSKKGNHTWIGLDISPEMLEKGLKKNLSGKLSLCDMGQGIPFKKGTFDAAISIAAIHHINDEKKRETFFNSLFEALKKGGRFVAHTFPGDKKWRESVLNAAKKAGFEGGLVVTDPFSEEKRNLFFVLSSG-SNAMQTRQAELTRKALELLDLPPKSYILDIGCGDGLSGEILTKEGDHRWIGLDISPEMLEEGLKRKLDGQLVLCDMGEGIPFEDGTFDAAISIAAIHHIGWEERLATFFNTLFRSLKEGGKFVANIVPQNEEELHAIQEAARKAGFNGGLEITRPYSKTERNLYLVLSTG-SNATKALQESLTLKALELLNLKPNSFVLDIGCGDGLSGEILTKKGNHSWIGLDISPKMLEKGLKKNLDGKLMLCDMGQGIPFKTGTFDAAISINAIHHINNEEALDTFFKTLFKSLKKGGKFVANMLPHGKDFLKAVGKSAKNAGFKGGVVVTEPYSKIKRNLFLVLTTG-GMSSEDLQKELTLKALELLDLEPSSFILDIGCGSGLSGNILSREGEHKWIGLDISPEMLKLGLSRKLNGKLVLCDMGEGIPFKEGTFDAAISILALHHIEKEEALKTFFNTLFKALKKGGKFVAQMHPRGEEELELIKKSAEEAGFVGGLVVTHPFSRKARRLFLVLSSG-SNAMDIVQEALTLKALELLDLKPSSNILDIGCGDGLSGRLLEREGNHSWIGLDISPDMLEKGLQRNLKGELRLCDMGEGIPFEEGTFDAAISINAIHELGNEEKLETFFNSLYKALKEGGKFVANFAPWDEDFLEKVLSSAKKAGFSGGLVITNPESIVDRNLFLVLNTG,STRVQHIQAKMTLRALELLNLQPCSFILDIGCGSGLSGEILTQEGDHVWCGLDISPSMLATGLSRELEGDLMLQDMGTGIPFRAGSFDAAISISAIQWLDPKQRLMRFFNTLYAALKKGGKFVAQFYPKNDDQVDDILQSAKVAGFSGGLVVDDPESKKNKKYYLVLSSG-STRVQHIQAKMTLRALELLNLQPCSFILDIGCGSGLSGEILTQEGDHVWCGLDISPSMLATGLSRELEGDLMLQDMGTGIPFRAGSFDAAISISAIQWLDPKQRLMRFFNTLYAALKKGGKFVAQFYPKNDDQVDDILQSAKVAGFSGGLVVDDPESKKNKKYYLVLSSG-STRVQHIQAKMTLRALELLNLQPCSFILDIGCGSGLSGEILTQEGDHVWCGLDISPSMLATGLSRELEGDLMLQDMGTGIPFRAGSFDAAISISAIQWLDPKQRLMRFFNTLYAALKKGGKFVAQFYPKNDDQVDDILQSAKVAGFSGGLVVDDPESKKNKKYYLVLSSG-STRVQHIQAKMTLRALELLNLQPCSFILDIGCGSGLSGEILTQEGDHVWCGLDISPSMLATGLSRELEGDLMLQDMGTGIPFRAGSFDAAISISAIQWLDPKQRLMRFFNTLYAALKKGGKFVAQFYPKNDDQVDDILQSAKVAGFSGGLVVDDPESKKNKKYYLVLSSG-STRVQHIQAKMTLRALELLNLQPCSFILDIGCGSGLSGEILTQEGDHVWCGLDISPSMLATGLSRELEGDLMLQDMGTGIPFRAGSFDAAISISAIQWLDPKQRLMRFFNTLYAALKKGGKFVAQFYPKNDDQVDDILQSAKVAGFSGGLVVDDPESKKNKKYYLVLSSG-STRVQHIQAKMTLRALELLNLQPCSFILDIGCGSGLSGEILTQEGDHVWCGLDISPSMLATGLSRELEGDLMLQDMGTGIPFRAGSFDAAISISAIQWLDPKQRLMRFFNTLYAALKKGGKFVAQFYPKNDDQVDDILQSAKVAGFSGGLVVDDPESKKNKKYYLVLSSG-STRVQHIQAKMTLRALELLNLQPCSFILDIGCGSGLSGEILTQEGDHVWCGLDISPSMLATGLSRELEGDLMLQDMGTGIPFRAGSFDAAISISAIQWLDPKQRLMRFFNTLYAALKKGGKFVAQFYPKNDDQVDDILQSAKVAGFSGGLVVDDPESKKNKKYYLVLSSG-STRVQHIQAKMTLRALELLNLQPCSFILDIGCGSGLSGEILTQEGDHVWCGLDISPSMLATGLSRELEGDLMLQDMGTGIPFRAGSFDAAISISAIQWLDPKQRLMRFFNTLYAALKKGGKFVAQFYPKNDDQVDDILQSAKVAGFSGGLVVDDPESKKNKKYYLVLSSG-STRVQHIQAKMTLRALELLNLQPCSFILDIGCGSGLSGEILTQEGDHVWCGLDISPSMLATGLSRELEGDLMLQDMGTGIPFRAGSFDAAISISAIQWLDPKQRLMRFFNTLYAALKKGGKFVAQFYPKNDDQVDDILQSAKVAGFSGGLVVDDPESKKNKKYYLVLSSG-STRVQHIQAKMTLRALELLNLQPCSFILDIGCGSGLSGEILTQEGDHVWCGLDISPSMLATGLSRELEGDLMLQDMGTGIPFRAGSFDAAISISAIQWLDPKQRLMRFFNTLYAALKKGGKFVAQFYPKNDDQVDDILQSAKVAGFSGGLVVDDPESKKNKKYYLVLSSG,VEKGVPNRLE-EREGVKNLLS-EKDGIPNLLR-KEKGIPNLLK-EEKGIPNLLK-VEKGIPNLLK-VRDGIPNWLR-DYKGIPDLLK-KEKGVPNLLK-SENGIPNLLK,IKNGIPNLLL-IKNGIPNLLL-IKNGIPNLLL-IKNGIPNLLL-IKNGIPNLLL-IKNGIPNLLL-IKNGIPNLLL-IKNGIPNLLL-IKNGIPNLLL-IKNGIPNLLL
24.0,68,78,B,10,MRFLTTQYLSCQVAACRQSGLRFPLDYDGAQCHLVTRADVAYNPALLLQVIDQLNWPAVLRVAAQLGNHSLPPQRPAFPATLAELDDAHRVVLEQLWQLLMQTEIQQGSCHCQNCGHVYQITEGVPNLLLDDSLK-MRFLTTMFLKCQVKACGSSGKRFPLHWDGKECQLAQKAEVAYDPALLLEIIDDIQWPAVLQVAAELGFHDLPPVKPQFPATLAELNEADKVVLNQLWQLLMQTHIVNGSMHCQHCGHVYTVENGVPNLLLDASLE-MRFLTTQYLKCQRKECEASEKRFPLHWDGRECRLERDESVEYDPELLLRIIEEIDWPAVLRVAEQLGFFDLPPEKPEFPDSLEELDDEDREILNELWELLMQTRIVEGSCRCQECGHVYVVRDGVPNLLLDEEEN-MRFLETLYLSCQRIDCRESGNRFPLHWDGAACQLVRDSSYKFNPELLLEMIDDIDWPSVLSVAAQLGYHDLPPTKPEFPATLDELDEADRVTLNRLWNLLMQTHVKNGQCSCQACGYVYVIENGVPDLLLDAELN-MRFYTTQGLSCGVAACGSSGLRFPLHYDGEACELVRDESVAFDPAWLLEIHERLDWPAVLQTAAELGFDDLPPEKPQFPATLEELDDDDREVLNELWALLAQTHIREGRMSCAECGHVYVIEDGVPDLLLDDELD-MRFLETLFISCRVKECEESNKRFPLKWNGADCKLEENKSVEFNPKFLLEIINKINWPAVLETAKELGFNNLPPDKPTFPKTEKELNEEHKKILNQLWKLLIQTNIINGSCSCENCGYVYIVKNGIPNLLLDEKRN-MRFATTLYLSCQRVECETSGNRFPLHWDGAACQLEVDTSVAYDPALLLEIIENLDWPSVLEVAAQLGDHSLPPEKPTFPATLAELDEADRETLEQLWQLLMQTSVVDGSMQCQHCGHVYVIEDGVPNLLLEDELE-MRFITTTRIACQREECRESGDRFPLHWDGESCELETDTSVEFNPALLLAVIDDINWPSVLKVAAELGRNDLPPEKPEFPATLDELDEEDRTTLNELWLLLFQTKIVNGRMSCAECGHVYVIKDGIPNLLLDEEAE-MRFLTTLFIKCQREACGQSHLRFPLRWHGENCRLETDLSVRYDPAFLLEIIDSVDWPSVLQVAAELGDHSLPPERPQFPATLAELDEAHRATLNELWLLLMQTRIVEGECSCAECGYVYVIEDGVPNLLLRKELD-MRFITTTRISCQRAECNQSSFRFPLDWFGEDCRLEKDKTVEFDPELLLEIIDDISWPAVLTTADQLGWHDLPPEKPTFPSTLAELDDDDREVLNQLWQLLMQTRIVEGSCHCQECGYVYTVRDGVPDLLLDEELD,MKFLTTNFLKCSVKACDTSNDNFPLQYDGSKCQLVQDESIEFNPEFLLNIVDRVDWPAVLTVAAELGNNALPPTKPSFPSSIQELTDDDMAILNDLHTLLLQTSIAEGEMKCRNCGHIYYIKNGIPNLLLPPHLV-MKFLTTNFLKCSVKACDTSNDNFPLQYDGSKCQLVQDESIEFNPEFLLNIVDRVDWPAVLTVAAELGNNALPPTKPSFPSSIQELTDDDMAILNDLHTLLLQTSIAEGEMKCRNCGHIYYIKNGIPNLLLPPHLV-MKFLTTNFLKCSVKACDTSNDNFPLQYDGSKCQLVQDESIEFNPEFLLNIVDRVDWPAVLTVAAELGNNALPPTKPSFPSSIQELTDDDMAILNDLHTLLLQTSIAEGEMKCRNCGHIYYIKNGIPNLLLPPHLV-MKFLTTNFLKCSVKACDTSNDNFPLQYDGSKCQLVQDESIEFNPEFLLNIVDRVDWPAVLTVAAELGNNALPPTKPSFPSSIQELTDDDMAILNDLHTLLLQTSIAEGEMKCRNCGHIYYIKNGIPNLLLPPHLV-MKFLTTNFLKCSVKACDTSNDNFPLQYDGSKCQLVQDESIEFNPEFLLNIVDRVDWPAVLTVAAELGNNALPPTKPSFPSSIQELTDDDMAILNDLHTLLLQTSIAEGEMKCRNCGHIYYIKNGIPNLLLPPHLV-MKFLTTNFLKCSVKACDTSNDNFPLQYDGSKCQLVQDESIEFNPEFLLNIVDRVDWPAVLTVAAELGNNALPPTKPSFPSSIQELTDDDMAILNDLHTLLLQTSIAEGEMKCRNCGHIYYIKNGIPNLLLPPHLV-MKFLTTNFLKCSVKACDTSNDNFPLQYDGSKCQLVQDESIEFNPEFLLNIVDRVDWPAVLTVAAELGNNALPPTKPSFPSSIQELTDDDMAILNDLHTLLLQTSIAEGEMKCRNCGHIYYIKNGIPNLLLPPHLV-MKFLTTNFLKCSVKACDTSNDNFPLQYDGSKCQLVQDESIEFNPEFLLNIVDRVDWPAVLTVAAELGNNALPPTKPSFPSSIQELTDDDMAILNDLHTLLLQTSIAEGEMKCRNCGHIYYIKNGIPNLLLPPHLV-MKFLTTNFLKCSVKACDTSNDNFPLQYDGSKCQLVQDESIEFNPEFLLNIVDRVDWPAVLTVAAELGNNALPPTKPSFPSSIQELTDDDMAILNDLHTLLLQTSIAEGEMKCRNCGHIYYIKNGIPNLLLPPHLV-MKFLTTNFLKCSVKACDTSNDNFPLQYDGSKCQLVQDESIEFNPEFLLNIVDRVDWPAVLTVAAELGNNALPPTKPSFPSSIQELTDDDMAILNDLHTLLLQTSIAEGEMKCRNCGHIYYIKNGIPNLLLPPHLV,ADEVVLDLDN-KDEVIYDRSR-PDRVLYDESR-NDSVVYDQSL-VDEVLSDESR-PDLVLINEDN-PDRVKFDFSR-PDRIVLDESR-PDEVLYDSRG-PDNVILDLSD,GDLMLQDMGT-GDLMLQDMGT-GDLMLQDMGT-GDLMLQDMGT-GDLMLQDMGT-GDLMLQDMGT-GDLMLQDMGT-GDLMLQDMGT-GDLMLQDMGT-GDLMLQDMGT
