contacts,cs,ce,Chain,Length,designed_receptor_seq,native_receptor_seq,designed_binder_seq,native_binder_seq
31.0,275,285,A,10,MTEWLILRLAGPLQSWGEPTVGATRPTGAFPTRSGLLGLLGACLGIERDDTARWQALQDSVFFAVRLDALVRDDRRVPVTRLRDYQTVTGAPASRQGDRRFARVFFEREYLAFASYTVALALTPDSALDLDLLEAAVRRPQGLPYLGRKGCPLARPLYLGRTTAADPVAALAGFAPVGGDIYSERAVPGHTETFPVQDRPDIGRPATFRPATWHVVRG-MTEWLILRLAGPLQSWGEPTVGATRPTGAFPTRSGLLGLLGACLGIERDDTERWQALQDSVFFAVRLDALVRDDRRVPVTRLTDYHTVTGAPASRAGDRRFATVFFRREYLADAAFTVALALTPDSALDLDLLEAAVRRPRLLPYLGRKGCPLATPLYLGRTTADDPVAALAGFAPVGGDIYSERAVPGHTETFPVQDRPDIGRPATYRPATWHVVRG-MTEWLILRLAGPLQSWGEPTVGATRPTGAFPTRSGLLGLLGACLGIERDDTERWQQLQDSVFFAVRLDALVRDDRRVPVTRLRDYQTVTGAPASRAGRTRHAVVAFQREYLAFASYTVALALTPDSALDLDLLEAAVRRPQGLPYLGRKGCPLATPLYLGRTTADDPLAALAGFAPVGGDIYSERAVPGHTETFPAQDRPDIGRPATYRPLTWHVVPG-MTEWLILRLAGPLQSWGEPTVGATRPTGAFPTRSGLLGLLGACLGIERDDTERWQALQDSVFFAVRLDPVVVDDRRVPVTRLRDYQTVTGAPASRQGDRRFAVVHFQREYLAFASYTVALALTPDSALDLDLLEAAVRRPQLLPYLGRKGCPLARPLYLGRTTAADPLAALAGFAPVGGDIYSEAAVPGHTETFPVQDRPDIGRPATFRPATWHVVPG-MTEYLILRLAGPLQSWGEPTVGATRPTGAFPTRSGLLGLLGACLGIERDDRARWQALQDSVFFAVRLDALVRDDRRVPVTRLRDYQTVTGAPASRQGRRRFAQVFFQREYLADAAFTVALALTPDSALDLDLLEAAVRRPQGLPYLGRKGCPLARPLYLGRTTAADPLAALAGFAPVGGDIYSEAAVAGHTETFPAQDRPDIGRPATYRPLTWHVVRG-MTEWLILRLAGPLQSWGEPTVGATRPTGLFPTRSGLLGLLGACLGIERDDRERWQALQDSVFFAVRLDPLVRDDRVVPVTRLRDYQTVHGAPASRQGDRRFATVFFQREYLAFASYTVALALTPDSALDLDLLEAAVRRPQLLPYLGRKGCPLARPLYLGRTTAADPLAALAGFAPVGGDIYSEAAVPGFTETFPAQDRPDIGRPATYRPLTWHVVRG-MTEWLILRLAGPLQSWGEPTVGATRPTGAFPTRSGLLGLLGACLGIERDDTARWQALQDSVFFAVRLDALVRDDRRIAQTRLVDYQTVTGAPASRQGDRRFAQVFFQREYLAFASYTVALALTPDSALDLDLLEAAVRRPQLLPYLGRKGCPLARPLYLGRTTAADPLAALAGFAPVGGDIYSEAAVPGFTETFPVQDRPDIGRPATYLPATWHVVPG-MTEFLILRLAGPLQSWGEPTVGSTRPTGAFPTRSGLLGLLGACLGIERDDTERWQALQDSVFFAVRLDAVVRDDRRVPVTRLRDYHTVTGAPASRAGRTRHAVVHFEREYLADAAFTVALALTPDSALDLDLLEAAVRRPRLLPYLGRKGCPLARPLYLGRTTAADPVAALAGFAPVGGDIYSEAAVPGHTETFPVQDRPDIGRPATFRPATWHVVRG-MTEFLILRLAGPLQSWGEPTVGATRPTGLFPTRSGLLGLLGACLGIERDDRAAWQALQDSVFFAVRLDALVRDDRRVPVTRLRDYHTVTGAPASRAGDRRFARVFFEREYLADAAFTVALALTPDSALDLDLLEAAVRAPRLLPYLGRKGCPLARPLYLGRTTAADPLAALAGFAPVGGDIFSEAAVPGHTETFPVQDRPDIGRPATYRPATWHVVRG-MTEWLILRLAGPLQSWGEPTVGATRPTGAFPTRSGLLGLLGACLGIERDDRERWQQLQDSVRFAVRLDALVRDDRRVAVTRLRDYQTVTGAPASRQGDRRFARVLFEREYLADAAFTVALWLTPDSALDLDLLERAVRRPQGLPYLGRKGCPLAEPLYLGRTTAADPVAALAGFAPVGGDIYSEEAVPGHTETFPCQDRPDIGRPATFRPMTWHVVRG,MRSYLILRLAGPMQAWGQPTFEGTRPTGRFPTRSGLLGLLGACLGIQRDDTSSLQALSESVQFAVRCDELILDDRRVSVTGLRDYHTVLGAREDYRGLKSHETIQTWREYLCDASFTVALWLTPHATMVISELEKAVLKPRYTPYLGRRSCPLTHPLFLGTCQASDPQKALLNYEPVGGDIYSEESVTGHHLKFTARDEPMITLPRQFASREWYVIKG-MRSYLILRLAGPMQAWGQPTFEGTRPTGRFPTRSGLLGLLGACLGIQRDDTSSLQALSESVQFAVRCDELILDDRRVSVTGLRDYHTVLGAREDYRGLKSHETIQTWREYLCDASFTVALWLTPHATMVISELEKAVLKPRYTPYLGRRSCPLTHPLFLGTCQASDPQKALLNYEPVGGDIYSEESVTGHHLKFTARDEPMITLPRQFASREWYVIKG-MRSYLILRLAGPMQAWGQPTFEGTRPTGRFPTRSGLLGLLGACLGIQRDDTSSLQALSESVQFAVRCDELILDDRRVSVTGLRDYHTVLGAREDYRGLKSHETIQTWREYLCDASFTVALWLTPHATMVISELEKAVLKPRYTPYLGRRSCPLTHPLFLGTCQASDPQKALLNYEPVGGDIYSEESVTGHHLKFTARDEPMITLPRQFASREWYVIKG-MRSYLILRLAGPMQAWGQPTFEGTRPTGRFPTRSGLLGLLGACLGIQRDDTSSLQALSESVQFAVRCDELILDDRRVSVTGLRDYHTVLGAREDYRGLKSHETIQTWREYLCDASFTVALWLTPHATMVISELEKAVLKPRYTPYLGRRSCPLTHPLFLGTCQASDPQKALLNYEPVGGDIYSEESVTGHHLKFTARDEPMITLPRQFASREWYVIKG-MRSYLILRLAGPMQAWGQPTFEGTRPTGRFPTRSGLLGLLGACLGIQRDDTSSLQALSESVQFAVRCDELILDDRRVSVTGLRDYHTVLGAREDYRGLKSHETIQTWREYLCDASFTVALWLTPHATMVISELEKAVLKPRYTPYLGRRSCPLTHPLFLGTCQASDPQKALLNYEPVGGDIYSEESVTGHHLKFTARDEPMITLPRQFASREWYVIKG-MRSYLILRLAGPMQAWGQPTFEGTRPTGRFPTRSGLLGLLGACLGIQRDDTSSLQALSESVQFAVRCDELILDDRRVSVTGLRDYHTVLGAREDYRGLKSHETIQTWREYLCDASFTVALWLTPHATMVISELEKAVLKPRYTPYLGRRSCPLTHPLFLGTCQASDPQKALLNYEPVGGDIYSEESVTGHHLKFTARDEPMITLPRQFASREWYVIKG-MRSYLILRLAGPMQAWGQPTFEGTRPTGRFPTRSGLLGLLGACLGIQRDDTSSLQALSESVQFAVRCDELILDDRRVSVTGLRDYHTVLGAREDYRGLKSHETIQTWREYLCDASFTVALWLTPHATMVISELEKAVLKPRYTPYLGRRSCPLTHPLFLGTCQASDPQKALLNYEPVGGDIYSEESVTGHHLKFTARDEPMITLPRQFASREWYVIKG-MRSYLILRLAGPMQAWGQPTFEGTRPTGRFPTRSGLLGLLGACLGIQRDDTSSLQALSESVQFAVRCDELILDDRRVSVTGLRDYHTVLGAREDYRGLKSHETIQTWREYLCDASFTVALWLTPHATMVISELEKAVLKPRYTPYLGRRSCPLTHPLFLGTCQASDPQKALLNYEPVGGDIYSEESVTGHHLKFTARDEPMITLPRQFASREWYVIKG-MRSYLILRLAGPMQAWGQPTFEGTRPTGRFPTRSGLLGLLGACLGIQRDDTSSLQALSESVQFAVRCDELILDDRRVSVTGLRDYHTVLGAREDYRGLKSHETIQTWREYLCDASFTVALWLTPHATMVISELEKAVLKPRYTPYLGRRSCPLTHPLFLGTCQASDPQKALLNYEPVGGDIYSEESVTGHHLKFTARDEPMITLPRQFASREWYVIKG-MRSYLILRLAGPMQAWGQPTFEGTRPTGRFPTRSGLLGLLGACLGIQRDDTSSLQALSESVQFAVRCDELILDDRRVSVTGLRDYHTVLGAREDYRGLKSHETIQTWREYLCDASFTVALWLTPHATMVISELEKAVLKPRYTPYLGRRSCPLTHPLFLGTCQASDPQKALLNYEPVGGDIYSEESVTGHHLKFTARDEPMITLPRQFASREWYVIKG,AAAFPLSAAR-AAAFPLSAAL-PAAFPLSAAL-AAAFPLSAAL-AAAFPLSAAA-AAAFPLSAAL-AAAFPLSAAL-AAAFPLSAAR-AAAFPLSAAR-PAAFPLSAAR,FSDMPLSMAN-FSDMPLSMAN-FSDMPLSMAN-FSDMPLSMAN-FSDMPLSMAN-FSDMPLSMAN-FSDMPLSMAN-FSDMPLSMAN-FSDMPLSMAN-FSDMPLSMAN
35.0,148,158,B,10,MKNYLNIHVLQSFSPSNLNRDDLDRPKDAVYGGVRRARISSQSLKRAMRDSEYWREHIGEHELNVFDLSEAREVLEKKLGEKFDSETINETLKIISGEKKAKKIAPWILGEIEWFCKKVKEAKEKGMDEKTFLEKYKDEIEWFRKNLKRMVDIAVAGAPENSGFLTTLGKVQGSVQVAHALTTHAVEFDFDYGTAIDDLNPDGEPVIFETEFASGVFYRYAYVDLERLKEQLGGASREEALEIASHIVYMLATVVPSAKQNTRAARNLAEMVMVHFSDEPLSLSNAFEKAVEAKDGFLKPSIEALNEYYKKVAKDYGLNGPAAVWTKEKVEPIEERVVPMPTLEELLEWVRNDGK-MKNYLNIHVLQSFSPSNLNRDDNDVPKDAVYGGVRRARISSQCLKRAMRDSEYWREHIGNHELNVFDLSKAREVLEKKLGDKFDSETINKTLKIISGEEKATKIAPWIEGEIAVLCKKVKEAEEKGMDEKTFLEKYKGYIDDFRKNLKRMVDIAVAGAPENSGFLTTLGKVQGSVQVAHALTTHAVEFDFDYFTAIDDLNPDGEPVLDVVEFASGVFYRYAYVDLDRLMEQMGGASREEALEISSHIVYMLSTVVPTAKQNSFAARNAAEMVMVHFSDEPLSLSNAFEKAVEAKDGFLKPSIEALNEYYKKVAKEYGLNGPAAVWTKEKVEPIEERVVPMPTLEELLEWVRNNGK-MKNYLNIHVLQSFSPSNLNRDDLDRPKDAVYGGVRRARISSQSLKRAMRDSEYWREHIGEHELNVFDLSRARSVLREKLGDKFDEETIDLTLEIISGEEEAEEIAPWILGEVAWLCEKVKEAREKGMDEEEFLKEYEEEIEWFRKNLKRMVEIAVAGAPEESGFLTTLGKVQGSVQVAHALTTHAVEFDFDYGTAIDDLNPDGEPVYFTTEYASGVFYRYAYVDLERLMEQLGGASREEALEIASHIVYMLATVVPSAKQNSFAARNAAEMVMVHWSDEPLSLSNAFEEAVEAEDGFLKPSIEALNEYYREVAEEYGLEGPAAVWTTEEVEPVEERVVRMPTLEELLEWVREDGE-MKNYLNIHVLQSFSPSNLNRDDLDRPKDAVFGGVRRARISSQCLKRAMRDSEFWREHIGEHELNVFELSKARDVLREKLGDKFDEEVIDETLRIISGEEEAKKIAPWVLGEVAWLCEKVKEAREKGMDEEEFLKKYEKEIEAFRKNLKRMVEIAVAGAPEDSGFLTTLGKVQGSVQVAHALTTHAVEFDFDYGTAIDDLNPDGEPVYFTTEFASGVFYRYAYVDLERLREQLGGASREEALELASHIVYALSTVVPSAKQNSRAARNPAEMVMVHWSDEPLSLSNAFEKAVEAENGFLKPSIEALNKYYDKVAEEYGLKGPAAVWTTEEVEPISERVVRMPTLEELLEWVRNDGK-MKNYLNIHVLQSFSPSNLNRDDLDRPKDAVYGGVRRARISSQSLKRAMRDSEYWREHIGNHELNVFDLSKAREVLEKKLGDKFDSETINKTLEIISGEEKATKIAPWILGEVEWLCKKVKEAEEKGMDEKTFLEKYKKEIEAFRKNLKRMVDIAVAGAPEDSGFLTTLGKVQGSVQVAHALTTHAVEYDFDYGTAIDDLNPDGEPVYFTTEFASGVFYRYAYVDLERLKAQLGGASREEALEIASHIVYMLSTVVPSAKQNSRAARNAAEMVMVHFSDEPLSLSNAFEKAVEAKDGFLKPSIEALNEYYKKVAKEYGLNGPAAVWTKEKVEPIEERVVPMPTLEELLEWVRNDGK-MKNFLNIHVLQSFSPSNLNRDDLDRPKDAVYGGVRRARISAQSLKRAMRDSEFWRENIGNHELNVFELSKAREVLEKKLGKKFDSETINKTLKIISGEEEAKKIAPWILGEIEWLCKKVKEAEEKGLDEKEFLKKYEKEIKAFRKNLKRMVDIAVAGAPENSGFITTLGKVQGSVQVAPALTTHAVEFDFDYGTAIDDLNPDGEPVIFETEFASGVFYRYAYVDLEKLKEQLGGASREEALEIASYIVYALSTVVPSAKQNSRAARNAAEMVMVHFSDEPLSLSNAFEKAVEAKDGFLKPSIEALNEYYKKVAKEYGLNGPAAVWTKEKVEPIEERVVPMPTLEELLEWVRNNGK-MKNYLNIHVLQSFSPSNLNRDDLDRPKDAVFGGVRRARISSQSLKRAMRDSEFWRENIGNHELNVFDLSKARDVLEKKLGKKFDSETINETLKIISGEEKEKKIAPWILGEVEWLCKKVKEAKEKGLDEKKFLEKYKEEIEWFRKNLKRMVEIAVAGAPENSGFLTTLGKVQGSVQVAHALTTHAVEYDFDYGTAIDDLNPDGEPVIFETEFASGVFYRYAYVDLERLKEQLGGASREEALEISSYIVYALSTIVPSAKQNSRAARNLAEMVMVHFSDEPLSLSNAFEKAVEAKDGFLKPSIEALNEYYKKVAKEYGLNGPAAVWTKEKVEKIDERVVYMPTLEELLEWVRNNGK-MKNYLNIHVLQSFSPSNLNRDDTDRPKDAVVGGVRRARISSQSLKRAMRDSDYWREHIGEHELNVFDLSEAREVLEKKLGDKFDSETINETLEIISGEKKAKKIAPWVLGEVAWLCEKVKEAKEKGMDKEKFLEKYKKEIEAFRKNLKRMVDIAVAGAPEKSGFITTLGKVQGSVQVAHALTTHGVVYDFDYFTAIDDLNPDGEPVLDVVEFASGVFYRYAYVDLERLKEQLGGASREEALEIASHIVYALSTVVPTAKQNSFAARNPAEMVMVHFSDEPLSLSNAFEKAVEAKDGFLKPSIEALNKYYDKVAEKYGLKGPAAVWTKEKVEPISEDVVPMPTLEELLEWVRNDGK-MKNYLNIHVLQSFSPSNLNRDDQDRPKDAVYGGVRRARISSQSLKRAMRDSEYWREHIGEHELNVFELSKARDVLEKKLGDKFDSATINETLEIISGEKKEKKIAPWILGEIEWLCKKVKEAKEKGLDEKTFLEKYKKEIEAFRKNLKRMVEIAVAGAPENSGFLTTLGKVQGSVQVAHALTTHAVEYDFDYGTAIDDLNPDGEPVIFETEFASGVFYRYAYVDLERLKEQLGGASREEALEIASHIVYMLSTVVPSAKQNSRAARNLAEMVMVHFSDEPLSLSNAFEKAVEAKDGFLKPSIEALNEYYKKVAKEYGLNGPAAVYTTEKVEPIDERVVPMPTLEELLEWVRNDGK-MKNYLNIHVLQSFSPSNLNRDDNDVPKDAVIGGVRRARISSQCQKRAWRDSEYWKENIGNHELNVFDLSKARDVLEKKLGEKFDKETINKTLEIISGEEKATKIAPWILGEIEWFCKKVKEAEEKGMDEKTFLEKYKKEIEAFRKNLKRMVDIAVAGAPEKSGFITTLGKVQGSVQVAHAVTTHAVEYDFDYFTAIDDLNPDGEPVLDVVDFASGVFYRYAYVDLERLKAQLGGASREEALEIASHIVYALATVVPTAKQNTFAAKNAAEMVMVHFSDEPLSLSNAFKKAVKADNGYLKPSIEALNKYYDKVAEKYGLNGPAAVWTKEKVKPISEKVVRMPTLEELLEWVKNNGK,MSNFINIHVLISHSPSCLNRDDMNMQKDAIFGGKRRVRISSQSLKRAMRKSGYYAQNIGESSLRTIHLAQLRDVLRQKLGERFDQKIIDKTLALLSGKISADAVTPWVVGEIAWFCEQVAKAEADNLDDKKLLKVLKEDIAAIRVNLQQGVDIALSGRMATSGMMTELGKVDGAMSIAHAITTHQVDSDIDWFTAVDDLQEQGSAHLGTQEFSSGVFYRYANINLAQLQENLGGASREQALEIATHVVHMLATEVPGAKQRTYAAFNPADMVMVNFSDMPLSMANAFEKAVKAKDGFLQPSIQAFNQYWDRVANGYGLNGAAAQFSLSDVDPITAQVKQMPTLEQLKSWVRNNGE-MSNFINIHVLISHSPSCLNRDDMNMQKDAIFGGKRRVRISSQSLKRAMRKSGYYAQNIGESSLRTIHLAQLRDVLRQKLGERFDQKIIDKTLALLSGKISADAVTPWVVGEIAWFCEQVAKAEADNLDDKKLLKVLKEDIAAIRVNLQQGVDIALSGRMATSGMMTELGKVDGAMSIAHAITTHQVDSDIDWFTAVDDLQEQGSAHLGTQEFSSGVFYRYANINLAQLQENLGGASREQALEIATHVVHMLATEVPGAKQRTYAAFNPADMVMVNFSDMPLSMANAFEKAVKAKDGFLQPSIQAFNQYWDRVANGYGLNGAAAQFSLSDVDPITAQVKQMPTLEQLKSWVRNNGE-MSNFINIHVLISHSPSCLNRDDMNMQKDAIFGGKRRVRISSQSLKRAMRKSGYYAQNIGESSLRTIHLAQLRDVLRQKLGERFDQKIIDKTLALLSGKISADAVTPWVVGEIAWFCEQVAKAEADNLDDKKLLKVLKEDIAAIRVNLQQGVDIALSGRMATSGMMTELGKVDGAMSIAHAITTHQVDSDIDWFTAVDDLQEQGSAHLGTQEFSSGVFYRYANINLAQLQENLGGASREQALEIATHVVHMLATEVPGAKQRTYAAFNPADMVMVNFSDMPLSMANAFEKAVKAKDGFLQPSIQAFNQYWDRVANGYGLNGAAAQFSLSDVDPITAQVKQMPTLEQLKSWVRNNGE-MSNFINIHVLISHSPSCLNRDDMNMQKDAIFGGKRRVRISSQSLKRAMRKSGYYAQNIGESSLRTIHLAQLRDVLRQKLGERFDQKIIDKTLALLSGKISADAVTPWVVGEIAWFCEQVAKAEADNLDDKKLLKVLKEDIAAIRVNLQQGVDIALSGRMATSGMMTELGKVDGAMSIAHAITTHQVDSDIDWFTAVDDLQEQGSAHLGTQEFSSGVFYRYANINLAQLQENLGGASREQALEIATHVVHMLATEVPGAKQRTYAAFNPADMVMVNFSDMPLSMANAFEKAVKAKDGFLQPSIQAFNQYWDRVANGYGLNGAAAQFSLSDVDPITAQVKQMPTLEQLKSWVRNNGE-MSNFINIHVLISHSPSCLNRDDMNMQKDAIFGGKRRVRISSQSLKRAMRKSGYYAQNIGESSLRTIHLAQLRDVLRQKLGERFDQKIIDKTLALLSGKISADAVTPWVVGEIAWFCEQVAKAEADNLDDKKLLKVLKEDIAAIRVNLQQGVDIALSGRMATSGMMTELGKVDGAMSIAHAITTHQVDSDIDWFTAVDDLQEQGSAHLGTQEFSSGVFYRYANINLAQLQENLGGASREQALEIATHVVHMLATEVPGAKQRTYAAFNPADMVMVNFSDMPLSMANAFEKAVKAKDGFLQPSIQAFNQYWDRVANGYGLNGAAAQFSLSDVDPITAQVKQMPTLEQLKSWVRNNGE-MSNFINIHVLISHSPSCLNRDDMNMQKDAIFGGKRRVRISSQSLKRAMRKSGYYAQNIGESSLRTIHLAQLRDVLRQKLGERFDQKIIDKTLALLSGKISADAVTPWVVGEIAWFCEQVAKAEADNLDDKKLLKVLKEDIAAIRVNLQQGVDIALSGRMATSGMMTELGKVDGAMSIAHAITTHQVDSDIDWFTAVDDLQEQGSAHLGTQEFSSGVFYRYANINLAQLQENLGGASREQALEIATHVVHMLATEVPGAKQRTYAAFNPADMVMVNFSDMPLSMANAFEKAVKAKDGFLQPSIQAFNQYWDRVANGYGLNGAAAQFSLSDVDPITAQVKQMPTLEQLKSWVRNNGE-MSNFINIHVLISHSPSCLNRDDMNMQKDAIFGGKRRVRISSQSLKRAMRKSGYYAQNIGESSLRTIHLAQLRDVLRQKLGERFDQKIIDKTLALLSGKISADAVTPWVVGEIAWFCEQVAKAEADNLDDKKLLKVLKEDIAAIRVNLQQGVDIALSGRMATSGMMTELGKVDGAMSIAHAITTHQVDSDIDWFTAVDDLQEQGSAHLGTQEFSSGVFYRYANINLAQLQENLGGASREQALEIATHVVHMLATEVPGAKQRTYAAFNPADMVMVNFSDMPLSMANAFEKAVKAKDGFLQPSIQAFNQYWDRVANGYGLNGAAAQFSLSDVDPITAQVKQMPTLEQLKSWVRNNGE-MSNFINIHVLISHSPSCLNRDDMNMQKDAIFGGKRRVRISSQSLKRAMRKSGYYAQNIGESSLRTIHLAQLRDVLRQKLGERFDQKIIDKTLALLSGKISADAVTPWVVGEIAWFCEQVAKAEADNLDDKKLLKVLKEDIAAIRVNLQQGVDIALSGRMATSGMMTELGKVDGAMSIAHAITTHQVDSDIDWFTAVDDLQEQGSAHLGTQEFSSGVFYRYANINLAQLQENLGGASREQALEIATHVVHMLATEVPGAKQRTYAAFNPADMVMVNFSDMPLSMANAFEKAVKAKDGFLQPSIQAFNQYWDRVANGYGLNGAAAQFSLSDVDPITAQVKQMPTLEQLKSWVRNNGE-MSNFINIHVLISHSPSCLNRDDMNMQKDAIFGGKRRVRISSQSLKRAMRKSGYYAQNIGESSLRTIHLAQLRDVLRQKLGERFDQKIIDKTLALLSGKISADAVTPWVVGEIAWFCEQVAKAEADNLDDKKLLKVLKEDIAAIRVNLQQGVDIALSGRMATSGMMTELGKVDGAMSIAHAITTHQVDSDIDWFTAVDDLQEQGSAHLGTQEFSSGVFYRYANINLAQLQENLGGASREQALEIATHVVHMLATEVPGAKQRTYAAFNPADMVMVNFSDMPLSMANAFEKAVKAKDGFLQPSIQAFNQYWDRVANGYGLNGAAAQFSLSDVDPITAQVKQMPTLEQLKSWVRNNGE-MSNFINIHVLISHSPSCLNRDDMNMQKDAIFGGKRRVRISSQSLKRAMRKSGYYAQNIGESSLRTIHLAQLRDVLRQKLGERFDQKIIDKTLALLSGKISADAVTPWVVGEIAWFCEQVAKAEADNLDDKKLLKVLKEDIAAIRVNLQQGVDIALSGRMATSGMMTELGKVDGAMSIAHAITTHQVDSDIDWFTAVDDLQEQGSAHLGTQEFSSGVFYRYANINLAQLQENLGGASREQALEIATHVVHMLATEVPGAKQRTYAAFNPADMVMVNFSDMPLSMANAFEKAVKAKDGFLQPSIQAFNQYWDRVANGYGLNGAAAQFSLSDVDPITAQVKQMPTLEQLKSWVRNNGE,RNVPKTKPSK-AAKPKTKPAK-EEEPRTEPAE-AARPKTKPSK-AAEPKTKPSK-AAEPKTKPSK-AAEPKTKPSK-AAKPKTKPAK-AAEFKTKPSK-RAKPKTKPSK,RSCPLTHPLF-RSCPLTHPLF-RSCPLTHPLF-RSCPLTHPLF-RSCPLTHPLF-RSCPLTHPLF-RSCPLTHPLF-RSCPLTHPLF-RSCPLTHPLF-RSCPLTHPLF
