contacts,cs,ce,Chain,Length,designed_receptor_seq,native_receptor_seq,designed_binder_seq,native_binder_seq
14.0,142,152,A,10,MEVNPIIEAMGTEYGKKIDLNNSNIAKFKEYEGLYPRLAEKIVTNRPFKSVEDVLKIPGLSNKEKEILKKHLKNFCVTEVLDELVEGGRQWNNGKGY-GSVDPIKLAFLTEYGKKIDLNNSPIERFKKYDGMYPRLAGKIVKNRPYKSVEDVLKIPGLTEYEKGVLKNHLKHFCVTEVLEELVEGGRQWNDGRDK-ADVDVVKLATLTSYGKKIDLNNSPIHEFKKYDGLYPSLAGKIVTNAPYKTVEDVLNIPGLTKEEKEILKENLKHFCVTDVVDELVDGGRQWDNGTKE-GSMNPIEEAYNTEYGKKIDLNNSPIYEFKQYEGLYPSLAIKIVKNRPYKSVEDVLNIPGLTEEEKEILKKHLKHFCVTEVLEELVEGGRVWNNGKET-GSMDPIKEMYNTEYGKKIDLNNTNISAFKKYEGLYPRLANKIVENRPFSSVEDVLKIPGLSEREKSILKDHLKHFCVTDVLEELVQGGRQWDDGEGF-MAVDVVTLYRETSYGEKIDLNNSPIEEFKRYEGLYPTLANKIVTYRPYKSVEDVLKIPGLTEKEKSILKDHLKNFCVTEVVEELVDGGRQWNNGRTV-GSVNPIIEAMGTDYGKKIDLNNSHIREFKAWDGLYPELANKIVENRPYASVEDVLKIPGLTDEEKKILEKHLKNFCVTEVLEELVEGGRQWNNGKTF-GSVDPIEEYKNTSFGKKIDLNNSPIWVFKRYDGLYPRLAKKIVTNRPFESVEDVLEIPGLTEKEKEILKEHLKHFCVTEVLEELVEGGRQWDDGKRV-MEIDPIKEAKNTKYGEKIDLNNSPIYEFKKYKGMYPSLANKIVTHRPYKSVEDVLKIPGLSSTQKKTLKEHLKYFCVTEVLEELVQGGRQWDNGLSD-GSINVIELAYGTDYGRKIDLNNSPIWEFRRYEGLYPRLAEKIVTHRPFESVEDVLKIPGLSDKEKEILKEHLKHFCVTKVIDELVEGGRQWDDGEGP,ELVNVVDEKLGTAYGEKIDLNNTNIAAFIQYRGLYPTLAKLIVKNAPYESVEDVLNIPGLTERQKQILRENLEHFTVTEVETALVEGGDRYNNGLYK-ELVNVVDEKLGTAYGEKIDLNNTNIAAFIQYRGLYPTLAKLIVKNAPYESVEDVLNIPGLTERQKQILRENLEHFTVTEVETALVEGGDRYNNGLYK-ELVNVVDEKLGTAYGEKIDLNNTNIAAFIQYRGLYPTLAKLIVKNAPYESVEDVLNIPGLTERQKQILRENLEHFTVTEVETALVEGGDRYNNGLYK-ELVNVVDEKLGTAYGEKIDLNNTNIAAFIQYRGLYPTLAKLIVKNAPYESVEDVLNIPGLTERQKQILRENLEHFTVTEVETALVEGGDRYNNGLYK-ELVNVVDEKLGTAYGEKIDLNNTNIAAFIQYRGLYPTLAKLIVKNAPYESVEDVLNIPGLTERQKQILRENLEHFTVTEVETALVEGGDRYNNGLYK-ELVNVVDEKLGTAYGEKIDLNNTNIAAFIQYRGLYPTLAKLIVKNAPYESVEDVLNIPGLTERQKQILRENLEHFTVTEVETALVEGGDRYNNGLYK-ELVNVVDEKLGTAYGEKIDLNNTNIAAFIQYRGLYPTLAKLIVKNAPYESVEDVLNIPGLTERQKQILRENLEHFTVTEVETALVEGGDRYNNGLYK-ELVNVVDEKLGTAYGEKIDLNNTNIAAFIQYRGLYPTLAKLIVKNAPYESVEDVLNIPGLTERQKQILRENLEHFTVTEVETALVEGGDRYNNGLYK-ELVNVVDEKLGTAYGEKIDLNNTNIAAFIQYRGLYPTLAKLIVKNAPYESVEDVLNIPGLTERQKQILRENLEHFTVTEVETALVEGGDRYNNGLYK-ELVNVVDEKLGTAYGEKIDLNNTNIAAFIQYRGLYPTLAKLIVKNAPYESVEDVLNIPGLTERQKQILRENLEHFTVTEVETALVEGGDRYNNGLYK,ELVPSAKKSL-GSVPSGSMAW-EEEPEEEESQ-AEVPSKLTTK-GPIPSLEPSL-GRRPDRRWSK-KAVPSAKPSV-EEEPSSSPSS-LENPLAVESR-PPKPSPEPSW,FNVPSYRTAN-FNVPSYRTAN-FNVPSYRTAN-FNVPSYRTAN-FNVPSYRTAN-FNVPSYRTAN-FNVPSYRTAN-FNVPSYRTAN-FNVPSYRTAN-FNVPSYRTAN
20.0,79,89,B,10,GPTPDDIRGTGLENKCPTLDDKAVGAYPIDKSKKYKISNLCLEPKEFLVKEEPADENTQAKYVPTVLITGDNHNLYDISGILKVNEDGSLTYEQRRGLNERPVVVRLEGGEEIPLLNTVMNLTASTAPDVKAITTETYFEGDFDVPDYFYSGWLDPWGRGLSAGKKDIDFLPYADDGGYRKVQVKEFSLTKGKIKLDVKQVDGKAGRISGSFESWQLSDDDMGRRKPREVKVKGTFFALIVDS-VATLDDIFGTGLDDKCPTLDETATGAYPIDKNKTYKISDLCIEPLAFLVQETPKDELTDAKFIPTELITANSNSLYNIRGILKVNEDGSLTFVEATGSNARRVTVKLEGGEEIPLLNTVQALVASTRPEVDAITTETFFKGNFAVPSYQNCFWLDPWGRGLCAGAKDVLSLPNADKGGLDNIQNKKFAMSRGYINFYVKQVDGEKGKIAGDFTAYQPSDDYMGMHKPYMVKVEGKFFAEIVED-MYTEQDVFGTGLENKCPTLSDDARGAYPIDRTKSYIIKNLCIEPKAFLVKEEPEDENKQAQFVPTALITGHNTSLFNIYGDLEVNEDGSLTFVERAGSNRRPVTVKLEGGEEIPLLNTIISLKASTQPNVNSITTKTYFEGMFLVPEYQHSFYLDPFGRGLSAGAQDVLSLPNVDDGGLDRIEKKEFSLSLGYIKFQVEQVNGAEGKLAGTFVSYQESDDDMGRRKAREVKVEGVFFAEIREA-HMTFNDIVGTGLDDQCPTLSEAHRGAYPIDGTKEYGIADLCLEPLEFLVKENPADKRTDAKFVPTKLITGNNTALYEIYGILKVNEDGSLTFIESAGDNFRRVVVELEGGEKIPLLNTVQRLVASTRPNVTEITTYTSFRGSFSVPEYHNCKWLDPFGRGLCDGAKELRILPNADEGGLKRLMEKRFSLSKGDIVLTVEKVDGEKGRIAGTFVSTQKSDNDMGNHEARDVMVKGKFFAEIVPL-GPTPEDIKGTGAENKCPTLDENAKGAYPINKDKEYTITDLCLEPKKFLVKEEPKDEKKEAEFVPTKNITGNNTSLYSIGGKLLVNEDGSLTFVEGYGLNARPVTVELEGGEKIPLLNTVQRLVASTMPDVSSITTATSFTGNFLVPEYHWSGYLDPWGRGLTDGDKDVRFLPNIEDGGLKRIEEKKFSLSKGTITLDVKQVDGKKGQISGTFTSTQPSDDLMGRRKAYDVQVKGNFFALIAET-GPTPEDIFGTGLEDSCPTLDDSAQGAYPIDRSKQYRIANLCIEPKEFLVKEKPENRFVKAKYVPTTLITGNNTSLRYIRGTLKVNEDGSLTFVERSGANWRPVVVELEGGEQVPLLNTIQNLVASTEPNVTAITTQTSFSGSFEVPSYHTSGWLDPMGRGLTAGAKSVLFLPNADAGGLARIQEKQFSLASGTITLSVQRVDGETGRIAGTFTSEQPSDDNMGRFEPREVRVKGVFFAQIVQA-TLTPNDIRGTGLEGKCPTLDESATGAYPIDSSKSYIIANLCLEPKAFLVKEKPSNDQEEAKFVPTTLVTGDNTSLYSIYGKLDVNEDGSLTFTEGAGVDHRRVTVELEGGEKIPLLNTVKRLRASTKPNVTSITTDTYFKGNFLVPDYYDCGYLDPYGRGLCAGKKNVDFLPNAEDGGYDNIMKKTFSLTRGDIILDVKKVDGKSGRIAGTFTSWQPSDDNMGRREAYEVMVKGNFFAKIIEA-SPTLDDIIGTGLENRCPTLDASARGAYPIDRNRSYIIADLCLEPKEFLVRERPADRSREAQFVPTSLITGRNTSLRYIRGTLNVNEDGSLTFVEQSGINYRPVTVRLEGGEEIPLLNTVQQLVASTRPDVDAITTDTFFAGSFLVPSYYNCGWLDPQGRGLCAGAKTVLSLPYAEDGELRNIMEKRFALSKGTIRLFVERVDGERGRLAGTFESRQPSDDDMGRREAREVRVRGNFYALIKES-GPTLDDIRGTGKENLCPTLDESARGAFPIDRSRSYVIDDLCLEPKSFLVQEQPKDDTSAANFVPTKNITGENTSLYAIFGRLDVNEDGSLTFVEQAGDNHRPVTVELEGGEKIPLLNTVMALVASTMPAVRSITTDTYFKGSFKVPDYHYCNWLDPFGRGLCAGRKSVDFLPHARKGGLERVEKKRFSLDNGEITLQVKQVNGEKGQISGTFTSWQPSDDDMGRHKPRKVKVEGVFFAEIKQA-TLTAEDIYGTGLQDECPTLDEEAQGAFPINREKQYRIADLCLQPEAFLVREEPEDSQTEAKFIPTENITGDNQSLYAIGGLLEVLEDGSLKFVMQFGSDKRPVTVRLEGGEEIPLLHTVQNLVASTRPEVDAITTATFFKGSFLVPDYHTGYHLDPMGRGLLAGKKDTWWLPYAEDGELYNIEKKRFALSRGEITLQVKRVDGEKGRLAGTFESVQPSDNDMGRREAREVKVRGRFFAEIVEA,TLTYDDIVGTGLANKCPTLDDTARGAYPIDSSQTYRIARLCLQPTTFLVKEEPKNKRQEAEFVPTKLVTRETTSLDQIQGELKVNSDGSLTFVEEDGIDFQPVTVQMAGGERIPLLFTVKNLVASTQPNVTSITTSTDFKGEFNVPSYRTANFLDPKGRGLASGYDSAIALPQAKEEELARANVKRFSLTKGQISLNVAKVDGRTGEIAGTFESEQLSDDDMGAHEPHEVKIQGVFYASIEPA-TLTYDDIVGTGLANKCPTLDDTARGAYPIDSSQTYRIARLCLQPTTFLVKEEPKNKRQEAEFVPTKLVTRETTSLDQIQGELKVNSDGSLTFVEEDGIDFQPVTVQMAGGERIPLLFTVKNLVASTQPNVTSITTSTDFKGEFNVPSYRTANFLDPKGRGLASGYDSAIALPQAKEEELARANVKRFSLTKGQISLNVAKVDGRTGEIAGTFESEQLSDDDMGAHEPHEVKIQGVFYASIEPA-TLTYDDIVGTGLANKCPTLDDTARGAYPIDSSQTYRIARLCLQPTTFLVKEEPKNKRQEAEFVPTKLVTRETTSLDQIQGELKVNSDGSLTFVEEDGIDFQPVTVQMAGGERIPLLFTVKNLVASTQPNVTSITTSTDFKGEFNVPSYRTANFLDPKGRGLASGYDSAIALPQAKEEELARANVKRFSLTKGQISLNVAKVDGRTGEIAGTFESEQLSDDDMGAHEPHEVKIQGVFYASIEPA-TLTYDDIVGTGLANKCPTLDDTARGAYPIDSSQTYRIARLCLQPTTFLVKEEPKNKRQEAEFVPTKLVTRETTSLDQIQGELKVNSDGSLTFVEEDGIDFQPVTVQMAGGERIPLLFTVKNLVASTQPNVTSITTSTDFKGEFNVPSYRTANFLDPKGRGLASGYDSAIALPQAKEEELARANVKRFSLTKGQISLNVAKVDGRTGEIAGTFESEQLSDDDMGAHEPHEVKIQGVFYASIEPA-TLTYDDIVGTGLANKCPTLDDTARGAYPIDSSQTYRIARLCLQPTTFLVKEEPKNKRQEAEFVPTKLVTRETTSLDQIQGELKVNSDGSLTFVEEDGIDFQPVTVQMAGGERIPLLFTVKNLVASTQPNVTSITTSTDFKGEFNVPSYRTANFLDPKGRGLASGYDSAIALPQAKEEELARANVKRFSLTKGQISLNVAKVDGRTGEIAGTFESEQLSDDDMGAHEPHEVKIQGVFYASIEPA-TLTYDDIVGTGLANKCPTLDDTARGAYPIDSSQTYRIARLCLQPTTFLVKEEPKNKRQEAEFVPTKLVTRETTSLDQIQGELKVNSDGSLTFVEEDGIDFQPVTVQMAGGERIPLLFTVKNLVASTQPNVTSITTSTDFKGEFNVPSYRTANFLDPKGRGLASGYDSAIALPQAKEEELARANVKRFSLTKGQISLNVAKVDGRTGEIAGTFESEQLSDDDMGAHEPHEVKIQGVFYASIEPA-TLTYDDIVGTGLANKCPTLDDTARGAYPIDSSQTYRIARLCLQPTTFLVKEEPKNKRQEAEFVPTKLVTRETTSLDQIQGELKVNSDGSLTFVEEDGIDFQPVTVQMAGGERIPLLFTVKNLVASTQPNVTSITTSTDFKGEFNVPSYRTANFLDPKGRGLASGYDSAIALPQAKEEELARANVKRFSLTKGQISLNVAKVDGRTGEIAGTFESEQLSDDDMGAHEPHEVKIQGVFYASIEPA-TLTYDDIVGTGLANKCPTLDDTARGAYPIDSSQTYRIARLCLQPTTFLVKEEPKNKRQEAEFVPTKLVTRETTSLDQIQGELKVNSDGSLTFVEEDGIDFQPVTVQMAGGERIPLLFTVKNLVASTQPNVTSITTSTDFKGEFNVPSYRTANFLDPKGRGLASGYDSAIALPQAKEEELARANVKRFSLTKGQISLNVAKVDGRTGEIAGTFESEQLSDDDMGAHEPHEVKIQGVFYASIEPA-TLTYDDIVGTGLANKCPTLDDTARGAYPIDSSQTYRIARLCLQPTTFLVKEEPKNKRQEAEFVPTKLVTRETTSLDQIQGELKVNSDGSLTFVEEDGIDFQPVTVQMAGGERIPLLFTVKNLVASTQPNVTSITTSTDFKGEFNVPSYRTANFLDPKGRGLASGYDSAIALPQAKEEELARANVKRFSLTKGQISLNVAKVDGRTGEIAGTFESEQLSDDDMGAHEPHEVKIQGVFYASIEPA-TLTYDDIVGTGLANKCPTLDDTARGAYPIDSSQTYRIARLCLQPTTFLVKEEPKNKRQEAEFVPTKLVTRETTSLDQIQGELKVNSDGSLTFVEEDGIDFQPVTVQMAGGERIPLLFTVKNLVASTQPNVTSITTSTDFKGEFNVPSYRTANFLDPKGRGLASGYDSAIALPQAKEEELARANVKRFSLTKGQISLNVAKVDGRTGEIAGTFESEQLSDDDMGAHEPHEVKIQGVFYASIEPA,EDMAETAGGR-FNFAELYGGL-VDAAKVYGGL-EDAAKTACGE-ADAALTYGGL-ADSAKTAGGL-YDNAKVSCGR-VDNAETACGN-FDDAEVACGR-PELALTAGGF,VETALVEGGD-VETALVEGGD-VETALVEGGD-VETALVEGGD-VETALVEGGD-VETALVEGGD-VETALVEGGD-VETALVEGGD-VETALVEGGD-VETALVEGGD
