contacts,cs,ce,Chain,Length,designed_receptor_seq,native_receptor_seq,designed_binder_seq,native_binder_seq
23.0,28,38,A,10,AALTPDILTVPYDSNGNNVTLTLEQFKRGVGLFNYACAVCHGGGTNKINPAITLKTEVLANAVPPRNNIEGLVEYMNNPTTFDGSKHIADIVPSQKNAGNFPLMKTLTADDKVAIAGFILVMPKILGDKWGGGPKYD-AALTPDILTVPYDSNGNNVTLTLEQFQRGVGLFQYACAVCHGGGTNAINPLITLKTEVLARAVPPLDNIEGLVQFMNDPTTFDGSQHIASIVPSRTNAGNFPLMQSLTEEDKVAIAGFILVMPKILGDRWGGGPAYN-GALTPDILTVPYDSNGNNVTLTLEQFQRGQGLFQYACAACHGGGTNRINPAITLKTEVLARAVPPLDNIEGLVEFMNNPTTFDGSQRISDIVPSRTNAGNFPLMQTLTEDDKVAIAGYILVMPKILGDRWGGGPEFD-GALTPDILTVPLDSNGNNVTLTLEQFQRGQGLFQYACAVCHGGGTNSINPAITLKTEVLARAVPPLDNINGLVEFMNNPTTFDGSQHIAAIVPSQTNAGNFPLMKTLTQDDKVAIAGYILVMPKILGDKWGGGPATV-GALTPDILTVPYDENGNNVTLTLEQFQRGVGLFQYACAVCHGGGTNAINPAITLKTEVLARAVPPLNNIEGLVEFMNNPTTFDGSQHIADIVPSQKNAGNFPLMKTLTQDDKVAIAGYILVMPKILGDRWGGGPAFD-GALTPDILTVPYDSNGNNVTLTLEQFQRGVGLFQYACAVCHGGGTNNINPAITLKTEVLANAVPPLDNIEGLVNFMNNPTTFDGSQHISAIVPSQTNAGNFPLMQTLTQEDKVAIAGYILVEPKILGDKWGGGPATV-GALTPDILTVPYDANGNTVTLTLEQFQRGVGLFQYACAVCHGGGTNAVNPAITLKTEVLARAVPPLDNIEGLVEFMNNPTTFDGSQHIADIVPSQKNAGNFPLMKTLTAEDKVAIAGYILVMPKILGDKWGGGPATV-GALTPDILTVPYDSNGNNVTLTKEQFQRGVGLFNYACAVCHGGGTNSINPAITLKTEVLANAVPPLNNIEGLVNFMNNPTTFDGSQNISSIVPSQTNAGNFPLMKTLTQDDKVAIAGYILVEPKIAGDKWGGGPAYN-AALTPDILTVPYDSNGNNVTLTLEQFQRGVGLFQYACAVCHGGGTNSINPAITLKTEVLARAVPPLDNINGLVEFMNNPTTFDGSQHIASIVPSQTNAGNFPLMKTLTADDKVAIAGYILVEPKIAGDKWGGGPAFD-GALTPDILTVPYDSNGNNVTLTKEQFQRGVNLFNYACAVCHGGGTNAINPAITLKTEVLANAVPPRNNINGLVEYMNNPTTFDGSQVISSIHPSQKNAGNFPLMKTLTQDDKVAIAGYILVEPKILGDKWGGGPKYD,AELTPEVLTVPLNSEGKTITLTEKQYLEGKRLFQYACASCHVGGITKTNPSLDLRTETLALATPPRDNIEGLVDYMKNPTTYDGEQEIAEVHPSLRSADIFPKMRNLTEKDLVAIAGHILVEPKILGDKWGGGKVYY-AELTPEVLTVPLNSEGKTITLTEKQYLEGKRLFQYACASCHVGGITKTNPSLDLRTETLALATPPRDNIEGLVDYMKNPTTYDGEQEIAEVHPSLRSADIFPKMRNLTEKDLVAIAGHILVEPKILGDKWGGGKVYY-AELTPEVLTVPLNSEGKTITLTEKQYLEGKRLFQYACASCHVGGITKTNPSLDLRTETLALATPPRDNIEGLVDYMKNPTTYDGEQEIAEVHPSLRSADIFPKMRNLTEKDLVAIAGHILVEPKILGDKWGGGKVYY-AELTPEVLTVPLNSEGKTITLTEKQYLEGKRLFQYACASCHVGGITKTNPSLDLRTETLALATPPRDNIEGLVDYMKNPTTYDGEQEIAEVHPSLRSADIFPKMRNLTEKDLVAIAGHILVEPKILGDKWGGGKVYY-AELTPEVLTVPLNSEGKTITLTEKQYLEGKRLFQYACASCHVGGITKTNPSLDLRTETLALATPPRDNIEGLVDYMKNPTTYDGEQEIAEVHPSLRSADIFPKMRNLTEKDLVAIAGHILVEPKILGDKWGGGKVYY-AELTPEVLTVPLNSEGKTITLTEKQYLEGKRLFQYACASCHVGGITKTNPSLDLRTETLALATPPRDNIEGLVDYMKNPTTYDGEQEIAEVHPSLRSADIFPKMRNLTEKDLVAIAGHILVEPKILGDKWGGGKVYY-AELTPEVLTVPLNSEGKTITLTEKQYLEGKRLFQYACASCHVGGITKTNPSLDLRTETLALATPPRDNIEGLVDYMKNPTTYDGEQEIAEVHPSLRSADIFPKMRNLTEKDLVAIAGHILVEPKILGDKWGGGKVYY-AELTPEVLTVPLNSEGKTITLTEKQYLEGKRLFQYACASCHVGGITKTNPSLDLRTETLALATPPRDNIEGLVDYMKNPTTYDGEQEIAEVHPSLRSADIFPKMRNLTEKDLVAIAGHILVEPKILGDKWGGGKVYY-AELTPEVLTVPLNSEGKTITLTEKQYLEGKRLFQYACASCHVGGITKTNPSLDLRTETLALATPPRDNIEGLVDYMKNPTTYDGEQEIAEVHPSLRSADIFPKMRNLTEKDLVAIAGHILVEPKILGDKWGGGKVYY-AELTPEVLTVPLNSEGKTITLTEKQYLEGKRLFQYACASCHVGGITKTNPSLDLRTETLALATPPRDNIEGLVDYMKNPTTYDGEQEIAEVHPSLRSADIFPKMRNLTEKDLVAIAGHILVEPKILGDKWGGGKVYY,VGVKGTYPTK-IGVVGTYPNQ-IGVVGTYPNQ-VGVVGTYPTK-IGVVGTYPNQ-IGTVGTYPNQ-IGTVGTYPTK-IGTVGTYPNK-IGVVGTYPTR-IGTKGTYPNK,IQYRGLYPTL-IQYRGLYPTL-IQYRGLYPTL-IQYRGLYPTL-IQYRGLYPTL-IQYRGLYPTL-IQYRGLYPTL-IQYRGLYPTL-IQYRGLYPTL-IQYRGLYPTL
14.0,76,86,B,10,GSVDPIKEMLNTEYGKKIDLNNSEIRAFRNYKGLYPGLAIKIVKNRPFKKVEDVLKIPGLTEEEKEILKNHMKNFCVTDVLEELVKGGKQWDDGKTY-GSVDPIEEMLKTEYGKKIDLNNSEIRAFRNFKGLYPGLAIKIVKNRPFKKVEDVLKIPGLTEEEKEILKNHMKNFCVTDVLEELVKGGKQWNDGKTF-GSVDPIEEMLKTEYGKKIDLNNSEIFKFRNYKGLYPGLAIKIVKNRPFKKVEDVLKIPGLTEEEKEILKNHMKNFTVTDVLEELVKGGKQWNNGYTY-GSVDPIEEMLKTEYGKKIDLNNSEIRAFRNYKGLYPGLAIKIVKNRPFKKVEDVLKIPGLTEEEKEILKNHMKNFCVTDVLEELVKGGKQWNDGYTE-GSVDPIEEMRKTEYGKKIDLNNSEIRAFRNYKGLYPGLAVKIVKNAPFKKVEDVLKIPGLTEEEKEILKNHMKNFTVTDVLEELVKGGKRWDDGKTE-GSMDPIEEMMNTEYGKKIDLNNSEIKAFRNYEGLYPGLAVKIVKNRPFKKVEDVLKIPGLTEEEKEILKNHMKHFCVTDVLEELVKGGKQWNDGKTF-GSVDPILEALNTEYGKKIDLNNSEIKAFRNYEGLYPGLAIKIVTNRPFKKVEDVLKIPGLTEEEKEILKNHMKHFTVTDVLKELTEGGKQWNNGKTL-GSVDPIEEMKKTEYGKKIDLNNSEIKAFKNYEGLYPGLAIKIVKNAPFKKVEDVLKIPGLTEEEKEILKNHMKNFTVTDVLEELVKGGKRWDNGLTE-GSVDPIEEMLNTEYGKKIDLNNSEIRAFRNYEGLYPGLAIKIVKNRPFKKVEDVLKIPGLTEEEKEILKNHMKNFCVTDVLEELVKGGKQWDDGRTF-GSVDPILEALNTEYGKKIDLNNSEIRAFRRYKGLYPGLAIKIVKNRPFKKVEDVLKIPGLTEEEKEILKNHMKNFCVTDVLEELVKGGKQWDDGRTL,ELVNVVDEKLGTAYGEKIDLNNTNIAAFIQYRGLYPTLAKLIVKNAPYESVEDVLNIPGLTERQKQILRENLEHFTVTEVETALVEGGDRYNNGLYK-ELVNVVDEKLGTAYGEKIDLNNTNIAAFIQYRGLYPTLAKLIVKNAPYESVEDVLNIPGLTERQKQILRENLEHFTVTEVETALVEGGDRYNNGLYK-ELVNVVDEKLGTAYGEKIDLNNTNIAAFIQYRGLYPTLAKLIVKNAPYESVEDVLNIPGLTERQKQILRENLEHFTVTEVETALVEGGDRYNNGLYK-ELVNVVDEKLGTAYGEKIDLNNTNIAAFIQYRGLYPTLAKLIVKNAPYESVEDVLNIPGLTERQKQILRENLEHFTVTEVETALVEGGDRYNNGLYK-ELVNVVDEKLGTAYGEKIDLNNTNIAAFIQYRGLYPTLAKLIVKNAPYESVEDVLNIPGLTERQKQILRENLEHFTVTEVETALVEGGDRYNNGLYK-ELVNVVDEKLGTAYGEKIDLNNTNIAAFIQYRGLYPTLAKLIVKNAPYESVEDVLNIPGLTERQKQILRENLEHFTVTEVETALVEGGDRYNNGLYK-ELVNVVDEKLGTAYGEKIDLNNTNIAAFIQYRGLYPTLAKLIVKNAPYESVEDVLNIPGLTERQKQILRENLEHFTVTEVETALVEGGDRYNNGLYK-ELVNVVDEKLGTAYGEKIDLNNTNIAAFIQYRGLYPTLAKLIVKNAPYESVEDVLNIPGLTERQKQILRENLEHFTVTEVETALVEGGDRYNNGLYK-ELVNVVDEKLGTAYGEKIDLNNTNIAAFIQYRGLYPTLAKLIVKNAPYESVEDVLNIPGLTERQKQILRENLEHFTVTEVETALVEGGDRYNNGLYK-ELVNVVDEKLGTAYGEKIDLNNTNIAAFIQYRGLYPTLAKLIVKNAPYESVEDVLNIPGLTERQKQILRENLEHFTVTEVETALVEGGDRYNNGLYK,ENPTTLDGKG-ENPTTLDGKG-KNPTTLDGRG-KNPTTLDGRG-PNPTTLDGRG-ENPTTLDGRG-ENPTTLDGKG-KNPTTLDGKG-ENPTTLDGRG-GKPTTLDGRG,KNPTTYDGEQ-KNPTTYDGEQ-KNPTTYDGEQ-KNPTTYDGEQ-KNPTTYDGEQ-KNPTTYDGEQ-KNPTTYDGEQ-KNPTTYDGEQ-KNPTTYDGEQ-KNPTTYDGEQ
