contacts,cs,ce,Chain,Length,designed_receptor_seq,native_receptor_seq,designed_binder_seq,native_binder_seq
37.0,281,291,A,10,MGLTFSSPVTYYKVDGNIDTSVPG-MGLTFSKKKTYYKINSNIKTSKPK-MGLTFSKPVTYYKVNDNVDTTYPG-MGLTFKKEEVYFKVNGNIKTKVPG-MGLTFSKKKTYYKIDSNIDTTLPE-MGLTFSKPVTYYKTNGNIDTTTPG-MGLTFSKKVTYYKVNSNIKTSYPK-MGLTFSKPVYYYKVDGNVDTTTPS-MGITFSKKKTYYKINSNIKTSTPK-MGLTFSKEKTYYKVDSNIKTSTPS,KKVTFLEEVTEYYISGDEDRKGPW-KKVTFLEEVTEYYISGDEDRKGPW-KKVTFLEEVTEYYISGDEDRKGPW-KKVTFLEEVTEYYISGDEDRKGPW-KKVTFLEEVTEYYISGDEDRKGPW-KKVTFLEEVTEYYISGDEDRKGPW-KKVTFLEEVTEYYISGDEDRKGPW-KKVTFLEEVTEYYISGDEDRKGPW-KKVTFLEEVTEYYISGDEDRKGPW-KKVTFLEEVTEYYISGDEDRKGPW,GGVGTVVLEP-KKKKKKIYKP-TTTSTTVYEP-KKKKKIIFEP-NTVSEVVFEP-TTTSTTVYEP-KKKKKVVYKP-SSSSSVVFDP-KKKKKIIYKP-TTTSTTVYEP,LMCSFQILKP-LMCSFQILKP-LMCSFQILKP-LMCSFQILKP-LMCSFQILKP-LMCSFQILKP-LMCSFQILKP-LMCSFQILKP-LMCSFQILKP-LMCSFQILKP
39.0,0,10,B,10,MLDIDGIIERLLEVRGSPRPVILKEEEIIGLCEEAKKIFLSQPILLELSAPLKVCGDIHGQYYDLLEIFRRGGFPPESRYLFLGDYVDRGYQSIETICLLLAYKIKYPNEFFLLRGNHECAQINRVYGFYDECKRRYNLKLWKKFVECFDCLPLAAIIDDKIFCMHGGLSPELNDFKQIKEIKRPTKVPDSGLMCDLLWSDPDENVEGWGENPRGVSYTFGAEVVKKFLEKHNLDLICRAHQVVEEGYEFFADKKLVTLFSAPNYCGEFNNAGAMMTVDKDLKCSFTVFRPKP-MLDIDGIIERLLEVRGSPRRVILKEEEIIGLCEEAKKIFLSQPILLELSAPLKVCGDIHGQYYDLLEIFRRGGFPPESRYLFLGDYVDRGYQSIETICLLLAYKIKYPNEFFLLRGNHECAQINRIYGFYDECKRRYNLKLWKKFVECFDCLPLAAIIDDKIFCMHGGLSPELNDFKQIKNIKRPTSVPESGLMCDLLWSDPDENVEGWGENPRGVSYTFGAEVVKKFLEKHNLDLICRAHQVVEKGYEFFADKRLVTLFSAPNYCGEFNNAGAMMTVDENLNCSFTVFRPKP-MLDIDGIIERLLEVRGSPRPVILKEEEIIGLCEESKKIFLSQPILLELSAPLKVCGDIHGQYYDLLEIFRRGGFPPESRYLFLGDYVDRGYQSIETICLLLAYKIKYPNEFFLLRGNHECAQINRIYGFYDECKRRYNLKLWKKFVECFDCLPLAAIIDDKIFCMHGGLSPELKDFKQIKEIKRPTKVPDEGLMCDLLWSDPDENVEGWGENPRGVSYTFGAEVVKEFLEKHNLDLICRAHQVVEKGYEFFADKRLVTLFSAPNYCGEFNNAGAMMTVDENLKCSFDVFRPKP-MLDIDGIIERLLEVRGSKKPVILKEEEIIGLCEESKKIFLSQPILLELKAPLKVCGDIHGQYYDLLEIFRRGGFPPESKYLFLGDYVDRGYQSIETICLLLAYKIKYPNDFFLLRGNHECAQINRIYGFYDECKRRYNLKLWKKFVECFDCLPLAAIIDDKIFCMHGGLSPELKDFKQIKEIKRPTEVPEEGLMCDLLWSDPDENVEGWGENPRGVSYTFGAEVVKKFLEKHNLDLICRAHQVVEKGYEFFADKKLVTLFSAPNYCGEFNNAGAMMTVDENLKCSFTVFRPKP-MLDIDGIIERLLEVRGSPKPVILKEEEIIGLCEEAKKIFLSQPILLELSAPLKVCGDIHGQYYDLLEIFRRGGFPPESRYLFLGDYVDRGYQSIETICLLLAYKIKYPNEFFLLRGNHEDPSINRIYGFYDECKRRYNLKLWKKFCECFDCLPLAAIIDDKIFCMHGGLSPELKDFKQIKEIKRPTKVPDEGLMCDLLWSDPDENVEGWGENPRGVSYTFGAEVVKKFLEKHNLDLICRAHQVVEKGYEFFADKKLVTLFSAPNYCGEFNNAGAMMTVDENLKCSFTVFRPKP-MLDIDGIIERLLEVRGSKKRVILKEEEIIGLCEEAKKIFLSQPILLELEAPLKVCGDIHGQYYDLLEIFRRGGFPPESKYLFLGDYVDRGYQSIETICLLLAYKIKYPNEFFLLRGNHECAQINRVYGFYDECKRRYNLKLWKKFVECFDCLPLAAIIDDKIFCMHGGLSPELKDFKQIKEIKRPTEVPESGLMCDLLWSDPDENVEGWGENPRGVSYTFGAEVVKKFLEKHNLDLICRAHQVVGKGYEFFADKKLVTLFSAPNYCGEFNNAGAMMTVDKDLKCSFEVFRPKP-SLDIDGIIERLLEVRGSGKPVILKEEEIIGLCEESKKIFLSQPILLELKAPLKVCGDIHGQYYDLLEIFRRGGFPPESRYLFLGDYVDRGYQSIETICLLLAYKIKYPNEFFLLRGNHECAQINRVYGFYDECKRRYNLKLWKKFVECFDCLPLAAIIDDKIFCMHGGLSPELKDFKQIKEIKRPTKVPESGLMCDLLWSDPDENVEGWGENPRGVSYTFGAEVVKKFLEKHNLDLICRAHQVVEKGYEFFADKKLVTLFSAPNYCGEFNNAGAMMTVDENLNCSFTVFKPKP-MLDIDGIIERLLEVRGSPKRVILKEEEIIGLCEESKKIFLSQPILLELKAPLKVCGDIHGQYYDLLEIFRRGGFPPESRYLFLGDYVDRGYQSIETICLLLAYKIKYPNEFFLLRGNHECAQINRVYGFYDECKRRYNLKLWKKFVECFDCLPLAAIIDDKIFCMHGGLSPELKDFKQIKEIKRPTEVPDEGLMCDLLWSDPDENVEGWGENPRGVSYTFGAEVVKKFLEKHNLDLICRAHQVVEKGYEFFADKRLVTLFSAPNYCGEFNNAGAMMTVDENLKCSFDVFRPKP-MLDIDGIIERLLEVRGSGRPVVLKEEEIRGLCEEAKKIFLSQPILLELKAPLKVCGDIHGQYYDLLEIFRRGGFPPESRYLFLGDYVDRGYQSIETICLLLAYKIKYPNEFFLLRGNHECAQINRVYGFYDECKRRYNLKLWKKFVECFDCLPLAAIIDDKIFCMHGGLSPELKDFKQIKEIKRPTEVPEEGLMCDLLWSDPDENVEGWGENPRGVSYTFGAEVVKEFLEKHNLDLICRAHQVVGKGYEFFADRRLVTLFSAPNYCGEFNNAGAMMTVDENLKCSFEVFRPAP-MLDIDGIIERLLEVRGSKKRVVLKEEEIIGLCEEAKKIFLSQPILLELSAPLKVCGDIHGQYYDLLEIFRRGGFPPESRYLFLGDYVDRGYQSIETICLLLAYKIKYPNDFFLLRGNHECAQINRVYGFYDECKRRYNLKLWKKFVECFDCLPLAAIIDDKIFCMHGGLSPELKDFKQIKEIKRPTEVPESGLMCDLLWSDPDENVEGWGENPRGVSYTFGAEVVKKFLEKHNLDLICRAHQVVEKGYEFFADKKLVTLFSAPNYCGEFDNAGAMMTVDKDLKCSFTVFRPKP,MLNIDSIIQRLLEVRGSGKNVQLQENEIRGLCLKSREIFLSQPILLELEAPLKICGDIHGQYYDLLRLFEYGGFPPESNYLFLGDYVDRGKQSLETICLLLAYKIKYPENFFLLRGNHECASINRIYGFYDECKRRYNIKLWKTFTDCFNCLPIAAIVDEKIFCCHGGLSPDLQSMEQIRRIMRPTDVPDQGLLCDLLWSDPDKDVLGWGENDRGVSFTFGAEVVAKFLHKHDLDLICRAHQVVEDGYEFFAKRQLVTLFSAPNYCGEFDNAGAMMSVDETLMCSFQILKPAE-MLNIDSIIQRLLEVRGSGKNVQLQENEIRGLCLKSREIFLSQPILLELEAPLKICGDIHGQYYDLLRLFEYGGFPPESNYLFLGDYVDRGKQSLETICLLLAYKIKYPENFFLLRGNHECASINRIYGFYDECKRRYNIKLWKTFTDCFNCLPIAAIVDEKIFCCHGGLSPDLQSMEQIRRIMRPTDVPDQGLLCDLLWSDPDKDVLGWGENDRGVSFTFGAEVVAKFLHKHDLDLICRAHQVVEDGYEFFAKRQLVTLFSAPNYCGEFDNAGAMMSVDETLMCSFQILKPAE-MLNIDSIIQRLLEVRGSGKNVQLQENEIRGLCLKSREIFLSQPILLELEAPLKICGDIHGQYYDLLRLFEYGGFPPESNYLFLGDYVDRGKQSLETICLLLAYKIKYPENFFLLRGNHECASINRIYGFYDECKRRYNIKLWKTFTDCFNCLPIAAIVDEKIFCCHGGLSPDLQSMEQIRRIMRPTDVPDQGLLCDLLWSDPDKDVLGWGENDRGVSFTFGAEVVAKFLHKHDLDLICRAHQVVEDGYEFFAKRQLVTLFSAPNYCGEFDNAGAMMSVDETLMCSFQILKPAE-MLNIDSIIQRLLEVRGSGKNVQLQENEIRGLCLKSREIFLSQPILLELEAPLKICGDIHGQYYDLLRLFEYGGFPPESNYLFLGDYVDRGKQSLETICLLLAYKIKYPENFFLLRGNHECASINRIYGFYDECKRRYNIKLWKTFTDCFNCLPIAAIVDEKIFCCHGGLSPDLQSMEQIRRIMRPTDVPDQGLLCDLLWSDPDKDVLGWGENDRGVSFTFGAEVVAKFLHKHDLDLICRAHQVVEDGYEFFAKRQLVTLFSAPNYCGEFDNAGAMMSVDETLMCSFQILKPAE-MLNIDSIIQRLLEVRGSGKNVQLQENEIRGLCLKSREIFLSQPILLELEAPLKICGDIHGQYYDLLRLFEYGGFPPESNYLFLGDYVDRGKQSLETICLLLAYKIKYPENFFLLRGNHECASINRIYGFYDECKRRYNIKLWKTFTDCFNCLPIAAIVDEKIFCCHGGLSPDLQSMEQIRRIMRPTDVPDQGLLCDLLWSDPDKDVLGWGENDRGVSFTFGAEVVAKFLHKHDLDLICRAHQVVEDGYEFFAKRQLVTLFSAPNYCGEFDNAGAMMSVDETLMCSFQILKPAE-MLNIDSIIQRLLEVRGSGKNVQLQENEIRGLCLKSREIFLSQPILLELEAPLKICGDIHGQYYDLLRLFEYGGFPPESNYLFLGDYVDRGKQSLETICLLLAYKIKYPENFFLLRGNHECASINRIYGFYDECKRRYNIKLWKTFTDCFNCLPIAAIVDEKIFCCHGGLSPDLQSMEQIRRIMRPTDVPDQGLLCDLLWSDPDKDVLGWGENDRGVSFTFGAEVVAKFLHKHDLDLICRAHQVVEDGYEFFAKRQLVTLFSAPNYCGEFDNAGAMMSVDETLMCSFQILKPAE-MLNIDSIIQRLLEVRGSGKNVQLQENEIRGLCLKSREIFLSQPILLELEAPLKICGDIHGQYYDLLRLFEYGGFPPESNYLFLGDYVDRGKQSLETICLLLAYKIKYPENFFLLRGNHECASINRIYGFYDECKRRYNIKLWKTFTDCFNCLPIAAIVDEKIFCCHGGLSPDLQSMEQIRRIMRPTDVPDQGLLCDLLWSDPDKDVLGWGENDRGVSFTFGAEVVAKFLHKHDLDLICRAHQVVEDGYEFFAKRQLVTLFSAPNYCGEFDNAGAMMSVDETLMCSFQILKPAE-MLNIDSIIQRLLEVRGSGKNVQLQENEIRGLCLKSREIFLSQPILLELEAPLKICGDIHGQYYDLLRLFEYGGFPPESNYLFLGDYVDRGKQSLETICLLLAYKIKYPENFFLLRGNHECASINRIYGFYDECKRRYNIKLWKTFTDCFNCLPIAAIVDEKIFCCHGGLSPDLQSMEQIRRIMRPTDVPDQGLLCDLLWSDPDKDVLGWGENDRGVSFTFGAEVVAKFLHKHDLDLICRAHQVVEDGYEFFAKRQLVTLFSAPNYCGEFDNAGAMMSVDETLMCSFQILKPAE-MLNIDSIIQRLLEVRGSGKNVQLQENEIRGLCLKSREIFLSQPILLELEAPLKICGDIHGQYYDLLRLFEYGGFPPESNYLFLGDYVDRGKQSLETICLLLAYKIKYPENFFLLRGNHECASINRIYGFYDECKRRYNIKLWKTFTDCFNCLPIAAIVDEKIFCCHGGLSPDLQSMEQIRRIMRPTDVPDQGLLCDLLWSDPDKDVLGWGENDRGVSFTFGAEVVAKFLHKHDLDLICRAHQVVEDGYEFFAKRQLVTLFSAPNYCGEFDNAGAMMSVDETLMCSFQILKPAE-MLNIDSIIQRLLEVRGSGKNVQLQENEIRGLCLKSREIFLSQPILLELEAPLKICGDIHGQYYDLLRLFEYGGFPPESNYLFLGDYVDRGKQSLETICLLLAYKIKYPENFFLLRGNHECASINRIYGFYDECKRRYNIKLWKTFTDCFNCLPIAAIVDEKIFCCHGGLSPDLQSMEQIRRIMRPTDVPDQGLLCDLLWSDPDKDVLGWGENDRGVSFTFGAEVVAKFLHKHDLDLICRAHQVVEDGYEFFAKRQLVTLFSAPNYCGEFDNAGAMMSVDETLMCSFQILKPAE,KKVTFEKEVK-KKVTFTEEVK-GKVTFEKEVK-GKVTFEEKVE-KKVTFEEEVK-KKVTFEEEVK-KKVTFTKEVK-KKVTFEKKEE-PGVTFEEEVK-KKVTFEEEVK,KKVTFLEEVT-KKVTFLEEVT-KKVTFLEEVT-KKVTFLEEVT-KKVTFLEEVT-KKVTFLEEVT-KKVTFLEEVT-KKVTFLEEVT-KKVTFLEEVT-KKVTFLEEVT
