contacts,cs,ce,Chain,Length,designed_receptor_seq,native_receptor_seq,designed_binder_seq,native_binder_seq
14.0,99,109,A,10,MSAAGGPRVMLRPPLPADLLDSTERPEVICVVEDVSLQNPDVKFDWFVDGVQVFNAVTLPKVIEEDNKMRIISRLAVDHSDWNNGKQYTCEVTNDALPQPIKKTIARQQGVPQVPRVVTIPPSAGAMVQSEVILLCLIEGFYPADIDVNWSSAGQDANNFASLPPQLEADGSYRLESRLIVDKASWLNGKTFQCFVRHQALEDNFTSEVLFMPDG-GIPFGGPTVDHKGPDPLDTLNPDNVPVVRCVVNSVSDLYPNVVFQWFVDGKQVNNAVTNPQVKTDDDTYEVISILPVDYNAWNNGKQYTCIVTNLALPKPISRTIQKVQGENKTPFVTTIPPKDDELSKDEVTLRCKIEGFFPQSINVGWSTSGQAATAYSTNKPVLAEDGTYYLISYLTVPKYAWEGGKKYQCAVNHEALTNNFTSAELQKARG-MTPCGGPSVDHYPPLPEDTLDKSKTPVVTCKVYYVSDKYPTVTFKWYVDGVETKDATQLPPKKQNDNTWEVVSKLAVDHIAWNNGKKYTAEVTNKALPKPIKKTIQIQQGEPKKPTVTTLPPSPADMIFEEVTLSCSVEGYFPPWISINWSTDGEAAMNYAAANPSLQADGTYGLTSKLVVKREHWESGKVFSCNVRHIALDENYTAKTLNKPVG-PQPEGGPTVTFQGPRPVHTLNAREQPTVTCIVNNVSAAHPSVKFDWFVNGRQVFDATVSPPTVEWDRHSRVVSVLPVVFEDWNNMHKYTCRVTNAALPAPVERTIRRELGAPRRPEVITLPPLVGQEVYDMVSLLCNVQGYFPAAIAIEWSTAGASANEYRAMKPVLSSDGTFFNTSVLIVAKFEWTAGQRFACSVRHMALDNNFTQKFLRKSSG-ATLCGGPTVRLYPPQPRDTFNPANNPQVVCEVDNVTDENPTVTFKWYKDGVQVYDAKTEPRYKNQEKTYLVISKLDVAHEDWLNGHKYTCEVTNAALPKPIRKTISREQGAPKQPTIVTQPPQEAAMTKANVILNCNIEGFFPRDIATGWTTNGQPATNYTTENPREQSDGTYALTSYLRVPKSEWENGRVFACEVRHVAEKDNFSRSTLAKPSG-DKPHGGPSVAFEPPKPEDTLDKSNTPTVTCNVNQVSNKDPEVQFEWKVDGKVVKNSVVEPAVQTADKTFNVVSKLTVVYQEWLNGKQYTCTVTNKALPAPISKVIQMGVGKPKKPRVVTLPPKAEDMERNFVTLTCKITGFYPKQISVGWSTDGQQATNFYTTVPALATDGTYNLYSYLVVDKNSWDNGRKYYCYVNHMALDNNFTEKSLQKPAG-MRAVGGPRVTLLPPRPIDSLNVANRPEVRCVVNRVSEMYPDVEFTWKVDGQPVYDNHTEPRKRDTFGNFIVVSTLSVEYNGWNNGQKYSCQVTNRALPKPITKTIREDDGTPQKPHVSTRPPAQSEMNFGEVRLYCDINGYFPKEIDIAWSTNGKLMRGFETEMPELASDGTFYNTSILTVERDRWENGETFKCYVNHKALDNNFTQVALSKRSG-NTSIGGPTVSLSPPESFDTFSPQRSPKVVCTVNNVTHIEPQVKFKWFVDGIEVTNAVVEPDKQNDNSTWTVVSTLSVDFMSWNNGKKFSCQVSNKGLPEPITKTIQIEQGDPREPNVVTSPPENREMINAEVQLICNIEGYFPKDIAVHWSTSGYNASNYRTEAPILDTDGSYSLSSYLTILRTDWENGKTFYCQVHHRALEDNYTQKQLKRAAG-VEPVGGPIVAFDGPEPADTLDKSKTPEVTCTVKKVSDAEPDVEFEWYVDGNQVYDAATLPPVKEDNDYWTVTSVLKVDYNEWNNCKKYTCKVSNKSLPHPIEKTIQKITGVPKKPKVETVGPAPTEMSQNRVTLMCDIEGFFPNQISVGWSTSGKSATNYTTLAPTLMDDGTYGLVSKLVVEKYEWDNGRVFACGVKHVALDNFQDEKTIAKAKG-QNHMGGPSVELWPPDAADTLDVSNQPEVKCIVDRVSSEFPQVTFEWYVDGIQVFHHKQAPREMNIAMTYTVISKLKVAFSDWNNSKEYTCRVINDSLTQPITKTISQQRGSPQKPQVITVPPEYSQMSEDSVELYCSVQGYYPDQISIGWSSSGIQELNFNSNQPVKSSDGTYYLQSVLVVEKSTWDHGRVFSCEVWHVALTNNYTSKVLSLPSG,PELLGGPSVFLFPPKPKDTLMISRTPEVTCVVVDVSHEDPEVKFNWYVDGVEVHNAKTKPREEQYNSTYRVVSVLTVLHQDWLNGKEYKCKVSNKALPAPIEKTISKAKGQPREPQVYTLPPSRDELTKNQVSLTCLVKGFYPSDIAVEWESNGQPENNYKTTPPVLDSDGSFFLYSKLTVDKSRWQQGNVFSCSVMHEALHNHYTQKSLSLAPG-PELLGGPSVFLFPPKPKDTLMISRTPEVTCVVVDVSHEDPEVKFNWYVDGVEVHNAKTKPREEQYNSTYRVVSVLTVLHQDWLNGKEYKCKVSNKALPAPIEKTISKAKGQPREPQVYTLPPSRDELTKNQVSLTCLVKGFYPSDIAVEWESNGQPENNYKTTPPVLDSDGSFFLYSKLTVDKSRWQQGNVFSCSVMHEALHNHYTQKSLSLAPG-PELLGGPSVFLFPPKPKDTLMISRTPEVTCVVVDVSHEDPEVKFNWYVDGVEVHNAKTKPREEQYNSTYRVVSVLTVLHQDWLNGKEYKCKVSNKALPAPIEKTISKAKGQPREPQVYTLPPSRDELTKNQVSLTCLVKGFYPSDIAVEWESNGQPENNYKTTPPVLDSDGSFFLYSKLTVDKSRWQQGNVFSCSVMHEALHNHYTQKSLSLAPG-PELLGGPSVFLFPPKPKDTLMISRTPEVTCVVVDVSHEDPEVKFNWYVDGVEVHNAKTKPREEQYNSTYRVVSVLTVLHQDWLNGKEYKCKVSNKALPAPIEKTISKAKGQPREPQVYTLPPSRDELTKNQVSLTCLVKGFYPSDIAVEWESNGQPENNYKTTPPVLDSDGSFFLYSKLTVDKSRWQQGNVFSCSVMHEALHNHYTQKSLSLAPG-PELLGGPSVFLFPPKPKDTLMISRTPEVTCVVVDVSHEDPEVKFNWYVDGVEVHNAKTKPREEQYNSTYRVVSVLTVLHQDWLNGKEYKCKVSNKALPAPIEKTISKAKGQPREPQVYTLPPSRDELTKNQVSLTCLVKGFYPSDIAVEWESNGQPENNYKTTPPVLDSDGSFFLYSKLTVDKSRWQQGNVFSCSVMHEALHNHYTQKSLSLAPG-PELLGGPSVFLFPPKPKDTLMISRTPEVTCVVVDVSHEDPEVKFNWYVDGVEVHNAKTKPREEQYNSTYRVVSVLTVLHQDWLNGKEYKCKVSNKALPAPIEKTISKAKGQPREPQVYTLPPSRDELTKNQVSLTCLVKGFYPSDIAVEWESNGQPENNYKTTPPVLDSDGSFFLYSKLTVDKSRWQQGNVFSCSVMHEALHNHYTQKSLSLAPG-PELLGGPSVFLFPPKPKDTLMISRTPEVTCVVVDVSHEDPEVKFNWYVDGVEVHNAKTKPREEQYNSTYRVVSVLTVLHQDWLNGKEYKCKVSNKALPAPIEKTISKAKGQPREPQVYTLPPSRDELTKNQVSLTCLVKGFYPSDIAVEWESNGQPENNYKTTPPVLDSDGSFFLYSKLTVDKSRWQQGNVFSCSVMHEALHNHYTQKSLSLAPG-PELLGGPSVFLFPPKPKDTLMISRTPEVTCVVVDVSHEDPEVKFNWYVDGVEVHNAKTKPREEQYNSTYRVVSVLTVLHQDWLNGKEYKCKVSNKALPAPIEKTISKAKGQPREPQVYTLPPSRDELTKNQVSLTCLVKGFYPSDIAVEWESNGQPENNYKTTPPVLDSDGSFFLYSKLTVDKSRWQQGNVFSCSVMHEALHNHYTQKSLSLAPG-PELLGGPSVFLFPPKPKDTLMISRTPEVTCVVVDVSHEDPEVKFNWYVDGVEVHNAKTKPREEQYNSTYRVVSVLTVLHQDWLNGKEYKCKVSNKALPAPIEKTISKAKGQPREPQVYTLPPSRDELTKNQVSLTCLVKGFYPSDIAVEWESNGQPENNYKTTPPVLDSDGSFFLYSKLTVDKSRWQQGNVFSCSVMHEALHNHYTQKSLSLAPG-PELLGGPSVFLFPPKPKDTLMISRTPEVTCVVVDVSHEDPEVKFNWYVDGVEVHNAKTKPREEQYNSTYRVVSVLTVLHQDWLNGKEYKCKVSNKALPAPIEKTISKAKGQPREPQVYTLPPSRDELTKNQVSLTCLVKGFYPSDIAVEWESNGQPENNYKTTPPVLDSDGSFFLYSKLTVDKSRWQQGNVFSCSVMHEALHNHYTQKSLSLAPG,LKTNVNERLS-WIIEWDDQKN-IAICWKNKWE-VWECFDDLCC-LIYMKQNQLN-DYEMERSKIE-GSKAWWGLRM-KYSCWWGSRC-FMKQWLNSVG-VNSCTNAQSC,RCHAWKDKLV-RCHAWKDKLV-RCHAWKDKLV-RCHAWKDKLV-RCHAWKDKLV-RCHAWKDKLV-RCHAWKDKLV-RCHAWKDKLV-RCHAWKDKLV-RCHAWKDKLV
19.0,0,10,B,10,PAIILLSPPWKTIFENDSIQLICTGTPENRTVWYLNGQAQPTSGPTYLIQNATPEDSGRYQCCTGLEGISPPVLLSVVKGWLLMGVTATLLGEGQPLDLVCMAYRNQRVKHVLYYQDGKEFQFFYVNSPIRIDVTRFEHTGNYSCSGLGWRNYTSGQVSVRVVEVFEAPRLLASQRSPMAAGTPVVFTCQTSLKVNWPNESLYFRFFRGPDLLKGWDPSSTYLVQEAKRTHTGLYSCEAATYDLRVNKTSPRLLVRVLP-PSRIVLSPPWHSIFQDESIEMICVCDKEGRTTWFLNGEPVAESNPIFLIVKAGSENSGKYQCRSGRKGLSSAIQLSVVKGALLMGVTGGKLLEGGSLKMECIARDEKRIWQVFYYINGNRFVFHQENKPITITTTFFYHTGEYFCSGAGQDVYTSSGKKIAVMQVFPAPIINFSVRSPMKKGTPLIATCNTSLLVELAFAKLYYCFFRGDSLLQGWTQSDQFQIQSAVPQDSGFYSCKARLEDGSVMKKSEVILIKVIE-RAQLQLDPPWTVIFVGEPVTLRCNGVGGPACNWFKNNLELKQNDCVLRITSASANDSGWYQCQRANEDFSPPVRLTVVTGMLSIQCTALSLNEGSPLQLRCNAQDARAIVNVWFYRNGKAFRFFLENLPITIAVTNRLDSGAYSCSGSGQRRYVSESVYISVEEIFAAPRITASVKSPLLEGTPIILRCETELRRKLKETKLYYRFFRGNRLLRGSDPADVYRIESALFEDTGQYSCRAQTSDGSVMKESPQLRLEVRP-AARIVLKPPWVRRFRGEAFVMWCSDDEESQTRWLRNSSVVAERRNILHIAQATDKDAGMYQCQRGNLGLSPSIFVEVVEGELLMAVSGQRLLEGQPLALDCRARKDKMVQNVHYYRDGVAFRHFEKNRPIVLHRTNYSDSGYYRCSGLGKDRYYSEEVKVEVLSVFAAPMLTFSAQTPLPAGTPVVAVCRTKLQVNAAGEKLYYEFYRGDRLLRGSVPSNTLLIEKAEASHTGTYHCLVATADGSVKKASPALNVTVLP-SAVITLSPPWHIIFKGESVTLICMGQNGDDTTWMLDGSPLAQKSSTLTINKATADDAGSYTCQKSAKGTSAPINLSVVEGNLNLGVSKRVLLEGQPLMMSCLSYSDELVSEVNYYRNGKAFKKFSENSPITIAQTVKDDTGEYSCSGLGHYRYESAEVKVTVHEIFPAPKITASEETPIQKGTPVTFTCNTSLLVKKDGQDLYYRFYKGDRLLKGWSKSNTYLVKQATKEDSGLYSCKAMTKDRSVTKSSPSLRLEVTD-PATLQLWPPWTRIFYGEGVVIVCRGKESANATWLLDDKALPVNSPTYNITSASDNHSGNYKCIQGGSGTSPSVLLSVVRGMLLTGVSSYNLLEGQSLHLSCHALSNATIRNVQFYRNGVAFQYFSSNSPVEITVTNGSDTGSYMCSGRGRATYRSRTVKVVVQDMFPAPKITASVLSPIVAGTPVTLRCETSLLVESNGLRLYFQFYKGNGLLLGKTSSNTFLIPAAVKSDTGLYSCTATTIDGLVSRSSTSLDLRVTP-QATINLQPPWLQVFVDENLVLQCTDAAGSAVSWYQEDQVLPTNNCTYTINSASDADSGQYRCKVDGLGISEAITLSVVSGWLLLGVSGLNLLEGQPLEMLCLARDNCRVVDVLFFRNGTPFQYASENEPVTIAKTSEVESGNYHCSGRGALTYTSESVSVNVISIFSAPNITASVTSPLSEGTPLTLQCNTSLLVDAPGSTLFYQFYRGSGLLQGSTPSNTYLIASAQASDSGLYSCVASTAEGDVSKASPELDLRVTK-YNKIFLEPPWVDIFDGESVRMICRGSDGRRCVWYQNGKALETSSCVLDIESASEKDSGWYQCMLEAFGISSEINLVVRNGMLLLGVSARDLLEGQPLSMHCRAYSNRAVEDVMFFRDGVSFQYFKSNQPIEIAQTNFSDSGYYQCSGLGQWRYISAARHVVVKEVFPAPVITASHLTPLPAGTPVVLSCETRFLQDLPDRDLFFSFYQGRSLLRGWTRSDVYQVDRAVAEMTGGYSCKAKTFDGNVERFSPILRLEVTP-ADVILLDPPWHIIFYAESLRLTCSGSGSPATVWWLNGQVIGSGGSEYVISEATEADSGDYQCQRNTRGRSPAVNLTVVRGELLMGVSSMRLLEGESLQMNCVARNDDSVRDVLFYQNGKAFVHYEENQPIEIQRTNRDQSGRYHCSGWGEQRYHSQPIEVQVLEVFDAPEITSSLETPLSEGTPVTLTCNTSLLTDHPGEKLYYKFFKDDTLLRDWDTSNTFEIASAQESDSGYYWCEARLRDHSVLKSSPALELEVTP-DSQIELKPPWTIIFNLEDVWLICQGKHNPDVTWYHNGRAIRTLSCFYHIRKAGPDDSGFYECRRGKEGISKPVLLTVVNGALLLAVTGKKLLEGEPLDMNCHARNNATVTNVQYYQDGVKFEYFEKNEPLTIDKTDASDTGRYNCSGWGELNYTSPEVEVTVKELFEEPKITASHSSPLRAGTPITLTCETGLLIILPEQRLHYQFFRGEELLSGWSTSHTYTIESAQESHTGYYSCKARTGDGNVTRSSPKVHIQVTP,KAVIKLQPPWVSVFQEESVTLHCEVPGSSSTQWFLNGTAIQTSTPTYHITSASEDDSGEYRCQRGLSGRSDPIQLEVHRGWLLLQVSSRVLTEGEPLALRCHAWKDKLVYNVLYYRNGKAFKFFHWNSNLTILKTNMSHSGTYHCSGMGKHRYTSAGISVTVKELFPAPVLTASVTSPLLEGTPVTLSCETKLLLQRPGLQLYFSFYMGSKTLRGRDTSSEYQILTARREDSGLYWCEAATEDGNVLKRSPELELQVLG-KAVIKLQPPWVSVFQEESVTLHCEVPGSSSTQWFLNGTAIQTSTPTYHITSASEDDSGEYRCQRGLSGRSDPIQLEVHRGWLLLQVSSRVLTEGEPLALRCHAWKDKLVYNVLYYRNGKAFKFFHWNSNLTILKTNMSHSGTYHCSGMGKHRYTSAGISVTVKELFPAPVLTASVTSPLLEGTPVTLSCETKLLLQRPGLQLYFSFYMGSKTLRGRDTSSEYQILTARREDSGLYWCEAATEDGNVLKRSPELELQVLG-KAVIKLQPPWVSVFQEESVTLHCEVPGSSSTQWFLNGTAIQTSTPTYHITSASEDDSGEYRCQRGLSGRSDPIQLEVHRGWLLLQVSSRVLTEGEPLALRCHAWKDKLVYNVLYYRNGKAFKFFHWNSNLTILKTNMSHSGTYHCSGMGKHRYTSAGISVTVKELFPAPVLTASVTSPLLEGTPVTLSCETKLLLQRPGLQLYFSFYMGSKTLRGRDTSSEYQILTARREDSGLYWCEAATEDGNVLKRSPELELQVLG-KAVIKLQPPWVSVFQEESVTLHCEVPGSSSTQWFLNGTAIQTSTPTYHITSASEDDSGEYRCQRGLSGRSDPIQLEVHRGWLLLQVSSRVLTEGEPLALRCHAWKDKLVYNVLYYRNGKAFKFFHWNSNLTILKTNMSHSGTYHCSGMGKHRYTSAGISVTVKELFPAPVLTASVTSPLLEGTPVTLSCETKLLLQRPGLQLYFSFYMGSKTLRGRDTSSEYQILTARREDSGLYWCEAATEDGNVLKRSPELELQVLG-KAVIKLQPPWVSVFQEESVTLHCEVPGSSSTQWFLNGTAIQTSTPTYHITSASEDDSGEYRCQRGLSGRSDPIQLEVHRGWLLLQVSSRVLTEGEPLALRCHAWKDKLVYNVLYYRNGKAFKFFHWNSNLTILKTNMSHSGTYHCSGMGKHRYTSAGISVTVKELFPAPVLTASVTSPLLEGTPVTLSCETKLLLQRPGLQLYFSFYMGSKTLRGRDTSSEYQILTARREDSGLYWCEAATEDGNVLKRSPELELQVLG-KAVIKLQPPWVSVFQEESVTLHCEVPGSSSTQWFLNGTAIQTSTPTYHITSASEDDSGEYRCQRGLSGRSDPIQLEVHRGWLLLQVSSRVLTEGEPLALRCHAWKDKLVYNVLYYRNGKAFKFFHWNSNLTILKTNMSHSGTYHCSGMGKHRYTSAGISVTVKELFPAPVLTASVTSPLLEGTPVTLSCETKLLLQRPGLQLYFSFYMGSKTLRGRDTSSEYQILTARREDSGLYWCEAATEDGNVLKRSPELELQVLG-KAVIKLQPPWVSVFQEESVTLHCEVPGSSSTQWFLNGTAIQTSTPTYHITSASEDDSGEYRCQRGLSGRSDPIQLEVHRGWLLLQVSSRVLTEGEPLALRCHAWKDKLVYNVLYYRNGKAFKFFHWNSNLTILKTNMSHSGTYHCSGMGKHRYTSAGISVTVKELFPAPVLTASVTSPLLEGTPVTLSCETKLLLQRPGLQLYFSFYMGSKTLRGRDTSSEYQILTARREDSGLYWCEAATEDGNVLKRSPELELQVLG-KAVIKLQPPWVSVFQEESVTLHCEVPGSSSTQWFLNGTAIQTSTPTYHITSASEDDSGEYRCQRGLSGRSDPIQLEVHRGWLLLQVSSRVLTEGEPLALRCHAWKDKLVYNVLYYRNGKAFKFFHWNSNLTILKTNMSHSGTYHCSGMGKHRYTSAGISVTVKELFPAPVLTASVTSPLLEGTPVTLSCETKLLLQRPGLQLYFSFYMGSKTLRGRDTSSEYQILTARREDSGLYWCEAATEDGNVLKRSPELELQVLG-KAVIKLQPPWVSVFQEESVTLHCEVPGSSSTQWFLNGTAIQTSTPTYHITSASEDDSGEYRCQRGLSGRSDPIQLEVHRGWLLLQVSSRVLTEGEPLALRCHAWKDKLVYNVLYYRNGKAFKFFHWNSNLTILKTNMSHSGTYHCSGMGKHRYTSAGISVTVKELFPAPVLTASVTSPLLEGTPVTLSCETKLLLQRPGLQLYFSFYMGSKTLRGRDTSSEYQILTARREDSGLYWCEAATEDGNVLKRSPELELQVLG-KAVIKLQPPWVSVFQEESVTLHCEVPGSSSTQWFLNGTAIQTSTPTYHITSASEDDSGEYRCQRGLSGRSDPIQLEVHRGWLLLQVSSRVLTEGEPLALRCHAWKDKLVYNVLYYRNGKAFKFFHWNSNLTILKTNMSHSGTYHCSGMGKHRYTSAGISVTVKELFPAPVLTASVTSPLLEGTPVTLSCETKLLLQRPGLQLYFSFYMGSKTLRGRDTSSEYQILTARREDSGLYWCEAATEDGNVLKRSPELELQVLG,RRPLGGEQWH-RKPLGIQLTC-LDPLGNAVWV-VQPLGGPGFD-AEPLGGVEVL-QEPLGAGTVQ-RTPLGSAGSI-FVDLGSTSCM-DKPLGLQSHW-GKPLGHSHHH,PELLGGPSVF-PELLGGPSVF-PELLGGPSVF-PELLGGPSVF-PELLGGPSVF-PELLGGPSVF-PELLGGPSVF-PELLGGPSVF-PELLGGPSVF-PELLGGPSVF
