contacts,cs,ce,Chain,Length,designed_receptor_seq,native_receptor_seq,designed_binder_seq,native_binder_seq
14.0,99,109,A,10,GVPAGGPTVTFLPPEPIDTLDPSKTPKVTCVVNNVSDKYPDVKFEWFVDGKQVFDAKTEPRVKTENNTYKVVSKLEVDYDDWNNGKKYTCRVSNDALPAPIEKTISKEKGEPKKPEVITIPPDPSEMKNDEVTLRCLIKGFYPKDISVGWSTEGKPATNYFTEPPVLASDGTYYLVSKLVVKKEDWENGKVFYCNVRHRALDNNFTQKSLAKPPG-GVPAGGPTVTLLPPLPIDTLDPSKTPKVTCVVNNVSDEYPEVKFKWFVDGKEVFDAKTEPRVKNEDNTYTVTSVLEVDYDDWNNGKKYTCEVSNKALPAPIKKTISKEKGEPKKPEVITIPPLPSEMKNDEVTLRCLIKGYYPKDISVGWSTEGKPATNFRTDPPVLESDGTYSLTSYLIVKKEDWENGKTFYCDVRHIALENNYTSKSLAKPPG-GVPAGGPTVSFLPPKPIDTLDPSKTPKVTCVVNNVSDKYPEVKFEWFVDGKQVFDAKTEPRVKDKNDTYTVTSVLEVDYDSWNNGKKYTCRVSNDALPAPIEKTISKEKGEPKKPEVTTIPPKPSEMKNDEVTLTCKIEGYYPKDISVGWSTEGKPATNFFTEPPKLDKDGTYHLTSYLKVDKSDWENGKVFKCNVRHEALDNNYTEKSLAKEKG-GVPAGGPTVSLLPPLPIDTLDPSKTPKVTCVVNNVSDEYPEVKFEWFVDGKQVFDAVTEPRVKDENNTYTVTSKLEVDYDDWNNGKKYTCRVSNDALPAPIEKTISKEKGEPKKPVVTTIPPLPSEMVNDEVTLRCLIEGYYPKDISVGWSTAGKPATNFFTEPPVLDEDGTYHLVSHLVVPKEEWENGKVFYCNVRHEALENNYTEKSLAKPAG-GIPAGGPTVTFNPPLPIDTLDPSKTPKVTCVVNNVSDEYPEVKFKWFVDGKEVFDAKTEPRVKNEDNTYTVTSVLEVDYDSWNNGKKYTCEVSNKALPAPIKKTISKEKGTPKKPEVITIPPLPSEMKNDKVTLRCLIKGYFPKDISVGWSTEGKPATNFFTEPPVLESDGTYSLTSYLIVDKSDWENGKVFSCFVRHEALENNFTSKTLSKPPG-GIPAGGPTVSLLPPLPIDTLDPSKQPEVTCVVNNVSDAFPEVKFEWFVDGKQVFDAVTEPRVKNEDNTYTVTSKLKVDYDDWNNGKKYTCRVSNDALPAPIEKTISKEKGEPKKPVVTTIPPLPSEMKNDEVTLRCLIEGYYPKDISVGWSTAGKPATNFFTEPPVLASDGTYYLTSNLIVPKEEWENGKVFSCFVRHEALENNFTSKTLAKPPG-GIPAGGPTVTFLPPKPIDTLDPSKQPEVTCVVNNVSDKYPEVKFKWFVDGKEVKNAKTEPRVKTENNTYKVVSKLKVDYDDWNNGKKYTCEVSNDALPKPIKKTISKEKGEPKKPEVITIPPKPSEMKNDEVTLRCLIKGYYPKDISVGWSTEGKPATNFKTEPPVLAEDGTYYLVSYLKVKKEDWENGKVFECFVRHEALENNFTSKSLAKPKG-GIPAGGPTVTLLPPKPIDTLDPSKTPKVTCVVNNVSDKYPDVKFEWFVDGKQVFDAKTEPRVKNEDNTYTVTSVLEVDYDDWNNGKKYTCRVSNDALPAPIEKTISKEKGTPKKPVVTTIPPKPSEMKNDKVTLKCLIEGYYPKDISVGWSTEGKPATNFFTEPPVLASDGTYYLTSNLIVDKSDWENGKTFYCNVNHIALDNNYTEKSLAKPAG-GVPAGGPTVSLLPPLPIDTLDPSKTPKVTCVVNNVSDEYPEVKFEWFVDGEQVFDAVTEPRVKNEDNTYTVTSKLTVDYDDWNNGKKYTCRVSNDALPAPIEKTISIEKGEPKKPVVTTIPPLPSEMVNDEVTLRCLIEGYYPKDISVGWSTDGKPATNFFTEPPVLASDGTYYLTSNLIVKKEDWENGKVFECNVRHRALENNFTSKTLSKPPG-GVPAGGPTVTLLPPLPIDTLDPSKTPKVTCVVNNVSDKYPEVKFEWFVDGKQVFDAKTEPRVKDKNNTYTVTSVLEVDYDDWNNGKKYTCRVSNDALPKPIEKTISKEKGEPKKPVVTTIPPLPSEMVNDEVTLRCLIEGYFPKDISVGWSTDGKPATNFFTEPPVLDKDGTYHLVSYLKVKKEDWENGKVFECNVRHIALDNNYTSKTLAKPPG,PELLGGPSVFLFPPKPKDTLMISRTPEVTCVVVDVSHEDPEVKFNWYVDGVEVHNAKTKPREEQYNSTYRVVSVLTVLHQDWLNGKEYKCKVSNKALPAPIEKTISKAKGQPREPQVYTLPPSRDELTKNQVSLTCLVKGFYPSDIAVEWESNGQPENNYKTTPPVLDSDGSFFLYSKLTVDKSRWQQGNVFSCSVMHEALHNHYTQKSLSLAPG-PELLGGPSVFLFPPKPKDTLMISRTPEVTCVVVDVSHEDPEVKFNWYVDGVEVHNAKTKPREEQYNSTYRVVSVLTVLHQDWLNGKEYKCKVSNKALPAPIEKTISKAKGQPREPQVYTLPPSRDELTKNQVSLTCLVKGFYPSDIAVEWESNGQPENNYKTTPPVLDSDGSFFLYSKLTVDKSRWQQGNVFSCSVMHEALHNHYTQKSLSLAPG-PELLGGPSVFLFPPKPKDTLMISRTPEVTCVVVDVSHEDPEVKFNWYVDGVEVHNAKTKPREEQYNSTYRVVSVLTVLHQDWLNGKEYKCKVSNKALPAPIEKTISKAKGQPREPQVYTLPPSRDELTKNQVSLTCLVKGFYPSDIAVEWESNGQPENNYKTTPPVLDSDGSFFLYSKLTVDKSRWQQGNVFSCSVMHEALHNHYTQKSLSLAPG-PELLGGPSVFLFPPKPKDTLMISRTPEVTCVVVDVSHEDPEVKFNWYVDGVEVHNAKTKPREEQYNSTYRVVSVLTVLHQDWLNGKEYKCKVSNKALPAPIEKTISKAKGQPREPQVYTLPPSRDELTKNQVSLTCLVKGFYPSDIAVEWESNGQPENNYKTTPPVLDSDGSFFLYSKLTVDKSRWQQGNVFSCSVMHEALHNHYTQKSLSLAPG-PELLGGPSVFLFPPKPKDTLMISRTPEVTCVVVDVSHEDPEVKFNWYVDGVEVHNAKTKPREEQYNSTYRVVSVLTVLHQDWLNGKEYKCKVSNKALPAPIEKTISKAKGQPREPQVYTLPPSRDELTKNQVSLTCLVKGFYPSDIAVEWESNGQPENNYKTTPPVLDSDGSFFLYSKLTVDKSRWQQGNVFSCSVMHEALHNHYTQKSLSLAPG-PELLGGPSVFLFPPKPKDTLMISRTPEVTCVVVDVSHEDPEVKFNWYVDGVEVHNAKTKPREEQYNSTYRVVSVLTVLHQDWLNGKEYKCKVSNKALPAPIEKTISKAKGQPREPQVYTLPPSRDELTKNQVSLTCLVKGFYPSDIAVEWESNGQPENNYKTTPPVLDSDGSFFLYSKLTVDKSRWQQGNVFSCSVMHEALHNHYTQKSLSLAPG-PELLGGPSVFLFPPKPKDTLMISRTPEVTCVVVDVSHEDPEVKFNWYVDGVEVHNAKTKPREEQYNSTYRVVSVLTVLHQDWLNGKEYKCKVSNKALPAPIEKTISKAKGQPREPQVYTLPPSRDELTKNQVSLTCLVKGFYPSDIAVEWESNGQPENNYKTTPPVLDSDGSFFLYSKLTVDKSRWQQGNVFSCSVMHEALHNHYTQKSLSLAPG-PELLGGPSVFLFPPKPKDTLMISRTPEVTCVVVDVSHEDPEVKFNWYVDGVEVHNAKTKPREEQYNSTYRVVSVLTVLHQDWLNGKEYKCKVSNKALPAPIEKTISKAKGQPREPQVYTLPPSRDELTKNQVSLTCLVKGFYPSDIAVEWESNGQPENNYKTTPPVLDSDGSFFLYSKLTVDKSRWQQGNVFSCSVMHEALHNHYTQKSLSLAPG-PELLGGPSVFLFPPKPKDTLMISRTPEVTCVVVDVSHEDPEVKFNWYVDGVEVHNAKTKPREEQYNSTYRVVSVLTVLHQDWLNGKEYKCKVSNKALPAPIEKTISKAKGQPREPQVYTLPPSRDELTKNQVSLTCLVKGFYPSDIAVEWESNGQPENNYKTTPPVLDSDGSFFLYSKLTVDKSRWQQGNVFSCSVMHEALHNHYTQKSLSLAPG-PELLGGPSVFLFPPKPKDTLMISRTPEVTCVVVDVSHEDPEVKFNWYVDGVEVHNAKTKPREEQYNSTYRVVSVLTVLHQDWLNGKEYKCKVSNKALPAPIEKTISKAKGQPREPQVYTLPPSRDELTKNQVSLTCLVKGFYPSDIAVEWESNGQPENNYKTTPPVLDSDGSFFLYSKLTVDKSRWQQGNVFSCSVMHEALHNHYTQKSLSLAPG,KLVCWKNQKC-PLVCWKNQKC-KLVCWKNQKC-TVTNWKNTLT-PKICWKNQKC-PNICWKNQKC-PKVCWKNQKC-PKVCWKNQKC-PNICWKNQKC-PLVCWKNQKC,RCHAWKDKLV-RCHAWKDKLV-RCHAWKDKLV-RCHAWKDKLV-RCHAWKDKLV-RCHAWKDKLV-RCHAWKDKLV-RCHAWKDKLV-RCHAWKDKLV-RCHAWKDKLV
19.0,0,10,B,10,AATIRLDPPWHTIFYGESVTLHCVGDGDPNTTWYLNGTALPTSSPVYVIESASAGDAGLYQCQRGSEGLSPAVQLTVVEGWLLMGVSGRDLLEGQPLSLDCRARDNQLVTNVLYYRNGVAFQYFEENQPITIERTDASHSGNYSCSGWGLRRYTSAEVAVTVREVFPAPVITASVESPLPAGTPVTLTCETALLVDLPGEQLYYSFYRGDELLQGWSPSNTYLIESAQESDTGLYSCRAATADGRVSLSSPELDLRVTP-AATIVLDPPWHIIFEGESVTLHCTGSGDPNTTWYLNGTALPTSSPVYVIESATADDAGLYQCQVGDEGLSPAIQLTVVKGWLLMGVSGRDLLEGQPLSLNCIARDNRLVTNVHYYRNGVAFQYFEENSPITIERTDESDTGNYSCSGQGLATYTSEEVAVTVREVFPAPVITASVESPIAEGTPVTLTCETELLVDLPGEELYYSFYRGDELLQGWTPSNTYLIESATEEDSGYYSCRARTADGTVDKSSPELDLRVTP-AATIVLNPPWHTIFVGESVTLHCTGSGSPDTTWYLNGTALPSSSPVYVISSATSGDSGSYQCQVGSSGLSPAIQLTVVEGWLLMGVSGRDLLEGQPLSLNCIARDNQLVTNVNYYRNGVSFQYFATNSPITISSTNASDTGNYSCSGWGLARYTSATVSVTVREVFPAPVITASVTSPIAAGTPVTLTCNTSLLVSLPGTSLYYSFYRGSSLLQGWTTSNTYLISSATASDSGYYSCKARTADGRVSKSSPSLSLTVTP-AATIVLDPPWHIIFEGESVTLHCTGDGDPNTTWYLNGQPLPTSSPVYVIESATADDSGLYQCQVGSEGLSPAIQLTVVQGWLLMGVSGRDLLEGQPLSLLCKARDDQVVTNVLYYRNGVAFQYFEENSPITIERTDESDTGNYSCSGQGLRTYTSDEVSVTVREVFPAPVITASVESPLPEGTPVTLTCETELLVDLPGEELYYSFYRGDELLQGWTPSNTYLIESATEEDSGYYSCRARTADGTVEKSSPELDLQVTP-AATIVLSPPWHIIFEGESITLHCTGSGDPNTTWLLNGQPLPVSSPVYVIESATADDAGLYQCQVGSEGLSPAVQLTVVQGWLLMGVSGRDLLEGQPLSLLCKARDDQLVTNVLYYRNGVAFQYFEENSPITIERTDASHTGNYSCSGQGLRTYTSAEVAVTVREVFPAPVITASVESPLPAGTPVTLTCETALLVDLPGEQLYYSFYRGDELLQGWSPSNTYLIESAQESDTGLYSCRARTADGRVEKSSPALDLQVLP-AATIVLDPPWHIIFEGESVTLHCTGSGDPNTTWLLNGTELPTSSPVYVIESATADDAGSYQCRVGSEGLSPAVQLTVVEGWLLMGVSGRDLLEGQPLSLLCRARDNQLVTNVLYYRNGVAFQYFEENSPITIERTDESHTGNYSCSGQGLATYTSEEVSVTVREVFPAPVITASVDSPIAEGTPVTLTCETALLVDLPGEELYYSFYRGDELLRGWDTSNTYLIESATEEDSGYYSCRARTADGSVDKSSPELDLRVTP-AATIVLDPPWHTIFYGESVTLHCTGSGDPNTTWYLNGTSLPTSSPTYVITSATSSDSGSYQCQVGSSGLSPAIQLTVVQGWLLMGVSGRDLLEGQPLSLNCIARDNRLVTNVYYYRNGVAFQYFATNSPITIATTNASDTGNYSCSGTGLATYTSATVSVTVREVFPAPVITASVTSPIAEGTPVTLTCNTSLLVSLPGETLYYSFYRGSSLLQGSTPSNTYLIASATASDTGNYSCTARTADGTVSKSSPSLSLTVTP-AATIRLDPPWHTIFYGESVTLHCTGDGDPNTTWYLNGTALPTSSPVYVIESATAGDAGLYQCQRGSEGLSPAVQLTVVEGWLLMGVSGRDLLEGQPLSLLCKARDDQLVVNVHYYRNGVAFQYFEENSPIVIERTDASHTGRYSCSGWGLRRYTSAEVEVTVREVFPAPVITASVASPLPAGTPVTLTCETALLVDLPGEQLYYRFYRGDELLRGWDPSNTYLIESATAADTGLYSCEAATADGRVRRSSPALDLRVTP-AATIVLDPPWHTIFYGESITLHCTGSGDPNTTWYLNGTSLPTSSPVYVITSATSSDSGSYQCQVGSSGLSPAIQLTVVQGWLLMGVSGRDLLEGQPLSLNCIARNNQLVTNVNYYRNGVSFQYFATNSPITIATTNASDTGNYSCSGWGLARYTSATVSVTVREVFPAPVITASVSSPIAEGTPVTLTCNTSLLVSLPGESLYYSFYRGSSLLQGWTTSNTYLIASATASDTGYYSCKARTADGSVSKSSPSLSLTVTP-AATIVLDPPWHTIFYGESVTLHCTGSGSPNTTWYLNGTALPTSSPVYVISSATSSDSGSYQCQVGSSGLSPAIQLTVVQGWLLMGVSGRDLLEGQPLSLNCIARNNQLVTNVNYYRNGVSFQYFTTNSPITISSTNASDTGNYSCSGWGLARYTSSTVSVTVREIFPAPVITASVSSPIAAGTPVTLTCNTSLLVSLPGTSLYYSFYRGSSLLQGWTTSNTYLISSATASDSGYYSCRAATADGTVSKSSPSLSLTVTP,KAVIKLQPPWVSVFQEESVTLHCEVPGSSSTQWFLNGTAIQTSTPTYHITSASEDDSGEYRCQRGLSGRSDPIQLEVHRGWLLLQVSSRVLTEGEPLALRCHAWKDKLVYNVLYYRNGKAFKFFHWNSNLTILKTNMSHSGTYHCSGMGKHRYTSAGISVTVKELFPAPVLTASVTSPLLEGTPVTLSCETKLLLQRPGLQLYFSFYMGSKTLRGRDTSSEYQILTARREDSGLYWCEAATEDGNVLKRSPELELQVLG-KAVIKLQPPWVSVFQEESVTLHCEVPGSSSTQWFLNGTAIQTSTPTYHITSASEDDSGEYRCQRGLSGRSDPIQLEVHRGWLLLQVSSRVLTEGEPLALRCHAWKDKLVYNVLYYRNGKAFKFFHWNSNLTILKTNMSHSGTYHCSGMGKHRYTSAGISVTVKELFPAPVLTASVTSPLLEGTPVTLSCETKLLLQRPGLQLYFSFYMGSKTLRGRDTSSEYQILTARREDSGLYWCEAATEDGNVLKRSPELELQVLG-KAVIKLQPPWVSVFQEESVTLHCEVPGSSSTQWFLNGTAIQTSTPTYHITSASEDDSGEYRCQRGLSGRSDPIQLEVHRGWLLLQVSSRVLTEGEPLALRCHAWKDKLVYNVLYYRNGKAFKFFHWNSNLTILKTNMSHSGTYHCSGMGKHRYTSAGISVTVKELFPAPVLTASVTSPLLEGTPVTLSCETKLLLQRPGLQLYFSFYMGSKTLRGRDTSSEYQILTARREDSGLYWCEAATEDGNVLKRSPELELQVLG-KAVIKLQPPWVSVFQEESVTLHCEVPGSSSTQWFLNGTAIQTSTPTYHITSASEDDSGEYRCQRGLSGRSDPIQLEVHRGWLLLQVSSRVLTEGEPLALRCHAWKDKLVYNVLYYRNGKAFKFFHWNSNLTILKTNMSHSGTYHCSGMGKHRYTSAGISVTVKELFPAPVLTASVTSPLLEGTPVTLSCETKLLLQRPGLQLYFSFYMGSKTLRGRDTSSEYQILTARREDSGLYWCEAATEDGNVLKRSPELELQVLG-KAVIKLQPPWVSVFQEESVTLHCEVPGSSSTQWFLNGTAIQTSTPTYHITSASEDDSGEYRCQRGLSGRSDPIQLEVHRGWLLLQVSSRVLTEGEPLALRCHAWKDKLVYNVLYYRNGKAFKFFHWNSNLTILKTNMSHSGTYHCSGMGKHRYTSAGISVTVKELFPAPVLTASVTSPLLEGTPVTLSCETKLLLQRPGLQLYFSFYMGSKTLRGRDTSSEYQILTARREDSGLYWCEAATEDGNVLKRSPELELQVLG-KAVIKLQPPWVSVFQEESVTLHCEVPGSSSTQWFLNGTAIQTSTPTYHITSASEDDSGEYRCQRGLSGRSDPIQLEVHRGWLLLQVSSRVLTEGEPLALRCHAWKDKLVYNVLYYRNGKAFKFFHWNSNLTILKTNMSHSGTYHCSGMGKHRYTSAGISVTVKELFPAPVLTASVTSPLLEGTPVTLSCETKLLLQRPGLQLYFSFYMGSKTLRGRDTSSEYQILTARREDSGLYWCEAATEDGNVLKRSPELELQVLG-KAVIKLQPPWVSVFQEESVTLHCEVPGSSSTQWFLNGTAIQTSTPTYHITSASEDDSGEYRCQRGLSGRSDPIQLEVHRGWLLLQVSSRVLTEGEPLALRCHAWKDKLVYNVLYYRNGKAFKFFHWNSNLTILKTNMSHSGTYHCSGMGKHRYTSAGISVTVKELFPAPVLTASVTSPLLEGTPVTLSCETKLLLQRPGLQLYFSFYMGSKTLRGRDTSSEYQILTARREDSGLYWCEAATEDGNVLKRSPELELQVLG-KAVIKLQPPWVSVFQEESVTLHCEVPGSSSTQWFLNGTAIQTSTPTYHITSASEDDSGEYRCQRGLSGRSDPIQLEVHRGWLLLQVSSRVLTEGEPLALRCHAWKDKLVYNVLYYRNGKAFKFFHWNSNLTILKTNMSHSGTYHCSGMGKHRYTSAGISVTVKELFPAPVLTASVTSPLLEGTPVTLSCETKLLLQRPGLQLYFSFYMGSKTLRGRDTSSEYQILTARREDSGLYWCEAATEDGNVLKRSPELELQVLG-KAVIKLQPPWVSVFQEESVTLHCEVPGSSSTQWFLNGTAIQTSTPTYHITSASEDDSGEYRCQRGLSGRSDPIQLEVHRGWLLLQVSSRVLTEGEPLALRCHAWKDKLVYNVLYYRNGKAFKFFHWNSNLTILKTNMSHSGTYHCSGMGKHRYTSAGISVTVKELFPAPVLTASVTSPLLEGTPVTLSCETKLLLQRPGLQLYFSFYMGSKTLRGRDTSSEYQILTARREDSGLYWCEAATEDGNVLKRSPELELQVLG-KAVIKLQPPWVSVFQEESVTLHCEVPGSSSTQWFLNGTAIQTSTPTYHITSASEDDSGEYRCQRGLSGRSDPIQLEVHRGWLLLQVSSRVLTEGEPLALRCHAWKDKLVYNVLYYRNGKAFKFFHWNSNLTILKTNMSHSGTYHCSGMGKHRYTSAGISVTVKELFPAPVLTASVTSPLLEGTPVTLSCETKLLLQRPGLQLYFSFYMGSKTLRGRDTSSEYQILTARREDSGLYWCEAATEDGNVLKRSPELELQVLG,LVPLGGPTYP-EVPLGGPVYY-SSPLGGPSSG-EVPLGGPVYE-PVPLGGPVYY-TVPLGGPVTP-TTPLGGPTTT-PVPLGGPVYP-TTPLGGPTTP-SSPLGGPSSG,PELLGGPSVF-PELLGGPSVF-PELLGGPSVF-PELLGGPSVF-PELLGGPSVF-PELLGGPSVF-PELLGGPSVF-PELLGGPSVF-PELLGGPSVF-PELLGGPSVF
