contacts,cs,ce,Chain,Length,designed_receptor_seq,native_receptor_seq,designed_binder_seq,native_binder_seq
20.0,141,151,A,10,GPLAQLREQVFGKGGALEAYKEAVGKIQAQAEAAARKEEVRKLEAEAAKLPALKEFTDAYKKAKTDAEKKALQEQARTKAG-MHANQIARRVAGSGGQANAAARKEAREAARRAQRAAERAAKRAAARAAQKDYVRRRRNRDRKRRIASENEAALKRARLEAG-SPLETIDKYYYGKGGVEEQRQLAIDKVVAEKTRDEALRERKQLLARHKKDEAFIREMDHLNENYRRIYTEQLLATAKKLAG-NAAAAISGLINGPNGITARYAASVALIKADNQRRELERKLDLAIKVAEQDSSFKRAQSAYYVRYKRSRTEQLLRFALIKAG-ADAAGLSGSINGLGGIAEQAIRQADELFQNYVKESKKYVEIQRKAVLEKCRSRKRQENDFLREKEDKEREEALAKARELKG-LLKKLTASLENGKGGLRENYIEMVGEHYAERLRERLHRLEEQLKAELETLPELKALRAEEEAHLRKHFLQLQLRSAEKHAG-SMKEQLKEYVYGTGGIAETCAASLCMFYQEWAKGSWQDLQNRKQAAAADEAALKQAQEMARKAKAQAEKEALLKEALAQWG-AIAKAAAKSVYGKGGHLEKAVAKNLEEYERRLAEEKERAEKEAEAALKADAAYKRLEGEKATHLERLMVEAALENARKGAG-EMERVQRDYVFGPGGLLERLLSFVQEKAEKIAREQQEREIARLKALLAKHEQIKLQRDVYLASMREHWTTRAEADAKAMKG-SMSLQLYYCVYGEGGEQKSLHRRLLRRYCHRSSKALNNLQSLLEKEAAKLLSYTLEQNHAEIQRLKDQLSSQVRTALELWG,LMADFTKWFVTGDGGIMEEFTEETLRHLLWDVWQRHQREEAERKRKAEEEESWRLAREHLTHRLQVKYFYRWREKARALAT-LMADFTKWFVTGDGGIMEEFTEETLRHLLWDVWQRHQREEAERKRKAEEEESWRLAREHLTHRLQVKYFYRWREKARALAT-LMADFTKWFVTGDGGIMEEFTEETLRHLLWDVWQRHQREEAERKRKAEEEESWRLAREHLTHRLQVKYFYRWREKARALAT-LMADFTKWFVTGDGGIMEEFTEETLRHLLWDVWQRHQREEAERKRKAEEEESWRLAREHLTHRLQVKYFYRWREKARALAT-LMADFTKWFVTGDGGIMEEFTEETLRHLLWDVWQRHQREEAERKRKAEEEESWRLAREHLTHRLQVKYFYRWREKARALAT-LMADFTKWFVTGDGGIMEEFTEETLRHLLWDVWQRHQREEAERKRKAEEEESWRLAREHLTHRLQVKYFYRWREKARALAT-LMADFTKWFVTGDGGIMEEFTEETLRHLLWDVWQRHQREEAERKRKAEEEESWRLAREHLTHRLQVKYFYRWREKARALAT-LMADFTKWFVTGDGGIMEEFTEETLRHLLWDVWQRHQREEAERKRKAEEEESWRLAREHLTHRLQVKYFYRWREKARALAT-LMADFTKWFVTGDGGIMEEFTEETLRHLLWDVWQRHQREEAERKRKAEEEESWRLAREHLTHRLQVKYFYRWREKARALAT-LMADFTKWFVTGDGGIMEEFTEETLRHLLWDVWQRHQREEAERKRKAEEEESWRLAREHLTHRLQVKYFYRWREKARALAT,QLNQVVISIF-PLEAAQRRLQ-LVEKAAEKIG-VLVKRAIEVG-FDIEDFLKPF-SSLEAHQITD-ALLDKAERIY-VTVSAALRIG-DTWQAVKALH-EICDKSFAIN,ADIQAMIEEF-ADIQAMIEEF-ADIQAMIEEF-ADIQAMIEEF-ADIQAMIEEF-ADIQAMIEEF-ADIQAMIEEF-ADIQAMIEEF-ADIQAMIEEF-ADIQAMIEEF
30.0,67,77,B,10,MPYNREPPMTEHEDLTEEEKLEMHRAFRLIDVGQTGTMSFTEFKTALRALGFFLPERRTKAYQISYGVRPAWWPLEKECPPEEKQFDLHTFMAIAGRLLQEQDPLERLREAFRIFDRDGSGRVTKQDLKQISREVGQVFPDELLEHTIQAFDADGSGGVNLTEFVQVMTSD-MPLRQPPPLEEFLNLEQEARAHLIDVFRKLDLDKSGGLSFFEFRMALRALGFHLPDSFLKKVLVEHGIRPKDWPQEKECPPEERVFKLEAFLAIAGELLKKEDPEEELRRAFRVFDKEGTGKIRVSDLRRIQRQFGEKIPEEELMLAVREFDEDGKGGVDLQEFIKVMTSE-SPKRSPPPKQKYDVLVGDQVSQFTAAFRLIDTGYSGHLSLNEFKAALALLGFHLPKKQIAKMQVEHGIKPEGWPVEQALPPEKCEFSFDVYLALAGKLLTSRDPREELRQAFRMFDAAGRGYVTCEDLREIACQAGVAFPKSLIEAAVANFDRDGSGGIDETEWIDVLTAD-PPRDQPPPTILYDTLSRYQKLEIRFAFQLVNKGRCGSLTFKEFIVALALMGFRKPAEEVMEDLIAHGERPEGWPLEKECPPEAKQFRLETYLALAGKRLQERDPTDELRQAFTVFDAGGSGFITESDLREVVRDVGEEVPDELIGEAIRCFDTEGMGGVDEDEFIRVMTAK-GPRIMPPPLSSAETLNAEEIEEIKHAFLIIDHNRDGYLSLDEFRVALRSLGFRLPDAVLQTYLTKHGVRPTGWPAQVDCPPEMRKFRIETFLAISGNLLQSKSPVQEIKEVFNMFDRDGSGRITLSDLKAVVKSVGMNIPDEQLEDAIRKFDVEGNGGVDLKEFLTVMMSD-APEVLEPPMARYLILDDETRRQIQEAFDLVDKGKSGQLGFNDFQQALAMLGFVLPKETILEYLVKHGTAPAGWPKDIECPPMARKFGLTAFMAIAGVLIEKRDPLEVLVEAFRVFDQHGTGKIELQDLREVAHVLGETFPDKLLQEAIASFDEDGSGGIDQSEFIMVMTSN-APEMLPPPLDRFEKLTDEKKKHVLLSFRALDTGTTGTLSFREMTQGLRALGFNLPFSVVQAMLVTHGMRPSWWPLDQECPPERRLMDFHAYCAIAGHLETTRSPLVEINNSFRMFNSSGRGFVTVRDLKRICHQIGQIFPEDLISHAVTSFDKDGSGGVNLQEFVDVMTSD-MPIERSPPMCCYYQLSTKVKENILRAFQLVDTGQAGSLTWNEFREALSMLGFRMPTNQTLTFQREYGKCPSGWPLSRAVPPEARTFDLATFKAIAGMLISRRSPTEELRRAFRLFDASGSGSITCMDLKKVCQELGVSIPHSVIKAMISSFDTNGSGGVDQKEFISVMTSD-SPTTVPPPLDMYETLDEETKHQITWVFQKFDANSTGVLLATEFKNCLTGLGFNLPDEILHRFQKEHGVVPSGWPKEQECPPEKRVFGYETFKAIAGELITRRNPVEDVRSAFRLFDSKGNGFITVQDLRRICIMTGENLPEQDLQDAIDEFDKEGTGGIDEEEFIEVMMSN-TPQVDPPPTSAFLSLSQTTRERIRQAFLMVDQGRTGVLSTSQFKLALQLLGFNLPDDQVDEMLKRYGIQPQGWPSEVECPPQWRQFDFESFLAIAGQLIEAQNPTDAIRSAFRIFDREGTGKVTKTQLRHLCLRMGKNVPESLLAEAIQKFDVDGSGGINEVEFVEVMTSQ,QIQYTIPPREDYNKLSDEQKTRISEAFELFDSNKDGLLSYEEFRFVLRALGFDLPKQQTYDMLVRHGQRPANWPHDQECPPVYRQFNLATAQALAGTLIRQRDPRDELRRAFRLFDVDGKGMITEDDLRKVCQQVGNNIPDADIQAMIEEFDSNGKGGVDEDEFLRLMMSK-QIQYTIPPREDYNKLSDEQKTRISEAFELFDSNKDGLLSYEEFRFVLRALGFDLPKQQTYDMLVRHGQRPANWPHDQECPPVYRQFNLATAQALAGTLIRQRDPRDELRRAFRLFDVDGKGMITEDDLRKVCQQVGNNIPDADIQAMIEEFDSNGKGGVDEDEFLRLMMSK-QIQYTIPPREDYNKLSDEQKTRISEAFELFDSNKDGLLSYEEFRFVLRALGFDLPKQQTYDMLVRHGQRPANWPHDQECPPVYRQFNLATAQALAGTLIRQRDPRDELRRAFRLFDVDGKGMITEDDLRKVCQQVGNNIPDADIQAMIEEFDSNGKGGVDEDEFLRLMMSK-QIQYTIPPREDYNKLSDEQKTRISEAFELFDSNKDGLLSYEEFRFVLRALGFDLPKQQTYDMLVRHGQRPANWPHDQECPPVYRQFNLATAQALAGTLIRQRDPRDELRRAFRLFDVDGKGMITEDDLRKVCQQVGNNIPDADIQAMIEEFDSNGKGGVDEDEFLRLMMSK-QIQYTIPPREDYNKLSDEQKTRISEAFELFDSNKDGLLSYEEFRFVLRALGFDLPKQQTYDMLVRHGQRPANWPHDQECPPVYRQFNLATAQALAGTLIRQRDPRDELRRAFRLFDVDGKGMITEDDLRKVCQQVGNNIPDADIQAMIEEFDSNGKGGVDEDEFLRLMMSK-QIQYTIPPREDYNKLSDEQKTRISEAFELFDSNKDGLLSYEEFRFVLRALGFDLPKQQTYDMLVRHGQRPANWPHDQECPPVYRQFNLATAQALAGTLIRQRDPRDELRRAFRLFDVDGKGMITEDDLRKVCQQVGNNIPDADIQAMIEEFDSNGKGGVDEDEFLRLMMSK-QIQYTIPPREDYNKLSDEQKTRISEAFELFDSNKDGLLSYEEFRFVLRALGFDLPKQQTYDMLVRHGQRPANWPHDQECPPVYRQFNLATAQALAGTLIRQRDPRDELRRAFRLFDVDGKGMITEDDLRKVCQQVGNNIPDADIQAMIEEFDSNGKGGVDEDEFLRLMMSK-QIQYTIPPREDYNKLSDEQKTRISEAFELFDSNKDGLLSYEEFRFVLRALGFDLPKQQTYDMLVRHGQRPANWPHDQECPPVYRQFNLATAQALAGTLIRQRDPRDELRRAFRLFDVDGKGMITEDDLRKVCQQVGNNIPDADIQAMIEEFDSNGKGGVDEDEFLRLMMSK-QIQYTIPPREDYNKLSDEQKTRISEAFELFDSNKDGLLSYEEFRFVLRALGFDLPKQQTYDMLVRHGQRPANWPHDQECPPVYRQFNLATAQALAGTLIRQRDPRDELRRAFRLFDVDGKGMITEDDLRKVCQQVGNNIPDADIQAMIEEFDSNGKGGVDEDEFLRLMMSK-QIQYTIPPREDYNKLSDEQKTRISEAFELFDSNKDGLLSYEEFRFVLRALGFDLPKQQTYDMLVRHGQRPANWPHDQECPPVYRQFNLATAQALAGTLIRQRDPRDELRRAFRLFDVDGKGMITEDDLRKVCQQVGNNIPDADIQAMIEEFDSNGKGGVDEDEFLRLMMSK,VFSTLLVRAL-KLTYLLAKAV-MFCHLVAKAL-EFRQLLTSAL-HLMDLLRRAH-EFQRLIAKAC-IFLRLVARAG-DLVVLIAKAR-FMRTLLKKAM-IMIRLLSKAV,YFYRWREKAR-YFYRWREKAR-YFYRWREKAR-YFYRWREKAR-YFYRWREKAR-YFYRWREKAR-YFYRWREKAR-YFYRWREKAR-YFYRWREKAR-YFYRWREKAR
