contacts,cs,ce,Chain,Length,designed_receptor_seq,native_receptor_seq,designed_binder_seq,native_binder_seq
20.0,141,151,A,10,GSLQELKNELFGEGGALEALVQAKNDELAKIEAERQAKAEEAARAEAAKAEEYQKKLAEAQRKAREEFTRLALEKARALAG-GPLADIREAVTGPGGLAETAIREAGRRAAEERRRELEELRRRAEAEAAKDEELKRRREEARRRLVEERTREALRRAAELAG-ADIVEVFNRVFGKGGLHERFKKYIGQKSEEIKREELRKLLEKAKEEAEKDEALKALREKAKKEAEELFREAALARAREKAG-AAAAAVRRAVFGEGGAAEALRAEKEAELRELRRREEEERLRRLREEAAKLEELKLALEEARRKAVEERTREALARARELAG-SRLRKLRNLIYGEGGLAEVFAAHIGKQAAEVTARERERLAAEAEAEAEKDAALAALRARAEEEARRRRLEEALALARERAG-MNSKAVYEYVYGEGGVKERITEAVNKYLEEAKKEARKEAEKQAKAEAAKTEEFKKKLEEAKKAYKEEFTEKLLAKAKAKAG-GPLEDVVNAVYGEGGADAVAKKAVGEVEAEVKAEEAREALKLAKAEAEKDAAFKAAEAKAKAEKEAKELSALLAKAKAEAG-GPLAEIAQAVFGKGGAAEALVAKVNERLAEAEAKAREERLKLLEAQAAEDEALKALRAKAEAEARRLFEEAARAVAAEEAG-GPLADIDNLVNGVGGLAEAYSKDVDKRLREMEQAAEEERRKREKAEAEKDEDLKRKRAEAERARREAEMRARLEEARARAG-APALAIYEEVFGKGGRAEKELAAKLERENERLRRENERLRQEVERLAAQAEEIRKLREELRRKVEEAEREALLARARELAG,LMADFTKWFVTGDGGIMEEFTEETLRHLLWDVWQRHQREEAERKRKAEEEESWRLAREHLTHRLQVKYFYRWREKARALAT-LMADFTKWFVTGDGGIMEEFTEETLRHLLWDVWQRHQREEAERKRKAEEEESWRLAREHLTHRLQVKYFYRWREKARALAT-LMADFTKWFVTGDGGIMEEFTEETLRHLLWDVWQRHQREEAERKRKAEEEESWRLAREHLTHRLQVKYFYRWREKARALAT-LMADFTKWFVTGDGGIMEEFTEETLRHLLWDVWQRHQREEAERKRKAEEEESWRLAREHLTHRLQVKYFYRWREKARALAT-LMADFTKWFVTGDGGIMEEFTEETLRHLLWDVWQRHQREEAERKRKAEEEESWRLAREHLTHRLQVKYFYRWREKARALAT-LMADFTKWFVTGDGGIMEEFTEETLRHLLWDVWQRHQREEAERKRKAEEEESWRLAREHLTHRLQVKYFYRWREKARALAT-LMADFTKWFVTGDGGIMEEFTEETLRHLLWDVWQRHQREEAERKRKAEEEESWRLAREHLTHRLQVKYFYRWREKARALAT-LMADFTKWFVTGDGGIMEEFTEETLRHLLWDVWQRHQREEAERKRKAEEEESWRLAREHLTHRLQVKYFYRWREKARALAT-LMADFTKWFVTGDGGIMEEFTEETLRHLLWDVWQRHQREEAERKRKAEEEESWRLAREHLTHRLQVKYFYRWREKARALAT-LMADFTKWFVTGDGGIMEEFTEETLRHLLWDVWQRHQREEAERKRKAEEEESWRLAREHLTHRLQVKYFYRWREKARALAT,DLKAALEKLG-ELRRLAEALG-ELEKLLKELF-ELERAAAALG-ALLAAARALG-ELVTAALKIF-ALKAAAKKLG-ELEAAARRLG-RLRAAAAALG-ELERAAERLG,ADIQAMIEEF-ADIQAMIEEF-ADIQAMIEEF-ADIQAMIEEF-ADIQAMIEEF-ADIQAMIEEF-ADIQAMIEEF-ADIQAMIEEF-ADIQAMIEEF-ADIQAMIEEF
30.0,67,77,B,10,SPTHVPPPMEAYSSLSADVKARIKEAFELVDEGRSGKLTLDEFKTALRLLGFNLPDSEIRLMLEQHGIAPEGWPKEKECPPEERVFDFSSFAAIAGQLITQRDPIEDLREAFRLFDKEGTGKITLDDLKVVCRTLGEEIPEDELREAVESFDKDGSGGVDLEEFVEVMTSE-EPRTSPPPMERFQILDEETKQEIKLAFDLFDEGKTGMLSFQEFKVALRALGFNLPDSLLNDFLEKHGVRPEGWPEDIECPPEERRFGFDVFMAIAGELLVRRDPIEEIREAFKLFDRDGSGFITVEDLREVMAELGEKVPDSEIRDAVSKFDKDGSGGIDLEEFIEVMTAE-MPTEQPPPMEEFQKLSQQEKDEIREAFALYDTGKTGRLTFQEFKNVLRSLGFNLPDDVVQEMLVKHGVRPDGWPLEVDCPPEEREFDFEAFCAIAGRLIRQRDPTEELREAFRVFDKDGSGKITLQDLRRVAAQIGEKIPEKQLQEAVRAFDVDGSGGVDLDEFIRVMTSE-MPTDVPPPMDAYLALDDSTKKRILEAFRIIDKDKSGKLSFDEFKLALRMLGFNLPDEQIREFLIRHGVAPEGWPAEKECPPEEREFDFSAFCAIAGRLITERDPVEEIKQAFRLFDVDGSGYITVSDLRRVCIQTGEEIPDELIREAIRSFDEDGSGGIDLEEFIRVMTSD-SPTNQPPPMEAFQLLDEETKREIRDAFRLFDKGKTGQLSFQEFKTALRSLGFNLPDEELKKMLVDHGAAPEGWPKEEECPPEERVFGLEAFLAIAGRLLTERDPLDEIREAFRLFDKEGTGKITVEDLRRVCTEVGENVPDELLREAVQEFDADGSGGVDLEEFVEVMTSE-GPHMDPPPMSAYETLNDEQKAEIQQAFDLFDTDKSGFLTFEEFKTALRALGFSLPDEQVREFLVRHGVAPEGWPAEKECPPEERRFGYETFAAIAGKLLKERDPLDEIREAFRLFDKDGSGFITKDDLRRVMVEIGERVPDEELAEAVRAFDVDGSGGIDLEEFVRVMTAS-MPETAPPPMAEYQTLSEETKRQIRDAFQLFDTGKTGMLKFTEFKNCLRALGFNLPDEQVTEFMVRNGVAPEGWPKELECPPEDRRFNFETFCAIAGQLLTERDPNEEIKEAFRLFDKDGSGKITLRDLKIVARSIGERVPEELLQRAVDEFDKDGSGGVDLDEFIAVMTAE-MPEDEPPPLERFQTLSQEQKDEIWKAFELFDKDKSGQLTFQEFKVCLRSLGFFLPDEELLDMLVRHGKAPEGWPSEIECPPEEKVFDFEAFAAIAGHLLTQREPEEEIRRAFRVFDETGSGSITLAELRVVTTKLGESIPDELLQEAVQKFDKDGSGGVDEEEFVEVMLAE-MPLSEPPPLEKFSTLDSATKTEIMKAFRLIDTNKSGLLTFQEFKLALRMLGFNLPDSEVQEYLVRHGVAPEGWPKEKECPPEARQFNLETYLAIAGILLQKRDPLEDLRAAFRLFDKNGSGFITVSDLRRVMRAVGENVPEQELKEAVEAFDVDGSGGVDEEEFVRVMTSD-MPRHLPPPMDAYEVLDEATKKRILEAFELVDEGKTGMLTFQEFQRALRLLGFNLPDEEVQDMLVKHGKKPDGWPEDVEVPPEKRLFDFQTFCAIAGKLIQEREPTEELRQAFRLFDKDGSGYITLEDLKVVMVSLGENIPEEELQEAVDQFDTDGSGGVDLDEFIRVMTSS,QIQYTIPPREDYNKLSDEQKTRISEAFELFDSNKDGLLSYEEFRFVLRALGFDLPKQQTYDMLVRHGQRPANWPHDQECPPVYRQFNLATAQALAGTLIRQRDPRDELRRAFRLFDVDGKGMITEDDLRKVCQQVGNNIPDADIQAMIEEFDSNGKGGVDEDEFLRLMMSK-QIQYTIPPREDYNKLSDEQKTRISEAFELFDSNKDGLLSYEEFRFVLRALGFDLPKQQTYDMLVRHGQRPANWPHDQECPPVYRQFNLATAQALAGTLIRQRDPRDELRRAFRLFDVDGKGMITEDDLRKVCQQVGNNIPDADIQAMIEEFDSNGKGGVDEDEFLRLMMSK-QIQYTIPPREDYNKLSDEQKTRISEAFELFDSNKDGLLSYEEFRFVLRALGFDLPKQQTYDMLVRHGQRPANWPHDQECPPVYRQFNLATAQALAGTLIRQRDPRDELRRAFRLFDVDGKGMITEDDLRKVCQQVGNNIPDADIQAMIEEFDSNGKGGVDEDEFLRLMMSK-QIQYTIPPREDYNKLSDEQKTRISEAFELFDSNKDGLLSYEEFRFVLRALGFDLPKQQTYDMLVRHGQRPANWPHDQECPPVYRQFNLATAQALAGTLIRQRDPRDELRRAFRLFDVDGKGMITEDDLRKVCQQVGNNIPDADIQAMIEEFDSNGKGGVDEDEFLRLMMSK-QIQYTIPPREDYNKLSDEQKTRISEAFELFDSNKDGLLSYEEFRFVLRALGFDLPKQQTYDMLVRHGQRPANWPHDQECPPVYRQFNLATAQALAGTLIRQRDPRDELRRAFRLFDVDGKGMITEDDLRKVCQQVGNNIPDADIQAMIEEFDSNGKGGVDEDEFLRLMMSK-QIQYTIPPREDYNKLSDEQKTRISEAFELFDSNKDGLLSYEEFRFVLRALGFDLPKQQTYDMLVRHGQRPANWPHDQECPPVYRQFNLATAQALAGTLIRQRDPRDELRRAFRLFDVDGKGMITEDDLRKVCQQVGNNIPDADIQAMIEEFDSNGKGGVDEDEFLRLMMSK-QIQYTIPPREDYNKLSDEQKTRISEAFELFDSNKDGLLSYEEFRFVLRALGFDLPKQQTYDMLVRHGQRPANWPHDQECPPVYRQFNLATAQALAGTLIRQRDPRDELRRAFRLFDVDGKGMITEDDLRKVCQQVGNNIPDADIQAMIEEFDSNGKGGVDEDEFLRLMMSK-QIQYTIPPREDYNKLSDEQKTRISEAFELFDSNKDGLLSYEEFRFVLRALGFDLPKQQTYDMLVRHGQRPANWPHDQECPPVYRQFNLATAQALAGTLIRQRDPRDELRRAFRLFDVDGKGMITEDDLRKVCQQVGNNIPDADIQAMIEEFDSNGKGGVDEDEFLRLMMSK-QIQYTIPPREDYNKLSDEQKTRISEAFELFDSNKDGLLSYEEFRFVLRALGFDLPKQQTYDMLVRHGQRPANWPHDQECPPVYRQFNLATAQALAGTLIRQRDPRDELRRAFRLFDVDGKGMITEDDLRKVCQQVGNNIPDADIQAMIEEFDSNGKGGVDEDEFLRLMMSK-QIQYTIPPREDYNKLSDEQKTRISEAFELFDSNKDGLLSYEEFRFVLRALGFDLPKQQTYDMLVRHGQRPANWPHDQECPPVYRQFNLATAQALAGTLIRQRDPRDELRRAFRLFDVDGKGMITEDDLRKVCQQVGNNIPDADIQAMIEEFDSNGKGGVDEDEFLRLMMSK,CLKMLLKKAR-IFKRLIRKAK-VFRCLLKKAL-VLRILLRKAL-VFRELVRRAV-VLRVLLRKAK-VFRVLLRKAL-FLKMLLRKAL-MFNVLLRKAK-ILQRLLAKSR,YFYRWREKAR-YFYRWREKAR-YFYRWREKAR-YFYRWREKAR-YFYRWREKAR-YFYRWREKAR-YFYRWREKAR-YFYRWREKAR-YFYRWREKAR-YFYRWREKAR
