contacts,cs,ce,Chain,Length,designed_receptor_seq,native_receptor_seq,designed_binder_seq,native_binder_seq
40.0,42,52,A,10,GPLGSMRKALRKIVAALFKAKGYDTARAEEVERWVEELSQYVREIGKAHEEYHSGTDNAKPSKADLIETLKRMGVDVDELPAFAESLKKMKFD-GPLRAQIQARAAIVSMLLEAKGHTTAAAADVAKQVKEYSDFVEAIGTAFKEYNAGRKEKTPTKKDLVTTLKKMGFDVDKLPAFAKELKKMKSK-GPLGSRIKRIEVIVEALLKAKGFETAESEVISKYVEEYTKYVDAIGDAFKRYNEGTKEKKPTPKDLIKTLEDMGFDVSKLPAFAKKLKKMKFG-GPLSERRQAVRQIVAALLRERGFSSADRSQVEELESRFVAFAEKIGRAFEAYCAGSAEAMPTDEDLVLTLVEMGFDVESLPAFAERLSAMKFD-GPLEDRIELYRTIVAALLQAKGFTSAADEVVQMLVARLEDFVKEIGVAHQKYCSGTTDDKPSDEDLIETLRKMGVDVDTLPAFAKRLKKMKLE-GPLGSEIARRIRIVEMLLKAKGFSSAKARVIIDKVNEYSQYLEKIGVAHRKFNSGTKEKEPSLEDLVKTLEVMGVDTSRLPAFAKKLKKFKSE-GPLDSLAARRLRVVAMLRRAAGHTTAAAAELARDVTELSQFERRIGVAAETYCRGRAEAAPTSADIVRTLRDMGFDVDTLPAFARRLRSAVDA-GPLGSQVVRVLRIVSMLLQAKGFSTAKKETLAELTSRYVNYVQRIGDAFSRFTAGRESEVPSLEDLVVTLKEMGVDISSLPAFAKKLKTMKVI-GPLGSQMALYYDIVRMLLKAKGYSTAKASKIEELVKKFINFKQAIGRAFKEYNSGRKEKKPTKEDLIETLKKMGFDIDKLPAFIKKLEKMKFK-GPLGSRKKMVEKIIEMLLEAKGYETAKEEVIAKYVDEFTEFVDEIGKAFSKYHAGTENKKPTVEDLVKTLEKMGFDVSKLPAFAKELKKMKVK,NYHLARRRTLQVVVSSLLTEAGFESAEKASVETLTEMLQSYISEIGRSAKSYCEHTARTQPTLSDIVVTLVEMGFNVDTLPAYAKRSQRMVIT-NYHLARRRTLQVVVSSLLTEAGFESAEKASVETLTEMLQSYISEIGRSAKSYCEHTARTQPTLSDIVVTLVEMGFNVDTLPAYAKRSQRMVIT-NYHLARRRTLQVVVSSLLTEAGFESAEKASVETLTEMLQSYISEIGRSAKSYCEHTARTQPTLSDIVVTLVEMGFNVDTLPAYAKRSQRMVIT-NYHLARRRTLQVVVSSLLTEAGFESAEKASVETLTEMLQSYISEIGRSAKSYCEHTARTQPTLSDIVVTLVEMGFNVDTLPAYAKRSQRMVIT-NYHLARRRTLQVVVSSLLTEAGFESAEKASVETLTEMLQSYISEIGRSAKSYCEHTARTQPTLSDIVVTLVEMGFNVDTLPAYAKRSQRMVIT-NYHLARRRTLQVVVSSLLTEAGFESAEKASVETLTEMLQSYISEIGRSAKSYCEHTARTQPTLSDIVVTLVEMGFNVDTLPAYAKRSQRMVIT-NYHLARRRTLQVVVSSLLTEAGFESAEKASVETLTEMLQSYISEIGRSAKSYCEHTARTQPTLSDIVVTLVEMGFNVDTLPAYAKRSQRMVIT-NYHLARRRTLQVVVSSLLTEAGFESAEKASVETLTEMLQSYISEIGRSAKSYCEHTARTQPTLSDIVVTLVEMGFNVDTLPAYAKRSQRMVIT-NYHLARRRTLQVVVSSLLTEAGFESAEKASVETLTEMLQSYISEIGRSAKSYCEHTARTQPTLSDIVVTLVEMGFNVDTLPAYAKRSQRMVIT-NYHLARRRTLQVVVSSLLTEAGFESAEKASVETLTEMLQSYISEIGRSAKSYCEHTARTQPTLSDIVVTLVEMGFNVDTLPAYAKRSQRMVIT,VTTAAFKYIR-RDVAAYYKIH-VTVAAHYKIY-VLVAVCRRIF-LTTAACKFIF-LLVAADFFIH-VALATYRRIF-VIVAAHRYIM-LEDAVFMYIM-MTVAAYYKIY,ISLAAQKFIS-ISLAAQKFIS-ISLAAQKFIS-ISLAAQKFIS-ISLAAQKFIS-ISLAAQKFIS-ISLAAQKFIS-ISLAAQKFIS-ISLAAQKFIS-ISLAAQKFIS
29.0,20,30,B,10,ADPVKDFLKKLSEVKPALPDARVGQILNAKGFKRANPEALRLIALASEEFVVRILKSAREEALKGEFTLTMKDLKPALADYGRPKP-ADPLQDFLTKLDEIKPVLPDSRIGKILGKAGFRRKDPRALRLIALLTEEFFLRILRDARENAKKNGNTLTMEDLRPSLKDYGRPLP-MNPLSQFLERLGEVEPLLPDARVGRILGEAGLRRDDPRALRLVALALEEFVRVRLREALRHAEEAGRTLTLRELRPALAEFGEPLP-AAPIQRFARNLASFRPLLPDKRVGRILGELGLRRRDPRALRLIALAAEEFVLRLLREARAHAEEHGGTLTLEDLRPALADHGEPQP-SMPVSQFLRRLAEITPVLPDARVGRILGELGFRRSDPRALRLVALAAEEFLLRLLREARERAREERLTLTMEDLRPALAALGEPEP-SNPLQDFLDNLDDVEPILPDARVGKILNAAGLSSADPRVLRLVSLAVEEFVLRRLREARANALEDGLTLTMEHLRPALEAYGEERP-SEPVQHFLDRLSAVTPALPDVRVGRILGAAGLRRKDPRTLRLIALALEEFLLRLLREARANALKGEETLTLEHLRPALADFGRPRP-ARPLSRLLERLDEVDPLLPDRRVGEVLGRAGLSSRDPRQLRLVALLAEEFLLRLLREARANALREDGRLTLADLRPALARHGEPRP-SNPIRRFLERLAEVEPALPDVRVGKVLRALGLRRRDPRALRLVALLLEEFVLRLLREALEEAEKEGRTLTLEHLRPALADYGEPLP-SNPIRSFLDKLADVTPSLPNARIGKIMREAGLDHKRPETLRAIALMAEEFIVQRLREARAHAEAEGRTLTMADLQPALADHGEKKP,STPLVDFLMQLEDYTPTIPDAVTGYYLNRAGFEASDPRIIRLISLAAQKFISDIANDALQHCKMKKYTLTMEDLTPALSEYGINVK-STPLVDFLMQLEDYTPTIPDAVTGYYLNRAGFEASDPRIIRLISLAAQKFISDIANDALQHCKMKKYTLTMEDLTPALSEYGINVK-STPLVDFLMQLEDYTPTIPDAVTGYYLNRAGFEASDPRIIRLISLAAQKFISDIANDALQHCKMKKYTLTMEDLTPALSEYGINVK-STPLVDFLMQLEDYTPTIPDAVTGYYLNRAGFEASDPRIIRLISLAAQKFISDIANDALQHCKMKKYTLTMEDLTPALSEYGINVK-STPLVDFLMQLEDYTPTIPDAVTGYYLNRAGFEASDPRIIRLISLAAQKFISDIANDALQHCKMKKYTLTMEDLTPALSEYGINVK-STPLVDFLMQLEDYTPTIPDAVTGYYLNRAGFEASDPRIIRLISLAAQKFISDIANDALQHCKMKKYTLTMEDLTPALSEYGINVK-STPLVDFLMQLEDYTPTIPDAVTGYYLNRAGFEASDPRIIRLISLAAQKFISDIANDALQHCKMKKYTLTMEDLTPALSEYGINVK-STPLVDFLMQLEDYTPTIPDAVTGYYLNRAGFEASDPRIIRLISLAAQKFISDIANDALQHCKMKKYTLTMEDLTPALSEYGINVK-STPLVDFLMQLEDYTPTIPDAVTGYYLNRAGFEASDPRIIRLISLAAQKFISDIANDALQHCKMKKYTLTMEDLTPALSEYGINVK-STPLVDFLMQLEDYTPTIPDAVTGYYLNRAGFEASDPRIIRLISLAAQKFISDIANDALQHCKMKKYTLTMEDLTPALSEYGINVK,AGFRHAEEEA-AGFDNAEAEA-AGFDDREAAA-AGFDAAEAAA-GGFDRAEAEA-AGFEDAEAEA-PGFERAQAEA-GGFAEAEAAA-GGFERAEAEA-AGFDAAEARA,AGFESAEKAS-AGFESAEKAS-AGFESAEKAS-AGFESAEKAS-AGFESAEKAS-AGFESAEKAS-AGFESAEKAS-AGFESAEKAS-AGFESAEKAS-AGFESAEKAS
