contacts,cs,ce,Chain,Length,designed_receptor_seq,native_receptor_seq,designed_binder_seq,native_binder_seq
40.0,42,52,A,10,GPLGSMRRAVRRIVAMLLEAKGYSTAAAEVVERLVGEFVEYVERIGRAFERYHRGRRERRPTPEDLVRTLEEMGFDVERLPAFAEELREMRAE-GPLGSRIRRQLRIIAMLLKAKGYSTAKAEVLAKYVGEYSAFVEKIGEAFKKYHEGTKKKKPTKKDLIETLKEMGFDVSKLPAFAKELKKMKEG-GPLGSMRRALERIVAMLLKAKGYSTAKAEVVAELVDRFSKYVEKIGEAFKKYHSGTKKKKPTKEDLVKTLEEMGFDVSKLPAFAKKLKEMKAE-GPLGSRIRRIERIIAMLLKAKGYSTAEEEVVAKYVSEFIEYVEKIGKAFEKYHKGTKKKRPTPEDLIETLKEMGFDVEKLPEFAKKLKEMKEE-GPLGSMKRRIRRIVAMLLKAKGYSTAKAEVIEKYVEEFEEFVKEIGKAFKEYHSGTKKKKPTPKDLIETLKKMGFDVEKLPEFAKKLKEMKEE-GPLGSRIRRYRRIIEMLLKAKGYSTAKAEVIAKYVGEFVAFEEKIGEAFKKYHEGTKKKKPTKKDLIETLKEMGFDVDKLPAFAKELKKMKEG-GPLGSRIRRRLRIIAMLLKAKGYSSAKAEVLAELVGRYEAFVEEIGKAFEKYHKGTKKKKPTPEDLVETLKKMGFDVSKLPEFAKKLKEMKEE-GPLGSMKRRIRRIVAMLLKAKGYETAEEEVVEKLVEEFEEFVKEIGRAFKEYHEGTEEEEPTPEDLVETLKKMGFDVEKLPEFAKELEEMEEE-GPLGSMKRALRRIVAMLLKAKGFSTAKAEVVEKLVSEFSEYVKKIGEAFKKYHSGTKKKKPTPKDLVETLKKMGFDVSKLPAFAKKLKKMKVK-GPLGSRIKRYEKIIEMLLKAKGYSSAKKEVIEKYVKEFIEFEKEIGKAFKKYHSGTKKKKPTKKDLIETLKKMGFDVSKLPEFAKKLKKMKEE,NYHLARRRTLQVVVSSLLTEAGFESAEKASVETLTEMLQSYISEIGRSAKSYCEHTARTQPTLSDIVVTLVEMGFNVDTLPAYAKRSQRMVIT-NYHLARRRTLQVVVSSLLTEAGFESAEKASVETLTEMLQSYISEIGRSAKSYCEHTARTQPTLSDIVVTLVEMGFNVDTLPAYAKRSQRMVIT-NYHLARRRTLQVVVSSLLTEAGFESAEKASVETLTEMLQSYISEIGRSAKSYCEHTARTQPTLSDIVVTLVEMGFNVDTLPAYAKRSQRMVIT-NYHLARRRTLQVVVSSLLTEAGFESAEKASVETLTEMLQSYISEIGRSAKSYCEHTARTQPTLSDIVVTLVEMGFNVDTLPAYAKRSQRMVIT-NYHLARRRTLQVVVSSLLTEAGFESAEKASVETLTEMLQSYISEIGRSAKSYCEHTARTQPTLSDIVVTLVEMGFNVDTLPAYAKRSQRMVIT-NYHLARRRTLQVVVSSLLTEAGFESAEKASVETLTEMLQSYISEIGRSAKSYCEHTARTQPTLSDIVVTLVEMGFNVDTLPAYAKRSQRMVIT-NYHLARRRTLQVVVSSLLTEAGFESAEKASVETLTEMLQSYISEIGRSAKSYCEHTARTQPTLSDIVVTLVEMGFNVDTLPAYAKRSQRMVIT-NYHLARRRTLQVVVSSLLTEAGFESAEKASVETLTEMLQSYISEIGRSAKSYCEHTARTQPTLSDIVVTLVEMGFNVDTLPAYAKRSQRMVIT-NYHLARRRTLQVVVSSLLTEAGFESAEKASVETLTEMLQSYISEIGRSAKSYCEHTARTQPTLSDIVVTLVEMGFNVDTLPAYAKRSQRMVIT-NYHLARRRTLQVVVSSLLTEAGFESAEKASVETLTEMLQSYISEIGRSAKSYCEHTARTQPTLSDIVVTLVEMGFNVDTLPAYAKRSQRMVIT,LVVAAFRRIY-LTIAAYYKIF-LAEAAFYYIY-LLVAAFYKIF-LLVAAFYKIF-KKVAVYYKIF-EEEAAYYYIF-EEVAAYYKIF-LAVAAFYKIF-LKIAVYYKIF,ISLAAQKFIS-ISLAAQKFIS-ISLAAQKFIS-ISLAAQKFIS-ISLAAQKFIS-ISLAAQKFIS-ISLAAQKFIS-ISLAAQKFIS-ISLAAQKFIS-ISLAAQKFIS
29.0,20,30,B,10,SNPIKKFLEKLSEIEPVLPDSRIGKILGELGLSSKDPRVLRLIALLAEEFVLRILREARENALKEGFTLTMEHLRPALEKYGRPLP-MAPLTDFLERLDEIEPVLPDARVGEILGAAGLRRDDPRALRLVALAAEEFVLRLLREARAHAEAEGRTLTMADLRPALADHGEPRP-MAPLTRLLERLDEVEPALPDARVGRILGELGLRRRDPRALRLVALAAEEFVLRLLREARAHAEREGRTLTLADLRPALADHGEPRP-MSPLEEFLERLSEIEPVLPDERVGEILGRLGLRREDPRVLRLVALALEEFVRRLLEEARREAEREGLTLTLEHLRPALERYGEPLP-SNPLEEFLEKLSEIEPVLPDARVGRILGELGLRARDPRVLRLVALAAEEFVLRLLREARENALREGLTLTMEHLRPALADYGEPRP-MSPLEEFLERLSEVEPVLPDERVGEVLGRLGLRREDPRVLRLVALAAEEFVRRLLREAREEAEREGRTLTLEDLRPALEEYGEPLP-MSPLEEFLERLSEIEPVLPDERVGEILGRLGLRRRDPRALRLVALAAEEFVRRLLREALEEARREGRTLTLEDLRPALEEYGEPLP-SNPLEEFLERLSEVEPVLPDERVGEILGRLGLRRRDPRVLRLVALALEEFVRRLLREAREEARREGLTLTLEHLRPALEEYGEPLP-MSPLEEFLERLDEIEPVLPDERVGEILGRLGLRREDPRVLRLVALALEEFVRRLLREALEEARREGRTLTLEDLRPALEDYGEPLP-SNPLQRFLERLSEVEPVLPDARVGRILGRLGLRRRDPRVLRLVALAAEEFVLRLLREAREHALREGLTLTLEHLRPALADYGRPRP,STPLVDFLMQLEDYTPTIPDAVTGYYLNRAGFEASDPRIIRLISLAAQKFISDIANDALQHCKMKKYTLTMEDLTPALSEYGINVK-STPLVDFLMQLEDYTPTIPDAVTGYYLNRAGFEASDPRIIRLISLAAQKFISDIANDALQHCKMKKYTLTMEDLTPALSEYGINVK-STPLVDFLMQLEDYTPTIPDAVTGYYLNRAGFEASDPRIIRLISLAAQKFISDIANDALQHCKMKKYTLTMEDLTPALSEYGINVK-STPLVDFLMQLEDYTPTIPDAVTGYYLNRAGFEASDPRIIRLISLAAQKFISDIANDALQHCKMKKYTLTMEDLTPALSEYGINVK-STPLVDFLMQLEDYTPTIPDAVTGYYLNRAGFEASDPRIIRLISLAAQKFISDIANDALQHCKMKKYTLTMEDLTPALSEYGINVK-STPLVDFLMQLEDYTPTIPDAVTGYYLNRAGFEASDPRIIRLISLAAQKFISDIANDALQHCKMKKYTLTMEDLTPALSEYGINVK-STPLVDFLMQLEDYTPTIPDAVTGYYLNRAGFEASDPRIIRLISLAAQKFISDIANDALQHCKMKKYTLTMEDLTPALSEYGINVK-STPLVDFLMQLEDYTPTIPDAVTGYYLNRAGFEASDPRIIRLISLAAQKFISDIANDALQHCKMKKYTLTMEDLTPALSEYGINVK-STPLVDFLMQLEDYTPTIPDAVTGYYLNRAGFEASDPRIIRLISLAAQKFISDIANDALQHCKMKKYTLTMEDLTPALSEYGINVK-STPLVDFLMQLEDYTPTIPDAVTGYYLNRAGFEASDPRIIRLISLAAQKFISDIANDALQHCKMKKYTLTMEDLTPALSEYGINVK,GGFEKAEEEA-AGFDAAEAAA-AGFERAEAAA-PGFERAEEEA-GGFERAEAEA-EGFEEAEEEA-EGFEEAEEEA-AGFERAEEEA-EGFEEAEEEA-AGFERAEAEA,AGFESAEKAS-AGFESAEKAS-AGFESAEKAS-AGFESAEKAS-AGFESAEKAS-AGFESAEKAS-AGFESAEKAS-AGFESAEKAS-AGFESAEKAS-AGFESAEKAS
