contacts,cs,ce,Chain,Length,designed_receptor_seq,native_receptor_seq,designed_binder_seq,native_binder_seq
35.0,126,136,A,10,GHMPLTVTRPVPFTYDLGHLLAFDPNPLDLPADRPLEESVAATAADGFTALTRELLTTCPVTVSAAGVRLTLPAPATRLPALTPAPAG-GGVPTTVTRPVPFTYDLGHLLAFDPNPLDLPADRPLEESVAATAADGFTALTRELLTTCPVTVSDAGVRLTLPAPATVLPALTPAPDG-GGVPTEVRRPVPFTYDLGHLLAFDPNPLDLPADRPLEESVAETAREGFTALTRELLTTCPVRVSAAGVRLELPAPATRLPALTPAPAG-GGVPTEVRRPVPFTYDLGHLLAFDPNPLDLPADRPLEESVAETAREGFTALTRELLTTCPVRVSAAGVRLELPAPATRLPALLPAPEG-GGVPSGVSLPVPFTYDLGHLLAFDPNPLDLPADRPLEESVAATAARGFTALTRELLTSCPVRVSAAGVRLELPAPATRLPALLPAPEG-GHMPTTVTRPVPFTYDLGHLLAFDPNPLDLPADRPLEESIAATAADGFTALTRELLTTCPITVSDAGVLLTLPAPATVLPALTPAPDG-GGVPSGVERPVPFTYDLGRLLAFDPNPLELPADRPLEESVAATAADGFTALTRELLTTCPVRVSAAGVRLELPAPATRLPALEPAPEG-GHMPLTVTRPVPFTYDLGHLLAFDPNPLDLPADRPLEESVAETAREGFTALTRELLTTCPVTVSAAGVRLTLPAPATRLPALTPAPAG-GHMPLTVTRPVPFTYDLGHLLAFDPNPLDLPADRPLEESVAATAADGFTALTRELLTTCPVTVSAAGVRLTLPAPATRLPALTPAPAG-GGVPQGVERPVPFTYDLGHLLAFDPNPLDLPADRPLEESVAETAREGFTALTRRLLTTCPVRVSAAGVLLELPAPATRLPALLPAPEG,ERLPITVSKPTPYTFDLGHLLANDPNPLELPKSEPLNASLKATARDGVQSLLNQLLTTCPITSSQQGVLLTLPAPSTILPRHKPLPTP-ERLPITVSKPTPYTFDLGHLLANDPNPLELPKSEPLNASLKATARDGVQSLLNQLLTTCPITSSQQGVLLTLPAPSTILPRHKPLPTP-ERLPITVSKPTPYTFDLGHLLANDPNPLELPKSEPLNASLKATARDGVQSLLNQLLTTCPITSSQQGVLLTLPAPSTILPRHKPLPTP-ERLPITVSKPTPYTFDLGHLLANDPNPLELPKSEPLNASLKATARDGVQSLLNQLLTTCPITSSQQGVLLTLPAPSTILPRHKPLPTP-ERLPITVSKPTPYTFDLGHLLANDPNPLELPKSEPLNASLKATARDGVQSLLNQLLTTCPITSSQQGVLLTLPAPSTILPRHKPLPTP-ERLPITVSKPTPYTFDLGHLLANDPNPLELPKSEPLNASLKATARDGVQSLLNQLLTTCPITSSQQGVLLTLPAPSTILPRHKPLPTP-ERLPITVSKPTPYTFDLGHLLANDPNPLELPKSEPLNASLKATARDGVQSLLNQLLTTCPITSSQQGVLLTLPAPSTILPRHKPLPTP-ERLPITVSKPTPYTFDLGHLLANDPNPLELPKSEPLNASLKATARDGVQSLLNQLLTTCPITSSQQGVLLTLPAPSTILPRHKPLPTP-ERLPITVSKPTPYTFDLGHLLANDPNPLELPKSEPLNASLKATARDGVQSLLNQLLTTCPITSSQQGVLLTLPAPSTILPRHKPLPTP-ERLPITVSKPTPYTFDLGHLLANDPNPLELPKSEPLNASLKATARDGVQSLLNQLLTTCPITSSQQGVLLTLPAPSTILPRHKPLPTP,AYLLAGSAFA-ARLLAGSAWA-AYLLAGSAVA-LRLLAGSAFA-AHLLAGSAWH-AHLLAGSAWH-LRLLAGSAWA-LRLLAGSAWA-ARLLAGSAWA-AFLLAGSAFA,LMLFSGSAWD-LMLFSGSAWD-LMLFSGSAWD-LMLFSGSAWD-LMLFSGSAWD-LMLFSGSAWD-LMLFSGSAWD-LMLFSGSAWD-LMLFSGSAWD-LMLFSGSAWD
47.0,76,86,B,10,SMPLLVEGQTRVLLTRGADVPAPVLTLLSVLHSLTYPHSVLDLTELTDIDPFTSTTRLEELANRHDCGLVVFGSSDAARPNCLTLASIYDRRVLEMVELLLQPDADGRGIPAATSLSDDVARGLRPLMLFSGSAWLDAEDETMQLLKRLLVRLFQGELSSTMDAAGLRYLLTVHAAEPEEGVAPVVHLRFFKLVLAPSGSSAPALSLEAIGPQLSFRVGRLRAAPEDVLSRALVQP-SMPLLVEGQTRVLLTRGENVPEPMLTVLSVLHSLTYPHSVLDNTELTDIDPFKSTTKLEELANKNNCGLVVFGSSDDERPNCLTLASIYDKKVLEMIELLLQPDENGNGIPSMTSLSDDVERGLRPLMLFSGSAWKDKKNKTFQLLKSMLVRLFQGELSSTMDASGLKYMLTVHAEEPKEGEAPIIHIRFFKLVFEESGSSLPKLTLEKIGPSLSFKVGKIREAPEDVLEKAMKQP-GSPLGSEGATRVLLTRGENVPEPMLTVLSVLHSLTYPHSVLDNTELTDIDPFTSTTKLEELANKNNCGLVVFGSSDAARPNCLTLASIYDTKVLEMIELLLQPDENGNGIPAMTSLSDDVAQGLRPLMLFSGSAWKDKTNETFQLLKRLLVLLLQGELSSTMDASGLTYMFTVHAEEPTEGVAPVIHIRSFKLVLSPSGSSAPALSLEAIGPQLSFTVGKVRAAPEDVLSKAMVQP-GSPLGSEGATRVLLLRGENVPEPMLTVLSVLHSLTYPHSVLDNTELTDIDPFTSTTKLEELANQNNCGLVVFGSSDAARPNCLTLASIYNKTVLEQIELLLQPSSSGSGIPSMTSLSSSVAQGLRPLMLFSGSAWQDSSNQTFQLLKRLLVLLLQGELSSTMDASGLTYLFTVHAEEPVEGEAPVIHIRSFKLVLSPSGSSSPALSLEAIGPQLSFRVGQLRLAPSDVLSQAMQQP-GSPLGSEGQTRVLLTRGENVPEPVLTLLSVLHSLTYPHSVLDLTELTDIDPFTSTTRLEELANRNNCGLVVFGSSDAARPNCLTLASIYDRRVLEQIELLLQPDADGNGIPSATSLSDDVARGLRPLMLFSGSAWQDSSDETMQLLKSMLVRLLQGELSSTMDAAGLTYLFTVHAEEPVEGQAPVVHIRSYKLVLSPSGSSAPALSLEAIGPQLRFRVGRLRAAPSDVLQAALQQP-GSPLGSEGQTRVLLTRGADVPEPVLTLLSVLHSLTYPHSVLDLTELTDIDPFTSTTLLEEKANENNCGLVVFGSSDAARPNCLTLASIYDKTVLEMVELLLQPDEDGNGIPAATSLSDDVEQGLRPLMLFSGSAWLDEEDETMQLLKRLLVRLLQGELSSTMDASGLKYLFTVHAEEPEEGVAPVVHIRSFKLVFEESGSSSPKLTLESIGPQLRFRVGRIRAAPEDVLSRAMVQP-SMPLLVEGQTRVLLTRGENVPEPMLTVLSVLHSLTYPHSVLDNTELTDIDPFTSTTKLEELANKNNCGLVVFGSSDAARPNCLTLASIYDKTVLEQIELLLQPDENGNGIPAMTSLSDDVEQGLRPLMLFSGSAWKDKKNKTFQLLKRLLVLLLQGELSSTMDAAGLKYLFTVHAEEPTEGEAPVIHIRSYKLVFKPSGSSLPALTLEKIGPDLRFRVGKVREAPEDVLSKALVQP-GSPLGSEGQTRVLLTRGENVPEPVLTLLSVLHSLTYPHSVLDNTELTDIDPFTSTSKLEELANKNNCGLVVFGSSDAERPNCLTLASIYDKKVLEMIELLLLPSEDGSGIPSMTSLSDDVEKGLRPLMLFSGSAWKDKKNKTFQLLKRLLVLLLQGELSSTMDASGLKYMFTVHAEEPEEGKAPIIHIRSYKLVFKPSGSSSPALTLEKIGPSLSFRVGKIREAPEDVLSKAMKQP-GSPLGSEGQTRVLLTRGENVPEPMLTVLSVLHSLTYPHSVLDNTELTDIDPFTSTTKLEELANKNNCGLVVFGSSDEKRPNCLTLASIYDKKVLEMIELLLQPDENGNGIPKMTSLSDDVEKGLRPLMLFSGSAWKDKKNKTFQLLKSMLVRLLQGELSSTMDASGLKYMFTVHAEEPKEGEAPIIHIRSFKLVFEESGSDEPKLTLKKIGPSLSFKVGKIREAPKDVLEKAMKQP-GSPLGSEGQTRVLLTRGENVPEPMLTVLSVLHSLTFPHSVLDNTELTDIDPFTSTTKLEELANKNNCGLVVFGSSNEERPNCLTLASIYDKKVLEMIELLLQPDEEGNGIPSMTSLSDDVEQGLRPLMLFSGSAWKDKENKTFQLLKSMLVRLFQGELSSTMDASGLKYMITVHAEEPEEGKAPIIHIRFFKLVFKPSGSSTPALTLEKIGPQLSFKVGKIREAPEDVLSKAMEQP,KEPQLIEGAKRVLLLHGSKCPTPLHTVLKVFHSLTTPHSVLFHKKNENIHPFESTESLEFLANKNDCGMVIFGSSNKKRPNCLTIARIFDSKVLDMAELLLLPDANGEGIPEMNRLSMHVAIGLRPLMLFSGSAWDDTTSTTHTMLKSMLVDLFKGETSDKIDVEGLQYALMVGAEEPTAGLAPIIHLRWYKIVTKRSGHKLPRVELEEIGPKLDFKVGRIQEAPRDVMKEAMKQG-KEPQLIEGAKRVLLLHGSKCPTPLHTVLKVFHSLTTPHSVLFHKKNENIHPFESTESLEFLANKNDCGMVIFGSSNKKRPNCLTIARIFDSKVLDMAELLLLPDANGEGIPEMNRLSMHVAIGLRPLMLFSGSAWDDTTSTTHTMLKSMLVDLFKGETSDKIDVEGLQYALMVGAEEPTAGLAPIIHLRWYKIVTKRSGHKLPRVELEEIGPKLDFKVGRIQEAPRDVMKEAMKQG-KEPQLIEGAKRVLLLHGSKCPTPLHTVLKVFHSLTTPHSVLFHKKNENIHPFESTESLEFLANKNDCGMVIFGSSNKKRPNCLTIARIFDSKVLDMAELLLLPDANGEGIPEMNRLSMHVAIGLRPLMLFSGSAWDDTTSTTHTMLKSMLVDLFKGETSDKIDVEGLQYALMVGAEEPTAGLAPIIHLRWYKIVTKRSGHKLPRVELEEIGPKLDFKVGRIQEAPRDVMKEAMKQG-KEPQLIEGAKRVLLLHGSKCPTPLHTVLKVFHSLTTPHSVLFHKKNENIHPFESTESLEFLANKNDCGMVIFGSSNKKRPNCLTIARIFDSKVLDMAELLLLPDANGEGIPEMNRLSMHVAIGLRPLMLFSGSAWDDTTSTTHTMLKSMLVDLFKGETSDKIDVEGLQYALMVGAEEPTAGLAPIIHLRWYKIVTKRSGHKLPRVELEEIGPKLDFKVGRIQEAPRDVMKEAMKQG-KEPQLIEGAKRVLLLHGSKCPTPLHTVLKVFHSLTTPHSVLFHKKNENIHPFESTESLEFLANKNDCGMVIFGSSNKKRPNCLTIARIFDSKVLDMAELLLLPDANGEGIPEMNRLSMHVAIGLRPLMLFSGSAWDDTTSTTHTMLKSMLVDLFKGETSDKIDVEGLQYALMVGAEEPTAGLAPIIHLRWYKIVTKRSGHKLPRVELEEIGPKLDFKVGRIQEAPRDVMKEAMKQG-KEPQLIEGAKRVLLLHGSKCPTPLHTVLKVFHSLTTPHSVLFHKKNENIHPFESTESLEFLANKNDCGMVIFGSSNKKRPNCLTIARIFDSKVLDMAELLLLPDANGEGIPEMNRLSMHVAIGLRPLMLFSGSAWDDTTSTTHTMLKSMLVDLFKGETSDKIDVEGLQYALMVGAEEPTAGLAPIIHLRWYKIVTKRSGHKLPRVELEEIGPKLDFKVGRIQEAPRDVMKEAMKQG-KEPQLIEGAKRVLLLHGSKCPTPLHTVLKVFHSLTTPHSVLFHKKNENIHPFESTESLEFLANKNDCGMVIFGSSNKKRPNCLTIARIFDSKVLDMAELLLLPDANGEGIPEMNRLSMHVAIGLRPLMLFSGSAWDDTTSTTHTMLKSMLVDLFKGETSDKIDVEGLQYALMVGAEEPTAGLAPIIHLRWYKIVTKRSGHKLPRVELEEIGPKLDFKVGRIQEAPRDVMKEAMKQG-KEPQLIEGAKRVLLLHGSKCPTPLHTVLKVFHSLTTPHSVLFHKKNENIHPFESTESLEFLANKNDCGMVIFGSSNKKRPNCLTIARIFDSKVLDMAELLLLPDANGEGIPEMNRLSMHVAIGLRPLMLFSGSAWDDTTSTTHTMLKSMLVDLFKGETSDKIDVEGLQYALMVGAEEPTAGLAPIIHLRWYKIVTKRSGHKLPRVELEEIGPKLDFKVGRIQEAPRDVMKEAMKQG-KEPQLIEGAKRVLLLHGSKCPTPLHTVLKVFHSLTTPHSVLFHKKNENIHPFESTESLEFLANKNDCGMVIFGSSNKKRPNCLTIARIFDSKVLDMAELLLLPDANGEGIPEMNRLSMHVAIGLRPLMLFSGSAWDDTTSTTHTMLKSMLVDLFKGETSDKIDVEGLQYALMVGAEEPTAGLAPIIHLRWYKIVTKRSGHKLPRVELEEIGPKLDFKVGRIQEAPRDVMKEAMKQG-KEPQLIEGAKRVLLLHGSKCPTPLHTVLKVFHSLTTPHSVLFHKKNENIHPFESTESLEFLANKNDCGMVIFGSSNKKRPNCLTIARIFDSKVLDMAELLLLPDANGEGIPEMNRLSMHVAIGLRPLMLFSGSAWDDTTSTTHTMLKSMLVDLFKGETSDKIDVEGLQYALMVGAEEPTAGLAPIIHLRWYKIVTKRSGHKLPRVELEEIGPKLDFKVGRIQEAPRDVMKEAMKQG,VTLPRHLPVP-VTLPRTLPVP-VTLPRTLPVP-VTLPRTLPIP-VTLPRHLPLP-VTLPRYLPVP-VVLPRYLPVP-VTLPRYLPVP-IILPRYLPIP-VTLPRYLPIP,TILPRHKPLP-TILPRHKPLP-TILPRHKPLP-TILPRHKPLP-TILPRHKPLP-TILPRHKPLP-TILPRHKPLP-TILPRHKPLP-TILPRHKPLP-TILPRHKPLP
