contacts,cs,ce,Chain,Length,designed_receptor_seq,native_receptor_seq,designed_binder_seq,native_binder_seq
35.0,126,136,A,10,GGVPTRVERPTPFSFDLGHLLAFDPNPLDLPADRPLEASVAETLQDGLTALTRELLTTCPITISAEGVRLSLPAPQTKLPALVPAPTG-SNAPQTVHLPTPFTFDLGHLRAWDPNPLDLPADRPLEESIAQTARRGFTALTRALLRDCPITVSEKGVLLTLPAPKTQLPALLPAPAG-SNAPVHVEKPIPYSYDLGLGLVFDPNPLDLPDDKPLEVSIAETAREGFTALIQRLVDTCPVRISEEGVLLELPEPRTVLPLLEPVPEG-AGVPDGVSKPVPFSYDLGHLLVFDPNPLDLPAAEPLEVSVARTAQEGFTALLRALLTTCPVTVSAAGVLLTLPAPATVLPARRPAPAG-GHMPHRVERPVPYTYDLGLLMAFDPNPADLPADRPFEDAVAATATDGFTALTAELLDTCPVRISDEGVRLELPAPATELPRLTPVPAG-GGVPLDVVRPVPFTFDLGRLLAFDPNPLRLPEDEPLEASIARTAADGFTALARELFTTCPITVDAAGVRLELPAPATVLPALHPAPEG-GGVPEVVTRPRPFSYDLGLLRAFDPNPAELPEDEPLEVSIARIAREGFTALIRELLTTCPVTVSEEGVLLELPAPATRLPSLLPAPTG-GSSPLTVSRPVPFTYDLGLGLAFDPNPLDLPEDRPLEESVSAAAAEGFTALRRRLLESCPIRVSAAGTRLELPAPRTRLPRLTPRPRG-GHMPKRVTRPVPFTYDLGLLRAFDPNPLALPADVPREEAVARTAADGFTALLDRLLTTCPVRVSREGVQLTLPAPATKLPSAEPAPTG-GSHMAEVHKPVPFTYDLGHLLAFDPNPLRLPADRPLEEAIAETAADGFTALIQELLRSCPITVSAAGVRLQLPAPATELPALTPAPEG,ERLPITVSKPTPYTFDLGHLLANDPNPLELPKSEPLNASLKATARDGVQSLLNQLLTTCPITSSQQGVLLTLPAPSTILPRHKPLPTP-ERLPITVSKPTPYTFDLGHLLANDPNPLELPKSEPLNASLKATARDGVQSLLNQLLTTCPITSSQQGVLLTLPAPSTILPRHKPLPTP-ERLPITVSKPTPYTFDLGHLLANDPNPLELPKSEPLNASLKATARDGVQSLLNQLLTTCPITSSQQGVLLTLPAPSTILPRHKPLPTP-ERLPITVSKPTPYTFDLGHLLANDPNPLELPKSEPLNASLKATARDGVQSLLNQLLTTCPITSSQQGVLLTLPAPSTILPRHKPLPTP-ERLPITVSKPTPYTFDLGHLLANDPNPLELPKSEPLNASLKATARDGVQSLLNQLLTTCPITSSQQGVLLTLPAPSTILPRHKPLPTP-ERLPITVSKPTPYTFDLGHLLANDPNPLELPKSEPLNASLKATARDGVQSLLNQLLTTCPITSSQQGVLLTLPAPSTILPRHKPLPTP-ERLPITVSKPTPYTFDLGHLLANDPNPLELPKSEPLNASLKATARDGVQSLLNQLLTTCPITSSQQGVLLTLPAPSTILPRHKPLPTP-ERLPITVSKPTPYTFDLGHLLANDPNPLELPKSEPLNASLKATARDGVQSLLNQLLTTCPITSSQQGVLLTLPAPSTILPRHKPLPTP-ERLPITVSKPTPYTFDLGHLLANDPNPLELPKSEPLNASLKATARDGVQSLLNQLLTTCPITSSQQGVLLTLPAPSTILPRHKPLPTP-ERLPITVSKPTPYTFDLGHLLANDPNPLELPKSEPLNASLKATARDGVQSLLNQLLTTCPITSSQQGVLLTLPAPSTILPRHKPLPTP,AHLFAGSLWR-AQLLAGSAFH-LHLVAGSRAF-LYLLAGSAFV-LQLYAGSAFV-AMLLAGSAVQ-ALLDFGSAHW-AFLLAGSAFH-FQLYAGQAHW-LRLLAGSAWH,LMLFSGSAWD-LMLFSGSAWD-LMLFSGSAWD-LMLFSGSAWD-LMLFSGSAWD-LMLFSGSAWD-LMLFSGSAWD-LMLFSGSAWD-LMLFSGSAWD-LMLFSGSAWD
47.0,76,86,B,10,SMPVLVEGATRVLLTKGKDVPEPVNTLLDVFHSLTYPHSFLDHSELTNISPFESTTKLEQLANEHFCGQVLYGTTDAAKPNCLIFASIYDFSVLEQVELLLLPDEEGEGIPKMTKLSDDVEIGLLPLMSFTGSAWLDKNSKTMQLLKMMLISLFKGERSTSMDVEGLTYQITCHSDEPLEGEEPIVVLRFFKLVLQESGSDQPSLTKERIGPYLRFRIGEVREAPEDVLQRALVQP-AMPTKVEGSTRVLLCQGENTPQPVLTLLSVVHSLTFPDSFLDGSELKNIEPFESTKKLEEKANENKCGMVVFGSSDSSSPNCLTLATIYDKTVLEMVQLLLLPSEDGSGIPSLSKLSDDVKRGLRPLMAFTGSAWQDSENETFQLLKRLLILLFQGETSDTMSVQGLQFMLTVHAQEPAEGVAPIIQMRFFKLVLEESGSSLPALTLKKIGPDLRFRVGKVQAAPEEVLSKALVQP-STPLLQEGAQKVLLLRGKNVPEPLLTVLDVLHSLTYPYSVLDKHELTDIEPFKSTAKLEELANENNCGQVVFGSSNEETPNCLTLAQIYNKTTLEMIQLLLQPSDDGQGIPKMTKLSDEVEEGLRPLMSFSGSAWKDEENDTFQLLKSQLISLLRGKQSSFEDEEGLTYEFTVHATSPVAGAAPVVQLRSYKLVFTPSGSTRPALTKKVIGPALSFTVGQVRQAPEDKLSEALTQP-GSPLLVEGATRTLLTRGRDVPAPLNTLLSVLHDLTYPNSVLLDDELTEIDPFVSTTTLERLANQNSCGLVAFGSSDAQRPNCLTLASIYDRKVLEMIQLLLLPDEDGEGIPEATRLSKKVRRGLRPLMAFTGSAWADSERQDFQLLKRLLILLFRGELSTFRDVSGLTYLLTVHALEPEEGVRPRIVMQAFLLVYAPSGSDSPALQLERIGPSLQFEVGELQLADEDQLSAAMVQP-GSPLGSEGQTRVLLLQGADVPQPMLTVLSVIHSLTHPHSFLLGLEQTDIQPFTSTTALESLANEHNCGLVVYGSSDAARPNCLTLASIYDTSTLEMIELLLQPSSDGSGIPVATSLSDSVKRGLRPLMAFTGAAWLDDTNRTMILLKSMLILLFQGKQSSFSSREGITYMLTVHADEPVDGAAPVIHLRSFKLVYTQSGSSTPALKLERIGPQLSFRVGQIRDAPVDVLSQALVQP-MTPLLVEGQTRVLLCRGDQVPAPLMTLLSVLHDLTYPGSVLDNEELTNIDPFVSTTLLESLANSNDCGLVVFGSSDEERPNCLILASIFDTTVLEQIELLLQPSADGTGIPDRVSLSDDVARGLRPSMVFSGEAWQDLNDDVMTLLKSQLVRLFQGESSSFEAASGRTYTLSVHAMEPEEGIEPIISMRFFKLVFEPSGSSKPRLTKEIIGPSLRFRVGQVRAADTSVLEAALIQP-SMPTLVEGATRVLLARGRDVPAPLLTVLSVLHDLTFPHSFLLREELTNIEPFASTSQLELLANENRCGLVLFGSSDAQRPNCLTLASMFDKTTLEQIELLLQPDASGQGIPAATSLSDAVARGLRPLMAFTGSAWSDRTSKEFQLLRRLLTLLLQGELSTFEAVSGLTYRWTVHAAEPTEGAAPVVTISAYLLVFAPSGTATPALTEEAIGPQLRFRLGRLREAPVEKLQAALAQP-GSPLGSEGQIRVLLTRGENVPEPLNTVLSVFHSLTFPHSVLDNTELTSIEPFKSTEELERRANENDCGLVLFGSSDNERPNCLTLASIYNTEVLEQIELLLLPAEDGVGIPARSHLSDEVQQGLRPLMLFSGEAWKNREDETFQLLKSMLVRLFKGELSDTMSASGITYMLTVHAEAPVEGSAPIVHMRFYLLRFSSSGDVLPALSKVRIGPSLRFRIGKLRKADEEVLQQAMVQP-SMPSLVEGQTKVLLLRGEDVPAPMLTILSVIHSLTYPSSVLDLAETKDIEPFRSTKELERLANENNCGLVVFGSSDSTRPNCLTLASMFDTTVLEQIELLLMPSREGKGIPAMSSLSEKVAQGLAPSLLFSGDAWLDASNSTMQLLKRQLVLLFQGEASSDTSASGITYLFEVHAAEPAAGEAPRIQLRSFQLVLKSSGSTDPKLTLVRIGPQLSFTVGRLREAPSEVLQRALQQP-HMPTLVEGQVRVLLLRGENVPTPINTVLSVLHSLTFPSSVLDLTETSNLTPFKSTTELEQLANQNNCGMVIYGSSDASRPNNLTIASIYDSSVLEMIELLLQPSESGAGIPAMTQLSNDVKRGLRPLMMFSGSRWNDAEDQTMRLLKSQLVRLLRGELSSFEDLEGVKYMFTIHAAEPEAGKAPIVQVRAYKLELKESGTVLPALTLVDIGPSLSFEVGQIRQADSDVLSKALVQP,KEPQLIEGAKRVLLLHGSKCPTPLHTVLKVFHSLTTPHSVLFHKKNENIHPFESTESLEFLANKNDCGMVIFGSSNKKRPNCLTIARIFDSKVLDMAELLLLPDANGEGIPEMNRLSMHVAIGLRPLMLFSGSAWDDTTSTTHTMLKSMLVDLFKGETSDKIDVEGLQYALMVGAEEPTAGLAPIIHLRWYKIVTKRSGHKLPRVELEEIGPKLDFKVGRIQEAPRDVMKEAMKQG-KEPQLIEGAKRVLLLHGSKCPTPLHTVLKVFHSLTTPHSVLFHKKNENIHPFESTESLEFLANKNDCGMVIFGSSNKKRPNCLTIARIFDSKVLDMAELLLLPDANGEGIPEMNRLSMHVAIGLRPLMLFSGSAWDDTTSTTHTMLKSMLVDLFKGETSDKIDVEGLQYALMVGAEEPTAGLAPIIHLRWYKIVTKRSGHKLPRVELEEIGPKLDFKVGRIQEAPRDVMKEAMKQG-KEPQLIEGAKRVLLLHGSKCPTPLHTVLKVFHSLTTPHSVLFHKKNENIHPFESTESLEFLANKNDCGMVIFGSSNKKRPNCLTIARIFDSKVLDMAELLLLPDANGEGIPEMNRLSMHVAIGLRPLMLFSGSAWDDTTSTTHTMLKSMLVDLFKGETSDKIDVEGLQYALMVGAEEPTAGLAPIIHLRWYKIVTKRSGHKLPRVELEEIGPKLDFKVGRIQEAPRDVMKEAMKQG-KEPQLIEGAKRVLLLHGSKCPTPLHTVLKVFHSLTTPHSVLFHKKNENIHPFESTESLEFLANKNDCGMVIFGSSNKKRPNCLTIARIFDSKVLDMAELLLLPDANGEGIPEMNRLSMHVAIGLRPLMLFSGSAWDDTTSTTHTMLKSMLVDLFKGETSDKIDVEGLQYALMVGAEEPTAGLAPIIHLRWYKIVTKRSGHKLPRVELEEIGPKLDFKVGRIQEAPRDVMKEAMKQG-KEPQLIEGAKRVLLLHGSKCPTPLHTVLKVFHSLTTPHSVLFHKKNENIHPFESTESLEFLANKNDCGMVIFGSSNKKRPNCLTIARIFDSKVLDMAELLLLPDANGEGIPEMNRLSMHVAIGLRPLMLFSGSAWDDTTSTTHTMLKSMLVDLFKGETSDKIDVEGLQYALMVGAEEPTAGLAPIIHLRWYKIVTKRSGHKLPRVELEEIGPKLDFKVGRIQEAPRDVMKEAMKQG-KEPQLIEGAKRVLLLHGSKCPTPLHTVLKVFHSLTTPHSVLFHKKNENIHPFESTESLEFLANKNDCGMVIFGSSNKKRPNCLTIARIFDSKVLDMAELLLLPDANGEGIPEMNRLSMHVAIGLRPLMLFSGSAWDDTTSTTHTMLKSMLVDLFKGETSDKIDVEGLQYALMVGAEEPTAGLAPIIHLRWYKIVTKRSGHKLPRVELEEIGPKLDFKVGRIQEAPRDVMKEAMKQG-KEPQLIEGAKRVLLLHGSKCPTPLHTVLKVFHSLTTPHSVLFHKKNENIHPFESTESLEFLANKNDCGMVIFGSSNKKRPNCLTIARIFDSKVLDMAELLLLPDANGEGIPEMNRLSMHVAIGLRPLMLFSGSAWDDTTSTTHTMLKSMLVDLFKGETSDKIDVEGLQYALMVGAEEPTAGLAPIIHLRWYKIVTKRSGHKLPRVELEEIGPKLDFKVGRIQEAPRDVMKEAMKQG-KEPQLIEGAKRVLLLHGSKCPTPLHTVLKVFHSLTTPHSVLFHKKNENIHPFESTESLEFLANKNDCGMVIFGSSNKKRPNCLTIARIFDSKVLDMAELLLLPDANGEGIPEMNRLSMHVAIGLRPLMLFSGSAWDDTTSTTHTMLKSMLVDLFKGETSDKIDVEGLQYALMVGAEEPTAGLAPIIHLRWYKIVTKRSGHKLPRVELEEIGPKLDFKVGRIQEAPRDVMKEAMKQG-KEPQLIEGAKRVLLLHGSKCPTPLHTVLKVFHSLTTPHSVLFHKKNENIHPFESTESLEFLANKNDCGMVIFGSSNKKRPNCLTIARIFDSKVLDMAELLLLPDANGEGIPEMNRLSMHVAIGLRPLMLFSGSAWDDTTSTTHTMLKSMLVDLFKGETSDKIDVEGLQYALMVGAEEPTAGLAPIIHLRWYKIVTKRSGHKLPRVELEEIGPKLDFKVGRIQEAPRDVMKEAMKQG-KEPQLIEGAKRVLLLHGSKCPTPLHTVLKVFHSLTTPHSVLFHKKNENIHPFESTESLEFLANKNDCGMVIFGSSNKKRPNCLTIARIFDSKVLDMAELLLLPDANGEGIPEMNRLSMHVAIGLRPLMLFSGSAWDDTTSTTHTMLKSMLVDLFKGETSDKIDVEGLQYALMVGAEEPTAGLAPIIHLRWYKIVTKRSGHKLPRVELEEIGPKLDFKVGRIQEAPRDVMKEAMKQG,ISLPRHLPVP-VRLPRTLPVP-ITLPRFLPVP-VSLPRYLPVP-VTLPRYLPVP-SNLPRTLPIP-LQLPRTLPLP-IVLPRTLPVP-LQLPRNLPIP-PRLPRYLPIP,TILPRHKPLP-TILPRHKPLP-TILPRHKPLP-TILPRHKPLP-TILPRHKPLP-TILPRHKPLP-TILPRHKPLP-TILPRHKPLP-TILPRHKPLP-TILPRHKPLP
