contacts,cs,ce,Chain,Length,designed_receptor_seq,native_receptor_seq,designed_binder_seq,native_binder_seq
18.0,51,61,A,10,MPDSSVITKEELKGKCEEIIGKVEKESKVKLDGPVVKPE-MPDSSIITKEELKGRWEEIVNKVEKESKVKLDGPVVKPE-APDSSVITKEELKGKCEEIIGKVEKESKVKLDGPVVKPE-MPDSSVITKEELKGRWEEIINKVEKESKVKLDGPVVKPE-MPDSDVITKEELKGKWEEKIKKIEEESKVKLDGPVVKPE-MPDSDVITKEELKGRWEEKMRKIREESKVKLDGPVVKPE-MPDSDIITKEELKGKCEEIINKIEKESKVKLDGPVFKPE-MPDSDVITKEELKGLWEKIIGEVEKNSKIKLDGPVVKPE-MPDSDVITKEELKGKCEEIIGKVEKESKVKLDGPVVKPE-APDSDIITKEELKGKWEEIMNKIEKESKVKLDGPVVKPE,SPDSAKISKEQLKKLHSNILNEIFSQSQVNKPGPLTVPF-SPDSAKISKEQLKKLHSNILNEIFSQSQVNKPGPLTVPF-SPDSAKISKEQLKKLHSNILNEIFSQSQVNKPGPLTVPF-SPDSAKISKEQLKKLHSNILNEIFSQSQVNKPGPLTVPF-SPDSAKISKEQLKKLHSNILNEIFSQSQVNKPGPLTVPF-SPDSAKISKEQLKKLHSNILNEIFSQSQVNKPGPLTVPF-SPDSAKISKEQLKKLHSNILNEIFSQSQVNKPGPLTVPF-SPDSAKISKEQLKKLHSNILNEIFSQSQVNKPGPLTVPF-SPDSAKISKEQLKKLHSNILNEIFSQSQVNKPGPLTVPF-SPDSAKISKEQLKKLHSNILNEIFSQSQVNKPGPLTVPF,YVYEKDGVKC-YVYEKDGVKL-KKYCKDGVCL-YVYCKDGVCL-YVYEKDGVKL-FVYCEDGVCL-FVYCKDGICL-YKFCKDGVCL-YKYCKDGICL-YKYCKDGVCL,HLYKRNDITL-HLYKRNDITL-HLYKRNDITL-HLYKRNDITL-HLYKRNDITL-HLYKRNDITL-HLYKRNDITL-HLYKRNDITL-HLYKRNDITL-HLYKRNDITL
23.0,0,10,B,10,SVLGTIRFDNNGNVVSSTGVGSQRLSDISTLSSVSLDSNGYAITSGGNLKEHLYTSNNITTVVYTND-SVLGTIRFDDAGNVVSSTGVGSQRLSDISALSAVSLDADGYAITSGGDVKEHLYTANGVTTVVYTND-MILGTIKFDNNGDVVSSTGVGSERLSDISTLSSVTLDSEGYAIVSGGDVKEHLYTANDITTVVYTND-SVLGTIRFDEKGNVVSATGVGKERLDDIKALSAVKLDKDGFAIVSKGDLKEHLFKKDGITTVVYTND-SVLGTIRFDENGNVVSSTGVGSQRLSDISALSAVKLDSEGYAIVSGGDVKEHLYKKDGITTVVYTND-SVLGTIRFDDAGNVVSSTGVGSQRLSDIGALSAVTLDADGYAITSGGDVREHLYTANGVTTVVYTNP-SILGTIKFDNNGNVVSSTGVGSQRLSDISTLSSVTLDSSGYAIVSGGNLKEHLYTSNNITTVVYTNN-SILGTIKFDDNGNVVSSTGVGSQRLSDISSLSSVSLDSKGYAITSSGDLKEHLYKSNNITTVVYTNS-SILGTISFDNNGDVVSSTGVGSERLDDISKLSSVKLDSKGYAIVSDGDLKEHLYTKDNITLVVYTND-SVLGTIRFDDAGNVVSATGVGAQRLDDIGALSAVTLDADGFAITSGGDVRQHLFTANGVTTVVYTNA,DIKGTIAFDTHGNVIESTGVGSQRIEDIGDLSKVTLDAEGFAQVQGDSLLVHLYKRNDITLAVYTSA-DIKGTIAFDTHGNVIESTGVGSQRIEDIGDLSKVTLDAEGFAQVQGDSLLVHLYKRNDITLAVYTSA-DIKGTIAFDTHGNVIESTGVGSQRIEDIGDLSKVTLDAEGFAQVQGDSLLVHLYKRNDITLAVYTSA-DIKGTIAFDTHGNVIESTGVGSQRIEDIGDLSKVTLDAEGFAQVQGDSLLVHLYKRNDITLAVYTSA-DIKGTIAFDTHGNVIESTGVGSQRIEDIGDLSKVTLDAEGFAQVQGDSLLVHLYKRNDITLAVYTSA-DIKGTIAFDTHGNVIESTGVGSQRIEDIGDLSKVTLDAEGFAQVQGDSLLVHLYKRNDITLAVYTSA-DIKGTIAFDTHGNVIESTGVGSQRIEDIGDLSKVTLDAEGFAQVQGDSLLVHLYKRNDITLAVYTSA-DIKGTIAFDTHGNVIESTGVGSQRIEDIGDLSKVTLDAEGFAQVQGDSLLVHLYKRNDITLAVYTSA-DIKGTIAFDTHGNVIESTGVGSQRIEDIGDLSKVTLDAEGFAQVQGDSLLVHLYKRNDITLAVYTSA-DIKGTIAFDTHGNVIESTGVGSQRIEDIGDLSKVTLDAEGFAQVQGDSLLVHLYKRNDITLAVYTSA,SSDSSSISKY-SSDSSAVSKN-SSDSSSVSKS-APDSKLVPKK-SSDSSAISKK-APDSSLVPKS-SSDSSSISKS-SSDSSSISKS-YPDSDLVSKD-APDSAAVPKR,SPDSAKISKE-SPDSAKISKE-SPDSAKISKE-SPDSAKISKE-SPDSAKISKE-SPDSAKISKE-SPDSAKISKE-SPDSAKISKE-SPDSAKISKE-SPDSAKISKE
