contacts,cs,ce,Chain,Length,designed_receptor_seq,native_receptor_seq,designed_binder_seq,native_binder_seq
35.0,2,12,A,10,GSGSDACLIRCHAFATSLPRSSVRHYLLRERSCGLEAIIIRTKKNSFFCADPSMEWVNALLKAVHKR-DEGDNTCNITCGSFVKSIPLNDVKKYTEREKECGKEAIIVETKYNEFYCLNPEAASVRNLMKAIGDG-ETGSSECMIQCENFLKCVPKDVVKRYDFNLRSCGHKAVIITTKNNRKFCADPALDWVSELVEAIQNG-DVGRRSCIISCGEYMECIPLDELAEFAALETSCGSRTIELTTTANQHYCLDPANLDAESLKKRLALD-SCGNTDCRYSCEAYIYSLPLDSYRQYVLAEDLCGNDVVLLLTKDNQFYCANPNDEVISQVVIEINRR-DDGVLKCYTACDSFVLKLPMDKIKKYSNEDMDCGAEVILLETTNTDLYCHDPNTQEVKQLLKRIRRK-PEGDDFCVTECIGFMEIFPEQNAESYMSLEDDCGDEAEIVKTKTDKYFCANPNTAKTARLLMKLLKQ-VEGKHTCRIICKDYIKIFPADSIERFEFSHLTCGQVAVLIETKDNNLFCADPQDTRVNSLLQHVRVN-EEGHEKCSVRCREFRRYLPMMSAKRYEVKEKACGVLAVILMDKDDSFWCVDPNDIRVESLIRILDKL-AVGSQTCEIECNRVISQLPLTGFSQFVTAEEDCGDDVIIIKTTDSVFYCADPKQSWVQQTLLTISRN,HHGVTKCAITCSKMTSKIPVALLIHYQQNQASCGKRAIILETRQHRLFCADPKEQWVKDAMQHLDRQ-HHGVTKCAITCSKMTSKIPVALLIHYQQNQASCGKRAIILETRQHRLFCADPKEQWVKDAMQHLDRQ-HHGVTKCAITCSKMTSKIPVALLIHYQQNQASCGKRAIILETRQHRLFCADPKEQWVKDAMQHLDRQ-HHGVTKCAITCSKMTSKIPVALLIHYQQNQASCGKRAIILETRQHRLFCADPKEQWVKDAMQHLDRQ-HHGVTKCAITCSKMTSKIPVALLIHYQQNQASCGKRAIILETRQHRLFCADPKEQWVKDAMQHLDRQ-HHGVTKCAITCSKMTSKIPVALLIHYQQNQASCGKRAIILETRQHRLFCADPKEQWVKDAMQHLDRQ-HHGVTKCAITCSKMTSKIPVALLIHYQQNQASCGKRAIILETRQHRLFCADPKEQWVKDAMQHLDRQ-HHGVTKCAITCSKMTSKIPVALLIHYQQNQASCGKRAIILETRQHRLFCADPKEQWVKDAMQHLDRQ-HHGVTKCAITCSKMTSKIPVALLIHYQQNQASCGKRAIILETRQHRLFCADPKEQWVKDAMQHLDRQ-HHGVTKCAITCSKMTSKIPVALLIHYQQNQASCGKRAIILETRQHRLFCADPKEQWVKDAMQHLDRQ,PPQCSPILEF-DPNAKPYYHW-PPTSVPRIFK-PPDAIPEDHS-PPTAAPVVFD-EPDCTPKRFW-MPLCVPQYHC-DPKSHPKLFQ-GPKCVPKVFR-PPTAVPRLRH,DEDATPCVFT-DEDATPCVFT-DEDATPCVFT-DEDATPCVFT-DEDATPCVFT-DEDATPCVFT-DEDATPCVFT-DEDATPCVFT-DEDATPCVFT-DEDATPCVFT
30.0,3,13,B,10,NEPISSIPCVFQEELDQSLPYITALNGLVFSLGVLGNFLVIWNKTLVRRVQASGDVVFINLAMAALLYHVTLPVFTAYQYHHYPCAAITMMFWVSWFAALNVLMMHATLRLRAVIYHIHFPIREARLYSICLWLLSVVFSVPFFWAVTEVNQTCSVNVESLDTTYPQFMGLMAIVGGFVIPMGVITFAYYKISSAIDKSNLKDKGQAVQINRLVIYVFIVYQCPHFLTQAVWLASMWSLIDTSESLRNNLHVSWVTMSSLMALFSCLCPFLFVFAHRESRVEMIMLLQQII-SLPEDCEPIDFTEELAQVKPYCEKIFGIVFSLGLLGNFFVIYDKIFLERVQKAGDVVLINLAYSALLFNLTLPVWTYYSKAPYPCTALEAFFWISSIATCFHLILMAVIRLQAVRFKKHMPVEKAWLIALLMWIAAAIYAVPYWLAVHEQRDLCQIDISTLKAQYPRLRNMYLIFGFLIVPFSIITVCYYIISSFVEKSQSSDSGMYVQVNLLIIFIFVVSWLPYFVTYAYVLAVWWEWRSCSAAEARRLNVSLRVTSLLSTLLSCVYPLLFCFVNQDNRRRMLEILRARN-GWPELLEPVRLDQHLRNAFPIRLFIYGFVSLFGTLGNTFVILTILAYRKIRRAGDVFLVNLALASLLFNLTLPVFTAYAYASFPCRATQMLYWVAWIACLMFMMERALSQYTAVLRHRDMPVRRAYLYAVLWWLASVFVAYPYYHYVEADDDECVVNLEQLDSSYPLIQGLLLIMGQYAIPLMVMSWAYWQINQHIRSSSLSDKGAAVSKLKRIIQVFIVFNLPFFLTLVTYSASLAQWVSETDTVYELLYIALILNSSLAATFTCVTPVLFVFETASHRQAWELLVAATW-STPDSSAPVSLERELALAKPYTSLVWGVVTLFGSWGNYMVIHSILSEEDIKKAGDVVLVNLALAALLFNLTFPLYVAYDVSHFPCLWTEALFWISWIAGGGFVTQHALTRLLAVKYQWRIPVKRARVIAVWLWLLALFYAVPYFYFVHEQDNECIVDYETLEQSYPMFKNLLLILGSLIIPVLITTFAYYQISKLISISESSRRGNMVWVNVTIIAQFIVTQVPYHLSLIVKLAALLQWIDTTSSFMRALHFSLQFTFQVSYFQFVLFPFLFSFVNTENRFRLFKLARRHE-MKPQDERPCILRREISEARPFIIALQGVVSLFGIFGNLLVIYTKTVKRRIRHSGDVYSINMALASLLYNLTLPVFTLYLLHNFPCKLVTMLYWVSFIATNFFNMAMALQRLFAIIFQKKTPVKTAHRIAIFLWIAAILFSVPFFTTVYEDKEECVVDLTKLDESYPIALGVLLIIGYFVIPYAIITYCYYKISKEIERSESDEKGEAVNRKRLIIRTFAICWAPFFIMYIVSLARRWEFIQASCEFSQWLYVAFRVFTALSAIYTVLDPLLFTFTDHYHQNELFDIIMRIM-SMPDYSHPTYFTDELNDVKPIRDLIFGIVFLLGTFGNFLVIYTIVWNRQVRNSGDVVLINLAVSSLCFTSTLPVYTLYMKTTFPCTQTMALRYVSYLATLNFTIWMALIRFLAVTAEMKIPREWAVVWAILLYLAAIVQSLPYFNAVKLVNNICMIDWSKLNYSYPEMSMLLSMVGYFVIPFLIVSCCFGCISLKVSKSEFEDKGTTVQKLLTVILIHAVFNLPYFITLAFKLAALRSWIDTTASAAQFEFVAMEITGSLALVYSCCQPLLFAFDQHSNQDQLRHQFNKIL-GIPSMAKPVVFAQQIQDITPYTLFIFGFVFAFGSLGNWLVIRSIVTRSHIQRAGDVISVNLAAAALLFALMLPLFSVYLICDFPCTAMAAFFFISYIALIGFLMEHAIVRLRATEFAFNVPTREAWAVAIFLWVLSLIYSIPFFCSVHNQHNLCVVDYNSLSSEVPQKQGLLDILGTFIIPYLIITLAYGLISYKVWTSKATHRGRAVLSLVLIILIFFVFQAPYYFTKIVNLLTLTSNIYATADVLGKLQTAHIITFQLAAVYACFIPFLFVFAERRNQLRLCRLTTDIA-MTNSFATPCTFQTQINSAAPYVTLVMGVVTLFGAIGNALVIRVITKNGKIVTSGDVIAVNLAVACLLFVLTLPIYVMYMLADFPCHATAFFYWWSFIATSMFFVMQALVRLTRTVVEIDFPVTVARVLSVLLWIAATFYSYPFWYAVTDENNVCTIRWDTLSIWYPILLGLINIVGLLVVPLAVVTYAFGRISQQVRESVYLDAGRTVNINITVIKTFLVFNLPLHMTQAVFIAALYDWISVTCEQAQFLQVLFIYTSVLAAVYVCLTPFLFVFTQNRNRLALSKQLAARS-MLPDKDKPIIFRRELEAARPFTLLIFGIVFAYGLVGNFLVIRTITKGRKIRRAGDVVMVNLAAAALLHTSTLPLWASYMWKEIPCSFLAACWFVASIASLFFVTCQAILRFTAVSEKIVIPVSMARRIAIALWIAAFMSAVPYFLVVDERKGVCEVRYSELSESYPIIKGAVSIVGMLFIPMLVMSAAYFSISRMVKVSDRKDAGQQVMINIKIVTVFIIFYLPYFATRLVSILAMDHRIEVDALLMRFLFVASLLTGKLADIYTTACPFLFTFVYNDDRVTLSEQLLAKK-SNALEAEPCIFSKEIEAVKPITSLFLGVVWLLGFLGNCFVIWSIMTKNRISNAGDVVAVNTALASLLFVSTFPIFQAYMVYYYPCKLEEMMFHLAFVASLMFICERAIVRLRAVVWNVHIPVEKARIFSILHYLLAFAVSIPFFLAVYLVDDVCVVERSTLSVSYPQIRGLAYIVGQLLIPLTIIFLAYQSINRQVSKSNLSFKGDIVKANILIIVVFIIMHVPYFITHTVSLLVLWKYIDATCHKKRVIFTLNLITSRLALTYCCLIPLLFTFVTSNNRRQLENLTTEIL,DYDEDATPCVFTDVLNQSKPVTLFLYGVVFLFGSIGNFLVIFTITWRRRIQCSGDVYFINLAAADLLFVCTLPLWMQYLLDSVPCTLLTACFYVAMFASLCFITEIALDRYYAIVYMRYRPVKQACLFSIFWWIFAVIIAIPHFMVVTKKDNQCMTDYDYLEVSYPIILNVELMLGAFVIPLSVISYCYYRISRIVAVSQSRHKGRIVRVLIAVVLVFIIFWLPYHLTLFVDTLKLLKWISSSCEFERSLKRALILTESLAFCHCCLNPLLYVFVGTKFRQELHCLLAEFR-DYDEDATPCVFTDVLNQSKPVTLFLYGVVFLFGSIGNFLVIFTITWRRRIQCSGDVYFINLAAADLLFVCTLPLWMQYLLDSVPCTLLTACFYVAMFASLCFITEIALDRYYAIVYMRYRPVKQACLFSIFWWIFAVIIAIPHFMVVTKKDNQCMTDYDYLEVSYPIILNVELMLGAFVIPLSVISYCYYRISRIVAVSQSRHKGRIVRVLIAVVLVFIIFWLPYHLTLFVDTLKLLKWISSSCEFERSLKRALILTESLAFCHCCLNPLLYVFVGTKFRQELHCLLAEFR-DYDEDATPCVFTDVLNQSKPVTLFLYGVVFLFGSIGNFLVIFTITWRRRIQCSGDVYFINLAAADLLFVCTLPLWMQYLLDSVPCTLLTACFYVAMFASLCFITEIALDRYYAIVYMRYRPVKQACLFSIFWWIFAVIIAIPHFMVVTKKDNQCMTDYDYLEVSYPIILNVELMLGAFVIPLSVISYCYYRISRIVAVSQSRHKGRIVRVLIAVVLVFIIFWLPYHLTLFVDTLKLLKWISSSCEFERSLKRALILTESLAFCHCCLNPLLYVFVGTKFRQELHCLLAEFR-DYDEDATPCVFTDVLNQSKPVTLFLYGVVFLFGSIGNFLVIFTITWRRRIQCSGDVYFINLAAADLLFVCTLPLWMQYLLDSVPCTLLTACFYVAMFASLCFITEIALDRYYAIVYMRYRPVKQACLFSIFWWIFAVIIAIPHFMVVTKKDNQCMTDYDYLEVSYPIILNVELMLGAFVIPLSVISYCYYRISRIVAVSQSRHKGRIVRVLIAVVLVFIIFWLPYHLTLFVDTLKLLKWISSSCEFERSLKRALILTESLAFCHCCLNPLLYVFVGTKFRQELHCLLAEFR-DYDEDATPCVFTDVLNQSKPVTLFLYGVVFLFGSIGNFLVIFTITWRRRIQCSGDVYFINLAAADLLFVCTLPLWMQYLLDSVPCTLLTACFYVAMFASLCFITEIALDRYYAIVYMRYRPVKQACLFSIFWWIFAVIIAIPHFMVVTKKDNQCMTDYDYLEVSYPIILNVELMLGAFVIPLSVISYCYYRISRIVAVSQSRHKGRIVRVLIAVVLVFIIFWLPYHLTLFVDTLKLLKWISSSCEFERSLKRALILTESLAFCHCCLNPLLYVFVGTKFRQELHCLLAEFR-DYDEDATPCVFTDVLNQSKPVTLFLYGVVFLFGSIGNFLVIFTITWRRRIQCSGDVYFINLAAADLLFVCTLPLWMQYLLDSVPCTLLTACFYVAMFASLCFITEIALDRYYAIVYMRYRPVKQACLFSIFWWIFAVIIAIPHFMVVTKKDNQCMTDYDYLEVSYPIILNVELMLGAFVIPLSVISYCYYRISRIVAVSQSRHKGRIVRVLIAVVLVFIIFWLPYHLTLFVDTLKLLKWISSSCEFERSLKRALILTESLAFCHCCLNPLLYVFVGTKFRQELHCLLAEFR-DYDEDATPCVFTDVLNQSKPVTLFLYGVVFLFGSIGNFLVIFTITWRRRIQCSGDVYFINLAAADLLFVCTLPLWMQYLLDSVPCTLLTACFYVAMFASLCFITEIALDRYYAIVYMRYRPVKQACLFSIFWWIFAVIIAIPHFMVVTKKDNQCMTDYDYLEVSYPIILNVELMLGAFVIPLSVISYCYYRISRIVAVSQSRHKGRIVRVLIAVVLVFIIFWLPYHLTLFVDTLKLLKWISSSCEFERSLKRALILTESLAFCHCCLNPLLYVFVGTKFRQELHCLLAEFR-DYDEDATPCVFTDVLNQSKPVTLFLYGVVFLFGSIGNFLVIFTITWRRRIQCSGDVYFINLAAADLLFVCTLPLWMQYLLDSVPCTLLTACFYVAMFASLCFITEIALDRYYAIVYMRYRPVKQACLFSIFWWIFAVIIAIPHFMVVTKKDNQCMTDYDYLEVSYPIILNVELMLGAFVIPLSVISYCYYRISRIVAVSQSRHKGRIVRVLIAVVLVFIIFWLPYHLTLFVDTLKLLKWISSSCEFERSLKRALILTESLAFCHCCLNPLLYVFVGTKFRQELHCLLAEFR-DYDEDATPCVFTDVLNQSKPVTLFLYGVVFLFGSIGNFLVIFTITWRRRIQCSGDVYFINLAAADLLFVCTLPLWMQYLLDSVPCTLLTACFYVAMFASLCFITEIALDRYYAIVYMRYRPVKQACLFSIFWWIFAVIIAIPHFMVVTKKDNQCMTDYDYLEVSYPIILNVELMLGAFVIPLSVISYCYYRISRIVAVSQSRHKGRIVRVLIAVVLVFIIFWLPYHLTLFVDTLKLLKWISSSCEFERSLKRALILTESLAFCHCCLNPLLYVFVGTKFRQELHCLLAEFR-DYDEDATPCVFTDVLNQSKPVTLFLYGVVFLFGSIGNFLVIFTITWRRRIQCSGDVYFINLAAADLLFVCTLPLWMQYLLDSVPCTLLTACFYVAMFASLCFITEIALDRYYAIVYMRYRPVKQACLFSIFWWIFAVIIAIPHFMVVTKKDNQCMTDYDYLEVSYPIILNVELMLGAFVIPLSVISYCYYRISRIVAVSQSRHKGRIVRVLIAVVLVFIIFWLPYHLTLFVDTLKLLKWISSSCEFERSLKRALILTESLAFCHCCLNPLLYVFVGTKFRQELHCLLAEFR,FTQRSVYIHN-RSHNAVVFHH-FSHHDVYYMG-FSRRTVIYFG-FSKNTKFEKC-TTRQARFSYG-YTQQTTVLFG-INRTTVWNFG-DTDKEVVFRM-VCHKDVFYEG,VTKCAITCSK-VTKCAITCSK-VTKCAITCSK-VTKCAITCSK-VTKCAITCSK-VTKCAITCSK-VTKCAITCSK-VTKCAITCSK-VTKCAITCSK-VTKCAITCSK
