contacts,cs,ce,Chain,Length,designed_receptor_seq,native_receptor_seq,designed_binder_seq,native_binder_seq
19.0,21,31,A,10,MILRWIYFWEVIKDMLLVQKELSLDEIYQHLIKHVKYGPAKFDLNKKGLRNFLEVAVQKKLLVFKNGRYLLP-MLERWLFFWREIVRLLKVEKRASLEEIYEKLQKYVVYGPQKARLEKKELKNFLEELVKRELLVFENGVYRLP-KELRWRYVWEVIIRMLRVLKELSLDEIYEQLKRFVEYGPARFHLEKKELERFLEEAVKKELLVFENGRYKLP-SNARWVYIWNVIVDMLKVQKHLTLDEIYNQLQKYVKYGPAKYDLDIISLRNFLNRAVKEKRLVFKNGRYYLP-MRRRWALFYLYIVQLLTVQKEASLEEIYQALQRFVKFGPANAELEKKELERFLELLVRERLLVFRGGKYRLP-MLERWLFIWQVIVNLLMVQKEASLDQIFQALQRDVKFGPQDFDLNRRQLHNFLTQLVREKALVYKNGKYLLP-DKFRWELIWQVIVDMLQVQKELSLDDIFEQLQKYVKYGPARFELNKKQLKQFLERAVELELLEFRDGKYFLP-GSHMWQFIEHEIINQLRELKELSLEEIYEQLIKYVTYGPEQFELEKEQLKNFLERLVKEKKLVFEDGKYKLP-SNARWDYVWSVIVNMLKVQKSLSLDEIYNKLQKYVKYGPENFELKKDELKNFLTEKVKNKELVFKNGKYYLP-DHEKWEFIWEVIEDMLKVQKEMSLDEIYKNLIKYVKYGPMRYELRRASLQRFLRRAVEKEKLIYENGVYKLP,KEEELLLFWTYIQAMLTNLESLSLDRIYNMLRMFVVTGPALAEIDLQELQGYLQKKVRDQQLVYSAGVYRLP-KEEELLLFWTYIQAMLTNLESLSLDRIYNMLRMFVVTGPALAEIDLQELQGYLQKKVRDQQLVYSAGVYRLP-KEEELLLFWTYIQAMLTNLESLSLDRIYNMLRMFVVTGPALAEIDLQELQGYLQKKVRDQQLVYSAGVYRLP-KEEELLLFWTYIQAMLTNLESLSLDRIYNMLRMFVVTGPALAEIDLQELQGYLQKKVRDQQLVYSAGVYRLP-KEEELLLFWTYIQAMLTNLESLSLDRIYNMLRMFVVTGPALAEIDLQELQGYLQKKVRDQQLVYSAGVYRLP-KEEELLLFWTYIQAMLTNLESLSLDRIYNMLRMFVVTGPALAEIDLQELQGYLQKKVRDQQLVYSAGVYRLP-KEEELLLFWTYIQAMLTNLESLSLDRIYNMLRMFVVTGPALAEIDLQELQGYLQKKVRDQQLVYSAGVYRLP-KEEELLLFWTYIQAMLTNLESLSLDRIYNMLRMFVVTGPALAEIDLQELQGYLQKKVRDQQLVYSAGVYRLP-KEEELLLFWTYIQAMLTNLESLSLDRIYNMLRMFVVTGPALAEIDLQELQGYLQKKVRDQQLVYSAGVYRLP-KEEELLLFWTYIQAMLTNLESLSLDRIYNMLRMFVVTGPALAEIDLQELQGYLQKKVRDQQLVYSAGVYRLP,STSFPRGGLD-EVSFPEGEVE-KSWFPKGGEE-AYSFPEGGEK-SFSFPEGGER-AYSYPISGGR-FSTFPVGGEL-EFWFPKGGSE-RVSFPVGKKS-KFSFPRGKKE,ISAFPESDNL-ISAFPESDNL-ISAFPESDNL-ISAFPESDNL-ISAFPESDNL-ISAFPESDNL-ISAFPESDNL-ISAFPESDNL-ISAFPESDNL-ISAFPESDNL
24.0,9,19,B,10,GPEARRLQRDLQNLLDSGEEGISAYPEGDSLFRWTGVIEGKPGTVYEGLTFKLSLEFPEGYPFKAPKVRFLTPCFHPNVDSSGGICLDILRDQWSPALNVQAVLLSIQSLLGSPNLDTPLNVEAAELWSDPEAFQSYLRENYAKA-GPMAKRLMKDLQELLDSGEEGISAFPRGDSMFEWIGKIEGGEGTVYEGLTFKLSLKFPDGYPFKAPKVKFITPCFHPNVDSNGSICLDILRDKWSPAYNVTTILLSIQGLLGSPNLDTPLNVEAAKLWADKEKFRTFLVSNYQKN-GPEKKRLQKDLLELLRAGESGISAYPDGSSLFEWTGLIEGSEGTVYEGLTYKLSLVFPDGYPFKAPKVRFLTPCFHPNVDSDGNICLDILREKWSPTLNVETILLSIQNLLGEPNLDSPLNVEAAKLWKDPEKFKEFLQENYKKY-GPAERRLKQDLQNLLESGEEGVSAYPDGSSLFRWIGVIEGGAGTVYEGLTFKLSLEFPDGYPYKAPKVRFLTPCFHPNVGTDGSICLDILRERWSPALDVLSILLSIQSLLSEPNLDSPLNVEAAKLWSDPEAFERFLRENYRKY-SPEARRLRQELQELLDAGAEGVAAYPKGESMFEWIGVIEGSPGTVYEGLTFKLSLEFPEGYPFKAPKVRFITPCFHPNVDATGGICLDILREKWSPVYKVIHILLSIQNLLSQPNLKEPLNVEAANLWSNPTAFQRYLRENYKKN-SPEARRLQKELQDLLDSGEEGVSAYPKGSSLFEWTGVIEGGAGTVYEGLRYKLSLKFPEGYPFKAPKVKFLTPCFHPNVGPDGSICLDILKEKWSPALKVLHILLSIQSLLGEPNLETPLNVEAAELWKNPEQFRKYLVENYKKN-GPMAKRLQKELQELLDSGEDGIAAYPEGDSLFKWIGVIEGSPGTVYEGLTYKLSLEFPAGYPFKAPKVKFITPCFHPNVNNQGGICLDILKDKWSPALKVIHILQSIQSLLGEPNLDDPLNVEAANLWKDQKKFQTYLRENYKKH-GPEAARLRRELQELLDAGDAGVAAWPDGASLFRWTGVIEGSEGTVYEGLRFRLSLEFPEGYPFKAPRVRFLTPCFHPNVDSQGRICLDILKDAWSPALQVLHILLSIQSLLGSPNLDTPLNVEAAELWSDQEAFEAFLRSTYQAS-GPAARRLLKDLQELLDAGDAGVAAFPRGDSLYQWTGLIHGSEGTVYEGLTFKLSLVFPPGYPFKAPKVRFLTPCFHPNVDTSGSICLDILRDQWSPALDVKTILLSIQNLLGEPNLEDPLNVEAAQLWANREEFQKYLRENYEKF-SAAAKRLQRDLQDLLQSGEDGISAWPRGDSLFEWIGLIHGEPGTVYEGLSYKLSLKFPEGYPFKAPKVKFITPCFHPNVDVNGSICLDILKDDWSPALKVLDILLSIQSLFGSPNLETPLNVEAAKLWSNPEAFKKTLTENYKKN,GPVGKRLQQELMTLMMSGDKGISAFPESDNLFKWVGTIHGAAGTVYEDLRYKLSLEFPSGYPYNAPTVKFLTPCYHPNVDTQGNICLDILKEKWSALYDVRTILLSIQSLLGEPNIDSPLNTHAAELWKNPTAFKKYLQETYSKQ-GPVGKRLQQELMTLMMSGDKGISAFPESDNLFKWVGTIHGAAGTVYEDLRYKLSLEFPSGYPYNAPTVKFLTPCYHPNVDTQGNICLDILKEKWSALYDVRTILLSIQSLLGEPNIDSPLNTHAAELWKNPTAFKKYLQETYSKQ-GPVGKRLQQELMTLMMSGDKGISAFPESDNLFKWVGTIHGAAGTVYEDLRYKLSLEFPSGYPYNAPTVKFLTPCYHPNVDTQGNICLDILKEKWSALYDVRTILLSIQSLLGEPNIDSPLNTHAAELWKNPTAFKKYLQETYSKQ-GPVGKRLQQELMTLMMSGDKGISAFPESDNLFKWVGTIHGAAGTVYEDLRYKLSLEFPSGYPYNAPTVKFLTPCYHPNVDTQGNICLDILKEKWSALYDVRTILLSIQSLLGEPNIDSPLNTHAAELWKNPTAFKKYLQETYSKQ-GPVGKRLQQELMTLMMSGDKGISAFPESDNLFKWVGTIHGAAGTVYEDLRYKLSLEFPSGYPYNAPTVKFLTPCYHPNVDTQGNICLDILKEKWSALYDVRTILLSIQSLLGEPNIDSPLNTHAAELWKNPTAFKKYLQETYSKQ-GPVGKRLQQELMTLMMSGDKGISAFPESDNLFKWVGTIHGAAGTVYEDLRYKLSLEFPSGYPYNAPTVKFLTPCYHPNVDTQGNICLDILKEKWSALYDVRTILLSIQSLLGEPNIDSPLNTHAAELWKNPTAFKKYLQETYSKQ-GPVGKRLQQELMTLMMSGDKGISAFPESDNLFKWVGTIHGAAGTVYEDLRYKLSLEFPSGYPYNAPTVKFLTPCYHPNVDTQGNICLDILKEKWSALYDVRTILLSIQSLLGEPNIDSPLNTHAAELWKNPTAFKKYLQETYSKQ-GPVGKRLQQELMTLMMSGDKGISAFPESDNLFKWVGTIHGAAGTVYEDLRYKLSLEFPSGYPYNAPTVKFLTPCYHPNVDTQGNICLDILKEKWSALYDVRTILLSIQSLLGEPNIDSPLNTHAAELWKNPTAFKKYLQETYSKQ-GPVGKRLQQELMTLMMSGDKGISAFPESDNLFKWVGTIHGAAGTVYEDLRYKLSLEFPSGYPYNAPTVKFLTPCYHPNVDTQGNICLDILKEKWSALYDVRTILLSIQSLLGEPNIDSPLNTHAAELWKNPTAFKKYLQETYSKQ-GPVGKRLQQELMTLMMSGDKGISAFPESDNLFKWVGTIHGAAGTVYEDLRYKLSLEFPSGYPYNAPTVKFLTPCYHPNVDTQGNICLDILKEKWSALYDVRTILLSIQSLLGEPNIDSPLNTHAAELWKNPTAFKKYLQETYSKQ,KAKLLRETCH-KAKAAFLDCH-LEARFRSLCL-RAVEMFERCN-QAAALYRRCN-PAEESLRRCL-KEVKMYLKCN-RARALRELCL-KALKLFRDCN-KEKESFETCH,TYIQAMLTNL-TYIQAMLTNL-TYIQAMLTNL-TYIQAMLTNL-TYIQAMLTNL-TYIQAMLTNL-TYIQAMLTNL-TYIQAMLTNL-TYIQAMLTNL-TYIQAMLTNL
