contacts,cs,ce,Chain,Length,designed_receptor_seq,native_receptor_seq,designed_binder_seq,native_binder_seq
19.0,96,106,A,10,GSNISGITKPAIRQIARRGGVKRIGHGAFELLRTCLKSFLRDVLGDASLFCRHAKRRTITARDVQLALRRS-ARELKQITRPAIRKLARKGGVKKMGAGVFKVLRTALKNGVNDIVGLAINYAKHSKRTTITSKDVQLAVRRA-GAGSEGITKPAIKLLARRGGVKRIGAGSVALLRGVLMSFVKDIVGRAIRFALHAKRKTISPDDVKLAVRMT-MAGVTGITTPAIFRLLRRGGVKRVGAGTVKIAQVLLKSFLERIVRDATLFAHHAKRKTITPKDVQLAIVRH-GMISAHITKPAIIRLARQGGVKRIGAGVFEDTRGVLKVFLENILRDAVLYMTHAKRKTITAMDVKYAVARS-GTRIEKISKPAILRLARRGGVKRISGNVFSVARSFLKIFLQSVIRDSVTFARHAKRSTITRGDVVYALKRQ-MRGIDAITKPAILKLARSGGVKKVGSGAFEVFRVALKHFLEMVAGNANRYARHAKRTTITLRDVVLALRRE-GHGTKGITKPAIIRLARRGGVKRISGLVFEATRGVLKVFLENIAGDAIRYCRHAKRKTITKGDIQYAVRRS-SRKQDRFTKPAIRKLARQGGVKRIGAGAYELTRVLLKNILERIIRQAVKYCEHAKRKTVNTLDVRYALRKL-MSQIENVTKPAIKALAREGGVERIGAGAFSVVRSVLKAFLENVATEAAKFARHARRKTITSGDVKYALRLA,RDNIQGITKPAIRRLARRGGVKRISGLIYEETRGVLKVFLENVIRDAVTYTEHAKRKTVTAMDVVYALKRQ-RDNIQGITKPAIRRLARRGGVKRISGLIYEETRGVLKVFLENVIRDAVTYTEHAKRKTVTAMDVVYALKRQ-RDNIQGITKPAIRRLARRGGVKRISGLIYEETRGVLKVFLENVIRDAVTYTEHAKRKTVTAMDVVYALKRQ-RDNIQGITKPAIRRLARRGGVKRISGLIYEETRGVLKVFLENVIRDAVTYTEHAKRKTVTAMDVVYALKRQ-RDNIQGITKPAIRRLARRGGVKRISGLIYEETRGVLKVFLENVIRDAVTYTEHAKRKTVTAMDVVYALKRQ-RDNIQGITKPAIRRLARRGGVKRISGLIYEETRGVLKVFLENVIRDAVTYTEHAKRKTVTAMDVVYALKRQ-RDNIQGITKPAIRRLARRGGVKRISGLIYEETRGVLKVFLENVIRDAVTYTEHAKRKTVTAMDVVYALKRQ-RDNIQGITKPAIRRLARRGGVKRISGLIYEETRGVLKVFLENVIRDAVTYTEHAKRKTVTAMDVVYALKRQ-RDNIQGITKPAIRRLARRGGVKRISGLIYEETRGVLKVFLENVIRDAVTYTEHAKRKTVTAMDVVYALKRQ-RDNIQGITKPAIRRLARRGGVKRISGLIYEETRGVLKVFLENVIRDAVTYTEHAKRKTVTAMDVVYALKRQ,KLGVVACVIK-READEVIILH-IVLEKVTDLE-IAGQKLMTIR-VSPNVVLKIV-ERGVTLIALE-KEVGTVVTLE-VFGETVHLLD-GADVVLSRIL-DGLVGVIFLE,TEVGEITTDD-TEVGEITTDD-TEVGEITTDD-TEVGEITTDD-TEVGEITTDD-TEVGEITTDD-TEVGEITTDD-TEVGEITTDD-TEVGEITTDD-TEVGEITTDD
15.0,15,25,B,10,AKTIKCDTVTNKYTPVLKNLWMEPGVSNNSIRGELRAEYNCMDYKADDGKTLQVHFQNIKLAIYQPIAGHMVAVYGFFLVQPIKYNDVENSIVRFFSEASTDRFFANSEMKKLFVNFKEAVENDFYEYINKVEYMTEGKLLFEVPDQRMAFIGSPKGEIVALMPTKTALCNYDSDPPFVVLIEDIELIHFEKVRKHSQFFDAIIQFKNITKNVVAIKKIDFNKLLPVRLYLKSQDIAHSEGMKEEDWDAIQRMIAENPTGFIDNGGWSFFT-YKRGGGKEQDGLNEPMLTDLVMEPNNRAIAEAGSLIAQENCFQYISKNGYKLTVLYENIKIAGYEPCDGLNAIIFGFYLIREIVYGNDKHTEVRFYTTISTQETEGLNLLQLKKSAFIDETVNNFSNFIRKVEYMTNEHIKFEVPNANASFSGCPMGKQVTLQFTDSALVNFVNSPAFVVIIDDIKLVHFEKVASDHKMFDMVIIFKDITRDATYINQIDMKFLTPIKSLLHQNNISYTESKEQIDWEAILEKIRNNPKGFDEIGGWSIFS-DEQEEFEREGSTDAPRLRNLYCFPGWNQEPIKGSLFALHNGLEYKSASGFMLNVLFSNIAFLGYQPCEGSDKAVLGFYLEKPIVFGVKSNKEVKFCTVMKETQKTGFEVQSDRRIEKMIKIEKDFHGWIQHVEEMTDSTVRFEVPDENKAFYGKPNKEQIKLCFTKSCLISMVKFPSFVLMLKDIKMIHFEKLAPDRKFFDMIIIFKDINKAATHIKTIRIQNVNPIKMTLESFNISYTLGEKVVSWEKILKKISQDPQGYMETGGDKFLK-NGTEDANVEGGDEVPTLRELFILPSVTETKIRGSLYFHKNAFEYKSDKGVRVKILFNNIKLAGHNVHNGSGIAIFGFELKRPIKFGDKEHSQVQFLVKLKEELLDLDEEKMREIKQKKQDISAQFNQFIRAVEKHTNYAVRFEVPNVNEAFKGEPRGICIKLMWTKSALINLAVSPSTCIMKRHIKRLHFENVKEDELFFNLQIIYKDIHLEAQTIKSIAMEKLQPIKDVLKANNIRYSESQKRKNFKKMLEDISNNPIGFEARGGDKEFI-KERELSINLNAKDWPKLYELFMDPEGSREDIVGQVEAQNNSLLFWSNNGLRLTLHFDNILLANYQPSQNSDMIIFYFNLKREVMYGDKWEKDVMFSERQIEQEITSPQELEDMKKQLMKAIEEDFHAFISTVEEMTNKENKFEIPNSSFAFSGSPNSATIFLKFTSNALVNSRTSPNFIVIIEDIEMIHFENVHEDYDYFNLIITFKNIKRKVFKIRSVYMKALDPIKMMLDSMRITYSESRSKKDYEKLLNYIFADPEGFRREGGLKIFG-MGRSRLKRSDGRNQPALTDLIIYPPFDDRRTRGNLFAHENGLEYQAQDGFQLKILFKNIELAGYQPPAGKGRAILGLWLVNPVQYGTVEHNSIRFETVIELGTYPKNEQQQDWFSRKTTSVENDFLEYIREIEAMTSERLKFERPNVLEGFQGSPQGQLILIRPTCSALVNFSVEPPFVLLIRNILRIHFEKVAQKANYFDMVIIFRNLNRSPTFIKSIDMSYLQPIQKWLDHQSIKYSFGKKVYNWPAILNKLRLKPEGFFDQGGWKLLN-KREEELEVQDCIDIPVLMNLYIYPKLKGKLVLGNLYAYKNGFLFKSKDGGTVKVLFKNVERFGYLGNKGSSKCVLGFYLKSPIKYGNTYNRDIKFYEEVNDQLWDKDEEKEKERKAKIGKVEMDFLSFIKQVERMTNYETIFEVPNKLLSFSGSPNGRTITLMPTDNSLVNLESWPPTVIEIRTIKRVHFERVYNWSKYFDMCIVYKDIYVLSKHVRKIHMHKLEPIKMYLESCDVIWSEGSSRINWTGILNYIRDNPEGFYEIGGWELFD-GMSGTLDVNDAEHSPVLQDLIIEPTSSEELIRGKLIAHLNGLKYESTVGDSIEVMFDNICVSGYLDAKGHNKAVFGFCLKQPIRYGSQDSNVVKFYTKLNKFIKDWDVEKNREEEEFIRDIQQRFLDWREKVEAMTNHRKCFEVPRRSLAFMGMPSGKRIMIRPTKTAFVNIVQHPPLCILIPDIQRIHFECVAKYRDYFDMIIEFKDVKVEVTKIKRIKQIKLAPIETWLESCNVNYKRSHMILNYSKLNELRTKNPDGFAALGGWSIFS-ALRMMAIITDRNEIPTLNNLVILPPTSEENVIGSLMAHANGLIFMDSNGKQLFVHFDNIQEFGYLPPEGHSVCVFGFNLKHSITFGDTEQAQVRFMRVVEEQLREQNMKFLWELEAGIHKIRHQFREFIYKVESMTHDRVCFETPYPSLSFRGMPNGQLVTLMFTLSALVCWSDVPSVVIVINEIQLIHFERVSEDRLLFDMIIVWKDINRSNTSIKSIEMEALQPIKNALRSFRIEYTESGDRLNFRLLLQMVSDNPSGFMGRGGWDFLK-TQMEKLVVEYTDDVPRLKDLVLAPGLTKAPVTGQLHAYNNGFLFRAEDGNELIILYSNISLLGYEPSVGEEKTVLYFDLNNAVKFGSEKHRNVRFSTENKHVIDKADYDFEIEREEKVEQRTKEFDGWREYVTQLTDSTVQFERPNEKGAFIGSPHKKEVLICPSKSALVNMTDQPRFVVIINGIKRVDMEKVDSTYRFFDMVILYKDITQRAKFIKNVKMEKLDPIKALLSSWNVSYTESKEVVNWTLLLYNIDSDPEKWESFGGWVHLD,VKQDSLVINLNRSNPKLKDLYIRPNIAQKRMQGSLEAHVNGFRFTSVRGDKVDILYNNIKHALFQPCDGEMIIVLHFHLKNAIMFGKKRHTDVQFYTEVGEITTDDDLYAEQMEREMRHKLKTAFKNFIEKVEALTKEELEFEVPFRDLGFNGAPYRSTCLLQPTSSALVNATEWPPFVVTLDEVELIHFERVQFHLKNFDMVIVYKDYSKKVTMINAIPVASLDPIKEWLNSCDLKYTEGVQSLNWTKIMKTIVDDPEGFFEQGGWSFLE-VKQDSLVINLNRSNPKLKDLYIRPNIAQKRMQGSLEAHVNGFRFTSVRGDKVDILYNNIKHALFQPCDGEMIIVLHFHLKNAIMFGKKRHTDVQFYTEVGEITTDDDLYAEQMEREMRHKLKTAFKNFIEKVEALTKEELEFEVPFRDLGFNGAPYRSTCLLQPTSSALVNATEWPPFVVTLDEVELIHFERVQFHLKNFDMVIVYKDYSKKVTMINAIPVASLDPIKEWLNSCDLKYTEGVQSLNWTKIMKTIVDDPEGFFEQGGWSFLE-VKQDSLVINLNRSNPKLKDLYIRPNIAQKRMQGSLEAHVNGFRFTSVRGDKVDILYNNIKHALFQPCDGEMIIVLHFHLKNAIMFGKKRHTDVQFYTEVGEITTDDDLYAEQMEREMRHKLKTAFKNFIEKVEALTKEELEFEVPFRDLGFNGAPYRSTCLLQPTSSALVNATEWPPFVVTLDEVELIHFERVQFHLKNFDMVIVYKDYSKKVTMINAIPVASLDPIKEWLNSCDLKYTEGVQSLNWTKIMKTIVDDPEGFFEQGGWSFLE-VKQDSLVINLNRSNPKLKDLYIRPNIAQKRMQGSLEAHVNGFRFTSVRGDKVDILYNNIKHALFQPCDGEMIIVLHFHLKNAIMFGKKRHTDVQFYTEVGEITTDDDLYAEQMEREMRHKLKTAFKNFIEKVEALTKEELEFEVPFRDLGFNGAPYRSTCLLQPTSSALVNATEWPPFVVTLDEVELIHFERVQFHLKNFDMVIVYKDYSKKVTMINAIPVASLDPIKEWLNSCDLKYTEGVQSLNWTKIMKTIVDDPEGFFEQGGWSFLE-VKQDSLVINLNRSNPKLKDLYIRPNIAQKRMQGSLEAHVNGFRFTSVRGDKVDILYNNIKHALFQPCDGEMIIVLHFHLKNAIMFGKKRHTDVQFYTEVGEITTDDDLYAEQMEREMRHKLKTAFKNFIEKVEALTKEELEFEVPFRDLGFNGAPYRSTCLLQPTSSALVNATEWPPFVVTLDEVELIHFERVQFHLKNFDMVIVYKDYSKKVTMINAIPVASLDPIKEWLNSCDLKYTEGVQSLNWTKIMKTIVDDPEGFFEQGGWSFLE-VKQDSLVINLNRSNPKLKDLYIRPNIAQKRMQGSLEAHVNGFRFTSVRGDKVDILYNNIKHALFQPCDGEMIIVLHFHLKNAIMFGKKRHTDVQFYTEVGEITTDDDLYAEQMEREMRHKLKTAFKNFIEKVEALTKEELEFEVPFRDLGFNGAPYRSTCLLQPTSSALVNATEWPPFVVTLDEVELIHFERVQFHLKNFDMVIVYKDYSKKVTMINAIPVASLDPIKEWLNSCDLKYTEGVQSLNWTKIMKTIVDDPEGFFEQGGWSFLE-VKQDSLVINLNRSNPKLKDLYIRPNIAQKRMQGSLEAHVNGFRFTSVRGDKVDILYNNIKHALFQPCDGEMIIVLHFHLKNAIMFGKKRHTDVQFYTEVGEITTDDDLYAEQMEREMRHKLKTAFKNFIEKVEALTKEELEFEVPFRDLGFNGAPYRSTCLLQPTSSALVNATEWPPFVVTLDEVELIHFERVQFHLKNFDMVIVYKDYSKKVTMINAIPVASLDPIKEWLNSCDLKYTEGVQSLNWTKIMKTIVDDPEGFFEQGGWSFLE-VKQDSLVINLNRSNPKLKDLYIRPNIAQKRMQGSLEAHVNGFRFTSVRGDKVDILYNNIKHALFQPCDGEMIIVLHFHLKNAIMFGKKRHTDVQFYTEVGEITTDDDLYAEQMEREMRHKLKTAFKNFIEKVEALTKEELEFEVPFRDLGFNGAPYRSTCLLQPTSSALVNATEWPPFVVTLDEVELIHFERVQFHLKNFDMVIVYKDYSKKVTMINAIPVASLDPIKEWLNSCDLKYTEGVQSLNWTKIMKTIVDDPEGFFEQGGWSFLE-VKQDSLVINLNRSNPKLKDLYIRPNIAQKRMQGSLEAHVNGFRFTSVRGDKVDILYNNIKHALFQPCDGEMIIVLHFHLKNAIMFGKKRHTDVQFYTEVGEITTDDDLYAEQMEREMRHKLKTAFKNFIEKVEALTKEELEFEVPFRDLGFNGAPYRSTCLLQPTSSALVNATEWPPFVVTLDEVELIHFERVQFHLKNFDMVIVYKDYSKKVTMINAIPVASLDPIKEWLNSCDLKYTEGVQSLNWTKIMKTIVDDPEGFFEQGGWSFLE-VKQDSLVINLNRSNPKLKDLYIRPNIAQKRMQGSLEAHVNGFRFTSVRGDKVDILYNNIKHALFQPCDGEMIIVLHFHLKNAIMFGKKRHTDVQFYTEVGEITTDDDLYAEQMEREMRHKLKTAFKNFIEKVEALTKEELEFEVPFRDLGFNGAPYRSTCLLQPTSSALVNATEWPPFVVTLDEVELIHFERVQFHLKNFDMVIVYKDYSKKVTMINAIPVASLDPIKEWLNSCDLKYTEGVQSLNWTKIMKTIVDDPEGFFEQGGWSFLE,LTSRGIPTVQ-EVKEGIEIIK-TKRAGFHRWA-WKESGISSIP-DVAKGIGTIP-MHEAGVKFFP-EWIQGINVWP-YYKMGVDIVP-LLQLGVDVLP-KEKRGVSSIP,ARRGGVKRIS-ARRGGVKRIS-ARRGGVKRIS-ARRGGVKRIS-ARRGGVKRIS-ARRGGVKRIS-ARRGGVKRIS-ARRGGVKRIS-ARRGGVKRIS-ARRGGVKRIS
