contacts,cs,ce,Chain,Length,designed_receptor_seq,native_receptor_seq,designed_binder_seq,native_binder_seq
29.0,5,15,A,10,SFIEDLKALLSSSSLKVVDGWNPPVPPKSVIFRVLGEKGMKAVFPLVTVLEYEYLTNVPCNPYIEVENTGGEVLFRGYFFKPEDAPDADITAEKNKVVLGVKKKTGSLEKWREIRKAGGIDGRPFRSNIEIEVKPEVLLEFKFEPKDEEKVDKFIEEAKKKV-SFIEDLRALLSTTSLKVVDGWNPPVPPKSVIFTVIGEKGTKAVFPLVLVLEYEYRTNVPCNPYIEVENTGGEVRFRGYFFKPEDAPLADITAEKNKVVLGVKEKTGDLATWRKIKEAGGIDGRPFRANIEIEVKPTVELEFVFEPKDEKVVDELYEKAKKKV-SFIEDLKALLSSGSLKVEEGWNPPVPPKSVIFKVIGEKGTKAVFPLVTVLEYEFLTNVPCNPYIEVENTGGEVLFRGYFFKPEDAPLADITAEKNKVVLGVKKKTGDLLTWRKIKEAGGIDGRPFRSNIEIEVKPEVLLEFKTEPLDESVVDELYKKAVEKV-SFIEDLKALLSSTSLKVKDNWNPPVPPKSVIFEVIGEKGTKATFPLLTVLEYEYLTNVPCNPYIEVENTGGKVLFRGYFFKPEDAPLADITAEKNKVVLGVKKKTGDLETWRKIREAGGIDGRPFRSNIDIEVKPTVELEFKFEPKDEKAVDEFIEKAKKKV-SFIEDLKALLSSTSLVVEDDWEPPVPPKSVVFKVIGEKGMKAVFPLFTVLEYEYLTNVPCNPYIEVENTGGEVLFRGYFFKPEDAPLADITAEDNKVVLGVKKKTGDLETLRKIREAGGIDGRPFRSNIEIEVKPTVELSFVFPPKDEEKVDKFIEEAKKKV-SFISDLKALLSSSSLKVEDGWNPPVPPKSVIFKVIGEKGTKAVFPLVTVLEYEYLTNVPCNPYIEVENTGGKVLFRGYFFKPEDAPLADITAEKNKVVLGVKKKTGDLETWRKIREAGGIDGRPFRSNIEIEVKPEVLLSFVFPPKDEKVVDELYEKAKKAV-SFIEDLKALLSSSSLKVVDGWNPPVPPKSVVFRVLGEEGTEAVFPLVTVLEYEYLTNVPCNPYIEVENTGGEVLFRGYFFKPEDAPLADITAEENKVVLGVKEKTGDLETWRKIREAGGIDGRPFRANIHIKVEPTVELEFAFPPLDEEVVDKLYELAKKSV-MFIDDLKALLSDTSLKVEDNWNPPVPPKSVIFKVIGEKGMKAVFPLVLVLEYEYLTNVPCNPYIEVENTGGEVLFRGYFFKPEDAPLADITAEKNKVVLGVKKKTGDLETWRKIREAGGIDGRPFRSNIEIEVKPTVELEFKFEPKDESVVDEFIKKAEEKV-SFIEDLKALLSSSSLKVEDDWEPPVPPKSVIFKVIGEKGMKATFPLFTVLEYEYLTNVPCNPYIEVKNSGGEVIFSGYFFKPEDAPDADITAEDNKVVLGVKKKTGSLEKLIEIRKAGGIDGRPFMSNIEIEVKPTVELEFKFEPKDEEKVKKFMEKAKKKF-MFIEDLKALLSKTKLKVVDDWKPPVPPKSVIFTVIGEKGMKAVFPLVTVLEYEYLTNVPCNPYIEVENTGGEVRFRGYFFKPEDAPLADITAEKNKVVLGVKKKTGDLLTWRKIKEAGGIDGRPFRANIEIEVKPTVELEFVFPPKDEKVVDEIYEKAKKKV,TLVQRLKLILSGGNLRCSDACDPERPPTRCVFQVHGQDGSNDTFPLEYVLRLRSWAHVPCDPYVRVQNTGVSVLFQGFFFRPADAPLAAITAEHNNVILASTHSTGSLSALDDIKRAGGVDTRPLRASVSCFVRPRVQLSFRFGPDDASQTQRLLDRAELRQ-TLVQRLKLILSGGNLRCSDACDPERPPTRCVFQVHGQDGSNDTFPLEYVLRLRSWAHVPCDPYVRVQNTGVSVLFQGFFFRPADAPLAAITAEHNNVILASTHSTGSLSALDDIKRAGGVDTRPLRASVSCFVRPRVQLSFRFGPDDASQTQRLLDRAELRQ-TLVQRLKLILSGGNLRCSDACDPERPPTRCVFQVHGQDGSNDTFPLEYVLRLRSWAHVPCDPYVRVQNTGVSVLFQGFFFRPADAPLAAITAEHNNVILASTHSTGSLSALDDIKRAGGVDTRPLRASVSCFVRPRVQLSFRFGPDDASQTQRLLDRAELRQ-TLVQRLKLILSGGNLRCSDACDPERPPTRCVFQVHGQDGSNDTFPLEYVLRLRSWAHVPCDPYVRVQNTGVSVLFQGFFFRPADAPLAAITAEHNNVILASTHSTGSLSALDDIKRAGGVDTRPLRASVSCFVRPRVQLSFRFGPDDASQTQRLLDRAELRQ-TLVQRLKLILSGGNLRCSDACDPERPPTRCVFQVHGQDGSNDTFPLEYVLRLRSWAHVPCDPYVRVQNTGVSVLFQGFFFRPADAPLAAITAEHNNVILASTHSTGSLSALDDIKRAGGVDTRPLRASVSCFVRPRVQLSFRFGPDDASQTQRLLDRAELRQ-TLVQRLKLILSGGNLRCSDACDPERPPTRCVFQVHGQDGSNDTFPLEYVLRLRSWAHVPCDPYVRVQNTGVSVLFQGFFFRPADAPLAAITAEHNNVILASTHSTGSLSALDDIKRAGGVDTRPLRASVSCFVRPRVQLSFRFGPDDASQTQRLLDRAELRQ-TLVQRLKLILSGGNLRCSDACDPERPPTRCVFQVHGQDGSNDTFPLEYVLRLRSWAHVPCDPYVRVQNTGVSVLFQGFFFRPADAPLAAITAEHNNVILASTHSTGSLSALDDIKRAGGVDTRPLRASVSCFVRPRVQLSFRFGPDDASQTQRLLDRAELRQ-TLVQRLKLILSGGNLRCSDACDPERPPTRCVFQVHGQDGSNDTFPLEYVLRLRSWAHVPCDPYVRVQNTGVSVLFQGFFFRPADAPLAAITAEHNNVILASTHSTGSLSALDDIKRAGGVDTRPLRASVSCFVRPRVQLSFRFGPDDASQTQRLLDRAELRQ-TLVQRLKLILSGGNLRCSDACDPERPPTRCVFQVHGQDGSNDTFPLEYVLRLRSWAHVPCDPYVRVQNTGVSVLFQGFFFRPADAPLAAITAEHNNVILASTHSTGSLSALDDIKRAGGVDTRPLRASVSCFVRPRVQLSFRFGPDDASQTQRLLDRAELRQ-TLVQRLKLILSGGNLRCSDACDPERPPTRCVFQVHGQDGSNDTFPLEYVLRLRSWAHVPCDPYVRVQNTGVSVLFQGFFFRPADAPLAAITAEHNNVILASTHSTGSLSALDDIKRAGGVDTRPLRASVSCFVRPRVQLSFRFGPDDASQTQRLLDRAELRQ,VVEEWKPILE-VVEEWKPILE-VVEEWKPILE-DVEKWKPILE-FVEKWKPILE-VVEKWKPILE-VVEEWRPILE-VTEKWKPILE-RTELYRPILE-VVEEWKPILE,ARDRYAPYFA-ARDRYAPYFA-ARDRYAPYFA-ARDRYAPYFA-ARDRYAPYFA-ARDRYAPYFA-ARDRYAPYFA-ARDRYAPYFA-ARDRYAPYFA-ARDRYAPYFA
17.0,151,161,B,10,GSHMGILDKLGPLLRYFAAHGGELVRFLRGLREPVVTEEPVELPFDLGRLSADHCLYLGPPCRRGLGGFGLLAAARRPRLRFDFEALRARFLELEGRLEEDLDFFAAVVARDPSEEALRRVLEEPELFFAYAVLREGGLRDVRVLFFDDPYAEGRLLFVFPEEEVFIDHRVLSRLLGATAGYRLVAHEYRGFVLVAYPVGEGDPSLFVPRVDVAAIRERLEEVEFDGELLEELRELYERYREFRPPEP-GSHMGILDKLKPLLDYFAKHGGELVKFLKGLDKPKVTSEPVELPFDLGLLDEDHCFYAGPPCEKRLGGFGLLAALRRPFLKEDFEELKKEFLELEKNIEKHLSFFAAVVAKDPSEEALKRVLEEPELFFAYKVLKDGGLEDISVLFFDDPYAEGKLYFVFPEEEVFIDHRVLSRLLGATSSYRIVAHEYKGFVLHLYPVGEGDPSLFVPKVDVKKIKEKLEKVKFDGELLEKLKELYEKYKDFKPPEP-GSHMGILDKLGPLLRYFAAHGGELVRFLKGLDRPLVTSRPVELPFDLGLLSEDHCLFLGEPCEARLGGFGLLAALRRPRLRRDFAALRAAFLELEGRLEEHLDFFAAVVARDPSEEALRRVLAEPELFFAYAVLREGGLRDVRVLFFDDPYAEGRLLFVFPEEEVFIDHRVLSELLGATASYRLVAHEYRGYVLVAYPVGEGDPSLFVPEVDVAAIKARLEEVEFDGELLEELRELYEEYREFRPPEP-GSHMGILDRLGPLLRYFAAHGGELLRFLRGLRRPLVTERPVALPFDLGRLDADHCLYLGPPARAGLGGFGLLAAARRPALAPDFAALRARFLALEGDLEADLAFFAAVEAADPSEAALARVLAEPELFFAYRVLREGGLRDVRVLFFDDPHAEGRLLFVFPEAEVFIDHRVLRRLLGATAGYRLVAHEHRGFVLEAFPVGEGDPALFVPAVDVAAIRARLAAVRFDGELLEELRRLYAAYADFRPPAP-GSHMGILDKLGPLLRYFAKHGGELLRFLEGLKEPLVTEEPVELPFDLGRLSEDHCLYLGEPARRGLGGFGLLAALRRPLLREDFEELKRRFLELEERLEEDLDFFAAVVAKDPSEEALRRVLEEPELFFAYRVLKEGGLEDISVLFFDDPYAEGRLLFVFPEEEVFIDHRVLSRLLGATRSFRIVAHEYRGFVLVLYRKGEGDPSLFVPRVDVEAIKERLEEVEFDGELLERLRELYEEFREFEPPEP-GSHMGFLDKLGPLLRYFAKHGGELLRFLRGLREPVVTEEPVSLPFDLGLLSEDHCFYAGPPCRRLLGGFGLLAALRRPFLREDFEELKRRFLELEGRLEEDLDFFAAVVAKDPSEEALRRVLEEPELFFAYAVLKEGGLRDVSVLFFDDPYAEGRLLFVFPEEEVFIDHRVLSRLLGATASYRIVAHEYRGFVLYLYPVGEGDPSLFVPKVDVEAIKERLKEVEFDGELLERLRELYERYREFRPPEP-GSHMGLLDRLGPLLRYFAAHGGELLRFLRGLREPLVRERPVELPFDLGRLSAEDCLYLGPPARAGLGGFGLLAALRRPRLREDFEALRAAFLELEGRLEEHLDFFAAVLARDPSEEALRRVLEEPELFFAYAVLRRGGLRDVRVLFFDDPYAEGRLLFVFPEEEVFIDHRVLSRLLGATRGYRLVAHEYRGFVLVAYPVGEGDPSLFVPRVDVAAIRRRLEEVEFDGELLEELRELYRRYEEFRPPEP-GSHMGILDRLGPLLRYFAAHGGELLRFLEGLDRPLVTEEPVELPFDLGRLDADHCLYLGPPARRGLGGFGLLAALRRPLLREDFEALRARFLELEGRLEEDLDFFAAVLARDPSEEALRRVLEEPELFFAYAVLREGGLRDLRVLFFDDPYAEGRLLFVFPEEEVFIDHRVLRRLLGATASYRLVAHEHRGFVLEAFPVGEGDPSLFVPEVDVAAIRERLEEVEFDGELLEELRELYEEYREFEPPEP-GSHMGILDKLGPLLRYFAENGGELLRFLRGLSEPLVTEEPVSLPFDLGRLSADHCLYLGEPCRRGLGGFGLLAALRRPFLRRDFEELRRRFLELEGRLEEDLDFFAAVVARDPSEEALRRVLEEPELFFAYAVLKEGGLEDVRVLFFDDPYAEGRLLFVFPEEEVFIDHRVLSRLLGATASYRIVAHEYRGFVLEVFRVGEGDPSLFVPEVDVSRIRERLEEVEFDGELLEELRELYERYREFRPPEP-GSHMGLLDRLGPLLRYFAAHGGELLRFLRGLRRPLVTERPVELPFDLGRLSADHCFYAGPPCRALLGGFGERAAALRPRLREDFAALRARFLELEGRLEEDLDFFAAVVARDPSEEALRRVLEEPELFFAYAVLREGGLRDVSVLFFDDPYAEGRLLFVFPEEEVFIHHRVLSRLLGATASYRLVAHEWRGFVLEAFPVGEGDPSLFVPRVDVRAIRERLERVRFDGELLERLRELYREYEEFRPPEP,TLTRAARDRYAPYFAYAAAQPSDEVTTVRGLSNPLIKTAPVTLPFDLGQAVADNCLSLSGGYYLGLGGCCPTCAAAEPRLGSDRAALVLAYVQQLNSIYEYRVFLASVAARDPSERALEEVLAHPELFFAYYVLRDGGLRDVRVLFFEDPDAQGALYVVFPEKSVHVHHRVLDRLLGACAGHRIVAHVWQTFVLVVRKKGDGRPADDVPAVSASDIYCKMRDISFDGELLLEYKRLYAAFEDFRPPRP-TLTRAARDRYAPYFAYAAAQPSDEVTTVRGLSNPLIKTAPVTLPFDLGQAVADNCLSLSGGYYLGLGGCCPTCAAAEPRLGSDRAALVLAYVQQLNSIYEYRVFLASVAARDPSERALEEVLAHPELFFAYYVLRDGGLRDVRVLFFEDPDAQGALYVVFPEKSVHVHHRVLDRLLGACAGHRIVAHVWQTFVLVVRKKGDGRPADDVPAVSASDIYCKMRDISFDGELLLEYKRLYAAFEDFRPPRP-TLTRAARDRYAPYFAYAAAQPSDEVTTVRGLSNPLIKTAPVTLPFDLGQAVADNCLSLSGGYYLGLGGCCPTCAAAEPRLGSDRAALVLAYVQQLNSIYEYRVFLASVAARDPSERALEEVLAHPELFFAYYVLRDGGLRDVRVLFFEDPDAQGALYVVFPEKSVHVHHRVLDRLLGACAGHRIVAHVWQTFVLVVRKKGDGRPADDVPAVSASDIYCKMRDISFDGELLLEYKRLYAAFEDFRPPRP-TLTRAARDRYAPYFAYAAAQPSDEVTTVRGLSNPLIKTAPVTLPFDLGQAVADNCLSLSGGYYLGLGGCCPTCAAAEPRLGSDRAALVLAYVQQLNSIYEYRVFLASVAARDPSERALEEVLAHPELFFAYYVLRDGGLRDVRVLFFEDPDAQGALYVVFPEKSVHVHHRVLDRLLGACAGHRIVAHVWQTFVLVVRKKGDGRPADDVPAVSASDIYCKMRDISFDGELLLEYKRLYAAFEDFRPPRP-TLTRAARDRYAPYFAYAAAQPSDEVTTVRGLSNPLIKTAPVTLPFDLGQAVADNCLSLSGGYYLGLGGCCPTCAAAEPRLGSDRAALVLAYVQQLNSIYEYRVFLASVAARDPSERALEEVLAHPELFFAYYVLRDGGLRDVRVLFFEDPDAQGALYVVFPEKSVHVHHRVLDRLLGACAGHRIVAHVWQTFVLVVRKKGDGRPADDVPAVSASDIYCKMRDISFDGELLLEYKRLYAAFEDFRPPRP-TLTRAARDRYAPYFAYAAAQPSDEVTTVRGLSNPLIKTAPVTLPFDLGQAVADNCLSLSGGYYLGLGGCCPTCAAAEPRLGSDRAALVLAYVQQLNSIYEYRVFLASVAARDPSERALEEVLAHPELFFAYYVLRDGGLRDVRVLFFEDPDAQGALYVVFPEKSVHVHHRVLDRLLGACAGHRIVAHVWQTFVLVVRKKGDGRPADDVPAVSASDIYCKMRDISFDGELLLEYKRLYAAFEDFRPPRP-TLTRAARDRYAPYFAYAAAQPSDEVTTVRGLSNPLIKTAPVTLPFDLGQAVADNCLSLSGGYYLGLGGCCPTCAAAEPRLGSDRAALVLAYVQQLNSIYEYRVFLASVAARDPSERALEEVLAHPELFFAYYVLRDGGLRDVRVLFFEDPDAQGALYVVFPEKSVHVHHRVLDRLLGACAGHRIVAHVWQTFVLVVRKKGDGRPADDVPAVSASDIYCKMRDISFDGELLLEYKRLYAAFEDFRPPRP-TLTRAARDRYAPYFAYAAAQPSDEVTTVRGLSNPLIKTAPVTLPFDLGQAVADNCLSLSGGYYLGLGGCCPTCAAAEPRLGSDRAALVLAYVQQLNSIYEYRVFLASVAARDPSERALEEVLAHPELFFAYYVLRDGGLRDVRVLFFEDPDAQGALYVVFPEKSVHVHHRVLDRLLGACAGHRIVAHVWQTFVLVVRKKGDGRPADDVPAVSASDIYCKMRDISFDGELLLEYKRLYAAFEDFRPPRP-TLTRAARDRYAPYFAYAAAQPSDEVTTVRGLSNPLIKTAPVTLPFDLGQAVADNCLSLSGGYYLGLGGCCPTCAAAEPRLGSDRAALVLAYVQQLNSIYEYRVFLASVAARDPSERALEEVLAHPELFFAYYVLRDGGLRDVRVLFFEDPDAQGALYVVFPEKSVHVHHRVLDRLLGACAGHRIVAHVWQTFVLVVRKKGDGRPADDVPAVSASDIYCKMRDISFDGELLLEYKRLYAAFEDFRPPRP-TLTRAARDRYAPYFAYAAAQPSDEVTTVRGLSNPLIKTAPVTLPFDLGQAVADNCLSLSGGYYLGLGGCCPTCAAAEPRLGSDRAALVLAYVQQLNSIYEYRVFLASVAARDPSERALEEVLAHPELFFAYYVLRDGGLRDVRVLFFEDPDAQGALYVVFPEKSVHVHHRVLDRLLGACAGHRIVAHVWQTFVLVVRKKGDGRPADDVPAVSASDIYCKMRDISFDGELLLEYKRLYAAFEDFRPPRP,LRLYLEALRG-KKLYEEAVKL-LELYRRALEE-AELYRRALAE-EELYERAVEE-PELYERALRE-PELYERALRE-EELYERALEE-EELYRRALEL-PELYERALRE,QRLLDRAELR-QRLLDRAELR-QRLLDRAELR-QRLLDRAELR-QRLLDRAELR-QRLLDRAELR-QRLLDRAELR-QRLLDRAELR-QRLLDRAELR-QRLLDRAELR
