contacts,cs,ce,Chain,Length,designed_receptor_seq,native_receptor_seq,designed_binder_seq,native_binder_seq
26.0,2,12,A,10,RDFQAVVKLPEGEEFERHVARWSQQFYGDAKLLWGELKDFFDDKSTPVASCGPSFKIYGTSKPFPRPTSAPKYIKKLMLDIDDIFRDESIYPKSAGKPFPDDFVSVAKWTLKRLYHVYCIIYTKLRQPLKEKELEKYVERGLYRFLTFVKTHKLIDKAELKPLESFIKELPR-ASFRSFVQLPEGQELNAHIAAWTFLFYGMATMMWGELEKFITEENTPVAACGPDYVIYGSRAPLPVKTTAPDYIKTLKNELQRLFDDEDLVPKDAGKPFPDNFVETAQSALRRLYDVFCIIDKELAAPMKSLNLEKHFNTLVHMFMTFIKQHSLIEEAELKPLKDRLEKLPE-MDFTDVVKLPDGVEFNAHVKDWTQRFFNDAKLLVGELEKYITKENAPVASAGPEFVIYWQADPEPEPTDVPTYLNRLMADVEEIFNDVTICPEEEGVPFPDDFVDTAEWTLTRLYQCFAIIYKEFEEPLKEMEMEEYFLRLFYRFMTFVEEHELIEESVLEPLKDLIREVPK-MNFRDIVKLPEGEEKEAWIKRWTQHFFGVTRDMVGELKDYFTKETTPVASCGPEHTIYWDEEPEPEPTDTPTFIANLISETEELFKDEDICPTDEGVPFPDNFLDVAKWTLTRLYQVYCIIDKELAEPLKEKEMEKQFNMGVYMFLTFVKTHNLIDSEVLYPLSDIIEELPT-MDFKKLVKLPPGKEFERHVATWTFIFYNATRMLWGELREYFTEETAPIASCGPDHVIYWEKTPTPTPTTAPSYIERLLEEVEEVFEDREIVPTEEGVPFPEDFTEIARWILRRLYEVYCIIYTNFYDPLTEKDLVEYFLRGLYFFLTFVREHQLIEEEELVPLRGLITRIPE-MNFKDAVKLPEGVDLNLHVAIWTYHFYNVAKMLVGCLKDYIDEETAPVASCGPDYVIYGIFAPEPEETTVPDYIERLINTIDSIFKDEDIIPKEDGVPFPSNFLDIASWVLTRLYEVFCIIYKELHEPMKQKDMEKEFLILAYQFMTFVRSHNLIKEEVLKPLEDIIEKLPD-MDFKSIVRLPLGTEFNRHVAVWTKTFFGATRLLVGELAEYFDESSAPVAECGPDTVIYWNDSPRPEPTTVPDYIKKLIEEVERVFKNEDIFPREEGVPFPDYFEEVAKDVLTRIYRVYCIVKNEFKEPMKKLNMEKYFDLGIYYFMTFVKAHNLIDEKVLKPLEGVIEELPK-ADCKTKVQLPAGTEFNEHVRDWTFTFFGQIKLLFGELAAHFSEENDPVAACGPNFVIYQDESPDPEPTSTPDFLTNLIAKTTNLFNDRSVFPAEEGVPFPDDFEDLARSTLRRLYQVFCIIYNRFHEPMSKLDLSDEFDRGLYSFMCFVNAHQLIADDELVPLKDLIDKLPK-KDFRELVKLPEGRELERHVAEWTYFFFGCTALLWGELSSYYNRQTTPIARCGPEYVIYWDEFPEPEYTSAPDYLRRLKNELLELFLDESLVPVEEGVPFPEDFLETARWALTRLYWVFCILWNELYEPLLKKDLVEYFLTELYLFLTFVEEHNLIEERRLRPLRSLISRLPE-MPFREEVKLPEGAELNAHVATWTKTFFGAAKMLWGELEAFFDEETTPVAKCGPDAVYYWRKKPEPEPTTAPEYIRRLIKEIDDFFNDETLVPTEDGVPFPEDFLETARWTLERLYRVYCILYHELKEPLRKKDLIEYFEKGLYMFLTFVKEHELIDEEVLKPLQGLIDDLPA,GNLRMAVMLPEGEDLNEWVAVNTVDFFNQINMLYGTITDFCTEESCPVMSAGPKYEYHWADGKKPIKCSAPKYIDYLMTWVQDQLDDETLFPSKIGVPFPKNFMSVAKTILKRLFRVYAHIYHQHFDPVIQLQEEAHLNTSFKHFIFFVQEFNLIDRRELAPLQELIEKLTS-GNLRMAVMLPEGEDLNEWVAVNTVDFFNQINMLYGTITDFCTEESCPVMSAGPKYEYHWADGKKPIKCSAPKYIDYLMTWVQDQLDDETLFPSKIGVPFPKNFMSVAKTILKRLFRVYAHIYHQHFDPVIQLQEEAHLNTSFKHFIFFVQEFNLIDRRELAPLQELIEKLTS-GNLRMAVMLPEGEDLNEWVAVNTVDFFNQINMLYGTITDFCTEESCPVMSAGPKYEYHWADGKKPIKCSAPKYIDYLMTWVQDQLDDETLFPSKIGVPFPKNFMSVAKTILKRLFRVYAHIYHQHFDPVIQLQEEAHLNTSFKHFIFFVQEFNLIDRRELAPLQELIEKLTS-GNLRMAVMLPEGEDLNEWVAVNTVDFFNQINMLYGTITDFCTEESCPVMSAGPKYEYHWADGKKPIKCSAPKYIDYLMTWVQDQLDDETLFPSKIGVPFPKNFMSVAKTILKRLFRVYAHIYHQHFDPVIQLQEEAHLNTSFKHFIFFVQEFNLIDRRELAPLQELIEKLTS-GNLRMAVMLPEGEDLNEWVAVNTVDFFNQINMLYGTITDFCTEESCPVMSAGPKYEYHWADGKKPIKCSAPKYIDYLMTWVQDQLDDETLFPSKIGVPFPKNFMSVAKTILKRLFRVYAHIYHQHFDPVIQLQEEAHLNTSFKHFIFFVQEFNLIDRRELAPLQELIEKLTS-GNLRMAVMLPEGEDLNEWVAVNTVDFFNQINMLYGTITDFCTEESCPVMSAGPKYEYHWADGKKPIKCSAPKYIDYLMTWVQDQLDDETLFPSKIGVPFPKNFMSVAKTILKRLFRVYAHIYHQHFDPVIQLQEEAHLNTSFKHFIFFVQEFNLIDRRELAPLQELIEKLTS-GNLRMAVMLPEGEDLNEWVAVNTVDFFNQINMLYGTITDFCTEESCPVMSAGPKYEYHWADGKKPIKCSAPKYIDYLMTWVQDQLDDETLFPSKIGVPFPKNFMSVAKTILKRLFRVYAHIYHQHFDPVIQLQEEAHLNTSFKHFIFFVQEFNLIDRRELAPLQELIEKLTS-GNLRMAVMLPEGEDLNEWVAVNTVDFFNQINMLYGTITDFCTEESCPVMSAGPKYEYHWADGKKPIKCSAPKYIDYLMTWVQDQLDDETLFPSKIGVPFPKNFMSVAKTILKRLFRVYAHIYHQHFDPVIQLQEEAHLNTSFKHFIFFVQEFNLIDRRELAPLQELIEKLTS-GNLRMAVMLPEGEDLNEWVAVNTVDFFNQINMLYGTITDFCTEESCPVMSAGPKYEYHWADGKKPIKCSAPKYIDYLMTWVQDQLDDETLFPSKIGVPFPKNFMSVAKTILKRLFRVYAHIYHQHFDPVIQLQEEAHLNTSFKHFIFFVQEFNLIDRRELAPLQELIEKLTS-GNLRMAVMLPEGEDLNEWVAVNTVDFFNQINMLYGTITDFCTEESCPVMSAGPKYEYHWADGKKPIKCSAPKYIDYLMTWVQDQLDDETLFPSKIGVPFPKNFMSVAKTILKRLFRVYAHIYHQHFDPVIQLQEEAHLNTSFKHFIFFVQEFNLIDRRELAPLQELIEKLTS,TFVKVMEARE-FYSRVMTALD-VFAEVMENWV-RFIEIMKKAE-VFVEFMKAFV-KFVEFMKKSV-IFKETMKKLV-LFRKTMRSLR-VFALVMRLSR-KFMDYMREFE,AFKFFMEQHV-AFKFFMEQHV-AFKFFMEQHV-AFKFFMEQHV-AFKFFMEQHV-AFKFFMEQHV-AFKFFMEQHV-AFKFFMEQHV-AFKFFMEQHV-AFKFFMEQHV
14.0,11,21,B,10,GMAKAEFNKKFEEAVKAFKEAIEAKYKDFYEAMKGVGADADTVKKETVELAKAVEKAISDAKGK-MSMAKVIQKLAKEAVDKAKTAVNEAFEAFFADLEGKGLDAETIKKQTTELGAKVEAAIKAAAEA-MALKKVINRTLRKFSITLFTIIVLIFLLFFLIMIINGSDLASIAERSLQLSDLIELLILLASFV-GSHMLDINKRLKEYIEEKKKRIEEEINQFFNKAKEEGKDLKELFKESTKLAQKLNDEIKKEKEK-GSHMVSVLDRLDELVQDIRTALRELGLTFEREMKGKGYSEAVRAKRRRELEELIASLIREAREK-MGLNKIINKELEKFTKKLKESIEELYNTFFEVLKGEGLDEEEKEKLKKKLAKTIEELIKKLKEE-MDFVATFNKKFSALTTELKTALDNVKKTFESIATGNGINDEEKAKAAKELDNAVEKAILAANKG-GSHMDVLNNRLLEAVSQAETSIKEIFDTFFSTAKGSGLNRKEILEQSENLANLIETSIEAAAET-ENLAKEINKVAKENIEKLISEIKQTYQAFFDKVKGSGVDAATVKRETEDLSAKIVKAIKDAKSS-MNDVNLFEKSLKKAILDFKTKIKSEFETFFAKQKGKGLDKTTVDKKKKELCEKIEKEIEKAKNK,PQAFKFFMEQHVENVLKSHQQRLHRKKQLENEMMRVGLSQDAQDQMRKMLCQKESNYIRLKRAK-PQAFKFFMEQHVENVLKSHQQRLHRKKQLENEMMRVGLSQDAQDQMRKMLCQKESNYIRLKRAK-PQAFKFFMEQHVENVLKSHQQRLHRKKQLENEMMRVGLSQDAQDQMRKMLCQKESNYIRLKRAK-PQAFKFFMEQHVENVLKSHQQRLHRKKQLENEMMRVGLSQDAQDQMRKMLCQKESNYIRLKRAK-PQAFKFFMEQHVENVLKSHQQRLHRKKQLENEMMRVGLSQDAQDQMRKMLCQKESNYIRLKRAK-PQAFKFFMEQHVENVLKSHQQRLHRKKQLENEMMRVGLSQDAQDQMRKMLCQKESNYIRLKRAK-PQAFKFFMEQHVENVLKSHQQRLHRKKQLENEMMRVGLSQDAQDQMRKMLCQKESNYIRLKRAK-PQAFKFFMEQHVENVLKSHQQRLHRKKQLENEMMRVGLSQDAQDQMRKMLCQKESNYIRLKRAK-PQAFKFFMEQHVENVLKSHQQRLHRKKQLENEMMRVGLSQDAQDQMRKMLCQKESNYIRLKRAK-PQAFKFFMEQHVENVLKSHQQRLHRKKQLENEMMRVGLSQDAQDQMRKMLCQKESNYIRLKRAK,GIDKAILDEL-GIDQGILDKL-GLNEGVIKKV-GLKKSIIEEL-GLDKGVLDEL-GIDGEILKEL-GIKKGVLKKV-GLNKDTLVKV-GIDKGVLKEV-CLQGGTLTKL,GEDLNEWVAV-GEDLNEWVAV-GEDLNEWVAV-GEDLNEWVAV-GEDLNEWVAV-GEDLNEWVAV-GEDLNEWVAV-GEDLNEWVAV-GEDLNEWVAV-GEDLNEWVAV
