contacts,cs,ce,Chain,Length,designed_receptor_seq,native_receptor_seq,designed_binder_seq,native_binder_seq
23.0,33,43,A,10,MSPKKKRKGVVGITKPAIRRLARRGGVKRISGLAYEETRAVLKVFLENVIRDAVTFMEHAKRKTITSRDVQLAVRRQGRVLSRVAV-MAKAKKSGGRKGIKKPYIYKLARRGGVKRISGLAYEETRAVLEVFLENVLRDAVTFMRHAKRKTITTRDVQLAVRRQGRTLYKAAV-SKPKKEKKGLKGITKPAIRRLARRGGVKRISGLAYEETRAVLKVFLENVLEDAVLYMEHAKRKTITKMDVVLAIRRQGTIFSGFRP-STPQKKRSGRAGINKPYIYRLARRGGVKRISGLAYEETRAVLKVFLENIIRDAVLFCEHAKRKTITSRDVQLAVRKQGRVTLAGVI-SKPKTERLGRSGINKPAIHKLARRGGVKRISGLAYEETRAVLKVFLENIVRDAVTFCEHAKRKRVIAMDVVYAIRRQGTIFSGFRP-MAPKKRRSGRKGINKPYIYRLLRRGGVKRISGLAYEETRGVLKVFLENVIRDAVLFTEHSKRKRVTARDVQLAVRRQGRVFSRVVA-GSPEFGRKGTKGITKPAIRKLARRGGVKRISGLIYEATRAVLENFLERVIRDAVTFCEHAKRKRITSRDVQLAVRNEGVIFSGFKP-GSMSKKKRRTTGITKPAIHKLARRGGVKRISGLIYEATRAVLEEFLERVTRDAVLFCRHCKRKTVTSRDVQLAVRRQGRILPKILK-TEPKKEKRRTAGITKPAILRLARRGGVKRISGLAYEETRAVLDVFLENITEDAVLYMRHAKRKRIIAMDVKLAVRRQGRVLSKVAG-GSPELRKKGVKGLTKPAIRKLARRGGVKRISGLVYEAVRAVLENFLERITADAVRFCERAKRKRITAMDVVYAVKRQGRVTFGGRI,RHRKVLRDNIQGITKPAIRRLARRGGVKRISGLIYEETRGVLKVFLENVIRDAVTYTEHAKRKTVTAMDVVYALKRQGRTLYGFGG-RHRKVLRDNIQGITKPAIRRLARRGGVKRISGLIYEETRGVLKVFLENVIRDAVTYTEHAKRKTVTAMDVVYALKRQGRTLYGFGG-RHRKVLRDNIQGITKPAIRRLARRGGVKRISGLIYEETRGVLKVFLENVIRDAVTYTEHAKRKTVTAMDVVYALKRQGRTLYGFGG-RHRKVLRDNIQGITKPAIRRLARRGGVKRISGLIYEETRGVLKVFLENVIRDAVTYTEHAKRKTVTAMDVVYALKRQGRTLYGFGG-RHRKVLRDNIQGITKPAIRRLARRGGVKRISGLIYEETRGVLKVFLENVIRDAVTYTEHAKRKTVTAMDVVYALKRQGRTLYGFGG-RHRKVLRDNIQGITKPAIRRLARRGGVKRISGLIYEETRGVLKVFLENVIRDAVTYTEHAKRKTVTAMDVVYALKRQGRTLYGFGG-RHRKVLRDNIQGITKPAIRRLARRGGVKRISGLIYEETRGVLKVFLENVIRDAVTYTEHAKRKTVTAMDVVYALKRQGRTLYGFGG-RHRKVLRDNIQGITKPAIRRLARRGGVKRISGLIYEETRGVLKVFLENVIRDAVTYTEHAKRKTVTAMDVVYALKRQGRTLYGFGG-RHRKVLRDNIQGITKPAIRRLARRGGVKRISGLIYEETRGVLKVFLENVIRDAVTYTEHAKRKTVTAMDVVYALKRQGRTLYGFGG-RHRKVLRDNIQGITKPAIRRLARRGGVKRISGLIYEETRGVLKVFLENVIRDAVTYTEHAKRKTVTAMDVVYALKRQGRTLYGFGG,DDVVLGEKAA-AKKALTEKQR-TKAALTKAAR-SRVALTEANR-KTALLTKAAR-AKAVLTKAAR-RTLYLQERNV-RLLPLSTAAA-DHVELTDEER-TLPNLAKRLK,DVEELTASQR-DVEELTASQR-DVEELTASQR-DVEELTASQR-DVEELTASQR-DVEELTASQR-DVEELTASQR-DVEELTASQR-DVEELTASQR-DVEELTASQR
27.0,54,64,B,10,GGIDPFGSGAEAAFALDPRKDRPREEGRCRGGGNFARITKEQRDAAMAALAEARRRG-GGRPGRGAGAAARRRADPARDRPTYAGRCLPACDRTPIGRAAYLACRAALRAAQRAG-GSLSGSGSGSGSLFKLEPEKDRPDLYGRVLPDANYTPITKEQMDAARKAFAEMKKES-GGVDPFGPGAEEAFRVVPRLDEPDLEGRCRGGCDRSPLGEEAREAARRALAEAKRRG-GGSSGSGSGSGAANRLVPELDYPNREGRVVGKEDRRPITVKQLEACNRYLEEVEKRR-GGSSGSGKGAGKRGKKVPEKDKPSKEGRCLGECDTSPLSKERFDAAKKAVKEAKAKG-GGMDFEGEGAEALFDAVPELDRPDAEGRCLGDCDRTPLTEEQYEACRAEIARKNAEG-KGVSMKGDGAEILFKKVPELDKPNTEGRCVGKCDKTPIDKDKKERAEKALKDAEKQG-GGVPGSGDGADLLFSIVPENDRENPEGRCVGLCDTRPITKEALEACRAAQAEADKKG-GGYDPFGDGAEALFNKIPEDDNPTEEGECIGSCDRTPLSKEQQDAFEQYVRDLNKEK,DGEELIGDGMERDYRAIPELDAYEAEGLALDDEDVEELTASQREAAERAMRQRDREA-DGEELIGDGMERDYRAIPELDAYEAEGLALDDEDVEELTASQREAAERAMRQRDREA-DGEELIGDGMERDYRAIPELDAYEAEGLALDDEDVEELTASQREAAERAMRQRDREA-DGEELIGDGMERDYRAIPELDAYEAEGLALDDEDVEELTASQREAAERAMRQRDREA-DGEELIGDGMERDYRAIPELDAYEAEGLALDDEDVEELTASQREAAERAMRQRDREA-DGEELIGDGMERDYRAIPELDAYEAEGLALDDEDVEELTASQREAAERAMRQRDREA-DGEELIGDGMERDYRAIPELDAYEAEGLALDDEDVEELTASQREAAERAMRQRDREA-DGEELIGDGMERDYRAIPELDAYEAEGLALDDEDVEELTASQREAAERAMRQRDREA-DGEELIGDGMERDYRAIPELDAYEAEGLALDDEDVEELTASQREAAERAMRQRDREA-DGEELIGDGMERDYRAIPELDAYEAEGLALDDEDVEELTASQREAAERAMRQRDREA,LVKQFRGEDC-LLNRFCRCAP-VFRDFQKKDP-LLRRFRGCRG-VLLEFKGVKP-ILKAFCNIKP-DLARFAGCDP-IMADFCDIEC-LVKAYKGCDC-ELRKFAQCKP,TYTEHAKRKT-TYTEHAKRKT-TYTEHAKRKT-TYTEHAKRKT-TYTEHAKRKT-TYTEHAKRKT-TYTEHAKRKT-TYTEHAKRKT-TYTEHAKRKT-TYTEHAKRKT
