contacts,cs,ce,Chain,Length,designed_receptor_seq,native_receptor_seq,designed_binder_seq,native_binder_seq
19.0,0,10,A,10,GGVAGVGKGAEVRYQAVPELDVPDDEGRILPQADVTEVGVEERVKRLKDEAEAEAAE-GGVLGSGPGAEKLFQVIPELDTPTTKGRKLPGSKTKKVTEEERKAKEEAERLRRERE-GGVPLLGAGREEAYELRPELDLPDEEGRVLPGQDRRPLGLGALRRRLRERRERLERE-GGHMGRGRGRERLFVEVPELDQPDLEGRKLGKRKKKPLGRKAKRKKEEEEEEEEEEE-GGVEGDGQGAEALYALVPELDRPDAEGRKIGGSDMSGIGVRRLLRRRLEKALDEQKS-GGSSMAGVGAASKYAVIPELDRPDDEGRVVGRTDVTPVSEEERLAQERAEAERERRE-GGRRGRGRGAQSRYLQVPELDRPDEEGRTLGKADDTPLSEEERRERLLREAREQRRQ-GGVDPFGDGIEALYKDIPELDRPNEEGRIIGGEDRTPLGKEELERLQKEAEEARRKA-MGLNGDGYGDEERFVLIPELDRPDERGRILGNRNFRPVGKEREEERRRKLAEQAARE-GPLAGIGEGAEELYRDIPELDKPTAEGMRIGNGKKRPLGEEKKKALEEKNRELEEKN,DGEELIGDGMERDYRAIPELDAYEAEGLALDDEDVEELTASQREAAERAMRQRDREA-DGEELIGDGMERDYRAIPELDAYEAEGLALDDEDVEELTASQREAAERAMRQRDREA-DGEELIGDGMERDYRAIPELDAYEAEGLALDDEDVEELTASQREAAERAMRQRDREA-DGEELIGDGMERDYRAIPELDAYEAEGLALDDEDVEELTASQREAAERAMRQRDREA-DGEELIGDGMERDYRAIPELDAYEAEGLALDDEDVEELTASQREAAERAMRQRDREA-DGEELIGDGMERDYRAIPELDAYEAEGLALDDEDVEELTASQREAAERAMRQRDREA-DGEELIGDGMERDYRAIPELDAYEAEGLALDDEDVEELTASQREAAERAMRQRDREA-DGEELIGDGMERDYRAIPELDAYEAEGLALDDEDVEELTASQREAAERAMRQRDREA-DGEELIGDGMERDYRAIPELDAYEAEGLALDDEDVEELTASQREAAERAMRQRDREA-DGEELIGDGMERDYRAIPELDAYEAEGLALDDEDVEELTASQREAAERAMRQRDREA,SPITRRARPA-SPLTKRALPT-SPLVRRRRPR-SPFHERVLPL-SPLTKRARPA-RDLVLRTLPL-SPLLVRRRPL-KRIGRRKRPS-SPQTRRVRPK-SPIKYRTRPW,TELLIRKLPF-TELLIRKLPF-TELLIRKLPF-TELLIRKLPF-TELLIRKLPF-TELLIRKLPF-TELLIRKLPF-TELLIRKLPF-TELLIRKLPF-TELLIRKLPF
26.0,19,29,B,10,STKVLEKLPFQRLVRKIAKNFKKDLKFQISAISALQEATEAYLVGILEDAKLLAKHAKRKTIKPEDVQLARRIRGIK-GSHMLKKLPFQRLVLDIAREFKKELKFQADAIEALQECSEAYLAEIMEDAALFAHHAKRKTVQPRDIQLARRIRGER-SNAFLPKLPFQRLVQKIAKDFEKDLKFQKEAIELLQEVTEAYLAEILEDAILLAKHAKRKTIQPKDIQLARRLKGEE-GAMVLKKLPFQRLVLAIAKEFKEELKFQADAIKALMEASEAYLVGIFEDMKLFAKHAMRKTIMPKDVQLARRIRGEG-GSHMFKKLPFQRLVLEIAKEFKEELTFQKETISALLEATEAYIAGIAEDAILLARHAKRKTVKPEDVQLARRIRGDK-GSHMLKKLPFQRLVLEIAENFKKELKFQKEAIEALMECTEAFISEMAEDAVLFARHAKRKTVKPEDIQLARRIRGET-GSHMLPKLPFQRLVLQIAEHFEKNLKFQKEAILTLMEVTEAFLSEVMEDAVLLARHAKRKTVQPRDIQLALRIRGVS-SNAMLRKLPFQRLVLKIAEEFEEDLTFQKEAINLLLEKTELFLANIMEDAKLFARHAKRKTITPQDVQLARRLRGER-GSHMLEKLPFQRLVKRIAEEFRGDLKFQKEAILALQEATEAFLAEVLEDSVLLAHHAKRSTVQPQDVQLALRIRGHT-GSHMLKKLPFQRLVFRIAEDFRDELKFQAEAIRLLQECSEAYLTEIFEDCKLLAKHAKRKTVKPEDIELARRIRGYK,TELLIRKLPFQRLVREIAQDFKTDLRFQSAAIGALQEASEAYLVGLFEDTNLCAIHAKRVTIMPKDIQLARRIRGER-TELLIRKLPFQRLVREIAQDFKTDLRFQSAAIGALQEASEAYLVGLFEDTNLCAIHAKRVTIMPKDIQLARRIRGER-TELLIRKLPFQRLVREIAQDFKTDLRFQSAAIGALQEASEAYLVGLFEDTNLCAIHAKRVTIMPKDIQLARRIRGER-TELLIRKLPFQRLVREIAQDFKTDLRFQSAAIGALQEASEAYLVGLFEDTNLCAIHAKRVTIMPKDIQLARRIRGER-TELLIRKLPFQRLVREIAQDFKTDLRFQSAAIGALQEASEAYLVGLFEDTNLCAIHAKRVTIMPKDIQLARRIRGER-TELLIRKLPFQRLVREIAQDFKTDLRFQSAAIGALQEASEAYLVGLFEDTNLCAIHAKRVTIMPKDIQLARRIRGER-TELLIRKLPFQRLVREIAQDFKTDLRFQSAAIGALQEASEAYLVGLFEDTNLCAIHAKRVTIMPKDIQLARRIRGER-TELLIRKLPFQRLVREIAQDFKTDLRFQSAAIGALQEASEAYLVGLFEDTNLCAIHAKRVTIMPKDIQLARRIRGER-TELLIRKLPFQRLVREIAQDFKTDLRFQSAAIGALQEASEAYLVGLFEDTNLCAIHAKRVTIMPKDIQLARRIRGER-TELLIRKLPFQRLVREIAQDFKTDLRFQSAAIGALQEASEAYLVGLFEDTNLCAIHAKRVTIMPKDIQLARRIRGER,QSEYSQEGLK-LEELEDEGID-RNELDDEGIE-REELEEEGLC-SSEYDKKGLK-RDKLDKEGLL-RTQLDEEGLL-RDFLSEEGLK-RSQLTPEGLR-ADHLDARGLR,LDAYEAEGLA-LDAYEAEGLA-LDAYEAEGLA-LDAYEAEGLA-LDAYEAEGLA-LDAYEAEGLA-LDAYEAEGLA-LDAYEAEGLA-LDAYEAEGLA-LDAYEAEGLA
