contacts,cs,ce,Chain,Length,designed_receptor_seq,native_receptor_seq,designed_binder_seq,native_binder_seq
36.0,168,178,A,10,GAMAFNTTPVPSIHPHATGEEDCYSLFSQPASLYEFNNKENKWEWAGSGNLSILQNKTTGKVRVLMRNHQTHKLVANFFLQPSDVADDFLGDNNSFAFSAMDFSSQVPQPKTIKIRFNLPRSAAKFLFIFTLAQHTKSC-GSHMEIGFPVPQYEKIQTGLEKTHDIFVHKAALYAYNFQTYVWKHAGTGKIRILRNMTSGEVWAHMQRESRYKICLNAFITPEMKLTPEHSSKNSYTFNATDYANKQAKPEILKISFSMPEHADEFHHQFKLAQKRAEG-GSSKPFQFLRPKLTPTETGLHDTYSLFCCPAILFNFDNVLTTWKCAGTGDVRILRHGRSGKTRAVMRASRTRRLVLNAFLTPSMDLKPRVGSWTSFTWAALDYAESTLEPRTLRVEFETPSHARMWLETMSMAQSQQQQ-GSSLTLAVPMPAAKPILTGLESYQQLFSEHAIFYTHDKEKQQWMFSGMGRILIVKHKESGEIRGVMHRHRKFYLVANFFIRSDQTLIPQKDDKHSVSFEALDFARQELTPVRIRIDFETPEQCSLFVETYIAAQKASET-GSSHMAEAPEPRKEVVKTGEEDKFDLFSQWAVLYHYNAKKRVWRFAGAGNLHIRRDRQTGKICVSMRMTFTNWLCGNFFLTPEMKLIPGDGDNRSFTWKALDFAKRKATPKEIMVKFATPEKASQWESSFLKAQKFYDK-GSSSSIEYLYPTWKPYDTGFSHFDDRFAMPCELYEFDSKKRMWRWSGRGRMRILVHRESGRIRMVARKMETLKLVANFYITPSMVFLPNMCDDCSFVFRAMDYSLRQVRPRIIKVKFARPEDAERFQSTFQLARDELLK-GSSSEVLVPLPKQQPVKTGTENSYTRFAADCALFVFDVSSRKWKFAGFGTLRILENRITGEIRCFMQQMKMYDVCANFFITPQMVLIPLIRDNNGFVWDALDFSLKQPRPRRIAIYFITPAYAKEFQRSFEHAQHGLQN-GSSHHHHHHSSGSEVLVSGLEAWHDKFVEEAVLHIWDKEESTWKEAGFGNLRIKEHRVSGKVRLCMRAWSVHKQCANFFIRPEMTLIPNVGDDTSFTFDAKDYAAKVIEPRTIRIRFLRPKDAERFQSIFTDAQDLYRN-GASSMTAGPVPEQQPAVSGEEDEVTLFSSWATLEIWNTTIKQWEFAGRGNIEILENTVTGDIRAVMRRFKNFKLCANFYITPTMELVPLQGDNRSFIFEALDFASKEKTPMTIRVWFEKPKKAEHFLNTFKMAQLDNTT-GQEFVMEIPVPSLTQLETGLDDEQDLFRCHCHLHRFEREVQRWRYAGAGFLRILVNNITGETRMMMRREKEHAICANFRIKPEMKLVPGEGDECSFMWRAKDYARFQPNWATIRVSFKTPSEARLFAHQFSGARAQYAA,GPHFEPVVPLPDKIEVKTGEEDEEEFFCNRAKLFRFDVESKEWKERGIGNVKILRHKTSGKIRLLMRREQVLKICANHYISPDMKLTPNAGSDRSFVWHALDYADELPKPEQLAIRFKTPEEAALFKCKFEEAQSILKA-GPHFEPVVPLPDKIEVKTGEEDEEEFFCNRAKLFRFDVESKEWKERGIGNVKILRHKTSGKIRLLMRREQVLKICANHYISPDMKLTPNAGSDRSFVWHALDYADELPKPEQLAIRFKTPEEAALFKCKFEEAQSILKA-GPHFEPVVPLPDKIEVKTGEEDEEEFFCNRAKLFRFDVESKEWKERGIGNVKILRHKTSGKIRLLMRREQVLKICANHYISPDMKLTPNAGSDRSFVWHALDYADELPKPEQLAIRFKTPEEAALFKCKFEEAQSILKA-GPHFEPVVPLPDKIEVKTGEEDEEEFFCNRAKLFRFDVESKEWKERGIGNVKILRHKTSGKIRLLMRREQVLKICANHYISPDMKLTPNAGSDRSFVWHALDYADELPKPEQLAIRFKTPEEAALFKCKFEEAQSILKA-GPHFEPVVPLPDKIEVKTGEEDEEEFFCNRAKLFRFDVESKEWKERGIGNVKILRHKTSGKIRLLMRREQVLKICANHYISPDMKLTPNAGSDRSFVWHALDYADELPKPEQLAIRFKTPEEAALFKCKFEEAQSILKA-GPHFEPVVPLPDKIEVKTGEEDEEEFFCNRAKLFRFDVESKEWKERGIGNVKILRHKTSGKIRLLMRREQVLKICANHYISPDMKLTPNAGSDRSFVWHALDYADELPKPEQLAIRFKTPEEAALFKCKFEEAQSILKA-GPHFEPVVPLPDKIEVKTGEEDEEEFFCNRAKLFRFDVESKEWKERGIGNVKILRHKTSGKIRLLMRREQVLKICANHYISPDMKLTPNAGSDRSFVWHALDYADELPKPEQLAIRFKTPEEAALFKCKFEEAQSILKA-GPHFEPVVPLPDKIEVKTGEEDEEEFFCNRAKLFRFDVESKEWKERGIGNVKILRHKTSGKIRLLMRREQVLKICANHYISPDMKLTPNAGSDRSFVWHALDYADELPKPEQLAIRFKTPEEAALFKCKFEEAQSILKA-GPHFEPVVPLPDKIEVKTGEEDEEEFFCNRAKLFRFDVESKEWKERGIGNVKILRHKTSGKIRLLMRREQVLKICANHYISPDMKLTPNAGSDRSFVWHALDYADELPKPEQLAIRFKTPEEAALFKCKFEEAQSILKA-GPHFEPVVPLPDKIEVKTGEEDEEEFFCNRAKLFRFDVESKEWKERGIGNVKILRHKTSGKIRLLMRREQVLKICANHYISPDMKLTPNAGSDRSFVWHALDYADELPKPEQLAIRFKTPEEAALFKCKFEEAQSILKA,QDYQKAEVPP-KIYERAAKPP-LLHQKATVPP-SEFELAHIPP-LKTELDDEPP-SELEPALVPP-KMREKADVPP-YYLEEAQVPP-VTFEPALIPP-RLKETAATPP,FVAMPALAPP-FVAMPALAPP-FVAMPALAPP-FVAMPALAPP-FVAMPALAPP-FVAMPALAPP-FVAMPALAPP-FVAMPALAPP-FVAMPALAPP-FVAMPALAPP
28.0,69,79,B,10,MNHFKLVLLGDGGCGKTSFITRHTTGEFLEQYEATIGVNVEPLKFYTNLGPITFEVWDTAGQERFGGLRDSYMKDAQCAIIMFDVTNPTSLHNVPKWHQELIRIQQEIPIVLTGNKKDLPRPSVPANAVTYHMHANLQYFDTSALTGHNIERPFLHLARQLIGNPSLQIVPTPMKTPTV-MVRYKLCIVGDGGVGKTTFVIRHKTGKFQEKYIPTIGVEVTPLDFYTDRGPITFTVWDTAGQEEYGGLREGYYRSSQCAIIMFDVTKQVTLENVPQWYKELRRIEDKIPIVLAGNKVDVQERLVPDEAITIYKTQNLKYFNISALTGENLAKPFLELARKLIGDEDLEIVREPATKPEN-MPYFKLCLLGDSGVGKTSFVRRHSTGEFDAKYIPTIGVDVKPLTFWTNQGPVTFFVWDTAGQERFAGMTRAYRKDAQCAVIMFDLTRKSTYENVPNWLKQLKEVEKEIPIVLCGNKRDLPHREVAKSQVNLHLEENLQYFDTSAKTGENIDNPFLTLLRKLVGNSKLEIIPEPRKTPKP-LNSFKLVLVGDSGVGKTSFVTRHMTGAFSGEYIPTIGVDIKPHTFYTNLGPIKFFIWDTAGQERFGGLTAGYYRGAQCAIIMFDITRKESLENVPNWLDSIRRYEREIPIILAGNKCDIPIRLVPEDEIKIHRKHSLKYFDTSAKSGENLHLPFLWLAQRLIGDPELKIIEEPALEPVP-MSAFKLVLVGDTGTGKTTFVIRHTTGSFDPDYVPTIGVDISPRTFYTDKGPITFAVWDTGGQEQFGGIRESYYRASQAAIIMFDVTNSRSLENVPKWHHDLRRHVANIPIVLAGNKCDIPKREVPQDEIRYHLEANLTYFETSALTGKNAAMPFVTLARKLIGDPELNFVDEPAEEPPD-GTGFKLILVGDSGVGKTSFIIRHSTGAFVDSYIPTVGVEVHPQTFYTDEGPIKFMVWDTAGQERFGGMRDGYMRSAQCAIIMFDRTRSETLENVPQWLHDIKRVNQNVPIILTGNKCDIPEPEVKQDEITVHEKADLMYFNISAKTGANAHKPFLTLARNLIGNEKLEIIKEPQPQPEG-ETSFKLVLVGDAGTGKTSFVMRHYSGRFTEEYVATIGVDIKNLQFYTNQGPLTFQVWDTGGQERYRHVTKAYFRNAQCAVIMFDKTRKSTYDNVPQWHKEIITHVANIPIVLAGNKIDIATPEVKQDDVTYHLKEDLKYYPTSALTGHNLEQPFLWLARKLIGNKDLQIVEEPVGEPPY-MTGFKLAIVGDAGVGKTSYVIRHQSGDFTENFIPTLGANITPLTFYTDKGPVEFSVWDTGGQERYHSLASAYYRGAQCAIIMFDSTRLITLKSVPRWYEQLVDVEEEIPIVLCGNKCDLENREVPKDQVTIHNQWNLTYFDTSALTGENLQQPFLTLARKLIGDEELAIVEEPSCKPKD-MTNYKLIIVGDGGVGKSTFIIRHKTGDFAESYIPTVGVDFRTLTFFTDKGPIKFNVWDTAGQERYHSMTKQYYRNAQCAIIMFDVTRRATLESVPNWLKELKKVEKDIPIVLAGNKIDIPDREVKKNEINIHIEQRLQYFDTSAQTGHNLDKPFLWLARKVVGAPNLKITIEPKGKPEG-DRRFKLVMVGDSGVGKSCFIFRHTTGRFEETYRPTIGVDIKPQTFHTDAGPLTFDVWDTGGQERFRALTTGYYRGAQCAIIMFDVTRRETLEHVPNWFEELTKVVQDIPIVLAGNKVDIPDREVPKDEITFHREKQLIYFDTSAKSSTNLHLPFLVLARQLIGDPQLQITQTPRQLPDD,QVQFKLVLVGDGGTGKTTFVKRHLTGEFEKKYVATLGVEVHPLVFHTNRGPIKFNVWDTAGQEKFGGLRDGYYIQAQCAIIMFDVTSRVTYKNVPNWHRDLVRVCENIPIVLCGNKVDIKDRKVKAKSIVFHRKKNLQYYDISAKSNYNFEKPFLWLARKLIGDPNLEFVAMPALAPPE-QVQFKLVLVGDGGTGKTTFVKRHLTGEFEKKYVATLGVEVHPLVFHTNRGPIKFNVWDTAGQEKFGGLRDGYYIQAQCAIIMFDVTSRVTYKNVPNWHRDLVRVCENIPIVLCGNKVDIKDRKVKAKSIVFHRKKNLQYYDISAKSNYNFEKPFLWLARKLIGDPNLEFVAMPALAPPE-QVQFKLVLVGDGGTGKTTFVKRHLTGEFEKKYVATLGVEVHPLVFHTNRGPIKFNVWDTAGQEKFGGLRDGYYIQAQCAIIMFDVTSRVTYKNVPNWHRDLVRVCENIPIVLCGNKVDIKDRKVKAKSIVFHRKKNLQYYDISAKSNYNFEKPFLWLARKLIGDPNLEFVAMPALAPPE-QVQFKLVLVGDGGTGKTTFVKRHLTGEFEKKYVATLGVEVHPLVFHTNRGPIKFNVWDTAGQEKFGGLRDGYYIQAQCAIIMFDVTSRVTYKNVPNWHRDLVRVCENIPIVLCGNKVDIKDRKVKAKSIVFHRKKNLQYYDISAKSNYNFEKPFLWLARKLIGDPNLEFVAMPALAPPE-QVQFKLVLVGDGGTGKTTFVKRHLTGEFEKKYVATLGVEVHPLVFHTNRGPIKFNVWDTAGQEKFGGLRDGYYIQAQCAIIMFDVTSRVTYKNVPNWHRDLVRVCENIPIVLCGNKVDIKDRKVKAKSIVFHRKKNLQYYDISAKSNYNFEKPFLWLARKLIGDPNLEFVAMPALAPPE-QVQFKLVLVGDGGTGKTTFVKRHLTGEFEKKYVATLGVEVHPLVFHTNRGPIKFNVWDTAGQEKFGGLRDGYYIQAQCAIIMFDVTSRVTYKNVPNWHRDLVRVCENIPIVLCGNKVDIKDRKVKAKSIVFHRKKNLQYYDISAKSNYNFEKPFLWLARKLIGDPNLEFVAMPALAPPE-QVQFKLVLVGDGGTGKTTFVKRHLTGEFEKKYVATLGVEVHPLVFHTNRGPIKFNVWDTAGQEKFGGLRDGYYIQAQCAIIMFDVTSRVTYKNVPNWHRDLVRVCENIPIVLCGNKVDIKDRKVKAKSIVFHRKKNLQYYDISAKSNYNFEKPFLWLARKLIGDPNLEFVAMPALAPPE-QVQFKLVLVGDGGTGKTTFVKRHLTGEFEKKYVATLGVEVHPLVFHTNRGPIKFNVWDTAGQEKFGGLRDGYYIQAQCAIIMFDVTSRVTYKNVPNWHRDLVRVCENIPIVLCGNKVDIKDRKVKAKSIVFHRKKNLQYYDISAKSNYNFEKPFLWLARKLIGDPNLEFVAMPALAPPE-QVQFKLVLVGDGGTGKTTFVKRHLTGEFEKKYVATLGVEVHPLVFHTNRGPIKFNVWDTAGQEKFGGLRDGYYIQAQCAIIMFDVTSRVTYKNVPNWHRDLVRVCENIPIVLCGNKVDIKDRKVKAKSIVFHRKKNLQYYDISAKSNYNFEKPFLWLARKLIGDPNLEFVAMPALAPPE-QVQFKLVLVGDGGTGKTTFVKRHLTGEFEKKYVATLGVEVHPLVFHTNRGPIKFNVWDTAGQEKFGGLRDGYYIQAQCAIIMFDVTSRVTYKNVPNWHRDLVRVCENIPIVLCGNKVDIKDRKVKAKSIVFHRKKNLQYYDISAKSNYNFEKPFLWLARKLIGDPNLEFVAMPALAPPE,GCKKLISNVR-KTKKIVANNL-LFKKTVYNEN-YCQKITKNGK-TCKQIRWNTA-ILKKIVANGC-DGKKVVYDEF-ACKKIEFGSF-TTKAIVHNGQ-DCRATIANEE,QVLKICANHY-QVLKICANHY-QVLKICANHY-QVLKICANHY-QVLKICANHY-QVLKICANHY-QVLKICANHY-QVLKICANHY-QVLKICANHY-QVLKICANHY
