contacts,cs,ce,Chain,Length,designed_receptor_seq,native_receptor_seq,designed_binder_seq,native_binder_seq
26.0,113,123,A,10,MSTNPDPIVVQFLKAQEKDSKGADIGCGDGKYLDVNKNVSIRGSDISVKLVEKAFKNNPARDVSVSDAIKHHFTKAEFDFAINVAVIHLFHTEKTRTEAVLATLKTLKPNGKALIYVWSRNIGSDINVPHEVNSNGITHTIQRYYHLYKADELSKLIIQAGGKVLVKGYENENHWVIAQNGDNM-MRTRPLPVVKKFLLSMERRSMGVDIGCGNGIHLSYNKDVLITGIDASKYLVEQAYKEDRSRKVMVSDVVKNAIEQRSFDFVINVAVLHLFKTNESRIAAVKAVLDTLKPEGKALIYVWSKMCGSHISVPHEVNYNGEVVEIERFYHLFIKGELSTMIRDAGGKVLKEGYERTNHWVICELGQKE-GSSEFLPIVHSFLLDQPEASVGADLGCGSGRFLSVNDSVVIKGSDYSEELVEEAYKKNPDHQVGVTDVIHNCFEREKYDFAIMVSVLHLFKTPKHRVSAVKSVLCTLKPEGRALIYVWAKHDELDIEIPSRVVRDGIIKTINRFYHLYKYGELSKEIEDSGGEVLTVGFEVKNHYVIAKKGRTL-GPLGSMNIVDSFLVNQPNQAIGVDLGCGDGRYLGKNKNINILGIDSSKEMVQKCFNADQNRNVAVSDLIANCVFKGAYDFVINIAVLHHFCTKSRRISAVRSTLNTLKPEGIALIFVWAKESPQNVSLPWSQMTEGVYQIVERYYHLFSSNELSTLITNAGGTVIQKGFENDHWWVICQLGESS-MVNAPHPIAKDFLLAQPANARGADLGCGTGRFLGVNHKVSIHGLDASHGMVLTCYEANPLHNVSVSDAINHCLMPGKFDFVIALAVINHFDTPTSRQAAVLSMLRCLKPNGRALIFVWSKEDNQDIQIPWRRIEKGAVKNINRFYHRYQKGELSTDINEAGGQVLAEGYEKENHWVICKLDTAR-GHMGEDNIITKFLKSQKKDSRGIDMGCGNGRYMDVNNDVEILGIDISHELCKEAYEANPKRNVCIADAVNHCAENESFDFSICVAVIHHFDTKEERENAVESILRTLKPDGEALIYVWAKEDENHIKVDANVYKDGVKNTIERYYHLFKEGELTSLIENAGGTVLETGFEEDNHFVICKNGNNN-GHMSQRPIVHSFLLCQPGEAVGVDIGCGNGRYLGVNNSVNITGIDLSMSLCKKAYDLNQERDVCVSDAIKNCIPNRCYDFAICVLVLHHFSTDLKREDAVASVLSCLKPEGRALIYVWSLEAGSDVWEDELVQRDGVVEQVRNYYHLYDEGELSSLIRRAGGKVNTVGKEASHHWAICSNSSSD-GIDFPRPIVEQFLLSAKKDSKGVDIGCGNGRFLSVNKDISIVGIDKSEDLVLQAYRSNKDRNVGISDAIHHCIPDNSFDFAIMVSVIHHFDTPEARCSAVRAGLNTLKPDGKALIYVWAFEDESDIRVKWDREIKGEIKTILRFYHLFTQNELSNEIIESGGEVLTTGYEEKNWWVIAKKGSES-VQRKALPIVEEFLLAQPNRATGIDIGCGDGRYLGINQDVDIIGIDISVDRVERAYAADPRYKVMVSDAINHAAPFGFFDFSIVVAVLHHFDTPESRRDAVLAALKTLKPDGKALIYVWAKRNSRNIQVPWRVLKNGETLCRERFYHLYEPNELSKEIEDAGGGVLQTGYEADNWFVIASLGESA-GHMQPLPIEHRFLLSRPSKSIGVDVGCGDGKFLGINTDIHVLGIDPSHSMVIQAYKSNPKREVMISDAIDHAIPFGAYDFAISISTLHNFKTPAKRQAHIKSILDTLKPEGEALIYVWSVYDGQDISVPWLVNENGKTKEVERFYHLFSDGELSDEIVNAGGTVLEEGYEDKNHYVIAQKGADK,TRYKPWPIVEKFLRDQKDHSVGVDIGCGNGKYMGVNNKVFIVGSDRSDELVKLAHDMDPSREVVVCDAIDNAHPEGRFDFAISIAVIHHFSTPERRREAVRAILNTLRPDGRALIYVWALEQDQDVMVPWVKKVDGVEEVRYRYYHLYREGEITSDVEASGGKVLETGYEKDNWWVVAKRGDDW-TRYKPWPIVEKFLRDQKDHSVGVDIGCGNGKYMGVNNKVFIVGSDRSDELVKLAHDMDPSREVVVCDAIDNAHPEGRFDFAISIAVIHHFSTPERRREAVRAILNTLRPDGRALIYVWALEQDQDVMVPWVKKVDGVEEVRYRYYHLYREGEITSDVEASGGKVLETGYEKDNWWVVAKRGDDW-TRYKPWPIVEKFLRDQKDHSVGVDIGCGNGKYMGVNNKVFIVGSDRSDELVKLAHDMDPSREVVVCDAIDNAHPEGRFDFAISIAVIHHFSTPERRREAVRAILNTLRPDGRALIYVWALEQDQDVMVPWVKKVDGVEEVRYRYYHLYREGEITSDVEASGGKVLETGYEKDNWWVVAKRGDDW-TRYKPWPIVEKFLRDQKDHSVGVDIGCGNGKYMGVNNKVFIVGSDRSDELVKLAHDMDPSREVVVCDAIDNAHPEGRFDFAISIAVIHHFSTPERRREAVRAILNTLRPDGRALIYVWALEQDQDVMVPWVKKVDGVEEVRYRYYHLYREGEITSDVEASGGKVLETGYEKDNWWVVAKRGDDW-TRYKPWPIVEKFLRDQKDHSVGVDIGCGNGKYMGVNNKVFIVGSDRSDELVKLAHDMDPSREVVVCDAIDNAHPEGRFDFAISIAVIHHFSTPERRREAVRAILNTLRPDGRALIYVWALEQDQDVMVPWVKKVDGVEEVRYRYYHLYREGEITSDVEASGGKVLETGYEKDNWWVVAKRGDDW-TRYKPWPIVEKFLRDQKDHSVGVDIGCGNGKYMGVNNKVFIVGSDRSDELVKLAHDMDPSREVVVCDAIDNAHPEGRFDFAISIAVIHHFSTPERRREAVRAILNTLRPDGRALIYVWALEQDQDVMVPWVKKVDGVEEVRYRYYHLYREGEITSDVEASGGKVLETGYEKDNWWVVAKRGDDW-TRYKPWPIVEKFLRDQKDHSVGVDIGCGNGKYMGVNNKVFIVGSDRSDELVKLAHDMDPSREVVVCDAIDNAHPEGRFDFAISIAVIHHFSTPERRREAVRAILNTLRPDGRALIYVWALEQDQDVMVPWVKKVDGVEEVRYRYYHLYREGEITSDVEASGGKVLETGYEKDNWWVVAKRGDDW-TRYKPWPIVEKFLRDQKDHSVGVDIGCGNGKYMGVNNKVFIVGSDRSDELVKLAHDMDPSREVVVCDAIDNAHPEGRFDFAISIAVIHHFSTPERRREAVRAILNTLRPDGRALIYVWALEQDQDVMVPWVKKVDGVEEVRYRYYHLYREGEITSDVEASGGKVLETGYEKDNWWVVAKRGDDW-TRYKPWPIVEKFLRDQKDHSVGVDIGCGNGKYMGVNNKVFIVGSDRSDELVKLAHDMDPSREVVVCDAIDNAHPEGRFDFAISIAVIHHFSTPERRREAVRAILNTLRPDGRALIYVWALEQDQDVMVPWVKKVDGVEEVRYRYYHLYREGEITSDVEASGGKVLETGYEKDNWWVVAKRGDDW-TRYKPWPIVEKFLRDQKDHSVGVDIGCGNGKYMGVNNKVFIVGSDRSDELVKLAHDMDPSREVVVCDAIDNAHPEGRFDFAISIAVIHHFSTPERRREAVRAILNTLRPDGRALIYVWALEQDQDVMVPWVKKVDGVEEVRYRYYHLYREGEITSDVEASGGKVLETGYEKDNWWVVAKRGDDW,SNTNGIKYYI-SRENGIEYYK-KQSNGIYKFF-HIEKQIAFFH-GVFEGIRVYI-QLVDGIYYFD-LREGAIPHFT-KVDNGIKYYK-ITRHGIAYHL-TKNDGIQIFR,FIKNSIPNFL-FIKNSIPNFL-FIKNSIPNFL-FIKNSIPNFL-FIKNSIPNFL-FIKNSIPNFL-FIKNSIPNFL-FIKNSIPNFL-FIKNSIPNFL-FIKNSIPNFL
31.0,63,73,B,10,MRILAFNFMQCTNVTCKGNGGAFPLQVTAEKTHTRERDFDPVAIVNLLDSIDWNAARETLAALGIEAFPDERPSISDPEAEGNQALLRHMHYLLEEVHVDDGHLRCTVCGRVFEIKDGVADFFP-METISLNFIRCTNEACKGTNGSYPLKYRAENRKTTFTKFDPSMIVDLLHEINWKALRLNMKALGIEGLPEERPTITKPNAKGNQDLLQQLHHVLIEQEILEGTLTCQNCGTIYEVKNGIPSFGE-MRLLKLNFIRCTNKECQSSGKAFPLQYKADATEAREEQYDPAELVGLLNLIDWQALRQSLSHLGLTEIPSERPQIEQPQAQSHQGLLKQLHRILIETHILEGTAQCTACGHTFCINKGVAQFLP-MRLLTFNFIECTNLECQEKGGAFPLTTMAESIEYKDRSFNPDQLVEMLNFINWHNLKKNLNDLGIKGIPDSRPKIEKPTSTAHQGLLQHLHYLLDCIYIIHGILKCEECGKVYLIKDDIAVFLP-YDILSFAFTRCTNATCQGDLKAFPLTVTASAMEKEQRTYDPVKLVGDLSHLDWEALRRQLESLGIHDIPETKPDITDPEAKGNQGLLQHLHYLLDQTVITRGELTCTACGHSYRIMEGISTWLP-MRVLETNFIQCTNAECQKNQRAFPLRFTADETEIQETEFDPNMLVNLLNQIDWQALRQSLNDLGISDIPETRPAITDPNSVEHQGLLRHLNHLLIERHIIRGDAVCQACGYRYQIKDGIRDWTP-MRLINFNWMACTSIECQGRGKAFPLHYHADDMLTRHTRFDPEFIVSELAHLDWEATRKRLASLGFTAIPDQRPEITAPADAGHQGLLKELWLLLECTHVTDGTATCLACGQVFTIEDGIASFSP-MQLLSLNYIRCSCSECQKNRQAYPLHWEAQEYQEKAAEYNPAYLVQLLEEVDWRALRASLLDLGYHWLPEDRPSIVQADAEGNQGLLRQLDHLLRMNWILNGTARCQACGKTYHIVNGIPSMGP-MQLIATNYIRCTDTTCQKEGRAFPLSVTALDQEVRTQEFHPVRIVNLLGYLDWKALRQTLEALGHSNVPNAKPAIEDPQAEGNQTLLHHLHHILFCVHIVEGHLRCTWCGKTYVIEDEVANFLP-MKILELNFIGCTNLECKQNNQAFPLHWSADETEIRSLEYDPTYLVNLLDSIDWNACRAQLVALGETGLPAEKPVIDDPAADGNQGLLNQMDELLFKRHITHGTAQCQACGSSYIISSEVPDFTP,MKFLTSNFVQCASKQCVSSGNAFPLTFSALEMVQQEAEFDPEFLVSMLERIDWAALVKVANDLGNESLPDVKPEIDEPFAEGNQGLLQELHSLLIETCIVEGTMKCENCGHTYFIKNSIPNFLL-MKFLTSNFVQCASKQCVSSGNAFPLTFSALEMVQQEAEFDPEFLVSMLERIDWAALVKVANDLGNESLPDVKPEIDEPFAEGNQGLLQELHSLLIETCIVEGTMKCENCGHTYFIKNSIPNFLL-MKFLTSNFVQCASKQCVSSGNAFPLTFSALEMVQQEAEFDPEFLVSMLERIDWAALVKVANDLGNESLPDVKPEIDEPFAEGNQGLLQELHSLLIETCIVEGTMKCENCGHTYFIKNSIPNFLL-MKFLTSNFVQCASKQCVSSGNAFPLTFSALEMVQQEAEFDPEFLVSMLERIDWAALVKVANDLGNESLPDVKPEIDEPFAEGNQGLLQELHSLLIETCIVEGTMKCENCGHTYFIKNSIPNFLL-MKFLTSNFVQCASKQCVSSGNAFPLTFSALEMVQQEAEFDPEFLVSMLERIDWAALVKVANDLGNESLPDVKPEIDEPFAEGNQGLLQELHSLLIETCIVEGTMKCENCGHTYFIKNSIPNFLL-MKFLTSNFVQCASKQCVSSGNAFPLTFSALEMVQQEAEFDPEFLVSMLERIDWAALVKVANDLGNESLPDVKPEIDEPFAEGNQGLLQELHSLLIETCIVEGTMKCENCGHTYFIKNSIPNFLL-MKFLTSNFVQCASKQCVSSGNAFPLTFSALEMVQQEAEFDPEFLVSMLERIDWAALVKVANDLGNESLPDVKPEIDEPFAEGNQGLLQELHSLLIETCIVEGTMKCENCGHTYFIKNSIPNFLL-MKFLTSNFVQCASKQCVSSGNAFPLTFSALEMVQQEAEFDPEFLVSMLERIDWAALVKVANDLGNESLPDVKPEIDEPFAEGNQGLLQELHSLLIETCIVEGTMKCENCGHTYFIKNSIPNFLL-MKFLTSNFVQCASKQCVSSGNAFPLTFSALEMVQQEAEFDPEFLVSMLERIDWAALVKVANDLGNESLPDVKPEIDEPFAEGNQGLLQELHSLLIETCIVEGTMKCENCGHTYFIKNSIPNFLL-MKFLTSNFVQCASKQCVSSGNAFPLTFSALEMVQQEAEFDPEFLVSMLERIDWAALVKVANDLGNESLPDVKPEIDEPFAEGNQGLLQELHSLLIETCIVEGTMKCENCGHTYFIKNSIPNFLL,PSANAMLDHW-NKSYEEYDHR-IRADEVESHG-AYCDEHTNYF-CTHQRELNCR-VVADIKLHAL-PCSKKDRRWW-HYCDASVCAR-HYHEASQNYF-WSAKDSDAFW,VVCDAIDNAH-VVCDAIDNAH-VVCDAIDNAH-VVCDAIDNAH-VVCDAIDNAH-VVCDAIDNAH-VVCDAIDNAH-VVCDAIDNAH-VVCDAIDNAH-VVCDAIDNAH
