contacts,cs,ce,Chain,Length,designed_receptor_seq,native_receptor_seq,designed_binder_seq,native_binder_seq
26.0,113,123,A,10,GMDQPLPIVEQFLLAQPANSIGVDIGCGSGRYLGVNQDVTIIGIDASKEMVQKAYDANPARNVQVSDAINNAIPDGAYDFAINIAVIHHFSTPEERQAAVKATLNTLKPDGKALIYVWAKESGQEIQVPWKVEKNGQIETVQRYYHLFEKGELSGLIVNAGGEVLEEGFEKENHYVVCKKGANQ-GPLGSMNIVDRFLLSMPENAKGVDIGCGNGRHLGVNKDIHIVGIDSSIEMVKKAYEANPKRQVMVSDAIKNAIPDGSYDFAINIAVIHHFSTPEDRRKAVRSTLRTLKPDGRALIYVWAKEADQHIKVPWEVEENGVIKTIERFYHLFKEGELSDEIIAAGGTVLEEGYEKKNWYVIAQLGEDN-GSHMADPIVKKFLLSQKKDAKGVDIGCGTGRYLGINQDVSILGIDISKEMVKKAYESNPDRQVWVSDAINHCIPKESYDFAINVSVIHHFDTPEKRKQAVLATLNTLKPNGRALIYVWAKEDGQDIQVPWEVEKDGKIETINRYYHLFSKDELSDLIVAAGGKVLEKGYEKKNHWVIAQKGADY-SNAMPLPIVEEFLLSMPSKAKGVDIGCGDGRYLGVNKDVSILGIDASESLVQKAYDSNPDRNVQVSDAINNCIPDGEYDFAINIAVLHHFDSPEDRQKAVLSTLRTLKPDGRALIYVWAKEDGQDIDVPWEVEENGRTLVKNRFYHLFKDGELSSLIENAGGKVLEEGYEDKNHYVIAQLGEDY-GPLGSMNIVESFLMSMPARSKGVDIGCGTGRYLGVNQQVSILGIDSSEEMVKLAYKKNPLRQVAISDAIYHCVKDSSFDFAINIAVLHHFSTPEERRAAVLSTLRTLKPQGKALIYVWALEKGQNISVPWKVMKDGVEHEEERYYHLFSEGELSSLITDAGGEVISEGYEKDNHYVICKKGEDN-SNAMPLPIVERFLLSMPARAKGADIGCGTGRYLGVNRDVHILGIDPSVEMVRIAYRNNPEREVAVSDAIDHCIPDGAFDFAINVAVIHHFDTPETRQKAVRATLRTLKPDGRALIYVWAKEDGSDVEKPHEVEEDGVTKTIKRFYHLFTEGELSGLIENAGGEVLETGYEKKNWWVIAKKGPDN-GHMEPLPIVEKFLLSQPKNAKGVDIGCGTGRFLGVNKDVSILGIDASESLVEQAYKSNKERNVHVSDAINHCIPDNSFDFAINVAVIHHFSTPEKRKEAVLSTLRTLKPEGKALIYVWAKNSENDIKVPWKKRVNGKIEEIDRYYHLFEDGELEEMIKDSGGKVLETGFEKDNWFVIASKGEDN-GMSEPLPIVQQFLLSQPENATGVDIGCGTGRYLGVNKDVQILGIDASKELVKKAYEADPTRDVRVSDAIDNCIEDGAFDFAINIAVIHHFSTPEERQKAVLATLKTLKPDGRALIYVWALEDEQDIEKDKQVVKDGVVHTIKRFYHLYREGELSSEIENAGGKVLEEGYEKSNHYVIATLGEDK-GSHMPQPIVEKFLLSQPAQAQGVDIGCGDGRYLGVNKDVSILGIDASVDMVKKAHEANPDRQVAVSDAINHCIPDGSFDFAINVAVIHHFDTPEKRQAAVKATLNTLKPDGRALIYVWALEDGQDIQVPWKVKKDGQTETVQRFYHLFKKDELSELITNAGGKVLEEGYEKKNHYVIAQLGDTN-GSHMPLPIVEQFLLSQPKDAKGVDIGCGTGRYLGVNKNVSILGIDPSEEMVKKAYLANPERNVKVSDAIEHCIPDGSFDFAINVAVIHHFSTPEQRQAAVKATLNTLKPDGKALIYVWAKEEGQDIQVPWKKKINGKIEVIQRYYHLFEKDELSNLIKKAGGKVLQEGYEKNNHYVICSLGEKN,TRYKPWPIVEKFLRDQKDHSVGVDIGCGNGKYMGVNNKVFIVGSDRSDELVKLAHDMDPSREVVVCDAIDNAHPEGRFDFAISIAVIHHFSTPERRREAVRAILNTLRPDGRALIYVWALEQDQDVMVPWVKKVDGVEEVRYRYYHLYREGEITSDVEASGGKVLETGYEKDNWWVVAKRGDDW-TRYKPWPIVEKFLRDQKDHSVGVDIGCGNGKYMGVNNKVFIVGSDRSDELVKLAHDMDPSREVVVCDAIDNAHPEGRFDFAISIAVIHHFSTPERRREAVRAILNTLRPDGRALIYVWALEQDQDVMVPWVKKVDGVEEVRYRYYHLYREGEITSDVEASGGKVLETGYEKDNWWVVAKRGDDW-TRYKPWPIVEKFLRDQKDHSVGVDIGCGNGKYMGVNNKVFIVGSDRSDELVKLAHDMDPSREVVVCDAIDNAHPEGRFDFAISIAVIHHFSTPERRREAVRAILNTLRPDGRALIYVWALEQDQDVMVPWVKKVDGVEEVRYRYYHLYREGEITSDVEASGGKVLETGYEKDNWWVVAKRGDDW-TRYKPWPIVEKFLRDQKDHSVGVDIGCGNGKYMGVNNKVFIVGSDRSDELVKLAHDMDPSREVVVCDAIDNAHPEGRFDFAISIAVIHHFSTPERRREAVRAILNTLRPDGRALIYVWALEQDQDVMVPWVKKVDGVEEVRYRYYHLYREGEITSDVEASGGKVLETGYEKDNWWVVAKRGDDW-TRYKPWPIVEKFLRDQKDHSVGVDIGCGNGKYMGVNNKVFIVGSDRSDELVKLAHDMDPSREVVVCDAIDNAHPEGRFDFAISIAVIHHFSTPERRREAVRAILNTLRPDGRALIYVWALEQDQDVMVPWVKKVDGVEEVRYRYYHLYREGEITSDVEASGGKVLETGYEKDNWWVVAKRGDDW-TRYKPWPIVEKFLRDQKDHSVGVDIGCGNGKYMGVNNKVFIVGSDRSDELVKLAHDMDPSREVVVCDAIDNAHPEGRFDFAISIAVIHHFSTPERRREAVRAILNTLRPDGRALIYVWALEQDQDVMVPWVKKVDGVEEVRYRYYHLYREGEITSDVEASGGKVLETGYEKDNWWVVAKRGDDW-TRYKPWPIVEKFLRDQKDHSVGVDIGCGNGKYMGVNNKVFIVGSDRSDELVKLAHDMDPSREVVVCDAIDNAHPEGRFDFAISIAVIHHFSTPERRREAVRAILNTLRPDGRALIYVWALEQDQDVMVPWVKKVDGVEEVRYRYYHLYREGEITSDVEASGGKVLETGYEKDNWWVVAKRGDDW-TRYKPWPIVEKFLRDQKDHSVGVDIGCGNGKYMGVNNKVFIVGSDRSDELVKLAHDMDPSREVVVCDAIDNAHPEGRFDFAISIAVIHHFSTPERRREAVRAILNTLRPDGRALIYVWALEQDQDVMVPWVKKVDGVEEVRYRYYHLYREGEITSDVEASGGKVLETGYEKDNWWVVAKRGDDW-TRYKPWPIVEKFLRDQKDHSVGVDIGCGNGKYMGVNNKVFIVGSDRSDELVKLAHDMDPSREVVVCDAIDNAHPEGRFDFAISIAVIHHFSTPERRREAVRAILNTLRPDGRALIYVWALEQDQDVMVPWVKKVDGVEEVRYRYYHLYREGEITSDVEASGGKVLETGYEKDNWWVVAKRGDDW-TRYKPWPIVEKFLRDQKDHSVGVDIGCGNGKYMGVNNKVFIVGSDRSDELVKLAHDMDPSREVVVCDAIDNAHPEGRFDFAISIAVIHHFSTPERRREAVRAILNTLRPDGRALIYVWALEQDQDVMVPWVKKVDGVEEVRYRYYHLYREGEITSDVEASGGKVLETGYEKDNWWVVAKRGDDW,AIVDGIAYYF-KVVDGIPHFF-ETIEGIKYYF-IRKNGIPYFF-AIINGIPIFK-VVENGIEYFW-KKENGIEVFK-ETLDGIEIHE-ETVDGIEKHL-VTFEGIEYYF,FIKNSIPNFL-FIKNSIPNFL-FIKNSIPNFL-FIKNSIPNFL-FIKNSIPNFL-FIKNSIPNFL-FIKNSIPNFL-FIKNSIPNFL-FIKNSIPNFL-FIKNSIPNFL
31.0,63,73,B,10,MQLLALNFTRCTNAACKKNGQAFPLTWRADETEIREREFDPEALVDDLHEIDWDALRRQLADLGITELPEERPQIEDPAAEGHQGLLQRLHHLLYEQWITRGTARCQACGTEYAIEDGIPNFLP-MRLLNLNFMRCTNSDCQKQGKAFPLHWTAEKTEIVEREYDPEWLVGMLDEINWDALRQQLADLGIEDVPEKRPEITDPRAKGNQGLLKHLHHLLECRWITEGTAKCTSCGKVFTIKAGIASFLP-MKILSFNFIRCTNQECQNTGKAFPLTVEAESTEVREKEFNPEKLVDLLDEIDWDALVEQLRALGETGLPGERPEIEDPEAEGWQGLLRHLHELLECRHITEGTLKCTACGRVYKIEDGTASFLP-MRLLALNFMRCTEAACQAEGRAFPLRVSAADTRVESAEFSPEALVDLLGYIDWEALRQQLADLGIEGLPAERPAITDPAAPGHQGLLRQLHELLVRRHIVRGTLRCEACGTTYEIRDGRPYFLP-MRLLSLNFQRCTCVDCQASGRAYPLRVRADDTERREAEFDPGRLVGLLDLLDWEALREQLRSLGIDDLPAEKPAIEDPDAEGHQGLLRRLHRLLVEVKITRGTLRCLACGHEYRIEDGVPHWYP-MRLLSLNFIQCTNADCQQNGGAFPLRWTADAMERRDLEFDPRKLVGDLDEIDWDALRQQLADLGIEGIPEERPEITEPDSDGHQGLLRHLHDLLYRTHITQGTARCTVCGETYVIEEGRPNFLP-MKILELNFIQCTNATCKANGAAFPLTWRADNTEVREKEFDPAYLVELLDYIDWDAARQQLADLGIEGLPGERPEIEDPDAEGNQGLLAELHRLLDEVWITHGTAACEACGTVYRIEEGIPSFLP-MKLLDLNFTQCTNVECQKRGKAFPLHVEAEQMMVKEREFNPEELVELLDYIDWAALRQQLEDLGIEDLPEARPEIEDPEAEGNQGLLRHLHYLLYCRWITVGTLECQACGEVYQIEDGVPVFLP-MRLIDFNFIQCTNVECQATNHAYPLDVKADSTKEVETEFDPVELVDLFNYIDWEALRRQLLSLGITDLPEEKPEIEDPEAEGNQGLLKHLHHLLIEVHITDGTLTCTSCGRVYTIRDGIPDFLP-MRLLALNFMQCTNAECQANGNAFPLHVQAEKMELREREFNPEALVGLLDYIDWEALRQQLADLGIEECPAERPDITDPMAEGNQGLLRHLHELLEQRVITEGTLTCQACGHTYRIQDGIPNMTP,MKFLTSNFVQCASKQCVSSGNAFPLTFSALEMVQQEAEFDPEFLVSMLERIDWAALVKVANDLGNESLPDVKPEIDEPFAEGNQGLLQELHSLLIETCIVEGTMKCENCGHTYFIKNSIPNFLL-MKFLTSNFVQCASKQCVSSGNAFPLTFSALEMVQQEAEFDPEFLVSMLERIDWAALVKVANDLGNESLPDVKPEIDEPFAEGNQGLLQELHSLLIETCIVEGTMKCENCGHTYFIKNSIPNFLL-MKFLTSNFVQCASKQCVSSGNAFPLTFSALEMVQQEAEFDPEFLVSMLERIDWAALVKVANDLGNESLPDVKPEIDEPFAEGNQGLLQELHSLLIETCIVEGTMKCENCGHTYFIKNSIPNFLL-MKFLTSNFVQCASKQCVSSGNAFPLTFSALEMVQQEAEFDPEFLVSMLERIDWAALVKVANDLGNESLPDVKPEIDEPFAEGNQGLLQELHSLLIETCIVEGTMKCENCGHTYFIKNSIPNFLL-MKFLTSNFVQCASKQCVSSGNAFPLTFSALEMVQQEAEFDPEFLVSMLERIDWAALVKVANDLGNESLPDVKPEIDEPFAEGNQGLLQELHSLLIETCIVEGTMKCENCGHTYFIKNSIPNFLL-MKFLTSNFVQCASKQCVSSGNAFPLTFSALEMVQQEAEFDPEFLVSMLERIDWAALVKVANDLGNESLPDVKPEIDEPFAEGNQGLLQELHSLLIETCIVEGTMKCENCGHTYFIKNSIPNFLL-MKFLTSNFVQCASKQCVSSGNAFPLTFSALEMVQQEAEFDPEFLVSMLERIDWAALVKVANDLGNESLPDVKPEIDEPFAEGNQGLLQELHSLLIETCIVEGTMKCENCGHTYFIKNSIPNFLL-MKFLTSNFVQCASKQCVSSGNAFPLTFSALEMVQQEAEFDPEFLVSMLERIDWAALVKVANDLGNESLPDVKPEIDEPFAEGNQGLLQELHSLLIETCIVEGTMKCENCGHTYFIKNSIPNFLL-MKFLTSNFVQCASKQCVSSGNAFPLTFSALEMVQQEAEFDPEFLVSMLERIDWAALVKVANDLGNESLPDVKPEIDEPFAEGNQGLLQELHSLLIETCIVEGTMKCENCGHTYFIKNSIPNFLL-MKFLTSNFVQCASKQCVSSGNAFPLTFSALEMVQQEAEFDPEFLVSMLERIDWAALVKVANDLGNESLPDVKPEIDEPFAEGNQGLLQELHSLLIETCIVEGTMKCENCGHTYFIKNSIPNFLL,PVSHRSASWW-KVHDMKESAF-PVADAALSYY-VIAAEAQSCG-VAADAEESAP-IVADEEANAY-TVDDEDTSCG-IVADEEESFL-YVADEENSWW-VVADEERAWW,VVCDAIDNAH-VVCDAIDNAH-VVCDAIDNAH-VVCDAIDNAH-VVCDAIDNAH-VVCDAIDNAH-VVCDAIDNAH-VVCDAIDNAH-VVCDAIDNAH-VVCDAIDNAH
