contacts,cs,ce,Chain,Length,designed_receptor_seq,native_receptor_seq,designed_binder_seq,native_binder_seq
43.0,1,11,A,10,MPEPYRLEKSFEERKKEVKEVKKKYPNYIPVIIERYYGEKKLPELPYTKFLVPNDKRMKWLVDYIRELLNLDPEEKFFLLVEDDEIVPLDMKIKKVYEKKKDRDGFLYMRYASAEFFGL-GPLPFTQMKTFEERKEEVKKIKEENPNMIPVIIERFKGEKELPHLKKTKFLVPDNIKMIELIKYVRKLLNLDDSQKFYLLVNKNKLVKTETLIKKVYEEEKDEDGFLYMRYASAKYFGK-GPLPFELEKSFKERKELVREVKKKHPDYIPVIIERYHGEEKLKELEKTLFLVPNDRKMRWLISKIRELLGLDENEKFYLLVNKAKLVKEDTLISEVYEKEKDDDGFLYMRYASAEFFGK-SSGPYSERKSLKARQKEVKEIKKKYPNYIPVIIERYKGEKRLKQLKYTKFLVPDNIKMKALKKEISKLLKLDKKQKFYLLAREKELIGEDKKISKVYKELKDKDGFLYMRYASAEMFGK-MPLPYRLEKSFEERVEEVKEVKRKHPDYIPVIIERYKGEERLPELERTKFLVPDNLKMKALKDYIRKLLHLDDKTRFYLLVNNSRLVSEDKKISEVYKEEKDEDGFLYMVYASAEMFGT-GPLPYELERSFQDRYNEVKEVRRKYPDYIPIIIERYEGEKELSELEKTRFLVPDNVKMKKLVSYVRKLLKLNPEQKFYLLCDKNILISLDTKISKVYNDMKHDDGFLYMRYASAKTFGL-GPLPFELEHSFEERVALVKEVKRLHPNAIPVVIERFVGETTLPTLPKTLFLVPDHVKMAQLRKHLRKLLKLDPSQKFFLLVREREVVSEDTLISSVYKGRKDEDGFLYMRYASAESFGV-GIAPYEEEKTFEERVKEVKEIKKKHPDHIPIIIERYPGEKELKELEKTKFLVPDYLKFKKLVAHVRKLLGLNPEESFFLLVQKNRLVSLNTKISKVYELEKDEDGFLYMRYASAKTFGR-GPLPFSEELSFEERTALVKEVKEKHPDHIPVVIERYEGEKRLPQLEKTLFLVPNHLKWKHLVEYLRKELELDPKEKFYLLVREQKEISLDTLISRVYQEEKDKDGFLYMRYASAESFGE-GSMPYEEMKTFEERVTEVKEIKRQHPNYIPVIIERFEGEKELPELKYTKFLVPNNKKWKWLVDRIREELNLDDKTEFYLLVQDNNIISLDTKISTVYEKKKDKDGFLYMRYASAKYFGV,SDRPFKQRRSFADRCKEVQQIRDQHPSKIPVIIERYKGEKQLPVLDKTKFLVPDHVNMSELVKIIRRRLQLNPTQAFFLLVNQHSMVSVSTPIADIYEQEKDEDGFLYMVYASQETFGF-SDRPFKQRRSFADRCKEVQQIRDQHPSKIPVIIERYKGEKQLPVLDKTKFLVPDHVNMSELVKIIRRRLQLNPTQAFFLLVNQHSMVSVSTPIADIYEQEKDEDGFLYMVYASQETFGF-SDRPFKQRRSFADRCKEVQQIRDQHPSKIPVIIERYKGEKQLPVLDKTKFLVPDHVNMSELVKIIRRRLQLNPTQAFFLLVNQHSMVSVSTPIADIYEQEKDEDGFLYMVYASQETFGF-SDRPFKQRRSFADRCKEVQQIRDQHPSKIPVIIERYKGEKQLPVLDKTKFLVPDHVNMSELVKIIRRRLQLNPTQAFFLLVNQHSMVSVSTPIADIYEQEKDEDGFLYMVYASQETFGF-SDRPFKQRRSFADRCKEVQQIRDQHPSKIPVIIERYKGEKQLPVLDKTKFLVPDHVNMSELVKIIRRRLQLNPTQAFFLLVNQHSMVSVSTPIADIYEQEKDEDGFLYMVYASQETFGF-SDRPFKQRRSFADRCKEVQQIRDQHPSKIPVIIERYKGEKQLPVLDKTKFLVPDHVNMSELVKIIRRRLQLNPTQAFFLLVNQHSMVSVSTPIADIYEQEKDEDGFLYMVYASQETFGF-SDRPFKQRRSFADRCKEVQQIRDQHPSKIPVIIERYKGEKQLPVLDKTKFLVPDHVNMSELVKIIRRRLQLNPTQAFFLLVNQHSMVSVSTPIADIYEQEKDEDGFLYMVYASQETFGF-SDRPFKQRRSFADRCKEVQQIRDQHPSKIPVIIERYKGEKQLPVLDKTKFLVPDHVNMSELVKIIRRRLQLNPTQAFFLLVNQHSMVSVSTPIADIYEQEKDEDGFLYMVYASQETFGF-SDRPFKQRRSFADRCKEVQQIRDQHPSKIPVIIERYKGEKQLPVLDKTKFLVPDHVNMSELVKIIRRRLQLNPTQAFFLLVNQHSMVSVSTPIADIYEQEKDEDGFLYMVYASQETFGF-SDRPFKQRRSFADRCKEVQQIRDQHPSKIPVIIERYKGEKQLPVLDKTKFLVPDHVNMSELVKIIRRRLQLNPTQAFFLLVNQHSMVSVSTPIADIYEQEKDEDGFLYMVYASQETFGF,KPDLEKFEIL-KSDLNEYEVL-ISDLEEFEVL-ESDLEKFKIL-YSDNEKFEIL-LSDLDTYEVM-ESDLSEFEVL-ESDLETYEIL-ESDLETFQVM-ASDLDTYYVL,PPDDAVFDII-PPDDAVFDII-PPDDAVFDII-PPDDAVFDII-PPDDAVFDII-PPDDAVFDII-PPDDAVFDII-PPDDAVFDII-PPDDAVFDII-PPDDAVFDII
33.0,43,53,B,10,SEPDTTKYFVVTQEELDQPG-LGPDIHTYRVVSNEELEKPI-MEPDLLTKRVITQEEIDRPN-MEPDENKYRVITEDELKQPK-MVPDDSVYRVVTAAEVALPA-MTADWSTYYVVTKEEIEKPL-ATPDKTTFYVVSKDELKKPG-MLPDDSEYRVVTREELEKPY-EFPDQNSYYIVTLDELLKPY-MGPDRSTLYVVTAAELAAPA,RPPDDAVFDIITDEELCQIQ-RPPDDAVFDIITDEELCQIQ-RPPDDAVFDIITDEELCQIQ-RPPDDAVFDIITDEELCQIQ-RPPDDAVFDIITDEELCQIQ-RPPDDAVFDIITDEELCQIQ-RPPDDAVFDIITDEELCQIQ-RPPDDAVFDIITDEELCQIQ-RPPDDAVFDIITDEELCQIQ-RPPDDAVFDIITDEELCQIQ,KYPFSKFKIP-YSPYLLYKIP-SPAYLKYEIP-TLPFKKYKIP-APPRRRYRLP-DAPYLNYEIP-DYPYKLFKVP-NPRYKKFLIP-GPERAKFKIP-PPPYALFAVP,VLDKTKFLVP-VLDKTKFLVP-VLDKTKFLVP-VLDKTKFLVP-VLDKTKFLVP-VLDKTKFLVP-VLDKTKFLVP-VLDKTKFLVP-VLDKTKFLVP-VLDKTKFLVP
