contacts,cs,ce,Chain,Length,designed_receptor_seq,native_receptor_seq,designed_binder_seq,native_binder_seq
43.0,1,11,A,10,GPLPYEEEKSFEERVEEVKEVKKKYPNYIPVIIERYKGEKKLPELKKTKFLVPNNVKMKKLVEYVRKLLNLDPKTKFYLLVNKNILVSLDKKISEVYEEMKDKDGFLYMRYASAEYFGK-GPLPYEEEKSFEERVEEVKEVKKKYPNYIPVIIERYEGEEELPELEKTKFLVPNDKKMKWLVDKIRELLNLDPKTKFYLLVNKNKIVSLDKKISKVYEEEKDKDGFLYMRYASAKKFGK-GPLPYEEEKSFEERVEEVKKVKEEHPNYIPVIIERYEGEEKLPELEKTKFLVPNDKKMKWLVDKIRELLNLDPKTKFYLLVNENILVSLDTKISKVYEEMKDEDGFLYMRYASAEKFGK-GPLPYSEEKSFEERVEEVKKVKEEHPNYIPVIIERYEGEEELPELEKTKFLVPNDKKMKWLVDKIRELLNLDPKTKFYLLVNENILVSLDTKISKVYEEMKDKDGFLYMRYASAKKFGK-GPLPYEEEKSFEERVAEVKEVKRKHPNYIPVIIERYEGEKRLPELKKTKFLVPNDKKMKWLVDKIRELLNLDPSQKFYLLVNKNKIVSLDKKISKVYEEEKDKDGFLYMRYASAEFFGK-GPLPYEEEKSFEERVKEVKEVKKKYPNYIPVIIERYEGEKELPELEKTKFLVPNNVKMKKLVEYIRKLLKLDEKTKFYLLVNENILVSLDTKISKVYEEMKDKDGFLYMRYASAKKFGK-GPLPYEEEKSFEERVKEVKEVKKKYPNYIPVIIERYEGEKELPELEKTKFLVPDNVKMKKLVEYIRKLLKLDPKTKFYLLVNKNILVSLDTKISKVYEEMKDKDGFLYMRYASAKKFGK-GPLPYEEEKSFEERVKEVKEIKKKYPNYIPVIIERYEGEKKLKELKKTKFLVPNNVKMKKLVEYIRKLLKLDEKTKFYLLVNKNILVSLDKKISEVYKEKKDKDGFLYMRYASAEFFGK-GPLPYEEEKSFEERVAEVKEVKRKHPNMIPVIIERYEGEERLPELEKTKFLVPNDKKMKWLVDKVRELLGLDPSQKFYLLVNKNILVSLDTKISKVYEEMKDKDGFLYMRYASAEFFGK-GPLPYEEEKSFEERKKEVEEIKKKYPNYIPVIIERYEGEKKLKELKKTKFLVPNDKKMKELVDYIRKLLNLNPEEKFFLLVNKNILVSLDTKISKVYEEMKDEDGFLYMRYASAEYFGK,SDRPFKQRRSFADRCKEVQQIRDQHPSKIPVIIERYKGEKQLPVLDKTKFLVPDHVNMSELVKIIRRRLQLNPTQAFFLLVNQHSMVSVSTPIADIYEQEKDEDGFLYMVYASQETFGF-SDRPFKQRRSFADRCKEVQQIRDQHPSKIPVIIERYKGEKQLPVLDKTKFLVPDHVNMSELVKIIRRRLQLNPTQAFFLLVNQHSMVSVSTPIADIYEQEKDEDGFLYMVYASQETFGF-SDRPFKQRRSFADRCKEVQQIRDQHPSKIPVIIERYKGEKQLPVLDKTKFLVPDHVNMSELVKIIRRRLQLNPTQAFFLLVNQHSMVSVSTPIADIYEQEKDEDGFLYMVYASQETFGF-SDRPFKQRRSFADRCKEVQQIRDQHPSKIPVIIERYKGEKQLPVLDKTKFLVPDHVNMSELVKIIRRRLQLNPTQAFFLLVNQHSMVSVSTPIADIYEQEKDEDGFLYMVYASQETFGF-SDRPFKQRRSFADRCKEVQQIRDQHPSKIPVIIERYKGEKQLPVLDKTKFLVPDHVNMSELVKIIRRRLQLNPTQAFFLLVNQHSMVSVSTPIADIYEQEKDEDGFLYMVYASQETFGF-SDRPFKQRRSFADRCKEVQQIRDQHPSKIPVIIERYKGEKQLPVLDKTKFLVPDHVNMSELVKIIRRRLQLNPTQAFFLLVNQHSMVSVSTPIADIYEQEKDEDGFLYMVYASQETFGF-SDRPFKQRRSFADRCKEVQQIRDQHPSKIPVIIERYKGEKQLPVLDKTKFLVPDHVNMSELVKIIRRRLQLNPTQAFFLLVNQHSMVSVSTPIADIYEQEKDEDGFLYMVYASQETFGF-SDRPFKQRRSFADRCKEVQQIRDQHPSKIPVIIERYKGEKQLPVLDKTKFLVPDHVNMSELVKIIRRRLQLNPTQAFFLLVNQHSMVSVSTPIADIYEQEKDEDGFLYMVYASQETFGF-SDRPFKQRRSFADRCKEVQQIRDQHPSKIPVIIERYKGEKQLPVLDKTKFLVPDHVNMSELVKIIRRRLQLNPTQAFFLLVNQHSMVSVSTPIADIYEQEKDEDGFLYMVYASQETFGF-SDRPFKQRRSFADRCKEVQQIRDQHPSKIPVIIERYKGEKQLPVLDKTKFLVPDHVNMSELVKIIRRRLQLNPTQAFFLLVNQHSMVSVSTPIADIYEQEKDEDGFLYMVYASQETFGF,ESDLNEYEIL-KSDLNTYEVL-KSDLNTYEVL-ESDLEEFEIL-ESDLEEFEVL-ESDLEEFEVL-ESDLETYEVL-ESDLEEYEIL-ESDLEEFEVL-KSDLEEYEIL,PPDDAVFDII-PPDDAVFDII-PPDDAVFDII-PPDDAVFDII-PPDDAVFDII-PPDDAVFDII-PPDDAVFDII-PPDDAVFDII-PPDDAVFDII-PPDDAVFDII
33.0,43,53,B,10,MEPDTSTYRVITAEELAKPG-MEPDTSTYRVVTLEELLKPL-MEPDLSEYRVITLEELKKPG-MEPDTSTYRVVTLEELLKPL-MEPDTSTYYVVTQEELDKPG-MEPDTSTYRVITQEELDKPG-MEPDTSTYYVVTQEELDKPG-MEPDTSTYRVITKEELEKPG-MEPDTSTYYVVTQEELDKPG-MEPDTSTYRVITLEELLKPG,RPPDDAVFDIITDEELCQIQ-RPPDDAVFDIITDEELCQIQ-RPPDDAVFDIITDEELCQIQ-RPPDDAVFDIITDEELCQIQ-RPPDDAVFDIITDEELCQIQ-RPPDDAVFDIITDEELCQIQ-RPPDDAVFDIITDEELCQIQ-RPPDDAVFDIITDEELCQIQ-RPPDDAVFDIITDEELCQIQ-RPPDDAVFDIITDEELCQIQ,KPPYLKYKIP-PPPYLRYRVP-KPKYLKYKIP-PPPYLKYKIP-KPPYLKFKIP-KPPYLKYKIP-KPPYLKFKIP-KPKYLKFKIP-KPPYLKFKIP-KPPYLKYKIP,VLDKTKFLVP-VLDKTKFLVP-VLDKTKFLVP-VLDKTKFLVP-VLDKTKFLVP-VLDKTKFLVP-VLDKTKFLVP-VLDKTKFLVP-VLDKTKFLVP-VLDKTKFLVP
