contacts,cs,ce,Chain,Length,designed_receptor_seq,native_receptor_seq,designed_binder_seq,native_binder_seq
21.0,1,11,A,10,GTPSGLCPICLDGFQEDEAFCKTNCDHYFHQFCLAQYIRKELQKLNEKGEVKCLVCRTTLTYNLSELEAAPKPNRPEKKISPSAEALKKREEITKLIQELKREGKIKEDD-GVPVGICPICLDGFKEDEAFVLTECEHYFHQFCLAQYIEKELEELKKDGKVKCLVCRKELSYDLEELKKAPEPVRPEVKIEPSEEELKKVRVLEEKLKKLEEEGKVKKSE-GVPEGECPICLDGFEENDSFTLTECNHYFHKYCLAAYIEEELLKLKEKGEVKCLVCSEKLDYNLEELKKAPKPQRPKLAIEPSEEQKKEIEKLKELIEVLKKKGAVKEEK-GVPEGICPICLDGYQKDESFVRTECNHNFHQYCLAQYIKEELEKIKKKGQVKCLVCSTVLTYDLSKLEAAKKPERPLKEVVPSKEEEREKRELEKRIEELKKKGEVEENE-GVPDGLCPICLDGFREKEDFVVTDCLHNFHKFCLAKYIEEQLKKISETGQVKCPVCRKVLSYNLNELKSAPKPVRPVKEITPSEELLKELKVIEEDLKVLKEKGLVEEAK-SVPAGECPICLDGFEEEEAFTLTPCNHYFHQHCLAEYIEEELEKEKQKGRVKCLVCRTPLSYDLEELKKAPKPQRPVKEINPSEEEKKKLEELKKKLAKLEEEGAVVKEE-GVPNGICPICLDGFKENESFVLTDCNHYFHAYCLAQYIQEEIQKKEKEGEVKCLVCSTKLNYNLEELQKAPKPDRPKRAITPSKEELEKIEKLKEKIKVLQEKGEVKKAK-GTPSGICPICFDGFKEHEDFCLTNCSHYFHKYCLAKYIEKEIEKAKKAGNVKCLVCSAVLSYNLEELKKADKPKRPLKKIVPSAEEIKKLEAIKKDIEVLKKEGKVEEKE-GSPLGICPICLDGYREDEAFVRTKCNHYFHCHCLAQYIEEQLREAKEEGKVKCLVDNTELSYNLEELKKAPRPERPEEEISPSKEELEKVEELEKKLEELKEKGEVISLG-GVPLGLCPICLDGFKENESFTLTPCNHYFHKYCLAQYIKQQEQLIQKQGKVLCLVCREPLQYNLSLLEKAKKPNRPRKAIQPSAELLKLQEKLEKLLKIKRQEGKVTNFY,NIPHGQCVICLYGFQEKEAFTKTPCYHYFHCHCLARYIQHMEQELKAQGGVQCAVCREPLVYDLASLKAAPEPQQPMELYQPSAESLRQQEERKRLYQRQQERGGIIDLE-NIPHGQCVICLYGFQEKEAFTKTPCYHYFHCHCLARYIQHMEQELKAQGGVQCAVCREPLVYDLASLKAAPEPQQPMELYQPSAESLRQQEERKRLYQRQQERGGIIDLE-NIPHGQCVICLYGFQEKEAFTKTPCYHYFHCHCLARYIQHMEQELKAQGGVQCAVCREPLVYDLASLKAAPEPQQPMELYQPSAESLRQQEERKRLYQRQQERGGIIDLE-NIPHGQCVICLYGFQEKEAFTKTPCYHYFHCHCLARYIQHMEQELKAQGGVQCAVCREPLVYDLASLKAAPEPQQPMELYQPSAESLRQQEERKRLYQRQQERGGIIDLE-NIPHGQCVICLYGFQEKEAFTKTPCYHYFHCHCLARYIQHMEQELKAQGGVQCAVCREPLVYDLASLKAAPEPQQPMELYQPSAESLRQQEERKRLYQRQQERGGIIDLE-NIPHGQCVICLYGFQEKEAFTKTPCYHYFHCHCLARYIQHMEQELKAQGGVQCAVCREPLVYDLASLKAAPEPQQPMELYQPSAESLRQQEERKRLYQRQQERGGIIDLE-NIPHGQCVICLYGFQEKEAFTKTPCYHYFHCHCLARYIQHMEQELKAQGGVQCAVCREPLVYDLASLKAAPEPQQPMELYQPSAESLRQQEERKRLYQRQQERGGIIDLE-NIPHGQCVICLYGFQEKEAFTKTPCYHYFHCHCLARYIQHMEQELKAQGGVQCAVCREPLVYDLASLKAAPEPQQPMELYQPSAESLRQQEERKRLYQRQQERGGIIDLE-NIPHGQCVICLYGFQEKEAFTKTPCYHYFHCHCLARYIQHMEQELKAQGGVQCAVCREPLVYDLASLKAAPEPQQPMELYQPSAESLRQQEERKRLYQRQQERGGIIDLE-NIPHGQCVICLYGFQEKEAFTKTPCYHYFHCHCLARYIQHMEQELKAQGGVQCAVCREPLVYDLASLKAAPEPQQPMELYQPSAESLRQQEERKRLYQRQQERGGIIDLE,VSKVRRLLNE-ESVLRRLANL-EKRLRKLINT-LRRRLKLLNE-KEEIYRLANL-EEKERRLANL-EEKENMLFNK-VSILARLANT-GKKLRALANK-EEVIYQLLNK,LKRIHKELND-LKRIHKELND-LKRIHKELND-LKRIHKELND-LKRIHKELND-LKRIHKELND-LKRIHKELND-LKRIHKELND-LKRIHKELND-LKRIHKELND
18.0,99,109,B,10,MLKRIQKELLELKKDPPLDCSAGPVGDDLTHWSATIIGPSDSPYEGGVFFLSIAFPEDYPFSPPKIKFLTKIYHPNINSNGSICLDILRDKWSPALTIAKILLSICSLLSDPNPDDPLVPEIAEIYKTDRETYVKQARKWTIKYAT-SNARILKELGELQKDPPLNCSAGPVGDDIFKWRATIEGPSDSPYEGGVFFLSINFPEDYPFSPPKIAFLTKIYHPNIDSNGSICLDILKNQWSPALTIAKILLSICSLLSDPNPDDPLVPEIADIYKTDRSEYDRKAREWTIKYAM-MLKRIQKELQELQSNPPVDCSAGPVGDDITHWTATIKGPSDSPYEGGIFFLSIVFPDDYPFSPPKIKFLTRIYHPNIDSNGNICLDILKSQWSPALTVGKLLLSICSLLSDPNPDDPLVPEISKVYKTDYGKYIKTAREWTVKYAM-MTKRILKELGELQKDPPEGCTAGPVGDDIFHWTATIEGPSDSPYEGGIFYLSLTFPEDYPFSPPKIKFLTKIYHPNIDSNGSICLDILKDKWSPALTVAKVLLSICSLLTDPNPDDPLVPEIAKIYKTDREKYDKEARRWTEKFAK-ALRRLKKELGELQKDPPLDCSAGPVGDNIFEWSATIMGPSDSPYEGGTFYLSIKFPEDYPFSPPKVRFITKIYHPNINSSGSICLDILKDNWSPALTISKVLTSICSLLSDPNPNDPLVPEIAEIYNTDREKYDREARRWTIKYAK-TLQRIKKELQELQSDPPDGCSAGPIGDDLFKWQATIDGPSDSPYKGGVFFLSIEFPDDYPFSPPKIKFLTKIYHPNINSNGSICLDILKDKWSPALTISKVLLSICSLLTDPNPDDPLVPDIAEIYKTDYSQYIEKAREWTMKYAT-AMRRLLKELGALQKDPPEDCSAGPVGDNIFKWQATIKGPSDSPYEGGIFFLSIEFPEDYPFKPPKIRFITKIYHPNIDSSGRICLDILKENWSPALTIAKILLSIRSLLTDPNPDDPLVPEISKVYKTDREKYVQKAREWTEKYAM-MLKRIRKELGALQSDPPADCSAGPVGDDIMHWTATIKGPDDSPYKGGVFFLSLEFPDDYPFSPPKIKFLTKIYHPNIDSNGRICLDILKDKWSPALTVAKVLLSICSLLTDPNPDDPLVPEIAKVYKTDRSAYVKKAREWTEKYAM-SMRRIRKELGELQNNPPADCSAGPVGDDIFHWTATIEGPSDSPYEGGIFYLSISFPEDYPFSPPKIRFLTKIYHPNINSNGSICLDILKDKWSPALTIAKCLLSICSLLSDPNPDDPLVPEIANIYNTDREKYTKTARAWTEKYAM-MLKRILKELKSLQSDPPLDCSAGPVGDDLMHWRATILGPEDSPYKGGIFFLSITFPEDYPFSPPKIRFITKIYHPNIDSNGRICLDILRGQWSPALTIAKCLLSIQSLLTDPNPDDPLVPEIARVYKTDRSSYTKEARRWTERYAM,ALKRIHKELNDLARDPPAQCSAGPVGDDMFHWQATIMGPNDSPYQGGVFFLTIHFPTDYPFKPPKVAFTTRIYHPNINSNGSICLDILRSQWSPALTISKVLLSICSLLCDPNPDDPLVPEIARIYKTDREKYNRIAREWTQKYAM-ALKRIHKELNDLARDPPAQCSAGPVGDDMFHWQATIMGPNDSPYQGGVFFLTIHFPTDYPFKPPKVAFTTRIYHPNINSNGSICLDILRSQWSPALTISKVLLSICSLLCDPNPDDPLVPEIARIYKTDREKYNRIAREWTQKYAM-ALKRIHKELNDLARDPPAQCSAGPVGDDMFHWQATIMGPNDSPYQGGVFFLTIHFPTDYPFKPPKVAFTTRIYHPNINSNGSICLDILRSQWSPALTISKVLLSICSLLCDPNPDDPLVPEIARIYKTDREKYNRIAREWTQKYAM-ALKRIHKELNDLARDPPAQCSAGPVGDDMFHWQATIMGPNDSPYQGGVFFLTIHFPTDYPFKPPKVAFTTRIYHPNINSNGSICLDILRSQWSPALTISKVLLSICSLLCDPNPDDPLVPEIARIYKTDREKYNRIAREWTQKYAM-ALKRIHKELNDLARDPPAQCSAGPVGDDMFHWQATIMGPNDSPYQGGVFFLTIHFPTDYPFKPPKVAFTTRIYHPNINSNGSICLDILRSQWSPALTISKVLLSICSLLCDPNPDDPLVPEIARIYKTDREKYNRIAREWTQKYAM-ALKRIHKELNDLARDPPAQCSAGPVGDDMFHWQATIMGPNDSPYQGGVFFLTIHFPTDYPFKPPKVAFTTRIYHPNINSNGSICLDILRSQWSPALTISKVLLSICSLLCDPNPDDPLVPEIARIYKTDREKYNRIAREWTQKYAM-ALKRIHKELNDLARDPPAQCSAGPVGDDMFHWQATIMGPNDSPYQGGVFFLTIHFPTDYPFKPPKVAFTTRIYHPNINSNGSICLDILRSQWSPALTISKVLLSICSLLCDPNPDDPLVPEIARIYKTDREKYNRIAREWTQKYAM-ALKRIHKELNDLARDPPAQCSAGPVGDDMFHWQATIMGPNDSPYQGGVFFLTIHFPTDYPFKPPKVAFTTRIYHPNINSNGSICLDILRSQWSPALTISKVLLSICSLLCDPNPDDPLVPEIARIYKTDREKYNRIAREWTQKYAM-ALKRIHKELNDLARDPPAQCSAGPVGDDMFHWQATIMGPNDSPYQGGVFFLTIHFPTDYPFKPPKVAFTTRIYHPNINSNGSICLDILRSQWSPALTISKVLLSICSLLCDPNPDDPLVPEIARIYKTDREKYNRIAREWTQKYAM-ALKRIHKELNDLARDPPAQCSAGPVGDDMFHWQATIMGPNDSPYQGGVFFLTIHFPTDYPFKPPKVAFTTRIYHPNINSNGSICLDILRSQWSPALTISKVLLSICSLLCDPNPDDPLVPEIARIYKTDREKYNRIAREWTQKYAM,QRERGGIIEQ-QRESGGIILD-QKKRGGIIEW-QEASGGIIQW-QLERGGIIQT-AKATGGIIEW-QEASGGIIKW-QKESGGIIEW-QEENGGIISF-QEERGGIILQ,QQERGGIIDL-QQERGGIIDL-QQERGGIIDL-QQERGGIIDL-QQERGGIIDL-QQERGGIIDL-QQERGGIIDL-QQERGGIIDL-QQERGGIIDL-QQERGGIIDL
