contacts,cs,ce,Chain,Length,designed_receptor_seq,native_receptor_seq,designed_binder_seq,native_binder_seq
19.0,10,20,A,10,EKEKYNEAKANYEKALKDVDKRNEINKKLEELKATT-GSHMDDIAYRNLLRELKNVEERLEKEKERLKKLAEE-GSHMVDIAAKELMDMIKKVEEKNQIERLRKKLEKTK-MSEELAIAKARLEQKLLDVVRRNEVKIAEKQLRRRD-GSHMVEIARKNYEDQLKNVEQRAEVERRLNELLATT-GSHMKNLSLKELLEVCEKVKLRNQIEELRNKLKETS-AKCREEEAKAELERVKREVEARVERERKRLEEEERE-GSHMSDIAKAEYERELKNVDRRLQIKEKLNKLKSTL-DIKEFNEALKNLKKKLEDVKKRLEDARQLLKELETE-AEVEFLKAKANLEREKENVRRRVEVAKADLERRDTE,SSDNMQHAYWELKREMSNLHLVTQVQAELLRKLKTS-SSDNMQHAYWELKREMSNLHLVTQVQAELLRKLKTS-SSDNMQHAYWELKREMSNLHLVTQVQAELLRKLKTS-SSDNMQHAYWELKREMSNLHLVTQVQAELLRKLKTS-SSDNMQHAYWELKREMSNLHLVTQVQAELLRKLKTS-SSDNMQHAYWELKREMSNLHLVTQVQAELLRKLKTS-SSDNMQHAYWELKREMSNLHLVTQVQAELLRKLKTS-SSDNMQHAYWELKREMSNLHLVTQVQAELLRKLKTS-SSDNMQHAYWELKREMSNLHLVTQVQAELLRKLKTS-SSDNMQHAYWELKREMSNLHLVTQVQAELLRKLKTS,ELVEKKKKLE-TLKKLTEILK-ELKRMKDLLE-ALAEKTRELE-RLQELTEKLK-SLDLLAKILK-ELRERARELE-KLKKLTELLK-ELIKLTEKLE-ELRKKEKELE,GMKKLKEEME-GMKKLKEEME-GMKKLKEEME-GMKKLKEEME-GMKKLKEEME-GMKKLKEEME-GMKKLKEEME-GMKKLKEEME-GMKKLKEEME-GMKKLKEEME
19.0,9,19,B,10,SEEEQKKLKEGLEELTQKLESIVKELKELEEIWKKEGYISENGGAG-SNAENMKLIEGLELCTRELQGYVEELKRCEEVWRKYGFVSKNGGPG-MEEYEKKLTEGRRKLTELLDGIVKELKALEEIWRKEGRVEEDGGFG-ALDKEKQIIEGLQRATELLKGIVKEREALKSIWKKYGYIDENGGFG-HHHHHHMLIKGREILTKELEGVVKELEECQSVWKKYGRVDEKGGLG-AEELEKQLVEGKKELTEKLREIVAELKKLEDIWKKYGEVDENGGVP-ADNAEEELVKGLQRLTELLDSIVEELKRYEEVWQKYGSLDKNGGPG-AEEREKRRIEGLKRKAELLEKIVKELEECNEIRRKYGYVSKNGGFG-KEKEEKERIEGEKKLTENLKSIVKELEELKEIWRKEGKIKKDGGIK-MEDVEKRLKEGREKMTKLLEGIVKELEEEEKRWKKEGYLDKDGGAG,SSNTLVEMTLGMKKLKEEMEGVVKELAENNHILERFGSLTMDGGLR-SSNTLVEMTLGMKKLKEEMEGVVKELAENNHILERFGSLTMDGGLR-SSNTLVEMTLGMKKLKEEMEGVVKELAENNHILERFGSLTMDGGLR-SSNTLVEMTLGMKKLKEEMEGVVKELAENNHILERFGSLTMDGGLR-SSNTLVEMTLGMKKLKEEMEGVVKELAENNHILERFGSLTMDGGLR-SSNTLVEMTLGMKKLKEEMEGVVKELAENNHILERFGSLTMDGGLR-SSNTLVEMTLGMKKLKEEMEGVVKELAENNHILERFGSLTMDGGLR-SSNTLVEMTLGMKKLKEEMEGVVKELAENNHILERFGSLTMDGGLR-SSNTLVEMTLGMKKLKEEMEGVVKELAENNHILERFGSLTMDGGLR-SSNTLVEMTLGMKKLKEEMEGVVKELAENNHILERFGSLTMDGGLR,EKFLEELKKL-GQLKAELIKL-KELERRLKDL-QELKKVLKDL-QEFKDMLKKL-TELKQMLKEL-DDLKTRLEAL-GRLEEMKKKL-EELKKELINL-EKLEEMKKKL,WELKREMSNL-WELKREMSNL-WELKREMSNL-WELKREMSNL-WELKREMSNL-WELKREMSNL-WELKREMSNL-WELKREMSNL-WELKREMSNL-WELKREMSNL
