contacts,cs,ce,Chain,Length,designed_receptor_seq,native_receptor_seq,designed_binder_seq,native_binder_seq
8.0,120,130,A,10,SNALEEIRQSRKKLLEEETYLSEVSQKTRDIAKAKEKVELEVANKVEEWKTNY-GPLGSETAAHAERMSLLLKKKLQELEKTEVELRRENEELKQRLENLVSYFQSE-DEDLKELKDHIDYLEDEKIDALEQKVANLSKDKAAYDEKANSYHNFTKYLADH-GPLADAAAEHRRKLRDEYERLRAQARHEYELLRDMREGERRAAIERVQRLLEE-GPDDRAASEHLIWLKQKADQLKRERLQSLENRLATMENFARQSLEDRRAKVER-GSEDADASKHLAKLQEYVYKETKDLLAKKDELNQKLSGVKKALEEAKRKFREE-FMESEKVIAHYTMLKKMLKSKKEDSIAQYTAEIEALKKTQEAAEKKLEAERAF-GPLGSAKKACAVELSKQVLARRDELVKEEKKNRLKEALQKKKEDEWQRFWKSH-GPLGSMLRSHNTSLLRRYENLSELRTAEMKKTLEILRLQRDERVQELLDLENP-GMRVEDIKDHVKAAKDLKEAKDKVRVEELTKNVEALKKEKEKADREVAELQRS,ENDEEEYEAWKVRELKRIKRDREDREALEKEKAEIERMRNLTEEERRAELRAN-ENDEEEYEAWKVRELKRIKRDREDREALEKEKAEIERMRNLTEEERRAELRAN-ENDEEEYEAWKVRELKRIKRDREDREALEKEKAEIERMRNLTEEERRAELRAN-ENDEEEYEAWKVRELKRIKRDREDREALEKEKAEIERMRNLTEEERRAELRAN-ENDEEEYEAWKVRELKRIKRDREDREALEKEKAEIERMRNLTEEERRAELRAN-ENDEEEYEAWKVRELKRIKRDREDREALEKEKAEIERMRNLTEEERRAELRAN-ENDEEEYEAWKVRELKRIKRDREDREALEKEKAEIERMRNLTEEERRAELRAN-ENDEEEYEAWKVRELKRIKRDREDREALEKEKAEIERMRNLTEEERRAELRAN-ENDEEEYEAWKVRELKRIKRDREDREALEKEKAEIERMRNLTEEERRAELRAN-ENDEEEYEAWKVRELKRIKRDREDREALEKEKAEIERMRNLTEEERRAELRAN,EEPKLQDFSK-KLPNLLDYTK-TAPSVLDWTK-SLPRLLWYDP-ELPSLLDYRL-ELPKISDYNY-RVPSMAEYAW-RSPATLVCKR-VLPTLLNYNL-SRPDVSNYDT,LEPLYNDYRK-LEPLYNDYRK-LEPLYNDYRK-LEPLYNDYRK-LEPLYNDYRK-LEPLYNDYRK-LEPLYNDYRK-LEPLYNDYRK-LEPLYNDYRK-LEPLYNDYRK
13.0,4,14,B,10,EDINRTSPNSNMVKGQDPTSLIEKNVQKNIYASKFWRECCKGRTPELVKTQSRKLQHLGGVFGHKENPTPFLCLTLLMLRIQPKAKEVIEFVKNTENVYLRMLGSLFQRLTGHDIEKYQWLTPLNEDFRRVRYRGRNGQFLSSYVYLTIRSFLQEQSVIDIDLPAMQDFRILLTNKE-FARNETVEWAGEIRGQNPKNLIDHYVLKHIEDSKYWQQKMEGDTPDLVIQEANALKYVGGIYGEEALPTPFLCITWKMLQIQPKFDLIVNFIKNKQNTYLQLLGSLYCRLTGEDWEVYTFLLPRFNDYRRISFMGADGTFHDLRVDEVIDDLLNQTEVFDITLPQLKEIKDLVRELG-HHHHHHTTLCGLVRGRRPDELIDKDVQANIRQSVFWQEECQGDSEKLIVIQANKLQCVGGTYGKDNCPTPFLCLLLKMLQIQPQAQLVVAFIRDSNNTYVRGLGAVYCRLTGLAIQCYALLKPLLEDYRRIVCKNTTGEFRDHHVHQFISGLLYQNKVCDLVLPKLPHLDICLSQCP-DVMNKTIKSSGLVNGSDPMLLIDVEVRKNIASSFFWRTKCFGKSSDLVKTQAGKLKYVGGVYGLQKKPTPFLCLLLKMCQIQPNLSLVIRFIKQEIHVYLKLLGALHCRLTGTDVERYEFLRPLYRDYRKIRFMGKTGRFYERFVHQIIKELLTEEKVCDVKLPKMKDKEVLKKQKN-MSLNDIIKEAHLTKGMKPQNLIDYNIRLNIYSSKYWQNKCIGNSDMLVWIEARNLEYIGGTYGTNRYPTPFLCLILKMCQIQPEVNLIISFIEQKSNTYVQLLGALYCRLTAKAIEVYKYLVPLYFNFNKVNYQNVQGEMKDSRVANVIDSLLNSQCIFDIKLPQMIALNELMNKRK-SNANNTIAIAKKIRGVDPRDLIEKDIQQNIYQSKYWRENMIGIEANLVIDQANKLKYVGGTYGFARRPTPFLCLTLTMLRIQPEVDLIVKFIREESSTYVKLLGALYMRLTGADADCYKWLTPLLADYRKISYRNCNGHFLDMYVNEMIDCLLSSAEVFDVKLPVMAHLQVLLQEKG-GSDEEVVKSASQVRGQDPAQLIQANIQHNIYQSHIWGTCCKGRSWHLVDQQANQLSHIGGIYGKRKKPTPFLCLTLLMCRIQPKQKLVVDWIQNMDNVYLALLGALYCRLTGFDFSKYIYLVPLMQDYRKIRYINRSGDEEVDYVNVFIDECLFSDIVCDIKLPNMMRLDILEKRCG-EVCCETVEAAEKVHGCDPCKLVDANVQANIFASEFWQTSCKGKRANLVVEQAGKLEHIGGLFGGKLQPTPFLCLLLCMLQIQPQRNLVVKFIEQKENRYLKLLGALYQRLTGTDIEVYRYLSPLLSDDFEVSYMNRKGTFQKRRVDQVIEWMLTSYVVFDVYLPTLADYRVILQKEE-SLEDRTVEYAELVRGVDPRDLIKKDTQRNIFLSQYWNECCNGDSEQMVKDEAGKLLFIGGVYGNEVKPTPFLCLTLKMLQIQPKKELVIKMIQNNENIYLKGLGALYMRLTGSDKDNYRFLEPLKDDHRKIKHRNWKGDFLEKYVDEFIDSLLTSDVVQDIDLPEVQKKEVLKRKEK-SEEHRTVKQAQLVNGQEPMRLIEAQVQQNIFDSDYWKTRCQGNEVDLVDAKAGLLTHIGGIYGQRELPTPFLCLILKMLQIQPEADTIVSWIEETNYVYVKLLGAVYMRLTGSDEQCYEYLTPLLEDYRKISYRNRLGQYEENFVSLFIERCLFSETVFDILLPLLRDFESLILERD,AMANRTVKDAHSIHGTNPQYLVEKIIRTRIYESKYWKEECFGLTAELVVDKAMELRFVGGVYGGNIKPTPFLCLTLKMLQIQPEKDIIVEFIKNEDFKYVRMLGALYMRLTGTAIDCYKYLEPLYNDYRKIKSQNRNGEFELMHVDEFIDELLHSERVCDIILPRLQKRYVLEEAEQ-AMANRTVKDAHSIHGTNPQYLVEKIIRTRIYESKYWKEECFGLTAELVVDKAMELRFVGGVYGGNIKPTPFLCLTLKMLQIQPEKDIIVEFIKNEDFKYVRMLGALYMRLTGTAIDCYKYLEPLYNDYRKIKSQNRNGEFELMHVDEFIDELLHSERVCDIILPRLQKRYVLEEAEQ-AMANRTVKDAHSIHGTNPQYLVEKIIRTRIYESKYWKEECFGLTAELVVDKAMELRFVGGVYGGNIKPTPFLCLTLKMLQIQPEKDIIVEFIKNEDFKYVRMLGALYMRLTGTAIDCYKYLEPLYNDYRKIKSQNRNGEFELMHVDEFIDELLHSERVCDIILPRLQKRYVLEEAEQ-AMANRTVKDAHSIHGTNPQYLVEKIIRTRIYESKYWKEECFGLTAELVVDKAMELRFVGGVYGGNIKPTPFLCLTLKMLQIQPEKDIIVEFIKNEDFKYVRMLGALYMRLTGTAIDCYKYLEPLYNDYRKIKSQNRNGEFELMHVDEFIDELLHSERVCDIILPRLQKRYVLEEAEQ-AMANRTVKDAHSIHGTNPQYLVEKIIRTRIYESKYWKEECFGLTAELVVDKAMELRFVGGVYGGNIKPTPFLCLTLKMLQIQPEKDIIVEFIKNEDFKYVRMLGALYMRLTGTAIDCYKYLEPLYNDYRKIKSQNRNGEFELMHVDEFIDELLHSERVCDIILPRLQKRYVLEEAEQ-AMANRTVKDAHSIHGTNPQYLVEKIIRTRIYESKYWKEECFGLTAELVVDKAMELRFVGGVYGGNIKPTPFLCLTLKMLQIQPEKDIIVEFIKNEDFKYVRMLGALYMRLTGTAIDCYKYLEPLYNDYRKIKSQNRNGEFELMHVDEFIDELLHSERVCDIILPRLQKRYVLEEAEQ-AMANRTVKDAHSIHGTNPQYLVEKIIRTRIYESKYWKEECFGLTAELVVDKAMELRFVGGVYGGNIKPTPFLCLTLKMLQIQPEKDIIVEFIKNEDFKYVRMLGALYMRLTGTAIDCYKYLEPLYNDYRKIKSQNRNGEFELMHVDEFIDELLHSERVCDIILPRLQKRYVLEEAEQ-AMANRTVKDAHSIHGTNPQYLVEKIIRTRIYESKYWKEECFGLTAELVVDKAMELRFVGGVYGGNIKPTPFLCLTLKMLQIQPEKDIIVEFIKNEDFKYVRMLGALYMRLTGTAIDCYKYLEPLYNDYRKIKSQNRNGEFELMHVDEFIDELLHSERVCDIILPRLQKRYVLEEAEQ-AMANRTVKDAHSIHGTNPQYLVEKIIRTRIYESKYWKEECFGLTAELVVDKAMELRFVGGVYGGNIKPTPFLCLTLKMLQIQPEKDIIVEFIKNEDFKYVRMLGALYMRLTGTAIDCYKYLEPLYNDYRKIKSQNRNGEFELMHVDEFIDELLHSERVCDIILPRLQKRYVLEEAEQ-AMANRTVKDAHSIHGTNPQYLVEKIIRTRIYESKYWKEECFGLTAELVVDKAMELRFVGGVYGGNIKPTPFLCLTLKMLQIQPEKDIIVEFIKNEDFKYVRMLGALYMRLTGTAIDCYKYLEPLYNDYRKIKSQNRNGEFELMHVDEFIDELLHSERVCDIILPRLQKRYVLEEAEQ,EDKQKHYFMQ-RELLEHQAHL-KGYAEWQKSL-EEKEDHKKYM-EEFDEWIYFR-EDMHRWRRYL-EEQAEWHARL-DDVQLWKIRC-EELDEHLERL-FLAKLHEKYS,EEYEAWKVRE-EEYEAWKVRE-EEYEAWKVRE-EEYEAWKVRE-EEYEAWKVRE-EEYEAWKVRE-EEYEAWKVRE-EEYEAWKVRE-EEYEAWKVRE-EEYEAWKVRE
