contacts,cs,ce,Chain,Length,designed_receptor_seq,native_receptor_seq,designed_binder_seq,native_binder_seq
40.0,83,93,A,10,GSHMVPDPQGNGSLDSVLSSPSEPIVVTTLDQLLPDWCDTVPLSTSVSRVGCTTVTIQNSACIGCCNTFYIPENLVGGKEALLTVSQCVPLRLTVRRVVLHCPGSSPPYAVSLVEMVESCACTGITVP-GSGSLPDPQGGETIEKVLHSPEEPLVVTTLENLESDCCETHPLSQVVSESGCEPVVIENRYCSGCCNQFYIPASLLGSSRHVWTHSSCVPSHLTQRSVVLKCPGRRPPYKVKLVDMVETCRCTSVVLP-EEGKVPDPNGDNTISDIIKSPEAPVVVTKCDDLKNDDCVTVPLKKLVSVEGCEAVVIQDSACRGACNSVYIPAGLNGSENAVRTLSFCVPEVLTQRKVTLQCPGGRPPYVERIVDMVESCACTGCVTP-SMGSIPDPYGQSSISSVFYSPEEPVVVTTLSELKEDWCGTFPLSKVVSEEGCEPVVIENRYCFGNCRSFFIPRKLVGKDREVRTTSCCVPVTLTTRVVVLKCPGGSPPYRTRMVEVVESCACTFTVSP-GSLAVPDPGGGSSLSSVIESPAAPLVVTTLDRLTEDFCDTHPLRRVVRREGCQSVTIEDRYCRGTCNSFTVPSNVLGREQSLVTHSCCVPTRLSLREVVLHCPGGSPPFVRVLVEMVDECACTSCVTP-GSHMLPDPNGNGLLSEVLYNPEKPVIVTKLSELTEDWCETVPLEEEVHEEGCETVLILNSSCEGLCNQYYIPDSLVGKRRSLLTISSCVPEKLVEKEVTLECPGGEPPFKRKRVKVVEECSCVSTSLP-EEGGLPDPGGGRSLSSVFESPLEPLVVTRLSELRPDWCRTVPLLRRVCHEGCECVEILDHACAGCCRSFYIPAGTSGEKRAVRTVSECRPTELVEREVVLRCPGGRPPYVRRRVQMVRSCRCTSRVVP-CLGLVPCPGGESCVESCYYSPLRPLVVTRLEHLRRDWCRTLPLEETVGVRGCVPRTILNNYCLGCCNSFFIPASLLGSSRAVETVSECVPLRLTTRRVVLYCPGGRPPFVQRRVSVVESCACRSCVTP-DDGNIPDPTGDGECDDVIYNPEEPLIVTDLSKLREDWCKTYPLSEVVSERGCESVTIQNRYCFGVCNSFFIPAGLTGNTTAVKTISSCVPTRLVTRKVVLHCPGGSPPYKEKLVKVTKSCACTSCSLP-GSGVLPDPNTGKTLADVIYTPSQPITITSLKELSEDWCNTYPLEKLVEQEGCEAKQIQNHICSGGCRTFYIPKDLSGKAIEVRTVSSCVPESLTLREVVLKCPGGTPPYKKQIVQMVESCKCTSCITS,PAGAIPSPYWHHQIKEVLASSQEALVVTERKYLKSDWCKTQPLRQTVSEEGCRSRTILNRFCYGQCNSFYIPRHVKKEEDSFQSCAFCKPQRVTSVIVELECPGLDPPFRIKKIQKVKHCRCMSVNLS-PAGAIPSPYWHHQIKEVLASSQEALVVTERKYLKSDWCKTQPLRQTVSEEGCRSRTILNRFCYGQCNSFYIPRHVKKEEDSFQSCAFCKPQRVTSVIVELECPGLDPPFRIKKIQKVKHCRCMSVNLS-PAGAIPSPYWHHQIKEVLASSQEALVVTERKYLKSDWCKTQPLRQTVSEEGCRSRTILNRFCYGQCNSFYIPRHVKKEEDSFQSCAFCKPQRVTSVIVELECPGLDPPFRIKKIQKVKHCRCMSVNLS-PAGAIPSPYWHHQIKEVLASSQEALVVTERKYLKSDWCKTQPLRQTVSEEGCRSRTILNRFCYGQCNSFYIPRHVKKEEDSFQSCAFCKPQRVTSVIVELECPGLDPPFRIKKIQKVKHCRCMSVNLS-PAGAIPSPYWHHQIKEVLASSQEALVVTERKYLKSDWCKTQPLRQTVSEEGCRSRTILNRFCYGQCNSFYIPRHVKKEEDSFQSCAFCKPQRVTSVIVELECPGLDPPFRIKKIQKVKHCRCMSVNLS-PAGAIPSPYWHHQIKEVLASSQEALVVTERKYLKSDWCKTQPLRQTVSEEGCRSRTILNRFCYGQCNSFYIPRHVKKEEDSFQSCAFCKPQRVTSVIVELECPGLDPPFRIKKIQKVKHCRCMSVNLS-PAGAIPSPYWHHQIKEVLASSQEALVVTERKYLKSDWCKTQPLRQTVSEEGCRSRTILNRFCYGQCNSFYIPRHVKKEEDSFQSCAFCKPQRVTSVIVELECPGLDPPFRIKKIQKVKHCRCMSVNLS-PAGAIPSPYWHHQIKEVLASSQEALVVTERKYLKSDWCKTQPLRQTVSEEGCRSRTILNRFCYGQCNSFYIPRHVKKEEDSFQSCAFCKPQRVTSVIVELECPGLDPPFRIKKIQKVKHCRCMSVNLS-PAGAIPSPYWHHQIKEVLASSQEALVVTERKYLKSDWCKTQPLRQTVSEEGCRSRTILNRFCYGQCNSFYIPRHVKKEEDSFQSCAFCKPQRVTSVIVELECPGLDPPFRIKKIQKVKHCRCMSVNLS-PAGAIPSPYWHHQIKEVLASSQEALVVTERKYLKSDWCKTQPLRQTVSEEGCRSRTILNRFCYGQCNSFYIPRHVKKEEDSFQSCAFCKPQRVTSVIVELECPGLDPPFRIKKIQKVKHCRCMSVNLS,DKNSNVVLQR-DKDGNVVLRR-DKNKNVVLQR-DDKGRVVLRR-DSEGRLVLRA-DSRGNVVLRR-DSRGRLVLQS-DCQGRLVYQH-DRNNHVVLKR-NEKGEVVFKQ,DSANNVVYKQ-DSANNVVYKQ-DSANNVVYKQ-DSANNVVYKQ-DSANNVVYKQ-DSANNVVYKQ-DSANNVVYKQ-DSANNVVYKQ-DSANNVVYKQ-DSANNVVYKQ
30.0,21,31,B,10,NASCGRFVFHVDLREEGLDHRIVAPLSYEAYRCEGSCEFPLNPESQPSLGAIVQTFLHSINPSAVPPTCCVPVSMSPISLLYIDDHNRVVYQTLNDMVVDSCGCP-APSCSRLDLHVDFSALGLEDFIIAPLSYEAYHCYGSCSFPLTPEDNPSFGAIVQTFLHSIRPELVPPSCCVPISQSPISLLYKDANNRVVYQTFSDMVVDSCGCP-EPRCGRRTLHIDLEALGWSDYIIAPLSYEAFRCEGSCDYPLDPSASPSFGSIVQTFLHSINPKAVPPTCCVPVSMSPISLLYINQRNEIVYQTYSDMVVESCGCP-VPRCDRQDFYVDLRAMGLDHVIVAPLSYQAYKCRGSCEYPLSPSTRPSLGALIQTFLHSISPSLVPPTCCVPVRQSPISLLYINDKNDIVFQTFSDMVVDSCGCR-NNSCSRREFHVDFKELGFDDFIVSPLSYTAYHCEGDCGFPLNPSSMPSLGALVQTFLHSVNPSLVPPTCCVPVSQSPISLLYIDNENNIVYRTFSKMVVDSCGCP-EARCGRRIFNVDFRKLGWDHVIVAPLSYEAHKCEGSCDFPLNPSHNPSFGAIVQTFLHSLNPDLFPPTCCVPTKTSPISLLFIDSNNNVVYQTFDNMVVESCGCP-EPDCSRRELAIDFKKLGLDDIIVAPLSYQAYHCQGSCNWPLDPSSRPSLGAILQTFLHSVDPSRTPPVCCVPVRSSPISLLYVDENENIVYQTFSDMVVDSCGCN-EPSCSRHLLDVDFRALGWDEYIIAPLSYEAYYCSGSCDYPLQPDLSPSVGAVIQTLLHSINPTLVPPTCCVPTSMSPISLLYLDAKNNVVHQTFQNMVVESCGCG-EPSCRRLDLQVDFRALGLDHVIVAPLSYQAYYCSGSCEWPLSPEQNPSLGALVQTFLHSVNPDAVPPVCCVPTSSSPISLLYVDDRNRVVYKTFADMVVDSCGCP-EPRCGRELLLVDFRRLGLDNVIVAPLQYQAYRCRGSCDYPLQPEANPSRYALVQTFLHSVNPELVPPTCCVPVSMSPISLLYVDRANRIVYKTFDMMVVESCGCQ,KARCSRKALHVNFKDMGWDDWIIAPLEYEAFHCEGLCEFPLRSHLEPTNHAVIQTLMNSMDPESTPPTCCVPTRLSPISILFIDSANNVVYKQYEDMVVESCGCR-KARCSRKALHVNFKDMGWDDWIIAPLEYEAFHCEGLCEFPLRSHLEPTNHAVIQTLMNSMDPESTPPTCCVPTRLSPISILFIDSANNVVYKQYEDMVVESCGCR-KARCSRKALHVNFKDMGWDDWIIAPLEYEAFHCEGLCEFPLRSHLEPTNHAVIQTLMNSMDPESTPPTCCVPTRLSPISILFIDSANNVVYKQYEDMVVESCGCR-KARCSRKALHVNFKDMGWDDWIIAPLEYEAFHCEGLCEFPLRSHLEPTNHAVIQTLMNSMDPESTPPTCCVPTRLSPISILFIDSANNVVYKQYEDMVVESCGCR-KARCSRKALHVNFKDMGWDDWIIAPLEYEAFHCEGLCEFPLRSHLEPTNHAVIQTLMNSMDPESTPPTCCVPTRLSPISILFIDSANNVVYKQYEDMVVESCGCR-KARCSRKALHVNFKDMGWDDWIIAPLEYEAFHCEGLCEFPLRSHLEPTNHAVIQTLMNSMDPESTPPTCCVPTRLSPISILFIDSANNVVYKQYEDMVVESCGCR-KARCSRKALHVNFKDMGWDDWIIAPLEYEAFHCEGLCEFPLRSHLEPTNHAVIQTLMNSMDPESTPPTCCVPTRLSPISILFIDSANNVVYKQYEDMVVESCGCR-KARCSRKALHVNFKDMGWDDWIIAPLEYEAFHCEGLCEFPLRSHLEPTNHAVIQTLMNSMDPESTPPTCCVPTRLSPISILFIDSANNVVYKQYEDMVVESCGCR-KARCSRKALHVNFKDMGWDDWIIAPLEYEAFHCEGLCEFPLRSHLEPTNHAVIQTLMNSMDPESTPPTCCVPTRLSPISILFIDSANNVVYKQYEDMVVESCGCR-KARCSRKALHVNFKDMGWDDWIIAPLEYEAFHCEGLCEFPLRSHLEPTNHAVIQTLMNSMDPESTPPTCCVPTRLSPISILFIDSANNVVYKQYEDMVVESCGCR,SSPIVVSYRT-GNPIIIRNVR-SGPVVVTTAK-DGPVIVSNKL-GNPEIVQKKE-GPRIVVQKKI-GRPIIVSKRS-GPPVIVSRAA-GEPLVVSSLL-GNPIVVRYLH,QEALVVTERK-QEALVVTERK-QEALVVTERK-QEALVVTERK-QEALVVTERK-QEALVVTERK-QEALVVTERK-QEALVVTERK-QEALVVTERK-QEALVVTERK
