contacts,cs,ce,Chain,Length,designed_receptor_seq,native_receptor_seq,designed_binder_seq,native_binder_seq
31.0,215,225,A,10,MVTVEFRGVFADGSRFRLTATMPLEEVEATTRRLAETNRARVEAFVDGERVAEVDRV-MVTVVFEGVFADGSRFRVTETMPEEEIPARTRALAETNRARVRAYVDGEEVARVDRV-MVTVVFEGVFADGSRFRLTETMPLERVEARTRELAETNRARVRAYVDGEEVARVDRR-MVTVVFEGVFADGSRFRLTATMPEEEIEARTRALAETNRARVRAYVDGEMVAEVDRR-MVEVVFEGVFEDGSRFRLRARMPEEEIEETTRRLAEVNRARVRAYVDGEEVAFVDRR-MVEVVFEGVFADGSRFRVRETMPLEEVEERTRRLAEVNRARVRAYVDGEEVARVDRR-MVTVEFRGVFADGSRFRLTETMPEEEIEARTRALAETNRARVEAFVDGERVAEVDRI-MVEVVFEGVFADGSRFRVVERMPEEEIEERTRRLAEVNRARVRAYVDGEEVARVDRR-MVTVEFRGVFADGSRFRLTATMPEEEIPATTRALAETNRARVEAFVDGERVAEVDAR-MVKVRFELEFADGSRGRLELEMPLEEVEETTRRLAETNRARVRAYVDGEEVAFVDRR,LVKVVFMGWFKNESMFTKEITMMKDDVQWATTQYAEVNKALVKAFIDDKKVCEVDCR-LVKVVFMGWFKNESMFTKEITMMKDDVQWATTQYAEVNKALVKAFIDDKKVCEVDCR-LVKVVFMGWFKNESMFTKEITMMKDDVQWATTQYAEVNKALVKAFIDDKKVCEVDCR-LVKVVFMGWFKNESMFTKEITMMKDDVQWATTQYAEVNKALVKAFIDDKKVCEVDCR-LVKVVFMGWFKNESMFTKEITMMKDDVQWATTQYAEVNKALVKAFIDDKKVCEVDCR-LVKVVFMGWFKNESMFTKEITMMKDDVQWATTQYAEVNKALVKAFIDDKKVCEVDCR-LVKVVFMGWFKNESMFTKEITMMKDDVQWATTQYAEVNKALVKAFIDDKKVCEVDCR-LVKVVFMGWFKNESMFTKEITMMKDDVQWATTQYAEVNKALVKAFIDDKKVCEVDCR-LVKVVFMGWFKNESMFTKEITMMKDDVQWATTQYAEVNKALVKAFIDDKKVCEVDCR-LVKVVFMGWFKNESMFTKEITMMKDDVQWATTQYAEVNKALVKAFIDDKKVCEVDCR,PRLEPGTARG-FTMEPGTERA-FALEPGTERR-YAMEPGTARA-FRMEPGEEVE-FRLEPGVERE-FAMEPGTARG-FRMEPGEERE-AAAAPGTAVA-FRLEPGVEYE,FHMKPGIADT-FHMKPGIADT-FHMKPGIADT-FHMKPGIADT-FHMKPGIADT-FHMKPGIADT-FHMKPGIADT-FHMKPGIADT-FHMKPGIADT-FHMKPGIADT
30.0,13,23,B,10,MKYTIEIEGFDGEEGLRELLKELEKEFEIEEVEVEEEEEEIKLRIKSKEGEEVEVKGEIVFKGKKPEILKKILEYLIEKLDLEEIIEEIEEETGIKIDPEEIEELLKEKLPNAYEKIDEKIKKLLALSLLIELIEEEREDYSDYIYFALGALELFIYQILEEKIELEEKIELEEFFEEEEGLPKINEEYKEEIGGEVAEVLAEAYSFYKETYERLFTLEEGVEDESTVSREEAEEVIEKVLEIIDGAVEKLE-MKYTIEIKGFGSEEELKELFKELEKEFEIKEIEVKEEEKKKKYEIKSKEGEEIIIEDGIKIEGKKPEILKKILEYLIKKLDLEEIIKEIEKETGIKIDKEEIEKLLKEKLPNAYDKIEEEIKKELILSLLIYKIKEEREDYSDYIYHALRAIELFIYQILEEKIKLKEKIELEEFFEEKEGLPIIKEEYKEKIGGEIAEVLVEAYTFYKETYNKLFKKEEGVEDKSKVSKEEAEKVIEKVLEIIDGSIKKLG-MKYTITIKNFGSEEELNELFSFLSEKYEIKEIEVKDEEIEKKYEILSEDGSYLEIKDGIIFEGSKPEILKEILLYLISKLDLEEIIKEIEEETGIKIDIEEIKKLLKEKLPNAYDKIDEEILKLLILSLLIYKIEEEREDYSDYIYFALGAIELFIYQILEEKIKLEEKISLEEFFEEKEGLPVISEEYKEKIGGEIAKVLCEAYSFYKNTYNRLYTLEEGVEDKSKVSKEEAEEVIEKVLEIIDGSIKKLG-MKYTITIKNFGDEKELNELFKFLEKEFEIKEEEVKEEDIEKKYIIKSKEGEEIIIENGIKFEGKKEKILKKILEYLISKLDIEEIIKEIEKETGIKIDKEEIEKILKEKLPNAYDKIEEEIKKELILSLLIYKIKEEREDYSDYIYHALRAIELFIYQILEEKIKLKEKIELEEFFEEKEGLPVINEEYKEKIGGKIAEVLCEAYTFYKNTYNKLFTLEEGKEDKSKVSKEEAEKVIEKVLEIIDGSVKKLG-MKYTIEIEGFDGEKGLEELLKELEKEFEIKEVEVKEGEKKRKLEILSEEGEKIEIEDGIKIEGKKPEILKKILEYLISLLDLEEIIKEIEKETGIKIDPEEIEKLLKEKLPNAYEKIDEEILKELALALLIEKIEKEREDYSDYIYHALRALELFIYQILEEKIKLEEKIELEEFFEEKEGLPVINEEYKEKIGGEIAEVLVEAYTFYKETYEKLFKKEEGVEDKSKVSKEEALEVIEKVLEIIDGSVKKLG-MKYTITIENFGSEEEINSLLEYLKENYEIEEIEVEDEEIEKKYKIKSEDGSELIIEDGIKFEGKYPEILKEILKYLISLGDIEEIIEEIEEETGIKIDPEEIEELLKEKLPNAYDKIDEEILKELALALLIYLIPEEREDYSDYIYHALRAIELFIYQILDEVIETEEKIELEEYFEEEEGLYKINEEYKEEIGGEIAEVLVEAYTFYKETYEELYTLEEGVEDESTVSREEAEEVIEKVLEIIDGSIEKLE-MKYTIEIENFGNEEELNELFSFLEEKYEIEEIEVEDEEIEKKYKIKSEDGSEIIIEDGIKIEGKYPEILKEILKYLISKLDLEEIIEEIEEETGIEIDIEEIEEILKEKLPNAYDKIDEEIKKELILSLLIYLIEEEREDYSDYIYHALRALELFIYQILEEKIELEEKIELEEFFEEEEGLYKINEEYKEEIGGEIEEVLVEAYTFYKETYNELYTLEEGVEDESTVSREEAEEVIEKVLEIIDGSVEKLE-MKYTITIENFGSEEELKELFKYLEENFEIKEVEVEEEEIEKKYEILSEEGEKIIIEENKIFIGTKEKILKEILKYLIKKLDLEEIIKEIEEETGIKIDIEEIKELLKEKLPNAYEKIDEEILKELILSLLIYKIEEEREDYSDYIYHALRAIELFIYQILEEKIKLEEKIELEEFFEEKEGLYEINEEYKEEIGGEIAEVLVEAYTFYKETYNKLYTLEEGVEDKSKVSKEEALEVIEKVLEIIDGAVKKLG-MKYTIEIENFGSEEELNELLKELEKEFEIKEIEVKDEEIEKKYEIKSKEGEKIILEKDKKIIGTKPEILKKILEYLIKKLDLEEIIKEIEKETGIKIDPEEIEKLLKEKLPNAYDKIDEEIKKELILSLLIYKIEKEREDYSDYIYHALRAIELFIYQILDEKIKLKEKISLEEFFEEKEGLPVINEEYKEKIGGKIAEVLTEAYSFYKETYEKLFKKEEGVEDKSKVSKEEAEKVIEKVLEIIDGSVKKLG-MKYEIKIKGFGSEEELKELLKELEKEYEIKEVEVKEGEVKKKIEIKSEEGEKVEIKEGVIFKGKKPEILKKILEYLIKKLDLEEIIKEIEKETGIKIDPEEIEKLLKEKLPNAYEKIDEEIKKELILALLIEKIKEEKEDYSDYIYHALRALELFIYQILEEKIKLEEKIELEEFFEEKEGLPVIKEEYKEKIGGEIAEVLVEAYTFYKEKYEELFKKEEGVEDKSKVSKEEALKVIEKVLEIIDGAVKKLG,KNFEYTIPKFSDDDRANLFEFLSEEGITITEDNNNDPNCKHQYIMTTSNGDRVRAKISIQFQGKYLQIASLINDFMCSILNMKEIVEQKNKEFNVDIKKETIESELHSKLPKSIDKIHEDIKKQLSCSLIMKKIDVEMEDYSTYCFSALRAIEGFIYQILNDVCNPSSSKNLGEYFTENKPKYIIREIHQETINGEIAEVLCECYTYWHENRHGLFHMKPGIADTKTINKLESIAIIDTVCQLIDGGVARLK-KNFEYTIPKFSDDDRANLFEFLSEEGITITEDNNNDPNCKHQYIMTTSNGDRVRAKISIQFQGKYLQIASLINDFMCSILNMKEIVEQKNKEFNVDIKKETIESELHSKLPKSIDKIHEDIKKQLSCSLIMKKIDVEMEDYSTYCFSALRAIEGFIYQILNDVCNPSSSKNLGEYFTENKPKYIIREIHQETINGEIAEVLCECYTYWHENRHGLFHMKPGIADTKTINKLESIAIIDTVCQLIDGGVARLK-KNFEYTIPKFSDDDRANLFEFLSEEGITITEDNNNDPNCKHQYIMTTSNGDRVRAKISIQFQGKYLQIASLINDFMCSILNMKEIVEQKNKEFNVDIKKETIESELHSKLPKSIDKIHEDIKKQLSCSLIMKKIDVEMEDYSTYCFSALRAIEGFIYQILNDVCNPSSSKNLGEYFTENKPKYIIREIHQETINGEIAEVLCECYTYWHENRHGLFHMKPGIADTKTINKLESIAIIDTVCQLIDGGVARLK-KNFEYTIPKFSDDDRANLFEFLSEEGITITEDNNNDPNCKHQYIMTTSNGDRVRAKISIQFQGKYLQIASLINDFMCSILNMKEIVEQKNKEFNVDIKKETIESELHSKLPKSIDKIHEDIKKQLSCSLIMKKIDVEMEDYSTYCFSALRAIEGFIYQILNDVCNPSSSKNLGEYFTENKPKYIIREIHQETINGEIAEVLCECYTYWHENRHGLFHMKPGIADTKTINKLESIAIIDTVCQLIDGGVARLK-KNFEYTIPKFSDDDRANLFEFLSEEGITITEDNNNDPNCKHQYIMTTSNGDRVRAKISIQFQGKYLQIASLINDFMCSILNMKEIVEQKNKEFNVDIKKETIESELHSKLPKSIDKIHEDIKKQLSCSLIMKKIDVEMEDYSTYCFSALRAIEGFIYQILNDVCNPSSSKNLGEYFTENKPKYIIREIHQETINGEIAEVLCECYTYWHENRHGLFHMKPGIADTKTINKLESIAIIDTVCQLIDGGVARLK-KNFEYTIPKFSDDDRANLFEFLSEEGITITEDNNNDPNCKHQYIMTTSNGDRVRAKISIQFQGKYLQIASLINDFMCSILNMKEIVEQKNKEFNVDIKKETIESELHSKLPKSIDKIHEDIKKQLSCSLIMKKIDVEMEDYSTYCFSALRAIEGFIYQILNDVCNPSSSKNLGEYFTENKPKYIIREIHQETINGEIAEVLCECYTYWHENRHGLFHMKPGIADTKTINKLESIAIIDTVCQLIDGGVARLK-KNFEYTIPKFSDDDRANLFEFLSEEGITITEDNNNDPNCKHQYIMTTSNGDRVRAKISIQFQGKYLQIASLINDFMCSILNMKEIVEQKNKEFNVDIKKETIESELHSKLPKSIDKIHEDIKKQLSCSLIMKKIDVEMEDYSTYCFSALRAIEGFIYQILNDVCNPSSSKNLGEYFTENKPKYIIREIHQETINGEIAEVLCECYTYWHENRHGLFHMKPGIADTKTINKLESIAIIDTVCQLIDGGVARLK-KNFEYTIPKFSDDDRANLFEFLSEEGITITEDNNNDPNCKHQYIMTTSNGDRVRAKISIQFQGKYLQIASLINDFMCSILNMKEIVEQKNKEFNVDIKKETIESELHSKLPKSIDKIHEDIKKQLSCSLIMKKIDVEMEDYSTYCFSALRAIEGFIYQILNDVCNPSSSKNLGEYFTENKPKYIIREIHQETINGEIAEVLCECYTYWHENRHGLFHMKPGIADTKTINKLESIAIIDTVCQLIDGGVARLK-KNFEYTIPKFSDDDRANLFEFLSEEGITITEDNNNDPNCKHQYIMTTSNGDRVRAKISIQFQGKYLQIASLINDFMCSILNMKEIVEQKNKEFNVDIKKETIESELHSKLPKSIDKIHEDIKKQLSCSLIMKKIDVEMEDYSTYCFSALRAIEGFIYQILNDVCNPSSSKNLGEYFTENKPKYIIREIHQETINGEIAEVLCECYTYWHENRHGLFHMKPGIADTKTINKLESIAIIDTVCQLIDGGVARLK-KNFEYTIPKFSDDDRANLFEFLSEEGITITEDNNNDPNCKHQYIMTTSNGDRVRAKISIQFQGKYLQIASLINDFMCSILNMKEIVEQKNKEFNVDIKKETIESELHSKLPKSIDKIHEDIKKQLSCSLIMKKIDVEMEDYSTYCFSALRAIEGFIYQILNDVCNPSSSKNLGEYFTENKPKYIIREIHQETINGEIAEVLCECYTYWHENRHGLFHMKPGIADTKTINKLESIAIIDTVCQLIDGGVARLK,EEAEVEREVF-KKYEVKKKIL-KKAKVEKIVL-KEAKVKKKIF-KKYKVEKKVF-EEFEVEREVF-EEYEVERIVF-EEYKVEKEVL-KKYEVKKKVF-KEYKEERKVL,SMFTKEITMM-SMFTKEITMM-SMFTKEITMM-SMFTKEITMM-SMFTKEITMM-SMFTKEITMM-SMFTKEITMM-SMFTKEITMM-SMFTKEITMM-SMFTKEITMM
