contacts,cs,ce,Chain,Length,designed_receptor_seq,native_receptor_seq,designed_binder_seq,native_binder_seq
14.0,65,75,A,10,SNAMSIKLQSCDGEVFEVEEEIAKQSIYIKVMHEDLKMDPVPLPNVDSEILKLVIEYCKGHKDEEDDLEIPEWDQKFLERDLGTLFELVLAANYLNIKGLLDVTCKTIANMIKDKKPEEIRKEFNIPNDLTEEEEEEIKKL-SNAMSIKLQSSDGQIFDVDEEVAFQSEYIKMMHEDLEMNPVPLPNVDSETLKLVIEYMKGHKDEVDEDEIPEEDEEFLKQDLGTIFRLILAANYLNIKGLLDVTCQTVANMIKGKKPEEIREEFNIPNDLTEEEEEEIKKM-DDEPTIQLQSSDGKIFDVPISVATQSQYIKVMYEDMKLNPVPLPRVDSAILELVIKYCTGHKDEDDDDEIPEWDEEFLKVDLGTLFRLILAANYLDIKGLLDVTCKTVANMIKDKTPEEIRKEFDIPNDLTPEEEEEIKKM-GSDPTIQLQSSDGEIFSVHEDVAFQSQYIKIMHEDLKLNPVPLPNVNSDILKLVIEFCKGHKNEEEDSEIPEWDQKFLDKDLGTIFELVLASNFLNIKGLLDVTCKTVAEMVKDKDPEEIRKEFNIPNDLTEEEEEEIKEE-SNAMTIKLQSSDGKIFEVDEEVAKQSQYIKVMYEDLELNPVPLPHVDSEILELVITYMKGHKNKEDSEEIPEWDKEFLKRDLGTIFKLILAANYLNIEGLLKVSCTHVANMIKDKKPEEIRKEFNIPNDLTEEEEEEIKKE-SNAMSIQLQSCDGTVFEVDEEIAKQSQYIKVMHEDLNMNPVPLPNVDSEILQLVIEYCKGHKDVSAGGEIPEWDQQFLQKDLGTLFRLVLAANYLDIKGLLDVTCKTIANMVKDKEPEEIRKEFDIPNDLTEEEEEEIREM-HHHHHHMLQSSDGTVFEVDIETACQSEYIKMMLEDLKMNPVPLPNVNSEILELVITYCKGHKNVDSEEEIPDWDKEFLKVNLGILFELVLAANYLNIKGLLDVTCKTIANMIKDKKPEEIREEFNIPNDLTPEEEEELKED-MSEPTIQLQSCDGKIFEVKESIAFQSQTIKTMYEDLGMNPVPLPNVDSEILELVIEYCKGHEDEEEEDEIPEWDEEFLKVDQGTLFRLILAANFLDIKGLLSVTCQHVANMIRDKEPEEIRETFNIPNDLDEEEEEEIKEE-MNEPTIQLQSSDGKVFEVPESVAFQSQYIKVMHEDLGMNPVPLPNVDSDILELVITYCKGHEDEDEDEEIPEWDEEFLKLDLGTIFELVLAANYLNIKGLLDVTCKHVANMIKGKTPQEIRDEFDIPNDFDEEEEEEIAKQ-MSEPTIKLQSKDGKVFEVPVKVATQSQYIKVMLEDMEMNPVPLPNVDSEILELVIEYCTGHRDVKDPNSIPKWDEEFLKVDIGTLFRLILASNYLDIKGLLDVTCETVANMIKGKKPEEIREEFNLPNDFTEEEEAEAKEE,GAMPSIKLQSSDGEIFEVDVEIAKQSVTIKTMLEDLGMDPVPLPNVNAAILKKVIQWCTHHKDDPGTDDIPVWDQEFLKVDQGTLFELILAANYLDIKGLLDVTCKTVANMIKGKTPEEIRKTFNIKNDFTEEEEAQVRKE-GAMPSIKLQSSDGEIFEVDVEIAKQSVTIKTMLEDLGMDPVPLPNVNAAILKKVIQWCTHHKDDPGTDDIPVWDQEFLKVDQGTLFELILAANYLDIKGLLDVTCKTVANMIKGKTPEEIRKTFNIKNDFTEEEEAQVRKE-GAMPSIKLQSSDGEIFEVDVEIAKQSVTIKTMLEDLGMDPVPLPNVNAAILKKVIQWCTHHKDDPGTDDIPVWDQEFLKVDQGTLFELILAANYLDIKGLLDVTCKTVANMIKGKTPEEIRKTFNIKNDFTEEEEAQVRKE-GAMPSIKLQSSDGEIFEVDVEIAKQSVTIKTMLEDLGMDPVPLPNVNAAILKKVIQWCTHHKDDPGTDDIPVWDQEFLKVDQGTLFELILAANYLDIKGLLDVTCKTVANMIKGKTPEEIRKTFNIKNDFTEEEEAQVRKE-GAMPSIKLQSSDGEIFEVDVEIAKQSVTIKTMLEDLGMDPVPLPNVNAAILKKVIQWCTHHKDDPGTDDIPVWDQEFLKVDQGTLFELILAANYLDIKGLLDVTCKTVANMIKGKTPEEIRKTFNIKNDFTEEEEAQVRKE-GAMPSIKLQSSDGEIFEVDVEIAKQSVTIKTMLEDLGMDPVPLPNVNAAILKKVIQWCTHHKDDPGTDDIPVWDQEFLKVDQGTLFELILAANYLDIKGLLDVTCKTVANMIKGKTPEEIRKTFNIKNDFTEEEEAQVRKE-GAMPSIKLQSSDGEIFEVDVEIAKQSVTIKTMLEDLGMDPVPLPNVNAAILKKVIQWCTHHKDDPGTDDIPVWDQEFLKVDQGTLFELILAANYLDIKGLLDVTCKTVANMIKGKTPEEIRKTFNIKNDFTEEEEAQVRKE-GAMPSIKLQSSDGEIFEVDVEIAKQSVTIKTMLEDLGMDPVPLPNVNAAILKKVIQWCTHHKDDPGTDDIPVWDQEFLKVDQGTLFELILAANYLDIKGLLDVTCKTVANMIKGKTPEEIRKTFNIKNDFTEEEEAQVRKE-GAMPSIKLQSSDGEIFEVDVEIAKQSVTIKTMLEDLGMDPVPLPNVNAAILKKVIQWCTHHKDDPGTDDIPVWDQEFLKVDQGTLFELILAANYLDIKGLLDVTCKTVANMIKGKTPEEIRKTFNIKNDFTEEEEAQVRKE-GAMPSIKLQSSDGEIFEVDVEIAKQSVTIKTMLEDLGMDPVPLPNVNAAILKKVIQWCTHHKDDPGTDDIPVWDQEFLKVDQGTLFELILAANYLDIKGLLDVTCKTVANMIKGKTPEEIRKTFNIKNDFTEEEEAQVRKE,EEEEIEVYVE-DDEDIEVYVD-EEDEVEVYVE-DGEYVDVYVE-EEEEIIVYIK-DDDDIVVYVE-EEEEVVVYTK-EEEEEEVYVE-EEEEVVVYVE-EIIEFEFYVD,ESTLRLVLIF-ESTLRLVLIF-ESTLRLVLIF-ESTLRLVLIF-ESTLRLVLIF-ESTLRLVLIF-ESTLRLVLIF-ESTLRLVLIF-ESTLRLVLIF-ESTLRLVLIF
17.0,34,44,B,10,GSMQIFVKTGLTTTINLEVEESDTIDQIKAKIQDKEGIPPDQQRLIFADKQLEDGRTLKDYNIQKESTLHLVLRQP-ENMQIFVKTGLTKQIFLEVEESDTIDEIKAKIQDKEGIPPDQQRLIFADKQLEDGRTLADYNIQKESTLHLVLREP-GSMQIFVKTGSSSQIFLEVEPSDTIQQIKEKIQQKEGIPPDQQRLIFAEKQLEDGRTLSDYNIQKESTLHLVLRQP-MAMQIFVRTGTTSQIILEVDPSDTIEDIKAKIQAKEGIPPEQQRLIFADQLLEDGRTLSDYNIQKESTLHLVLRQP-RSMQIFVKTGTSTQINLEVDPSDTIDEIKAKIQEKEGIPPDQQRLIFADKLLENGRTLSDYNIQKESTLHLVLRKP-SMMKIFVKTGANSQIFLEVDESDTIDEIKQKIFDKEGIPPDQQRLIFAKKQLEDGRTLADYNIQKESTLHLVLRQP-QGMQIFVKTGATTQIFLEVEPTDTIEEVKAKIQDKEGIPPDQQRLIFASKQLEDGRTLEDYNIQKESTLHLVLRQP-GSMQIFVKTGQTTSIFLEVEPSDTIEDVKSKIQEKEGIPPNQQRLIFADKQLEDGRTLSDYNIQKESTLHLTLRKP-PGMQIFVKTGASSSIFLEVEPSDTIEQIKAKIQDKEGIPPDQQRLIYADKQLEDGRTLSDYNIQKESTLHLVLKQP-AGMQIFVKTGATTQIFLEVEPSDTIDDIKAKIQDKEGIPPDQQRLIFANKQLEDGRTLSDYNIQKESTLHLVLRQP,GSMQIFVKTGARTAITLEVEPSDTIENVKAKIQDKEGIPPDQQILIFSRKLLEDGRTLSDYNIHRESTLRLVLIFR-GSMQIFVKTGARTAITLEVEPSDTIENVKAKIQDKEGIPPDQQILIFSRKLLEDGRTLSDYNIHRESTLRLVLIFR-GSMQIFVKTGARTAITLEVEPSDTIENVKAKIQDKEGIPPDQQILIFSRKLLEDGRTLSDYNIHRESTLRLVLIFR-GSMQIFVKTGARTAITLEVEPSDTIENVKAKIQDKEGIPPDQQILIFSRKLLEDGRTLSDYNIHRESTLRLVLIFR-GSMQIFVKTGARTAITLEVEPSDTIENVKAKIQDKEGIPPDQQILIFSRKLLEDGRTLSDYNIHRESTLRLVLIFR-GSMQIFVKTGARTAITLEVEPSDTIENVKAKIQDKEGIPPDQQILIFSRKLLEDGRTLSDYNIHRESTLRLVLIFR-GSMQIFVKTGARTAITLEVEPSDTIENVKAKIQDKEGIPPDQQILIFSRKLLEDGRTLSDYNIHRESTLRLVLIFR-GSMQIFVKTGARTAITLEVEPSDTIENVKAKIQDKEGIPPDQQILIFSRKLLEDGRTLSDYNIHRESTLRLVLIFR-GSMQIFVKTGARTAITLEVEPSDTIENVKAKIQDKEGIPPDQQILIFSRKLLEDGRTLSDYNIHRESTLRLVLIFR-GSMQIFVKTGARTAITLEVEPSDTIENVKAKIQDKEGIPPDQQILIFSRKLLEDGRTLSDYNIHRESTLRLVLIFR,PLGLNPIPDP-ALGLNPIPLP-PLGLNPIPQP-CLGLHPIPRP-ALGLDPIPEP-PLGLNPIPQP-AGGREPRPRP-ALGLSPVPRP-ALGLDPIPMP-ALGLDPIPEP,DLGMDPVPLP-DLGMDPVPLP-DLGMDPVPLP-DLGMDPVPLP-DLGMDPVPLP-DLGMDPVPLP-DLGMDPVPLP-DLGMDPVPLP-DLGMDPVPLP-DLGMDPVPLP
