contacts,cs,ce,Chain,Length,designed_receptor_seq,native_receptor_seq,designed_binder_seq,native_binder_seq
36.0,282,292,A,10,GSVVTYGAALAPTVRDAAAPADVPLQAGGTPTA-GSVVTYGAALAPTVYDAAAPANVPLTAGGTPTA-GSVVTYGAALAPTVRDAAAPADQPLQAGGLPTA-GSVVTYGAALAPTVRDAAAPADQPLQAGGLPTA-GSVVTYGAALAPTVRDAAAPADQPLQAGGQPTA-GSVVTYGAALAPTVRDAAAPADTPLQAGGTPTP-GSVVTYGAALAPTVRDAAAPADTPLTAGGTPTA-GSVVTYGAALAPTVRDAAAPADQPLQAGGLPTG-GSVVTYGAALAPTVRDASAPADVPLQAGGVPTA-GSVVTYGAALAPTVRDAAAPADQPLQAGGLPTP,RKRVTFGEDLSPEVFDESLPANTPLRKGGTPVC-RKRVTFGEDLSPEVFDESLPANTPLRKGGTPVC-RKRVTFGEDLSPEVFDESLPANTPLRKGGTPVC-RKRVTFGEDLSPEVFDESLPANTPLRKGGTPVC-RKRVTFGEDLSPEVFDESLPANTPLRKGGTPVC-RKRVTFGEDLSPEVFDESLPANTPLRKGGTPVC-RKRVTFGEDLSPEVFDESLPANTPLRKGGTPVC-RKRVTFGEDLSPEVFDESLPANTPLRKGGTPVC-RKRVTFGEDLSPEVFDESLPANTPLRKGGTPVC-RKRVTFGEDLSPEVFDESLPANTPLRKGGTPVC,LTVSTVTYQA-TTVYTVTYQA-LTVSTVTYQA-LTVYTVTYQA-LTVYTQTLQP-ATVYTVTYQA-LTVYTQTLQA-LTVYTVTYQA-ATVYTVTYQA-LTVSTVTYQA,LMCSFQILKP-LMCSFQILKP-LMCSFQILKP-LMCSFQILKP-LMCSFQILKP-LMCSFQILKP-LMCSFQILKP-LMCSFQILKP-LMCSFQILKP-LMCSFQILKP
40.0,11,21,B,10,MDIDSIIERLLSIRGSKPGKLVRLKKDEIVGLCEESKKIFLSQPILLRLKAPLKICGDIHGQYYDLLRLFKMGGFPPESRYLFLGDYVDRGYQSIETICLLLAYKIKYPDNFFLLRGNHEDASVNRIYGFYDECKRRYDVKLWKTFTECFDCLPIAAIIDDKIFCCHGGLSPELKDFSQIEEIKRPTIVPDSGLLCDLLWSDPDENVEDWGENDRGVSYTFGAKVVERFLKKHNLDLICRAHQVVEDGYEFFADRKLVTLFSAPNYCGEFGNAGAMMAVDENLNCSFEVLRPL-MDIDSIIDRLLSIRGSKPGALVRLKKDEIVGLCEESKKIFLSQPILLELSAPLKICGDIHGQYYDLLRLFKMGGFPPESRYLFLGDYVDRGYQSIETICLLLAYKIKYPNDFFLLRGNHEDASVNRIYGFYDECKRRYDVKLWKTFTECFDCLPIAAIIDNKIFCCHGGLSPELKEFSQIREIKRPTTVPPSGLMCDLLWSDPDENTEDWGENDRGVSYTFGAEVVKRFLKKHNLDLICRAHQVVEDGYEFFADRKLVTLFSAPNYCGEFGNAGAMMAVDENLNCSFEVLRPL-MDIDSIIERLLSIEGSKPGKLVRLKKDEIIGLCEESKKIFLSQPILLRLKAPLKICGDIHGQYYDLLRLFKMGGFPPESRYLFLGDYVDRGYQSIETICLLLAYKIKYPDDFFLLRGNHEDAIINRVYGFYDECKRRYDVKLWKTFTECFDCLPIAAIIDDKIFCCHGGLSPELKEFSQIEEIKRPTKVPPSGLLCDLLWSDPDENVEDWGENDRGVSYTFGAEVVKRFLKKHNLDLICRAHQVVEDGYEFFADRKLVTLFSAPNYCGEFGNAGAMMAVDENLNCSFEVLRPL-MDIDSIIERLLSIRGSKPGKLVRLKKDEIVGLCEESKKIFLSQPILLELKAPLKICGDIHGQYYDLLRLFKMGGFPPESRYLFLGDYVDRGYQSIETICLLLAYKIKYPNDFFLLRGNHEDAIINRIYGFYDECKRRYDVKLWKTFTECFDCLPIAAIIDDKIFCCHGGLSPELKEFSQIKEIKRPTIVPPSGLLCDLLWSDPDENTEDWGENDRGVSYTFGAKVVERFLKKHNLDLICRAHQVVEDGYEFFADRKLVTLFSAPNYCGEFGNAGAMMAVDENLNCSFEVLRPL-MDIDSIIDRLLSIRGSKPGARVRLKKDEIVGLCEESKKIFLSQPILLRLKAPLKICGDIHGQYYDLLRLFKMGGFPPESRYLFLGDYVDRGYQSIETICLLLAYKIKYPDNFFLLRGNHEDASVNRIYGFYDECKRRYDVKLWKTFTECFDCLPIAAIIDDKIFCCHGGLSPELKEFSQIEEIKRPTKVPDSGLLCDLLWSDPDENTKDWGENDRGVSYTFGAEVVKKFLKKHNLDLICRAHQVVEDGYEFFADRKLVTLFSAPNYCGEFGNAGAMMAVDENLNCSFEVLRPL-MDIDSIIERLLSIRGSKPGKLVRLKKDEIVGLCEESKKIFLSQPILLRLKAPLKICGDIHGQYYDLLRLFKMGGFPPEARYLFLGDYVDRGYQSIETICLLLAYKIKYPDDFFLLRGNHEDASVNRIYGFYDECKRRYDVKLWKTFTECFDCLPIAAIIDDKIFCCHGGLSPELKEFSQIEEIKRPTIVPDSGLLCDLLWSDPDENTEDWGENDRGVSYTFGAEVVKRFLKKHNLDLICRAHQVVEDGYEFFADRKLVTLFSAPNYCGEFGNAGAMMAVDENLNCSFEVLRPL-MDIDSIIDRLLSIRGSKPGALVRLKKDEIVGLCEESKKIFLSQPILLRLKAPLKICGDIHGQYYDLLRLFKMGGFPPESRYLFLGDYVDRGYQSIETICLLLAYKIKYPDNFFLLRGNHEDSIINRIYGFYDECKRRYDVKLWKTFTECFDCLPIAAIIDDKIFCCHGGLSPELKDFSQIEEIKRPTDVPPSGLLCDLLWSDPDENVEDWGENDRGVSYTFGAKVVERFLKKHNLDLICRAHQVVEDGYEFFADRKLVTLFSAPNYCGEFGNAGAMMAVDENLNCSFEVLRPL-MDIDSIIDRLLSIEGSKPGKLVRLKKDEIIGLCEESKKIFLSQPILLRLKAPLKICGDIHGQYYDLLRLFKMGGFPPQSRYLFLGDYVDRGYQSIETICLLLAYKIKYPDDFFLLRGNHEDASVNRIYGFYDECKRRYDVKLWKTFTECFDCLPIAAIIDDKIFCCHGGLSPELKEFSQIEEIKRPTTVPPSGLMCDLLWSDPDENTEDWGENDRGVSYTFGAKVVERFLKKHNLDLICRAHQVVEDGYEFFADRKLVTLFSAPNYCGEFGNAGAMMAVDEKLNCSFEVLRPL-MDIDSIIDRLLSIRGSKPGARVRLAKDEIVGLCEESKKIFLSQPILLRLKAPLKICGDIHGQYYDLLRLFKMGGFPPESRYLFLGDYVDRGYQSIETICLLLAYKIKYPDNFFLLRGNHEDASVNRIYGFYDECKRRYDVKLWKTFTECFDCLPIAAIIDDKIFCCHGGLSPELKDFSQIEEIKRPTIVPPSGLMCDLLWSDPDENVEDWGENDRGVSYTFGAKVVERFLKKHNLDLICRAHQVVEDGYEFFADRKLVTLFSAPNYCGEFGNAGAMMAVDENLNCSFEVLRPL-MDIDSIIDRLLSIRGSKPGARVRLKKDEIVGLCEESKKIFLSQPILLELSAPLKVCGDIHGQYYDLLRLFKMGGFPPEARYLFLGDYVDRGYQSIETICLLLAYKIKYPNDFFLLRGNHEDASVNRIYGFYDECKRKYDVKLWKTFTECFDCLPIAAIIDDKIFCCHGGLSPELKEFSQIREIKRPTIVPPSGLLCDLLWSDPDENTEDWGENDRGVSYTFGAEVVKRFLKKHNLDLICRAHQVVEDGYEFFCDRKLVTLFSAPNYCGEFGNAGAMMAVDENLNCSFEVLRPL,LNIDSIIQRLLEVRGSKPGKNVQLQENEIRGLCLKSREIFLSQPILLELEAPLKICGDIHGQYYDLLRLFEYGGFPPESNYLFLGDYVDRGKQSLETICLLLAYKIKYPENFFLLRGNHECASINRIYGFYDECKRRYNIKLWKTFTDCFNCLPIAAIVDEKIFCCHGGLSPDLQSMEQIRRIMRPTDVPDQGLLCDLLWSDPDKDVLGWGENDRGVSFTFGAEVVAKFLHKHDLDLICRAHQVVEDGYEFFAKRQLVTLFSAPNYCGEFDNAGAMMSVDETLMCSFQILKPA-LNIDSIIQRLLEVRGSKPGKNVQLQENEIRGLCLKSREIFLSQPILLELEAPLKICGDIHGQYYDLLRLFEYGGFPPESNYLFLGDYVDRGKQSLETICLLLAYKIKYPENFFLLRGNHECASINRIYGFYDECKRRYNIKLWKTFTDCFNCLPIAAIVDEKIFCCHGGLSPDLQSMEQIRRIMRPTDVPDQGLLCDLLWSDPDKDVLGWGENDRGVSFTFGAEVVAKFLHKHDLDLICRAHQVVEDGYEFFAKRQLVTLFSAPNYCGEFDNAGAMMSVDETLMCSFQILKPA-LNIDSIIQRLLEVRGSKPGKNVQLQENEIRGLCLKSREIFLSQPILLELEAPLKICGDIHGQYYDLLRLFEYGGFPPESNYLFLGDYVDRGKQSLETICLLLAYKIKYPENFFLLRGNHECASINRIYGFYDECKRRYNIKLWKTFTDCFNCLPIAAIVDEKIFCCHGGLSPDLQSMEQIRRIMRPTDVPDQGLLCDLLWSDPDKDVLGWGENDRGVSFTFGAEVVAKFLHKHDLDLICRAHQVVEDGYEFFAKRQLVTLFSAPNYCGEFDNAGAMMSVDETLMCSFQILKPA-LNIDSIIQRLLEVRGSKPGKNVQLQENEIRGLCLKSREIFLSQPILLELEAPLKICGDIHGQYYDLLRLFEYGGFPPESNYLFLGDYVDRGKQSLETICLLLAYKIKYPENFFLLRGNHECASINRIYGFYDECKRRYNIKLWKTFTDCFNCLPIAAIVDEKIFCCHGGLSPDLQSMEQIRRIMRPTDVPDQGLLCDLLWSDPDKDVLGWGENDRGVSFTFGAEVVAKFLHKHDLDLICRAHQVVEDGYEFFAKRQLVTLFSAPNYCGEFDNAGAMMSVDETLMCSFQILKPA-LNIDSIIQRLLEVRGSKPGKNVQLQENEIRGLCLKSREIFLSQPILLELEAPLKICGDIHGQYYDLLRLFEYGGFPPESNYLFLGDYVDRGKQSLETICLLLAYKIKYPENFFLLRGNHECASINRIYGFYDECKRRYNIKLWKTFTDCFNCLPIAAIVDEKIFCCHGGLSPDLQSMEQIRRIMRPTDVPDQGLLCDLLWSDPDKDVLGWGENDRGVSFTFGAEVVAKFLHKHDLDLICRAHQVVEDGYEFFAKRQLVTLFSAPNYCGEFDNAGAMMSVDETLMCSFQILKPA-LNIDSIIQRLLEVRGSKPGKNVQLQENEIRGLCLKSREIFLSQPILLELEAPLKICGDIHGQYYDLLRLFEYGGFPPESNYLFLGDYVDRGKQSLETICLLLAYKIKYPENFFLLRGNHECASINRIYGFYDECKRRYNIKLWKTFTDCFNCLPIAAIVDEKIFCCHGGLSPDLQSMEQIRRIMRPTDVPDQGLLCDLLWSDPDKDVLGWGENDRGVSFTFGAEVVAKFLHKHDLDLICRAHQVVEDGYEFFAKRQLVTLFSAPNYCGEFDNAGAMMSVDETLMCSFQILKPA-LNIDSIIQRLLEVRGSKPGKNVQLQENEIRGLCLKSREIFLSQPILLELEAPLKICGDIHGQYYDLLRLFEYGGFPPESNYLFLGDYVDRGKQSLETICLLLAYKIKYPENFFLLRGNHECASINRIYGFYDECKRRYNIKLWKTFTDCFNCLPIAAIVDEKIFCCHGGLSPDLQSMEQIRRIMRPTDVPDQGLLCDLLWSDPDKDVLGWGENDRGVSFTFGAEVVAKFLHKHDLDLICRAHQVVEDGYEFFAKRQLVTLFSAPNYCGEFDNAGAMMSVDETLMCSFQILKPA-LNIDSIIQRLLEVRGSKPGKNVQLQENEIRGLCLKSREIFLSQPILLELEAPLKICGDIHGQYYDLLRLFEYGGFPPESNYLFLGDYVDRGKQSLETICLLLAYKIKYPENFFLLRGNHECASINRIYGFYDECKRRYNIKLWKTFTDCFNCLPIAAIVDEKIFCCHGGLSPDLQSMEQIRRIMRPTDVPDQGLLCDLLWSDPDKDVLGWGENDRGVSFTFGAEVVAKFLHKHDLDLICRAHQVVEDGYEFFAKRQLVTLFSAPNYCGEFDNAGAMMSVDETLMCSFQILKPA-LNIDSIIQRLLEVRGSKPGKNVQLQENEIRGLCLKSREIFLSQPILLELEAPLKICGDIHGQYYDLLRLFEYGGFPPESNYLFLGDYVDRGKQSLETICLLLAYKIKYPENFFLLRGNHECASINRIYGFYDECKRRYNIKLWKTFTDCFNCLPIAAIVDEKIFCCHGGLSPDLQSMEQIRRIMRPTDVPDQGLLCDLLWSDPDKDVLGWGENDRGVSFTFGAEVVAKFLHKHDLDLICRAHQVVEDGYEFFAKRQLVTLFSAPNYCGEFDNAGAMMSVDETLMCSFQILKPA-LNIDSIIQRLLEVRGSKPGKNVQLQENEIRGLCLKSREIFLSQPILLELEAPLKICGDIHGQYYDLLRLFEYGGFPPESNYLFLGDYVDRGKQSLETICLLLAYKIKYPENFFLLRGNHECASINRIYGFYDECKRRYNIKLWKTFTDCFNCLPIAAIVDEKIFCCHGGLSPDLQSMEQIRRIMRPTDVPDQGLLCDLLWSDPDKDVLGWGENDRGVSFTFGAEVVAKFLHKHDLDLICRAHQVVEDGYEFFAKRQLVTLFSAPNYCGEFDNAGAMMSVDETLMCSFQILKPA,DFVYDENEPA-PFVYDEDEPA-PFVYDESAPA-DYVYDESAPA-DFVYDESAPA-PFVYDESEPA-DFVYDESAPA-PFVYDENAPA-YYVYDESAPA-PFVYDESAPA,PEVFDESLPA-PEVFDESLPA-PEVFDESLPA-PEVFDESLPA-PEVFDESLPA-PEVFDESLPA-PEVFDESLPA-PEVFDESLPA-PEVFDESLPA-PEVFDESLPA
