contacts,cs,ce,Chain,Length,designed_receptor_seq,native_receptor_seq,designed_binder_seq,native_binder_seq
19.0,54,64,A,10,MDPEKVKADFLAATADLPAQIKDIMQKVGALDKQRVELKKQRDALQKQLDDWAKKYGKEPKHPEEAGLKAKIAELKKQIDAIEKQMKDLKAQAKALADKEKAKLEAAVAALKASGVLKD-MDPEKVKADFLKATEKLPEQIKEIMKKVGELDKKRVEVKKKYEELQKKLDDWKKKYGEKPKHPEEEGLKKEIAKLKEERDKIQKEMDKLRKEAKDLVSKEKKKLEEAVKKLKESGVLKE-MDPEKVKADFLAATAELPAQVKAIMQQVGALDKQRVELKKQRDALKAKLDAWAKEKGKKPKHPEEAGLKAKIAELAKKIGEIEKKMAELKKKAADLKAELKKKLEEAVAALKAEGVLKE-MDPEKVKADFLAATAELPAQVKAIMQRVGALDKQRVELKKQRDALKAKLDAWAKEKGKKPAHPEAAGLEKQIAALKKQIAALEKQMAALKKQAADLVATQKAALEKAVAALKATGVLKG-MDPEKVKADFLAATAELPAQIKDIMQQVGALDKQRVEVKKARDALQKKLDDWAKKYGKKPKHPEEAGLKKQIAALKKKEGELKKKMDELKKKADDLKAKLDKELKDAIAALKKTGVLKG-MDPEKVKADFLAATADLPAQVKEILQQVGALDKQRVELKKKRDALKAKLDAWAKEKGKEPKHPEEAGLKAEIAALKAQIDALEKKMTELKAKAKALADTHKAALEKAVAALKAEGVLKD-MDPEKVKADFLAATAELPAQVKEIMQKVGALDKQRVELKKKYEALQKELDDWEKKYGKKPKHPKEDGLKKEIAALKKQIAEIEKQMVDLKKQAKDLVATHKKKLEDAVAALKKEGVLKE-MDPEKVKADFLKATEKLPEEIKRIMKEVGALDKKRAELKKKYEELQKKLDDWEKKYGKEPKHPEEEGLKKEIAKLKEEIAKIEKEMKRLKEEAKRRVAELKKKLEEAIKELEEKGVLKK-MDPEKVKADFLAATADLPAQVKAIMQQVGALDKQRVELKKKRDALQKQLDDWAKKYGKDPKHPEEDGLKKEIAALKKQIADIEKQMTDLKKQAKDLAAKEKAKLEAAIAALKASGVLKD-MDPEKVKADFLAATAELPAQVKAIMKEVGALDKQRVELKKKRDALKAKLDAWAKEKGKEPKHPEEAGLKAEIAKLAKEIGEIEKKMAELKKKAADLKATLKKKLEDAVAALKASGVLKE,MDPSLVLEQTIQDVSNLPSEFRYLLEEIGSNDLKLIEEKKKYEQKESQIHKFIRQQGSIPKHPQEDGLDKEIKESLLKCQSLQREKCVLANTALFLIARHLNKLEKNIALLEEDGVLAP-MDPSLVLEQTIQDVSNLPSEFRYLLEEIGSNDLKLIEEKKKYEQKESQIHKFIRQQGSIPKHPQEDGLDKEIKESLLKCQSLQREKCVLANTALFLIARHLNKLEKNIALLEEDGVLAP-MDPSLVLEQTIQDVSNLPSEFRYLLEEIGSNDLKLIEEKKKYEQKESQIHKFIRQQGSIPKHPQEDGLDKEIKESLLKCQSLQREKCVLANTALFLIARHLNKLEKNIALLEEDGVLAP-MDPSLVLEQTIQDVSNLPSEFRYLLEEIGSNDLKLIEEKKKYEQKESQIHKFIRQQGSIPKHPQEDGLDKEIKESLLKCQSLQREKCVLANTALFLIARHLNKLEKNIALLEEDGVLAP-MDPSLVLEQTIQDVSNLPSEFRYLLEEIGSNDLKLIEEKKKYEQKESQIHKFIRQQGSIPKHPQEDGLDKEIKESLLKCQSLQREKCVLANTALFLIARHLNKLEKNIALLEEDGVLAP-MDPSLVLEQTIQDVSNLPSEFRYLLEEIGSNDLKLIEEKKKYEQKESQIHKFIRQQGSIPKHPQEDGLDKEIKESLLKCQSLQREKCVLANTALFLIARHLNKLEKNIALLEEDGVLAP-MDPSLVLEQTIQDVSNLPSEFRYLLEEIGSNDLKLIEEKKKYEQKESQIHKFIRQQGSIPKHPQEDGLDKEIKESLLKCQSLQREKCVLANTALFLIARHLNKLEKNIALLEEDGVLAP-MDPSLVLEQTIQDVSNLPSEFRYLLEEIGSNDLKLIEEKKKYEQKESQIHKFIRQQGSIPKHPQEDGLDKEIKESLLKCQSLQREKCVLANTALFLIARHLNKLEKNIALLEEDGVLAP-MDPSLVLEQTIQDVSNLPSEFRYLLEEIGSNDLKLIEEKKKYEQKESQIHKFIRQQGSIPKHPQEDGLDKEIKESLLKCQSLQREKCVLANTALFLIARHLNKLEKNIALLEEDGVLAP-MDPSLVLEQTIQDVSNLPSEFRYLLEEIGSNDLKLIEEKKKYEQKESQIHKFIRQQGSIPKHPQEDGLDKEIKESLLKCQSLQREKCVLANTALFLIARHLNKLEKNIALLEEDGVLAP,AAAAASAAAA-EKLKASAEEK-AAAAASAAAA-AAAAASAAAA-AAAAASAAAA-AAAAASAAAA-AAAAASAAAA-EEKKASAAEE-AAAAASAAAA-AAAAASAAAA,IFSLSSATYV-IFSLSSATYV-IFSLSSATYV-IFSLSSATYV-IFSLSSATYV-IFSLSSATYV-IFSLSSATYV-IFSLSSATYV-IFSLSSATYV-IFSLSSATYV
17.0,16,26,B,10,MGLLEIIILLLIILLIIIIIIIYIIILIIIYIIEKIIYKKKSLIKGKKINKNDFIFSLSSKIIRKIIK-MGLLEKIIEILLLILIIIIIIIYIIILIIIYIIEKIIYKKKSLIGGKKYNEEDKIFSLSSKIYKKIIN-MGELIKKILEEIEKLKEEIEKIKEEILKIIEELEKKLYEGKSLLEGKELSEEDKIFSLSSEEYKKKIE-MGLLEIIISIILIIIIIIIIIIYIIILIIIYIIEKIIFKKKSLIGGKKYNKNDFIFSLSSKIYKKIIN-MGLLIIIILILIIILIIIIIIIYIIILIIIYIIEKIIYKKKSIIGGKKINKNDFIFSLSSKIIRKIIK-MGLLIIIILLLIIILIIIIIIIYIIILIIIYIIEKIIYKGKSLIGGKKYNENDKIFSLSSKIYRKIIN-MGLLEKIIEKIKEKIKEKIKEKIKEKIKEIIEKEKELCEKGCIICGKKCDEKCKIFSLSSKIYRKIIE-MGELEKILEEIKKEIEKEIEKEIEKEIEKIIEEEKKLFEGKSLLEGKEVSEEDLIFSLSSEKYKEKIK-MGELIKKILEEIEKIKEEIEKIKEEILKIIKEIEKKIYEKGSLIGGKKLNEEDKIFSLSSEEYKKKIE-MGLLEEIKKEIEELKKEIEELKKEIEELKIEIEEILKNSKGSILGGKKLDLEDRIFSLSSEKYRKIIE,SYEALKAELKKSLQDRREQEDTFDNLQQEIYDKETEYFSSGNIIKGFDFNNNDRIFSLSSATYVKQQH-SYEALKAELKKSLQDRREQEDTFDNLQQEIYDKETEYFSSGNIIKGFDFNNNDRIFSLSSATYVKQQH-SYEALKAELKKSLQDRREQEDTFDNLQQEIYDKETEYFSSGNIIKGFDFNNNDRIFSLSSATYVKQQH-SYEALKAELKKSLQDRREQEDTFDNLQQEIYDKETEYFSSGNIIKGFDFNNNDRIFSLSSATYVKQQH-SYEALKAELKKSLQDRREQEDTFDNLQQEIYDKETEYFSSGNIIKGFDFNNNDRIFSLSSATYVKQQH-SYEALKAELKKSLQDRREQEDTFDNLQQEIYDKETEYFSSGNIIKGFDFNNNDRIFSLSSATYVKQQH-SYEALKAELKKSLQDRREQEDTFDNLQQEIYDKETEYFSSGNIIKGFDFNNNDRIFSLSSATYVKQQH-SYEALKAELKKSLQDRREQEDTFDNLQQEIYDKETEYFSSGNIIKGFDFNNNDRIFSLSSATYVKQQH-SYEALKAELKKSLQDRREQEDTFDNLQQEIYDKETEYFSSGNIIKGFDFNNNDRIFSLSSATYVKQQH-SYEALKAELKKSLQDRREQEDTFDNLQQEIYDKETEYFSSGNIIKGFDFNNNDRIFSLSSATYVKQQH,IPEIIKKILK-IPEIIKKILK-IPEEIKKILE-IPKIIKKILK-IPEIIKKILK-IPKIIKKILK-IPEEIKKILE-IPKEIKKILE-IPEIIKKILE-IPEEIKKILK,LPSEFRYLLE-LPSEFRYLLE-LPSEFRYLLE-LPSEFRYLLE-LPSEFRYLLE-LPSEFRYLLE-LPSEFRYLLE-LPSEFRYLLE-LPSEFRYLLE-LPSEFRYLLE
