contacts,cs,ce,Chain,Length,designed_receptor_seq,native_receptor_seq,designed_binder_seq,native_binder_seq
23.0,13,23,A,10,SMPRSLINEEIFRQIEELDQDADKFSFGLIKLFWDEALATTKEIENSIDGVKDFDKLFRLGHSIKGSSASLGFDRIAYLSDVVEQIGKFQKFYVPSIFEIENHFSDFNQAIKERESGENAEQLDWISQAVALFKEFFKMTIYELSMRFNKTD-TLPAEIIDWEIFQEIEDLDDDDEDFSLGLIQDLIQSLDTTLEKIENEINGTVSLDNITALGHFLKGASASLGLQRMAHIAEVIEQLGRKEVFEIPDANTLIAKFSDKNILTFEIDQGEDMSQVQLMEKAQKLLKIEFKLSELVLSQHFKSEG-LVPGKILDTFVFSNIIAKDESSKKFSQGLIVSFSDHMNSTVQQMEQMISGVNNLAKLTELGHALKGSSASLGLSRISDVSKAIELLGKKQISNFPSLNDIISEFDDKTLLDINCDDGEDDKELSLISLAVELLKVEFRVSILELSKHFQITD-MIPSEIINWEVFDEIRDRDDEFEDFSFGLIDLFIEEWETTEKSIIKALEGEKDLKTLEILGHTLKGSAASLGLDRIAWVCEQIEKLGRHEVNYIPDIDALISLFENKDIVNLEIDLGEDETQWQLIMNASDILSVFRFLSVEELSKFFSLEG-ALPSELIDFSKSNEILQLDQEDELLFQQLVETLQKELAQTLLDINKLLSGNRNLEEMFRLGHTLKGASANLGLSRISYVAQVIEYLGREMYDFVPELEESISLLTDSKVSAIPDENGENEESLNLVEKMNALFQFWAELSELELSTYFKKND-MIPRDIVDYSTFDEIRSLDEDAINFSSDLVLLMKEMAEMNLQEIQQNITGNQNLKEITNLGHTLKGASASLGLDRIATIAQQIESLGKDELDYFPDLDTLIEKFSDQNEVNFDANEGYDDKQLALIKQAAEYYKVEFSLCRKVLSAFFNTEF-GMPKEIVDWQKYAWITDLDIEEEDFSKGLIIMFRKEAVETIDQIQTSISGGKDLEMLHELGHTLKGASAALGLSRIAHVCDQIERLGRNELNYFPSYDEMITLLSSSDETTSIPEDGPNKAAIELIDNAAAVLKIQFKLSVAELNGYFQVMG-HMPASLVDWSTFELIQELDDDDENFSFGLLRMFYDEGNEMLQEMEDLLEGEKNLDKLFALGHTLKGASASLGLRRIAYISEIIEQLGRLEVTYCPGISQTISMLEDEEEIEFESAEGEYDEQLDLIKRSNSLLALYFNLAKKSLSKHFLRET-SMPADIIDWTTLESVIALDEEAENFSLGLLRLFDEYSESTIADIDAALNGEKDLDSIHVLGHTLKGGSANLGMSRIAAVCSVIEMLGRELINYMPDLDTVLALEDDASIHAEKDEVGEDDIQSELIASNSELLKVFFRLSAIELAETFNEEG-AVPSQVIDYNVFDKIRAKDELAADFSLGLLELFWNMESTTINEIQALLNGTTDLQQLMNLGHTLKGASASLGLTRISALSQTIEQLGRHKVVAVPSLEEMVANLSDKSKLLLTPEGGEDSEAIALISLTNELLKTEAFLARQELSEFYDEEG,TIPSEIINWTILNEIISMDDDDSDFSKGLIIQFIDQAQTTFAQMQRQLDGEKNLTELDNLGHFLKGSSAALGLQRIAWVCERIQNLGRKMEHFFPNKTELVNTLSDKSIINGINIKDENSIYLILIAKALNQSRLEFKLARIELSKYYNTNL-TIPSEIINWTILNEIISMDDDDSDFSKGLIIQFIDQAQTTFAQMQRQLDGEKNLTELDNLGHFLKGSSAALGLQRIAWVCERIQNLGRKMEHFFPNKTELVNTLSDKSIINGINIKDENSIYLILIAKALNQSRLEFKLARIELSKYYNTNL-TIPSEIINWTILNEIISMDDDDSDFSKGLIIQFIDQAQTTFAQMQRQLDGEKNLTELDNLGHFLKGSSAALGLQRIAWVCERIQNLGRKMEHFFPNKTELVNTLSDKSIINGINIKDENSIYLILIAKALNQSRLEFKLARIELSKYYNTNL-TIPSEIINWTILNEIISMDDDDSDFSKGLIIQFIDQAQTTFAQMQRQLDGEKNLTELDNLGHFLKGSSAALGLQRIAWVCERIQNLGRKMEHFFPNKTELVNTLSDKSIINGINIKDENSIYLILIAKALNQSRLEFKLARIELSKYYNTNL-TIPSEIINWTILNEIISMDDDDSDFSKGLIIQFIDQAQTTFAQMQRQLDGEKNLTELDNLGHFLKGSSAALGLQRIAWVCERIQNLGRKMEHFFPNKTELVNTLSDKSIINGINIKDENSIYLILIAKALNQSRLEFKLARIELSKYYNTNL-TIPSEIINWTILNEIISMDDDDSDFSKGLIIQFIDQAQTTFAQMQRQLDGEKNLTELDNLGHFLKGSSAALGLQRIAWVCERIQNLGRKMEHFFPNKTELVNTLSDKSIINGINIKDENSIYLILIAKALNQSRLEFKLARIELSKYYNTNL-TIPSEIINWTILNEIISMDDDDSDFSKGLIIQFIDQAQTTFAQMQRQLDGEKNLTELDNLGHFLKGSSAALGLQRIAWVCERIQNLGRKMEHFFPNKTELVNTLSDKSIINGINIKDENSIYLILIAKALNQSRLEFKLARIELSKYYNTNL-TIPSEIINWTILNEIISMDDDDSDFSKGLIIQFIDQAQTTFAQMQRQLDGEKNLTELDNLGHFLKGSSAALGLQRIAWVCERIQNLGRKMEHFFPNKTELVNTLSDKSIINGINIKDENSIYLILIAKALNQSRLEFKLARIELSKYYNTNL-TIPSEIINWTILNEIISMDDDDSDFSKGLIIQFIDQAQTTFAQMQRQLDGEKNLTELDNLGHFLKGSSAALGLQRIAWVCERIQNLGRKMEHFFPNKTELVNTLSDKSIINGINIKDENSIYLILIAKALNQSRLEFKLARIELSKYYNTNL-TIPSEIINWTILNEIISMDDDDSDFSKGLIIQFIDQAQTTFAQMQRQLDGEKNLTELDNLGHFLKGSSAALGLQRIAWVCERIQNLGRKMEHFFPNKTELVNTLSDKSIINGINIKDENSIYLILIAKALNQSRLEFKLARIELSKYYNTNL,NVICQLIRNM-NEINKAIIEM-NEIVKLIEGS-NEIVELIQGL-NSIVSMIKLY-NIINKMIEMK-NQIVQLIQEA-SEIVMMIKMA-SQICQMIALG-SVIELMIKGA,NVINQAILGS-NVINQAILGS-NVINQAILGS-NVINQAILGS-NVINQAILGS-NVINQAILGS-NVINQAILGS-NVINQAILGS-NVINQAILGS-NVINQAILGS
17.0,61,71,B,10,NNYPDIKVLVVDDSIHGLQIIGGVLRKNNIQFDMAENGQEAVALYMQGGYDLVFMMILPDMDGITACRTIRHKEKLLGIGGDRKVIKPVVIVAMTANASKDKMKAMDAGCDDVLTKPVDIKELESRIKAHGMRVLQNYDYYS-GTYPKIKVLVVRDSAVNLALVGEVLLRHQINFEKAQNGKEAIERYKGGGYNLIFCLALPDMSGIQACEKIRAAEELAGIGGTRRDAKPVTIVALTANRIKDKTQALQAGCTDYLSKPVNIEELMQAIVRHGRATDVFADYRD-VSFPKIKVLVVDDNSINQLIIGGLLDKKEIRYDVAVDGEDAVEIYKRGGYNLIFMLVLPKLTGIEATRQIRKLEKEKGIGGGDEERRPVIIVALTAHAEKDKEAALEAGCDDYLTKPVNLQKLEEALLRHGELSLSHFNFND-SNYPKIKVLIVDDSESSRLIAGAVLNKNDIEFEEAVDGQQCVDIYRQGGLNLVFMIVLPVMNGIEATKEIRNLEKLKGIGGWDEAEEPVIIVAMTANAYIDREDALAAGCNDYLVKPVDINELNRSIEKYGNVCTKNNDARE-QQWPDIHVLHVDDNPANLAIAGGLLRANNIDFTTAMDGAEAVEIYDGGGLDLVFCMELPKLSGVEATRTIRANEDAKGVGGGNAKIEPVIIIALTANALVDREVALRAGCNDYLSKPVNMLDMCSAIIRWGRRKKKNFSARS-RELPEIKVLVVDDNMVNLLLIGGVLQGHNIAYDVALDGQMAVDIWAEGGYHIIFMLRLPKMDGYEATRQIRAAEQSAGVGGGAEAQQPVKIVALTANAGPDRDKAVAAGCNDFLSKPVNVLDLKARIANWGKATLLEYDFSN-MSLPRIKVLVVDDNHVSQAVIGGVLSEWNILHALADDGQQAVDICERGGFHLIFMDVLPKMSGIEACKTVRARELDRGIGGGAKKSRPIVVVALTANATRDVETCRSAGCNDYLTKPVNRETLRMKLLAWGKLEQEDYDSTL-HMWPEIKVLPVHDNQVNRRILGGFLKLHDVQFKVAANGQEAIQLFRQGGLDLVFMMVLPVMSGVEATRQIRAMEEADGIGGGMQARKPVVIVALTANAEEDREVALRAGANDFMSKPVDISEMQMRLTNWGMLSQKDFDAWE-VEFPDIRVLVVDDSKVCRRVLGGVLDKWDISHNLAYNGQEAVALWAGGGLNLVLSVKLPLLDGYEATREIRAAEKKRGIGGGADEQRPVVIVAVTANALDDRQVALRAGANDFLSKPVNIQEFITRIVTWGSRDMASYDGDE-SNFPKIKVLHVDDNLLNQKVVGQYLSDNNIEFFLADNGQEAVDIFKLGGLDFVICMELPKLDGIQATKTIRENEKQNGIGGEHLKREPVIIVAMTANAMVDKKVALDAGCDDFLSKPVNLIELRRTIIAWGKRSEIGYNANE,KVFPKINVLIVEDNVINQAILGSFLRKHKISYKLAKNGQEAVNIWKEGGLHLIFDLQLPVLSGIEAAKQIRDFEKQNGIGSKRFSQAPVIIVALTASNSQDKRKALLSGCNDYLTKPVNLHALSKKITEWGCQALIDFDSWK-KVFPKINVLIVEDNVINQAILGSFLRKHKISYKLAKNGQEAVNIWKEGGLHLIFDLQLPVLSGIEAAKQIRDFEKQNGIGSKRFSQAPVIIVALTASNSQDKRKALLSGCNDYLTKPVNLHALSKKITEWGCQALIDFDSWK-KVFPKINVLIVEDNVINQAILGSFLRKHKISYKLAKNGQEAVNIWKEGGLHLIFDLQLPVLSGIEAAKQIRDFEKQNGIGSKRFSQAPVIIVALTASNSQDKRKALLSGCNDYLTKPVNLHALSKKITEWGCQALIDFDSWK-KVFPKINVLIVEDNVINQAILGSFLRKHKISYKLAKNGQEAVNIWKEGGLHLIFDLQLPVLSGIEAAKQIRDFEKQNGIGSKRFSQAPVIIVALTASNSQDKRKALLSGCNDYLTKPVNLHALSKKITEWGCQALIDFDSWK-KVFPKINVLIVEDNVINQAILGSFLRKHKISYKLAKNGQEAVNIWKEGGLHLIFDLQLPVLSGIEAAKQIRDFEKQNGIGSKRFSQAPVIIVALTASNSQDKRKALLSGCNDYLTKPVNLHALSKKITEWGCQALIDFDSWK-KVFPKINVLIVEDNVINQAILGSFLRKHKISYKLAKNGQEAVNIWKEGGLHLIFDLQLPVLSGIEAAKQIRDFEKQNGIGSKRFSQAPVIIVALTASNSQDKRKALLSGCNDYLTKPVNLHALSKKITEWGCQALIDFDSWK-KVFPKINVLIVEDNVINQAILGSFLRKHKISYKLAKNGQEAVNIWKEGGLHLIFDLQLPVLSGIEAAKQIRDFEKQNGIGSKRFSQAPVIIVALTASNSQDKRKALLSGCNDYLTKPVNLHALSKKITEWGCQALIDFDSWK-KVFPKINVLIVEDNVINQAILGSFLRKHKISYKLAKNGQEAVNIWKEGGLHLIFDLQLPVLSGIEAAKQIRDFEKQNGIGSKRFSQAPVIIVALTASNSQDKRKALLSGCNDYLTKPVNLHALSKKITEWGCQALIDFDSWK-KVFPKINVLIVEDNVINQAILGSFLRKHKISYKLAKNGQEAVNIWKEGGLHLIFDLQLPVLSGIEAAKQIRDFEKQNGIGSKRFSQAPVIIVALTASNSQDKRKALLSGCNDYLTKPVNLHALSKKITEWGCQALIDFDSWK-KVFPKINVLIVEDNVINQAILGSFLRKHKISYKLAKNGQEAVNIWKEGGLHLIFDLQLPVLSGIEAAKQIRDFEKQNGIGSKRFSQAPVIIVALTASNSQDKRKALLSGCNDYLTKPVNLHALSKKITEWGCQALIDFDSWK,GLEVGNYLQG-GIVTYSTSLC-KNVDRAEAAG-GYHKDEFMQE-GVVNAAVESG-GYSDLSNSQG-QMYHDALEQG-FIRLGAFLSG-QQAGGATESG-GNAMRTIEIN,HFLKGSSAAL-HFLKGSSAAL-HFLKGSSAAL-HFLKGSSAAL-HFLKGSSAAL-HFLKGSSAAL-HFLKGSSAAL-HFLKGSSAAL-HFLKGSSAAL-HFLKGSSAAL
