contacts,cs,ce,Chain,Length,designed_receptor_seq,native_receptor_seq,designed_binder_seq,native_binder_seq
35.0,65,75,A,10,SQKGHLGFLAIFCPALGTTQGTEYDRIVFFATNISQGVQSETEHCSILSAVGLIRSMDEFARKFSEGRPVHTIDCKTSQVISVEVEEGWWMYLSVWKTQSQNEWLANALKPPAVIEEDLRNAYEDFLANNGESLSSLLDNIGRDRLVALLTRFYRRYLAMWNVLEH-NSPGRLGFMAIYCPQLGRSAHETHKRILFYATSSTTNEIGSQKKAEWEEAVNTSMAMDLFMKQFSSGAPVSTIMTETDRIIQHEVEYGWWILTSIRKTELDGRYFAQDIKNPKDITADLMQGYVDFLKQNGSSLQSLLETIGRDNLESLLERFYNAWNALHNVCKA-AVPARLGSLYIFHPDNGQTNATRADQIVFHATRTSLKRITRATEREILLETGLAEDMIEFMQDYSHGSPVSVVFTETNSVIIVEVEKGWWMLCSVKLQEQDSHWDDASLKNPSMIRLDLLTGYALFLSENGRSFQHLLSVIGRSRLVDQLKVFWSDFLRYHNVNKE-HMPASLSFMAIFCPENGRSKLEALNRVLFFATDESLSKISEWEREQILKLTTRCQALNTYASQFSLGDNVTHIFETTHEISAVQVEQGWFMYCSVEKELRLPLHYSIGIKQPQIIKLDLIQLYNQFLLDNGDSFTKLLHKIGEKSLVATLQKFWKKELQTWNVARR-LLRAYLNFLHIFNPILGQTDYTAFNQILFSATDESVGVIGRTEKNDELTRVGLANFMTQFMQEFSNGKPVSEVNTIVSEIILVEVEGGWWMYCSVAKTEEDGEFSSVAVKPPSVIVACLKVMYASFLASNGTSFEHLLGAIGRVRLCSALSKFFIRKLEQTNVSLQ-MEPASLGFLAIFNPALGRSQDTEADRVVYFATGRSLNVVTREEKNNILNAIGTAEIMTHYMKQFSQGANVSHVYNVESSIIMVQVEQGWWIFCSVHKTQHVGKYSDEGVKKPSVIRSHLQNGYQQFLKAHGESFEALLDKIGREELVDTLDKFWTKYLKTLNVTLN-MDYSSLGFVSIFQPSLGRTEATKESQVLFFATKESLPTVSYKEASQILKHVGMASGLTSCASAFSDGNPVTEIDTKRTMIIMVEVEKGWWILCSVNKKSEGAKYSAAGLLKPYDLRSILLRAYDEFLKSNGESLADLMNKIGRDKLESTLKRYFELKLKTLDVEND-TTPGSLGYLAIFCPALGTTAEAQAKQVLFYATISDVKGMDAVTRMRILNQVGIAQAQIRFAQHFARGAPVSHIDTEQSQIILTEVETGWWIYCSVRKTYEDGSFFTEEIKLPSVLTADLQRMYHDFLKENGSSLSDLLRTIGREALEARLRAFFHEAFRRFDVRRG-HIPARNGAVHIFCPALGLTDANASNRILYSATAESLDAKGQDKKRDILKLTSLADGMVTFFKKFSDGSPVTHILTTRSDVIIRNVEDGWYVLKSIDKTEDKGSWEQQQIKDPTTLMADLEKSYGLFLFQNGMSLTDLLSRIGRDKLVECLKNFYDDIESRVVVTKD-QMPARLKFLAIYAPDLGLTEETKDLKIFYFATCASTGQQSSTQQELRMKYVGLAEFMDLMARFFSSGSPVSYVDTVHARIISVQVESGWWILCAVDKTEEDGTYSAQGVQGPQVLEEMLLRHYDEFLDTRGDSLNSLLEEIGQENLQTCLDAFFERVLSSLSVLQN,IIPAQLGFLAIYNPALGTTDETLEDQIVYYATASTLSPVSKEERHERLRQIGLAQGMVEFAKSFSDGEPVDTIDTEKARVILVEVEEGWWILASIDLTRLPYEYSSREVKPPSLLRADLLRAYDLFLLHHGSSLSSLLASQGRAQLVASLTRFWDHFLATWNVLLH-IIPAQLGFLAIYNPALGTTDETLEDQIVYYATASTLSPVSKEERHERLRQIGLAQGMVEFAKSFSDGEPVDTIDTEKARVILVEVEEGWWILASIDLTRLPYEYSSREVKPPSLLRADLLRAYDLFLLHHGSSLSSLLASQGRAQLVASLTRFWDHFLATWNVLLH-IIPAQLGFLAIYNPALGTTDETLEDQIVYYATASTLSPVSKEERHERLRQIGLAQGMVEFAKSFSDGEPVDTIDTEKARVILVEVEEGWWILASIDLTRLPYEYSSREVKPPSLLRADLLRAYDLFLLHHGSSLSSLLASQGRAQLVASLTRFWDHFLATWNVLLH-IIPAQLGFLAIYNPALGTTDETLEDQIVYYATASTLSPVSKEERHERLRQIGLAQGMVEFAKSFSDGEPVDTIDTEKARVILVEVEEGWWILASIDLTRLPYEYSSREVKPPSLLRADLLRAYDLFLLHHGSSLSSLLASQGRAQLVASLTRFWDHFLATWNVLLH-IIPAQLGFLAIYNPALGTTDETLEDQIVYYATASTLSPVSKEERHERLRQIGLAQGMVEFAKSFSDGEPVDTIDTEKARVILVEVEEGWWILASIDLTRLPYEYSSREVKPPSLLRADLLRAYDLFLLHHGSSLSSLLASQGRAQLVASLTRFWDHFLATWNVLLH-IIPAQLGFLAIYNPALGTTDETLEDQIVYYATASTLSPVSKEERHERLRQIGLAQGMVEFAKSFSDGEPVDTIDTEKARVILVEVEEGWWILASIDLTRLPYEYSSREVKPPSLLRADLLRAYDLFLLHHGSSLSSLLASQGRAQLVASLTRFWDHFLATWNVLLH-IIPAQLGFLAIYNPALGTTDETLEDQIVYYATASTLSPVSKEERHERLRQIGLAQGMVEFAKSFSDGEPVDTIDTEKARVILVEVEEGWWILASIDLTRLPYEYSSREVKPPSLLRADLLRAYDLFLLHHGSSLSSLLASQGRAQLVASLTRFWDHFLATWNVLLH-IIPAQLGFLAIYNPALGTTDETLEDQIVYYATASTLSPVSKEERHERLRQIGLAQGMVEFAKSFSDGEPVDTIDTEKARVILVEVEEGWWILASIDLTRLPYEYSSREVKPPSLLRADLLRAYDLFLLHHGSSLSSLLASQGRAQLVASLTRFWDHFLATWNVLLH-IIPAQLGFLAIYNPALGTTDETLEDQIVYYATASTLSPVSKEERHERLRQIGLAQGMVEFAKSFSDGEPVDTIDTEKARVILVEVEEGWWILASIDLTRLPYEYSSREVKPPSLLRADLLRAYDLFLLHHGSSLSSLLASQGRAQLVASLTRFWDHFLATWNVLLH-IIPAQLGFLAIYNPALGTTDETLEDQIVYYATASTLSPVSKEERHERLRQIGLAQGMVEFAKSFSDGEPVDTIDTEKARVILVEVEEGWWILASIDLTRLPYEYSSREVKPPSLLRADLLRAYDLFLLHHGSSLSSLLASQGRAQLVASLTRFWDHFLATWNVLLH,EDLLGLVAGG-SHLMGLIAGE-GELLGSVAGA-GGLLGLDAGF-MKFLGLSAGR-SSLCGLQAGS-DEFNGFVAGD-GGLKGFTAGE-GDLLGFIAGD-GLLLGFVAGG,NPLLGFTAGK-NPLLGFTAGK-NPLLGFTAGK-NPLLGFTAGK-NPLLGFTAGK-NPLLGFTAGK-NPLLGFTAGK-NPLLGFTAGK-NPLLGFTAGK-NPLLGFTAGK
26.0,67,77,B,10,KCESCAIPSVAPAAERQNLLLGKLYHLVILHDDGTPVYHRYGNEDLVRIDSGLCRAMIAYYEGAKNPLLGFRQGTTRFCFLRHGHLLGLAISKLAQTDQQLRATLEQYYQLIDEFCKQPVEAFIKHILPSMDITGPSCGMQSAQLQADLDLLRSN-DREDFTIPDDLPRETRNKLLNNRRFHTIILSSQGKPIFHKYGNLSEVAFMCGLIKSAIYCFDRASDPLKGFIAGATRFSVLEQGAVYFVAISSFRESSTQLLALLKESEKEMFESLVFPMLAALNSIDPALDLDGPLKGYEEEMKKLEQKVEMYF-MKEDDAIPSWAPRADRLRLLRGKTRHLIVLRDDGTPVFFEFGSDSLVHKYCGVIEMLLKFFDGMKNPLLGFSVGFTRFTMLQFGNINFVAVSRESETKEELTAQLEHAYLNLYRKRMEPALEALEAKFPRVNYSGPEAGYEEAYVKATEEIKLRK-AEEEDIIPSLAPEELRSRLWNGRKSHIVILLDTGEPIYHQFGDRDLVRYLCGVIQLLISFFDGMRNPLRGFQAGEVKFTIMIAGAIKLIGISAQEETDEQLYRRLLAYLALLRYYLVLPVLRAYQFLHPDTNFTGVCKGFESIFEEKKANLLKSH-TAEDDAIPENAPVSQRLMMLRNKRRHHIILSSSGVPIHARFGENVDVRHDCLIIRSAVALFTNAQNPLLGFTAGNVRFQIYVRGNTYGVAVTADAESSSQLRAKLDTIAHLMGTDDIIPVLTELNRNLPETNWSGPLSGYQISMQNLRQDREKCF-GSEMDQIPEEAPSTTREELLQGRKFHIVVLGSDGIPIYFQFGRQSLVFQACGVLKAVISIFEGAQNPLLGFQAGVTLFAIRKVGYMLFLAISKRDESFEQMLKRLDQYFQVLSKEVIEPIVEALRQKYPKVDETGPLRGEEEEIQKNMQKLLQHS-SKELDTIPTDLPVEERQRLLAGRKMHLVVLEDDGLPIANRYGTVKLVRLDNKITQNIISLFDGLRNRLLGFEAGSTLFRIKIVGAIKGIAISSKKESDEELRRDLDFQMEILKEVALKPLYAQLNMVIPDYDVSGPMSGRHKVYIDSIMNLIKKG-MDENDLIPSTYPRKIQLEMLRSRRHHLIVLGSDGMPVFFKYGDDELCYKDCLEIERLIKVFRGAKNPLKGFEAGSERYQILRYGGIYFVAISREDESTEQRLRQLQRFAVLFFHEEAQPLIAELERVKPDVDFSGPLSGFEAEARERKDKYTRKR-TAELQEIPRDWPEEERLRLWENKDLHLVILGSDGGPLAFRHGDFDLVKDECKVLRTVIRHYEGLRNPLLGFIAGTTRYAIRQIGDVYFLAVSKQNQTHEELMLRLDHYMLILYDTLSLPVIDAIEREDPKIDFNGILEGFEEEYIKSLQKAARKK-GKEMDLIPEHWPFKKRHTELMKRMEHFIVMGNDGIPIANQFGDYQLIHVKCGMIKSVIQFFRGRKNPLKGFFAGRTRFAIHQDGGVTLLAISEAEKTDAELLKELDYQLHLLRSEQVVPTLHERMAHNPDTDWTGPLAGYEKLCKAMMNIIKSQE,ERELDNIPDTLPDDERLALWKGKLKHYLILSSAGKPIWSRHGDLSLVNSTMGVVQTIISFYEGARNPLLGFTAGKVRFVILIKGPLYFVAISRLRESDAQLRAQLEALYMQILSTLTLPILTNIFAHRPSTDLRGPLQGTESLLASLADSFTKGS-ERELDNIPDTLPDDERLALWKGKLKHYLILSSAGKPIWSRHGDLSLVNSTMGVVQTIISFYEGARNPLLGFTAGKVRFVILIKGPLYFVAISRLRESDAQLRAQLEALYMQILSTLTLPILTNIFAHRPSTDLRGPLQGTESLLASLADSFTKGS-ERELDNIPDTLPDDERLALWKGKLKHYLILSSAGKPIWSRHGDLSLVNSTMGVVQTIISFYEGARNPLLGFTAGKVRFVILIKGPLYFVAISRLRESDAQLRAQLEALYMQILSTLTLPILTNIFAHRPSTDLRGPLQGTESLLASLADSFTKGS-ERELDNIPDTLPDDERLALWKGKLKHYLILSSAGKPIWSRHGDLSLVNSTMGVVQTIISFYEGARNPLLGFTAGKVRFVILIKGPLYFVAISRLRESDAQLRAQLEALYMQILSTLTLPILTNIFAHRPSTDLRGPLQGTESLLASLADSFTKGS-ERELDNIPDTLPDDERLALWKGKLKHYLILSSAGKPIWSRHGDLSLVNSTMGVVQTIISFYEGARNPLLGFTAGKVRFVILIKGPLYFVAISRLRESDAQLRAQLEALYMQILSTLTLPILTNIFAHRPSTDLRGPLQGTESLLASLADSFTKGS-ERELDNIPDTLPDDERLALWKGKLKHYLILSSAGKPIWSRHGDLSLVNSTMGVVQTIISFYEGARNPLLGFTAGKVRFVILIKGPLYFVAISRLRESDAQLRAQLEALYMQILSTLTLPILTNIFAHRPSTDLRGPLQGTESLLASLADSFTKGS-ERELDNIPDTLPDDERLALWKGKLKHYLILSSAGKPIWSRHGDLSLVNSTMGVVQTIISFYEGARNPLLGFTAGKVRFVILIKGPLYFVAISRLRESDAQLRAQLEALYMQILSTLTLPILTNIFAHRPSTDLRGPLQGTESLLASLADSFTKGS-ERELDNIPDTLPDDERLALWKGKLKHYLILSSAGKPIWSRHGDLSLVNSTMGVVQTIISFYEGARNPLLGFTAGKVRFVILIKGPLYFVAISRLRESDAQLRAQLEALYMQILSTLTLPILTNIFAHRPSTDLRGPLQGTESLLASLADSFTKGS-ERELDNIPDTLPDDERLALWKGKLKHYLILSSAGKPIWSRHGDLSLVNSTMGVVQTIISFYEGARNPLLGFTAGKVRFVILIKGPLYFVAISRLRESDAQLRAQLEALYMQILSTLTLPILTNIFAHRPSTDLRGPLQGTESLLASLADSFTKGS-ERELDNIPDTLPDDERLALWKGKLKHYLILSSAGKPIWSRHGDLSLVNSTMGVVQTIISFYEGARNPLLGFTAGKVRFVILIKGPLYFVAISRLRESDAQLRAQLEALYMQILSTLTLPILTNIFAHRPSTDLRGPLQGTESLLASLADSFTKGS,DPIHTVITAR-SPVKNIVTAK-HPITKVETEK-PPITNVITRY-SPVTTIRTMM-EPITHIATRN-DPVETVLTCG-PPVEGVFTVQ-SPVSRVITKR-YPVSRVHTTS,EPVDTIDTEK-EPVDTIDTEK-EPVDTIDTEK-EPVDTIDTEK-EPVDTIDTEK-EPVDTIDTEK-EPVDTIDTEK-EPVDTIDTEK-EPVDTIDTEK-EPVDTIDTEK
