contacts,cs,ce,Chain,Length,designed_receptor_seq,native_receptor_seq,designed_binder_seq,native_binder_seq
18.0,5,15,A,10,GGSHMSDATAEEALQRLQELAERRREEPAQLEQLCRYLRIEAEETLARLDPTSAPPSQQPQPQPHPPAHKLERLGQQVAQAQKEAQRREPTLTVEGHGDAEG-GSMEAQVVAMDQARQVLILAAHIQIEVPALKADTEIRKKSAVTQALTELEPLKNPSAVEAQPVPSPEAQALILQGRKHYAATQAARIALPQAIKVFNGLISP-GGFSRIIEADQAGAQVAAMAGKAAAQIPAVVQKLQDKVDSQLERQAKAIQPADEPAAAAAPETPQPGFVAEMSHGLEAARLARETAATQPICTALGFKVAGN-AEEKRKTFIDKVDSACSVLNASLRKKAPEVDLKVEQFQKEVDAKVDALLKPIAEPALTATKPLPEPALQEVQKKGDENAKAQQQLNVETPELQVKGNGQTHT-MGEWELKKKIAQAKNAVVAAASHLKEVPEEIRALLKKAKAELDEAIDSSEPEIDPSIDLEPPVPKPDKEAMATAGEVLKRAKEMAEVAKPYLAEIGNGLRIQ-DAAELNALKAALSAIELSKTARLEKQVPKAVSVLQDEFEANVKLTEELEKPAVEPQKEELKDLPDPVREVLEQTGKLYDQHKLALETAQPRLEEIGRGLEEY-GSHMFDKVVRNAGFQLLVKQAEADKFVPFVSKELERKITKERKRIEELYYPVEVPATVELKPANAPLERLEQELGRLKSAFYEQVTQIVPSLRERLAGLQTP-SGSHMADRTSAALLELMIAINKIKRDMPEITAAIQKLKIQEEETVKLLEEPQDEPEAEPEVPEPEASAALIEKAGEIVSRAMAHAVASVPLAVKQGKGKEKK-MGASWARGAKAAAVYQLVADAYSLSEEPAKLAAEAAGVQEAYARLRNAHKPRLAPPTAAKAPAPTEGKTQAQADVTNVTAHWKLLETEVPKIYVIGDGSAKA-GAMAEEVERRERAMARLRNAAAIRKEQPRLREEIARIEAALRRLEAMASLPAQKEGLRAAVPKPSPLASRLADRGQIQRNAAISALTRLPLLESMGKGLALR,FMDSDIKVLEDQFDEIIVDIATKRKQYPRKILECVIKTIKAKQEILKQYHPVVHPLDLKYDPDPAPHMENLKCRGETVAKEISEAMKSLPALIEQGEGFSQV-FMDSDIKVLEDQFDEIIVDIATKRKQYPRKILECVIKTIKAKQEILKQYHPVVHPLDLKYDPDPAPHMENLKCRGETVAKEISEAMKSLPALIEQGEGFSQV-FMDSDIKVLEDQFDEIIVDIATKRKQYPRKILECVIKTIKAKQEILKQYHPVVHPLDLKYDPDPAPHMENLKCRGETVAKEISEAMKSLPALIEQGEGFSQV-FMDSDIKVLEDQFDEIIVDIATKRKQYPRKILECVIKTIKAKQEILKQYHPVVHPLDLKYDPDPAPHMENLKCRGETVAKEISEAMKSLPALIEQGEGFSQV-FMDSDIKVLEDQFDEIIVDIATKRKQYPRKILECVIKTIKAKQEILKQYHPVVHPLDLKYDPDPAPHMENLKCRGETVAKEISEAMKSLPALIEQGEGFSQV-FMDSDIKVLEDQFDEIIVDIATKRKQYPRKILECVIKTIKAKQEILKQYHPVVHPLDLKYDPDPAPHMENLKCRGETVAKEISEAMKSLPALIEQGEGFSQV-FMDSDIKVLEDQFDEIIVDIATKRKQYPRKILECVIKTIKAKQEILKQYHPVVHPLDLKYDPDPAPHMENLKCRGETVAKEISEAMKSLPALIEQGEGFSQV-FMDSDIKVLEDQFDEIIVDIATKRKQYPRKILECVIKTIKAKQEILKQYHPVVHPLDLKYDPDPAPHMENLKCRGETVAKEISEAMKSLPALIEQGEGFSQV-FMDSDIKVLEDQFDEIIVDIATKRKQYPRKILECVIKTIKAKQEILKQYHPVVHPLDLKYDPDPAPHMENLKCRGETVAKEISEAMKSLPALIEQGEGFSQV-FMDSDIKVLEDQFDEIIVDIATKRKQYPRKILECVIKTIKAKQEILKQYHPVVHPLDLKYDPDPAPHMENLKCRGETVAKEISEAMKSLPALIEQGEGFSQV,VEFALENGRV-FSGLEQNGTI-AAKAAADGKL-KLANSTDGKL-AAKAEEAGEL-VSKAKEVGNP-VTISRKDGML-RSAAETAGKD-FSKAAKTGSE-DQVDREEGLL,TYEAQFFGFT-TYEAQFFGFT-TYEAQFFGFT-TYEAQFFGFT-TYEAQFFGFT-TYEAQFFGFT-TYEAQFFGFT-TYEAQFFGFT-TYEAQFFGFT-TYEAQFFGFT
21.0,15,25,B,10,ASDPALLNAIVTGMTPLEKAALIWTNSENKINDRLNNEFNRLEETLLGKENVELNRTEEAMILEKRKQEILHNFESEFKSINSMFVRRIINVPREYETPIELLLQSPISDIEKEQMEKIKKRVEELEAENRRLEEKDYAQREKLRLEKKKIEEKQRIIADAKRKGRAVGVADLGAFVKLAKEEKERLERLERLAREREK-MADPWLAEAAVDGLTPIVRAHQVRQVKMTEAIEQWRSAFNDWLRTSKGESVSKTSGQDIFYRFIDELAQFLGEFAETYTQWTQKFLSEYAREPHNRVSPFQPWQSTPVSDEALEAVRVQDERKIMLVQRIEEQKQQADANERRESELAALHRTVDKLQQDYITILANSGISDPEVERRLTQAGRQLFDREERSFRSALV-MLNPFFYEAYQDGLTPRQRWDIIYQQKLAQVHDDFEAEYNRIMEVLKGRDVKMKGGRELFNVAKAKWEEAMESFDREFIREQVEFSEEHAKIPEGIHTPGENWRRAPQSEIDRKLREELDRLNKQVRALEERHRDAKEAFLKVQQRIEAKVEELLKAEIDTKLNRWKQGIPDQTAWDTRLRAEEEEYRRLQKLVAEVRS-SLEPSLLESLALGREPRSVLIEKYQQSLKRRLERFKESYMNRKEELQGQGDRSLDDERVWAELQRALVRAQGQFEEEFYRASLQYLQKELRLPENWAHPLLDDLREPQLSVIEERKRVLEKENLLLEEKLKELKEALEEAEARRKELEDKLRVLEEELRALKRALREAGVSDLEKFLANAERENEEAKRLLKEAIEKAR-MFEPALVECAVNGKTPAMDALVDYVKAYEEFCKAARKKFDELNKDAEGLSKDDLNGLDLFHAMASTLTEALNRFSYDFKEKHDFRETREWKVPEWLSLPEWPWATLPTNAEDREKIETQIFLLEILASEYRAEQERFARLKEENREKAKQFEEAKARARAQKQALAESGKSDLLAFLQAEAARRTLQVKERAKAYEEHY-HEEPMMREARYHGTVPYNLCVSAFQASLKENLQSFVDKLEERKQELHGVKKRQANYQLLLEQIMIELAQANHQFWQQYVVQAIEDLKWHRTIPDTFRLPEEPKQVEPVQEQKHREKRLERILLQRKKSIEKQLKNAQQLTQEKNQRLRERLQQQQLLQKNQERIAFYNGREDPELWNQEMARKVAFLEELQTLVDRVVY-DLDPDLEEARLLGVAPIKELDLIFTQAITLIEDEFAKEKSSLTNIFEGLPNSNQSYDEIIEWKNTIVDEKYTEFQRNFMINSKTFLSDYAVLPNGLALPTELLARPPVSLETEVALNESYRKYEQLKKELLEKYRQYRDQRETAKIQQEEAAKAKEREISLRAENRRSGIADAMTWLRANRALKQTNEKLRQVVLNRQQ-GHMPKLIEAAGDGERPFDSALRRYEEELRNICKCLRREYNARIEELKGQEGKKIAHREEYKSLVAQFREKIGEFSQKFETDVDVMLKNTWFIPEGFHHPSRLETVNPKKEEERRREDELMAKTKQMEEQLRNLKETTRLLREEYEREKKQQEEVKKLREEKEKWLKEKGIANEEEFELLSMAEYERLKWLKEIFRKTKE-MAAPRLYESAYVGVQPADYLAALAQTKITDLLFAKEKEYNEAEERLKGENRRRTQWAEARTKKAEEIAKVLQEFDDQIIEETLDFREKEVAVPEGQSLPHTQDKVAPTKTEDYLRELERQKTERIYQEVEKKVKEAEEKAREAEILRRIEAEQAAVIKQKQLEYDERIGIKDPTLYFIELSKRTEELRAELIKFREALE-SHHPRFLDTAVSGEEPESRFIREFNVAFAELMAIREAELDAWLREARGTQRVQEVGRELRNRHNAYTSHLLEKFRDDYERKTIVAISGDWRLPQGLQLPIDPQKLFPVDSAVLERLSASLAESQKLREENERLRQENEKLRQENRALEARVKEAESRLKEAKARREANGVANLQQADDEARARAANLERRTLLVKDRQK,SVDPMTYEAQFFGFTPQTCMLRIYIAFQDYLFEVMQAVEQVILKKLDGIPDCDISPVQIRKCTEKFLCFMKGHFDNLFSKMEQLFLQLILRIPSNILLPEDKCKETPYSEEDFQHLQKEIEQLQEKYKTELCTKQALLAELEEQKIVQAKLKQTLTFFDELHNVGRDHGTSDFRESLVSLVQNSRKLQNIRDNVEKESK-SVDPMTYEAQFFGFTPQTCMLRIYIAFQDYLFEVMQAVEQVILKKLDGIPDCDISPVQIRKCTEKFLCFMKGHFDNLFSKMEQLFLQLILRIPSNILLPEDKCKETPYSEEDFQHLQKEIEQLQEKYKTELCTKQALLAELEEQKIVQAKLKQTLTFFDELHNVGRDHGTSDFRESLVSLVQNSRKLQNIRDNVEKESK-SVDPMTYEAQFFGFTPQTCMLRIYIAFQDYLFEVMQAVEQVILKKLDGIPDCDISPVQIRKCTEKFLCFMKGHFDNLFSKMEQLFLQLILRIPSNILLPEDKCKETPYSEEDFQHLQKEIEQLQEKYKTELCTKQALLAELEEQKIVQAKLKQTLTFFDELHNVGRDHGTSDFRESLVSLVQNSRKLQNIRDNVEKESK-SVDPMTYEAQFFGFTPQTCMLRIYIAFQDYLFEVMQAVEQVILKKLDGIPDCDISPVQIRKCTEKFLCFMKGHFDNLFSKMEQLFLQLILRIPSNILLPEDKCKETPYSEEDFQHLQKEIEQLQEKYKTELCTKQALLAELEEQKIVQAKLKQTLTFFDELHNVGRDHGTSDFRESLVSLVQNSRKLQNIRDNVEKESK-SVDPMTYEAQFFGFTPQTCMLRIYIAFQDYLFEVMQAVEQVILKKLDGIPDCDISPVQIRKCTEKFLCFMKGHFDNLFSKMEQLFLQLILRIPSNILLPEDKCKETPYSEEDFQHLQKEIEQLQEKYKTELCTKQALLAELEEQKIVQAKLKQTLTFFDELHNVGRDHGTSDFRESLVSLVQNSRKLQNIRDNVEKESK-SVDPMTYEAQFFGFTPQTCMLRIYIAFQDYLFEVMQAVEQVILKKLDGIPDCDISPVQIRKCTEKFLCFMKGHFDNLFSKMEQLFLQLILRIPSNILLPEDKCKETPYSEEDFQHLQKEIEQLQEKYKTELCTKQALLAELEEQKIVQAKLKQTLTFFDELHNVGRDHGTSDFRESLVSLVQNSRKLQNIRDNVEKESK-SVDPMTYEAQFFGFTPQTCMLRIYIAFQDYLFEVMQAVEQVILKKLDGIPDCDISPVQIRKCTEKFLCFMKGHFDNLFSKMEQLFLQLILRIPSNILLPEDKCKETPYSEEDFQHLQKEIEQLQEKYKTELCTKQALLAELEEQKIVQAKLKQTLTFFDELHNVGRDHGTSDFRESLVSLVQNSRKLQNIRDNVEKESK-SVDPMTYEAQFFGFTPQTCMLRIYIAFQDYLFEVMQAVEQVILKKLDGIPDCDISPVQIRKCTEKFLCFMKGHFDNLFSKMEQLFLQLILRIPSNILLPEDKCKETPYSEEDFQHLQKEIEQLQEKYKTELCTKQALLAELEEQKIVQAKLKQTLTFFDELHNVGRDHGTSDFRESLVSLVQNSRKLQNIRDNVEKESK-SVDPMTYEAQFFGFTPQTCMLRIYIAFQDYLFEVMQAVEQVILKKLDGIPDCDISPVQIRKCTEKFLCFMKGHFDNLFSKMEQLFLQLILRIPSNILLPEDKCKETPYSEEDFQHLQKEIEQLQEKYKTELCTKQALLAELEEQKIVQAKLKQTLTFFDELHNVGRDHGTSDFRESLVSLVQNSRKLQNIRDNVEKESK-SVDPMTYEAQFFGFTPQTCMLRIYIAFQDYLFEVMQAVEQVILKKLDGIPDCDISPVQIRKCTEKFLCFMKGHFDNLFSKMEQLFLQLILRIPSNILLPEDKCKETPYSEEDFQHLQKEIEQLQEKYKTELCTKQALLAELEEQKIVQAKLKQTLTFFDELHNVGRDHGTSDFRESLVSLVQNSRKLQNIRDNVEKESK,KLKAEAQRLA-EVVLQARQQS-VLREAARKKA-ELIRLARELG-TIVEAAKILA-PIIERAKKLN-TVVEVAKEIA-VVFKKAAALK-EIIKLAEELK-RLVAEAREIA,IIVDIATKRK-IIVDIATKRK-IIVDIATKRK-IIVDIATKRK-IIVDIATKRK-IIVDIATKRK-IIVDIATKRK-IIVDIATKRK-IIVDIATKRK-IIVDIATKRK
