contacts,cs,ce,Chain,Length,designed_receptor_seq,native_receptor_seq,designed_binder_seq,native_binder_seq
14.0,101,111,A,10,GPHAHLAAEAARAARRARREKEVERWLPEVVAQAALEAVRQAAEEEAKRAPLQVPHRARVRAERRPLELVEKQVGHLKEFCTMLDLCLEPIRAVVGSGAALS-ADLAYQIARDAMSRLRYEAAAAFKAQLPTEVLKLDRQIKALREREYVELAPKLVATDVLKKPQPLPDAAVLRAKGQETAEAIKALSIEAPRKAAYGLGMTMA-AGALRAAFAAKAETATAIAKSAYERFFPQVVLVLAKKQIEQQRISALRAAPLRNDFTVEKHVRPLTEAAQKLQSGVKQQDAAAQQRIAAPLRNDLGTGLTRR-MNASKEIERLVTDAERAIQKAVFEQQVPAYFLKKMEEQIADVQKSFMTTIPIEVPSFNLKIPGPNPWAKQAAKLGTQLVALCTRLAAEVPKIIDDGIGRAGT-SKSIMEELAKKLSEMRKIQKQKVAEECPKYILEMSKIMVEELKKKRQELRPFKRPKAKRARPVPAPITSKSNMMGIKVATELHNIILEFPKSAEEGKGATNE-GMDEIQAIRDGFCGLETRCSEFEQKYFPAVRLAMEQLELTLLQQEVKKREPKIHPDRAAREPKPAPGAEKAKERGKVVFSKAQKELENRPLLAERESQLKAL-GEALAATLQRERESELKIAERSADISAPIILQSKVMNNVKIAERVGELLRPVLDPVMHDANPLPDPVTLITESVGQIEREREAIWQKEAPLLEEAGKGREKH-AGMEEKISELTALTTRITALIQKRVSEPAAVLAEMTKLQKAVATLDAERSPLQEPTGTVAIPEPVVDFNLEKAQGELRSLAERYFSIGTPLTIVTGAGTKLQ-PPAELAIEDERLFRDRTRFQELLREKLPQELLRAKQVELRFVEQSLKEEEPRSEPLSIAEVPSPSRGEVETREKGFQMRAAIFNLQREIPRLRELGRLAKGQ-ASRASAREKWVKKEHLIRNKAKISKVQPEIKKRQEEMAFRKKEEEENRTLPLNEPTVAKSSVVPEELKESEKAIGDLKRAYRQLQEEYTPLGSLAGFGKLMN,FMDSDIKVLEDQFDEIIVDIATKRKQYPRKILECVIKTIKAKQEILKQYHPVVHPLDLKYDPDPAPHMENLKCRGETVAKEISEAMKSLPALIEQGEGFSQV-FMDSDIKVLEDQFDEIIVDIATKRKQYPRKILECVIKTIKAKQEILKQYHPVVHPLDLKYDPDPAPHMENLKCRGETVAKEISEAMKSLPALIEQGEGFSQV-FMDSDIKVLEDQFDEIIVDIATKRKQYPRKILECVIKTIKAKQEILKQYHPVVHPLDLKYDPDPAPHMENLKCRGETVAKEISEAMKSLPALIEQGEGFSQV-FMDSDIKVLEDQFDEIIVDIATKRKQYPRKILECVIKTIKAKQEILKQYHPVVHPLDLKYDPDPAPHMENLKCRGETVAKEISEAMKSLPALIEQGEGFSQV-FMDSDIKVLEDQFDEIIVDIATKRKQYPRKILECVIKTIKAKQEILKQYHPVVHPLDLKYDPDPAPHMENLKCRGETVAKEISEAMKSLPALIEQGEGFSQV-FMDSDIKVLEDQFDEIIVDIATKRKQYPRKILECVIKTIKAKQEILKQYHPVVHPLDLKYDPDPAPHMENLKCRGETVAKEISEAMKSLPALIEQGEGFSQV-FMDSDIKVLEDQFDEIIVDIATKRKQYPRKILECVIKTIKAKQEILKQYHPVVHPLDLKYDPDPAPHMENLKCRGETVAKEISEAMKSLPALIEQGEGFSQV-FMDSDIKVLEDQFDEIIVDIATKRKQYPRKILECVIKTIKAKQEILKQYHPVVHPLDLKYDPDPAPHMENLKCRGETVAKEISEAMKSLPALIEQGEGFSQV-FMDSDIKVLEDQFDEIIVDIATKRKQYPRKILECVIKTIKAKQEILKQYHPVVHPLDLKYDPDPAPHMENLKCRGETVAKEISEAMKSLPALIEQGEGFSQV-FMDSDIKVLEDQFDEIIVDIATKRKQYPRKILECVIKTIKAKQEILKQYHPVVHPLDLKYDPDPAPHMENLKCRGETVAKEISEAMKSLPALIEQGEGFSQV,PLGARLRPLR-DLVTVLDPLK-KIRAVLEPLL-ALYERFRPIA-ELAEKLWPLV-TLASLLEPMR-LLQLILKPIA-NSLIELAPLL-ELCRVLRPLL-QQDAVYEPIQ,DLHSVMAPYF-DLHSVMAPYF-DLHSVMAPYF-DLHSVMAPYF-DLHSVMAPYF-DLHSVMAPYF-DLHSVMAPYF-DLHSVMAPYF-DLHSVMAPYF-DLHSVMAPYF
11.0,26,36,B,10,DASLIETLRASVDHFLLKFINRGGFDKFKDRFAREAQADPLKMRALWLQAVLTSRSVMQGLYEAALEAGGAEEELQNAERALQLGARTGEPLFTPSGDPRLELAAVLQPYLDRRKQELQQRLEQSDRLLREKLRRTAEGHILDSRTELRKAEAENEAKRQDQALQKLQALDKS-DEDLVDKLLARTQAQLEQVLRDQSLETFIAQNASLYQLSPELARRNYQRFSAAYSSAFRAYLEEVLQSGGFRERLESLRIELERGRASGAPGLRPNGNPLEDLSAVLLPFLQERLERLSERAEDRLRRLQAAQAVVESQLSQLRERAEARAREALQRAESQIQQLRAKLQELK-MMSILSQLRATTKEYITRMIQETTFENMKEGNVIFYAKNPERFEEVYRQAIEAFERSFQAMVENRLANGSIEQDLEKKDRDLLEGLRSEQPLFQPSGDPNALLAAVLRPMVDQAEQELHALYLKLEAEMRSLRNSVDRGDLHAKIVKDMRSLRKEATEEKDRYLHELKSISSF-AMSLIHDLRKLTTEDLAARRAKGSFEAFTQGHEQKAKRNPDEVRLQYAQQVQQLSVAVQGEIDAVLKAGGFEVQLNQLESRLAALKAEGGPMQVPDGNPLKALLLVLQPLQEEAFMRDQATYFENSEKARLLQLQVDANNDRINVLQESIARLTQEIQTIDYALDTLRERKLL-MKELVDVLDEAIAKEIEWRKSRISFNDFVKSNTFLYVLAPNFMKRHYEKFVKDLEDAYRARVQDVLQDHGLRDKLEEAVKEAEIGFKKGEPERRPSGNPLEELQEVVKPILERRNKALLAKVESAQKAYVAAKEELEKAKEKAVKAEAEKAREALKEQSVKAVVEFGFALLRD-SELATHFKEREEALRLQAEIKRMTFDGFRTVLQRQAQNAPDFIHRVYAVYVDRLSMATLREIQSHMAEGKQEEILADVERRANLGTESGLPAYEPGGDPIMDLRNHLQPELRALEERERVAREARRAERARLLERADGQREALRQQVAALRERLQASLAVAWVEDRDALQRED-HMNIIDYAKADFKRALAEMTAEGSLDAALSKIEDVLLADPEAFAKNYAELVESTTQGIEATLAAYFAAGGAEAAIAAAAAKMAAGADDGLPGAKPDGEPQHAFYDFMLPRLAEAGLALKAQSEQERVRLIALKAKEDNDAIAAAEAEFQRALTAIRDRKVKSSIAEGMALANE-NEDLIEMINSAVTILISQLSSLGSFDEFREVNKAAFEADPELAREIYTQYMTKFSEAVTATVASVLESNGLEASLQDATDKLEENSSSGRPGIIPEGDPVAAAMMALLPLKRQELVDLEQEKETLQAKLSTTQSLVEEGEAEIKQRRAELEQEKEERDREAFTLLEQRLSHLD-TQQLKQSLMDFITHLESKVRKLSSFEEYCIMNEERYATDPQDSQERYDKFMKEHSEYLRKAVQELLSKGHLEEKLEYIVRMLQEGREANEPAWQPGGDPERDMQKKLHPVVEKLRETRQKEYDHVRRRVATLNDRLRKGEQLVQAAQDEISRLQTLTERMAVLQEKAAKLREQ-GKDMVNKLLQMEALSLSSFVSELSYEDFVNANSSLAQAQPDLTKSIYAVLIKKLQVAQMNTVLQKLNQSGWKSKAEALAQELAESAKDGAPGLKPEGDPIRALLSVLAPVLAQDFQSKNMSIQAKLSELTQELGHFTALRRELLELKKEYEKVNSDLEEERKTIQAWLDERSQ,TISRVKLLDTMVDTFLQKLVAAGSYQRFTDCYKCFYQLQPAMTQQIYDKFIAQLQTSIREEISDIKEEGNLEAVLNALDKIVEEGKVRKEPAWRPSGIPEKDLHSVMAPYFLQQRDTLRRHVQKQEAENQQLADAVLAGRRQVEELQLQVQAQQQAWQALHREQRELVAVLRE-TISRVKLLDTMVDTFLQKLVAAGSYQRFTDCYKCFYQLQPAMTQQIYDKFIAQLQTSIREEISDIKEEGNLEAVLNALDKIVEEGKVRKEPAWRPSGIPEKDLHSVMAPYFLQQRDTLRRHVQKQEAENQQLADAVLAGRRQVEELQLQVQAQQQAWQALHREQRELVAVLRE-TISRVKLLDTMVDTFLQKLVAAGSYQRFTDCYKCFYQLQPAMTQQIYDKFIAQLQTSIREEISDIKEEGNLEAVLNALDKIVEEGKVRKEPAWRPSGIPEKDLHSVMAPYFLQQRDTLRRHVQKQEAENQQLADAVLAGRRQVEELQLQVQAQQQAWQALHREQRELVAVLRE-TISRVKLLDTMVDTFLQKLVAAGSYQRFTDCYKCFYQLQPAMTQQIYDKFIAQLQTSIREEISDIKEEGNLEAVLNALDKIVEEGKVRKEPAWRPSGIPEKDLHSVMAPYFLQQRDTLRRHVQKQEAENQQLADAVLAGRRQVEELQLQVQAQQQAWQALHREQRELVAVLRE-TISRVKLLDTMVDTFLQKLVAAGSYQRFTDCYKCFYQLQPAMTQQIYDKFIAQLQTSIREEISDIKEEGNLEAVLNALDKIVEEGKVRKEPAWRPSGIPEKDLHSVMAPYFLQQRDTLRRHVQKQEAENQQLADAVLAGRRQVEELQLQVQAQQQAWQALHREQRELVAVLRE-TISRVKLLDTMVDTFLQKLVAAGSYQRFTDCYKCFYQLQPAMTQQIYDKFIAQLQTSIREEISDIKEEGNLEAVLNALDKIVEEGKVRKEPAWRPSGIPEKDLHSVMAPYFLQQRDTLRRHVQKQEAENQQLADAVLAGRRQVEELQLQVQAQQQAWQALHREQRELVAVLRE-TISRVKLLDTMVDTFLQKLVAAGSYQRFTDCYKCFYQLQPAMTQQIYDKFIAQLQTSIREEISDIKEEGNLEAVLNALDKIVEEGKVRKEPAWRPSGIPEKDLHSVMAPYFLQQRDTLRRHVQKQEAENQQLADAVLAGRRQVEELQLQVQAQQQAWQALHREQRELVAVLRE-TISRVKLLDTMVDTFLQKLVAAGSYQRFTDCYKCFYQLQPAMTQQIYDKFIAQLQTSIREEISDIKEEGNLEAVLNALDKIVEEGKVRKEPAWRPSGIPEKDLHSVMAPYFLQQRDTLRRHVQKQEAENQQLADAVLAGRRQVEELQLQVQAQQQAWQALHREQRELVAVLRE-TISRVKLLDTMVDTFLQKLVAAGSYQRFTDCYKCFYQLQPAMTQQIYDKFIAQLQTSIREEISDIKEEGNLEAVLNALDKIVEEGKVRKEPAWRPSGIPEKDLHSVMAPYFLQQRDTLRRHVQKQEAENQQLADAVLAGRRQVEELQLQVQAQQQAWQALHREQRELVAVLRE-TISRVKLLDTMVDTFLQKLVAAGSYQRFTDCYKCFYQLQPAMTQQIYDKFIAQLQTSIREEISDIKEEGNLEAVLNALDKIVEEGKVRKEPAWRPSGIPEKDLHSVMAPYFLQQRDTLRRHVQKQEAENQQLADAVLAGRRQVEELQLQVQAQQQAWQALHREQRELVAVLRE,DYAQLLQMER-RGRSYLREVQ-DFHKIFEKFK-YPELVLNYHQ-FYEELEKVLR-TGDALHAEQS-EVAELARSAL-DFVTVYTNLS-EMTTRLEKFN-TLQEQLKLAK,YPRKILECVI-YPRKILECVI-YPRKILECVI-YPRKILECVI-YPRKILECVI-YPRKILECVI-YPRKILECVI-YPRKILECVI-YPRKILECVI-YPRKILECVI
