contacts,cs,ce,Chain,Length,designed_receptor_seq,native_receptor_seq,designed_binder_seq,native_binder_seq
14.0,101,111,A,10,GGSHMEELLEKLEKEVEELEKKIEEELPKIILEKVKELKEKIEKELEELKPLEEPKEEKKEPEPEPEKEELLEKGKELEEKLKELEEKLPELEKKLEGLKEK-GGSHMEELLEKLKEEVEKLEEEIKKELPKLILEKVKELKEKIEELKKKLEPLKEPLKELEEPLPEPLKELLEKLGEELKKLEEELKKLEPLLEKLGEGLKEL-GGSSAEEEAAALAAELEALEAELAAELPAVLLEAERARREAEAAAAAAAAPAAAPAAAAAAPAPAPAAAAAAAAGAAAAAAAAAAAAAAPAAAAAGAGAAAA-GGSHMAELEAAVAALERELAAARARELPAAVLAAVRRARAAAAAAAAAAAPAAAPAAAAAAPAPAPAAAAAAAAGAAAAAAAAAAAAAAPAAAAAGAGAAAA-GGSHMEELLEKLKEEVEKLKEEVEKELPKLILEKVKELKEKVEKLKEELKPLEEPKEELKEPEPEPEKEELKELGEKLKELEEKLKELEPLLEKLGEGLKEL-GGSSAEEVAAAIAAAIAAATAAAAAAAPAAILAAVAAAKAAAAAAAAAAAPAAAPAAAAAAPAPAPAAAAAAAAGAAAAAAAAAAAAAAPAAAAAGAGAAAA-GGSHMEELLSALEAERRELEARLAAELPALLLEAERRLREAERRLAELRRPLEEPLEELLEPLPEPLRELLERLGELLERLEEERRRLEPLLERLGEGLREL-MGLEKLIKELEEAKKRVEEAKKRAEEEPKKILEEVKKAKEEAKKKAEELKPLEEPKKEEKKPLPEPKKEELEKLGEELKKAKEEAKKKAPELEKLGEGLKKA-GGSHMEELRQALERLREEAERLRAERLPELLLEAERRLREALERLREELEPLREPLEELREPLPEPLREALERLGEELREALERLREELPRLEEEGRGLEEL-MGLARLLLALALLALLVVAAAALALLLPALLLAAERRARAAAAAAAAAAAPAAAPAAAAAAPAPAPAAAAAAAAGAAAAAAAAAAAAAAPAAAAAGAGAAAA,FMDSDIKVLEDQFDEIIVDIATKRKQYPRKILECVIKTIKAKQEILKQYHPVVHPLDLKYDPDPAPHMENLKCRGETVAKEISEAMKSLPALIEQGEGFSQV-FMDSDIKVLEDQFDEIIVDIATKRKQYPRKILECVIKTIKAKQEILKQYHPVVHPLDLKYDPDPAPHMENLKCRGETVAKEISEAMKSLPALIEQGEGFSQV-FMDSDIKVLEDQFDEIIVDIATKRKQYPRKILECVIKTIKAKQEILKQYHPVVHPLDLKYDPDPAPHMENLKCRGETVAKEISEAMKSLPALIEQGEGFSQV-FMDSDIKVLEDQFDEIIVDIATKRKQYPRKILECVIKTIKAKQEILKQYHPVVHPLDLKYDPDPAPHMENLKCRGETVAKEISEAMKSLPALIEQGEGFSQV-FMDSDIKVLEDQFDEIIVDIATKRKQYPRKILECVIKTIKAKQEILKQYHPVVHPLDLKYDPDPAPHMENLKCRGETVAKEISEAMKSLPALIEQGEGFSQV-FMDSDIKVLEDQFDEIIVDIATKRKQYPRKILECVIKTIKAKQEILKQYHPVVHPLDLKYDPDPAPHMENLKCRGETVAKEISEAMKSLPALIEQGEGFSQV-FMDSDIKVLEDQFDEIIVDIATKRKQYPRKILECVIKTIKAKQEILKQYHPVVHPLDLKYDPDPAPHMENLKCRGETVAKEISEAMKSLPALIEQGEGFSQV-FMDSDIKVLEDQFDEIIVDIATKRKQYPRKILECVIKTIKAKQEILKQYHPVVHPLDLKYDPDPAPHMENLKCRGETVAKEISEAMKSLPALIEQGEGFSQV-FMDSDIKVLEDQFDEIIVDIATKRKQYPRKILECVIKTIKAKQEILKQYHPVVHPLDLKYDPDPAPHMENLKCRGETVAKEISEAMKSLPALIEQGEGFSQV-FMDSDIKVLEDQFDEIIVDIATKRKQYPRKILECVIKTIKAKQEILKQYHPVVHPLDLKYDPDPAPHMENLKCRGETVAKEISEAMKSLPALIEQGEGFSQV,KLKEKLKPLE-ELLEKLKPLL-ALAAALAPLA-ALAAALAPLL-ELEEVLKPLE-ALAAALAPLL-GLLERLRPLL-KLKEVLKPLE-LLEEVLRPLR-ALAAALAPLA,DLHSVMAPYF-DLHSVMAPYF-DLHSVMAPYF-DLHSVMAPYF-DLHSVMAPYF-DLHSVMAPYF-DLHSVMAPYF-DLHSVMAPYF-DLHSVMAPYF-DLHSVMAPYF
11.0,26,36,B,10,MASLVEELRRAVEEALREAEARGSFEEFVRRRREEALRDPERAREEYERARREAREALLRAVEELLRRGGLEERLERLERELEEGRREGRPLPEPGGDPLRELARVLRPLLEERLRELEREVEELRRRLEEALREAERGLEEALREAERRLEEALREAERLRELEERLRELEE-MATLVERLREAVERALEEARRAGSFEEFVREREEEARRDPERVREEYERAVREAEERAREAVERVLEEGGLEERLRELERRLEEGREEGRPLPEPGGDPLRELARVLRPLLEERLRELEERLRELEERLRELEERLREGLEELRERLEELERELEELRRLEEELRELEERLRE-MATLVEQLRAAVAAALAAARAAGSFEAFREANRAAYEADPAAARAAYEAAVAAAEAAARAAVEAVLAAGGAEARLAALEAALAAGAAAGAPAAAPGGDPAAELAAVLAPLRAARAAAEAAAREAAEAAARAALAAARAGLEAARAALAAAEAEARARAAAAAAAAEAAAAAAA-MATLVEELRAAVEAALAAARAAGSFEAFREANRAAYEADPAAARAAYEAAVAAAEAAARAAVEAVLAAGGAEARLAALEAALAAGAAAGAPAAAPGGDPAAELAAVLAPLRAARAAAEAAAREAAEAAARAAAEAAARGAEAAARAAAEAAARAAAEAAAAAAAAEAAAAAAA-MASLVEELRAAVEAALAAARAAGSFEAFREANRAAYEADPAAARAAYEAAVAAAEAAARAAVEAVLAAGGAEARLAALEAALAAGAAAGAPAAAPGGDPLAELRAVLAPLRAARAAAEAAAREAAEAAARAAAAAAAAGAEAAARAAAAAAAAAAAAAAAAAAAAAAAAAAAA-MSDLVERLRAAVAAALAAERAAGSFEAFREARAAEAAADPAALRAAYEAAVAAREAALRAAVEAELAAGGLRARLEALAAALAAGAAAGAPAAAPGGDPAAELAAVLAPLRAARAAAEAAAREAAAAAAAAAAAAAAAGEAAAAAAAAAAAAAAAAAAAAAAAAAAAAAAAAA-MATLVEELRAAVEAALAEARAAGSFEAFREANRAAYEADPEAARAAYEAAVAAAEAAARAAVEAVLAAGGAEARLAALEAALAAGAAAGAPAAAPGGDPAAELAAVLAPLRAERAAAEAAAREAARAAAEAALAAARAGLEAARAALEAARAELEAARAALEAARAALEAARA-MADLVEELRRAVEEALREAERRGSFEEFVRRRREEALRDPERVREEYERAVREAREALRRAVEEVLRRGGLEERLRELERRLREGEREGRPLLEPGGDPLRELARVLEPLLRERLERLREEVERLREELERLREELERGLEELRERLREELERLREELERLREELERLREELE-MSDLVEELRRAVEEALREAERRGSFEEFVRRNRELARRDPERVREVYRRAVEEARRAALEAVERLLREGGLEERLRELERRLREGEERGRPGLEPGGDPLRELARVLRPLLEERRRRLEEEVRRLEEELRRLREEVRRGLEEARRRLEEELRRLEEELRRLEEELRRLEEELR-MATLVEELRAAVEAALAAARAAGSFEAFREANRAAYEADPAAARAAYEAAVAAAEAAARAAVEAVLAAGGAEARLAALEAALAAGAAAGAPAAAPGGDPAAELAAVLAPLRAARAAAEAAAAEAARAAAEAAAAAAAAGEAAAAEAAAAAAAEAAAAAAAAAAAAEAAAAAAA,TISRVKLLDTMVDTFLQKLVAAGSYQRFTDCYKCFYQLQPAMTQQIYDKFIAQLQTSIREEISDIKEEGNLEAVLNALDKIVEEGKVRKEPAWRPSGIPEKDLHSVMAPYFLQQRDTLRRHVQKQEAENQQLADAVLAGRRQVEELQLQVQAQQQAWQALHREQRELVAVLRE-TISRVKLLDTMVDTFLQKLVAAGSYQRFTDCYKCFYQLQPAMTQQIYDKFIAQLQTSIREEISDIKEEGNLEAVLNALDKIVEEGKVRKEPAWRPSGIPEKDLHSVMAPYFLQQRDTLRRHVQKQEAENQQLADAVLAGRRQVEELQLQVQAQQQAWQALHREQRELVAVLRE-TISRVKLLDTMVDTFLQKLVAAGSYQRFTDCYKCFYQLQPAMTQQIYDKFIAQLQTSIREEISDIKEEGNLEAVLNALDKIVEEGKVRKEPAWRPSGIPEKDLHSVMAPYFLQQRDTLRRHVQKQEAENQQLADAVLAGRRQVEELQLQVQAQQQAWQALHREQRELVAVLRE-TISRVKLLDTMVDTFLQKLVAAGSYQRFTDCYKCFYQLQPAMTQQIYDKFIAQLQTSIREEISDIKEEGNLEAVLNALDKIVEEGKVRKEPAWRPSGIPEKDLHSVMAPYFLQQRDTLRRHVQKQEAENQQLADAVLAGRRQVEELQLQVQAQQQAWQALHREQRELVAVLRE-TISRVKLLDTMVDTFLQKLVAAGSYQRFTDCYKCFYQLQPAMTQQIYDKFIAQLQTSIREEISDIKEEGNLEAVLNALDKIVEEGKVRKEPAWRPSGIPEKDLHSVMAPYFLQQRDTLRRHVQKQEAENQQLADAVLAGRRQVEELQLQVQAQQQAWQALHREQRELVAVLRE-TISRVKLLDTMVDTFLQKLVAAGSYQRFTDCYKCFYQLQPAMTQQIYDKFIAQLQTSIREEISDIKEEGNLEAVLNALDKIVEEGKVRKEPAWRPSGIPEKDLHSVMAPYFLQQRDTLRRHVQKQEAENQQLADAVLAGRRQVEELQLQVQAQQQAWQALHREQRELVAVLRE-TISRVKLLDTMVDTFLQKLVAAGSYQRFTDCYKCFYQLQPAMTQQIYDKFIAQLQTSIREEISDIKEEGNLEAVLNALDKIVEEGKVRKEPAWRPSGIPEKDLHSVMAPYFLQQRDTLRRHVQKQEAENQQLADAVLAGRRQVEELQLQVQAQQQAWQALHREQRELVAVLRE-TISRVKLLDTMVDTFLQKLVAAGSYQRFTDCYKCFYQLQPAMTQQIYDKFIAQLQTSIREEISDIKEEGNLEAVLNALDKIVEEGKVRKEPAWRPSGIPEKDLHSVMAPYFLQQRDTLRRHVQKQEAENQQLADAVLAGRRQVEELQLQVQAQQQAWQALHREQRELVAVLRE-TISRVKLLDTMVDTFLQKLVAAGSYQRFTDCYKCFYQLQPAMTQQIYDKFIAQLQTSIREEISDIKEEGNLEAVLNALDKIVEEGKVRKEPAWRPSGIPEKDLHSVMAPYFLQQRDTLRRHVQKQEAENQQLADAVLAGRRQVEELQLQVQAQQQAWQALHREQRELVAVLRE-TISRVKLLDTMVDTFLQKLVAAGSYQRFTDCYKCFYQLQPAMTQQIYDKFIAQLQTSIREEISDIKEEGNLEAVLNALDKIVEEGKVRKEPAWRPSGIPEKDLHSVMAPYFLQQRDTLRRHVQKQEAENQQLADAVLAGRRQVEELQLQVQAQQQAWQALHREQRELVAVLRE,ELEELLREAL-ELRELLERVR-AAAAALAAAA-AAAAAAAAAA-AAAAAAAAAA-AAAAAAAAAA-AAAAALAAAA-EPLRELERVL-ELEELLRRVR-AAAAAAAAAA,YPRKILECVI-YPRKILECVI-YPRKILECVI-YPRKILECVI-YPRKILECVI-YPRKILECVI-YPRKILECVI-YPRKILECVI-YPRKILECVI-YPRKILECVI
