contacts,cs,ce,Chain,Length,designed_receptor_seq,native_receptor_seq,designed_binder_seq,native_binder_seq
6.0,75,85,A,10,ANAVRRPGADQCCMPTHHMGELDTDRANRLAVNAKYQP-MDDKRFTVFADKIEPNLYTGGDTAAKELLQAFIKKRED-GGLDLLKTIINVDSPMPGADGADLAARARQRSSWLWSP-SGTDFQLYSESIELPTVSMFSLLASCFCICFKAKQSMN-GGAIVQQLKKRLFMPRPNPASLDMDMLLNLMSWMKNTN-GSEKATDSLIDKARPDAGNRRDLDHHLDKAIFQVSNKV-GERINCSVSYNKDFPNIPRLPMKEPKLIMKMRAFKYNG-CGMTVDCYLCQKNDPQRWDCSNMSQTNVSQCTCSCVNG-AEVEIEVNKLKDKEPFCDAFATDGKKFFFFRDLVNFRG-GSSKIKLNGVFDNYPIAQFGSIDSFASSILLISGNISY,LDHLKNGYRRRFCRPSRTEQGQNVLEILQDCFEEKSLA-LDHLKNGYRRRFCRPSRTEQGQNVLEILQDCFEEKSLA-LDHLKNGYRRRFCRPSRTEQGQNVLEILQDCFEEKSLA-LDHLKNGYRRRFCRPSRTEQGQNVLEILQDCFEEKSLA-LDHLKNGYRRRFCRPSRTEQGQNVLEILQDCFEEKSLA-LDHLKNGYRRRFCRPSRTEQGQNVLEILQDCFEEKSLA-LDHLKNGYRRRFCRPSRTEQGQNVLEILQDCFEEKSLA-LDHLKNGYRRRFCRPSRTEQGQNVLEILQDCFEEKSLA-LDHLKNGYRRRFCRPSRTEQGQNVLEILQDCFEEKSLA-LDHLKNGYRRRFCRPSRTEQGQNVLEILQDCFEEKSLA,WWRVMEAILH-LVKALTWVNS-YVARIASRVG-EIDFIEHKFH-LPSFLSWLEE-NRAKLAKQSE-ETAVLEAFAE-PCLADCMALG-AISRVEMVVR-KKSNMGRKYL,DIKVLEDQFD-DIKVLEDQFD-DIKVLEDQFD-DIKVLEDQFD-DIKVLEDQFD-DIKVLEDQFD-DIKVLEDQFD-DIKVLEDQFD-DIKVLEDQFD-DIKVLEDQFD
7.0,1,11,B,10,AYVRGPLLVDDGAELLSSVRRDTQKVIAAAQLLPSDQRKPAIQALLTNYIGNIIENTFIDGQRLSDAQLKVQLDEVDRLLQERLQLEETIRRQALIEEPRRQEIIQRALEEQKRREEELKRPLKVPKRVDEFLLPEPEQVEEQVRMEEARLLRIAEAELRPIAEALKHGDQRG-SKALGPVKVKNKSRLEKELELLSRNVASARKDLPREEKRPLLEARRRDLEKSVKDRLQVDGEEWERAEDEFLNEESTRELEAQALEEQARREQEVAELPARAAERRWRHEQQRLDSAARDVPERRPVAETLFPIPAPQARQAYKEGQRLARRREQALRDEPAWRARGFGRFSG-SDDYGPLYVDSSKALVDLMAKKCTAIEKVQDKLPDAERRPVAAYMRNEIWNELKDTVKINGKIWSAASSKDLSWKDIKRKYEAEQLIKSTAIKLEEVKPQAEALREEYERRKKEWELERKVPAKIPARIQKVQVPAPEKLIAQEKRIAEKEREAERLRLLPVIRKLEEGKHVP-MAANGKIQIDTGVDISRLISAFSQRLLNVAYGNPKETVEPLLKAAMRDMVGDVTKNFAINGQVSSTARSKVLTDEMIKAAEADMHAQIQHEKLVKEQYPKAKAKLEAELARLRALQAKLNEPEPVPKVDTLPATPKARHEEQVAEGRYLAEKLSLAQGMLPELERIGTGMSDA-AEDQGPLRVDDGEKLRNALSELSDDFLRIKEAVPQEIREPVTANLLNTFYGRIKSRVTINGEAWQEAQRDNKDCQEKLDAERRLEERIRANDIYLEQKPKAIRQAEEAERRLEAKLLELNKPREVPEIRTRPVEPDPAYADELQRGRRLEERVRQAEREVPDLRQREDGLKDE-DKVDGRAEVADKQQIERSIEEAMAEAKAQASKLPSELRQPFLRNKTQQLRRDIFDKLIINGKTWEESESEVKSAEEVAEINRIIQEKERLEGEVERRLPAVKEARDRAEEEKRLAELQKQLPNAQREASTEPEDALPSFDDVIRDGKAELNRLLEEARQEPQARERGEGLRLG-SRDEGKVHITDKLKLMEIIELRHAEVEARLHKVPSHLKKPIQEKMRRDFYNKLFANFEINGETWENAETEEEEEVMLAEREAAEEALLEAIREAKLEMPKKLAELNRLNQDKKRAEAEVQKPAAPPKQTAEKFEPKPDEVHEQLQGLIDERLQFEKERTLPETERLLNGETTG-KDSAGRDKLDNLAEVEKQAREAMEAIKEKGKDLPGARRQPLLEEATRAYWRRITKTLEINGELYHEAESKLESAADKTLRERLKEAKERAQRQIKQSKPEMDAKLEEARQKADAEKLRAQVPTLEPKFELTKEEAVPVLEKLKEAEKRLAEAEAKLNVVTPVLEEAGELVKGG-SAMDGRIQIKDKAALKAQVDSFIDGIEKDAKKLPAEVREPFIAQAKTFATNKLKSVVEINGQSFDQAVAANLDAETLAAQNKYDADVAKLNAQLKANQPRVEADVHQKEMAKAAEAARKLEPLAVPEKDATKVKQDPSSGLKFLLGLLVAVMVLLAIVLIPRLIKLGGDIAQG-GAMGGAIVVADKAKVLAWAKELKEKLGYMSATIPKAVRKPLTTLLTAVAEDRLLAAITVNGQAWEDAESTELTAEEMRALSDLQHIQIEYKKAKEKAFPNEVDALRIEWARKQAELVAAQKPEDKPKDITKPPKPAPAAVAALLEGEKIEATIAEKKKLEPFNTEIGNGLATP,PREDFRVRCTSKRAVTEMLQLCGRFVQKLGDALPEEIREPALRDAQWTFESAVQENISINGQAWQEASDNCFMDSDIKVLEDQFDEIIVDIATKRKQYPRKILECVIKTIKAKQEILKQYHPVVHPLDLKYDPDPAPHMENLKCRGETVAKEISEAMKSLPALIEQGEGFSQV-PREDFRVRCTSKRAVTEMLQLCGRFVQKLGDALPEEIREPALRDAQWTFESAVQENISINGQAWQEASDNCFMDSDIKVLEDQFDEIIVDIATKRKQYPRKILECVIKTIKAKQEILKQYHPVVHPLDLKYDPDPAPHMENLKCRGETVAKEISEAMKSLPALIEQGEGFSQV-PREDFRVRCTSKRAVTEMLQLCGRFVQKLGDALPEEIREPALRDAQWTFESAVQENISINGQAWQEASDNCFMDSDIKVLEDQFDEIIVDIATKRKQYPRKILECVIKTIKAKQEILKQYHPVVHPLDLKYDPDPAPHMENLKCRGETVAKEISEAMKSLPALIEQGEGFSQV-PREDFRVRCTSKRAVTEMLQLCGRFVQKLGDALPEEIREPALRDAQWTFESAVQENISINGQAWQEASDNCFMDSDIKVLEDQFDEIIVDIATKRKQYPRKILECVIKTIKAKQEILKQYHPVVHPLDLKYDPDPAPHMENLKCRGETVAKEISEAMKSLPALIEQGEGFSQV-PREDFRVRCTSKRAVTEMLQLCGRFVQKLGDALPEEIREPALRDAQWTFESAVQENISINGQAWQEASDNCFMDSDIKVLEDQFDEIIVDIATKRKQYPRKILECVIKTIKAKQEILKQYHPVVHPLDLKYDPDPAPHMENLKCRGETVAKEISEAMKSLPALIEQGEGFSQV-PREDFRVRCTSKRAVTEMLQLCGRFVQKLGDALPEEIREPALRDAQWTFESAVQENISINGQAWQEASDNCFMDSDIKVLEDQFDEIIVDIATKRKQYPRKILECVIKTIKAKQEILKQYHPVVHPLDLKYDPDPAPHMENLKCRGETVAKEISEAMKSLPALIEQGEGFSQV-PREDFRVRCTSKRAVTEMLQLCGRFVQKLGDALPEEIREPALRDAQWTFESAVQENISINGQAWQEASDNCFMDSDIKVLEDQFDEIIVDIATKRKQYPRKILECVIKTIKAKQEILKQYHPVVHPLDLKYDPDPAPHMENLKCRGETVAKEISEAMKSLPALIEQGEGFSQV-PREDFRVRCTSKRAVTEMLQLCGRFVQKLGDALPEEIREPALRDAQWTFESAVQENISINGQAWQEASDNCFMDSDIKVLEDQFDEIIVDIATKRKQYPRKILECVIKTIKAKQEILKQYHPVVHPLDLKYDPDPAPHMENLKCRGETVAKEISEAMKSLPALIEQGEGFSQV-PREDFRVRCTSKRAVTEMLQLCGRFVQKLGDALPEEIREPALRDAQWTFESAVQENISINGQAWQEASDNCFMDSDIKVLEDQFDEIIVDIATKRKQYPRKILECVIKTIKAKQEILKQYHPVVHPLDLKYDPDPAPHMENLKCRGETVAKEISEAMKSLPALIEQGEGFSQV-PREDFRVRCTSKRAVTEMLQLCGRFVQKLGDALPEEIREPALRDAQWTFESAVQENISINGQAWQEASDNCFMDSDIKVLEDQFDEIIVDIATKRKQYPRKILECVIKTIKAKQEILKQYHPVVHPLDLKYDPDPAPHMENLKCRGETVAKEISEAMKSLPALIEQGEGFSQV,IDVLIEARRG-GRLSGVFNQG-TVRQTAKELG-GSRFASSALG-EAEARCQTLI-EEAEALRAAG-PEFTCKSRQF-GDTPDAPEAG-PNAASHVSLG-VDYKKADEMK,DHLKNGYRRR-DHLKNGYRRR-DHLKNGYRRR-DHLKNGYRRR-DHLKNGYRRR-DHLKNGYRRR-DHLKNGYRRR-DHLKNGYRRR-DHLKNGYRRR-DHLKNGYRRR
