contacts,cs,ce,Chain,Length,designed_receptor_seq,native_receptor_seq,designed_binder_seq,native_binder_seq
18.0,17,27,A,10,EYKPGEISQVLRQYLGVKSRQAPPFLSWMQKAGFPPGKRM-MYSPGQISEALRKALGVGERQSPPFMADMMKRGLPPGHEA-MYEPGLISADLRERLGVGKRQAVPFLAEQVLAGYPPLSAD-MFMPGVISKALRRYLGVDNWQAPPFMFELMSRGYPPLHER-GYEPGVISVELMQALGVGENEKPPFIAAAERLGYPPRHRQ-MFTPGEISTLLKEALGVKENSLPPFIAKMIQAGFPPEHRA-YYFPGVISEELKKFLGVRQFKLPPFMTNMLSQGYPPKQAD-MYRPGHITAELAATLGVGARAFPVFIEELEQRGFPPGHVV-MYKPGEISEELRRCLGVGEKQSPPFMRQLYRAGFPPGHVL-MFTPGDISAELRRALGVRNNQQPPFVDDMKTQGYPPFKVR,RFKPGVISEELQDALGVTDKSLPPFIYRMRQLGYPPGWLK-RFKPGVISEELQDALGVTDKSLPPFIYRMRQLGYPPGWLK-RFKPGVISEELQDALGVTDKSLPPFIYRMRQLGYPPGWLK-RFKPGVISEELQDALGVTDKSLPPFIYRMRQLGYPPGWLK-RFKPGVISEELQDALGVTDKSLPPFIYRMRQLGYPPGWLK-RFKPGVISEELQDALGVTDKSLPPFIYRMRQLGYPPGWLK-RFKPGVISEELQDALGVTDKSLPPFIYRMRQLGYPPGWLK-RFKPGVISEELQDALGVTDKSLPPFIYRMRQLGYPPGWLK-RFKPGVISEELQDALGVTDKSLPPFIYRMRQLGYPPGWLK-RFKPGVISEELQDALGVTDKSLPPFIYRMRQLGYPPGWLK,PLMVELVHQF-ATWDELFQQL-EEMGELWGQC-ALKIELFYQF-SLSMELNGQV-EEALEFLSQA-PLADELFSQC-DRMAELLQQM-AVAVELMSQL-ALSEELYAQT,ELLFELFHQA-ELLFELFHQA-ELLFELFHQA-ELLFELFHQA-ELLFELFHQA-ELLFELFHQA-ELLFELFHQA-ELLFELFHQA-ELLFELFHQA-ELLFELFHQA
19.0,5,15,B,10,GNDCRLFVGNLERRVTESLLWELFSCAGPVRSVIIPRDRQGRPCGYAFVLFHDEESVPKAINLLNGVKLFGRPMRLRRVG-EKKRKLFVGNLDREVTEQLLFELFSLSGPVIQVEIPLDKDGRPRTFAFVNFKFEKSVPFAMSLHNGINLYGRPMEIKFCG-HMRRRLFVGNLSSRVTEELLFELFSTAGPVRKVNIPYDKQGKPRAFAFVDFEKEESVPRAMRLLDGVKLFGRPIHIRLTG-GSMRKLYVGNLQWMVTEELLFELFSLSGKVDYVIIPLDAFGTPKGYAFVHFANEESVPTAVKDHNGLELHGKPIHIRFLG-SLKKCLYVGDLHSRVTENLLYELFSLAGPVEEVVIPLDKEGKPKSFAFVHFKDYESVPKAIDLLDGVKLFGRPIKIKLCG-GSARKLFVGNLHEDVTETLLEELFSMAGPVERVVIPMDEQGKPRDYAFVYFTEEQSVPTAYEMLNGVSLFGKPMRMHFTG-GSSKKLFVGELHDRVTEELLFELFSGAGPVKQVIIPYTKDGSPKSYAFVHFHQIESVPRAMEMANGVKLYGRPIKIHYLS-ALERRLFVGNLHQKVTEELLYELFSLSGPVKSVVIPFDKEGIPKSFAFIEYVKKVSVPRAMKMLHGVRLYGRPIILQYTG-SLRRSLYVGNLHLEVTEKLLFEVFSQAGPVKEVRIPLDKRGIPKRYAYVEFEERASVPKAVKMLNGVKLFGRPIRIRLTG-HDSKKLFVGNLNEAVTEALLFELFSQSGPVQEVIIPLDEKGRPKQFAFVTFVSEDSVPFAMTQHDGVRLYGRPIRIRFTF,EADRTLFVGNLETKVTEELLFELFHQAGPVIKVKIPKDKDGKPKQFAFVNFKHEVSVPYAMNLLNGIKLYGRPIKIQFRS-EADRTLFVGNLETKVTEELLFELFHQAGPVIKVKIPKDKDGKPKQFAFVNFKHEVSVPYAMNLLNGIKLYGRPIKIQFRS-EADRTLFVGNLETKVTEELLFELFHQAGPVIKVKIPKDKDGKPKQFAFVNFKHEVSVPYAMNLLNGIKLYGRPIKIQFRS-EADRTLFVGNLETKVTEELLFELFHQAGPVIKVKIPKDKDGKPKQFAFVNFKHEVSVPYAMNLLNGIKLYGRPIKIQFRS-EADRTLFVGNLETKVTEELLFELFHQAGPVIKVKIPKDKDGKPKQFAFVNFKHEVSVPYAMNLLNGIKLYGRPIKIQFRS-EADRTLFVGNLETKVTEELLFELFHQAGPVIKVKIPKDKDGKPKQFAFVNFKHEVSVPYAMNLLNGIKLYGRPIKIQFRS-EADRTLFVGNLETKVTEELLFELFHQAGPVIKVKIPKDKDGKPKQFAFVNFKHEVSVPYAMNLLNGIKLYGRPIKIQFRS-EADRTLFVGNLETKVTEELLFELFHQAGPVIKVKIPKDKDGKPKQFAFVNFKHEVSVPYAMNLLNGIKLYGRPIKIQFRS-EADRTLFVGNLETKVTEELLFELFHQAGPVIKVKIPKDKDGKPKQFAFVNFKHEVSVPYAMNLLNGIKLYGRPIKIQFRS-EADRTLFVGNLETKVTEELLFELFHQAGPVIKVKIPKDKDGKPKQFAFVNFKHEVSVPYAMNLLNGIKLYGRPIKIQFRS,SISAKLQHAL-EISSLLQAAL-FVSAELVQAL-ELSHELVIAL-GISKELQLAL-DMSDRLREAL-CHSAELVKAC-KISRELRKAL-GLSEDLMIAL-TISEELKEAL,VISEELQDAL-VISEELQDAL-VISEELQDAL-VISEELQDAL-VISEELQDAL-VISEELQDAL-VISEELQDAL-VISEELQDAL-VISEELQDAL-VISEELQDAL
