contacts,cs,ce,Chain,Length,designed_receptor_seq,native_receptor_seq,designed_binder_seq,native_binder_seq
43.0,0,10,A,10,GSMDLDTGEYDILQRLKSDLSPGFTPLGNFLLVINGKLVLPDDFESLAKEDTDEDGRFSTEDGKILVNFGKLFIADGEATLSVGKEQVLKGKVEKLDKPLDVIRYNEEEQKVELVDTLRYKVVFEDKPLEKG-GSSGLDQGAYEIAMKENALERPGLTPLGYFLLKINGKLILPSNFEELSKKDSEENKRFEEKDGKTMINFGKLELEGKKAVLYVGDEQKLEGEVEKLDEPLNVVYHNKEKDEEYLVDVINYKIVFKNKPQPIG-GSHMLNEGLYQVLKQMTSFEGPGITPLGNFLLEINGRLVLPPNFAALAREDTPGDNRFAEEDGETLVHFGELLLEGDKATLYVGKTQVLHGQVVQLDKPQDVVFYDAETQSETLVTRLKYKVVFDQKPQPAG-GSMELDKGLYDVLMEKHEKERPGMTPLGNFLLEVNGKLVLPEDFEKLAKKDTPKDKKFEVKNGKILIHFGSLEIKDGKAKLYVGKDQVLNGEVVKLDKPQDVVFYNKKKNETFLVDKIEYKVVFKNKPLPKE-GSMKLDEGNYKRLAKENKKQKPLVTPLGMFLLEINGKLKLPDNFEELAKKDTPENKRFEEKNGKILVNFGELTIEGKKATLKVGNKQVLEGEVEKLDKPLDVVYFNEKDKSTELVDVLKYKVVFKNKPKPKD-GSSGLDVGQYLEEIKRKKKEKPCLTPLGNFLLEVNGNLCLPKDFKSLSKKDTKGDGRFRVKKGKIMIHFGKLYVKDNNATLLVGSTQELKGKVEKLDNPLDVVFHDIENDKVFLVDKLEYKVVFKDKPLPKG-GSSGLDKGLYDILKSQSKSEEPDLTPLGTFLLSVKGKLKLPKDFQKLAQKDDIFSKKFKEEKGKIMIHFGNLVIEGNKATLEVGNDQVLKGEVEKLDKKIYLVHFDEEKNEEYLVDEIEYKVIFKDKPLPKG-GSHMLDDGLYKVLKRKTKKERPNLTPLGNFLLEINGELVLPEDFESLAKKDSPDNRRFKEEDGKILIHWGKLVIDGKNATLYVGDEQVLKGKVEKLDKPKKVVYYDDENDKEYLVDVMEYKVVFEQKPLPKG-GSHMLNQGSYDVLRKKTNKQDQEVTPLGNFLLEIDGKLILPDDFAKLSQRDTEEDNKFEEENGETKIHFGKLFIDGNNATLHVGDHQVLKGTVEKLDKPLDVIFHNKKTDEEFLVDVMKYKVVFKNKPEPKG-GMSLLDTGAYEENLKKSVKESPYITPLGNFLLEINGKLVLPPDFEALAKKDDEESGNFEMKDGETWVNFGKLEINGQKAVLYVGDDQVLKGEVVELDEPINVVFHNKKTDTTELIDVMKYKVVFEEKPEPKD,PSVDIDASQWQKLTQSREKQTTVITPLGMMMLEIQGELELPKDFASLARRDSPNEGRFSEQDGETLIRFGSLQIDGERATLFVGKKQRLLGKVTKLDVPMGIMHFNSKDNKVELVDVMKYKVIFKDRPLPIM-PSVDIDASQWQKLTQSREKQTTVITPLGMMMLEIQGELELPKDFASLARRDSPNEGRFSEQDGETLIRFGSLQIDGERATLFVGKKQRLLGKVTKLDVPMGIMHFNSKDNKVELVDVMKYKVIFKDRPLPIM-PSVDIDASQWQKLTQSREKQTTVITPLGMMMLEIQGELELPKDFASLARRDSPNEGRFSEQDGETLIRFGSLQIDGERATLFVGKKQRLLGKVTKLDVPMGIMHFNSKDNKVELVDVMKYKVIFKDRPLPIM-PSVDIDASQWQKLTQSREKQTTVITPLGMMMLEIQGELELPKDFASLARRDSPNEGRFSEQDGETLIRFGSLQIDGERATLFVGKKQRLLGKVTKLDVPMGIMHFNSKDNKVELVDVMKYKVIFKDRPLPIM-PSVDIDASQWQKLTQSREKQTTVITPLGMMMLEIQGELELPKDFASLARRDSPNEGRFSEQDGETLIRFGSLQIDGERATLFVGKKQRLLGKVTKLDVPMGIMHFNSKDNKVELVDVMKYKVIFKDRPLPIM-PSVDIDASQWQKLTQSREKQTTVITPLGMMMLEIQGELELPKDFASLARRDSPNEGRFSEQDGETLIRFGSLQIDGERATLFVGKKQRLLGKVTKLDVPMGIMHFNSKDNKVELVDVMKYKVIFKDRPLPIM-PSVDIDASQWQKLTQSREKQTTVITPLGMMMLEIQGELELPKDFASLARRDSPNEGRFSEQDGETLIRFGSLQIDGERATLFVGKKQRLLGKVTKLDVPMGIMHFNSKDNKVELVDVMKYKVIFKDRPLPIM-PSVDIDASQWQKLTQSREKQTTVITPLGMMMLEIQGELELPKDFASLARRDSPNEGRFSEQDGETLIRFGSLQIDGERATLFVGKKQRLLGKVTKLDVPMGIMHFNSKDNKVELVDVMKYKVIFKDRPLPIM-PSVDIDASQWQKLTQSREKQTTVITPLGMMMLEIQGELELPKDFASLARRDSPNEGRFSEQDGETLIRFGSLQIDGERATLFVGKKQRLLGKVTKLDVPMGIMHFNSKDNKVELVDVMKYKVIFKDRPLPIM-PSVDIDASQWQKLTQSREKQTTVITPLGMMMLEIQGELELPKDFASLARRDSPNEGRFSEQDGETLIRFGSLQIDGERATLFVGKKQRLLGKVTKLDVPMGIMHFNSKDNKVELVDVMKYKVIFKDRPLPIM,DDVVIYVEWE-DDVKIYIEHE-KVVDLYVEWG-KEVKIYIEYK-KNVDIYIEYN-EPVNIFIKHR-GRVEIYIEWE-ESVKIYIKWK-KPVEIYIKHN-KSVKIYIEYG,QTVKIWVKYN-QTVKIWVKYN-QTVKIWVKYN-QTVKIWVKYN-QTVKIWVKYN-QTVKIWVKYN-QTVKIWVKYN-QTVKIWVKYN-QTVKIWVKYN-QTVKIWVKYN
16.0,31,41,B,10,NSEINFIEASADYVVPDPVPVTEEDLN-DGDLLYIEKFDDIEIPDPQPVTLEDLI-ARRKIYIKKHKSLIIPKPKPITLEDLY-TANKVYIKKSKDVVVPEPVLVTKEDIV-EAKEIYIEKYDNVLIPEPREVTLEDLT-EEQTLYIEEFEDVIVPEPVELTTEDLF-SEVYIYIRKFDDVVIPEPRNVSFKDLV-ERPVLYVKKADSFVKPKPSLLTREDVV-DSELVFIQKSPSIVISEPTDVTREDVF-KEKVVYIEEHSEIVIPKPKEVTPEDLQ,QTVKIWVKYNEGFSNAVRKNVTWNNLW-QTVKIWVKYNEGFSNAVRKNVTWNNLW-QTVKIWVKYNEGFSNAVRKNVTWNNLW-QTVKIWVKYNEGFSNAVRKNVTWNNLW-QTVKIWVKYNEGFSNAVRKNVTWNNLW-QTVKIWVKYNEGFSNAVRKNVTWNNLW-QTVKIWVKYNEGFSNAVRKNVTWNNLW-QTVKIWVKYNEGFSNAVRKNVTWNNLW-QTVKIWVKYNEGFSNAVRKNVTWNNLW-QTVKIWVKYNEGFSNAVRKNVTWNNLW,KVVKGKLRLP-KLVKGKIVVP-KVYNGTLVLP-GEVTGELVVP-VTVNGKLVLP-GSVIGRIVLP-TKVIGRVVLP-ATVLGKVVLP-LSVNGRLMLP-LVVKGKLKVP,LEIQGELELP-LEIQGELELP-LEIQGELELP-LEIQGELELP-LEIQGELELP-LEIQGELELP-LEIQGELELP-LEIQGELELP-LEIQGELELP-LEIQGELELP
