contacts,cs,ce,Chain,Length,designed_receptor_seq,native_receptor_seq,designed_binder_seq,native_binder_seq
9.0,80,90,A,10,MEEELKKKIEEYEKELEKLLKEKIDLKKILENIEKKKEVLKKLKELEEKKEKEKKEKEEEKKEKEKEKEEKEKEKEKEKEKEKEKEKKEEEKKEEEKEKEEKEKEKEKEKEEKGEPSLEEIIKSEEVKKLLKEKGEEDEELKKLLKKKEEKEEPPPPECIICG-MKEELEKKIEEYKEKLEELLKKEIKLEEILETIEKAKEVLEELKKLEEEIEKGKEELEKLKEEIEKLKEEIEKLKEEIEKLLEEIKKEEEKKEEIKEEELKKLLEELKEKLEKGEISLEEIIKSEELKKLLEKLPEEDEILKKLKELKEEKEEPPPPECIICG-MKEELEKKIEEYEKELEELLKKEIKLEEILEKIEKKLETLKKLKELEEKIEKEKEELKKLEEEIKKLEEEIKKLEEEIKKLLEEKEKKLPEEKEIEEEKLKELLEKLKEKLEKGEISLEELIKSEELKKLEEKLPKEDELLKKLKELKEKEEKPPPPECIVCG-MKEELEKKIEEYEKELEKLLKEEIKLEEILEKIEKKIEVLKKLKELEEKIKEEEEKLKELEKEIEKLKEEIEKLKEEIEKLLKEKEIKEEEKKEIDLEKLKELLEKLKEKLEKGEISLEEIIKSEELKKLLEKLPEEDELLKKLKELKEKSEEPPPPECIICG-MKEELEKKIEEYKEKLEELLKKEINLEEILETIEKMKETLEKLKELEEKIKKEEEEKKKEEEEKKKEEEEKKKEEEKKKEEEKKKEEKKEEKKEEEKEKEEEKKKEEEKKKEEGKPSLEEIIKSEEVKKALEKLPEDDEELKKLKEKEEKKEEPPPPECIECG-MEEELKKKIEEYEKELEKLLKEKIDLEKILENIEKKIETLKKLKELLEKKEKEEKEKEEEKKELEKKIKELEEKIKELEEKLKKEKIEEEKKEEIDLEKLKKELEKLKKELEKGKISLEEIIKSEEIKKLEEKLGKEDEILKKLKELKEKEEKPPPPECIICG-MEEELKAKIEEYEKKLEEALKKEFDLEEILKLIEEKKEVEKKLEELLKKKEEEEKKLEELKKEIEKLKKEIEELKKEIEEKLKKEKKEEKKEEEVDLEKLKEKLEELKKELEEGKPSLEEIIKSEEVKKLLEKLPEEDEVLKKLKELKKESEEPPPPECIVCG-MKEELEKKIEEYEKELEELLKKEFNEEEILKKIEEKIEVLKKLKELEEKIEKEKEELEKKIEELKKKIEELKKKIEELKKKLEEKKIEEKKKEEIDLEKLKKELEKLKEKLEKGEISLEELKKSELLKKLEEKLGKEDEILKKLKELEKEEKKPLPPECIICG-MKEELEKKIEEYKEKLEELLKKEFDEKEIIETIEKMKETLEKLKELEEKIKEEEEKLKELEKEIEKLKKEIEELKKEIEEKLKKEKIEEKEKKEVDLEKLKKELEKLKKELEKGEISLEEIIKSEELKKLLEKLPEEDEILKKLKELKEKSEEPPPPECIVCG-MKEELEKKIEEYNEKLKELLEKEFKEEEILETIEKKKEVLEKLKELEEKIKKEEEEKKKEEEEKKKEEEEKKKEEEKKKEEEKKKEEKKEEKKEEEKEEKEKEEEKKKEEEKKGEKSLEEIIKSEEVKKLLEKLPEEDEKLKELKKKEEEKKEEEEPKCKKCG,EYQRAIDSIEECLNKQLRLSSEKVDQYVLIENWTSLVGHLKTLHSLISNYTNGRELQNEISSLLKQDKELDLQIQDCMREMTSIYDTHLPKTQKVNAETLLDYGRKLSKFSSAPWPSEDQMRKTLLFQFSTSMVPNLSATASQLFSEQTKMNYPASPTFTTQE-EYQRAIDSIEECLNKQLRLSSEKVDQYVLIENWTSLVGHLKTLHSLISNYTNGRELQNEISSLLKQDKELDLQIQDCMREMTSIYDTHLPKTQKVNAETLLDYGRKLSKFSSAPWPSEDQMRKTLLFQFSTSMVPNLSATASQLFSEQTKMNYPASPTFTTQE-EYQRAIDSIEECLNKQLRLSSEKVDQYVLIENWTSLVGHLKTLHSLISNYTNGRELQNEISSLLKQDKELDLQIQDCMREMTSIYDTHLPKTQKVNAETLLDYGRKLSKFSSAPWPSEDQMRKTLLFQFSTSMVPNLSATASQLFSEQTKMNYPASPTFTTQE-EYQRAIDSIEECLNKQLRLSSEKVDQYVLIENWTSLVGHLKTLHSLISNYTNGRELQNEISSLLKQDKELDLQIQDCMREMTSIYDTHLPKTQKVNAETLLDYGRKLSKFSSAPWPSEDQMRKTLLFQFSTSMVPNLSATASQLFSEQTKMNYPASPTFTTQE-EYQRAIDSIEECLNKQLRLSSEKVDQYVLIENWTSLVGHLKTLHSLISNYTNGRELQNEISSLLKQDKELDLQIQDCMREMTSIYDTHLPKTQKVNAETLLDYGRKLSKFSSAPWPSEDQMRKTLLFQFSTSMVPNLSATASQLFSEQTKMNYPASPTFTTQE-EYQRAIDSIEECLNKQLRLSSEKVDQYVLIENWTSLVGHLKTLHSLISNYTNGRELQNEISSLLKQDKELDLQIQDCMREMTSIYDTHLPKTQKVNAETLLDYGRKLSKFSSAPWPSEDQMRKTLLFQFSTSMVPNLSATASQLFSEQTKMNYPASPTFTTQE-EYQRAIDSIEECLNKQLRLSSEKVDQYVLIENWTSLVGHLKTLHSLISNYTNGRELQNEISSLLKQDKELDLQIQDCMREMTSIYDTHLPKTQKVNAETLLDYGRKLSKFSSAPWPSEDQMRKTLLFQFSTSMVPNLSATASQLFSEQTKMNYPASPTFTTQE-EYQRAIDSIEECLNKQLRLSSEKVDQYVLIENWTSLVGHLKTLHSLISNYTNGRELQNEISSLLKQDKELDLQIQDCMREMTSIYDTHLPKTQKVNAETLLDYGRKLSKFSSAPWPSEDQMRKTLLFQFSTSMVPNLSATASQLFSEQTKMNYPASPTFTTQE-EYQRAIDSIEECLNKQLRLSSEKVDQYVLIENWTSLVGHLKTLHSLISNYTNGRELQNEISSLLKQDKELDLQIQDCMREMTSIYDTHLPKTQKVNAETLLDYGRKLSKFSSAPWPSEDQMRKTLLFQFSTSMVPNLSATASQLFSEQTKMNYPASPTFTTQE-EYQRAIDSIEECLNKQLRLSSEKVDQYVLIENWTSLVGHLKTLHSLISNYTNGRELQNEISSLLKQDKELDLQIQDCMREMTSIYDTHLPKTQKVNAETLLDYGRKLSKFSSAPWPSEDQMRKTLLFQFSTSMVPNLSATASQLFSEQTKMNYPASPTFTTQE,ECLKCLKCLC-CPYCGLKCPC-CPKCGLKCPK-GCYKCLKECC-ECYECLKKCC-KKVEECKKKC-KKVEECKKCG-ECLECLKKCC-KKVEECKKCG-KEGHVCPKCG,RQFSELVQKD-RQFSELVQKD-RQFSELVQKD-RQFSELVQKD-RQFSELVQKD-RQFSELVQKD-RQFSELVQKD-RQFSELVQKD-RQFSELVQKD-RQFSELVQKD
17.0,151,161,B,10,GSHMAALEAQLARTRAAVAALEAAVAALDASTPLAAVPALAARLAADLAALPALAAAVRVRVPAAVAAALAAGRDPAALAAAVAARAAAEAAARAEGARARAGALAAALAALAAAVPAAAAALAAALAAGAAP-GADLAALEAALARTRAAVAALEAAVAALDAATPLAAVPALAARLAADLAALPALAARVRVAVPAEVAAALAAGRDPAALAAARAARAAAEAAARAEAARARAGALLAAAAAAAAAAPAAAAALAAALAAGAAP-GSHMAALEAELARTRAAVAALEAAVAALDASTPLAAVPALAARLVEGLRALPALAAAVRGAVPAEVAAAVAAGRDPAALAAARAARAAAEAAARAGAAAARAGAAAAAAAALAAALPAVAAAVAAAAAAGAAA-GSHMEALEAELRRTEEAVRALEEAVRNLSADVPVEAVPALAARLVEGLRRLPELAARVRVRVPEEVARMVAEGRDPLEYVRRVVEKAVREAVARAEEALRRAEEALRAAEEAARAVPEVAEALAAAAAAAAAA-GSHMAALEAELARTRAAVAALEAAVAALDAATPVAAVPALAARLAADLAALPALAAAVRVRVPAEVAAAVAAGRDPAALAAARAARAAAEAAARAGAAAARAGAAAAAAAALAAALPAVAAAVAAAAAAGAAA-GSHMAALEAELARTRAAVAALEAAVAALDAATPLAAVPALAARLAADLAALPALAAAVRVRVPAAVAAAVAAGRDPAALAAAVAARAAAEAAARAGGLRARLGALEAALAALAAAVPAVAADLAALRAAGAAA-GSHMEALEAELRRTEAAVAALEAAVAALDASTPLAAVPALAARLAEGLAALPALAAAVRVEVPAEVAAAVAAGRDPLALVRARLERAVREARARAEGLRARAEALLAAAEALAAAEPAVAADLAALAAAGAAA-GSHMAALEAELARTRAAVAALEAAVAALDASTPLAAVPALAARLAADLAALPALAAAVRVEVPAEVAAAVAAGRDPAALAAARAARAAAEAAAAAEAARAAAGAALAAAAAAAAAAPAAAAALAAAAAAGAAA-GSHMEALEAQLRRTREAVAALEAAVAALRADVPAEAVPALAARLVEDLRALPALAAAVRGRVPAEVAERLAAGRDPLEYLRAVLERRVREARARAEGLRARAEALLAAVEAAARAVPERAAELAALLAAGLPP-GSHMEALEAQLRRTEEAIAALEAAVAALSADTPLAAVPALAARLVEDLRALPALAAAVRVEVPAEVAAAVAAGRDPAELARLRAERAVAEARARAEGLRARAEALAAALEALAAAVPEVAADLAALAAAGAAP,TDEMKSLASRLEDTTQAFYDLALIVYNLEDTTPSDAIPESLDTLIRDLKSLPDISRKVNNLIPQDVLEYIEQGRNPDVYARQFSELVQKDNQYVNGKLYAIEGFQKAFAEEIKQAYPEVSSVVDKILNEGKVE-TDEMKSLASRLEDTTQAFYDLALIVYNLEDTTPSDAIPESLDTLIRDLKSLPDISRKVNNLIPQDVLEYIEQGRNPDVYARQFSELVQKDNQYVNGKLYAIEGFQKAFAEEIKQAYPEVSSVVDKILNEGKVE-TDEMKSLASRLEDTTQAFYDLALIVYNLEDTTPSDAIPESLDTLIRDLKSLPDISRKVNNLIPQDVLEYIEQGRNPDVYARQFSELVQKDNQYVNGKLYAIEGFQKAFAEEIKQAYPEVSSVVDKILNEGKVE-TDEMKSLASRLEDTTQAFYDLALIVYNLEDTTPSDAIPESLDTLIRDLKSLPDISRKVNNLIPQDVLEYIEQGRNPDVYARQFSELVQKDNQYVNGKLYAIEGFQKAFAEEIKQAYPEVSSVVDKILNEGKVE-TDEMKSLASRLEDTTQAFYDLALIVYNLEDTTPSDAIPESLDTLIRDLKSLPDISRKVNNLIPQDVLEYIEQGRNPDVYARQFSELVQKDNQYVNGKLYAIEGFQKAFAEEIKQAYPEVSSVVDKILNEGKVE-TDEMKSLASRLEDTTQAFYDLALIVYNLEDTTPSDAIPESLDTLIRDLKSLPDISRKVNNLIPQDVLEYIEQGRNPDVYARQFSELVQKDNQYVNGKLYAIEGFQKAFAEEIKQAYPEVSSVVDKILNEGKVE-TDEMKSLASRLEDTTQAFYDLALIVYNLEDTTPSDAIPESLDTLIRDLKSLPDISRKVNNLIPQDVLEYIEQGRNPDVYARQFSELVQKDNQYVNGKLYAIEGFQKAFAEEIKQAYPEVSSVVDKILNEGKVE-TDEMKSLASRLEDTTQAFYDLALIVYNLEDTTPSDAIPESLDTLIRDLKSLPDISRKVNNLIPQDVLEYIEQGRNPDVYARQFSELVQKDNQYVNGKLYAIEGFQKAFAEEIKQAYPEVSSVVDKILNEGKVE-TDEMKSLASRLEDTTQAFYDLALIVYNLEDTTPSDAIPESLDTLIRDLKSLPDISRKVNNLIPQDVLEYIEQGRNPDVYARQFSELVQKDNQYVNGKLYAIEGFQKAFAEEIKQAYPEVSSVVDKILNEGKVE-TDEMKSLASRLEDTTQAFYDLALIVYNLEDTTPSDAIPESLDTLIRDLKSLPDISRKVNNLIPQDVLEYIEQGRNPDVYARQFSELVQKDNQYVNGKLYAIEGFQKAFAEEIKQAYPEVSSVVDKILNEGKVE,AAPAAPALAA-AAPAAPALAA-AAPAAPALAA-AAPADPEFRA-AAPAAPALAA-AAPAAPALAL-AAPADPAFRA-AAPAAPALAA-AAPADPAFRA-AAPADPAFRA,NYPASPTFTT-NYPASPTFTT-NYPASPTFTT-NYPASPTFTT-NYPASPTFTT-NYPASPTFTT-NYPASPTFTT-NYPASPTFTT-NYPASPTFTT-NYPASPTFTT
