contacts,cs,ce,Chain,Length,designed_receptor_seq,native_receptor_seq,designed_binder_seq,native_binder_seq
20.0,29,39,A,10,MESAKEAYEASRAVRAEVKEVIKTLNRTLDIVQSATGVQPHPIIEAELVQLQERLTVLNDLIEEHEDIFKSGACHLAINVDAISEKEEWNAFFSRQRSPAQTEKRQRLLKKTEEVEAYMPTEKVEEDAARINDALRVVEATYERSAHALTTAGVAQNILGQQGTSFNLQDTIDQIKAQVAEADKALSVAQSALDSGSE-GHMAREFMEAIKRVSYELKELILVRQHLDEVINQYAAKSSLPLITSLLALINEENEDIKLDLLEYEEIFSEAKIVVEDVLTSIQFTGFLEQLFSTELSDNKKRQVEEIKERLKELVSEKESEEIVREFQKFNQFCNEVLEEKQKEELARKYFDIFRTDEEKSGFNVDFEGLVQFITKKVKHFEKQFKDLEEEVANGAL-SHMTTAIETAYEALLTGLRVQRSHLLHAYRTIRSESQGVPAPLVLARVRRLEHELGHIERLLKQYEPVFQLGDVRLEGSAGSAAEAPLFDSLASAGLSEAAKQKSLDLYYRFLTFKALAEADVLLEAAAAENGRRRELLAMTEAQLDALEWDREAETIAIRNGEKVDLAGERTRLFDRLKVFEEASQQAREDLQRGAG-SRRLREFADAIDQLIFALEDILFHLNQGENIIRLRENSVPAPIMMQQIGIAEEKMEEACFLVQKFQDVLEKMKITSGEGAEKFSDNSVFDELFSIEIGKTQEAAKKQLQVARQALLQIVNEDILGTELVNVERKNREILRIFKDLEGTKDRILFLDDEDTIAGVLIRNDTLSKELLNAMNKYSDALVEVEEHIQKGEF-QGDTEDFAYAFDLVMHKVRKVRNVTNLVQQYQESRAESLPIPYVSFLYRVISKRFKEIDETCALYSSEIRQARFVISEEIGEDVFTSHAKKLFTKKKDEDEETARRDRERAYQILLSISPLEFRRETDRRINAICKQILDCFSKADHYEIRDEIESMKEDLAGTHVSVSRSEKQVQDFKNQMKKCEELIEADMKVGVN-SRARQEYYAAILKLNVAVKELSLTMDYTSQIVNSTKMLPPVPVIVQRSHVCSQRIYQIKKLMRKYARVFTEYTVLVDGNFQEVMETEFFDKLLSNQLAPELQAEIQHKRLELEEVIRRCGFEMVLREEIANGLRAQAELNLYIKLANSLVQDELILDEQGRLGFVMDVEAIEREKRRLEEETAELKAKIENERRHGIN-AHDNQNWILAISKYCTAVGYIAVHTHYQEIITRVDKAEQSAPVLASLDTHLKQELISIKNIRQEYMEIFTKQIVTGTEQAGILSDIKMGEALYSIKMKPSTQQMKLNAINIEHILLSEVDRAIWNEKKKYIRRQYEEIYERYQYTNRSLCFRNYQQTRAEKKNWTFSLEKLQRWLHNTSESLKGKQKYVSSCESLKSS-MDKYNNFVLAIAELTQATGKSVLDRQNFINIIRSSIDSVKDPVIKEMESQSKRRFKGINELYEKNKEIFEEANINISANSGVLAKDDLFKDMFSNQVEPEILNQIEDIRSMTEKIREKVDESRLVNLMELWDRMKQFELEMQKQREARKVFQRVVKTEADKKYEQVNIQSVKEGIKVAKERAERAEKFKRLDELIGDE-MRDLDEYFVAAGELSRQVSVLVLELTQFEVELRKQKEEQPLPILEKMLHVLDSEVRKILKSLQKYHDVFTSVDYKEVGKLNLMLADEWWDKTFSTKMSPKTEEAKQILLGCHEILIHFTKEETLNKVTGEVDEGITKLYEAQQVLMNNVTFDEVDLTDEKKEERKVNLEELKNLVSDHMRKALEEAEYALKAIKEKKP-SHMEAAAKQATSEIASAIGEFSRTLVDLAEEIEKQSSFCPKPRLVKSFQVCKDKTKVITALIEKHKEIFQEFKFEPEEEANKIKVSEIWDLALSTELEPEEKERRKVQLKHYEKEIEKSDTDERIACIKEANLQEIKRHIDYVDHVNSLPNRAIKENILEQLGEETNTELELLRRAINLKVEFTENVKERLDKAGVAD,DISTEKTVESLEAIRHRIAQIVQSLTHFLAILHQSESLSPWPTIHKNFNILLSQIHSLSNNLAAHSHTLQTTSIYPSLEFPVKEQEPLLTTLLRTKALPEVEEWEANTLQEYEASISSQPKKKEANDAYQKDQLWDQARIIFMEERENYSWFDFVTRRQESEGEFVSQRQLEIDRATEEQNANQMLTDILSFMKSGKR-DISTEKTVESLEAIRHRIAQIVQSLTHFLAILHQSESLSPWPTIHKNFNILLSQIHSLSNNLAAHSHTLQTTSIYPSLEFPVKEQEPLLTTLLRTKALPEVEEWEANTLQEYEASISSQPKKKEANDAYQKDQLWDQARIIFMEERENYSWFDFVTRRQESEGEFVSQRQLEIDRATEEQNANQMLTDILSFMKSGKR-DISTEKTVESLEAIRHRIAQIVQSLTHFLAILHQSESLSPWPTIHKNFNILLSQIHSLSNNLAAHSHTLQTTSIYPSLEFPVKEQEPLLTTLLRTKALPEVEEWEANTLQEYEASISSQPKKKEANDAYQKDQLWDQARIIFMEERENYSWFDFVTRRQESEGEFVSQRQLEIDRATEEQNANQMLTDILSFMKSGKR-DISTEKTVESLEAIRHRIAQIVQSLTHFLAILHQSESLSPWPTIHKNFNILLSQIHSLSNNLAAHSHTLQTTSIYPSLEFPVKEQEPLLTTLLRTKALPEVEEWEANTLQEYEASISSQPKKKEANDAYQKDQLWDQARIIFMEERENYSWFDFVTRRQESEGEFVSQRQLEIDRATEEQNANQMLTDILSFMKSGKR-DISTEKTVESLEAIRHRIAQIVQSLTHFLAILHQSESLSPWPTIHKNFNILLSQIHSLSNNLAAHSHTLQTTSIYPSLEFPVKEQEPLLTTLLRTKALPEVEEWEANTLQEYEASISSQPKKKEANDAYQKDQLWDQARIIFMEERENYSWFDFVTRRQESEGEFVSQRQLEIDRATEEQNANQMLTDILSFMKSGKR-DISTEKTVESLEAIRHRIAQIVQSLTHFLAILHQSESLSPWPTIHKNFNILLSQIHSLSNNLAAHSHTLQTTSIYPSLEFPVKEQEPLLTTLLRTKALPEVEEWEANTLQEYEASISSQPKKKEANDAYQKDQLWDQARIIFMEERENYSWFDFVTRRQESEGEFVSQRQLEIDRATEEQNANQMLTDILSFMKSGKR-DISTEKTVESLEAIRHRIAQIVQSLTHFLAILHQSESLSPWPTIHKNFNILLSQIHSLSNNLAAHSHTLQTTSIYPSLEFPVKEQEPLLTTLLRTKALPEVEEWEANTLQEYEASISSQPKKKEANDAYQKDQLWDQARIIFMEERENYSWFDFVTRRQESEGEFVSQRQLEIDRATEEQNANQMLTDILSFMKSGKR-DISTEKTVESLEAIRHRIAQIVQSLTHFLAILHQSESLSPWPTIHKNFNILLSQIHSLSNNLAAHSHTLQTTSIYPSLEFPVKEQEPLLTTLLRTKALPEVEEWEANTLQEYEASISSQPKKKEANDAYQKDQLWDQARIIFMEERENYSWFDFVTRRQESEGEFVSQRQLEIDRATEEQNANQMLTDILSFMKSGKR-DISTEKTVESLEAIRHRIAQIVQSLTHFLAILHQSESLSPWPTIHKNFNILLSQIHSLSNNLAAHSHTLQTTSIYPSLEFPVKEQEPLLTTLLRTKALPEVEEWEANTLQEYEASISSQPKKKEANDAYQKDQLWDQARIIFMEERENYSWFDFVTRRQESEGEFVSQRQLEIDRATEEQNANQMLTDILSFMKSGKR-DISTEKTVESLEAIRHRIAQIVQSLTHFLAILHQSESLSPWPTIHKNFNILLSQIHSLSNNLAAHSHTLQTTSIYPSLEFPVKEQEPLLTTLLRTKALPEVEEWEANTLQEYEASISSQPKKKEANDAYQKDQLWDQARIIFMEERENYSWFDFVTRRQESEGEFVSQRQLEIDRATEEQNANQMLTDILSFMKSGKR,YAADGRSSPS-QLKFLQNAVR-EAERLRNRRK-FMHILQGSWA-LYQKLEASVN-ILEEKVKSVL-PLTKLKASAF-DTEKLEKGFI-FYYNLYMAKW-YQDKLTFNHT,FQDILDIAIN-FQDILDIAIN-FQDILDIAIN-FQDILDIAIN-FQDILDIAIN-FQDILDIAIN-FQDILDIAIN-FQDILDIAIN-FQDILDIAIN-FQDILDIAIN
15.0,129,139,B,10,GPSFLQLQQCSWRSIQEIKSFCLNIQVNMGKQMDIIKSDLSNNDLLKRPKEIMRAELRQGIEFANQGIGVVAGLKILSQQTHCGLAGVDLGVNQKPDITAVLENRQRKASKDITTHRYC-GPSEKSKLTNLTSTLESYDEFYKNEIYTSQDLINKLEKKEDFNQASIKKIQSAHESLIKNIAYATTGLAVIEKLIDLLNNTVSHRNKEEEREVERPDAIKEYLETLKEKVKDKEVKTRG-MVSIDDALELLLEELLSKYSNAISTCESNRKEIMDLLSATGSNPGDEIPAEYKIEFLRKAIKGADATIKEIRKTVTDIASSLPLVAGDHEISNAPPDMSFTQKEVERKLWKDCIVRATP-MRSYEEEVHKLLQKLAAAEVHAVTTIGACKQMLGKLQETAGANSTVTVLKEQCAKTLQSRIVAADVELKKIKRGRQILLNFLDQADAAPAPPEDKPATLQSLQQAVEKALGDTQVGEVT-APTADDAYQAYRAQTLAQYRSAENRITQTQSHIDELRTTGAGLSYEEQAKQAAITKLQAERTQARAELQTIEADVNKAIADAKLTYGTRLNRASTPHPHRALDAAINTATQNHQQTQSQ-KETKLEKAANVHERVLFLQQDDINRIFLSHREIMELQASVMAAPGVDAVKKAKQRWLKLEIEAARNGLKEIARFQTNACEYLDIQICKKGISQVAPDDLTPFTEFVEKKTIGTTIKANP-GPTGAMRRSGWENAAVTGGTTALTRISANFADILTKANNAGAGAGELKALAVADTALRVGILVAVADLQTLDRIRAARVAARATSETTQKLAVQKPELTRRINDAITAATANQALGELP-KPSSVGRLGGFWLELYSAFSHSLNTILEESREIAILLGNSGDKPGTIEAKQQALKAKNESVDRAIKQLDVITTRVENIEAAFPTVTGGAVKTTIRPDKRSSTQNSLKAFFKGRTTHGAE-GGSLLDSVNTFINEIDTLDSTAQDTITNCQDLILKLSDDANNNIIYDQPKSINLALLKKQIKDAQDAQTVITKMITMFKSALQAENKSPSFSYSQPNYQTSLQALVDSLTQNKTLQAPS-GPLGSASLQGLSTALNSEYTMYQGQISGSEEEIGKNSARKKRHPGEAKAHDNLSAGLRKAVDKAKEGITNIDRQIGYLEECVKVGKEELISNEVRPDILSNIKTAFNEATKDVDVKAPG,SDSFQRQLVQRTNTLNSSIDNATLTILSRFQDILDIAINEGKDKYTVAPEVYQIECHTVSMVRAVEQLLDVSRQIKSYWLTNSLSTSFPTVDYSEPDLEKVKRTLTKLQNHLLEVSLIE-SDSFQRQLVQRTNTLNSSIDNATLTILSRFQDILDIAINEGKDKYTVAPEVYQIECHTVSMVRAVEQLLDVSRQIKSYWLTNSLSTSFPTVDYSEPDLEKVKRTLTKLQNHLLEVSLIE-SDSFQRQLVQRTNTLNSSIDNATLTILSRFQDILDIAINEGKDKYTVAPEVYQIECHTVSMVRAVEQLLDVSRQIKSYWLTNSLSTSFPTVDYSEPDLEKVKRTLTKLQNHLLEVSLIE-SDSFQRQLVQRTNTLNSSIDNATLTILSRFQDILDIAINEGKDKYTVAPEVYQIECHTVSMVRAVEQLLDVSRQIKSYWLTNSLSTSFPTVDYSEPDLEKVKRTLTKLQNHLLEVSLIE-SDSFQRQLVQRTNTLNSSIDNATLTILSRFQDILDIAINEGKDKYTVAPEVYQIECHTVSMVRAVEQLLDVSRQIKSYWLTNSLSTSFPTVDYSEPDLEKVKRTLTKLQNHLLEVSLIE-SDSFQRQLVQRTNTLNSSIDNATLTILSRFQDILDIAINEGKDKYTVAPEVYQIECHTVSMVRAVEQLLDVSRQIKSYWLTNSLSTSFPTVDYSEPDLEKVKRTLTKLQNHLLEVSLIE-SDSFQRQLVQRTNTLNSSIDNATLTILSRFQDILDIAINEGKDKYTVAPEVYQIECHTVSMVRAVEQLLDVSRQIKSYWLTNSLSTSFPTVDYSEPDLEKVKRTLTKLQNHLLEVSLIE-SDSFQRQLVQRTNTLNSSIDNATLTILSRFQDILDIAINEGKDKYTVAPEVYQIECHTVSMVRAVEQLLDVSRQIKSYWLTNSLSTSFPTVDYSEPDLEKVKRTLTKLQNHLLEVSLIE-SDSFQRQLVQRTNTLNSSIDNATLTILSRFQDILDIAINEGKDKYTVAPEVYQIECHTVSMVRAVEQLLDVSRQIKSYWLTNSLSTSFPTVDYSEPDLEKVKRTLTKLQNHLLEVSLIE-SDSFQRQLVQRTNTLNSSIDNATLTILSRFQDILDIAINEGKDKYTVAPEVYQIECHTVSMVRAVEQLLDVSRQIKSYWLTNSLSTSFPTVDYSEPDLEKVKRTLTKLQNHLLEVSLIE,VNEVLEKVKD-MQNLITKTSK-TFIEFTKRLQ-EADKVLRIAS-GGNLIDRILR-DYNIFIEERI-PGTGMAKAFN-KLDEIKYQLR-YRNILNIIQK-AENRRLEMLS,QKDQLWDQAR-QKDQLWDQAR-QKDQLWDQAR-QKDQLWDQAR-QKDQLWDQAR-QKDQLWDQAR-QKDQLWDQAR-QKDQLWDQAR-QKDQLWDQAR-QKDQLWDQAR
