contacts,cs,ce,Chain,Length,designed_receptor_seq,native_receptor_seq,designed_binder_seq,native_binder_seq
16.0,119,129,A,10,GPTEEEKLQALINELKAKEEAAKKAIEDANKEIEELKDDSEATPEEKLKKEYEIKKLEAKVKEAEAELKKIEAKKKELEEKLKLEKGELKVEKKEPDLKALFEEAVKKATENVEVKEAE-GPTLEELKEGLIKALEAAETAAKAAIEAANKEIEDLKDDSEADPAALVPKAVAIKALEAAVEAAKAALEAIEAAKKALEEALPVEEGEEVEVEVEPDLEAAVKAAVEAAVKDVEVEAAP-GPTAEELLQGLVQALEGLESAAQSAITAAQATIDALSDDSDADPAVLTPKAVAIAALQAAIAAAQAALGSIAAAQTALAQALPVAAGAAAAAAAAPDLAAAFAAAFAAATAGVTVTAAA-GPTAEELVQGLVQALEAAETAAQTAITAANARIAELSDTTGATPAELLPKAVAIAALQAAVTAAQAALTAVATAKTALATALPTATGTATTTTTTPDLAAAFTAAATAATANTTTTAAT-GPTLEELKQGLINALKAAETAAQNAITAANAEIAALSDTSGADPAALTAKAVAIKALQAAVTAAQNALTAIATAKTALTNALPTATGTATTTTTTPNLTAAFNAAITAATANTTTTAAT-GPSGSELLEGLVRELERRRTAAERRIAEARAEIARLADDAGADPAARLRREVALRRLRAEVEAARAELARIDALVAELRAALPLAAGAPAPAAAPPDLAARLRAALAAALAGRRVRAAP-GPTAEELVEGLVEELKRRREAAERRIEEARRRIEELREEEEADPAELVEKAVALVELEREVEEARRELEEIERLVEELREALEVEEGEEEEEEEEPDLEEELREALREALREVEVEEEE-GPTAEELITGLINELKARRDAAEKRIADANAEIARLSDDSGADPAALAPKALAIKQLKAEVEAAKAELAEIDALIAKLKADLPVAAGAAAPAAAAPDLAAAVAAAVAAAVKDKTVTAAA-GPTAEELVQGLINELKSRETAAKDRIAAANKEIEELKDDSDADPAALVPKAVAIKALEAEVKAAEAELKEIEALKKKLEADLKLDLGEEKVEVKVPDLEAVVKAFVKAFVKDKEVKAAP-GPTAEELVQGLVEALKAAETAAQTAIDAANAEIARLSDDSGADPAALLPKAVAIAALKAAVEAAKAALGDIEAAKAALAAAAAAAAAAAAAAAAAPDLAAAVAAAVAAAVADVEVTAAA,SDSFQRQLVQRTNTLNSSIDNATLTILSRFQDILDIAINEGKDKYTVAPEVYQIECHTVSMVRAVEQLLDVSRQIKSYWLTNSLSTSFPTVDYSEPDLEKVKRTLTKLQNHLLEVSLIE-SDSFQRQLVQRTNTLNSSIDNATLTILSRFQDILDIAINEGKDKYTVAPEVYQIECHTVSMVRAVEQLLDVSRQIKSYWLTNSLSTSFPTVDYSEPDLEKVKRTLTKLQNHLLEVSLIE-SDSFQRQLVQRTNTLNSSIDNATLTILSRFQDILDIAINEGKDKYTVAPEVYQIECHTVSMVRAVEQLLDVSRQIKSYWLTNSLSTSFPTVDYSEPDLEKVKRTLTKLQNHLLEVSLIE-SDSFQRQLVQRTNTLNSSIDNATLTILSRFQDILDIAINEGKDKYTVAPEVYQIECHTVSMVRAVEQLLDVSRQIKSYWLTNSLSTSFPTVDYSEPDLEKVKRTLTKLQNHLLEVSLIE-SDSFQRQLVQRTNTLNSSIDNATLTILSRFQDILDIAINEGKDKYTVAPEVYQIECHTVSMVRAVEQLLDVSRQIKSYWLTNSLSTSFPTVDYSEPDLEKVKRTLTKLQNHLLEVSLIE-SDSFQRQLVQRTNTLNSSIDNATLTILSRFQDILDIAINEGKDKYTVAPEVYQIECHTVSMVRAVEQLLDVSRQIKSYWLTNSLSTSFPTVDYSEPDLEKVKRTLTKLQNHLLEVSLIE-SDSFQRQLVQRTNTLNSSIDNATLTILSRFQDILDIAINEGKDKYTVAPEVYQIECHTVSMVRAVEQLLDVSRQIKSYWLTNSLSTSFPTVDYSEPDLEKVKRTLTKLQNHLLEVSLIE-SDSFQRQLVQRTNTLNSSIDNATLTILSRFQDILDIAINEGKDKYTVAPEVYQIECHTVSMVRAVEQLLDVSRQIKSYWLTNSLSTSFPTVDYSEPDLEKVKRTLTKLQNHLLEVSLIE-SDSFQRQLVQRTNTLNSSIDNATLTILSRFQDILDIAINEGKDKYTVAPEVYQIECHTVSMVRAVEQLLDVSRQIKSYWLTNSLSTSFPTVDYSEPDLEKVKRTLTKLQNHLLEVSLIE-SDSFQRQLVQRTNTLNSSIDNATLTILSRFQDILDIAINEGKDKYTVAPEVYQIECHTVSMVRAVEQLLDVSRQIKSYWLTNSLSTSFPTVDYSEPDLEKVKRTLTKLQNHLLEVSLIE,AKVKEAEAKL-EEVKAAVEAL-AAVAAAQAAL-ATATAAATAL-TTTTTTTTTT-PEVAAARAAL-EEVEEALREL-AAVAAAKAAL-AAVAAAKAAL-AAAAAAAAAL,RMLNATYCFQ-RMLNATYCFQ-RMLNATYCFQ-RMLNATYCFQ-RMLNATYCFQ-RMLNATYCFQ-RMLNATYCFQ-RMLNATYCFQ-RMLNATYCFQ-RMLNATYCFQ
19.0,42,52,B,10,MDLSKVKWSDPEFVKKYGGLNRLTVLEFLRHSPYFEEDSVLEKWLKSVKDKRFTLGELYRELEKEKGLVYVIKEYDPPRRALIEKRYKEKPGKEKVLKEIEVKDGVILSKPEEEEVKARLRVEEALKKALELAKKALEPLVDPEKGVLLPPPEELKKLLEELEKLLEELKK-GSHMGEVWSDPEFVKSVGGLNRLTVLKLLRRSPYFEEDSVLEKWLKSVEDKRFTLGELRRKLEEEKGLVYVIEEYDPPRRALIRKVFKEKPGEEKVLRRIEVRDGVLRYAPPREEVLARARVEAALRAAEEALREALEPLVDPERGVLLPPPEELERLREEVERLREELER-MDLSKIEWSDPEFVKKYGGLNRLTVLEFLRLSPYFEEDSVLEKFLKSVKDKRFTLGELYRELEKEKGLVYVIKEYDPPRRALIEKRFKEKPGKEVVLKEIEVENEKILFKPEEEEVKARLRVEEALKKALELAKKALEPLVDPEKGVLLPPPEELKKLLEEVKKLLEEAKK-MDLSGVTWSDPEFVKKVGRLTRTTVLELLRHSPYFEEDSLLAKWLKSVKDRRFTWGELLRELERAKGLVYVIAEYDPPRRALIEKRFRPEPGKEVVLRRIEVRDGVLRSAPPLEEVLARARVEAARRALEEALREARRPLVDPVLGVLRPPPEELERLREEVERLREELRR-MDLSGIEWSDPEFVKKVGGLNRLTVLRLLRESPYFEEDSLLAKFLKSVKDKRFTLGELYRELEKAKGLVYVIKEYDPPRRALIEKRFRPEPGKEVVLRRIEVEDGKIRFAPEEEEVRARLRVEAARRLLEELERLRKEPLVDPLLGVLLPPPEELEKLREELERLREELER-MDLSKVKWSDPEFVKKVGGLNRLTVLRFLRESPYFEEDSLLEKWLKSVKDKRFTLGELYRELEKSKGLVYVIKEYDPPRRALIEKRFKEKPGKEKVLREIEVKDGVILSKPEEEEVKARLRVEEARKKLEEALKKALEPLVDPEKGVLLPPPEELEKLKEEVEKLKEELEK-MDLSGITWSDPEFVKKVGRLTRTTVLELLRHSPYFEEDSVLAKFLKSVKDKRFTLGELRRLLEEEKGLVYVIAEYDPPRRALIEKRFKPEPGKEVVLRRIEVRDGVLRAAPEEEEVRARLLVEAARKALEEARKLAEKPLVDPLLGVLLPTPEELRRLLEEARRLAEEARR-GSMSGVVWSDPEFVKKVGGLNRLTVLRYLRESPYFEEDSVLEKWLRSREGERFTLGELRRELEKEKGLVYVIAEYDPPRRARIEKRFKERPGREVVLRRIEVEEGVLRAAPPLEEVLAEALRRAAEEALRRAEELARRPLVDPERGVLLPPPEELERLREEVERLREELER-MDLSKVTWSDPEFVKKVGGLTRTTVLELLRHSPYFEEDSVLAKWLKSVKDKRFTWGELLRELEKEKGLVYVIKEYDPPHRALIAKVFKEKPGKEKVLREIEVKDGVIRFKPPKEEVLARLRVEAARKALEEALKKAKEPLVDPEKGVLLPPPEELKKLLEEALKKAKEEAE-MDLSGVVWSDPEFVKKVGGLNRLTVLRLLRESPYFEEDSVLEKLLKERKDERFTLGELLRELEKEKGLVYVIAEYDPPRRARIAKVFKEEPGKEKVLREIEVRDGVLRAKPEEEEVKARLRAELARLALEKALEEAKKPLVDPEKGVLLPPPEELEKLKEELEKLKEELEK,VDLTSIQWRMPEWVQSMGGLRTENVLEYFSQSPFYSHKSNNEMLKMQSQFNALDLGDLNSQLKRLTGIQFVIIHERPPFLWVIQKQNRLNENEVKPLTVYFVCNENIYMAPNAYTLLATRMLNATYCFQKALTKIEKFPQYNPQEGYTYPSPEDFSVVRAFMQSLHSSKEA-VDLTSIQWRMPEWVQSMGGLRTENVLEYFSQSPFYSHKSNNEMLKMQSQFNALDLGDLNSQLKRLTGIQFVIIHERPPFLWVIQKQNRLNENEVKPLTVYFVCNENIYMAPNAYTLLATRMLNATYCFQKALTKIEKFPQYNPQEGYTYPSPEDFSVVRAFMQSLHSSKEA-VDLTSIQWRMPEWVQSMGGLRTENVLEYFSQSPFYSHKSNNEMLKMQSQFNALDLGDLNSQLKRLTGIQFVIIHERPPFLWVIQKQNRLNENEVKPLTVYFVCNENIYMAPNAYTLLATRMLNATYCFQKALTKIEKFPQYNPQEGYTYPSPEDFSVVRAFMQSLHSSKEA-VDLTSIQWRMPEWVQSMGGLRTENVLEYFSQSPFYSHKSNNEMLKMQSQFNALDLGDLNSQLKRLTGIQFVIIHERPPFLWVIQKQNRLNENEVKPLTVYFVCNENIYMAPNAYTLLATRMLNATYCFQKALTKIEKFPQYNPQEGYTYPSPEDFSVVRAFMQSLHSSKEA-VDLTSIQWRMPEWVQSMGGLRTENVLEYFSQSPFYSHKSNNEMLKMQSQFNALDLGDLNSQLKRLTGIQFVIIHERPPFLWVIQKQNRLNENEVKPLTVYFVCNENIYMAPNAYTLLATRMLNATYCFQKALTKIEKFPQYNPQEGYTYPSPEDFSVVRAFMQSLHSSKEA-VDLTSIQWRMPEWVQSMGGLRTENVLEYFSQSPFYSHKSNNEMLKMQSQFNALDLGDLNSQLKRLTGIQFVIIHERPPFLWVIQKQNRLNENEVKPLTVYFVCNENIYMAPNAYTLLATRMLNATYCFQKALTKIEKFPQYNPQEGYTYPSPEDFSVVRAFMQSLHSSKEA-VDLTSIQWRMPEWVQSMGGLRTENVLEYFSQSPFYSHKSNNEMLKMQSQFNALDLGDLNSQLKRLTGIQFVIIHERPPFLWVIQKQNRLNENEVKPLTVYFVCNENIYMAPNAYTLLATRMLNATYCFQKALTKIEKFPQYNPQEGYTYPSPEDFSVVRAFMQSLHSSKEA-VDLTSIQWRMPEWVQSMGGLRTENVLEYFSQSPFYSHKSNNEMLKMQSQFNALDLGDLNSQLKRLTGIQFVIIHERPPFLWVIQKQNRLNENEVKPLTVYFVCNENIYMAPNAYTLLATRMLNATYCFQKALTKIEKFPQYNPQEGYTYPSPEDFSVVRAFMQSLHSSKEA-VDLTSIQWRMPEWVQSMGGLRTENVLEYFSQSPFYSHKSNNEMLKMQSQFNALDLGDLNSQLKRLTGIQFVIIHERPPFLWVIQKQNRLNENEVKPLTVYFVCNENIYMAPNAYTLLATRMLNATYCFQKALTKIEKFPQYNPQEGYTYPSPEDFSVVRAFMQSLHSSKEA-VDLTSIQWRMPEWVQSMGGLRTENVLEYFSQSPFYSHKSNNEMLKMQSQFNALDLGDLNSQLKRLTGIQFVIIHERPPFLWVIQKQNRLNENEVKPLTVYFVCNENIYMAPNAYTLLATRMLNATYCFQKALTKIEKFPQYNPQEGYTYPSPEDFSVVRAFMQSLHSSKEA,EPEKKVLEEV-EPEERVLEEV-EPEKKVLEEV-EEARRVLEEV-EPEEELLRRV-EEAKKLLEEV-EPWRRVLEEV-EPERLLLLLA-EEEKKVLEEV-EEEKKLLEEV,DKYTVAPEVY-DKYTVAPEVY-DKYTVAPEVY-DKYTVAPEVY-DKYTVAPEVY-DKYTVAPEVY-DKYTVAPEVY-DKYTVAPEVY-DKYTVAPEVY-DKYTVAPEVY
