contacts,cs,ce,Chain,Length,designed_receptor_seq,native_receptor_seq,designed_binder_seq,native_binder_seq
21.0,104,114,A,10,PESLEKLQRELQELEADNYRINHLTQTNSRRVPDALVEQAKKRLVENRRLIPRLQADVKYQYPEKALERVNEGWNIADLLKEEADELRRLSREIFEGKKRTAGEYLAKLIHFTKAYPEEESLGLAILNSGISM-SKENYAFRTVMAQTAEAITQLKDMVANASQDLPFEDVPQQFKQLSEMLKQLPSEAAKRDLVVPSTVMLMKMAGVDPALISAIDDLDRSTSSVKVANERKRWLGLSLTAIADEIAARPERATMLQAEMIAMTDH-GSELLRLMAQLDETVALVSATQTAVDHLTSTMPAIEIPRLCYSLVIAVERIPTLHAEAKFKVPTLVQTMVCLGVAPATYLKLSNDRVVAVAQEAASGKAIVRGKALRAMEKFSVETPANNATIRKLADAGKAH-HMSSKRLVATALDTASALTSLMMLIEELSEDVPAARIPYALKNLVASLEALPELTKEVASTVPEYVVDAALQGRDPEDAIRDVIEIRERMGAEIKGHKERLLGQFLNSAHRMDGAVPGKNDWRARQLRDAKRP-DYAKLLLTTTLTQSHLAVAVLTAAIEIITELQPTEVVPAAAKKLSQSLNEIPALLDLVQVTIPQSVADAVREGLNPLDVVKGYLSSRGQTRKAAEGVRDLIAGAREAAIKLTTAKYPHMAEFFQNLKKKGALY-GAMSKELHRELLSTLSSLEDLADSEANLSLSVPEDALPKKRQLLVLNLKRLPALTLRVRMRGSVKLLAALREGRDPLEVLAEEELASHSIAFAKRNGRLAELGGSILDALDTCFDKPKVVRKVTLEWFSCFLP-SDDYKSLVNEIKSTVKLVDALILASIYWQYSVPKSSVPQLAYNFVISLRRLPRKTKAARQLITKVELVAIDRGISPNKVIKRRVERARQESLLFWNRKKKVALLRQRVILDLTRRFPQFEKMFMDVQHSLIKD-QGAQFALTAQMMRLFNAGRELADAVSAMRKELPLAEVPSLVTDLVLGMAAIPVLAKATRRSRDAIEQLLEQQGIDPALLERIEMEARLIVRDVVREGRKSTSGTWQAAVRRAQEASPEHAAELQALETSGKTV-MAALDRLNAALKDALTGVDLIEHRLANLTTQLPTDRIPHLARQLVVQLARIPALARECRFAIPTQVLDAHARGDDPLLVMDRTLAQHLADKRDQRQTKLQHLGEMIAAIEARSRAIPSETQLNIDILRSGGPA-MACEWAFLAQIATTTSHVDALSFLLSNHRSDVPEESSPAALQRLRTSLMKLPDLHHKVTMKIPARVAELIRDGRDPELYLRLRKEAADADKKKRDEQKERTRRAARKACEAWAAENPEKKAKVAAARATLKKR,TDEMKSLASRLEDTTQAFYDLALIVYNLEDTTPSDAIPESLDTLIRDLKSLPDISRKVNNLIPQDVLEYIEQGRNPDVYARQFSELVQKDNQYVNGKLYAIEGFQKAFAEEIKQAYPEVSSVVDKILNEGKVE-TDEMKSLASRLEDTTQAFYDLALIVYNLEDTTPSDAIPESLDTLIRDLKSLPDISRKVNNLIPQDVLEYIEQGRNPDVYARQFSELVQKDNQYVNGKLYAIEGFQKAFAEEIKQAYPEVSSVVDKILNEGKVE-TDEMKSLASRLEDTTQAFYDLALIVYNLEDTTPSDAIPESLDTLIRDLKSLPDISRKVNNLIPQDVLEYIEQGRNPDVYARQFSELVQKDNQYVNGKLYAIEGFQKAFAEEIKQAYPEVSSVVDKILNEGKVE-TDEMKSLASRLEDTTQAFYDLALIVYNLEDTTPSDAIPESLDTLIRDLKSLPDISRKVNNLIPQDVLEYIEQGRNPDVYARQFSELVQKDNQYVNGKLYAIEGFQKAFAEEIKQAYPEVSSVVDKILNEGKVE-TDEMKSLASRLEDTTQAFYDLALIVYNLEDTTPSDAIPESLDTLIRDLKSLPDISRKVNNLIPQDVLEYIEQGRNPDVYARQFSELVQKDNQYVNGKLYAIEGFQKAFAEEIKQAYPEVSSVVDKILNEGKVE-TDEMKSLASRLEDTTQAFYDLALIVYNLEDTTPSDAIPESLDTLIRDLKSLPDISRKVNNLIPQDVLEYIEQGRNPDVYARQFSELVQKDNQYVNGKLYAIEGFQKAFAEEIKQAYPEVSSVVDKILNEGKVE-TDEMKSLASRLEDTTQAFYDLALIVYNLEDTTPSDAIPESLDTLIRDLKSLPDISRKVNNLIPQDVLEYIEQGRNPDVYARQFSELVQKDNQYVNGKLYAIEGFQKAFAEEIKQAYPEVSSVVDKILNEGKVE-TDEMKSLASRLEDTTQAFYDLALIVYNLEDTTPSDAIPESLDTLIRDLKSLPDISRKVNNLIPQDVLEYIEQGRNPDVYARQFSELVQKDNQYVNGKLYAIEGFQKAFAEEIKQAYPEVSSVVDKILNEGKVE-TDEMKSLASRLEDTTQAFYDLALIVYNLEDTTPSDAIPESLDTLIRDLKSLPDISRKVNNLIPQDVLEYIEQGRNPDVYARQFSELVQKDNQYVNGKLYAIEGFQKAFAEEIKQAYPEVSSVVDKILNEGKVE-TDEMKSLASRLEDTTQAFYDLALIVYNLEDTTPSDAIPESLDTLIRDLKSLPDISRKVNNLIPQDVLEYIEQGRNPDVYARQFSELVQKDNQYVNGKLYAIEGFQKAFAEEIKQAYPEVSSVVDKILNEGKVE,SFKNLGNEAK-MLHYLGKLAA-ELVGLYDLAP-NLDRLGRHFF-YLDGLGDYAA-RALSSGVRAY-AVRKLGTLMK-VLADLGRQAE-DLRKLLDLAV-ALLSLGRTAK,FLELLGIMAK-FLELLGIMAK-FLELLGIMAK-FLELLGIMAK-FLELLGIMAK-FLELLGIMAK-FLELLGIMAK-FLELLGIMAK-FLELLGIMAK-FLELLGIMAK
13.0,95,105,B,10,MRERNNKAPTEKRSRKSDIEAVIAFVASGKNLVEVIAEQEPFGVAKGDYENGKLMLKAAELVKRLAEVDFSIDSAVSEFNLKTGMKIPRLVDIIDLIEKSLEWINGIQAEVIHSNPMAVGLTKEFTEVLEINIAALKARKQPELQKKQIQADIKEEHSRLVDAAKKQTELEKAIKEAQAARRSERENLLKYSVVTDDLLAQ-AEEKKRADFTDFAVTAEQIAKLRDAIENGEEAVKLYASLQQKKAEGGTAEENKKAANASDIAENFAEFSEGPEGQTQIDVEIDGRTVNFLDARLTFIAAETAKVFGDYLLTIAADPKAMPAVTKALYVGLSNLVDVCEGKLPAAVAAKADAEAQTKAKVASKVKDDQAAYEKAEKEAAAAAAEITEDKEAVMAQAKEKFAD-MLRKNQSDPERNVYSIAMMREVIEAAANSKSVKSAIYRQLDLSASIGFDGRATQTADFLEVAEVLATYEIDAQKAVSVKSWENGVTLPEDILLKRALAETLRRAYTQLLDNIADNPWKEPLTLQRINVLVHNLVSAFRASEPRLRVRQMELEMKRADIELDATESEAKRKKAEFRSQRDRLENIYINDDALIRMGEEINKL-MVEVERPPPPLETLSDTLLDEIIVALAQSRVRRDYLRLLLPSLAVSGEAGPPETEPKAEDFDEVLSSLEFQRDRAVVLPYYEEGLEKELLVFLLEALDAELKFQVAILKDRLATQPETCPVTVERIRTLVLNLFGLHDALLPQRLEQNAKNFATFLDRLTRSIDFRKRQLRTAKARIRAELLATVANEELYDLQLKHTIAH-SLIPDPPPPSYTAFTSENLEKITDAAKNGRFMSELRADLTDSYGILTNAQKEPQIMDYSAMQNIETRIEIDTSSFSGGLDNNSKRNDPLLDQKLRFLIEELDSVLLNLLDTATEYPESTPDILQRVFVLIGNIVSYSMKMMPKYSHINSMLIAQKKAITSQMEASEKAADELSRKTTLAANLKQKENIEAETIKIMEFLKN-SLSSPPPSPIKHLITVENFLRLIEFIERGEDLLKTLEEMAPDPRSTGMGQEADIGKQESELHEKLLEMNIEKEQKQTVYDALAKRKEMLEQYILSTIESARGAVAGRLKNVLARSPEEAPSVIQRMTVLERNILAIKANREPAVEKLVKDLAELKERKQQVEEKYAAYLEGKEAILEAAKNKALKLNAAASVTEAQEAIAK-SNATASDDPFISAIKPSLITSLISAYQRGDFIEWLVSLCQDRGVLQGDGGQNDRPAQYAAIADVPVDFVLDADLATTQQIVINNILYPLDLVVLLDLNGKLGEALNQLKHTLSSDPESVPAAVEKIYKLIMNINYTIVQLQPRVKKLEKETTEKRQTLDEVTAYLDKRVQIKEFETRYEKAKKYAVSLKAYKTELTDLKAK-SNAVKDPSPEELKWTVENFRQWQRAVKEKPDIEVLRQAYQLAPPTDGQSNPKVYETLGNNLDEVLVAGTTDVSADVKDVQEWMGKTDPVGVQILNSRFAQLQKVYTKLLGTLAEHPEAIVELVKEISVHVLNLYNMLVKDFPEKERLLQEKGDKLLEQVEALSKDLNVRVDNYAVEFGALLADDRKDVAAFQVSVNEYIEK-MAKYAKKTPELEAITDTNLKALVAAWDASPNVKAWARLSMGKRTAQTSGFTEDFQALAESQMLLLSPAADEESGNTVIKITVNGVTTEVMVAFLDYVKKTLLYAVNVLQGDIQHNREAIDEDIKKIQTLVANWSRELTDNAPLLERVVAAQQQLTALEAQRNGLRALDKVDVNVSKQNEAMELGYARMTHLQEQMFTQRTR-HMTYPEPSPEAAQLSLSVLQEVIAYARESPELDALLRAFRSRETAKGRRNAAASEVRAHELLANPAELRLDEDELLRVCDEGGASEDEFLVTVLRYHLDRLDEVACQALWVEAVAPELLPDVYEEMLVLVLNIGQMLEALIPLAEALAADFEAISKQAETVLAEHQARLRRLDAETFEARMAHRERAQDRQIVAALEKLQA,FSAFPPPPPYYKLFTRENIEKVISNMEKEEIESLAKLFKKPSCLTSGTYQMPLDSQDTGAVSASSVNEGFRADQKSKDGETSDLIKIPRRAYELRFLSRSLMLNFLELLGIMAKAPEQFPSKVENIRVLLLNLHHLINDYRPHQSRESLIMLLEKQLKHEESQVELLRTHNRQMTETLEKYKSLDFNMEKEGDVIQQLKSS-FSAFPPPPPYYKLFTRENIEKVISNMEKEEIESLAKLFKKPSCLTSGTYQMPLDSQDTGAVSASSVNEGFRADQKSKDGETSDLIKIPRRAYELRFLSRSLMLNFLELLGIMAKAPEQFPSKVENIRVLLLNLHHLINDYRPHQSRESLIMLLEKQLKHEESQVELLRTHNRQMTETLEKYKSLDFNMEKEGDVIQQLKSS-FSAFPPPPPYYKLFTRENIEKVISNMEKEEIESLAKLFKKPSCLTSGTYQMPLDSQDTGAVSASSVNEGFRADQKSKDGETSDLIKIPRRAYELRFLSRSLMLNFLELLGIMAKAPEQFPSKVENIRVLLLNLHHLINDYRPHQSRESLIMLLEKQLKHEESQVELLRTHNRQMTETLEKYKSLDFNMEKEGDVIQQLKSS-FSAFPPPPPYYKLFTRENIEKVISNMEKEEIESLAKLFKKPSCLTSGTYQMPLDSQDTGAVSASSVNEGFRADQKSKDGETSDLIKIPRRAYELRFLSRSLMLNFLELLGIMAKAPEQFPSKVENIRVLLLNLHHLINDYRPHQSRESLIMLLEKQLKHEESQVELLRTHNRQMTETLEKYKSLDFNMEKEGDVIQQLKSS-FSAFPPPPPYYKLFTRENIEKVISNMEKEEIESLAKLFKKPSCLTSGTYQMPLDSQDTGAVSASSVNEGFRADQKSKDGETSDLIKIPRRAYELRFLSRSLMLNFLELLGIMAKAPEQFPSKVENIRVLLLNLHHLINDYRPHQSRESLIMLLEKQLKHEESQVELLRTHNRQMTETLEKYKSLDFNMEKEGDVIQQLKSS-FSAFPPPPPYYKLFTRENIEKVISNMEKEEIESLAKLFKKPSCLTSGTYQMPLDSQDTGAVSASSVNEGFRADQKSKDGETSDLIKIPRRAYELRFLSRSLMLNFLELLGIMAKAPEQFPSKVENIRVLLLNLHHLINDYRPHQSRESLIMLLEKQLKHEESQVELLRTHNRQMTETLEKYKSLDFNMEKEGDVIQQLKSS-FSAFPPPPPYYKLFTRENIEKVISNMEKEEIESLAKLFKKPSCLTSGTYQMPLDSQDTGAVSASSVNEGFRADQKSKDGETSDLIKIPRRAYELRFLSRSLMLNFLELLGIMAKAPEQFPSKVENIRVLLLNLHHLINDYRPHQSRESLIMLLEKQLKHEESQVELLRTHNRQMTETLEKYKSLDFNMEKEGDVIQQLKSS-FSAFPPPPPYYKLFTRENIEKVISNMEKEEIESLAKLFKKPSCLTSGTYQMPLDSQDTGAVSASSVNEGFRADQKSKDGETSDLIKIPRRAYELRFLSRSLMLNFLELLGIMAKAPEQFPSKVENIRVLLLNLHHLINDYRPHQSRESLIMLLEKQLKHEESQVELLRTHNRQMTETLEKYKSLDFNMEKEGDVIQQLKSS-FSAFPPPPPYYKLFTRENIEKVISNMEKEEIESLAKLFKKPSCLTSGTYQMPLDSQDTGAVSASSVNEGFRADQKSKDGETSDLIKIPRRAYELRFLSRSLMLNFLELLGIMAKAPEQFPSKVENIRVLLLNLHHLINDYRPHQSRESLIMLLEKQLKHEESQVELLRTHNRQMTETLEKYKSLDFNMEKEGDVIQQLKSS-FSAFPPPPPYYKLFTRENIEKVISNMEKEEIESLAKLFKKPSCLTSGTYQMPLDSQDTGAVSASSVNEGFRADQKSKDGETSDLIKIPRRAYELRFLSRSLMLNFLELLGIMAKAPEQFPSKVENIRVLLLNLHHLINDYRPHQSRESLIMLLEKQLKHEESQVELLRTHNRQMTETLEKYKSLDFNMEKEGDVIQQLKSS,DGKKQVSQAR-EQRLAVLEEA-TYRQFVAGLA-QFRELVKRAK-EGAKVVTGLK-EQREEVRGNH-AFEKAVKEKS-RGLQAVKEMA-HEAEVELARS-EAAAVIAEMR,GKLYAIEGFQ-GKLYAIEGFQ-GKLYAIEGFQ-GKLYAIEGFQ-GKLYAIEGFQ-GKLYAIEGFQ-GKLYAIEGFQ-GKLYAIEGFQ-GKLYAIEGFQ-GKLYAIEGFQ
