contacts,cs,ce,Chain,Length,designed_receptor_seq,native_receptor_seq,designed_binder_seq,native_binder_seq
26.0,0,10,A,10,MKEELEKKIEEYNKKIEEALKKEIDLEEILKLYEEKEKVLKELEELEKKIEEEKKKLEEEIKELEKKIEELKKKIEELEKKLKEKEIKEEEKKEIDLEKLKKELEKLKEKLEKGEISYEELIKSEIRKKREELLGKEDECLKKLEEKKKESKEPLCPVCIKEG-MEEKLKAKIEEYDKKIEEALKKEIDLEEITKLFEEKAKVLEELKKLEEKKKEEEEKKKEEEKKKEEEEKKKEEEKKKEEEKKKEEEKKKEEKKEEEKKKEEEKKKEEEKKKEEGKPSYEELAKSELRKKRREEEGEEDEELKKLDEKKKEEEKPKDPKEEKKE-MEEELKKKIEEYNKELEKLLKEKFDEKKIKEKIEKRDEVLKKLEELEKKIEEEKKKLEEEIKELEKKIEELKKKIEELEKKLEEKKIEEKKEEKIDLEKLKKELEKLKEKLEKGEISYEELIKSEIRKKREELLGKEDECLKKLEEKKKESKEPLCPVCIKEG-MREELEAKIAEYEAKIAEAEAAGFDEAAITALYEEKAGVEAELAALEAEIAAGEAAAAAAAAAAAAAAAAAAAAAAAAAAAAAAAAAAAAAAAAADPAAAAAAAAAAAAAAAAGAPSYAALAASAARQARRAALGADDAALAALDAAAAAAAAAADPAAAAAA-MKEELEKKIEEYDKKIEEALKKEFDEKEILELFEKRDEVLKELEELEKKIEEEKKKLEEEIKELEKKIEELKKKIEELEKKLEEKKIEEKKEEEIEEEKLKKLLEELKEKLEKGEISYEELIKSEIRKKREELLGKEDECLKKLEEKKKESKEPKCPVCIEEG-MKEELEKKIEEYNEKIKEALEKEIDLEEIVKLFEERDKVLEELKKLEEEIKKLEEEIKKLEEEIKKLEEEIKKLEEEIKKLEEEIKKLEEEKKEVDLEKLKKELEKLKEELEKGKISYEELCKSEIRKKRIEEIGEEDECLKKLKEKCKECKKPLCPKEIKEE-MKEELEKKIEEYKEKIKEALEKEIKLEEILELIEKKEEVLKELEELEKKIEEEKKKLEEEIKELEKKIEELKKKIEELKKKLEEKKIEEKKEEEIKLEELKKKLEELKKKLEEGKPSYEELIKSEIRKKREELLGKEDECLKKLEEKKKESKEPECPVECKCE-MEEKLKEKIKEYDEKIKELLEKEFDEKEIIEAFEKKAEVLKELEELEKKKEEEEKKKEEEKKEEEKKKEEEKKKEEEKKKEEEKKKEEEKKEEEKEEEKKKEEEEKKKEEEKKEEKSYEELAKSEIRKKREEEEGKEDEELKKLEEKKEEKKEEEDPEEKEEE-MKEELEKKIEEYEKELEKLLKEKIELEKIVEKIEKKIEVLKELEELEKKIEEEKKKLEEEIKELEKKIEELKKKIEELEKKLEEKKIEEKKEEEIDLEKLKKELEKLKEKLEKGEISYEELCKSEIRKKREELLGKEDECLKKLEKLCEECEKPCDPKCIECG-MKEELEKKIEEYNKKLEEALKKEIKLEEILELIEKRDEVLKELEELEKKIEEEKKKLEEEIKELEKKIEELKKKIEELEKKLEEKKIEEKKEEEIKLEELKKKLEELKKKLEEGKPSYEELIKSELRKKREELLGKEDECLKKLEEKKKESKEPLCPVCIKEG,EYQRAIDSIEECLNKQLRLSSEKVDQYVLIENWTSLVGHLKTLHSLISNYTNGRELQNEISSLLKQDKELDLQIQDCMREMTSIYDTHLPKTQKVNAETLLDYGRKLSKFSSAPWPSEDQMRKTLLFQFSTSMVPNLSATASQLFSEQTKMNYPASPTFTTQE-EYQRAIDSIEECLNKQLRLSSEKVDQYVLIENWTSLVGHLKTLHSLISNYTNGRELQNEISSLLKQDKELDLQIQDCMREMTSIYDTHLPKTQKVNAETLLDYGRKLSKFSSAPWPSEDQMRKTLLFQFSTSMVPNLSATASQLFSEQTKMNYPASPTFTTQE-EYQRAIDSIEECLNKQLRLSSEKVDQYVLIENWTSLVGHLKTLHSLISNYTNGRELQNEISSLLKQDKELDLQIQDCMREMTSIYDTHLPKTQKVNAETLLDYGRKLSKFSSAPWPSEDQMRKTLLFQFSTSMVPNLSATASQLFSEQTKMNYPASPTFTTQE-EYQRAIDSIEECLNKQLRLSSEKVDQYVLIENWTSLVGHLKTLHSLISNYTNGRELQNEISSLLKQDKELDLQIQDCMREMTSIYDTHLPKTQKVNAETLLDYGRKLSKFSSAPWPSEDQMRKTLLFQFSTSMVPNLSATASQLFSEQTKMNYPASPTFTTQE-EYQRAIDSIEECLNKQLRLSSEKVDQYVLIENWTSLVGHLKTLHSLISNYTNGRELQNEISSLLKQDKELDLQIQDCMREMTSIYDTHLPKTQKVNAETLLDYGRKLSKFSSAPWPSEDQMRKTLLFQFSTSMVPNLSATASQLFSEQTKMNYPASPTFTTQE-EYQRAIDSIEECLNKQLRLSSEKVDQYVLIENWTSLVGHLKTLHSLISNYTNGRELQNEISSLLKQDKELDLQIQDCMREMTSIYDTHLPKTQKVNAETLLDYGRKLSKFSSAPWPSEDQMRKTLLFQFSTSMVPNLSATASQLFSEQTKMNYPASPTFTTQE-EYQRAIDSIEECLNKQLRLSSEKVDQYVLIENWTSLVGHLKTLHSLISNYTNGRELQNEISSLLKQDKELDLQIQDCMREMTSIYDTHLPKTQKVNAETLLDYGRKLSKFSSAPWPSEDQMRKTLLFQFSTSMVPNLSATASQLFSEQTKMNYPASPTFTTQE-EYQRAIDSIEECLNKQLRLSSEKVDQYVLIENWTSLVGHLKTLHSLISNYTNGRELQNEISSLLKQDKELDLQIQDCMREMTSIYDTHLPKTQKVNAETLLDYGRKLSKFSSAPWPSEDQMRKTLLFQFSTSMVPNLSATASQLFSEQTKMNYPASPTFTTQE-EYQRAIDSIEECLNKQLRLSSEKVDQYVLIENWTSLVGHLKTLHSLISNYTNGRELQNEISSLLKQDKELDLQIQDCMREMTSIYDTHLPKTQKVNAETLLDYGRKLSKFSSAPWPSEDQMRKTLLFQFSTSMVPNLSATASQLFSEQTKMNYPASPTFTTQE-EYQRAIDSIEECLNKQLRLSSEKVDQYVLIENWTSLVGHLKTLHSLISNYTNGRELQNEISSLLKQDKELDLQIQDCMREMTSIYDTHLPKTQKVNAETLLDYGRKLSKFSSAPWPSEDQMRKTLLFQFSTSMVPNLSATASQLFSEQTKMNYPASPTFTTQE,EKCYCPPPPE-KEEKPPPPPE-VCCVPPPPPE-AAAAPAAAPA-EECVCPPPPE-EKCVCPPPPE-ECCVPPPPPE-EEKKPPPPPE-CGCVCPPPPE-EECYCPPPPE,FSAFPPPPPY-FSAFPPPPPY-FSAFPPPPPY-FSAFPPPPPY-FSAFPPPPPY-FSAFPPPPPY-FSAFPPPPPY-FSAFPPPPPY-FSAFPPPPPY-FSAFPPPPPY
16.0,120,130,B,10,GSHMPPPPPELAALTPELLARVRAAAAAGGEAAALVALLAPPPAAAGAGAPAAAPARAADLLPVLAALAEAEGAAAAAALAVGGVRLPLRALLLLALAQELRAVLGEAAGVLAAAPEALPAVLARQAVLVANLAALLAADLPALAAEAARLAAEAARLAAEAARLAAEAARLAAEAAAAAAAAAAAALAAEAARLAAEAAA-GSHMPPPPPELARLTPELLARVRAAAAAGGEAAALVALLEPPPAAAGAGGPGDAPPRAEDLLPVLARLAEAEGAALAVRLADGGVALPLRAALLLALARELEAVLAEAEGVLAAAPEALPAVLERVRVLVLNLLALLEAELPALRAERARLEALRAERARLEAERARLEAERARLEAERARLALREGLAALLEAARRAAAA-GSHMAPPPPELAALTPELLARVQAAAAAGGEAAALVALLRPPAAAAGAGAAAAAAPRAADLLPVLAAAAEAEGAALAVRDAALGLALPLRALALLALAAELRAVLGEAEGVLAAAPGALPAVLERVRVLVLNLAALLAADLPALAAEAARLAAEAERLRAEAARLAAEAERLRAEAEAARLAAEAEGLAALLEAARLAAEA-GSHMPPPPPELAALTPELLARVRAAAAAGGEAAALVALLRPPPAAAGAGAPADAPPRAADLLPVLAALAEAPGAALAARLALDGVALPLRALLLLALARELEAVLAEADGVLAAAPERLPAVLERVRVLVLNLLALLEAELPALRAERARLAALAAERARLAAERARLAAERARLAAEAAAAAPAAGLAALLAAAAEAAAA-GSSGSSGPPELAALTPEILAEVVAAAKAGGDAAAAVARLLPPPAAAGAGAPGDAPARAEDLLAVLAELAEGEDAAVAVAVEVDGVRLPLLEAVLRALAAELDAVLGEADGVLAADPGALPAVLDRVRVLVLNLRALAARLEPARAALAAEAAALAAEAAALAAEAAALAAEAAALAAEAAALAPAADLAALAAEAARLAAE-GSHMPPPPPELAALTPELLARVRAALAAGGEEAALVALLAPPPPAAGAGAPAAAPPRAEDLLPVLARFEEAEGAALALRLADGGRELPLLEAVLAALAAELEAVLGEARGVLAAAPERLPAVLERVRVLVLNLLALRAAELPALRARLAELEAERRRLEAERARLAEEVRLRELEERLAALRAEAEGLEALLRAAREALAR-GSHMPPPPPELAALTPELLARVRAAAAAGGDAAALVALLRPPAAAAGAGGPGAAAARAADLLPVLAAAAEAEGAALALRLADGGVALPALAAALLALALELRAALGEAAGVLAAAPGALPAVLARVAVLQANLAALAAALAPAAAAAAAAAAAAAAAAAAAAAAAAAAAAAAAAAAAAAAAAAAAAAAAAAAAAAAAAAAA-MEEKPPPPPELAALTPELLARVVAAAEAGEEALALVRRLLPPPPEEGEGEPPAEPPRAEDLLPVLARLEEGEEAEVRVRLRVGGVELPLLEAVLLALALELREVLREAEGVLRERPEELPRVLERVRVLLLNLLALLERRLPELERRLEELRRRLEELERRLEELRRRLEELRRRLEELRRRLEELELERLLEELRRRLEE-GSHMPPPPPELAALTPELLARVRAAAAAGGEAAALVALLRPPPAAAGAGAPPAAPARAEDLLPVLARLEEAEGAALAARLAVDGVELPLLEAVLLALALELRAVLGEAAGVLAAAPERLPAVLERVRVLALNLAALAERLRPAAAAAAAAAAAAAAAAAAAAAAAAAAAAAAAAAAAAAAAAAAAAAAAAAAAAAAAAAAA-GSHMPPPPPELAALTPELLARVRAAAAAGGEAAALVALLAPPPAAAGAGAPPAAPPRAEDLLPVLARFAEGEDAALAVRLAEGGLALPLREAVLRHLALELRAVLGEAEGVLRAAPEALPAVLERVRVLLLNLLALLEAERPALAARLAALEAERRALEARLAAERAALEAERARLEAALAAAPAAGLAALLEAARRAAAA,FSAFPPPPPYYKLFTRENIEKVISNMEKEEIESLAKLFKKPSCLTSGTYQMPLDSQDTGAVSASSVNEGFRADQKSKDGETSDLIKIPRRAYELRFLSRSLMLNFLELLGIMAKAPEQFPSKVENIRVLLLNLHHLINDYRPHQSRESLIMLLEKQLKHEESQVELLRTHNRQMTETLEKYKSLDFNMEKEGDVIQQLKSS-FSAFPPPPPYYKLFTRENIEKVISNMEKEEIESLAKLFKKPSCLTSGTYQMPLDSQDTGAVSASSVNEGFRADQKSKDGETSDLIKIPRRAYELRFLSRSLMLNFLELLGIMAKAPEQFPSKVENIRVLLLNLHHLINDYRPHQSRESLIMLLEKQLKHEESQVELLRTHNRQMTETLEKYKSLDFNMEKEGDVIQQLKSS-FSAFPPPPPYYKLFTRENIEKVISNMEKEEIESLAKLFKKPSCLTSGTYQMPLDSQDTGAVSASSVNEGFRADQKSKDGETSDLIKIPRRAYELRFLSRSLMLNFLELLGIMAKAPEQFPSKVENIRVLLLNLHHLINDYRPHQSRESLIMLLEKQLKHEESQVELLRTHNRQMTETLEKYKSLDFNMEKEGDVIQQLKSS-FSAFPPPPPYYKLFTRENIEKVISNMEKEEIESLAKLFKKPSCLTSGTYQMPLDSQDTGAVSASSVNEGFRADQKSKDGETSDLIKIPRRAYELRFLSRSLMLNFLELLGIMAKAPEQFPSKVENIRVLLLNLHHLINDYRPHQSRESLIMLLEKQLKHEESQVELLRTHNRQMTETLEKYKSLDFNMEKEGDVIQQLKSS-FSAFPPPPPYYKLFTRENIEKVISNMEKEEIESLAKLFKKPSCLTSGTYQMPLDSQDTGAVSASSVNEGFRADQKSKDGETSDLIKIPRRAYELRFLSRSLMLNFLELLGIMAKAPEQFPSKVENIRVLLLNLHHLINDYRPHQSRESLIMLLEKQLKHEESQVELLRTHNRQMTETLEKYKSLDFNMEKEGDVIQQLKSS-FSAFPPPPPYYKLFTRENIEKVISNMEKEEIESLAKLFKKPSCLTSGTYQMPLDSQDTGAVSASSVNEGFRADQKSKDGETSDLIKIPRRAYELRFLSRSLMLNFLELLGIMAKAPEQFPSKVENIRVLLLNLHHLINDYRPHQSRESLIMLLEKQLKHEESQVELLRTHNRQMTETLEKYKSLDFNMEKEGDVIQQLKSS-FSAFPPPPPYYKLFTRENIEKVISNMEKEEIESLAKLFKKPSCLTSGTYQMPLDSQDTGAVSASSVNEGFRADQKSKDGETSDLIKIPRRAYELRFLSRSLMLNFLELLGIMAKAPEQFPSKVENIRVLLLNLHHLINDYRPHQSRESLIMLLEKQLKHEESQVELLRTHNRQMTETLEKYKSLDFNMEKEGDVIQQLKSS-FSAFPPPPPYYKLFTRENIEKVISNMEKEEIESLAKLFKKPSCLTSGTYQMPLDSQDTGAVSASSVNEGFRADQKSKDGETSDLIKIPRRAYELRFLSRSLMLNFLELLGIMAKAPEQFPSKVENIRVLLLNLHHLINDYRPHQSRESLIMLLEKQLKHEESQVELLRTHNRQMTETLEKYKSLDFNMEKEGDVIQQLKSS-FSAFPPPPPYYKLFTRENIEKVISNMEKEEIESLAKLFKKPSCLTSGTYQMPLDSQDTGAVSASSVNEGFRADQKSKDGETSDLIKIPRRAYELRFLSRSLMLNFLELLGIMAKAPEQFPSKVENIRVLLLNLHHLINDYRPHQSRESLIMLLEKQLKHEESQVELLRTHNRQMTETLEKYKSLDFNMEKEGDVIQQLKSS-FSAFPPPPPYYKLFTRENIEKVISNMEKEEIESLAKLFKKPSCLTSGTYQMPLDSQDTGAVSASSVNEGFRADQKSKDGETSDLIKIPRRAYELRFLSRSLMLNFLELLGIMAKAPEQFPSKVENIRVLLLNLHHLINDYRPHQSRESLIMLLEKQLKHEESQVELLRTHNRQMTETLEKYKSLDFNMEKEGDVIQQLKSS,AAASPAAAAA-PPGSPLAAAL-AEGSALAAAA-AAASPLAAAA-LAASPLAAAA-PPGHPLARAL-AAAAAAAAAA-ELESPLARLL-AAAAAAAAAA-PPGSPLAAAL,MRKTLLFQFS-MRKTLLFQFS-MRKTLLFQFS-MRKTLLFQFS-MRKTLLFQFS-MRKTLLFQFS-MRKTLLFQFS-MRKTLLFQFS-MRKTLLFQFS-MRKTLLFQFS
