contacts,cs,ce,Chain,Length,designed_receptor_seq,native_receptor_seq,designed_binder_seq,native_binder_seq
15.0,0,10,A,10,GPDASTIEWGEGQWSPDNPDGEKKYTLEQLLALTDP-GPDASTIKWGEGQWSPDNPDGEKKYTKEQLLALKDP-GPDASTVQWGEGQWSPSNPDGEKKYSKSQLLTLLDP-GPDASTIAWGAGQWSPTNPAGAKTYTAAQLLALTTP-GPDASTIKWGEGQWSPNNPNGEKKYTKEQLLALSTP-GPDASTIKWGEGQWSPDNPDGEKKYTKEQLLALSDP-GPLASTVQWGEGQWSPSNPDGEKKYSLEQLLTLSSP-GPDASTIKWGEGQWSPDNPDGEKKYTKEQLLALSTP-GPDASTVQWGEGQWSPSNPDGEKKYTLEQLLTLTDP-GPDASTIKWGEGQWSPDNPDGEKKYTLEQLKALETP,GPHMSIINYNEGQWSPNNPSGKKQYDREQLLQLREV-GPHMSIINYNEGQWSPNNPSGKKQYDREQLLQLREV-GPHMSIINYNEGQWSPNNPSGKKQYDREQLLQLREV-GPHMSIINYNEGQWSPNNPSGKKQYDREQLLQLREV-GPHMSIINYNEGQWSPNNPSGKKQYDREQLLQLREV-GPHMSIINYNEGQWSPNNPSGKKQYDREQLLQLREV-GPHMSIINYNEGQWSPNNPSGKKQYDREQLLQLREV-GPHMSIINYNEGQWSPNNPSGKKQYDREQLLQLREV-GPHMSIINYNEGQWSPNNPSGKKQYDREQLLQLREV-GPHMSIINYNEGQWSPNNPSGKKQYDREQLLQLREV,DYVAAPLAEE-NYVAAPLGKK-SSTLAPLSTL-AGAAAPLATL-KAGKAPLATK-KKKKHPLAKK-SSSSAPLASS-KKKKHPLGKK-GGVGHPLGTL-GGVGHPLATL,PHMKHPLMNV-PHMKHPLMNV-PHMKHPLMNV-PHMKHPLMNV-PHMKHPLMNV-PHMKHPLMNV-PHMKHPLMNV-PHMKHPLMNV-PHMKHPLMNV-PHMKHPLMNV
27.0,21,31,B,10,GMEERPLKYTWTLWHLVKDESKSWEECFNKIVSFSTVESFWKLYNFIKPPSEIEEGSDYAIFKKDIKPMWEDEANKDGGRWVIKLKNVSDEELDNLWLKVCLMLIGGQFKYDDEVCGAVINVRKKSNKIAIWTRNGKNEEAVKEIGEKTKELLKLGKDIKLEFILHKDSSKIKNVPSKYKF-GMEERPLKYTWTLWHLTKDESKSWEDCFNKIVSFSTVESFWDLYNFIKPPSEIEEGSDYAIFKKDIKPMWEDKANKDGGRWVINLKNVSDEELDNLWLKVCLMLIGGQFKYDDEICGAVINVRKKSNKIAIWTRNGSNEEAVKEIGETTRKLLKLGKDIKLEFILHKDSSKIKNVPSVYKF-GMEERPLKYTWTLWHLVRDESKSWEECFNKIVSFSTVESFWNLYNWIKPPSEIKEGSDYAIFKKDIKPMWEDEANKDGGRWVIKLKNVSDEELDNLWLTVCLCLIGGQFKYDDEICGAVINVRKKSNKISIWTRNGKNEEAVKEIGETTKKILKLGEDIELEFILHKDSSKIKNVPSKYKF-GMEERPLKYTWTLWHLTKDESKSWEECFNKIVSFSTVESFWNLYNFIKPPSEIEEGSDYAIFKKDIKPMWEDKANKDGGRWVIKLKNVSKEELDELWLKVCLMLIGGQFKYDDEICGAVVNVRKKSNKIAIWTRNGSNEEAVKEIGETTKKLLKLGEDIKLEFILHKDSSKIKNVPSKYKF-GMEERPLKYTWTLWHLVKDESKSWEECFNKIVSFSTVESFWNLYNFIKPPSEIEEGSDYAIFKKDIKPMWEDEANKDGGRWVIKLKNVSDEELDNLWLKVCLCLIGGQFKYDDEICGAVINVRKKSNKIAIWTRNGKNEEAVKEIGETTKKILELGEDIELEFILHKDSSKIKNVKSSHKF-GMEERPLKYTWTLWHLVRDESKSWEDCFNKIVSFSTVESFWDLYNFIKPPSEIENGSDYAIFKKDIKPMWEDEANKDGGRWVINLKNVSDEELDNLWLKVCLMLIGGQFKYDDEICGAVVNVRKKSNKIAIWTRNGSNEEAVKEIGEKTRELLEKSEENKLEFILHKDSSKIKNVPAVYKF-GMEERPLKYTWTLWHLVRDESKSWEECFNKIVSFSTVESFWSLYNFIKPPSEIEEGSDYAIFKKDIKPMWEDKANKDGGRWVIKLKNVSDEELDNLWLKVCLCLIGGQFKYDDEICGAVINVRKKSNKIAIWTRNGKNEEAVKEIGEKTKEILELGEDIELEFILHKDSSKIKNVPSVYKF-GMEERPLKYTWTLWHLKKDESKSWEDCFEKIVSFSTVESFWDLYNFIKPPSEIEDGSDYAIFKKDIKPMWEDKNNKDGGRWVINLKNVSDEELDNLWLKVCLMLIGGQFEYDDEICGAVINVRKKSNKISIWTRNGKNEKAVKEIGEKTEKLLKKSKKDKLEFILHKDSSKIKNVPAKYKF-GMEERPLKYTWTLWHLVRDESKSWEECFNKIVSFSTVESFWNLYNWIKPPSEIEEGSDYAIFKKDIKPMWEDKANKDGGRWVINLKNVSDEELDNLWLKVCLCLIGGQFKYDDEICGAVINVRKKSNKIAIWTRNGSNEEAVKEIGEKTKEILELGEDIGLEFILHKDSSKIKKVPSKYKF-GMEERPLKYTWTLWHLVRDESKSWEDCFNKIVSFSTVESFWNLYNWIKPPSEIEEGSDYAIFKKDIKPMWEDKANKNGGRWVINLKNVSDEELDNLWLKVCLMLIGGQFKYDDEICGAVINVRKKSNKIAIWTRNGSNEEAVKEIGEKTRELLEKNEEIGLEFILHKDSSKIKNVPAKYKF,PHMKHPLMNVWTLWYLENDRSKSWEDMQNEITSFDTVEDFWSLYNHIKPPSEIKLGSDYSLFKKNIRPMWEDAANKQGGRWVITLNKSSKTDLDNLWLDVLLCLIGEAFDHSDQICGAVINIRGKSNKISIWTADGNNEEAALEIGHKLRDALRLGRNNSLQYQLHKDTMVKQNVKSIYTL-PHMKHPLMNVWTLWYLENDRSKSWEDMQNEITSFDTVEDFWSLYNHIKPPSEIKLGSDYSLFKKNIRPMWEDAANKQGGRWVITLNKSSKTDLDNLWLDVLLCLIGEAFDHSDQICGAVINIRGKSNKISIWTADGNNEEAALEIGHKLRDALRLGRNNSLQYQLHKDTMVKQNVKSIYTL-PHMKHPLMNVWTLWYLENDRSKSWEDMQNEITSFDTVEDFWSLYNHIKPPSEIKLGSDYSLFKKNIRPMWEDAANKQGGRWVITLNKSSKTDLDNLWLDVLLCLIGEAFDHSDQICGAVINIRGKSNKISIWTADGNNEEAALEIGHKLRDALRLGRNNSLQYQLHKDTMVKQNVKSIYTL-PHMKHPLMNVWTLWYLENDRSKSWEDMQNEITSFDTVEDFWSLYNHIKPPSEIKLGSDYSLFKKNIRPMWEDAANKQGGRWVITLNKSSKTDLDNLWLDVLLCLIGEAFDHSDQICGAVINIRGKSNKISIWTADGNNEEAALEIGHKLRDALRLGRNNSLQYQLHKDTMVKQNVKSIYTL-PHMKHPLMNVWTLWYLENDRSKSWEDMQNEITSFDTVEDFWSLYNHIKPPSEIKLGSDYSLFKKNIRPMWEDAANKQGGRWVITLNKSSKTDLDNLWLDVLLCLIGEAFDHSDQICGAVINIRGKSNKISIWTADGNNEEAALEIGHKLRDALRLGRNNSLQYQLHKDTMVKQNVKSIYTL-PHMKHPLMNVWTLWYLENDRSKSWEDMQNEITSFDTVEDFWSLYNHIKPPSEIKLGSDYSLFKKNIRPMWEDAANKQGGRWVITLNKSSKTDLDNLWLDVLLCLIGEAFDHSDQICGAVINIRGKSNKISIWTADGNNEEAALEIGHKLRDALRLGRNNSLQYQLHKDTMVKQNVKSIYTL-PHMKHPLMNVWTLWYLENDRSKSWEDMQNEITSFDTVEDFWSLYNHIKPPSEIKLGSDYSLFKKNIRPMWEDAANKQGGRWVITLNKSSKTDLDNLWLDVLLCLIGEAFDHSDQICGAVINIRGKSNKISIWTADGNNEEAALEIGHKLRDALRLGRNNSLQYQLHKDTMVKQNVKSIYTL-PHMKHPLMNVWTLWYLENDRSKSWEDMQNEITSFDTVEDFWSLYNHIKPPSEIKLGSDYSLFKKNIRPMWEDAANKQGGRWVITLNKSSKTDLDNLWLDVLLCLIGEAFDHSDQICGAVINIRGKSNKISIWTADGNNEEAALEIGHKLRDALRLGRNNSLQYQLHKDTMVKQNVKSIYTL-PHMKHPLMNVWTLWYLENDRSKSWEDMQNEITSFDTVEDFWSLYNHIKPPSEIKLGSDYSLFKKNIRPMWEDAANKQGGRWVITLNKSSKTDLDNLWLDVLLCLIGEAFDHSDQICGAVINIRGKSNKISIWTADGNNEEAALEIGHKLRDALRLGRNNSLQYQLHKDTMVKQNVKSIYTL-PHMKHPLMNVWTLWYLENDRSKSWEDMQNEITSFDTVEDFWSLYNHIKPPSEIKLGSDYSLFKKNIRPMWEDAANKQGGRWVITLNKSSKTDLDNLWLDVLLCLIGEAFDHSDQICGAVINIRGKSNKISIWTADGNNEEAALEIGHKLRDALRLGRNNSLQYQLHKDTMVKQNVKSIYTL,KNKYSIEEIN-KNIYSIEEIN-KNIYSIEEIK-KNIYSIEEIK-KNIYSIEEIN-KNIYSIEEIN-KNIYSIEEIK-KNKYSIEEIN-KNVYSIEEIN-KNIYSIEEIN,KKQYDREQLL-KKQYDREQLL-KKQYDREQLL-KKQYDREQLL-KKQYDREQLL-KKQYDREQLL-KKQYDREQLL-KKQYDREQLL-KKQYDREQLL-KKQYDREQLL
