contacts,cs,ce,Chain,Length,designed_receptor_seq,native_receptor_seq,designed_binder_seq,native_binder_seq
15.0,0,10,A,10,GPHMKDLTWEDGQYSPENPNGQRVYSKEQRKAMMEI-APNLSSLQFQDGQYSPDNPAGERKYTRSFLLATQTP-RTDAKTVEYDEGQWSPNNPNGEKAYTLEQCLSWLVW-EFDERVVKWGKGQYSPENPDGKREYSKEFLKLCEES-GEEVATFKWQDGQWSPSNPQGLKSYTAEQIKALQDL-SPNPQKILWKRGQWSPTNPSGIRAYSKQYRARLRDS-AVQAATIAWNAGQWSPTNPLGDRAYTDKQLNALSAP-GPRDFVRKYKKGQYSPSNPKGKKSYSQSFKQYLRCP-GPTLENLKYGEGQWSPGNPDGEQYYTDEQKEAMKFP-CVNRENQQWASGQWSPSNPNGVKAYSRSQVNDWCCE,GPHMSIINYNEGQWSPNNPSGKKQYDREQLLQLREV-GPHMSIINYNEGQWSPNNPSGKKQYDREQLLQLREV-GPHMSIINYNEGQWSPNNPSGKKQYDREQLLQLREV-GPHMSIINYNEGQWSPNNPSGKKQYDREQLLQLREV-GPHMSIINYNEGQWSPNNPSGKKQYDREQLLQLREV-GPHMSIINYNEGQWSPNNPSGKKQYDREQLLQLREV-GPHMSIINYNEGQWSPNNPSGKKQYDREQLLQLREV-GPHMSIINYNEGQWSPNNPSGKKQYDREQLLQLREV-GPHMSIINYNEGQWSPNNPSGKKQYDREQLLQLREV-GPHMSIINYNEGQWSPNNPSGKKQYDREQLLQLREV,NTIGLPLNSR-VWKGKPLGLI-VCKTWPNGLT-RIVQKPGALI-SVKVAPAAYN-DKVQCPQSRL-DSQQYPLQSS-NKKYHPRKQK-QLVRKPMKAA-NWVSVPCGRF,PHMKHPLMNV-PHMKHPLMNV-PHMKHPLMNV-PHMKHPLMNV-PHMKHPLMNV-PHMKHPLMNV-PHMKHPLMNV-PHMKHPLMNV-PHMKHPLMNV-PHMKHPLMNV
27.0,21,31,B,10,MGQDHPLRYTWTLWHLKRDESKTYSECFNKMRSFKTVEDFWDLEAYIDPPSKIDVGSDYCIFKSTIFPMWEDRKNVQGGRWVISVQNDSPQVLDDTWIHVLLCLIGGSFNFDDELCGCVINRRSDSNKISIWVRHGENEKAVREIGECIQYQLGQGNKNSIEFRLHKDTEMNKRQPRTHSY-GRVVHPLQWTWTLWHLDVDSSKTWRQNFKKVTSFDTVEDFWYLYSDIEPPSKIKVGSDYAFFKESIEPMWEDAQNEDGGKWLIGLTKCSDEELDETWLSVCLMLIGGQFNYQSSVCGAIVSVRKAANKIAIWCRDGKNDEAVAEIGESTKQFLNLSKSEELRFVLHDDSQKVRKTPSRAKI-MTKDHPLADVWTLWVLRKDTSKKWKDNFRKVVQFSTVETFWELYKFIKPPSAIADGSDYCIFKSDIEPMWEDANNRNGGKWMISLKNFGDVDNDQLWETVCKCLIGSAFSFQDEVCGAVINIRKQSHKLAIWTRNGDNSVAVREIGVTIQCLLKKDKKSSFEFVLHKDVMQNKQWESVFRD-GYVARPLKYTWTLWHLKEDETKGWAECARKMISFSTVEDFWKLYNFVLPPSRIENGSDYCIFKDTVKPMWEDSNNQAGGDWIITLQNVGEKELDETWLTVLKMLIGAQFSFQDEVCGAVVHVRSRDNRISVWVRNGMNVKACQEIGERMLEQLTLDETWHLDFVLHELSAENPKVKHVFQL-SFAMRPLRQTWTLWHLRKDESRGWKDCHEKIVSFSTVEEFWQLANFTLPPSRIKRGSDYAVFKHEIQPMWEDNHNLAGGRHLWSLRLMTDTELDQCWLKVLLMLIGAQYQYDEELCGAVVNIRGTKNKIEIWTRMGSNTAAVEEIGRSTESYLNTGNKDSLEFVLHKDSQISRNIKAERSF-AVQAMPLQYKWTLWHLKEDSTKTWEECHEKWSSFATVESFWNLYKWTLPPSKIENGSDYSIFKAKIKPMWEDRHNKMGGRWLLNLDNISEEELDTMWETVCLCLIGGQFEFDESVCGAVVNVRQRKHKIAIWVKDGDDEEAVEEIGKMISDVLKYGGQPTLEFILHSHSHKQKNIQAQYHF-GSQDRPLAYTWTLWHALRDWSLSWKDNFQEMYQFQTVEHFWDLYNVIEPPSRIKNGSDYALFKTFIFPGWEDENNNNGGRWIISLKSLNDSALDDTWLKVCLMLIGGQFEFDYEICGAVINVRRDKNLISVWTRNGSNEAAVLEIGKTLQEKLKISGSLTFEFSLHRDTAKNRKISSLRAF-GMTERPLNNRWTLWKLVRDDSKTWSNQFSKILSFNTVESFWEIRSFIKPPSQIEDGSNYAIFKKTIKPMWEDKSNMQGGKWLIQLKEISSQELDETWLRVILMLIGAQFVHDAEVCGAVINVRKKNNRIAVWTRHGSNVKAVEEIGAMTRAYLSQTTKKEFLFTLHSLASKQKKVKDSMNF-TITENPLKYRWTLWHLVRDESKTWADNFQEIVGFNTVQHFWELFDSILPPSQIELGSDYAIFKHKIKPMWEDEANKAGGDWVCVLKSCGDVELDDTWLTVCMMLIGSSFRYDDEICGAVVNVRGKHNKIAIWCRNGENEAAVSEMGKRIKEILMFRDNHELSFILHKDSRQNQKKQSKHRP-GMSDNPLKHTWTLWHLIQDENKSYQQNYTKISSFNTVQTFWDLWNNVKPPSEINIGSDYAIFKKNIKPMWEDANNLDGGSWIMKLVNCSNEELDNMWLDICMCLIGSQFKHQDQICGAVVNIRDVFNRIAIWCRDGEDDAAVREIGKTIRHVLKLSKRIYLEYSLHRDSAKDKNSSSVHTL,PHMKHPLMNVWTLWYLENDRSKSWEDMQNEITSFDTVEDFWSLYNHIKPPSEIKLGSDYSLFKKNIRPMWEDAANKQGGRWVITLNKSSKTDLDNLWLDVLLCLIGEAFDHSDQICGAVINIRGKSNKISIWTADGNNEEAALEIGHKLRDALRLGRNNSLQYQLHKDTMVKQNVKSIYTL-PHMKHPLMNVWTLWYLENDRSKSWEDMQNEITSFDTVEDFWSLYNHIKPPSEIKLGSDYSLFKKNIRPMWEDAANKQGGRWVITLNKSSKTDLDNLWLDVLLCLIGEAFDHSDQICGAVINIRGKSNKISIWTADGNNEEAALEIGHKLRDALRLGRNNSLQYQLHKDTMVKQNVKSIYTL-PHMKHPLMNVWTLWYLENDRSKSWEDMQNEITSFDTVEDFWSLYNHIKPPSEIKLGSDYSLFKKNIRPMWEDAANKQGGRWVITLNKSSKTDLDNLWLDVLLCLIGEAFDHSDQICGAVINIRGKSNKISIWTADGNNEEAALEIGHKLRDALRLGRNNSLQYQLHKDTMVKQNVKSIYTL-PHMKHPLMNVWTLWYLENDRSKSWEDMQNEITSFDTVEDFWSLYNHIKPPSEIKLGSDYSLFKKNIRPMWEDAANKQGGRWVITLNKSSKTDLDNLWLDVLLCLIGEAFDHSDQICGAVINIRGKSNKISIWTADGNNEEAALEIGHKLRDALRLGRNNSLQYQLHKDTMVKQNVKSIYTL-PHMKHPLMNVWTLWYLENDRSKSWEDMQNEITSFDTVEDFWSLYNHIKPPSEIKLGSDYSLFKKNIRPMWEDAANKQGGRWVITLNKSSKTDLDNLWLDVLLCLIGEAFDHSDQICGAVINIRGKSNKISIWTADGNNEEAALEIGHKLRDALRLGRNNSLQYQLHKDTMVKQNVKSIYTL-PHMKHPLMNVWTLWYLENDRSKSWEDMQNEITSFDTVEDFWSLYNHIKPPSEIKLGSDYSLFKKNIRPMWEDAANKQGGRWVITLNKSSKTDLDNLWLDVLLCLIGEAFDHSDQICGAVINIRGKSNKISIWTADGNNEEAALEIGHKLRDALRLGRNNSLQYQLHKDTMVKQNVKSIYTL-PHMKHPLMNVWTLWYLENDRSKSWEDMQNEITSFDTVEDFWSLYNHIKPPSEIKLGSDYSLFKKNIRPMWEDAANKQGGRWVITLNKSSKTDLDNLWLDVLLCLIGEAFDHSDQICGAVINIRGKSNKISIWTADGNNEEAALEIGHKLRDALRLGRNNSLQYQLHKDTMVKQNVKSIYTL-PHMKHPLMNVWTLWYLENDRSKSWEDMQNEITSFDTVEDFWSLYNHIKPPSEIKLGSDYSLFKKNIRPMWEDAANKQGGRWVITLNKSSKTDLDNLWLDVLLCLIGEAFDHSDQICGAVINIRGKSNKISIWTADGNNEEAALEIGHKLRDALRLGRNNSLQYQLHKDTMVKQNVKSIYTL-PHMKHPLMNVWTLWYLENDRSKSWEDMQNEITSFDTVEDFWSLYNHIKPPSEIKLGSDYSLFKKNIRPMWEDAANKQGGRWVITLNKSSKTDLDNLWLDVLLCLIGEAFDHSDQICGAVINIRGKSNKISIWTADGNNEEAALEIGHKLRDALRLGRNNSLQYQLHKDTMVKQNVKSIYTL-PHMKHPLMNVWTLWYLENDRSKSWEDMQNEITSFDTVEDFWSLYNHIKPPSEIKLGSDYSLFKKNIRPMWEDAANKQGGRWVITLNKSSKTDLDNLWLDVLLCLIGEAFDHSDQICGAVINIRGKSNKISIWTADGNNEEAALEIGHKLRDALRLGRNNSLQYQLHKDTMVKQNVKSIYTL,PPTYSREYIY-LNTYTIEEIK-KNKYGIEFIE-RPSYSVEEIN-SPQYSIETIF-TSKYSIQEIQ-KTTYSIKEIE-PKQYSIEQIR-APRYSIAYIK-KLLYSKSFIF,KKQYDREQLL-KKQYDREQLL-KKQYDREQLL-KKQYDREQLL-KKQYDREQLL-KKQYDREQLL-KKQYDREQLL-KKQYDREQLL-KKQYDREQLL-KKQYDREQLL
