contacts,cs,ce,Chain,Length,designed_receptor_seq,native_receptor_seq,designed_binder_seq,native_binder_seq
22.0,10,20,A,10,MGREPTEEEIRILTEILGEPPEKIIERIIEKEFKKLEGEIKKLREGLLKNRVIGGIDLTEEIEKGVEELRKKKEEKLKKEFEKLRKEYLTKVLSLPEELKKENIEKYVEEFKKK-MGREPTEEEIRILTEILGEPPEERIKRIKEKVFKELEGKIKELEEGLLKNRVVGGVDLTEEIKKGVEELRKKYEEKVEEEFEKFRKEYLTKVASLPEELKKENLEKYVEEAKKK-MGRKPTEEMIRLATEVLGEPPEKIIERIKAEVEKKLEGEIEALREGLLKNRVVGGVDLTEAIEKGVEELRKKYEERVEKEFEKFRKEYLEKVLSLPEELLKEDAKKYVEEAKKK-MGRIPTEEEIRILTEILGEPPEKIIDRIIEKEIKKLEGEIEKEREGLLKNRIIGGIDFTEEIEKGVEEKRKEKLKKLKEEFEKLRKEYLTKVLSLPEELKEKDIKKYVEEYKKK-MGREPTEEEIRILTEILGEPPEKIIERIVEKEFKKLEGEIEKRREGLLKNRIIGGIDFTEEIEKGVEEERKKRLEKVKEEFEKLRKEYLEKVLSLPEELKKEDIKKYVEEYKKK-MGRTPTEEEIRILTEILGEPPEKIIERIEKKVEEELEGKIEELREGLLKNRVVGGVDLTEAIEKGVEELRKRYEEKVKEEFEKLRKEYLEKVLSLPEELKEKDIEKYVEEYKKK-MGSIPTEEMIRVLTEILGEPPEKKIDEIIEKEFKKLEGEIKKRREGLLKNRIIGGIDYTKEIEEGVEKEREEKIKKLKEEFEKLRKEYLTKVASLPEELKKENIEKYVEEYKKK-MGREPTEEMIRILTEVLGEPPEKIIDRIIEKEFKKLEGEIEERREGLLKNRIIGGIDYTEEIEKGVEEERKKRIEKVKEEFEKLRKEYLTKVASLPEELLKEDIKKYVEEAKKK-MGREPTEEEIRILTEILGEPPEKYIERVIEKEFKKLEGEIEKRREGLLKNRVVGGVDLTEAIEKGVEEERKKRLEKVKEEFEKLRKEYLTKVASIPEEYLKEDIRKYVEEAKKK-MGREPTEEMIRVLTEVLGEPPEKIIDRIVEREFRRLEGEIEARREGLLRNRVVGGVDLTEAIERGVEEERRRREERVREEFERFRREYLTRVASLPEELLERDVRRYVEEAKRE,NATTPTMQSTSLLTEHLGYPPISLVDDIINAVNEIMYKCTNAMEKYLMQRNIIGKKDFSDEIKIGTAKLESLLENSVDKNFDKLELYVLRNILSIPSDLLEENRFRLLHHEKLV-NATTPTMQSTSLLTEHLGYPPISLVDDIINAVNEIMYKCTNAMEKYLMQRNIIGKKDFSDEIKIGTAKLESLLENSVDKNFDKLELYVLRNILSIPSDLLEENRFRLLHHEKLV-NATTPTMQSTSLLTEHLGYPPISLVDDIINAVNEIMYKCTNAMEKYLMQRNIIGKKDFSDEIKIGTAKLESLLENSVDKNFDKLELYVLRNILSIPSDLLEENRFRLLHHEKLV-NATTPTMQSTSLLTEHLGYPPISLVDDIINAVNEIMYKCTNAMEKYLMQRNIIGKKDFSDEIKIGTAKLESLLENSVDKNFDKLELYVLRNILSIPSDLLEENRFRLLHHEKLV-NATTPTMQSTSLLTEHLGYPPISLVDDIINAVNEIMYKCTNAMEKYLMQRNIIGKKDFSDEIKIGTAKLESLLENSVDKNFDKLELYVLRNILSIPSDLLEENRFRLLHHEKLV-NATTPTMQSTSLLTEHLGYPPISLVDDIINAVNEIMYKCTNAMEKYLMQRNIIGKKDFSDEIKIGTAKLESLLENSVDKNFDKLELYVLRNILSIPSDLLEENRFRLLHHEKLV-NATTPTMQSTSLLTEHLGYPPISLVDDIINAVNEIMYKCTNAMEKYLMQRNIIGKKDFSDEIKIGTAKLESLLENSVDKNFDKLELYVLRNILSIPSDLLEENRFRLLHHEKLV-NATTPTMQSTSLLTEHLGYPPISLVDDIINAVNEIMYKCTNAMEKYLMQRNIIGKKDFSDEIKIGTAKLESLLENSVDKNFDKLELYVLRNILSIPSDLLEENRFRLLHHEKLV-NATTPTMQSTSLLTEHLGYPPISLVDDIINAVNEIMYKCTNAMEKYLMQRNIIGKKDFSDEIKIGTAKLESLLENSVDKNFDKLELYVLRNILSIPSDLLEENRFRLLHHEKLV-NATTPTMQSTSLLTEHLGYPPISLVDDIINAVNEIMYKCTNAMEKYLMQRNIIGKKDFSDEIKIGTAKLESLLENSVDKNFDKLELYVLRNILSIPSDLLEENRFRLLHHEKLV,LIEEAKKKAE-LIEKAIKKAL-LLEKALKEAL-LIEKAKKKAE-LIEEAKKKAE-LIEEAIKKAL-LIEEAKKKAE-LIEEAKKKAE-LIEKARKKAE-LLREARERAR,VCNKALEESI-VCNKALEESI-VCNKALEESI-VCNKALEESI-VCNKALEESI-VCNKALEESI-VCNKALEESI-VCNKALEESI-VCNKALEESI-VCNKALEESI
18.0,29,39,B,10,MGELFEELKREFERAVEEAIRPLRDEERVLELFPEFGRTEEGRRLLEEFRRRALERFREEVRRRFEELFRERRLRERLEEADRELERLLE-MGELFERLKAEFEAAVEAAVAPLRDEARVLAAFPEFGATEEGRAALARFREEALARFRAEVEARFAAAAERERLEALLEEADRALAAALE-MGELFERLKAEFEAAVEAAVAPLRDEAAVLARFPEFGATEEGRAALARFREEALARFRAEAEARFAALAAETDLEARLAAADAALAAELA-MGELFERLVAEFEAAVEAAIAPLRDEAAVLAAFPEFGATEEGRAALAAFRERALARFRAEVEARFAALAAETRLREDLEAADAALAAALA-MGELFERLKAEFEAAVEAAIAPLRDEAAVLAAFPEFGATEEGRAALARFREEALARFRAEVEARFAALAAETDLEARLAAADAALAAELA-MGKTFEELKAEFEKAIEEAIKDFKDEKKVLEAFPEFGKTEEGKKALEAFRKEAIARFKEEAEKRFEEIFKKEKLEEKLKEADEKIKEAEE-MGELFERLKAEFEAAVEAAIAPMRDEAAVLARFPEFGATEEGRARLAAFREGALARFRAEVEARFAALAAETDLEARLAAADAAAAAAAA-MGELFERLKAEFEAAVEAAVAPLRDEAAVLAAFPEFGATEEGRAALAAFRERALARFRAEVEARFAALAEAERLEADLAAADAALAAARA-MGELFERLKEEFERAVEEAIKDFEDEKKVLELFPEFGKTEEGKKALEEFRKNALKKFKEEVEKEFEKLFKENKLEEKLKEADEKIKELLE-MGTSFERLKAEFEAAVEAAIAPLRDEAAVLARFPEFGATEEGRAALARFREEALARFRAEVEARFAAAAARERLEAELAAADAAAAAAAA,EHIRFQRLVQVCNKALEESIRKLQSWEKIHECFPNYGQTREGIENLTVCQQQVIKLWSNLSRVEFDAIFHERSIEEKLNQLDDLINKARS-EHIRFQRLVQVCNKALEESIRKLQSWEKIHECFPNYGQTREGIENLTVCQQQVIKLWSNLSRVEFDAIFHERSIEEKLNQLDDLINKARS-EHIRFQRLVQVCNKALEESIRKLQSWEKIHECFPNYGQTREGIENLTVCQQQVIKLWSNLSRVEFDAIFHERSIEEKLNQLDDLINKARS-EHIRFQRLVQVCNKALEESIRKLQSWEKIHECFPNYGQTREGIENLTVCQQQVIKLWSNLSRVEFDAIFHERSIEEKLNQLDDLINKARS-EHIRFQRLVQVCNKALEESIRKLQSWEKIHECFPNYGQTREGIENLTVCQQQVIKLWSNLSRVEFDAIFHERSIEEKLNQLDDLINKARS-EHIRFQRLVQVCNKALEESIRKLQSWEKIHECFPNYGQTREGIENLTVCQQQVIKLWSNLSRVEFDAIFHERSIEEKLNQLDDLINKARS-EHIRFQRLVQVCNKALEESIRKLQSWEKIHECFPNYGQTREGIENLTVCQQQVIKLWSNLSRVEFDAIFHERSIEEKLNQLDDLINKARS-EHIRFQRLVQVCNKALEESIRKLQSWEKIHECFPNYGQTREGIENLTVCQQQVIKLWSNLSRVEFDAIFHERSIEEKLNQLDDLINKARS-EHIRFQRLVQVCNKALEESIRKLQSWEKIHECFPNYGQTREGIENLTVCQQQVIKLWSNLSRVEFDAIFHERSIEEKLNQLDDLINKARS-EHIRFQRLVQVCNKALEESIRKLQSWEKIHECFPNYGQTREGIENLTVCQQQVIKLWSNLSRVEFDAIFHERSIEEKLNQLDDLINKARS,EAVREVLERL-AEVEAVRAAL-AALAAVRAAL-AAVAAVRAAL-AAVAAVRAAL-EALKEVFEKL-AAVAAVRAAL-AAVEAVRAAL-KAVEKVFKKL-AEVAAVRAAL,NAVNEIMYKC-NAVNEIMYKC-NAVNEIMYKC-NAVNEIMYKC-NAVNEIMYKC-NAVNEIMYKC-NAVNEIMYKC-NAVNEIMYKC-NAVNEIMYKC-NAVNEIMYKC
