contacts,cs,ce,Chain,Length,designed_receptor_seq,native_receptor_seq,designed_binder_seq,native_binder_seq
22.0,10,20,A,10,YYRQPSADAVKVATRRLGQPPMDAVQQVTGKEMERLTGVIKDIEKDMLENKVVGEDDLTERIKKGVRATHDKLRKRVEKEWTSYQVKYLTQVASEPASSLETDVAKSVANKFEQ-MGAEPTQEWITYCTTILGKPPQVELDQVRKNVFTVLEGVFNAEQNNALTNAIVGNVDLTNQILHGNKQRLVNFMNNCEAEFNKLEANIMTKKFNIPLTYYEVNVQLVIDSFWRM-MGLTPTEKRESLLTEILGEKPELWTQKVTAERMKRIDGDVDALKTFFLEKRVVGGVDFTDLIEAGIKHLRDQLLVTAAAEFTHLAQDTAARVLSTPTAYAEVALADLVKMFKTA-FINKPTEEMQKVLTERLGRPPQDIVIDIVKERLEAHRGRMVAAKNDLLRNKVRGAVDATTDIEIGVLTDLVRGLSRDTYFFSMYTSAYLTRDLNFPEDFVRAYADRFIWDNVTR-TGARPTEKTADLMLEYDGREPTQFINRVNAAVKKSVIGNITAFEQGMLRNRIRGGMDFSTFVERHTAAVRQLIEKRVNAEFQKFHDDVMTTVETLPDSLEVKHGELVIEKARRC-VERIPTEKEEAVLTKVMGEPPENWIEQKLKESIEVLKEKVEALERGELENAIIGETDLREFIQVRTKKRLEELEIVYNETFRAYKERYLTEVLALPDIYMEENGDRFVERHFIL-SMRKPSLTEDIILTDILGRPPVFKVIEVRSSIEQALGRSVNDLHDYLLRNRIVGNEDHQQEIEHGSRKLLTHFKANVETNFEDYENTVLRNDLSVTLDGVKKRVEKYVKDLKTD-MGSLPTESQRVRLAAVLGKPPEDFIDTVTGAIFRNLRGLVIADFEGAVNNRIIGEEDQTHQIVEGGLKALTTKEAAVNKNFSEFVRFYLENQMSMPEELMERNGEFYVDLFQQL-GSHMPTEYQVEIWTHVLGQRPYEVIEEIEEEVKKKRLGMWNEELEGQLKRRIIGRRDWTDQVRTGVSTKMNEECVKITKYFTAYKNTFLTESYAQPEELLLNDTEKYVREKLIE-GAMAPTERMESLINEFYGMPPIFAAMVLVIMIELIRKGLIWAKKEFFLRNAIIGKTDLTAYIYKGTSNELAKKQVKVTANYVGAFIVEYTTIDQIPKSGLDAGAVLFIEHFKSK,NATTPTMQSTSLLTEHLGYPPISLVDDIINAVNEIMYKCTNAMEKYLMQRNIIGKKDFSDEIKIGTAKLESLLENSVDKNFDKLELYVLRNILSIPSDLLEENRFRLLHHEKLV-NATTPTMQSTSLLTEHLGYPPISLVDDIINAVNEIMYKCTNAMEKYLMQRNIIGKKDFSDEIKIGTAKLESLLENSVDKNFDKLELYVLRNILSIPSDLLEENRFRLLHHEKLV-NATTPTMQSTSLLTEHLGYPPISLVDDIINAVNEIMYKCTNAMEKYLMQRNIIGKKDFSDEIKIGTAKLESLLENSVDKNFDKLELYVLRNILSIPSDLLEENRFRLLHHEKLV-NATTPTMQSTSLLTEHLGYPPISLVDDIINAVNEIMYKCTNAMEKYLMQRNIIGKKDFSDEIKIGTAKLESLLENSVDKNFDKLELYVLRNILSIPSDLLEENRFRLLHHEKLV-NATTPTMQSTSLLTEHLGYPPISLVDDIINAVNEIMYKCTNAMEKYLMQRNIIGKKDFSDEIKIGTAKLESLLENSVDKNFDKLELYVLRNILSIPSDLLEENRFRLLHHEKLV-NATTPTMQSTSLLTEHLGYPPISLVDDIINAVNEIMYKCTNAMEKYLMQRNIIGKKDFSDEIKIGTAKLESLLENSVDKNFDKLELYVLRNILSIPSDLLEENRFRLLHHEKLV-NATTPTMQSTSLLTEHLGYPPISLVDDIINAVNEIMYKCTNAMEKYLMQRNIIGKKDFSDEIKIGTAKLESLLENSVDKNFDKLELYVLRNILSIPSDLLEENRFRLLHHEKLV-NATTPTMQSTSLLTEHLGYPPISLVDDIINAVNEIMYKCTNAMEKYLMQRNIIGKKDFSDEIKIGTAKLESLLENSVDKNFDKLELYVLRNILSIPSDLLEENRFRLLHHEKLV-NATTPTMQSTSLLTEHLGYPPISLVDDIINAVNEIMYKCTNAMEKYLMQRNIIGKKDFSDEIKIGTAKLESLLENSVDKNFDKLELYVLRNILSIPSDLLEENRFRLLHHEKLV-NATTPTMQSTSLLTEHLGYPPISLVDDIINAVNEIMYKCTNAMEKYLMQRNIIGKKDFSDEIKIGTAKLESLLENSVDKNFDKLELYVLRNILSIPSDLLEENRFRLLHHEKLV,TGRAAADKAY-EGRAAREKVL-LVSRATAKVA-YGVKAQRLAS-RMTTAVNAAI-VEQQVWQSAF-ELAAAVERAA-KIAEAIRKTF-LMNQAVKKSV-LYIMCFINMF,VCNKALEESI-VCNKALEESI-VCNKALEESI-VCNKALEESI-VCNKALEESI-VCNKALEESI-VCNKALEESI-VCNKALEESI-VCNKALEESI-VCNKALEESI
18.0,29,39,B,10,ARVLFPEAVAAVTENINQSIQNMRDWQVVLRSFPEFGSDPNGRLRLVRSIKEEIAHFQQQVQDQYVDIFNQRGYRTQLDREDRERLKQEA-YGGLFVDVKKRFEAKVKDAIANIQDADLVQRSFPDFGSDKQGAEALKRFRNEAIDAIGTRLDARTGAVIDETNLQAELEAADRKEMLEMF-ANASFISLIKEFEEGLKTETAGMMERRKLMEAFPMYGKSEHGQRILNRFQTAMQLEMREMVDKEVRSSFDRYDLQARADENDRATVFALS-PVGSFAGLLKADAQAIADAIKAQTDPKKVLAGFPAYGQHQMGQEKLQAQVSGRLDKFLQAVKRDLLGIYKSTQRAAQLEADDVAARKAAA-GSNLYAQLLKELQRKISDAIKDMEDIKKVYQIFPDYGNRAEGQDKLAELRNGFLKKFQTELQQQFKKWITTTQTQEKLTREDLLNFYQSQ-MENHFAGLETAMAAAVESAIEPLKDKEVIMKAFPSYGATEDGRQALTQEINGAIKKFNDEALTGFNGIWQQNDLKARLALEDKLVTEVRN-PDRTFAKLKDEIARQIIMGIQFGRDSSQVQAAFPAFGATDQGKILLQRYREQRIQNFNSQVQQRINAILDDFQLEQQLEAADQNWLREQA-MGARFEDLRQRVAVKIVSAIAPLTDRNSVYAQYPLFGQTQSGRQLLAEKQGRLINKFLDNCFDEFSLQFENENIKENLATADDLSFTRLN-ANRTFSLCRQYFWAMIEEAISLHSDPERISRSFPDFGNNKYGQMILQQLRNQSLKAFQDDIEARYAAQFEQQNIESQLDFEDHFNNAKLE-MGHSYQQAVADYNKELIDGIVDGLDWAKVLEKEPVFGANKEGRERLNKEKISAAQKMINDSREAFTTINKEQKLKEKLDAIDSTIKAALA,EHIRFQRLVQVCNKALEESIRKLQSWEKIHECFPNYGQTREGIENLTVCQQQVIKLWSNLSRVEFDAIFHERSIEEKLNQLDDLINKARS-EHIRFQRLVQVCNKALEESIRKLQSWEKIHECFPNYGQTREGIENLTVCQQQVIKLWSNLSRVEFDAIFHERSIEEKLNQLDDLINKARS-EHIRFQRLVQVCNKALEESIRKLQSWEKIHECFPNYGQTREGIENLTVCQQQVIKLWSNLSRVEFDAIFHERSIEEKLNQLDDLINKARS-EHIRFQRLVQVCNKALEESIRKLQSWEKIHECFPNYGQTREGIENLTVCQQQVIKLWSNLSRVEFDAIFHERSIEEKLNQLDDLINKARS-EHIRFQRLVQVCNKALEESIRKLQSWEKIHECFPNYGQTREGIENLTVCQQQVIKLWSNLSRVEFDAIFHERSIEEKLNQLDDLINKARS-EHIRFQRLVQVCNKALEESIRKLQSWEKIHECFPNYGQTREGIENLTVCQQQVIKLWSNLSRVEFDAIFHERSIEEKLNQLDDLINKARS-EHIRFQRLVQVCNKALEESIRKLQSWEKIHECFPNYGQTREGIENLTVCQQQVIKLWSNLSRVEFDAIFHERSIEEKLNQLDDLINKARS-EHIRFQRLVQVCNKALEESIRKLQSWEKIHECFPNYGQTREGIENLTVCQQQVIKLWSNLSRVEFDAIFHERSIEEKLNQLDDLINKARS-EHIRFQRLVQVCNKALEESIRKLQSWEKIHECFPNYGQTREGIENLTVCQQQVIKLWSNLSRVEFDAIFHERSIEEKLNQLDDLINKARS-EHIRFQRLVQVCNKALEESIRKLQSWEKIHECFPNYGQTREGIENLTVCQQQVIKLWSNLSRVEFDAIFHERSIEEKLNQLDDLINKARS,EVVERVVGRL-NIGRIVGLSI-EAVREIKRKV-KVLKKVEAGL-TVATRIVNAL-AYLRQIRANL-KVVAEVKRGL-EIIARIEGSL-PSLLEVLRAV-KKVKEIEENI,NAVNEIMYKC-NAVNEIMYKC-NAVNEIMYKC-NAVNEIMYKC-NAVNEIMYKC-NAVNEIMYKC-NAVNEIMYKC-NAVNEIMYKC-NAVNEIMYKC-NAVNEIMYKC
