contacts,cs,ce,Chain,Length,designed_receptor_seq,native_receptor_seq,designed_binder_seq,native_binder_seq
14.0,53,63,A,10,GSIEKYKTLHHELIEEFKAAMAALKERIIHLPSECEKLVFPLSQHIVSFEVEHRPELLLAKLSLMVQVITSASSANPDLGKVLCRPLDAFESIKMDLKSVVAGGALDRALATLKTIPQSMEFGCLLESVTGDAFRLLNIDLFCVSRGEECH-GGIEKFVTMNDELLKAFEKAVSSLEARVVEAEADCRNSVFPLDKDISQYEVKDRPILLEAQLALMLSVLRAAAKANPELGKVLTKPIAVVQKILNDLQRTTGKGTLDQDLRKLQNSPANQSFGCLLDEVTKDFFGLLKAKLRCVATGKKCK-GNISKYTKLQDDILKDNQRAVSAIGSYVRLLKQDCLKEVFPLQLTIEQLNVADQPILLASMMSLTVHVLTRAQKANPRLGRVLSRPLNVLCQILDDLRKTINGGPLQRALLLLQTRPKIMQFGCLLHEVAQNNFRLLETELSCVASGSQCA-PAITKYVSLDKEMLKLFGRAFEALQKRIAKEKNNCSEQVEPLSIKISQLKVNDQPILLRSKLALTLDILTKMAAKDPELGEVLKKPIAVLKAILEDLNQTIPGGVLDKLLKTLATKPQSAKFGCLLEENTRYLFILLDEHLVCVAEGDKCK-ADISKYKRLEPEMLKKFQAAVEALEQRTSCLKKKCDLNVYPLKTDITQLDVRDRPVLLEAELALKVSILTRAAKKDPSLGQVLQQPLVILNRILGDLRTTVKDGWLKSSLATLKEYPAKASFGCLLERTTNDMFTFLKDELKCVAQGESCG-MDISRYIYLNKGLLVEFQNALESIQNRIKKKDNTSVDGVFPLFEDIEALAVEDRPILLHAQMNLTVSVLENFQLKDPKMGKYAKEPLRVLHSILTDLHRTIEGGIRDQMIQKLKLIPENSQPNCLLNEVSSNLFRMLNQDLRCVAMGSHCY-GDITQFQYINEEILKSFDSATTAMHKRIESAKRQDSDRVFPLSRDIVSLTADEQPVLLRALLFLQVKILSQAAEDDPDLGVVLESPLHYMQRILDDLSECIPGGELDDAIFKLQSWPQKTRFDSLLGEVTLYSFVLLDEDLTAVASGRKAE-GEISAYQKLDPMLLENFSKAEQALRDKIRLANEYCESGVFPLGHSIKELEIKERPKLLAAQLQLMYAVLSEAQQEDPELGRVLQQPLTAIESILEDLEATISGGILEALLSRLNVAPANSTFWCMLGEVTEHLFDILDGHLLCVSEGNLCD-SAIHEYRFLEPELLMQFSSAVQALEEKVIHMEARCGNGVMPLETGILELHVSQRPVLLKSQLKHMVNVLTAAASRDPELGKVLAEPLRVAQRILTDLEKTIPGGLLDDINSVIDKWPVNSRFGCLLYQNTRAYFDYLENDLVCVAEGTLCS-GDISQFRELEPALLRSFKAATDVLQVEITKDPVNCQNAVFPLQFKITELRVEDRPQLLHAQLDLALNVLTKASLQDPALGSKLRSPIRALRAILISLYRTINQGLLQTALASLAARPSRACFGCLLGQVTNYLFDLLLVALVAVAEGTKCA,CHIAQFKSLSPRELQAFKRAKDALEESLLLKDCKCRSRLFPRTWDLRQLQVRERPVALEAELALTLKVLDATADTDPALGDVLDQPLHTLHHILSQLRACIQRGRLHRWLHRLQEAPKKESPGCLEASVTFNLFRLLARDLNCVASGDLCE-CHIAQFKSLSPRELQAFKRAKDALEESLLLKDCKCRSRLFPRTWDLRQLQVRERPVALEAELALTLKVLDATADTDPALGDVLDQPLHTLHHILSQLRACIQRGRLHRWLHRLQEAPKKESPGCLEASVTFNLFRLLARDLNCVASGDLCE-CHIAQFKSLSPRELQAFKRAKDALEESLLLKDCKCRSRLFPRTWDLRQLQVRERPVALEAELALTLKVLDATADTDPALGDVLDQPLHTLHHILSQLRACIQRGRLHRWLHRLQEAPKKESPGCLEASVTFNLFRLLARDLNCVASGDLCE-CHIAQFKSLSPRELQAFKRAKDALEESLLLKDCKCRSRLFPRTWDLRQLQVRERPVALEAELALTLKVLDATADTDPALGDVLDQPLHTLHHILSQLRACIQRGRLHRWLHRLQEAPKKESPGCLEASVTFNLFRLLARDLNCVASGDLCE-CHIAQFKSLSPRELQAFKRAKDALEESLLLKDCKCRSRLFPRTWDLRQLQVRERPVALEAELALTLKVLDATADTDPALGDVLDQPLHTLHHILSQLRACIQRGRLHRWLHRLQEAPKKESPGCLEASVTFNLFRLLARDLNCVASGDLCE-CHIAQFKSLSPRELQAFKRAKDALEESLLLKDCKCRSRLFPRTWDLRQLQVRERPVALEAELALTLKVLDATADTDPALGDVLDQPLHTLHHILSQLRACIQRGRLHRWLHRLQEAPKKESPGCLEASVTFNLFRLLARDLNCVASGDLCE-CHIAQFKSLSPRELQAFKRAKDALEESLLLKDCKCRSRLFPRTWDLRQLQVRERPVALEAELALTLKVLDATADTDPALGDVLDQPLHTLHHILSQLRACIQRGRLHRWLHRLQEAPKKESPGCLEASVTFNLFRLLARDLNCVASGDLCE-CHIAQFKSLSPRELQAFKRAKDALEESLLLKDCKCRSRLFPRTWDLRQLQVRERPVALEAELALTLKVLDATADTDPALGDVLDQPLHTLHHILSQLRACIQRGRLHRWLHRLQEAPKKESPGCLEASVTFNLFRLLARDLNCVASGDLCE-CHIAQFKSLSPRELQAFKRAKDALEESLLLKDCKCRSRLFPRTWDLRQLQVRERPVALEAELALTLKVLDATADTDPALGDVLDQPLHTLHHILSQLRACIQRGRLHRWLHRLQEAPKKESPGCLEASVTFNLFRLLARDLNCVASGDLCE-CHIAQFKSLSPRELQAFKRAKDALEESLLLKDCKCRSRLFPRTWDLRQLQVRERPVALEAELALTLKVLDATADTDPALGDVLDQPLHTLHHILSQLRACIQRGRLHRWLHRLQEAPKKESPGCLEASVTFNLFRLLARDLNCVASGDLCE,DLDLTEVLNI-VRDAATAQKL-QVNVSADIAL-FSDDSIFWHL-DLDHSHHHHH-LQDHTEMVDV-PKDDSNDLMV-VGDFASFSAL-FTDDDDLDLV-AADHAAACRL,ECDFSSLSKY-ECDFSSLSKY-ECDFSSLSKY-ECDFSSLSKY-ECDFSSLSKY-ECDFSSLSKY-ECDFSSLSKY-ECDFSSLSKY-ECDFSSLSKY-ECDFSSLSKY
20.0,3,13,B,10,DIPAPINVIVSATNFKAVLQFEHPEFNRGNLTFTSEVLNKASWEVIDDNTLSGSSDFSFLSTTGTHVLRTWSEFDDERSAYVTVTHDPPKDTTIGAPGLEVKVNANSLELAIKAPAIKREYANYTMEDVYYDWQYYVRYWKKGEHKFYQVIPSGSKISLVNLEPNTEYCLQVSGYIPSKEKWGLWSIPVCKKLTNSDF-QIPSPVLVNMDSINFQDIATWTSPTYSAGQLTFTAQYLNDNFWVSEAVNTTTNTANFTFLSSIGTHTIRLFARYNTQFSDWVTVTHNPRADSEMGAPGLGVEVNSVNINLSIDAPIIATESKAYTMCNVYADWQYEVSYWEQGMFNWTRKAPISSNWVHDALKPRTVYCIQVRGFLPGDAKRGRWSQPKCRQLTSSLP-DIPKPTDVVMRDKNFDAILEWSSPDFSKGELSFTAQEKRDKTWEVVDKNTKKDWADFSGISYYGTHTIRIYATYQDEHSGWVTVSYNPRKDSTIGAPGLTISVNNTEINVSISAPQIQEETKDYNVVDVYYFTRYCVKYWERGSNSWHEVYPTTNSYTLTSLSPYTTYCVMARMWDPHNNRQGQWSIPICKQTSETVK-QIPAPEHVTVSSVNFKNILNWKWPDFQEGGLLYTVQVMDANAWVDVDVLTSEDYADLSFLSSFGEHSVRVKATYQMNSSNYVEVVFDPKKDDVMGAPGMKVKVLDNSLKTTIESPIIKKETENYTMVNVYLTWQWQMSFWEQGANIYRHVIPASDEITLRNLKPETEYCIQARGFLPDTNRSGEWSEPVCKKLSKTVG-LIPAPQNVVMVCTDFHCNLQWDSPDFTSGQLTYTAEVKDQRQWKIVCAATKYNFCDFSQVSSYGTHEIRVFAQFEDEQSEFVTIKFNPREDQTIGAPGQTVEVNKTTLDVEFDSPQIVDETKDYQITDVYEDYQFQARYWEKGQSRWKYVVPEQSSWTLKSLQPRTTYCIQGRMHLPKTNTYGEWSKPVCKTTTVWEE-DIPPPVNVRLDATNFKDILKWEKPKFTAGELQYTAQEQEDDVFKVVSKKSSSNSSDFSFLRSSGKHTLRVYSEFKEYRSFYVTVQHKPKEDTKIGAPGLLITVDNLKKNLTILCPKIKSESDTYRVTHVYKDWRFDVSYWEKGESVWHHIWPGLDKAQLTDLKPNTVYCVKARGWLPDTMRYGEWSYPKCRENTTTLT-SIPSPVNVEVHSQNFKDILRWDSPDFSAGALTYTAEVLTRTQWGVVCNQTTYNYCDFSGISHYGSHVLRIHAIYRDQQSGWVQITWCPRQDSEIGAPGQRIEVDHDDLLIQFLAPVIQTESADYQIDDVYSDMQWEVRYFRAGSQRFRLVVPEGSHWSLRNLEPYTVYCVQGRGFLPNENRRGRWSVPVCQETRMITP-SIPPPIQVVNNSENFEVILKWESPVFDWGQLTYSAQYLNGAKWENICNEGRACVCDFSNLSIRGTHTLRVHAIFETHKSNFVTITHTPQEDTVMGPPGMEVRVDFDHLIAAVNSPVITSETANYTVTDVYEDWQYDICFYEAGVHLYNEIYPTNANLILTQLKPKTTYCVQVQGFLPGSARHGKWSSPTCATTTSLFG-DIPTPINVIVQATDFDLICKWVEPEFEQGALTFCSERKTDQAWEFVDIFTRESESDHSGLSVHGTHVLRVRSVFEDEQSSFVVIEFKPQEDRVIGSPGIDLKVDSSALEIKFGAPHISKEDEDYTVTDVYHDWHYWLSYWEKGSKKYNDFVPAIDTFTLQRLKPKTVYCVQGRGFLPKTNTEGKWSDPVCRRTTKTDT-DIPAPVNVKVDSTNFVDILKWDWPSWMYGGLSFTAEVLDTTNWRTVCSNTLLNRCDFTALSTLGDHTLRIKAKYKTMSSEWVTIRYNPLLDTRIGPPGLKVKVEKNKLVVSIESPRIASQVSNYTVSKVYSDWQYYVVYDQLGMRDYKFVVPANSDVVLSDLDPNITYCVQVRGFLPSLQRQGDWSYPVCKTTTVLNN,MVPPPENVRMNSVNFKNILQWESPAFAKGQLTFTAQYLSYRIFQDKCMQTTLTECDFSSLSKYGDHTLRVRAEFADEHSDWVQITFCPVDDTIIGPPGMQVEVLADSLHMRFLAPKIENEYETWTMKNVYNSWTYNVQYWKQGTDEKFQITPQYDFEVLRNLEPWTTYCVQVRGFLPDRNKAGEWSEPVCEQTTHDET-MVPPPENVRMNSVNFKNILQWESPAFAKGQLTFTAQYLSYRIFQDKCMQTTLTECDFSSLSKYGDHTLRVRAEFADEHSDWVQITFCPVDDTIIGPPGMQVEVLADSLHMRFLAPKIENEYETWTMKNVYNSWTYNVQYWKQGTDEKFQITPQYDFEVLRNLEPWTTYCVQVRGFLPDRNKAGEWSEPVCEQTTHDET-MVPPPENVRMNSVNFKNILQWESPAFAKGQLTFTAQYLSYRIFQDKCMQTTLTECDFSSLSKYGDHTLRVRAEFADEHSDWVQITFCPVDDTIIGPPGMQVEVLADSLHMRFLAPKIENEYETWTMKNVYNSWTYNVQYWKQGTDEKFQITPQYDFEVLRNLEPWTTYCVQVRGFLPDRNKAGEWSEPVCEQTTHDET-MVPPPENVRMNSVNFKNILQWESPAFAKGQLTFTAQYLSYRIFQDKCMQTTLTECDFSSLSKYGDHTLRVRAEFADEHSDWVQITFCPVDDTIIGPPGMQVEVLADSLHMRFLAPKIENEYETWTMKNVYNSWTYNVQYWKQGTDEKFQITPQYDFEVLRNLEPWTTYCVQVRGFLPDRNKAGEWSEPVCEQTTHDET-MVPPPENVRMNSVNFKNILQWESPAFAKGQLTFTAQYLSYRIFQDKCMQTTLTECDFSSLSKYGDHTLRVRAEFADEHSDWVQITFCPVDDTIIGPPGMQVEVLADSLHMRFLAPKIENEYETWTMKNVYNSWTYNVQYWKQGTDEKFQITPQYDFEVLRNLEPWTTYCVQVRGFLPDRNKAGEWSEPVCEQTTHDET-MVPPPENVRMNSVNFKNILQWESPAFAKGQLTFTAQYLSYRIFQDKCMQTTLTECDFSSLSKYGDHTLRVRAEFADEHSDWVQITFCPVDDTIIGPPGMQVEVLADSLHMRFLAPKIENEYETWTMKNVYNSWTYNVQYWKQGTDEKFQITPQYDFEVLRNLEPWTTYCVQVRGFLPDRNKAGEWSEPVCEQTTHDET-MVPPPENVRMNSVNFKNILQWESPAFAKGQLTFTAQYLSYRIFQDKCMQTTLTECDFSSLSKYGDHTLRVRAEFADEHSDWVQITFCPVDDTIIGPPGMQVEVLADSLHMRFLAPKIENEYETWTMKNVYNSWTYNVQYWKQGTDEKFQITPQYDFEVLRNLEPWTTYCVQVRGFLPDRNKAGEWSEPVCEQTTHDET-MVPPPENVRMNSVNFKNILQWESPAFAKGQLTFTAQYLSYRIFQDKCMQTTLTECDFSSLSKYGDHTLRVRAEFADEHSDWVQITFCPVDDTIIGPPGMQVEVLADSLHMRFLAPKIENEYETWTMKNVYNSWTYNVQYWKQGTDEKFQITPQYDFEVLRNLEPWTTYCVQVRGFLPDRNKAGEWSEPVCEQTTHDET-MVPPPENVRMNSVNFKNILQWESPAFAKGQLTFTAQYLSYRIFQDKCMQTTLTECDFSSLSKYGDHTLRVRAEFADEHSDWVQITFCPVDDTIIGPPGMQVEVLADSLHMRFLAPKIENEYETWTMKNVYNSWTYNVQYWKQGTDEKFQITPQYDFEVLRNLEPWTTYCVQVRGFLPDRNKAGEWSEPVCEQTTHDET-MVPPPENVRMNSVNFKNILQWESPAFAKGQLTFTAQYLSYRIFQDKCMQTTLTECDFSSLSKYGDHTLRVRAEFADEHSDWVQITFCPVDDTIIGPPGMQVEVLADSLHMRFLAPKIENEYETWTMKNVYNSWTYNVQYWKQGTDEKFQITPQYDFEVLRNLEPWTTYCVQVRGFLPDRNKAGEWSEPVCEQTTHDET,RNNVMMAPRA-GRRELERPGA-KIKQFIDPGF-DEKLLLRPGF-HHHHHHAPGS-VEHHHHAPGL-ISDVVLEPGR-PKPVLPMPGS-IAVIKSAPRE-STDVLHAPGW,AQFKSLSPRE-AQFKSLSPRE-AQFKSLSPRE-AQFKSLSPRE-AQFKSLSPRE-AQFKSLSPRE-AQFKSLSPRE-AQFKSLSPRE-AQFKSLSPRE-AQFKSLSPRE
