contacts,cs,ce,Chain,Length,designed_receptor_seq,native_receptor_seq,designed_binder_seq,native_binder_seq
12.0,164,174,A,10,GRNRAYITLDPALLQHFRAAVEAREAVVEGADARGANEVLPFLASIVEFDVADRPVLLRAKLSLAVAVYRQAAARDPTLGTTLNEPLVQLDEILVDLDRTLAGGRLEAAQSLLTTRPAHSRFYDLLGEVTRDLFLLLYRDLRCVAQGRHCD-GKLSKYTRLDPRLLSCCLAAQQAVLQRVRGCTMAAQQEVFPLAVAMEAYAVQQRPVLLASEMQLCLDVLTRAAEQQPALGQVLAEPIGVLGDILTDLYRCCDQGWLHRAREVLARCPEAQHFGSQLGDVSYAMFSLLLGRLHDVAQGQQCQ-GMIGEYQMLHPILLQQFTRAVRALRTRDQAEARRGSARVFPLRRHLRDFDVVERPVLLEGQLALMLEVLQQAAARDPELGDVLRQPLVFLQFVLRDLRTETEGGQLADALAELQRRPAESRFGDMLHEVNDHFFYLLKYQLFAVASGERAE-GMISRYRELAPRVLQAFQSLEDAVTRERIKEDSSCTFQLFPLEERIEALRVHERPELLAAELALTVDVLRAAAEANPPLGGVAKEPLKVMEAIRRDLHAQSGNGRLASYLAKLERVPKHHCPGCLLREVTEHCFLLLLDDLLCVAMGSECR-ASISKYTTLNPAMLADMEKAKKALFAFVEKRANYSINKVFPLKQSIKEFDAKDRPVLLEAELNLTLSVLEQARDRHPELGNTLDRPIQMLRRIQTDLKTVIPFDHLYLAKLILKTRPQSTDFGSLLGEVTGAFFGLMLEKLNCVARGENCR-GNITQYQFLDPADLQQFKAATQALGCRVRSRQSVGSQGVFPLKDHIELLTVEERPRLLRAELQLLHQVLTAASCWSPSLGRVLRAPLVKVRSILYDLESQIHDGILSEALSSLAQTPQRMDFGTLLQWVTDHLFCVLNFKLRFVSEGFCAD-MNIEQYTKLDPELLVEAQQAQEALLAIIENLEQDDEHLIFPPSNAITELEVLQRPILLMYQLALTVDVLQQEAERLPQTGVTLESPLLFYQRVLGDLKETIEDGPLSQYLYQVKTAPQRQSFGSLLGEVNDQLFNLLQWRLNDVAQGENAV-GDISAYRILEPSLLESFTKAKLALEARTLTLKSSCDSQIFPLRNSIETLAVENRPILLEAQTSLMLAVLQAAAKDDPALGVVLHDPLMTISLVLEDLRSHIGLGELEESLYKIAVAPKKTQFGCLLSEVNDNAFNLLHYNLKCVAAGSDCA-SAIHRYKILHPEDLKLFKLATDRLYQAVDNLEEDCDEAVFPLKRKIRELAEKDRPVLLRAELELMVQVLTSAAEVNPELGIILQEPLQLAQEILRDLNETLTSGYLSEAIDKLAKVPKKQSFSCLLYEVNNHIFLLLNTTLRDVALGSNAG-GNINQYQHIDPALKESFEQAVLALEQEVEKAEQDCHDRVFPLHFDTNELNVQDRPLLLQAQLSLTVTVFSNAAVRDPSLGQQLKEPLTFLRQVQQDLEKQISPGRLQTALEQIASYPQRSTFGCLLNQVNHSAFDILDNQLFCVASGNLCE,CHIAQFKSLSPRELQAFKRAKDALEESLLLKDCKCRSRLFPRTWDLRQLQVRERPVALEAELALTLKVLDATADTDPALGDVLDQPLHTLHHILSQLRACIQRGRLHRWLHRLQEAPKKESPGCLEASVTFNLFRLLARDLNCVASGDLCE-CHIAQFKSLSPRELQAFKRAKDALEESLLLKDCKCRSRLFPRTWDLRQLQVRERPVALEAELALTLKVLDATADTDPALGDVLDQPLHTLHHILSQLRACIQRGRLHRWLHRLQEAPKKESPGCLEASVTFNLFRLLARDLNCVASGDLCE-CHIAQFKSLSPRELQAFKRAKDALEESLLLKDCKCRSRLFPRTWDLRQLQVRERPVALEAELALTLKVLDATADTDPALGDVLDQPLHTLHHILSQLRACIQRGRLHRWLHRLQEAPKKESPGCLEASVTFNLFRLLARDLNCVASGDLCE-CHIAQFKSLSPRELQAFKRAKDALEESLLLKDCKCRSRLFPRTWDLRQLQVRERPVALEAELALTLKVLDATADTDPALGDVLDQPLHTLHHILSQLRACIQRGRLHRWLHRLQEAPKKESPGCLEASVTFNLFRLLARDLNCVASGDLCE-CHIAQFKSLSPRELQAFKRAKDALEESLLLKDCKCRSRLFPRTWDLRQLQVRERPVALEAELALTLKVLDATADTDPALGDVLDQPLHTLHHILSQLRACIQRGRLHRWLHRLQEAPKKESPGCLEASVTFNLFRLLARDLNCVASGDLCE-CHIAQFKSLSPRELQAFKRAKDALEESLLLKDCKCRSRLFPRTWDLRQLQVRERPVALEAELALTLKVLDATADTDPALGDVLDQPLHTLHHILSQLRACIQRGRLHRWLHRLQEAPKKESPGCLEASVTFNLFRLLARDLNCVASGDLCE-CHIAQFKSLSPRELQAFKRAKDALEESLLLKDCKCRSRLFPRTWDLRQLQVRERPVALEAELALTLKVLDATADTDPALGDVLDQPLHTLHHILSQLRACIQRGRLHRWLHRLQEAPKKESPGCLEASVTFNLFRLLARDLNCVASGDLCE-CHIAQFKSLSPRELQAFKRAKDALEESLLLKDCKCRSRLFPRTWDLRQLQVRERPVALEAELALTLKVLDATADTDPALGDVLDQPLHTLHHILSQLRACIQRGRLHRWLHRLQEAPKKESPGCLEASVTFNLFRLLARDLNCVASGDLCE-CHIAQFKSLSPRELQAFKRAKDALEESLLLKDCKCRSRLFPRTWDLRQLQVRERPVALEAELALTLKVLDATADTDPALGDVLDQPLHTLHHILSQLRACIQRGRLHRWLHRLQEAPKKESPGCLEASVTFNLFRLLARDLNCVASGDLCE-CHIAQFKSLSPRELQAFKRAKDALEESLLLKDCKCRSRLFPRTWDLRQLQVRERPVALEAELALTLKVLDATADTDPALGDVLDQPLHTLHHILSQLRACIQRGRLHRWLHRLQEAPKKESPGCLEASVTFNLFRLLARDLNCVASGDLCE,PLLMAVREHP-GQLVLRFARQ-QAQVVLDEDP-ARVLCITSDE-GSITIDVAES-GVTLEVSAVP-NNFKGLNQTD-QYLAIVDTVP-AKLTLRLAKK-PQSIKIFASR,ARTIYTFSVP-ARTIYTFSVP-ARTIYTFSVP-ARTIYTFSVP-ARTIYTFSVP-ARTIYTFSVP-ARTIYTFSVP-ARTIYTFSVP-ARTIYTFSVP-ARTIYTFSVP
16.0,129,139,B,10,LFTTAELRSDCFRAYLRWDGFVEVKYRLAPSYTESEFLAASSGTWQDTANMTCLEDMDLYNAYVAEVRHINPFSQEPWVSSGWLFFLSNVLPCPPQLQLTQQSSVLSAKAQYQLPPCLPPLLLSYQLDYYTRGAGSYTSYPLTPAGVPVQIALGPAQNLNNCVAARTILTITQPTSSGYSTPTCFISL-VLSSVINTTSQFVVNVYWLGTVQVQYALRPDLKQFMGLSSCSGSSLTSCNMTCLEKSNLYTSFRARVRDITPGNFTPWSDTGDLFFLDEVQPSPPVVSLSYVNNVLTAAANYTLPECIPPLQLNYEVRFSQLGAGSAQLYPLTPAGTPTEISVLPEKAIIYCVEARTVYTHSFPIISGFSQPICFSTP-AYSDVVLQSEAWKVFLRWTGVIRVRYRLWPRRSEWTALASAAGSRSSVADMTCLSYDDLYNAFTGAVAKVNPNISTPWSMSGWLTYYWMVTPAAPTIDLTVKADILSAKATYALPPCIPPYRLTYIVRYYSWGSGEWRDYPETPAGEPVDISLYPENTVMYCLAARTVLEYVRPVKSGFSEPVCFLQR-APTTIELFSENWKVHLRWTGVYDVQYALRPNLTTWTTLSASKGSTRTTANMTCLSADNLYTGFRARVRATSPAETDPWVTSGWLAYLTEVTPAPPKLKITIDDNILSAEAQYTLPPCAPPLRFSFEVQYWESGEGNIISFPITPSGKPVKITLGPTYNRTMCLSARTVLEYDVPRYSGYSTPQCFQQA-MPSLITLYSQYYRVLLWWQGNREIKYQLWPNWEQRTELRQCQGGVSSVCDLTCLSEADLYNWFRGAVRYITPYVTAPWAWSCGLNFLDEVQPDPPTLWLRTDRHRLQAAASFKLPPCLPPLKLTYIVQYAEEGSGVRQLYPRTPAGTPVQIALGPSHARRYCLQARTVLFFRTPRASGFSLPYCFIQR-NFVWANLISSDFKVCGEWSGKVLVQYVLEPQSVRSTLLANCRGIESKKCDLTCLSNANLYNCFRGSVREVTPLWDCPWLTSGELCYLDNVQPCPPHLALTQYETTLSATATYDLPPCLPPLFLSYIVAFWEAGSGQFSLFPITPSGFPVDISLGPEDEHFYCVAAKTVETYRVPIFSGYSSPQCFILN-IYDTVKLYAEAFRVYLAWAPTTEVEYRLAPSSEKWRTIKSCRGTNRAVADMTCLKDMNLYNGFRARVRHIDPLYTAPWKESGTLFYLDQFVPQPPTLKLTVTGMTLKATAEYTLPECLPPLELSFQVAYAQLGAGRYKLFPLTPYGQPVEIQLNPEAQTIHCVQARTIECFRVPIFSGYSQPQCFTQQ-TGEELRLQSKDYRVYLYWSGETEVRYVLEPSANHSYTLYRALGSSLNQANMTCLRKQNLYTEFRAEVRSISPWFAAPWQSSDWLFYLQEVVPQPPRLNLTINRNVLTALAQYRLPTCLPPLSLSYIVKYYAQGQGIEELFPETPAGQPVSISLFPSNTIQYCVEARTVYENLVPIYSGFSTPVCFLQG-EVYHVILETVNFQVKLYWSGYALVKYTLQPMNDEWTAISSCDGTNQLWCDMTCLESMDLYNGFKAGIRAVTPCYQMPWVESGTLYYLEEVKPDPPTLNLTIQDHILSAAAEYSLPPCLPPLDLNYVVRFYDQGSGEWTLYPETPAGVPVRIALNPISKADYCLQARTVLTYKFPIYSGFSEPICFEQD-IFDQVTLESKAWRVYLRWEGEVEVRYELAPDARKRRTLYHCTGTKESYCNMTCLEDENLYTKFKACVRYITPFTDSPWKWSGGLDFLYEASPAPPIVALSVSDSVLSAKANYTLPPCLPPLSLQYTVSFYEQGSGTEKLFPVTPAGKPVNIALRPDVAEKFCVAAKTVFTYDTPVESDFSSPECFVSE,PPQNVTLLSQNFSVYLTWLPTYFVAYQSSPTRRRWREVEECAGTKELLCSMMCLKKQDLYNKFKGRVRTVSPSSKSPWVESEYLDYLFEVEPAPPVLVLTQTEEILSANATYQLPPCMPPLDLKYEVAFWKEGAGNKTLFPVTPHGQPVQITLQPAASEHHCLSARTIYTFSVPKYSKFSKPTCFLLE-PPQNVTLLSQNFSVYLTWLPTYFVAYQSSPTRRRWREVEECAGTKELLCSMMCLKKQDLYNKFKGRVRTVSPSSKSPWVESEYLDYLFEVEPAPPVLVLTQTEEILSANATYQLPPCMPPLDLKYEVAFWKEGAGNKTLFPVTPHGQPVQITLQPAASEHHCLSARTIYTFSVPKYSKFSKPTCFLLE-PPQNVTLLSQNFSVYLTWLPTYFVAYQSSPTRRRWREVEECAGTKELLCSMMCLKKQDLYNKFKGRVRTVSPSSKSPWVESEYLDYLFEVEPAPPVLVLTQTEEILSANATYQLPPCMPPLDLKYEVAFWKEGAGNKTLFPVTPHGQPVQITLQPAASEHHCLSARTIYTFSVPKYSKFSKPTCFLLE-PPQNVTLLSQNFSVYLTWLPTYFVAYQSSPTRRRWREVEECAGTKELLCSMMCLKKQDLYNKFKGRVRTVSPSSKSPWVESEYLDYLFEVEPAPPVLVLTQTEEILSANATYQLPPCMPPLDLKYEVAFWKEGAGNKTLFPVTPHGQPVQITLQPAASEHHCLSARTIYTFSVPKYSKFSKPTCFLLE-PPQNVTLLSQNFSVYLTWLPTYFVAYQSSPTRRRWREVEECAGTKELLCSMMCLKKQDLYNKFKGRVRTVSPSSKSPWVESEYLDYLFEVEPAPPVLVLTQTEEILSANATYQLPPCMPPLDLKYEVAFWKEGAGNKTLFPVTPHGQPVQITLQPAASEHHCLSARTIYTFSVPKYSKFSKPTCFLLE-PPQNVTLLSQNFSVYLTWLPTYFVAYQSSPTRRRWREVEECAGTKELLCSMMCLKKQDLYNKFKGRVRTVSPSSKSPWVESEYLDYLFEVEPAPPVLVLTQTEEILSANATYQLPPCMPPLDLKYEVAFWKEGAGNKTLFPVTPHGQPVQITLQPAASEHHCLSARTIYTFSVPKYSKFSKPTCFLLE-PPQNVTLLSQNFSVYLTWLPTYFVAYQSSPTRRRWREVEECAGTKELLCSMMCLKKQDLYNKFKGRVRTVSPSSKSPWVESEYLDYLFEVEPAPPVLVLTQTEEILSANATYQLPPCMPPLDLKYEVAFWKEGAGNKTLFPVTPHGQPVQITLQPAASEHHCLSARTIYTFSVPKYSKFSKPTCFLLE-PPQNVTLLSQNFSVYLTWLPTYFVAYQSSPTRRRWREVEECAGTKELLCSMMCLKKQDLYNKFKGRVRTVSPSSKSPWVESEYLDYLFEVEPAPPVLVLTQTEEILSANATYQLPPCMPPLDLKYEVAFWKEGAGNKTLFPVTPHGQPVQITLQPAASEHHCLSARTIYTFSVPKYSKFSKPTCFLLE-PPQNVTLLSQNFSVYLTWLPTYFVAYQSSPTRRRWREVEECAGTKELLCSMMCLKKQDLYNKFKGRVRTVSPSSKSPWVESEYLDYLFEVEPAPPVLVLTQTEEILSANATYQLPPCMPPLDLKYEVAFWKEGAGNKTLFPVTPHGQPVQITLQPAASEHHCLSARTIYTFSVPKYSKFSKPTCFLLE-PPQNVTLLSQNFSVYLTWLPTYFVAYQSSPTRRRWREVEECAGTKELLCSMMCLKKQDLYNKFKGRVRTVSPSSKSPWVESEYLDYLFEVEPAPPVLVLTQTEEILSANATYQLPPCMPPLDLKYEVAFWKEGAGNKTLFPVTPHGQPVQITLQPAASEHHCLSARTIYTFSVPKYSKFSKPTCFLLE,YYAYYRATVG-RWAYFHSFCP-YYSAHRIILG-TYTYFHNLVG-QHNALRIRVG-TWNQRRIIEG-YFRRNKLTIG-YFTFYREVVG-YYIYYHVIVG-HFQFLQTLFG,TFNLFRLLAR-TFNLFRLLAR-TFNLFRLLAR-TFNLFRLLAR-TFNLFRLLAR-TFNLFRLLAR-TFNLFRLLAR-TFNLFRLLAR-TFNLFRLLAR-TFNLFRLLAR
