contacts,cs,ce,Chain,Length,designed_receptor_seq,native_receptor_seq,designed_binder_seq,native_binder_seq
14.0,63,73,A,10,MAKAKARRIAKRLRTEGLRKANGIKPRRKKVK-MARARARRRAARLRRRGRRRRRGERPRRRRRR-MARAKARRIAARLRREGLRKALGIKPRKKRVP-MAKAKARRIAAKLRREGLRKANGIKPKKVKKK-MARAKARRIAARLRREGLRKANGIKPRRKKVK-MAKAKARRIAAKLRSEGLKKANGIKPKKKKKK-MARLKAANIAAKLKTAGLKAALGIKPKKKKKK-MARAKARRIAAKLRSEGLKKALGIKPKKKKVK-MAEARARRIAARLRREGLRRALGIRPRRRRRP-MARAKARRIAAKLRSEGLKKANGIKPKKKVVK,SQEAVIRDIARHLARIGDRMEYGIRPGLVDSL-SQEAVIRDIARHLARIGDRMEYGIRPGLVDSL-SQEAVIRDIARHLARIGDRMEYGIRPGLVDSL-SQEAVIRDIARHLARIGDRMEYGIRPGLVDSL-SQEAVIRDIARHLARIGDRMEYGIRPGLVDSL-SQEAVIRDIARHLARIGDRMEYGIRPGLVDSL-SQEAVIRDIARHLARIGDRMEYGIRPGLVDSL-SQEAVIRDIARHLARIGDRMEYGIRPGLVDSL-SQEAVIRDIARHLARIGDRMEYGIRPGLVDSL-SQEAVIRDIARHLARIGDRMEYGIRPGLVDSL,PVEEILNEGE-PVRRVLRRGR-PVLEILFEGP-PVEEILNEGP-PVLEILNEGP-PVKKILEKGK-PVMDILNAGK-PVEEILNKGK-PVLDILREGP-SVEEILNKGK,GVVTELFKDL-GVVTELFKDL-GVVTELFKDL-GVVTELFKDL-GVVTELFKDL-GVVTELFKDL-GVVTELFKDL-GVVTELFKDL-GVVTELFKDL-GVVTELFKDL
30.0,11,21,B,10,MEIIDEILIGYIKYRIKKTSKDDLSPYEKEIAKIYDKFAEELNKRIKITYNIKNKEEIKEKFKGVVDKLFENKKNYGRLCGFIVYSAIMANYCKEKKINLEDVVIKEAKNYFKENLLPWLKENGGKEEFLKFSKK-MDIINEIVTGYIKYRIKKMSKDDLSPYEKEIAKILDKYAEELGKRVKITFNIKNKEEIKKEFKGVVDKLFKNKKNYGRLCGFIVYSAEMAYYCKKKKNKLEDVVIKEAKNYFKENLLPWLKKNGGKEEFLKFSKK-MSIIDEIVTGYIKYRIKKISKDELSPYEKEIAKILDKFDEELNKRIKITFNIKNKEEIKKEFKGVVDKLFKNKKNYGRLCGFIVYSAKMALYCKEKKIKLEDVVIKEAKNYFKENLLPWLKKNGGKEEFLKFSKK-MSIIDEIVTGYIKYRIKKISKDELSPYEKEISKILDKFDEELNKRIKIEFNIKNKEEIKKEFKGVVDKLFKNKKNYGRLCGFIVYSAIMANYCKKSKIKLEDVVIKEAKNYFKKNILPWLKKNGGKEEFLKFSKK-MSIIDEIVTGYIRYRIKEKSLDELSPYEKEIAKILDKFDEELNKKIKITFNIKNKEEIKKEFKGVVDELFKDKKNYGRLCGFIVYSAKMAKYCKDKKIKLEKEVIKEAKNYFKKNLLPWLKKNGGKEEFLKFSKK-MEIIDEILTGYIRYRIKEKGFNDLSPYEKEISKILDKFDEELNKRIKIEFNIKNKEEIKKEFKGVVDELFKNKKNYGRLCGFIVYSAKMANYCKEKKIKLEKEVIKEAKNYFKENLLPWLKENGGKEEFLKFSKE-MSIIDEIVTGYIKYRIKKMSKDDLSPYEKEIAKILDKYAEELNKRVKITYNIKNKEEIKKEFKGVVDKLFKNKKNYGRLCGFIVYSAEMAYYCKKKKNKLEDVVIKEAKNYFKKNLLPWMKKNGGKEEFLKFSKK-SNIIDEIVTGYIRYRIKKTSLDDLSPYEKEISKILDKFDSELNKRIKITYNIKNKEEIKSSFLGVVNELFKNKKNYGRLCGFIVYSAKMANYCKKSKINLEDVVIKEAKNYFKDNLLPWLIKNGGKEEFLKFSKK-MSIIDEILIGYIKYRIKKTSFNDLSPYEKEISKILDKYAEELNKRIKITFNIKNKEEIKKEFKGVVDKLFKNKKNYGRLCGFIVYSAEMAYYCKEKKIKLEDVVIKEAKNYFKENLLPWLKKNGGKEEFLKFSKK-MEIIDEILIGYIKYRIKKIGKDELSPYEKEIAKILDKYAEELNKRIKIEFNIKNKEEIKKEFKGVVDKLFKNKKNYGRLCGFIVYSAIMANYCKEKKIKLEEVVIKEAKNYFKENLLPWLKENGGKEEFLKFSKK,HNIINEILVGYIKYYINDISEHELSPYQQQIKKILTYYDECLNKQVTITFSLTSVQEIKTQFTGVVTELFKDLINWGRICGFIVFSAKMAKYCKDANNHLESTVITTAYNFMKHNLLPWMISHGGQEEFLAFSLH-HNIINEILVGYIKYYINDISEHELSPYQQQIKKILTYYDECLNKQVTITFSLTSVQEIKTQFTGVVTELFKDLINWGRICGFIVFSAKMAKYCKDANNHLESTVITTAYNFMKHNLLPWMISHGGQEEFLAFSLH-HNIINEILVGYIKYYINDISEHELSPYQQQIKKILTYYDECLNKQVTITFSLTSVQEIKTQFTGVVTELFKDLINWGRICGFIVFSAKMAKYCKDANNHLESTVITTAYNFMKHNLLPWMISHGGQEEFLAFSLH-HNIINEILVGYIKYYINDISEHELSPYQQQIKKILTYYDECLNKQVTITFSLTSVQEIKTQFTGVVTELFKDLINWGRICGFIVFSAKMAKYCKDANNHLESTVITTAYNFMKHNLLPWMISHGGQEEFLAFSLH-HNIINEILVGYIKYYINDISEHELSPYQQQIKKILTYYDECLNKQVTITFSLTSVQEIKTQFTGVVTELFKDLINWGRICGFIVFSAKMAKYCKDANNHLESTVITTAYNFMKHNLLPWMISHGGQEEFLAFSLH-HNIINEILVGYIKYYINDISEHELSPYQQQIKKILTYYDECLNKQVTITFSLTSVQEIKTQFTGVVTELFKDLINWGRICGFIVFSAKMAKYCKDANNHLESTVITTAYNFMKHNLLPWMISHGGQEEFLAFSLH-HNIINEILVGYIKYYINDISEHELSPYQQQIKKILTYYDECLNKQVTITFSLTSVQEIKTQFTGVVTELFKDLINWGRICGFIVFSAKMAKYCKDANNHLESTVITTAYNFMKHNLLPWMISHGGQEEFLAFSLH-HNIINEILVGYIKYYINDISEHELSPYQQQIKKILTYYDECLNKQVTITFSLTSVQEIKTQFTGVVTELFKDLINWGRICGFIVFSAKMAKYCKDANNHLESTVITTAYNFMKHNLLPWMISHGGQEEFLAFSLH-HNIINEILVGYIKYYINDISEHELSPYQQQIKKILTYYDECLNKQVTITFSLTSVQEIKTQFTGVVTELFKDLINWGRICGFIVFSAKMAKYCKDANNHLESTVITTAYNFMKHNLLPWMISHGGQEEFLAFSLH-HNIINEILVGYIKYYINDISEHELSPYQQQIKKILTYYDECLNKQVTITFSLTSVQEIKTQFTGVVTELFKDLINWGRICGFIVFSAKMAKYCKDANNHLESTVITTAYNFMKHNLLPWMISHGGQEEFLAFSLH,ELAKIGDEIN-ELAKIGDEIN-ELAKIGDEIN-ELAKIGDEIN-ELAKIGDKIN-ELAKIGDEIN-ELAKIGDEIN-ELAKIGDEIN-ELAKIGDEIN-ELAKIGDEIN,HLARIGDRME-HLARIGDRME-HLARIGDRME-HLARIGDRME-HLARIGDRME-HLARIGDRME-HLARIGDRME-HLARIGDRME-HLARIGDRME-HLARIGDRME
