contacts,cs,ce,Chain,Length,designed_receptor_seq,native_receptor_seq,designed_binder_seq,native_binder_seq
15.0,12,22,A,10,GPLSELIESGRLEKLITSVEEARRTAEVAIRAAALLDRVARELASRGVVSRIAER-GSKEELKASGKLEQLKKRKEEIEKLKKREKLLEKLEKEYEEVKAKGGEELAKKIL-GPLSALKDSGLLERLVETELALEKAKARLARLEKLKADLEARLAELGDEAAARLK-GPLSSAAASGKLSAAVKALEKEREEREVEEKIAKLRAELAREVAREGLVEELEER-GPLSALLTSGLLWTAILTIVAIIFTVFKGIQLLNAIKSLDRQLARQGILAEIERN-SPLLDLYASGELFEAVETVLADVQRRAVDRLVAELERQHERLRAAGGGALAAERR-GPLSVLKDSGLLKAYMDSKQKLVKETAVLEKIKKLLDETEKILAERGMITKEDIE-GPLSSLKESGLLLQAQLAVLEAQRSAALGAQLQALLEALAASAAAAGAALAAALA-GPLRVLRESGVLERLVYRVEEGARLLAVGEKLLSLLREAEERLAELGVLRERERE-SLLLTLKESGLLKELLELKERKEELNERLEELEEAVEELEEKLAEEGLLKELKEK,NTLVVLHKSGLLEITLKTKELIRQNQATQAELDQLKEQTQFIEATKWAKLQASLT-NTLVVLHKSGLLEITLKTKELIRQNQATQAELDQLKEQTQFIEATKWAKLQASLT-NTLVVLHKSGLLEITLKTKELIRQNQATQAELDQLKEQTQFIEATKWAKLQASLT-NTLVVLHKSGLLEITLKTKELIRQNQATQAELDQLKEQTQFIEATKWAKLQASLT-NTLVVLHKSGLLEITLKTKELIRQNQATQAELDQLKEQTQFIEATKWAKLQASLT-NTLVVLHKSGLLEITLKTKELIRQNQATQAELDQLKEQTQFIEATKWAKLQASLT-NTLVVLHKSGLLEITLKTKELIRQNQATQAELDQLKEQTQFIEATKWAKLQASLT-NTLVVLHKSGLLEITLKTKELIRQNQATQAELDQLKEQTQFIEATKWAKLQASLT-NTLVVLHKSGLLEITLKTKELIRQNQATQAELDQLKEQTQFIEATKWAKLQASLT-NTLVVLHKSGLLEITLKTKELIRQNQATQAELDQLKEQTQFIEATKWAKLQASLT,VRRDVEIALR-LEEAFKILEE-AVEALVELLR-LEEALRVLEK-LLQILTIVVA-IERLREIQAA-LDDAKDVLEA-PAAALALLAA-LEEEWELLLE-LEERLEILKK,LEQRTRIEAN-LEQRTRIEAN-LEQRTRIEAN-LEQRTRIEAN-LEQRTRIEAN-LEQRTRIEAN-LEQRTRIEAN-LEQRTRIEAN-LEQRTRIEAN-LEQRTRIEAN
14.0,11,21,B,10,GSHMEEAKELLERLKKLGKLEELEKRVEEIERILEELRK-SELEILRRKTEELQKLLEEGKRLEEKIKEIKEILEKIEE-GSHMEKLGELEKLLQEVKKLEKIKKLMDEIKKIVEELKK-GSKAELEAVEEELAEEQRRAEELRRLRTELDRIESLLKE-GAMRSLEKEMEMVKEIIGEKERLKKLIERAEEILKELSE-GSHMEREKKLRKLEKILKESKKIEKLEKEIEEILKELEK-GSHMKSLEKLQKKLEQLQQEKEKADQLKEFEKILKLLDD-GSHMESLRLALESARLQQEAARLAALADRVSEIAAKLAT-MAELLSRVDEAIGELRKRKGEEIERIKEKVEEILEEIKK-SPELLEHQKLIEQLKKLEEERRRLEQLEELEKILEELKK,SAQLGAQHLKDQLEQRTRIEANIHRQQEELRKIQEQLQV-SAQLGAQHLKDQLEQRTRIEANIHRQQEELRKIQEQLQV-SAQLGAQHLKDQLEQRTRIEANIHRQQEELRKIQEQLQV-SAQLGAQHLKDQLEQRTRIEANIHRQQEELRKIQEQLQV-SAQLGAQHLKDQLEQRTRIEANIHRQQEELRKIQEQLQV-SAQLGAQHLKDQLEQRTRIEANIHRQQEELRKIQEQLQV-SAQLGAQHLKDQLEQRTRIEANIHRQQEELRKIQEQLQV-SAQLGAQHLKDQLEQRTRIEANIHRQQEELRKIQEQLQV-SAQLGAQHLKDQLEQRTRIEANIHRQQEELRKIQEQLQV-SAQLGAQHLKDQLEQRTRIEANIHRQQEELRKIQEQLQV,ERILEKLKKL-EEILEKLKKV-EEVKERLEKV-EDVKERLEEL-EEIFKRALEL-EKILEKLKKI-DEVKERLKKL-GEVLADLTAV-KEIREKLEEV-EETLERLKRL,LEITLKTKEL-LEITLKTKEL-LEITLKTKEL-LEITLKTKEL-LEITLKTKEL-LEITLKTKEL-LEITLKTKEL-LEITLKTKEL-LEITLKTKEL-LEITLKTKEL
