contacts,cs,ce,Chain,Length,designed_receptor_seq,native_receptor_seq,designed_binder_seq,native_binder_seq
15.0,12,22,A,10,GPLASLYKSGKLHDTIVTVWRRVVQEMWNRLLTGLCAKLAEIGSNSKSDWEREQE-GPNDVYILSGNYSAAVSAYAAKVQSDSLGAKATTLSLILNRLQASTGTRLDEFMA-VPISQLKRSGWLKKRKTWVKLEADIQRILDQIENAKVFQARLWALSGTAAQHNFF-EIDNAMINSGVAGVITATLLAFILGLLLLVDFVLLLMVSTLTRSARGAYLKKKAG-SPLKKLIQSGHLLDTIRTILSDIEEIEQDEKLRWLHHSKRLVADSGNAVLEDELN-APMFGLAVSGVAMISSIAGSSAILAASVAVKAKSEAARTAIRTARFGLTLERELS-DPLDELIRSGQYYLRLAKLVWQKRIKRVEKRINNLTKKITNILKDLGIETLIEEF-APLDEMRASGQLHALCETLQYHDQRMMLIHKLARLQTDVAGALAQAGIARDEKGL-AARFALQASGLAQIAAQDVTTAIQTHETMMKLMLMLVKARKTAAEQSIDLKTLRH-MPWERSFQSGLLYSTIFDYRQTARQNVIAEKKAALDSATTLIEAVRGATLEARRS,NTLVVLHKSGLLEITLKTKELIRQNQATQAELDQLKEQTQFIEATKWAKLQASLT-NTLVVLHKSGLLEITLKTKELIRQNQATQAELDQLKEQTQFIEATKWAKLQASLT-NTLVVLHKSGLLEITLKTKELIRQNQATQAELDQLKEQTQFIEATKWAKLQASLT-NTLVVLHKSGLLEITLKTKELIRQNQATQAELDQLKEQTQFIEATKWAKLQASLT-NTLVVLHKSGLLEITLKTKELIRQNQATQAELDQLKEQTQFIEATKWAKLQASLT-NTLVVLHKSGLLEITLKTKELIRQNQATQAELDQLKEQTQFIEATKWAKLQASLT-NTLVVLHKSGLLEITLKTKELIRQNQATQAELDQLKEQTQFIEATKWAKLQASLT-NTLVVLHKSGLLEITLKTKELIRQNQATQAELDQLKEQTQFIEATKWAKLQASLT-NTLVVLHKSGLLEITLKTKELIRQNQATQAELDQLKEQTQFIEATKWAKLQASLT-NTLVVLHKSGLLEITLKTKELIRQNQATQAELDQLKEQTQFIEATKWAKLQASLT,ANACESVLSK-KEEAWAIFAA-LIFKDKIKSA-YLLTWVHVLG-YRERMHVLCK-EQTIRRLTAR-LDKLLEILAE-LDRAWELLAS-INDEAEKILG-LVQEVQIAKG,LEQRTRIEAN-LEQRTRIEAN-LEQRTRIEAN-LEQRTRIEAN-LEQRTRIEAN-LEQRTRIEAN-LEQRTRIEAN-LEQRTRIEAN-LEQRTRIEAN-LEQRTRIEAN
14.0,11,21,B,10,ESVSTARKRLSHLANDVVLLAIVKQHGETVRSILHDVVS-SSMQEDIKALWSFLEKIGSHEDWLKKTERQRVIKQNLSN-MGSSHHHHHHSSGLVHVGSGDSAVFLAYIQEKLQNAVQY-KLAQSVKAALDLASDIVAAQAEVEAKRGKMAALASALNA-SILKEEYEKKKALMQQVSIMENIKVGLGEIEAIELSFKK-RAEAYSNIVKARVSAIHSRASAIDSASSTYEEILSDLTA-AYGIKQFILFLYGAAAITASYYYYKQQKEFERVQKELTE-GIEAEAAAKLKSLEAAAAKAEGVKANVEEIKKIETQAKE-GATTARANITSSVSAIRAELSTLSARITNYMDILNDAMT-ADRIAKLRKTAADLRILSQMAAVSEVKAQLNDILHQISI,SAQLGAQHLKDQLEQRTRIEANIHRQQEELRKIQEQLQV-SAQLGAQHLKDQLEQRTRIEANIHRQQEELRKIQEQLQV-SAQLGAQHLKDQLEQRTRIEANIHRQQEELRKIQEQLQV-SAQLGAQHLKDQLEQRTRIEANIHRQQEELRKIQEQLQV-SAQLGAQHLKDQLEQRTRIEANIHRQQEELRKIQEQLQV-SAQLGAQHLKDQLEQRTRIEANIHRQQEELRKIQEQLQV-SAQLGAQHLKDQLEQRTRIEANIHRQQEELRKIQEQLQV-SAQLGAQHLKDQLEQRTRIEANIHRQQEELRKIQEQLQV-SAQLGAQHLKDQLEQRTRIEANIHRQQEELRKIQEQLQV-SAQLGAQHLKDQLEQRTRIEANIHRQQEELRKIQEQLQV,DEIRKRTQTL-EKITKETYTT-KSVAAKASLI-TAIKTDLKTL-LQEWRKTMLN-PQIAARLRRI-EKSIDRARKL-DDIKEAAKKV-VRILEEAQLA-DKVSEAANKV,LEITLKTKEL-LEITLKTKEL-LEITLKTKEL-LEITLKTKEL-LEITLKTKEL-LEITLKTKEL-LEITLKTKEL-LEITLKTKEL-LEITLKTKEL-LEITLKTKEL
