contacts,cs,ce,Chain,Length,designed_receptor_seq,native_receptor_seq,designed_binder_seq,native_binder_seq
21.0,22,32,A,10,MRAEIKALIGRYLRGDLSPDEAPILLAHLGTDADAAAYFARVCEAKARLAAGRTVTAPADFTDRVAARLP-ASTETKNLIMQLLNGDLTPDQAPVLAKALGEDSEAAKYFADVLLTAAAVQGGANKQAPANFTDQVAARLP-MDERVKALVNKAIQGDLTPEEAPKLVEHIKTDAEAAAYFKDLMDKLAELEKGKTVVAPENYTEEVAASLP-ADARVRALIRQRLAGTLSPEDAPRLDAHLGRDAAARDYYARLVALQARLGALRTVTAPADYTRRVAALLP-MDAATKQLIYLRLNGELTPEQAPVLAKHLTTDADAAAYYAALTAEMAARAAQSNKTAPANFVEQFLQALP-MDQQIKALIYKELRGDLTPEEAPRLAAHLGADAEAAQYYADVLRMRAALQSLESVKAPAGFVERVRAALP-MDESTKALIKKYLAGDLTPEEAPLLARHLQADAECAAYFAAVLADRAARQADLTVTAPKDFVDRVRASLP-MDDRVKELILRVLDGDLTPEEKPLLMKHLTEDAEARQYFEDLLTARAKLASFDTEKAPENFVEEVLASLP-MDDQTKALIYKYLDGDLTPEEAPVLSEHLGADAEAAAYFKELLELRARLNANTNVTAPENYVAEVKARLP-MDQKTKDLIYQLLDGKLTPADAPVLLEHIGKDAEAREFFAQVVEFQARLAEHTNRVAPENFVEEVAASLP,CPEQIVQLMHMHLDGDILPKDEHVLNEHLETCEKCRKHFYEMEKSIALVRSTSHVEAPADFTANVMAKLP-CPEQIVQLMHMHLDGDILPKDEHVLNEHLETCEKCRKHFYEMEKSIALVRSTSHVEAPADFTANVMAKLP-CPEQIVQLMHMHLDGDILPKDEHVLNEHLETCEKCRKHFYEMEKSIALVRSTSHVEAPADFTANVMAKLP-CPEQIVQLMHMHLDGDILPKDEHVLNEHLETCEKCRKHFYEMEKSIALVRSTSHVEAPADFTANVMAKLP-CPEQIVQLMHMHLDGDILPKDEHVLNEHLETCEKCRKHFYEMEKSIALVRSTSHVEAPADFTANVMAKLP-CPEQIVQLMHMHLDGDILPKDEHVLNEHLETCEKCRKHFYEMEKSIALVRSTSHVEAPADFTANVMAKLP-CPEQIVQLMHMHLDGDILPKDEHVLNEHLETCEKCRKHFYEMEKSIALVRSTSHVEAPADFTANVMAKLP-CPEQIVQLMHMHLDGDILPKDEHVLNEHLETCEKCRKHFYEMEKSIALVRSTSHVEAPADFTANVMAKLP-CPEQIVQLMHMHLDGDILPKDEHVLNEHLETCEKCRKHFYEMEKSIALVRSTSHVEAPADFTANVMAKLP-CPEQIVQLMHMHLDGDILPKDEHVLNEHLETCEKCRKHFYEMEKSIALVRSTSHVEAPADFTANVMAKLP,LERVKDGVYG-IAAVKDEFYG-IEKLKDGIYG-IDRVRDGVYG-AAEKKDDVYG-LERVKDEVYG-LAENADRIYG-IRDTKDYVYG-IARLKDRVFG-LEKIKDEVYR,VDIYKDKIYQ-VDIYKDKIYQ-VDIYKDKIYQ-VDIYKDKIYQ-VDIYKDKIYQ-VDIYKDKIYQ-VDIYKDKIYQ-VDIYKDKIYQ-VDIYKDKIYQ-VDIYKDKIYQ
42.0,47,57,B,10,GMETIQLLRAVRCGDGSAFGAIVQRYKDRIYGLCFRMLGNEDDAQDIAQEAFVRAYESLDRFDLERDFSTWLFRIATNLVLRRIRESRPDYYENSGESRVMEALLSLPDDVRTVMVLRYVLGMSVEDIGDILGVDTGTVKVRLARGRRKLREQISDL-GSHMIELIKKVRSGDKSAFEEIVREYKDEIYGLCFRMLGNKEDAEDISQEAFVKALEGIDKFEEDKNFSTWLFSIARNLVVDKIRKSRPDYFEEGFEEKVLEALKKLPEDVRTVMVLRYILGKSIEEIGDILNIPRGAVSKRLKKGEELLLEQIKDI-GSHMEKLIRAVRKGDESAFEEIVEKYKDRIFGLCYRMLGDEDAARDIAQDAFLRAYESLNRFDEKSDFSTYLMRIASNLVIDEIRKSKPNYYLEDFEEKVEKALLKLPDDVRLVMVLRYILGFSVEDIGKILRIPPGTVKTKLRRGRELLEKEIEEL-GMDVTELVKKVRSGDGEAFEKIVERYKDRIYGLAYRMLGDEDAAEDIAQEAFVRAYEGLDKFDEDKDFATWLFSIATNLVRRRIRESRPDYFDESGEEAVLEKLKKLPEETRTVMVLRYVLGMSVEDIGRILDIDEGAVRVRISRGKRLLKEEIDDL-GMDTLRLVNAVREGDLEAFEEIYKKYKDRIYAYCYRMLGDKEAAEDIAQEAFVKALEGIDEFDEEKDFETYLMSIAGNLAIRKLRRESPGYYERLGEEEVLEKLLKLPDEERTVMILRYVLGKSIKMIGEILNVPDGYVRKLLLRGKRKLEEEIKDI-GEEDLALIKAVRKGDYSAFEKIVEKYKDRIYSLCYRMLGDKEAAEDIAQEAFIRALKGLDRFDLEKDFSIWLMRIATNLTVRELRRRKPDYFEKSGEEEVLKKLLDLPEEERTVIVLRYVLGYSVEDIGKILGVNPGTVRTRLKRGKEKLKKEIEDL-GMTIEELVEKVRKGDDEAFEKIVDKYKDKIYGLAYHMLGNREDAEDIAQEAFVRAYKKIDDFDKEEDFSVYLMSIARNLVIDRIRKSKPDYFEGKGEEEVLEALLKLPEDVRTVIVLRYVLGYSIEDIGKILNVPEGTVKVRLARGRRLLEEEIKDM-SNAVDRLIRAVRRGDDAAFDSIVERYKDRIFGLAYRMLGNEDAARDIAQEAFVRAYERIDEFSEERDFATWLMRIATNLVLRRVSESRPDYFDEGFGDAVLERLLKLPDEVRTVMVLRYVLGYSITDIGRILGVDEGTVRVRIRRGKKLLREEIEGI-GSHMEELIRKVRQGDESAFEEIFQKYKDKIYGLCYRMLGDEELASDIAQEAFIRAYEGLDKFDVDKDFETWLFSIARNLTIDEIKKSNPLYYLTDHEELVQKALLRLPEDVRTVIVLRYILGKSIEDIGKILNIPPGTVSVRIKRGVKLMEEEIKDL-GMNIYDLIKKVREGDKSAFNEIVDIYKDKIFGLCYRMLGNEDDASDIAQDAFIKAYENINDFDIKRDFEVYLMRIARNLTIDYLKKKEPNYFDLDFGEKVLEKLLKLPYDVRTVMVMRYIMNYSIEDIGKILDIDPGSVSVRLKRGEKLLKEEIENI,EMMIKKRIKQVKKGDQDAFADIVDIYKDKIYQLCYRMLGNVHEAEDIAQEAFIRAYVNIDSFDINRKFSTWLYRIATNLTIDRIRKKKPDYYLDELSNTIQQKILKLPDKYRTVIVLKYIDELSLIEIGEILNIPVGTVKTRIHRGREALRKQLRDL-EMMIKKRIKQVKKGDQDAFADIVDIYKDKIYQLCYRMLGNVHEAEDIAQEAFIRAYVNIDSFDINRKFSTWLYRIATNLTIDRIRKKKPDYYLDELSNTIQQKILKLPDKYRTVIVLKYIDELSLIEIGEILNIPVGTVKTRIHRGREALRKQLRDL-EMMIKKRIKQVKKGDQDAFADIVDIYKDKIYQLCYRMLGNVHEAEDIAQEAFIRAYVNIDSFDINRKFSTWLYRIATNLTIDRIRKKKPDYYLDELSNTIQQKILKLPDKYRTVIVLKYIDELSLIEIGEILNIPVGTVKTRIHRGREALRKQLRDL-EMMIKKRIKQVKKGDQDAFADIVDIYKDKIYQLCYRMLGNVHEAEDIAQEAFIRAYVNIDSFDINRKFSTWLYRIATNLTIDRIRKKKPDYYLDELSNTIQQKILKLPDKYRTVIVLKYIDELSLIEIGEILNIPVGTVKTRIHRGREALRKQLRDL-EMMIKKRIKQVKKGDQDAFADIVDIYKDKIYQLCYRMLGNVHEAEDIAQEAFIRAYVNIDSFDINRKFSTWLYRIATNLTIDRIRKKKPDYYLDELSNTIQQKILKLPDKYRTVIVLKYIDELSLIEIGEILNIPVGTVKTRIHRGREALRKQLRDL-EMMIKKRIKQVKKGDQDAFADIVDIYKDKIYQLCYRMLGNVHEAEDIAQEAFIRAYVNIDSFDINRKFSTWLYRIATNLTIDRIRKKKPDYYLDELSNTIQQKILKLPDKYRTVIVLKYIDELSLIEIGEILNIPVGTVKTRIHRGREALRKQLRDL-EMMIKKRIKQVKKGDQDAFADIVDIYKDKIYQLCYRMLGNVHEAEDIAQEAFIRAYVNIDSFDINRKFSTWLYRIATNLTIDRIRKKKPDYYLDELSNTIQQKILKLPDKYRTVIVLKYIDELSLIEIGEILNIPVGTVKTRIHRGREALRKQLRDL-EMMIKKRIKQVKKGDQDAFADIVDIYKDKIYQLCYRMLGNVHEAEDIAQEAFIRAYVNIDSFDINRKFSTWLYRIATNLTIDRIRKKKPDYYLDELSNTIQQKILKLPDKYRTVIVLKYIDELSLIEIGEILNIPVGTVKTRIHRGREALRKQLRDL-EMMIKKRIKQVKKGDQDAFADIVDIYKDKIYQLCYRMLGNVHEAEDIAQEAFIRAYVNIDSFDINRKFSTWLYRIATNLTIDRIRKKKPDYYLDELSNTIQQKILKLPDKYRTVIVLKYIDELSLIEIGEILNIPVGTVKTRIHRGREALRKQLRDL-EMMIKKRIKQVKKGDQDAFADIVDIYKDKIYQLCYRMLGNVHEAEDIAQEAFIRAYVNIDSFDINRKFSTWLYRIATNLTIDRIRKKKPDYYLDELSNTIQQKILKLPDKYRTVIVLKYIDELSLIEIGEILNIPVGTVKTRIHRGREALRKQLRDL,VLRDTADIVY-ILRETSEISW-ILRRISRIRP-ILRSISDVEW-ILESISDIKG-ILEEIREVKG-VLRRISEIRP-VLREIADVEG-ILKRISNIKF-ILKEISDIKG,LVRSTSHVEA-LVRSTSHVEA-LVRSTSHVEA-LVRSTSHVEA-LVRSTSHVEA-LVRSTSHVEA-LVRSTSHVEA-LVRSTSHVEA-LVRSTSHVEA-LVRSTSHVEA
