FAMILY,UNIPROT_ID,LINK,NUM_PEPTIDES
IRS,Q99704,http://www.prm-db.org/files/ELISA/PRM_0508.fa,21
PWWP,P52701,http://www.prm-db.org/files/ELISA/PRM_0571.fa,6
EF-hand_5+EF-hand_7,O75340,http://www.prm-db.org/files/ELISA/PRM_0500.fa,40
Dynein_light,P63167,http://www.prm-db.org/files/ELISA/PRM_0501.fa,37
SPRY,Q99619,http://www.prm-db.org/files/ELISA/PRM_0502.fa,36
WD40,P61964,http://www.prm-db.org/files/ELISA/PRM_0503.fa,27
G-alpha,P19086,http://www.prm-db.org/files/ELISA/PRM_0504.fa,23
Ran_BP1,P43487,http://www.prm-db.org/files/ELISA/PRM_0506.fa,22
Vinculin,P18206,http://www.prm-db.org/files/ELISA/PRM_0507.fa,22
PABP,O95071,http://www.prm-db.org/files/ELISA/PRM_0509.fa,21
