Receptor_resno,Peptide_resno,Receptor_res,Peptide_res
76,0-1,K,DE
77,0-1-2-3-4,F,DEDLL
78,0-1,R,DE
80,3-4,L,LL
81,1-3-4,N,ELL
84,4-6,I,LI
85,4,K,L
88,4-6,S,LI
89,6,P,I
90,5-6,K,HI
91,4-6,Y,LI
118,0-3,K,DL
121,3,E,L
122,3,A,L
125,3-6,M,LI
129,6,Q,I
130,6,I,I
