ID,x,y,z
1ssc,33.9666366577148,23.854907989502,9.85945415496826
1t4f,13.4786672592163,18.5313339233398,13.1263332366943
2cnz,31.0227375030518,-13.4860000610352,44.2943153381348
2v8x,22.9722156524658,33.3717842102051,11.4907846450806
2z9i,32.5004997253418,76.254997253418,9.94000053405762
3c3o,28.528694152832,38.7673072814941,2.33884644508362
3r7g,-1.03010523319244,14.5558938980103,33.5917320251465
3ufm,-17.4462509155273,0.191999971866608,13.8864994049072
3vxw,71.4878387451172,-23.6876659393311,-43.0745048522949
4k0u,-3.39593410491943,-19.340799331665,9.26806640625
4piq,21.9808177947998,-2.03645491600037,15.1960916519165
6seo,-6.2790002822876,23.7093124389648,22.6315002441406
