Receptor_resno,Peptide_resno,Receptor_res,Peptide_res
4,11,E,D
7,8,S,S
8,8-9-11-12,Q,SIDF
9,12,L,F
10,8,A,S
11,4-5-8-9-12,S,QVSIF
12,8-9-12,L,SIF
14,5,A,V
15,5-6-9,A,VQI
59,1-4-5,L,TQV
62,1-2-5,L,TFV
64,1,K,T
65,0-1-2,D,RTF
66,2-3,T,FR
70,2,T,F
71,2,Q,F
74,2-6,S,FQ
75,6-9,F,QI
78,6-9-10-13,T,QISY
79,9,M,I
81,13,P,Y
