ID,ss_binder_if_A_loop,ss_binder_if_A_helix,ss_binder_if_A_sheet,ss_rec_if_B_loop,ss_rec_if_B_helix,ss_rec_if_B_sheet,ss_binder_if_B_loop,ss_binder_if_B_helix,ss_binder_if_B_sheet,ss_rec_if_A_loop,ss_rec_if_A_helix,ss_rec_if_A_sheet
3B08_G-3B08_H,1,2,8,3,0,3,5,3,3,0,2,7
4DAY_C-4DAY_A,11,0,0,4,6,6,4,1,6,9,0,0
1Y56_B-1Y56_A,0,4,7,9,6,4,4,2,5,1,0,6
4M6B_D-4M6B_F,0,10,1,7,3,1,5,6,0,5,3,0
3QN1_B-3QN1_A,0,3,8,2,6,3,2,2,7,1,0,5
3IEC_B-3IEC_F,7,3,1,4,2,2,7,2,2,1,2,7
1JSU_A-1JSU_C,3,0,8,2,6,9,1,6,4,3,0,6
2VE7_D-2VE7_B,1,10,0,1,9,4,3,8,0,5,3,1
2FYU_F-2FYU_G,0,11,0,5,0,1,6,2,3,0,6,0
5IFG_B-5IFG_A,4,6,1,1,14,2,0,11,0,0,8,0
5DLQ_C-5DLQ_B,3,7,1,1,7,3,3,7,1,3,0,2
5BNX_A-5BNX_D,0,11,0,0,3,11,0,3,8,1,3,1
3EGW_C-3EGW_B,5,3,3,2,11,6,4,6,1,1,8,0
2VPG_A-2VPG_B,2,6,3,4,5,3,2,6,3,4,1,3
1IXR_B-1IXR_C,0,11,0,3,3,3,0,8,3,2,0,4
5I2D_H-5I2D_A,1,6,4,1,6,4,1,5,5,3,2,5
5LSJ_C-5LSJ_Q,0,11,0,3,0,2,9,0,2,4,4,0
1O6O_C-1O6O_E,1,10,0,5,0,0,1,0,0,0,0,0
2NS1_B-2NS1_A,3,2,6,7,8,0,4,5,2,1,0,3
1SKR_B-1SKR_A,3,4,4,5,0,3,3,2,6,4,4,0
4GAF_A-4GAF_B,4,6,1,4,2,6,0,4,7,2,0,7
3AOH_H-3AOH_Z,2,6,3,3,2,3,6,0,5,3,0,4
4UB8_K-4UB8_Y,0,11,0,0,6,0,0,11,0,2,4,0
2P8Q_A-2P8Q_B,0,11,0,3,0,1,5,4,2,1,8,0
4XWJ_B-4XWJ_A,1,10,0,0,10,0,0,11,0,2,0,4
1UNL_A-1UNL_D,0,11,0,3,12,2,4,3,4,2,0,8
5T5W_B-5T5W_C,0,0,11,0,6,0,0,11,0,1,0,4
3CL3_A-3CL3_D,3,8,0,0,6,0,0,11,0,2,5,0
2HTM_G-2HTM_C,4,1,6,6,10,6,4,0,7,2,2,4
4GXB_B-4GXB_A,4,2,5,0,13,8,0,3,8,3,2,5
5KS8_A-5KS8_F,0,11,0,3,3,9,5,0,6,4,0,1
5N9J_B-5N9J_G,0,11,0,2,0,2,8,0,3,0,7,0
1K8K_G-1K8K_F,0,11,0,0,5,5,3,0,8,2,6,1
2PJW_H-2PJW_V,1,10,0,3,10,0,2,9,0,1,6,0
4QPL_B-4QPL_A,0,11,0,0,6,5,3,3,5,0,5,0
5EKQ_A-5EKQ_E,5,4,2,4,0,5,7,0,4,6,0,4
3L75_E-3L75_J,0,11,0,0,11,0,0,10,1,5,2,0
5F1B_A-5F1B_C,4,0,7,5,2,6,4,0,7,1,0,6
5O7X_F-5O7X_E,0,10,1,6,7,1,4,6,1,6,0,1
4H44_A-4H44_D,0,10,1,1,4,1,3,7,1,2,5,0
4CLQ_B-4CLQ_A,7,2,2,2,18,7,1,9,1,3,6,0
3BG1_A-3BG1_B,2,3,6,9,6,1,6,4,1,2,1,6
3HD7_F-3HD7_G,0,11,0,0,9,0,0,11,0,1,5,0
4UB8_e-4UB8_j,0,10,1,3,4,2,3,6,2,4,2,2
2PBD_A-2PBD_V,1,2,8,5,0,1,6,4,1,4,0,4
4P6Z_M-4P6Z_G,3,2,6,1,9,0,0,11,0,2,1,3
4P6V_F-4P6V_A,2,7,2,2,2,2,4,3,4,0,4,0
2Z5K_B-2Z5K_A,7,0,4,0,22,0,0,11,0,6,0,1
3VEP_A-3VEP_C,3,8,0,0,10,0,0,11,0,5,2,0
5N9J_E-5N9J_A,1,10,0,0,7,0,6,5,0,6,2,0
1UF2_K-1UF2_A,5,0,6,5,6,5,4,2,5,3,0,6
2FYU_D-2FYU_J,5,5,1,1,3,3,1,10,0,6,0,0
2G77_B-2G77_A,5,0,6,0,17,1,0,8,3,1,0,5
1GL4_B-1GL4_A,2,0,9,0,3,14,1,3,7,4,0,4
3LQV_B-3LQV_Q,2,1,8,2,1,6,1,4,6,5,2,2
5JTV_B-5JTV_A,4,0,7,3,5,16,2,8,1,1,1,6
5LSI_D-5LSI_E,0,11,0,0,12,2,2,4,5,2,6,0
3RLF_F-3RLF_E,5,2,4,0,11,2,6,4,1,3,4,1
4PBY_D-4PBY_B,2,9,0,5,10,6,3,3,5,2,5,0
3CF4_G-3CF4_A,2,8,1,2,6,9,1,4,6,4,0,3
4Q7J_E-4Q7J_G,2,9,0,2,4,2,3,6,2,0,6,2
2GH0_C-2GH0_A,2,2,7,2,14,0,0,10,1,1,0,4
3BY4_B-3BY4_A,5,0,6,3,7,4,0,4,7,1,1,4
4US0_R-4US0_S,2,9,0,0,22,1,1,8,2,1,0,7
1P9M_C-1P9M_B,7,2,2,2,3,2,3,6,2,3,0,2
4IFD_K-4IFD_I,0,11,0,0,2,12,1,1,9,1,5,1
1KMI_Y-1KMI_Z,2,4,5,2,7,0,0,11,0,3,1,3
3T5V_B-3T5V_C,3,7,1,4,1,1,7,2,2,2,8,0
4P6Z_M-4P6Z_B,3,7,1,3,19,1,1,8,2,3,1,5
3RKO_F-3RKO_E,1,10,0,0,16,0,0,11,0,2,7,0
3R2D_J-3R2D_A,0,0,11,1,11,1,1,9,1,0,0,6
4F9C_A-4F9C_B,2,8,1,2,14,2,5,4,2,1,8,0
2F8X_K-2F8X_M,1,10,0,0,6,0,0,11,0,2,4,0
4P5O_G-4P5O_C,3,6,2,1,3,1,0,11,0,0,5,0
5BNX_A-5BNX_C,5,5,1,4,4,1,4,4,3,4,4,1
4M69_A-4M69_B,6,5,0,4,10,1,4,6,1,4,3,2
3RFZ_D-3RFZ_E,3,0,8,1,2,15,0,3,8,2,0,4
3NFG_C-3NFG_D,4,2,5,5,1,11,3,2,6,7,0,2
4NRH_A-4NRH_D,3,6,2,6,8,4,4,1,6,1,8,0
5N9J_A-5N9J_W,2,5,4,6,9,4,3,8,0,8,0,1
4H44_B-4H44_C,3,6,2,1,5,9,0,11,0,4,2,1
4V3K_D-4V3K_E,1,9,1,1,1,8,4,0,7,0,7,0
4IIQ_B-4IIQ_A,3,4,4,7,0,7,5,0,6,2,0,6
2WAX_A-2WAX_B,2,7,2,6,4,0,7,2,2,2,0,5
4Q7J_B-4Q7J_C,2,2,7,4,5,0,4,6,1,2,0,6
3A1J_C-3A1J_A,1,3,7,3,2,8,2,2,7,3,0,7
5VJI_D-5VJI_F,2,9,0,1,7,0,0,11,0,2,3,0
5N9J_R-5N9J_A,1,10,0,3,8,1,4,7,0,5,3,0
3VR4_D-3VR4_G,2,8,1,1,6,1,0,11,0,3,1,1
5V3N_B-5V3N_A,9,0,2,2,6,12,1,5,5,1,5,1
5K23_A-5K23_C,5,0,6,3,1,3,4,0,7,4,0,4
5WGB_A-5WGB_B,2,9,0,1,7,0,1,8,2,3,3,0
4BK5_A-4BK5_C,6,0,5,2,0,3,4,0,7,2,1,5
4D18_J-4D18_I,0,4,7,0,2,7,0,6,5,1,7,0
5IM5_A-5IM5_N,0,11,0,0,8,0,0,11,0,2,0,4
2PMZ_E-2PMZ_K,1,3,7,3,3,0,3,8,0,1,0,5
5N9J_B-5N9J_D,0,11,0,6,5,2,5,3,3,1,7,0
4HEA_F-4HEA_X,7,1,3,3,4,4,1,10,0,0,5,0
3TL8_G-3TL8_K,6,3,2,6,11,3,3,5,3,2,3,3
5J43_E-5J43_F,8,2,1,1,14,0,3,6,2,4,4,2
2PU9_C-2PU9_A,2,8,1,1,13,4,5,2,4,0,1,4
3MJH_C-3MJH_D,5,0,6,2,2,4,4,3,4,1,0,8
2B4J_A-2B4J_D,1,10,0,2,6,1,3,7,1,0,1,5
4XGC_C-4XGC_E,3,7,1,3,8,0,8,2,1,2,8,0
5IUK_F-5IUK_E,0,11,0,0,9,0,0,11,0,3,0,5
5LQF_D-5LQF_E,1,8,2,3,10,0,1,10,0,3,1,2
1JB0_A-1JB0_D,3,5,3,0,9,5,1,2,8,5,0,4
4NDN_B-4NDN_F,0,2,9,2,6,2,4,6,1,0,2,5
5SZH_B-5SZH_A,5,0,6,0,13,0,0,11,0,3,0,3
3DBO_B-3DBO_A,1,8,2,4,5,3,2,6,3,2,2,4
4XB6_B-4XB6_D,0,10,1,2,7,4,0,10,1,7,1,2
2PK9_A-2PK9_B,6,2,3,4,9,3,4,5,2,7,0,2
5CCB_B-5CCB_A,2,0,9,0,4,13,0,0,11,4,2,4
4FXG_J-4FXG_B,0,0,11,4,1,1,7,0,4,3,2,4
5JEN_B-5JEN_A,2,4,5,5,2,9,0,0,11,2,6,1
5WYL_D-5WYL_C,3,8,0,1,15,1,0,11,0,4,2,0
3ICQ_B-3ICQ_T,1,10,0,0,12,0,1,10,0,1,0,4
5GJK_A-5GJK_B,2,7,2,2,2,8,3,2,6,4,3,0
2ZFD_B-2ZFD_A,1,9,1,0,24,1,2,9,0,4,3,0
4LJO_B-4LJO_A,0,11,0,0,7,2,1,6,4,2,0,4
4C9R_C-4C9R_D,2,3,6,1,3,8,0,3,8,7,0,1
4P6V_D-4P6V_C,2,9,0,0,11,0,4,7,0,2,7,0
5CX3_E-5CX3_A,4,0,7,5,6,12,2,1,8,3,0,7
4KMO_A-4KMO_B,1,10,0,4,14,0,1,10,0,4,6,0
1XKP_C-1XKP_A,5,0,6,3,8,2,6,3,2,5,5,0
5GQQ_B-5GQQ_D,4,2,5,3,9,3,5,2,4,7,1,2
1K8K_A-1K8K_F,5,3,3,0,6,0,0,11,0,0,0,3
2QFA_A-2QFA_C,0,11,0,1,7,0,2,9,0,2,4,1
3M4W_E-3M4W_A,5,4,2,2,2,19,0,2,9,3,4,2
4K1R_D-4K1R_C,3,0,8,2,12,10,1,10,0,1,0,6
4XD9_A-4XD9_B,1,3,7,3,8,5,8,0,3,7,0,3
4HEA_4-4HEA_6,4,7,0,4,6,4,1,9,1,2,1,4
5IMT_D-5IMT_A,3,2,6,2,1,6,3,2,6,5,0,3
3L75_Q-3L75_S,8,2,1,0,9,0,0,11,0,5,0,0
4IFD_C-4IFD_J,4,2,5,0,7,2,0,10,1,6,0,0
1EM8_D-1EM8_C,0,10,1,4,3,2,5,2,4,6,1,0
1EXB_A-1EXB_E,0,11,0,1,3,0,0,8,3,1,2,3
5E8J_B-5E8J_D,4,2,5,3,2,3,6,2,3,1,9,0
5FC8_E-5FC8_C,1,8,2,5,0,0,8,0,3,4,3,2
5MSM_C-5MSM_B,6,0,5,8,6,12,2,0,9,4,0,4
4IZ5_A-4IZ5_G,3,8,0,1,4,0,1,10,0,4,2,3
3P5J_A-3P5J_B,2,6,3,5,4,9,3,0,8,1,2,5
3VZA_A-3VZA_E,0,3,8,6,3,1,7,3,1,1,7,0
4HI0_A-4HI0_B,2,8,1,1,5,15,1,8,2,2,6,0
5K04_B-5K04_A,5,5,1,2,15,0,2,9,0,3,2,4
1JR3_E-1JR3_B,1,8,2,2,12,1,0,11,0,2,0,0
1XF6_C-1XF6_A,1,6,4,7,2,9,4,0,7,4,4,0
3RZO_B-3RZO_K,1,3,7,1,3,0,2,6,3,2,1,1
5HXG_C-5HXG_D,1,6,4,2,12,0,1,10,0,1,0,6
5MSM_B-5MSM_A,0,0,11,7,0,8,4,0,7,2,1,5
4ME7_F-4ME7_C,0,11,0,1,1,12,0,1,10,5,2,0
3ZIA_A-3ZIA_G,2,9,0,0,7,0,0,11,0,0,1,4
3X1L_C-3X1L_A,5,0,6,1,3,4,2,0,9,0,0,5
2AZE_C-2AZE_B,2,2,7,4,2,7,3,0,8,2,1,7
4HEA_5-4HEA_3,4,4,3,4,12,1,2,9,0,1,6,0
4QPG_C-4QPG_A,2,4,5,5,3,13,5,2,4,8,0,1
3VHX_A-3VHX_B,5,0,6,6,2,6,8,0,3,1,0,4
5L6N_H-5L6N_I,3,6,2,9,0,2,7,2,2,3,2,3
5F0J_C-5F0J_B,11,0,0,1,1,10,3,2,6,6,0,1
4H44_B-4H44_A,8,1,2,1,17,1,2,7,2,5,2,0
3TNU_A-3TNU_B,0,11,0,0,8,0,0,11,0,0,6,0
1L1O_D-1L1O_E,2,7,2,1,11,1,0,9,2,2,3,1
4HEA_D-4HEA_B,6,0,5,5,2,1,4,6,1,1,1,7
2WJN_L-2WJN_H,3,6,2,8,7,10,2,2,7,2,6,0
4YFD_A-4YFD_B,3,2,6,1,3,9,4,0,7,2,0,6
2YNM_B-2YNM_C,2,9,0,1,6,1,2,9,0,1,0,6
3SJA_A-3SJA_D,0,10,1,0,4,0,0,11,0,3,3,0
1OQE_I-1OQE_Q,2,2,7,4,2,2,7,2,2,3,0,5
2QTV_B-2QTV_D,1,9,1,3,4,4,2,6,3,3,1,2
3P5J_C-3P5J_B,2,9,0,3,12,5,1,0,10,3,6,1
4ANI_C-4ANI_A,1,9,1,2,2,7,1,3,7,4,0,4
4ROC_B-4ROC_A,3,4,4,4,9,3,3,7,1,5,0,3
4GQB_B-4GQB_A,5,0,6,7,2,5,3,6,2,5,0,4
3BPO_B-3BPO_C,1,0,10,0,0,10,4,0,7,2,0,5
2I2X_J-2I2X_I,1,8,2,2,8,2,3,6,2,4,3,0
4DX8_H-4DX8_B,1,4,6,2,14,9,2,0,9,1,0,9
2FYU_D-2FYU_G,2,4,5,4,2,7,4,2,5,10,0,0
4MCT_A-4MCT_B,2,8,1,3,6,1,1,9,1,6,2,0
4AJ5_I-4AJ5_S,0,11,0,0,9,0,0,11,0,1,5,0
5KL1_A-5KL1_B,0,10,1,4,4,0,5,6,0,1,5,1
2V53_A-2V53_D,0,11,0,6,0,0,11,0,0,5,3,0
5JQY_B-5JQY_A,5,0,6,9,10,9,2,1,8,2,0,3
1T0F_A-1T0F_C,2,4,5,2,6,2,4,4,3,5,3,0
4XPM_B-4XPM_C,1,2,8,4,5,5,1,9,1,0,1,5
3WDG_A-3WDG_B,1,7,3,0,2,9,0,4,7,2,6,0
2IVF_C-2IVF_B,2,9,0,4,7,2,6,2,3,3,1,5
4U4C_B-4U4C_A,5,3,3,5,7,4,2,7,2,7,0,1
4PUF_D-4PUF_B,2,5,4,6,2,4,7,1,3,6,0,3
3NCE_A-3NCE_B,4,6,1,3,2,5,5,3,3,0,7,0
5D1M_A-5D1M_B,0,11,0,7,2,0,5,5,1,1,6,0
4P78_D-4P78_A,5,1,5,1,7,12,2,0,9,2,7,0
3ABD_X-3ABD_A,4,1,6,5,8,12,6,0,5,2,2,5
4X8K_A-4X8K_B,0,11,0,0,10,1,0,11,0,0,7,0
4JLQ_A-4JLQ_B,0,11,0,1,2,0,1,0,0,0,0,0
5ET0_D-5ET0_C,5,3,3,8,17,1,3,7,1,5,0,1
4IFD_C-4IFD_I,7,4,0,5,1,9,6,1,4,6,0,0
4B1V_B-4B1V_N,1,5,5,6,4,1,3,8,0,4,0,4
2Y69_A-2Y69_M,3,4,4,6,1,4,7,0,4,4,5,1
5B4X_D-5B4X_C,2,5,4,2,1,3,7,0,4,5,2,2
1AWC_A-1AWC_B,1,10,0,0,6,0,6,4,1,0,3,0
2BS2_C-2BS2_B,3,7,1,3,7,1,5,6,0,0,7,0
4GS7_A-4GS7_C,1,10,0,2,5,2,4,5,2,0,4,0
4D18_M-4D18_N,0,11,0,4,12,4,0,11,0,4,6,0
3BTP_A-3BTP_B,2,9,0,2,3,0,4,7,0,2,2,6
2J7A_B-2J7A_C,8,0,3,4,11,0,5,5,1,6,0,3
4P6V_F-4P6V_C,0,11,0,0,9,0,0,11,0,1,5,0
3FWB_B-3FWB_A,0,11,0,2,15,0,0,11,0,1,6,0
4H62_Q-4H62_K,4,7,0,1,6,0,2,9,0,3,0,3
1WA5_A-1WA5_C,4,4,3,8,9,0,9,2,0,1,0,7
1TH8_B-1TH8_A,1,7,3,4,9,1,5,5,1,0,1,7
2ES4_B-2ES4_E,0,11,0,0,12,0,6,5,0,5,2,2
3H0G_N-3H0G_U,3,6,2,3,0,3,3,3,5,3,5,0
3MK7_G-3MK7_I,2,7,2,10,6,2,6,2,3,5,4,1
5FQ8_B-5FQ8_G,1,2,8,4,2,5,6,0,5,6,0,4
3UKY_B-3UKY_C,0,10,1,4,0,0,11,0,0,3,5,1
3HUG_I-3HUG_J,3,8,0,3,10,2,2,8,1,3,6,0
4EN2_B-4EN2_A,6,2,3,7,2,11,3,7,1,1,8,0
3VIQ_B-3VIQ_A,0,11,0,2,12,1,0,11,0,2,7,0
3M9S_3-3M9S_F,3,6,2,2,2,1,5,2,4,1,0,4
4OMF_A-4OMF_B,4,4,3,3,2,1,2,7,2,1,0,5
4C9B_A-4C9B_B,2,5,4,2,12,0,5,4,2,4,3,3
3FBI_B-3FBI_A,0,10,1,5,7,0,4,7,0,5,4,0
4L0Z_B-4L0Z_A,3,8,0,0,6,0,0,11,0,4,3,0
1NF3_B-1NF3_D,0,0,11,6,1,12,1,0,10,5,0,5
5IIB_A-5IIB_B,0,11,0,3,2,7,3,0,8,3,7,0
4XPM_A-4XPM_C,5,1,5,5,14,2,4,3,4,4,2,2
5B16_B-5B16_A,0,11,0,2,8,1,1,10,0,1,6,0
5JEJ_A-5JEJ_D,1,10,0,3,0,0,1,0,0,0,0,0
2BH1_X-2BH1_A,0,11,0,0,8,11,1,7,3,0,5,0
4FMB_B-4FMB_A,6,0,5,2,10,6,5,1,5,1,0,6
3O65_F-3O65_E,5,0,6,5,4,4,5,5,1,0,2,5
3SBT_B-3SBT_A,0,2,9,2,6,0,2,8,1,3,0,6
4IIT_A-4IIT_B,1,10,0,4,1,2,1,1,9,0,7,0
3O4O_A-3O4O_B,0,2,9,1,6,0,2,0,9,1,0,5
3HJY_A-3HJY_B,0,2,9,3,0,3,6,3,2,6,2,0
2EX3_A-2EX3_B,4,2,5,1,11,0,1,8,2,1,0,8
1GO4_B-1GO4_F,0,2,9,2,9,6,1,3,7,2,7,1
1KF6_C-1KF6_D,0,11,0,0,19,0,0,11,0,10,0,0
3H7H_B-3H7H_A,5,2,4,2,4,8,2,6,3,4,0,4
4XT1_A-4XT1_B,6,2,3,9,0,7,7,0,4,7,0,3
1YFN_E-1YFN_A,5,6,0,1,6,8,2,3,6,3,4,0
1U2G_B-1U2G_C,3,7,1,1,9,0,2,6,3,4,0,4
4UF5_A-4UF5_B,2,8,1,2,9,3,3,3,5,6,1,1
1JSU_A-1JSU_B,1,8,2,3,12,0,1,10,0,4,0,3
4ZHY_B-4ZHY_A,6,2,3,1,7,4,0,6,5,5,2,3
4HEA_E-4HEA_D,1,10,0,3,10,2,10,0,1,1,2,3
2BRQ_A-2BRQ_C,1,0,10,2,0,9,2,0,9,3,3,4
1LDK_A-1LDK_D,1,10,0,3,2,5,4,0,7,1,7,1
4BX9_A-4BX9_C,1,10,0,2,10,0,0,11,0,1,2,3
3MMY_C-3MMY_D,4,0,7,5,1,8,2,3,6,10,0,0
4UAF_B-4UAF_E,0,10,1,4,0,0,8,1,2,3,4,1
3TUF_B-3TUF_A,2,0,9,1,5,7,0,3,8,4,0,6
1ZBD_A-1ZBD_B,7,0,4,0,5,1,0,10,1,4,0,3
2YPA_A-2YPA_C,2,6,3,3,5,0,4,3,4,0,6,0
3M0D_D-3M0D_C,2,9,0,0,7,0,0,11,0,2,4,0
1MNM_C-1MNM_B,3,2,6,2,12,6,2,3,6,2,2,5
1JNR_A-1JNR_B,0,11,0,9,4,6,6,4,1,8,0,2
3RFZ_F-3RFZ_E,0,0,11,2,1,9,1,3,7,2,0,7
2AST_C-2AST_B,3,7,1,7,13,6,5,2,4,4,0,2
5T89_X-5T89_V,5,0,6,2,3,1,3,4,4,2,0,5
1GXD_A-1GXD_C,3,1,7,8,1,8,8,0,3,6,2,0
2BA1_E-2BA1_B,2,4,5,3,3,9,0,2,9,1,2,2
2WIU_D-2WIU_C,0,11,0,3,3,3,3,2,6,2,4,0
3FJU_A-3FJU_B,2,5,4,1,0,3,3,2,6,1,3,1
4LN0_B-4LN0_C,1,0,10,6,1,5,5,0,6,3,0,6
5CL1_D-5CL1_A,0,11,0,0,11,0,0,10,1,3,1,3
3WYF_A-3WYF_C,2,5,4,1,10,0,3,6,2,1,0,5
4LD3_A-4LD3_B,0,4,7,3,0,0,11,0,0,3,1,4
1H2T_Z-1H2T_C,4,7,0,2,11,0,1,10,0,3,4,0
3CI0_K-3CI0_J,6,0,5,5,1,8,8,0,3,0,8,0
3HD7_F-3HD7_E,0,11,0,0,11,0,0,11,0,2,6,0
3ZIA_R-3ZIA_S,0,11,0,3,8,2,1,9,1,3,0,6
4A8X_A-4A8X_C,4,2,5,2,2,4,2,3,6,2,0,4
5TAR_A-5TAR_B,2,7,2,2,1,6,5,3,3,3,0,5
1VG9_B-1VG9_A,3,8,0,3,8,7,2,4,5,3,0,6
1TAF_A-1TAF_B,0,11,0,2,12,1,4,6,1,1,7,0
2A6Q_C-2A6Q_F,0,11,0,2,5,7,2,5,4,2,4,3
2V6X_A-2V6X_B,0,11,0,5,6,0,7,3,1,5,3,0
4J7C_B-4J7C_K,1,10,0,4,4,0,4,7,0,1,0,5
2A5Y_A-2A5Y_B,6,4,1,3,7,2,3,7,1,3,4,2
3KFD_B-3KFD_F,0,2,9,3,0,6,5,0,6,0,6,1
2QLV_F-2QLV_E,0,1,10,2,0,18,1,0,10,1,9,0
4WJ3_M-4WJ3_K,8,2,1,0,8,2,0,11,0,5,1,0
4DI3_E-4DI3_C,1,10,0,2,8,1,3,7,1,2,0,6
2CLY_A-2CLY_C,0,11,0,0,8,3,10,0,1,1,7,0
3LQC_A-3LQC_B,2,3,6,5,4,5,4,2,5,2,3,4
4RS1_A-4RS1_B,3,4,4,4,0,6,3,0,8,0,6,0
1UW4_D-1UW4_C,0,11,0,6,0,9,5,2,4,1,6,0
2WM9_B-2WM9_A,5,2,4,9,12,11,3,4,4,3,0,6
2P1L_E-2P1L_F,0,10,1,1,7,0,0,11,0,3,6,0
5SY7_A-5SY7_B,0,10,1,1,5,9,0,8,3,2,8,0
1ZT2_A-1ZT2_B,0,11,0,1,4,1,2,5,4,9,0,0
4WSI_X-4WSI_A,6,2,3,6,9,18,2,1,8,1,7,1
5N9J_S-5N9J_Z,0,11,0,0,7,0,1,10,0,6,0,1
4HNY_B-4HNY_A,5,3,3,0,25,0,1,8,2,2,2,4
3IAB_A-3IAB_B,3,7,1,1,4,7,0,11,0,1,2,4
4UB8_A-4UB8_B,4,3,4,5,6,1,4,6,1,1,7,0
4BFI_B-4BFI_A,2,2,7,2,0,12,0,2,9,3,0,5
3DWG_A-3DWG_C,5,4,2,5,5,3,3,2,6,2,2,2
4LL8_A-4LL8_E,2,9,0,0,8,0,0,11,0,1,7,0
3VA2_A-3VA2_C,2,5,4,0,0,8,0,0,11,2,6,0
1Q90_D-1Q90_C,7,2,2,4,2,2,5,3,3,3,3,0
2QFA_A-2QFA_B,0,10,1,0,11,3,0,9,2,3,5,1
2B9S_A-2B9S_B,2,7,2,3,4,3,3,6,2,4,2,3
5I9E_A-5I9E_E,8,0,3,0,12,0,0,11,0,8,0,2
1YHN_A-1YHN_B,5,5,1,0,5,0,0,11,0,2,0,4
4UB8_o-4UB8_u,3,2,6,1,7,1,2,9,0,1,4,1
3WXM_A-3WXM_B,5,2,4,1,12,0,5,3,3,2,0,5
3GQI_B-3GQI_A,1,2,8,2,8,1,7,3,1,2,1,3
2O98_A-2O98_P,0,11,0,5,5,0,11,0,0,4,4,0
4B8C_D-4B8C_A,5,4,2,7,7,1,6,0,5,2,4,2
3H4S_A-3H4S_E,0,11,0,2,14,0,2,3,6,2,2,3
2IZV_A-2IZV_C,4,6,1,5,14,0,0,11,0,2,1,4
1S6V_B-1S6V_C,8,3,0,0,4,0,0,11,0,3,1,0
3VMF_A-3VMF_B,6,2,3,0,13,0,10,0,1,2,0,6
2AQ2_B-2AQ2_A,2,7,2,2,1,2,3,2,6,4,3,1
1JQL_A-1JQL_B,4,0,7,4,3,0,4,7,0,1,4,4
3WRY_D-3WRY_B,1,8,2,5,8,2,2,6,3,3,6,1
2FU5_D-2FU5_A,2,6,3,9,0,9,3,2,6,3,0,7
5FUG_D-5FUG_F,1,10,0,6,2,1,6,4,1,1,5,2
4PLN_C-4PLN_B,4,0,7,4,3,6,3,0,8,5,0,3
4DID_A-4DID_B,4,0,7,5,13,4,0,11,0,0,0,8
2F3C_I-2F3C_E,7,0,4,8,7,15,4,4,3,5,0,1
5LOP_A-5LOP_C,1,10,0,4,1,7,4,1,6,3,1,1
2QSF_X-2QSF_A,1,10,0,8,15,4,0,11,0,3,5,0
3MZK_D-3MZK_C,2,2,7,6,2,8,4,2,5,4,0,6
2DZO_D-2DZO_C,2,6,3,3,17,0,3,7,1,3,3,0
2J56_L-2J56_H,4,6,1,5,4,10,4,4,3,6,2,1
3V11_A-3V11_B,2,4,5,3,6,6,3,6,2,6,0,4
1P3Q_V-1P3Q_R,3,2,6,0,5,0,0,11,0,0,2,5
4A8X_C-4A8X_B,2,3,6,3,2,5,5,0,6,2,3,1
3U88_M-3U88_C,1,10,0,1,7,0,1,10,0,2,1,0
1U35_C-1U35_F,4,4,3,2,4,4,1,6,4,2,4,0
4XGC_A-4XGC_B,1,4,6,1,6,2,2,7,2,2,4,0
1HBX_G-1HBX_B,1,3,7,1,13,8,1,3,7,4,5,0
1JB0_E-1JB0_C,6,2,3,1,3,3,3,5,3,1,1,3
2VSM_A-2VSM_B,3,0,8,2,0,8,3,0,8,7,0,2
4UFR_A-4UFR_B,4,2,5,0,3,6,0,2,9,2,1,2
5CYZ_A-5CYZ_C,1,5,5,9,7,1,0,9,2,7,0,2
5F84_B-5F84_A,5,6,0,8,5,6,2,6,3,2,4,0
3OQ3_B-3OQ3_A,4,0,7,3,9,1,0,11,0,1,7,0
4MQW_X-4MQW_A,2,2,7,2,3,1,3,5,3,2,0,6
2XTS_B-2XTS_A,3,4,4,4,3,12,4,5,2,5,1,2
4ZJV_A-4ZJV_C,4,4,3,9,3,4,5,3,3,3,3,3
3KND_A-3KND_B,0,10,1,4,0,0,10,0,1,3,5,1
3WTP_H-3WTP_F,0,11,0,0,6,0,0,11,0,2,3,1
5LDD_C-5LDD_B,1,6,4,0,8,0,0,11,0,1,0,5
3P71_C-3P71_T,9,2,0,2,13,2,0,11,0,0,6,0
3CR3_B-3CR3_D,5,4,2,3,6,2,2,7,2,2,4,0
4U7U_P-4U7U_U,3,0,8,4,1,8,4,7,0,1,0,7
1S70_A-1S70_B,9,2,0,6,19,2,5,4,2,6,1,1
1C9B_N-1C9B_M,5,6,0,5,8,1,2,7,2,3,0,4
3T6G_A-3T6G_B,2,9,0,0,12,0,1,9,1,5,0,2
5JW9_A-5JW9_B,11,0,0,2,13,0,2,9,0,3,5,0
2B3T_B-2B3T_A,5,3,3,11,13,9,1,3,7,0,6,0
4W4O_C-4W4O_A,2,3,6,4,0,2,6,0,5,2,0,5
1QZ7_A-1QZ7_B,1,10,0,0,6,0,1,10,0,0,7,0
3KWV_D-3KWV_F,2,4,5,1,12,1,1,10,0,3,2,2
5N9J_E-5N9J_G,8,3,0,1,12,0,1,10,0,7,2,0
2OI9_A-2OI9_B,0,11,0,4,0,3,3,0,8,0,0,2
5HPS_A-5HPS_B,0,11,0,0,2,7,2,0,9,1,4,1
1BH9_A-1BH9_B,1,7,3,3,13,2,3,6,2,1,7,0
2Y0M_A-2Y0M_B,3,5,3,5,1,0,6,5,0,3,1,2
4CGY_A-4CGY_B,3,6,2,4,4,7,7,3,1,2,7,0
5CLL_A-5CLL_B,10,0,1,8,2,11,3,2,6,2,0,7
3SGJ_A-3SGJ_C,5,2,4,0,0,7,0,2,9,3,4,0
5J9T_C-5J9T_D,0,11,0,1,12,2,0,11,0,3,6,1
1CCW_C-1CCW_D,4,7,0,4,11,2,1,10,0,3,0,3
3F8U_C-3F8U_D,1,7,3,4,0,9,2,3,6,2,2,3
4PSW_C-4PSW_B,2,9,0,4,10,7,2,4,5,4,2,1
5T5W_A-5T5W_C,2,2,7,1,7,0,2,8,1,3,0,4
2Q86_D-2Q86_C,2,4,5,3,2,10,1,2,8,2,0,7
3PZD_B-3PZD_A,1,10,0,1,10,4,2,9,0,4,4,0
4B8C_H-4B8C_C,1,9,1,0,12,1,1,8,2,6,0,2
1KF6_O-1KF6_N,10,0,1,4,4,6,1,10,0,6,0,1
4UE8_A-4UE8_B,1,9,1,5,8,2,6,5,0,5,0,4
4FXE_B-4FXE_E,0,11,0,3,4,9,1,5,5,7,2,0
4ZRK_G-4ZRK_C,0,11,0,2,7,1,3,7,1,2,4,0
2J3W_D-2J3W_C,4,7,0,0,4,1,0,9,2,0,5,0
2YNM_A-2YNM_D,0,9,2,1,8,0,3,8,0,1,1,6
3MHS_E-3MHS_B,5,4,2,1,5,2,0,11,0,3,2,1
3TQ7_A-3TQ7_Q,8,3,0,3,0,7,3,0,8,4,6,0
4Z96_A-4Z96_C,2,2,7,6,0,0,1,0,0,0,0,0
4Z6Y_A-4Z6Y_D,0,11,0,1,8,0,0,11,0,1,7,0
4PER_B-4PER_A,1,8,2,0,5,4,4,7,0,2,5,0
2PBI_D-2PBI_C,1,2,8,1,9,0,4,6,1,6,2,1
2BEC_B-2BEC_A,1,10,0,2,20,3,2,8,1,1,7,0
4F4O_D-4F4O_F,1,10,0,1,4,6,4,3,4,0,6,0
4H9N_A-4H9N_C,2,7,2,3,10,4,2,7,2,7,0,1
2B1X_A-2B1X_B,3,0,8,3,0,12,4,0,7,2,7,0
4QLB_E-4QLB_A,0,10,1,2,10,1,5,5,1,2,8,0
4P6Z_V-4P6Z_S,1,0,0,0,0,0,1,8,2,3,0,3
1ZUN_B-1ZUN_A,5,0,6,4,7,0,9,0,2,4,2,3
2OZ4_A-2OZ4_H,7,0,4,4,5,3,2,3,6,2,0,4
3SQG_B-3SQG_D,5,4,2,6,9,3,5,4,2,1,2,6
4DVG_A-4DVG_B,1,10,0,4,10,1,3,7,1,1,2,6
1J34_C-1J34_A,11,0,0,4,4,2,3,2,6,4,0,0
5LDD_A-5LDD_B,2,2,7,2,8,10,2,0,9,5,2,3
4DJD_B-4DJD_F,3,7,1,1,10,0,1,10,0,2,1,2
5N9J_A-5N9J_G,5,6,0,2,8,1,0,11,0,7,0,1
5EXE_B-5EXE_C,4,7,0,6,14,4,7,3,1,4,6,0
1LDJ_A-1LDJ_B,0,2,9,4,0,10,2,0,9,1,9,0
5T59_B-5T59_A,0,11,0,0,12,0,0,11,0,2,3,0
3PVL_A-3PVL_B,0,2,9,3,1,4,4,3,4,6,4,0
4YMU_J-4YMU_C,5,4,2,1,8,0,2,9,0,1,0,8
5WY5_B-5WY5_A,0,11,0,0,6,3,0,9,2,1,5,0
5N9J_A-5N9J_D,0,11,0,0,8,0,0,11,0,5,0,1
5N9J_C-5N9J_A,3,7,1,1,10,0,0,11,0,3,3,1
2GAF_A-2GAF_D,1,9,1,2,7,4,1,10,0,6,0,3
2V51_D-2V51_E,1,5,5,4,3,2,1,10,0,3,0,5
4Z3U_B-4Z3U_A,0,11,0,4,10,0,1,10,0,1,4,1
3BOW_C-3BOW_B,2,9,0,1,13,1,1,10,0,1,5,0
4G6U_A-4G6U_B,1,2,8,5,5,9,3,4,4,0,7,0
2VPZ_F-2VPZ_G,5,6,0,6,9,4,5,0,6,4,1,5
2V3B_B-2V3B_A,4,3,4,3,5,1,3,6,2,1,1,2
3WO4_B-3WO4_C,7,0,4,4,0,8,4,0,7,6,0,2
1MQS_A-1MQS_B,0,10,1,2,6,0,1,9,1,6,2,1
3U9Z_A-3U9Z_C,1,10,0,2,4,2,3,8,0,2,0,6
3MHS_C-3MHS_B,0,11,0,2,16,0,0,11,0,3,3,0
2OZB_D-2OZB_E,0,10,1,1,8,1,1,9,1,3,1,2
5HU3_B-5HU3_A,10,0,1,4,11,8,5,2,4,8,0,1
3TIX_B-3TIX_A,4,4,3,1,12,0,3,4,4,4,0,6
3PCR_B-3PCR_A,6,0,5,6,4,5,4,0,7,1,2,1
5UFU_A-5UFU_B,1,0,10,1,5,10,7,3,1,3,2,5
5N9J_Z-5N9J_U,2,8,1,0,10,0,0,11,0,2,4,0
4CC9_B-4CC9_C,0,8,3,5,5,1,3,7,1,5,2,1
3QBT_C-3QBT_D,2,0,9,2,4,7,1,9,1,1,0,4
3WWQ_D-3WWQ_F,1,3,7,5,6,0,0,11,0,1,1,6
4ZP3_A-4ZP3_M,0,11,0,1,9,0,0,11,0,5,3,0
1JB0_A-1JB0_F,3,5,3,2,10,3,1,9,1,2,0,4
4NEE_K-4NEE_J,3,7,1,0,1,2,3,4,4,0,3,0
2NYZ_E-2NYZ_B,5,0,6,4,7,3,5,3,3,4,0,5
3KF6_A-3KF6_B,0,10,1,3,9,3,7,0,4,6,2,1
4WX8_E-4WX8_B,4,2,5,5,2,6,4,0,7,4,1,5
3MDY_B-3MDY_A,2,7,2,0,9,2,1,10,0,2,0,6
4H44_A-4H44_G,0,11,0,0,7,0,0,11,0,2,5,0
5KWY_C-5KWY_B,4,2,5,3,0,5,6,0,5,3,0,2
2P22_A-2P22_D,1,6,4,2,1,5,2,4,5,1,7,0
2P22_A-2P22_C,0,11,0,5,10,1,0,11,0,1,8,0
4UE9_A-4UE9_B,0,10,1,6,8,3,5,6,0,2,0,7
3KFD_A-3KFD_J,3,6,2,2,2,2,3,3,5,0,5,1
2FYU_D-2FYU_H,10,1,0,0,12,0,1,9,1,8,0,0
3CX8_A-3CX8_B,1,10,0,1,9,0,8,2,1,2,0,8
2IZO_C-2IZO_A,1,2,8,2,5,1,4,6,1,2,1,5
3A2F_A-3A2F_B,4,3,4,8,1,11,3,0,8,0,1,5
5B0O_C-5B0O_G,2,3,6,2,7,4,0,11,0,0,8,0
3VR4_C-3VR4_G,2,8,1,2,8,0,0,11,0,1,1,1
3BH7_A-3BH7_B,5,0,6,4,2,8,3,0,8,0,1,5
2GAG_B-2GAG_D,6,1,4,5,5,8,5,4,2,8,0,1
3KYS_B-3KYS_A,1,4,6,1,1,9,0,2,9,2,2,5
2AS5_F-2AS5_N,0,4,7,4,1,1,7,2,2,0,3,1
3HRD_D-3HRD_A,3,4,4,9,4,4,2,9,0,2,0,5
5X5W_C-5X5W_D,3,4,4,2,1,11,0,2,9,5,0,2
3ZKJ_E-3ZKJ_D,0,11,0,2,9,2,1,10,0,3,1,4
5LGD_A-5LGD_B,1,10,0,3,8,1,5,4,2,0,4,3
3NMZ_C-3NMZ_A,4,6,1,0,22,2,0,11,0,4,0,1
2Y69_N-2Y69_S,7,0,4,7,0,14,3,2,6,4,5,1
5T59_E-5T59_F,2,9,0,0,3,1,2,7,2,3,2,0
4U65_A-4U65_E,0,2,9,4,4,6,2,2,7,1,4,0
3H0G_B-3H0G_J,3,0,8,3,3,1,2,8,1,2,5,0
3MHS_A-3MHS_B,4,3,4,0,10,0,0,11,0,4,3,0
3ZDL_B-3ZDL_A,0,11,0,1,22,0,0,11,0,0,7,0
5F5S_A-5F5S_B,3,6,2,0,7,0,0,11,0,2,3,1
3IKO_H-3IKO_I,1,10,0,1,17,2,2,6,3,2,5,1
3QDR_B-3QDR_A,0,2,9,0,3,6,2,2,7,1,2,6
3LK2_B-3LK2_T,3,8,0,7,2,1,6,4,1,1,9,0
1IK9_C-1IK9_A,3,5,3,0,11,0,0,11,0,1,2,2
1WYW_A-1WYW_B,2,2,7,2,5,10,2,2,7,7,3,0
4B7Y_A-4B7Y_C,0,11,0,0,10,0,1,10,0,0,6,0
1JMU_I-1JMU_F,7,4,0,3,12,2,2,8,1,7,2,0
2NN6_F-2NN6_I,5,3,3,3,2,4,5,2,4,4,0,2
2PMZ_K-2PMZ_C,4,1,6,5,0,3,5,3,3,3,7,0
1M56_C-1M56_D,1,10,0,1,6,1,3,7,1,5,2,0
5I2D_G-5I2D_F,2,4,5,1,5,0,0,11,0,2,1,4
1SQ2_L-1SQ2_N,0,9,2,6,5,4,3,7,1,2,4,0
4UEL_A-4UEL_C,3,8,0,3,13,2,0,11,0,5,1,1
5BQC_A-5BQC_B,3,0,8,2,1,7,5,0,6,1,2,4
3ZIA_G-3ZIA_H,0,10,1,3,0,9,4,0,7,0,7,0
3GCG_A-3GCG_B,2,9,0,2,13,1,3,8,0,2,0,7
5M5E_D-5M5E_C,0,11,0,4,5,2,5,0,6,0,5,0
2P58_A-2P58_C,0,11,0,1,15,0,0,11,0,3,5,0
2BTV_H-2BTV_B,4,6,1,0,9,0,0,10,1,0,6,0
4Q7J_D-4Q7J_C,0,11,0,0,14,0,1,10,0,1,8,0
2P5T_E-2P5T_F,1,10,0,1,11,1,0,11,0,3,3,0
4B8C_D-4B8C_H,1,8,2,4,3,0,3,8,0,1,4,1
3G9W_D-3G9W_A,5,2,4,2,8,9,2,4,5,1,9,0
4AYD_A-4AYD_D,1,9,1,1,2,16,2,2,7,8,0,0
3KP1_A-3KP1_E,7,2,2,2,9,2,1,8,2,4,4,1
4CYM_D-4CYM_A,1,7,3,0,1,9,4,0,7,3,3,0
3SJL_B-3SJL_F,6,4,1,1,0,4,2,0,9,0,4,0
2F4M_B-2F4M_A,1,10,0,1,14,1,2,9,0,3,6,0
2WZP_Q-2WZP_R,6,3,2,3,0,11,1,1,9,0,0,4
2D1P_D-2D1P_F,0,11,0,1,7,0,1,10,0,4,0,4
2D7C_A-2D7C_C,4,0,7,2,5,1,0,11,0,1,0,6
2PMZ_A-2PMZ_L,9,0,2,2,0,7,2,0,9,9,0,0
5F74_B-5F74_A,0,11,0,0,7,0,0,11,0,0,5,0
5LSJ_E-5LSJ_G,0,11,0,0,7,0,0,11,0,0,5,0
2Q0O_A-2Q0O_C,5,5,1,0,15,0,0,11,0,1,9,0
5B64_A-5B64_B,3,5,3,4,4,0,1,9,1,4,1,4
2NUT_A-2NUT_C,6,2,3,5,2,2,4,6,1,0,5,0
4MQW_E-4MQW_D,4,0,7,5,2,21,2,1,8,2,0,8
1PRT_B-1PRT_F,4,4,3,0,1,9,0,0,11,3,2,2
2AW2_B-2AW2_A,3,0,8,5,2,6,3,2,6,2,2,4
4HEA_Q-4HEA_P,0,11,0,0,10,4,0,11,0,5,1,1
2WT7_A-2WT7_B,0,11,0,0,9,0,0,11,0,0,6,0
2YFV_A-2YFV_C,2,7,2,3,7,4,3,2,6,2,6,0
4ZRI_C-4ZRI_A,2,8,1,3,7,1,3,7,1,0,6,0
1KQF_C-1KQF_B,1,10,0,2,10,0,0,11,0,3,0,3
5UA4_A-5UA4_B,2,7,2,0,7,0,0,10,1,2,6,0
4BV4_R-4BV4_M,0,2,9,2,0,3,3,4,4,0,3,3
1ZQ1_A-1ZQ1_C,1,3,7,4,0,11,5,2,4,1,9,0
4DL0_G-4DL0_C,1,10,0,5,2,4,3,2,6,0,5,0
4M0W_B-4M0W_A,4,0,7,3,5,12,0,5,6,1,2,2
1LQB_C-1LQB_B,5,6,0,7,14,0,0,11,0,7,0,1
4CCG_A-4CCG_X,2,9,0,2,6,1,4,5,2,1,6,0
2Y69_B-2Y69_D,7,2,2,0,6,3,0,9,2,6,1,1
5CM8_B-5CM8_A,2,7,2,1,17,1,0,10,1,3,0,7
5EOF_C-5EOF_B,0,11,0,0,8,0,0,11,0,1,5,0
5LQF_A-5LQF_C,2,7,2,4,1,5,2,4,5,2,3,2
1PRT_G-1PRT_K,0,11,0,1,5,4,1,10,0,1,0,5
5X1E_A-5X1E_C,1,7,3,1,9,0,2,9,0,1,5,0
4HEA_E-4HEA_O,1,8,2,1,7,0,1,10,0,1,0,6
5LTW_G-5LTW_F,9,0,2,0,23,0,0,11,0,2,0,4
4B0M_M-4B0M_B,0,0,11,4,0,20,2,0,9,2,2,6
4I6M_A-4I6M_D,1,6,4,4,0,1,5,0,6,4,0,4
1GL2_C-1GL2_D,0,11,0,0,8,0,0,11,0,1,5,0
4UB8_U-4UB8_V,1,9,1,2,5,5,3,3,5,0,6,0
4Q2U_A-4Q2U_B,4,6,1,4,4,7,1,5,5,9,0,0
5FM5_M-5FM5_P,4,0,7,9,2,24,2,0,9,4,0,6
5EP6_B-5EP6_A,0,11,0,0,9,0,0,11,0,0,6,0
2HYI_H-2HYI_G,2,0,9,1,6,3,1,7,3,5,0,4
2OMY_B-2OMY_A,2,0,9,5,0,15,1,2,8,2,1,2
5M72_A-5M72_B,0,10,1,3,2,0,6,5,0,1,9,0
5FFO_G-5FFO_A,2,6,3,1,3,4,3,0,8,0,4,0
2GAG_D-2GAG_C,3,4,4,0,2,7,1,2,8,0,2,2
2ZET_A-2ZET_C,1,10,0,4,8,2,1,7,3,2,0,5
3ZIA_D-3ZIA_J,0,11,0,1,11,1,0,11,0,2,0,4
3N3A_B-3N3A_C,4,7,0,3,6,1,1,8,2,3,2,2
1N6J_A-1N6J_G,1,10,0,4,6,2,3,8,0,5,0,1
5N9J_G-5N9J_D,1,9,1,0,7,0,0,11,0,0,4,0
1XU2_A-1XU2_R,2,0,9,0,5,3,2,6,3,2,0,5
4H63_V-4H63_R,1,10,0,1,3,1,1,8,2,0,5,0
4GF3_B-4GF3_A,3,2,6,4,8,8,2,4,5,1,2,6
4RGW_A-4RGW_B,1,3,7,3,6,11,0,0,11,5,5,0
2HSN_B-2HSN_A,0,11,0,4,8,0,3,8,0,2,6,0
4Q7J_F-4Q7J_E,2,8,1,4,11,1,1,10,0,3,0,6
5DLQ_F-5DLQ_B,5,0,6,5,10,3,1,4,6,1,3,5
4N3Y_A-4N3Y_C,1,10,0,0,8,0,0,11,0,0,6,0
4A49_B-4A49_A,3,8,0,2,7,0,2,3,6,1,4,0
3AWU_A-3AWU_B,2,8,1,7,2,3,0,2,9,3,3,1
2XKO_B-2XKO_C,0,7,4,0,3,4,2,4,5,2,0,3
3W15_A-3W15_C,2,2,7,1,10,0,1,10,0,2,1,5
5TDY_C-5TDY_D,0,11,0,2,14,1,2,9,0,1,6,0
4EBA_H-4EBA_C,1,9,1,6,8,3,2,7,2,9,0,0
3HGK_B-3HGK_E,5,3,3,5,7,3,4,5,2,7,0,1
3CPT_B-3CPT_A,4,1,6,5,3,10,2,0,9,2,8,0
2Y9M_A-2Y9M_B,1,10,0,1,6,4,1,8,2,1,7,0
3OR1_A-3OR1_C,3,3,5,4,5,0,3,6,2,0,3,0
5T59_A-5T59_C,0,11,0,4,8,1,5,6,0,5,4,0
4UB8_B-4UB8_L,0,9,2,4,2,2,7,2,2,1,6,1
2R17_C-2R17_A,0,11,0,1,3,3,1,10,0,1,5,0
4P6I_D-4P6I_A,9,0,2,0,5,9,0,7,4,6,3,0
5FFO_D-5FFO_B,1,8,2,6,9,7,1,9,1,2,4,1
2XZE_A-2XZE_Q,0,11,0,0,6,0,1,10,0,3,3,0
3UTM_B-3UTM_C,2,9,0,4,0,3,8,0,3,1,9,0
3WSO_B-3WSO_A,2,9,0,0,12,0,1,10,0,3,2,5
5EXE_B-5EXE_A,4,6,1,1,12,1,2,6,3,2,5,0
5GK9_B-5GK9_A,3,0,8,3,7,11,0,2,9,1,2,4
3V4Y_A-3V4Y_B,3,1,7,9,0,5,5,0,6,2,7,0
4XGA_B-4XGA_A,1,2,8,6,4,6,5,0,6,0,0,6
3QWZ_A-3QWZ_B,3,6,2,0,2,7,2,6,3,0,0,5
4W4L_B-4W4L_A,0,11,0,3,7,1,4,3,4,3,6,1
5F0J_A-5F0J_B,3,8,0,6,0,4,8,2,1,2,5,0
4UB8_E-4UB8_R,0,11,0,0,10,0,0,11,0,4,3,2
4XHJ_B-4XHJ_A,10,0,1,3,6,13,3,5,3,6,0,4
4CRY_G-4CRY_B,7,0,4,3,7,6,1,7,3,0,4,3
5F5T_A-5F5T_C,3,4,4,4,8,0,0,11,0,2,6,0
2F2C_B-2F2C_A,5,2,4,9,14,3,6,4,1,6,0,4
3RLF_A-3RLF_G,5,4,2,4,13,1,0,11,0,1,0,7
1Z0J_A-1Z0J_B,0,11,0,2,7,0,2,9,0,2,0,4
1GL2_C-1GL2_B,1,10,0,0,7,0,0,11,0,1,5,0
3MK7_E-3MK7_F,2,8,1,3,4,3,1,10,0,2,3,1
2F8X_C-2F8X_M,0,2,9,0,7,0,0,11,0,5,2,0
1FFT_F-1FFT_G,0,9,2,2,11,6,4,5,2,2,8,0
2WJN_L-2WJN_C,1,9,1,5,9,4,5,2,4,4,4,0
2Q1Z_A-2Q1Z_B,7,1,3,5,14,3,0,11,0,3,7,0
2HZM_A-2HZM_B,5,3,3,3,0,17,0,0,11,3,0,7
3TJZ_C-3TJZ_B,1,9,1,0,10,2,1,6,4,3,0,3
1OF5_A-1OF5_B,0,4,7,1,4,10,2,0,9,5,3,0
2Y69_E-2Y69_I,1,10,0,6,1,0,8,2,1,2,8,0
3VYT_C-3VYT_A,1,10,0,1,0,6,0,0,11,1,4,2
5NVL_C-5NVL_D,2,8,1,11,6,2,3,6,2,4,0,6
3GYX_E-3GYX_F,2,8,1,7,3,9,3,0,8,4,2,2
1KKM_I-1KKM_A,2,8,1,0,5,2,2,9,0,1,1,5
3SJL_E-3SJL_B,5,2,4,2,8,2,0,10,1,5,1,2
2C4F_L-2C4F_U,2,9,0,8,0,3,8,0,3,6,0,0
3HHZ_A-3HHZ_K,1,8,2,4,7,0,6,0,5,2,4,2
3OIQ_B-3OIQ_A,1,7,3,0,1,15,0,2,9,1,9,0
5CM2_M-5CM2_Z,3,2,6,3,5,5,5,0,6,3,4,1
2IVF_A-2IVF_B,2,7,2,9,8,1,5,6,0,3,6,0
4UB8_B-4UB8_O,6,4,1,1,3,2,2,4,5,3,6,0
2Q7N_A-2Q7N_B,2,0,9,3,11,2,3,7,1,2,0,4
4ITR_C-4ITR_B,5,0,6,2,3,6,1,9,1,2,1,5
2ARP_A-2ARP_F,3,2,6,4,6,7,3,8,0,3,0,2
3BRV_C-3BRV_B,0,11,0,0,8,0,0,11,0,2,4,0
2FYU_C-2FYU_A,0,7,4,2,3,0,2,8,1,0,4,1
2FM8_A-2FM8_C,0,0,11,2,2,8,0,4,7,4,5,0
3U7U_J-3U7U_D,1,2,8,2,4,5,3,3,5,4,1,5
5JFZ_E-5JFZ_F,1,10,0,5,12,1,0,11,0,2,4,4
4XIZ_A-4XIZ_N,1,0,10,5,12,1,0,11,0,0,0,5
2OCF_D-2OCF_A,2,6,3,2,13,0,6,3,2,0,0,4
3P8C_F-3P8C_B,7,0,4,4,9,4,1,7,3,1,7,0
1G4U_R-1G4U_S,7,0,4,1,12,1,0,11,0,0,0,8
4UZY_B-4UZY_A,11,0,0,1,41,0,1,10,0,8,0,0
4OO1_J-4OO1_H,1,10,0,1,0,6,1,3,7,4,2,2
5CJP_A-5CJP_E,5,0,6,7,6,4,8,0,3,2,0,7
4ZK7_W-4ZK7_E,2,0,9,2,7,2,0,11,0,0,0,6
1PG5_A-1PG5_B,0,6,5,2,8,2,2,7,2,5,3,2
5T46_C-5T46_D,0,10,1,5,7,3,6,4,1,3,2,2
4UB8_Z-4UB8_Y,1,8,2,3,8,0,1,10,0,1,5,0
5JHF_F-5JHF_E,0,11,0,4,8,2,1,10,0,1,5,1
2G48_D-2G48_B,6,0,5,4,13,15,2,2,7,3,0,3
4HEA_7-4HEA_9,3,5,3,3,3,7,5,2,4,0,6,0
2B5L_A-2B5L_C,3,2,6,4,8,1,1,10,0,3,0,5
4HPM_C-4HPM_D,3,0,8,3,5,9,2,2,7,2,0,8
2J56_A-2J56_H,0,2,9,2,1,4,2,0,9,2,0,3
3ZS9_A-3ZS9_D,0,11,0,1,6,0,2,9,0,2,4,1
4XGC_A-4XGC_E,1,6,4,2,3,1,5,4,2,2,6,0
5IJ7_F-5IJ7_B,1,0,10,8,0,9,10,1,0,0,0,9
4YYP_A-4YYP_B,3,7,1,0,9,0,0,11,0,3,0,6
1TTW_A-1TTW_B,2,4,5,7,5,0,7,2,2,1,7,0
5HK5_A-5HK5_E,1,2,8,5,5,10,2,3,6,4,0,6
3PXG_F-3PXG_f,2,8,1,1,5,3,1,10,0,3,4,0
5MJ3_A-5MJ3_B,6,2,3,4,11,3,0,11,0,1,1,7
4UB8_A-4UB8_T,4,6,1,1,3,0,1,10,0,2,2,0
2YJN_B-2YJN_A,0,11,0,0,15,0,0,11,0,2,6,0
5AQV_A-5AQV_B,0,0,11,3,7,0,2,9,0,3,0,4
3L82_A-3L82_B,2,6,3,2,8,5,3,7,1,0,5,0
4HEA_D-4HEA_I,8,0,3,6,1,11,3,2,6,1,0,5
4L63_C-4L63_A,1,8,2,2,2,2,1,7,3,0,2,0
4EOZ_C-4EOZ_D,0,8,3,2,7,1,2,8,1,6,3,0
2FYU_A-2FYU_K,2,9,0,0,7,0,0,11,0,2,3,1
4H62_V-4H62_Q,1,10,0,2,10,0,0,11,0,0,6,0
3NMU_C-3NMU_B,2,7,2,1,8,0,1,10,0,7,0,0
4OR5_F-4OR5_G,2,5,4,3,10,0,4,7,0,3,4,2
3DIN_A-3DIN_C,0,9,2,12,2,2,6,3,2,2,7,1
1W85_I-1W85_B,5,6,0,3,4,2,3,6,2,2,5,0
2HYI_A-2HYI_D,0,2,9,3,0,0,7,2,2,0,0,4
5AWW_Y-5AWW_E,1,6,4,3,8,1,0,11,0,1,9,0
4QLP_B-4QLP_A,5,5,1,1,6,11,3,2,6,5,0,2
3HI2_B-3HI2_A,1,6,4,2,7,5,2,6,3,3,1,4
1FM0_E-1FM0_D,1,4,6,7,1,4,6,0,5,0,0,6
3W1Y_C-3W1Y_A,1,0,10,3,1,4,2,2,7,2,0,3
3AYH_A-3AYH_B,1,0,10,0,2,11,1,0,10,5,0,5
4H44_B-4H44_G,4,5,2,1,6,0,3,8,0,5,1,1
2GAG_A-2GAG_C,1,3,7,1,5,9,1,3,7,4,1,4
4YH7_A-4YH7_B,3,0,8,3,0,4,4,0,7,4,0,3
3TBI_B-3TBI_A,1,10,0,1,14,1,2,8,1,0,0,7
1KF6_M-1KF6_N,6,3,2,3,5,3,6,0,5,5,0,5
3EUH_A-3EUH_C,4,0,7,4,18,13,1,10,0,1,8,0
1XRS_B-1XRS_A,1,8,2,2,9,1,2,6,3,0,0,4
2Y0N_A-2Y0N_E,0,10,1,7,1,2,5,2,4,7,3,0
5B58_B-5B58_T,1,10,0,1,6,8,1,7,3,5,2,2
3TVJ_B-3TVJ_I,3,6,2,2,3,6,5,0,6,4,2,4
5N9J_A-5N9J_B,0,11,0,2,13,3,2,6,3,8,0,1
5JEA_K-5JEA_C,4,0,7,9,11,0,6,3,2,2,5,0
4YON_B-4YON_A,2,9,0,0,16,0,0,11,0,2,0,5
3E0J_A-3E0J_B,6,0,5,1,10,5,4,2,5,3,5,2
1IKN_D-1IKN_A,2,7,2,1,6,2,4,5,2,2,5,0
4XB6_G-4XB6_H,2,8,1,5,6,13,5,2,4,6,3,0
4RT6_B-4RT6_A,4,3,4,2,8,9,3,4,4,4,1,2
4KP3_A-4KP3_C,2,6,3,0,15,0,0,11,0,4,1,2
3PEV_A-3PEV_B,3,5,3,0,13,0,3,7,1,5,0,5
1M56_B-1M56_I,1,4,6,1,4,0,6,3,2,3,2,1
3RZO_C-3RZO_J,5,2,4,3,5,2,4,6,1,2,0,7
5XEQ_A-5XEQ_B,0,11,0,4,2,7,8,0,3,2,0,6
3HTK_B-3HTK_C,0,11,0,8,7,1,6,5,0,1,6,0
4WW7_A-4WW7_B,0,10,1,4,7,0,1,10,0,0,7,0
4JJN_L-4JJN_F,2,2,7,4,0,0,9,0,2,4,0,6
4UQI_S-4UQI_B,2,8,1,1,4,3,3,4,4,0,1,7
3HRZ_D-3HRZ_C,4,4,3,7,3,4,0,10,1,5,1,1
1GOT_B-1GOT_A,2,3,6,0,8,0,3,5,3,0,7,0
4OR5_G-4OR5_H,1,9,1,6,2,5,5,6,0,5,3,2
5LSJ_C-5LSJ_G,1,7,3,0,8,0,0,11,0,3,4,0
3V96_B-3V96_A,2,0,9,3,5,3,5,4,2,3,0,2
4Z80_A-4Z80_C,1,4,6,3,7,4,3,7,1,1,9,0
3ENO_B-3ENO_F,0,11,0,1,16,0,1,10,0,4,0,4
3KFU_H-3KFU_I,1,9,1,3,5,8,7,4,0,1,9,0
1LTS_C-1LTS_E,0,11,0,3,4,0,2,8,1,0,6,0
1PXV_B-1PXV_D,5,3,3,3,1,6,4,0,7,8,2,0
2ZZD_J-2ZZD_L,1,4,6,1,6,10,2,0,9,5,3,1
4GAM_L-4GAM_I,1,10,0,3,3,4,2,9,0,3,2,1
2HVY_D-2HVY_C,0,10,1,2,7,2,0,11,0,6,1,0
1YTZ_I-1YTZ_C,0,11,0,3,12,3,0,11,0,2,5,1
4E6N_A-4E6N_B,0,11,0,4,3,13,1,7,3,5,0,3
3O6Q_A-3O6Q_D,0,2,9,2,0,4,6,1,4,1,9,0
3H0G_B-3H0G_L,5,0,6,9,0,2,10,0,1,4,5,0
4XZR_B-4XZR_A,1,9,1,7,0,0,9,0,2,3,3,3
4HEA_D-4HEA_X,2,6,3,2,6,1,4,6,1,1,2,5
2A40_A-2A40_B,3,2,6,3,7,13,0,10,1,3,0,5
3OHM_B-3OHM_A,1,10,0,0,14,1,0,10,1,8,2,0
4XH9_E-4XH9_D,2,9,0,0,16,1,1,8,2,0,0,7
1SR4_B-1SR4_A,3,3,5,2,2,10,2,2,7,1,3,4
3OR1_B-3OR1_C,2,9,0,5,2,3,7,3,1,2,2,1
5BS7_E-5BS7_C,3,6,2,4,7,1,4,6,1,5,2,1
4MOY_A-4MOY_B,2,0,9,7,0,9,3,1,7,2,8,0
3WFD_C-3WFD_B,4,4,3,3,9,7,2,7,2,1,8,0
4HEA_5-4HEA_6,7,1,3,2,1,3,3,5,3,0,6,0
4PKG_A-4PKG_G,0,10,1,6,9,2,0,11,0,3,0,6
4IFD_I-4IFD_G,1,0,10,1,1,3,4,2,5,2,1,2
4XLG_A-4XLG_B,6,3,2,1,14,0,2,8,1,7,0,2
5NLB_A-5NLB_B,0,4,7,3,10,0,2,9,0,6,3,0
2J56_A-2J56_L,4,0,7,5,1,5,5,2,4,1,0,3
3N3K_B-3N3K_A,2,3,6,4,4,7,3,0,8,1,3,3
4IUM_B-4IUM_A,4,0,7,4,5,3,4,6,1,1,2,3
3C0T_A-3C0T_B,2,2,7,2,8,0,0,11,0,1,0,7
1LQV_C-1LQV_A,11,0,0,1,10,0,1,10,0,5,0,0
4H44_C-4H44_E,0,11,0,2,6,0,0,11,0,1,3,1
4XSG_A-4XSG_B,6,0,5,3,7,8,0,5,6,0,0,8
3HRD_H-3HRD_G,0,5,6,1,10,5,2,7,2,1,0,6
2WG3_A-2WG3_C,3,0,8,2,6,2,4,6,1,5,2,1
3X1L_F-3X1L_A,0,11,0,1,7,1,1,9,1,2,5,0
2FTK_E-2FTK_A,2,3,6,0,9,0,0,11,0,4,0,5
3GLI_F-3GLI_J,0,10,1,2,7,1,2,9,0,2,4,2
2BQ1_I-2BQ1_E,6,4,0,1,14,0,0,11,0,4,2,1
1DHK_A-1DHK_B,4,2,5,3,2,9,1,0,10,5,2,1
4GAM_B-4GAM_C,5,3,3,1,11,0,1,9,1,4,2,1
4DHI_D-4DHI_B,4,7,0,3,10,2,2,7,2,2,5,0
1NH2_A-1NH2_D,1,4,6,0,0,5,0,2,9,1,0,5
2GAG_A-2GAG_D,1,10,0,4,3,4,1,9,1,3,1,2
4I6M_A-4I6M_C,5,4,2,1,5,0,2,9,0,3,0,4
5KXH_B-5KXH_A,5,4,2,4,9,11,3,4,4,3,3,0
4DXR_B-4DXR_A,4,0,7,5,3,11,3,2,6,3,6,0
3AJB_B-3AJB_A,0,11,0,0,16,1,0,10,1,1,6,0
1M1E_A-1M1E_B,0,11,0,2,7,0,10,0,1,1,9,0
2FYU_C-2FYU_F,4,4,3,3,11,0,0,11,0,1,5,1
1WTH_A-1WTH_D,4,3,4,6,2,2,5,4,2,0,0,6
3D6N_B-3D6N_A,4,0,7,2,6,1,3,8,0,6,3,0
5HZK_D-5HZK_C,2,9,0,3,3,5,6,0,5,2,7,0
4BD9_B-4BD9_A,3,6,2,3,9,0,3,7,1,5,3,1
4DL0_E-4DL0_I,2,2,7,2,0,6,4,0,7,3,2,2
1OTC_A-1OTC_B,0,2,9,5,7,8,5,6,0,4,2,3
3O4O_C-3O4O_A,3,0,8,3,3,2,3,6,2,3,0,6
2FYU_I-2FYU_A,8,0,3,1,7,9,1,10,0,2,1,4
5JG6_B-5JG6_A,3,1,7,5,4,2,6,3,2,1,1,2
2NPS_A-2NPS_D,0,11,0,0,9,0,0,11,0,1,3,2
3VZA_C-3VZA_E,1,10,0,0,8,2,1,9,1,1,5,0
4NWP_C-4NWP_E,1,10,0,1,6,0,0,11,0,2,5,0
4WEM_A-4WEM_B,3,2,6,1,0,6,2,0,9,1,1,4
4U7U_V-4U7U_W,4,3,4,7,1,6,4,2,5,2,0,8
2Y69_A-2Y69_T,0,11,0,5,0,1,10,0,1,4,5,1
4WJ3_H-4WJ3_I,5,0,6,5,0,2,9,0,2,3,0,7
3ZIA_G-3ZIA_I,1,10,0,5,9,1,6,0,5,2,8,0
5XSJ_L-5XSJ_X,0,11,0,2,5,1,1,9,1,0,7,0
5H6Q_B-5H6Q_A,7,4,0,0,12,1,0,11,0,7,2,0
2XPI_B-2XPI_A,11,0,0,1,31,0,0,10,1,6,0,0
5J1S_B-5J1S_A,0,11,0,2,13,1,2,7,2,4,3,0
1JB0_J-1JB0_F,6,2,3,2,12,4,2,8,1,0,5,1
1I7Q_D-1I7Q_C,1,7,3,1,13,4,0,11,0,2,0,6
5N9J_W-5N9J_U,3,0,8,1,10,6,1,5,5,10,0,0
4NTW_B-4NTW_A,4,2,5,6,5,0,6,1,4,3,3,0
3RGB_B-3RGB_C,0,11,0,1,16,0,0,11,0,2,5,1
4RG6_A-4RG6_S,1,9,1,1,6,1,0,11,0,0,7,0
1MIU_A-1MIU_B,6,0,5,6,5,4,1,9,1,4,5,1
3IM4_A-3IM4_C,0,11,0,0,10,0,0,11,0,1,7,0
2PMZ_H-2PMZ_K,0,11,0,2,3,0,3,8,0,3,2,1
2X19_A-2X19_B,6,0,5,2,6,1,2,9,0,1,0,4
3SQG_C-3SQG_A,5,4,2,7,8,4,2,7,2,5,2,2
5XJL_2-5XJL_M,6,5,0,0,5,0,0,11,0,6,0,2
4IW3_K-4IW3_J,9,0,2,6,2,17,5,0,6,1,0,5
5CGQ_A-5CGQ_B,6,4,1,2,9,3,1,6,4,2,8,0
3KBU_D-3KBU_A,2,2,7,2,13,0,2,9,0,0,0,8
3WTP_C-3WTP_F,4,4,3,2,4,4,1,6,4,1,5,0
5HXB_X-5HXB_Z,6,3,2,2,2,9,2,2,7,2,0,3
2CZV_A-2CZV_C,3,8,0,0,6,5,1,10,0,3,0,4
4OR5_H-4OR5_J,2,5,4,1,3,2,2,7,2,3,1,2
3MSX_A-3MSX_B,0,10,1,2,15,0,3,7,1,0,0,8
3TJZ_A-3TJZ_B,3,0,8,0,13,0,1,10,0,2,1,5
5AJJ_B-5AJJ_A,0,11,0,2,16,1,3,7,1,1,5,0
2FYU_C-2FYU_D,0,11,0,0,9,0,0,11,0,1,5,0
1R4A_A-1R4A_E,1,10,0,0,8,0,1,10,0,2,0,4
5DMV_C-5DMV_D,3,7,1,7,0,1,1,0,0,0,0,0
5BNX_C-5BNX_B,5,6,0,3,6,1,3,7,1,3,3,2
4V0X_A-4V0X_B,2,0,9,8,0,8,6,0,5,3,6,0
4HEA_Q-4HEA_R,2,7,2,2,7,0,0,10,1,3,2,0
3RZO_C-3RZO_K,0,11,0,1,13,3,0,11,0,3,0,7
4HKC_A-4HKC_B,0,11,0,3,0,1,1,0,0,0,0,0
3T97_C-3T97_B,0,11,0,0,6,0,2,9,0,0,5,0
3OC3_A-3OC3_C,4,0,7,0,8,6,1,6,4,1,7,0
2Y69_A-2Y69_B,3,5,3,9,7,1,4,5,2,4,5,1
5TCS_A-5TCS_C,0,11,0,1,7,0,2,6,3,2,2,2
1JB0_D-1JB0_L,6,2,3,1,3,5,2,5,4,5,0,2
3ALZ_A-3ALZ_B,2,0,9,1,0,8,3,0,8,2,0,6
5DOQ_A-5DOQ_B,0,11,0,0,15,0,0,11,0,1,7,0
4F0Z_A-4F0Z_B,1,10,0,1,15,1,0,11,0,6,2,2
1FYH_A-1FYH_B,2,5,4,3,2,8,2,2,7,1,7,0
4P5O_G-4P5O_D,4,5,2,2,3,1,6,0,5,0,4,0
3JQO_l-3JQO_k,3,0,8,4,2,8,3,3,5,0,7,0
2PMZ_T-2PMZ_G,8,2,1,7,1,0,10,1,0,0,0,8
4AQR_D-4AQR_A,0,11,0,1,24,0,1,10,0,0,6,0
5D3I_A-5D3I_B,3,5,3,7,0,7,2,0,9,1,2,5
4BRU_A-4BRU_B,2,7,2,2,8,2,3,5,3,3,3,1
3NYB_B-3NYB_A,7,3,1,4,16,2,2,7,2,3,0,6
3HRD_H-3HRD_F,4,3,4,4,11,2,4,5,2,3,0,4
4XGC_F-4XGC_C,0,11,0,0,8,0,1,9,1,0,5,0
3IHP_C-3IHP_A,6,0,5,7,3,18,3,3,5,1,1,4
4F0Z_C-4F0Z_A,6,0,5,3,3,12,3,1,7,5,0,5
2F8X_K-2F8X_C,6,4,1,4,2,3,0,2,9,1,5,0
3WYF_E-3WYF_F,3,5,3,0,15,0,0,11,0,3,0,4
3VZA_A-3VZA_C,1,10,0,1,9,4,1,9,1,1,7,0
1XOU_A-1XOU_B,2,9,0,0,16,0,0,11,0,1,8,0
5X3X_m-5X3X_q,0,11,0,1,20,2,0,11,0,3,2,4
2VCP_B-2VCP_E,1,10,0,5,5,0,7,3,1,3,0,5
1GO3_E-1GO3_F,1,0,10,2,8,10,1,0,10,1,0,9
3A4U_A-3A4U_B,2,3,6,1,7,4,1,7,3,0,3,3
3Q3J_B-3Q3J_A,1,10,0,1,5,5,0,3,8,1,1,5
2Y3N_C-2Y3N_D,1,3,7,1,11,0,0,10,1,2,0,6
4HEA_6-4HEA_9,3,3,5,8,6,4,5,4,2,4,3,2
1D2Z_A-1D2Z_B,2,8,1,2,9,0,5,2,4,4,3,2
1UB4_A-1UB4_C,5,2,4,5,6,0,10,1,0,5,2,1
3TW8_D-3TW8_C,2,3,6,3,7,7,2,6,3,1,0,7
2AVU_B-2AVU_E,0,11,0,4,10,3,0,11,0,0,7,0
4JGH_B-4JGH_C,10,1,0,4,8,1,2,3,6,2,0,7
2FYU_J-2FYU_K,0,11,0,1,9,1,0,11,0,1,5,0
5N9J_C-5N9J_B,3,5,3,0,10,0,1,9,1,5,4,0
4P6Z_S-4P6Z_G,1,9,1,0,15,1,0,10,1,0,1,5
1NPE_B-1NPE_A,3,2,6,2,0,6,8,0,3,2,2,2
5H2W_C-5H2W_D,0,10,1,4,0,0,11,0,0,2,6,0
1WDD_E-1WDD_W,2,8,1,3,4,7,4,4,3,6,2,1
5V6T_B-5V6T_A,4,0,7,3,2,2,4,5,2,2,1,3
5INB_A-5INB_B,2,0,9,14,1,5,3,4,4,2,8,0
4IN3_C-4IN3_D,1,9,1,1,12,1,9,0,2,0,0,6
3S8G_A-3S8G_C,0,11,0,0,8,0,0,11,0,2,5,0
1JB0_A-1JB0_E,2,7,2,5,1,1,6,2,3,3,0,4
4HFK_A-4HFK_B,5,6,0,0,11,0,3,7,1,3,4,0
3A1J_C-3A1J_B,2,2,7,3,1,9,2,0,9,3,0,7
3KZ4_H-3KZ4_B,10,0,1,7,4,1,3,6,2,0,6,0
5LXT_A-5LXT_F,4,4,3,1,5,2,2,6,3,2,1,3
4XB6_G-4XB6_E,6,0,5,0,1,17,0,0,11,7,3,0
3O4O_C-3O4O_B,8,0,3,2,0,3,4,2,5,3,0,1
3S8G_A-3S8G_B,0,9,2,2,7,6,4,5,2,2,8,0
4CMM_B-4CMM_A,0,2,9,8,3,7,5,0,6,4,0,4
3RZO_C-3RZO_L,0,0,11,5,0,3,6,0,5,1,0,6
3OVU_C-3OVU_B,1,10,0,3,7,4,2,6,3,0,6,0
3P5J_A-3P5J_C,3,5,3,1,1,9,5,1,5,3,2,3
4PSW_C-4PSW_A,4,2,5,8,7,9,5,5,1,3,0,3
2QIY_C-2QIY_A,3,3,5,0,5,10,0,2,9,1,2,5
5FQD_F-5FQD_E,2,3,6,2,2,8,2,2,7,0,2,2
4TQU_M-4TQU_Q,2,9,0,0,6,1,0,9,2,1,3,1
2Y69_B-2Y69_E,6,2,3,0,7,2,0,8,3,3,1,1
2RF4_A-2RF4_B,0,0,11,3,2,8,4,0,7,6,2,2
4UB8_A-4UB8_I,1,10,0,0,8,0,1,7,3,1,5,0
3WWN_A-3WWN_B,0,11,0,4,4,3,4,2,5,4,1,4
2ZUP_A-2ZUP_B,2,7,2,6,3,0,7,2,2,4,4,2
1DML_F-1DML_E,1,10,0,6,1,13,6,0,5,1,9,0
1PRT_B-1PRT_D,1,2,8,4,7,7,2,9,0,5,2,2
5XBF_A-5XBF_B,1,3,7,6,1,1,8,2,1,3,5,1
3V62_C-3V62_B,3,7,1,6,2,10,4,0,7,0,6,0
4FBW_A-4FBW_C,1,3,7,2,0,6,7,0,4,2,2,6
4Z2M_B-4Z2M_H,6,0,5,3,6,3,2,6,3,7,0,0
5IXI_B-5IXI_A,8,3,0,1,19,0,1,9,1,2,1,3
4OWT_B-4OWT_A,5,0,6,4,5,4,5,0,6,2,0,3
4UB8_A-4UB8_O,0,8,3,2,0,7,5,0,6,0,6,0
3E5A_A-3E5A_B,3,8,0,3,4,2,6,2,3,4,3,3
2ZME_D-2ZME_B,3,5,3,2,5,7,0,2,9,4,2,0
2WWX_A-2WWX_B,4,5,2,4,16,1,0,11,0,2,0,7
4BQ6_A-4BQ6_D,2,2,7,4,1,7,4,2,5,4,0,5
4Z8L_E-4Z8L_F,1,9,1,5,2,1,7,3,1,7,0,0
3Q87_A-3Q87_B,2,2,7,1,5,5,2,4,5,3,4,1
5AWF_D-5AWF_B,4,0,7,1,10,0,2,9,0,1,0,9
3V5W_A-3V5W_B,4,6,1,4,4,7,3,0,8,5,2,0
5L8H_B-5L8H_A,5,0,6,5,4,19,2,7,2,2,0,6
2P58_B-2P58_C,6,5,0,1,11,0,0,11,0,2,6,0
4DJD_B-4DJD_E,1,8,2,2,7,0,3,7,1,2,0,5
2ZXX_E-2ZXX_F,4,5,2,7,3,3,4,5,2,2,5,1
3MK7_D-3MK7_E,2,6,3,3,14,2,6,0,5,4,6,0
3X1L_D-3X1L_G,0,3,8,3,4,2,4,7,0,3,1,1
5N9J_S-5N9J_A,0,11,0,1,15,0,0,11,0,5,0,2
4I9X_C-4I9X_B,6,0,5,4,0,6,9,0,2,2,1,5
4WQO_D-4WQO_A,6,2,3,2,1,1,2,7,2,3,1,1
4GIZ_C-4GIZ_B,5,4,2,0,6,2,1,8,2,4,2,2
1DCE_B-1DCE_A,0,10,1,3,8,0,0,11,0,6,0,1
4HH3_A-4HH3_C,0,11,0,2,7,1,1,8,2,3,3,0
4OMF_G-4OMF_A,6,5,0,8,7,2,5,5,1,3,0,7
3DGP_A-3DGP_B,2,0,9,3,5,13,2,0,9,2,3,5
2WDQ_E-2WDQ_F,6,3,2,3,7,3,4,0,7,3,0,6
3AB0_D-3AB0_E,1,0,10,3,3,7,4,0,7,2,0,4
4IFD_A-4IFD_G,4,7,0,5,4,8,0,10,1,4,2,0
1FS0_G-1FS0_E,6,0,5,3,0,10,4,7,0,1,6,0
4PK7_B-4PK7_A,7,1,3,1,14,10,0,10,1,5,0,1
4ODB_B-4ODB_E,4,7,0,0,1,11,0,4,7,4,1,0
2H1L_Q-2H1L_E,1,4,6,1,9,2,2,9,0,5,0,1
5B2G_A-5B2G_F,0,9,2,1,0,9,2,0,9,0,7,0
1RLB_E-1RLB_B,2,2,7,3,3,1,4,6,1,2,3,1
5L6W_C-5L6W_L,1,10,0,3,8,4,7,3,1,3,2,3
1H59_A-1H59_B,4,7,0,0,6,2,1,8,2,3,4,0
3IOZ_A-3IOZ_B,0,11,0,1,5,0,2,9,0,2,4,1
2Y69_P-2Y69_S,5,4,2,4,4,1,5,5,1,8,0,1
2PMZ_B-2PMZ_P,4,2,5,6,0,1,9,0,2,0,7,1
1S64_F-1S64_E,1,9,1,5,6,3,5,0,6,4,6,0
5N9J_E-5N9J_C,1,10,0,5,0,1,6,4,1,7,2,0
3CQC_B-3CQC_A,0,10,1,1,12,1,0,11,0,1,6,0
5T5I_J-5T5I_K,3,5,3,4,5,2,4,2,5,2,0,5
5UQ2_A-5UQ2_B,6,0,5,8,5,1,2,8,1,1,0,7
3CUE_L-3CUE_G,6,0,5,4,4,4,0,11,0,4,0,2
2YIN_D-2YIN_B,7,0,4,6,13,8,4,5,2,3,0,5
4F8C_B-4F8C_A,4,7,0,5,9,7,3,7,1,3,1,5
3EUJ_B-3EUJ_A,5,5,1,2,3,11,5,0,6,2,7,0
3ZIA_M-3ZIA_T,4,7,0,0,9,0,0,11,0,0,2,5
2PSM_C-2PSM_B,4,2,5,2,9,1,6,3,2,2,2,1
1YA5_B-1YA5_T,3,0,8,3,2,12,0,2,9,6,0,4
5JDO_E-5JDO_A,3,7,1,0,11,0,0,11,0,2,5,0
2FYU_C-2FYU_E,7,0,4,4,3,2,7,3,1,0,6,1
4LRT_A-4LRT_B,1,9,1,2,6,3,2,0,9,2,0,6
1OR7_F-1OR7_B,3,3,5,2,20,2,0,11,0,2,6,0
5F5P_E-5F5P_G,0,11,0,0,11,0,0,11,0,0,6,0
4GAM_I-4GAM_M,2,7,2,0,7,0,3,8,0,2,3,2
1GHQ_B-1GHQ_A,3,1,7,0,9,1,0,11,0,4,0,1
3U60_C-3U60_G,2,8,1,7,3,6,1,2,8,3,0,3
4CXF_A-4CXF_B,0,11,0,3,8,0,1,10,0,1,7,0
3VR4_G-3VR4_H,8,2,1,2,6,7,0,11,0,3,5,0
2ZON_A-2ZON_G,1,7,3,3,8,0,0,11,0,2,3,3
1GH6_B-1GH6_A,0,11,0,5,2,0,8,3,0,2,6,0
3S9D_A-3S9D_B,4,6,1,3,0,8,4,0,7,0,6,0
2F9I_B-2F9I_A,1,10,0,5,12,4,0,11,0,2,2,4
3A5Z_C-3A5Z_D,1,10,0,1,0,7,5,2,4,5,2,3
2ZXE_A-2ZXE_G,0,10,1,0,11,0,0,11,0,5,3,0
3NY7_B-3NY7_A,1,10,0,1,5,1,2,9,0,1,5,0
3BES_L-3BES_R,3,4,4,3,2,7,2,2,7,0,6,0
4KT6_C-4KT6_D,1,10,0,0,11,2,6,3,2,1,7,0
4FQ3_B-4FQ3_A,6,5,0,0,26,1,0,11,0,4,2,0
3DOE_A-3DOE_B,2,9,0,2,14,0,1,6,4,0,7,0
4FXW_B-4FXW_A,9,0,2,3,8,5,3,2,6,9,0,1
3CH5_A-3CH5_B,0,4,7,3,4,0,4,3,4,2,0,5
4AF3_A-4AF3_D,2,3,6,1,7,0,7,3,1,4,2,2
5VOB_B-5VOB_A,8,1,2,4,11,3,3,7,1,7,0,3
5J9T_F-5J9T_H,1,10,0,0,10,0,0,11,0,1,5,0
4OMF_G-4OMF_B,6,5,0,9,16,0,4,6,1,3,0,7
3U52_A-3U52_E,8,0,3,2,3,7,2,2,7,4,6,0
1EEX_L-1EEX_E,8,0,3,0,6,0,2,9,0,3,7,0
1K8K_A-1K8K_E,1,10,0,1,5,0,2,8,1,4,0,3
5EE5_B-5EE5_A,8,0,3,3,11,1,3,7,1,1,1,3
5JW7_B-5JW7_A,7,3,1,4,9,8,4,4,3,5,2,1
1Q90_R-1Q90_A,3,8,0,0,9,0,0,11,0,4,2,0
2R6A_B-2R6A_C,2,7,2,5,10,0,4,7,0,5,3,0
3VHL_B-3VHL_A,6,2,3,9,12,11,4,4,3,3,0,6
1RP3_F-1RP3_E,2,9,0,0,13,1,0,11,0,2,5,0
1FOE_B-1FOE_A,6,0,5,2,17,0,2,8,1,2,0,6
5T48_A-5T48_B,5,0,6,5,3,1,4,6,1,5,0,3
3R84_V-3R84_U,3,7,1,1,9,2,0,11,0,1,6,0
2ZP8_B-2ZP8_G,2,0,9,2,8,3,1,4,6,2,0,4
2PQN_B-2PQN_A,1,10,0,3,13,2,1,10,0,2,4,0
4WPX_A-4WPX_B,1,10,0,0,7,0,0,11,0,6,1,1
3LK2_A-3LK2_T,0,11,0,5,0,1,8,0,3,2,7,0
2EHB_D-2EHB_A,2,9,0,2,23,0,2,9,0,3,3,1
5J9T_E-5J9T_G,5,1,5,11,7,3,6,4,1,3,3,3
4U7U_A-4U7U_K,2,6,3,4,2,12,5,0,6,2,2,3
4UB8_l-4UB8_m,6,5,0,0,6,1,0,11,0,5,1,0
5MU7_B-5MU7_A,1,9,1,2,10,0,1,8,2,0,1,6
3V89_B-3V89_A,3,3,5,6,3,14,3,8,0,5,0,5
1H2S_B-1H2S_A,1,10,0,0,11,0,2,8,1,1,6,0
2J3T_A-2J3T_C,0,11,0,2,10,0,2,2,7,0,4,0
1YC0_A-1YC0_I,5,4,2,4,0,4,5,0,6,6,0,2
4C0H_B-4C0H_D,3,2,6,7,0,3,8,2,1,3,0,7
4ZRP_C-4ZRP_A,2,5,4,4,6,0,1,10,0,3,1,3
4UB8_B-4UB8_H,3,7,1,5,7,2,3,5,3,3,7,0
5N9J_E-5N9J_B,1,10,0,0,14,1,0,11,0,5,2,0
5HZK_D-5HZK_A,2,7,2,1,5,6,1,8,2,1,5,0
5FUG_K-5FUG_L,3,7,1,7,2,2,8,0,3,3,6,0
4UB8_T-4UB8_L,0,11,0,0,8,0,0,11,0,0,6,0
1I4D_D-1I4D_A,5,3,3,0,9,0,0,11,0,2,0,5
4U7U_A-4U7U_B,0,10,1,0,12,0,0,11,0,0,1,4
4BSZ_A-4BSZ_B,1,10,0,2,12,0,6,4,1,2,4,0
4JJN_E-4JJN_L,2,7,2,0,2,4,0,0,11,0,3,0
3F62_B-3F62_A,2,0,9,2,1,13,0,2,9,1,0,7
3VU9_B-3VU9_A,3,8,0,2,6,3,2,8,1,1,1,6
2NUD_A-2NUD_C,1,3,7,5,0,7,4,1,6,7,0,3
5LPU_B-5LPU_D,0,11,0,3,14,2,1,10,0,0,7,0
5LSJ_B-5LSJ_D,0,11,0,0,7,0,4,7,0,1,3,0
2HYI_I-2HYI_G,3,5,3,2,7,6,5,3,3,6,0,1
1I7W_D-1I7W_C,10,0,1,0,26,2,0,11,0,1,4,0
4DGW_B-4DGW_C,8,2,1,12,0,11,5,0,6,4,5,0
1GVN_D-1GVN_C,2,9,0,0,10,0,0,11,0,4,4,0
4NTW_C-4NTW_A,8,3,0,1,11,0,0,11,0,1,6,0
5O32_J-5O32_F,4,6,1,3,0,5,7,0,4,3,1,3
4XXB_A-4XXB_B,2,5,4,3,4,1,3,3,5,3,0,6
1NBW_B-1NBW_A,4,7,0,2,2,1,4,5,2,2,1,2
4G2V_B-4G2V_A,10,0,1,0,35,0,0,11,0,6,0,0
5C46_F-5C46_E,5,6,0,3,6,0,1,10,0,3,0,5
5NT7_D-5NT7_C,0,11,0,0,14,0,2,8,1,3,1,3
4ZJB_G-4ZJB_B,1,10,0,0,0,8,0,2,9,0,5,0
3BK3_A-3BK3_C,1,0,10,4,1,8,1,7,3,2,0,4
4UB8_B-4UB8_U,2,6,3,3,7,0,4,7,0,0,4,0
3ME0_A-3ME0_B,0,0,11,7,0,22,5,0,6,2,0,7
4UQI_S-4UQI_A,4,3,4,0,21,2,0,11,0,0,1,5
5HY3_A-5HY3_B,6,3,2,3,7,6,2,1,8,3,0,7
4OJK_C-4OJK_A,0,11,0,1,7,2,0,10,1,1,6,0
4HEA_H-4HEA_4,4,7,0,2,8,5,1,7,3,5,2,1
3G9V_C-3G9V_D,4,4,3,1,7,1,5,3,3,3,0,4
4F0Z_C-4F0Z_B,8,2,1,1,8,1,1,9,1,8,0,0
5FU7_A-5FU7_B,0,11,0,5,4,5,5,3,3,5,3,2
5LG4_A-5LG4_B,0,11,0,2,8,0,2,8,1,2,4,0
4TQ1_A-4TQ1_B,3,5,3,0,8,0,2,5,4,0,7,0
4HEA_Q-4HEA_O,4,5,2,5,4,1,4,6,1,6,2,0
5KTB_C-5KTB_B,5,5,1,4,0,18,0,4,7,4,1,1
5B5W_U-5B5W_A,0,11,0,3,10,1,2,9,0,1,6,0
4DCK_C-4DCK_A,0,3,8,3,6,4,3,4,4,2,0,8
3OJY_A-3OJY_C,1,4,6,8,3,15,5,0,6,5,0,2
4XGC_B-4XGC_C,5,6,0,0,10,1,0,11,0,1,7,0
2Y69_N-2Y69_P,0,11,0,0,13,0,7,3,1,4,5,1
5IBW_C-5IBW_A,0,11,0,2,16,5,3,6,2,1,6,0
2CG5_B-2CG5_A,0,11,0,0,8,2,1,8,2,1,3,0
5B2G_C-5B2G_D,0,10,1,0,0,0,0,2,9,3,4,1
4M5D_A-4M5D_B,0,11,0,9,3,3,2,7,2,1,8,0
3A1J_B-3A1J_A,4,0,7,6,4,2,6,3,2,5,1,4
3W1S_A-3W1S_C,0,11,0,4,4,2,3,5,3,2,7,0
3W5U_H-3W5U_E,3,1,7,6,3,10,4,2,5,0,1,3
1J2J_A-1J2J_B,1,10,0,2,7,0,0,11,0,0,0,5
5FU7_C-5FU7_D,0,1,10,3,0,4,3,4,4,2,4,1
2NV2_L-2NV2_K,2,3,6,5,6,7,0,11,0,3,0,4
3MN5_A-3MN5_S,1,10,0,3,6,0,6,4,1,4,0,4
3D31_A-3D31_C,2,6,3,2,7,0,0,11,0,0,0,8
4I98_A-4I98_C,8,3,0,6,13,8,4,6,1,3,4,2
1KXP_A-1KXP_D,1,9,1,4,8,3,0,11,0,4,0,4
4D18_F-4D18_B,0,11,0,1,6,0,2,9,0,3,0,3
2YPA_C-2YPA_D,2,2,7,4,0,5,4,0,7,6,3,1
4KYT_A-4KYT_B,0,11,0,0,7,0,0,11,0,2,7,0
3K7V_C-3K7V_A,3,7,1,0,9,1,1,8,2,0,5,0
4HX3_H-4HX3_G,0,0,11,3,9,3,4,6,1,2,0,5
3P8C_D-3P8C_F,0,11,0,0,19,0,0,11,0,3,4,0
2WZP_H-2WZP_P,4,2,5,6,3,5,4,3,4,3,1,2
2QCS_B-2QCS_A,9,0,2,7,10,6,4,2,5,6,0,3
1OW3_B-1OW3_A,0,10,1,2,15,0,3,7,1,1,0,6
4HEA_5-4HEA_9,4,0,7,2,2,8,3,3,5,0,5,0
3WKR_A-3WKR_C,5,3,3,0,5,0,0,11,0,4,3,1
5UNI_B-5UNI_A,0,11,0,1,18,0,0,11,0,1,9,0
4JOI_B-4JOI_C,0,10,1,3,9,1,8,1,2,5,0,3
4HEA_6-4HEA_W,2,6,3,1,3,6,2,6,3,4,4,1
3INB_D-3INB_A,4,0,7,5,4,8,0,2,9,5,0,2
4CI6_A-4CI6_B,4,6,1,4,9,11,2,5,4,3,0,6
5T5I_F-5T5I_B,7,2,2,1,3,3,3,6,2,1,2,3
5T5I_C-5T5I_A,6,4,1,3,4,0,1,10,0,1,0,4
1BOU_B-1BOU_A,4,4,3,6,15,4,1,8,2,2,0,6
5B83_D-5B83_F,4,0,7,0,9,0,0,11,0,1,0,7
5MB9_A-5MB9_D,1,5,5,5,6,4,5,1,5,4,0,6
2HYI_C-2HYI_D,1,9,1,4,4,0,9,1,1,8,0,2
4WMA_D-4WMA_A,3,1,7,2,7,3,0,10,1,2,0,3
3OLM_A-3OLM_D,1,4,6,2,2,4,4,1,6,5,2,0
5IBK_C-5IBK_A,4,1,6,0,7,2,2,4,5,3,0,2
3IHQ_B-3IHQ_A,2,6,3,0,10,2,1,8,2,1,6,1
1GZS_A-1GZS_B,7,0,4,1,16,4,1,9,1,1,0,6
2WTK_E-2WTK_D,0,0,11,2,4,2,1,8,2,4,0,2
2PNR_G-2PNR_E,2,0,9,7,0,3,7,0,4,4,2,2
2UZX_B-2UZX_A,1,4,6,1,1,10,3,2,6,1,0,3
2RDD_A-2RDD_B,0,11,0,0,8,0,0,11,0,1,6,0
4HEA_A-4HEA_6,3,3,5,0,9,2,1,7,3,3,4,1
3V11_A-3V11_C,3,6,2,2,6,0,0,11,0,5,0,3
3MHS_A-3MHS_C,0,2,9,7,2,2,0,10,1,4,4,0
3ULY_A-3ULY_B,2,9,0,2,1,2,4,2,5,6,0,0
4NQW_A-4NQW_B,0,11,0,4,5,0,1,10,0,2,8,0
4Z42_C-4Z42_B,2,7,2,6,0,6,6,0,5,2,5,2
2OM2_A-2OM2_B,0,11,0,3,2,4,6,0,5,3,0,7
1K8K_D-1K8K_F,0,11,0,0,13,0,0,11,0,5,2,3
3K6G_E-3K6G_B,4,6,1,0,16,1,0,11,0,3,5,1
4A8J_D-4A8J_E,7,3,1,4,6,1,4,6,1,3,2,2
2WP0_D-2WP0_B,0,7,4,4,6,0,7,2,2,0,4,0
5IFS_B-5IFS_A,3,6,2,2,5,7,2,8,1,2,2,5
5X5Y_B-5X5Y_F,4,2,5,0,7,0,0,11,0,1,0,7
2OXG_Z-2OXG_Y,2,2,7,5,1,17,1,2,8,4,2,3
2Y69_N-2Y69_Y,0,11,0,0,10,0,3,3,5,4,4,0
4Q35_A-4Q35_B,7,1,3,1,8,4,2,2,7,2,8,0
5N9J_R-5N9J_G,1,10,0,3,4,0,6,4,1,4,3,0
3IMA_A-3IMA_B,4,5,2,0,3,6,0,0,11,1,4,3
4D18_F-4D18_A,0,11,0,0,7,0,0,11,0,2,0,2
4KFZ_A-4KFZ_C,4,3,4,2,0,9,1,2,8,7,2,0
4IAO_A-4IAO_C,0,8,3,4,8,6,2,8,1,5,3,0
3OTP_I-3OTP_C,5,2,4,6,11,13,2,4,5,4,2,3
4CJ2_A-4CJ2_D,1,10,0,0,1,9,1,0,10,2,5,0
5LB7_B-5LB7_A,0,11,0,0,11,0,2,9,0,2,6,0
2PF4_H-2PF4_D,3,5,3,1,2,2,1,8,2,1,4,1
1KA9_H-1KA9_F,1,0,10,6,2,6,3,6,2,2,0,5
4A8X_A-4A8X_B,1,8,2,3,1,3,5,0,6,3,0,5
4V3K_D-4V3K_F,4,7,0,1,6,1,2,4,5,0,5,0
3WYF_A-3WYF_B,10,1,0,7,0,12,10,0,1,2,0,8
4LQS_A-4LQS_B,0,10,1,2,10,0,3,6,2,2,5,0
5WUR_A-5WUR_C,0,11,0,5,4,0,6,5,0,1,9,0
3KSE_D-3KSE_A,0,0,11,6,3,8,5,3,3,4,2,2
2Y69_M-2Y69_L,0,11,0,0,10,0,0,11,0,5,0,1
5NXB_B-5NXB_C,6,0,5,0,9,0,0,11,0,3,2,3
4QAM_B-4QAM_A,7,1,3,3,4,8,6,0,5,5,0,2
3KQ4_B-3KQ4_A,5,2,4,5,5,0,2,9,0,3,0,3
4FAO_b-4FAO_d,6,3,2,5,1,7,2,2,7,0,0,6
1ES7_A-1ES7_B,5,5,1,3,5,10,1,7,3,3,0,4
4JGH_D-4JGH_C,1,10,0,1,7,4,0,10,1,2,4,0
4PKF_A-4PKF_C,0,11,0,1,2,7,1,0,10,1,2,7
4XGC_B-4XGC_E,2,7,2,0,11,1,1,10,0,0,8,0
4XGC_A-4XGC_D,1,9,1,6,5,2,2,9,0,0,5,0
1CI6_A-1CI6_B,0,11,0,0,8,0,0,11,0,1,5,0
3TVT_A-3TVT_B,0,2,9,2,3,3,4,4,3,4,0,5
2Q2E_B-2Q2E_A,1,9,1,1,15,1,3,7,1,3,2,2
4NEE_C-4NEE_D,2,4,5,1,10,5,1,8,2,4,1,1
1PRT_G-1PRT_L,3,4,4,1,6,0,5,2,4,0,0,6
5H07_A-5H07_D,4,0,7,0,9,0,0,11,0,0,1,5
4QAF_A-4QAF_D,2,0,9,0,1,11,0,3,8,5,0,3
3IAX_B-3IAX_A,5,2,4,9,0,17,5,0,6,0,2,1
3EGG_A-3EGG_C,2,0,9,5,2,11,3,2,6,1,8,0
5FIR_C-5FIR_D,4,5,2,5,9,1,4,5,2,1,7,0
4WWX_E-4WWX_Y,5,2,4,8,8,9,4,5,2,1,8,0
3KXE_C-3KXE_A,1,7,3,0,6,9,1,6,4,7,3,0
4WZA_H-4WZA_D,0,10,1,1,8,0,2,9,0,2,0,7
2VSO_A-2VSO_E,3,6,2,4,9,1,2,7,2,8,0,0
4BRW_A-4BRW_B,0,11,0,6,4,3,5,3,3,5,3,1
4I6J_A-4I6J_B,7,2,2,2,3,8,9,0,2,2,0,4
2DOQ_D-2DOQ_B,0,11,0,2,19,0,2,8,1,1,4,1
4QIW_J-4QIW_Q,6,4,1,1,2,2,3,3,5,1,3,0
2CLY_D-2CLY_E,0,11,0,5,16,1,3,7,1,1,6,0
1LRW_A-1LRW_B,3,4,4,2,9,0,3,8,0,1,7,1
3QVG_B-3QVG_A,11,0,0,1,9,1,1,10,0,6,0,0
4S0H_B-4S0H_E,1,10,0,4,2,0,7,0,4,0,4,0
1K8K_C-1K8K_G,5,0,6,4,2,1,3,7,1,3,0,4
2Y69_B-2Y69_I,0,11,0,0,8,0,4,5,2,5,0,1
1NH2_A-1NH2_C,0,7,4,4,0,1,5,0,6,4,0,0
3KFU_B-3KFU_I,2,9,0,0,2,4,0,2,9,1,4,0
4HUQ_A-4HUQ_T,3,4,4,0,13,0,0,10,1,0,0,8
4XPM_B-4XPM_A,0,2,9,1,8,2,5,3,3,2,0,4
1KQF_A-1KQF_B,2,6,3,9,4,2,5,6,0,5,3,1
5N6Y_A-5N6Y_C,1,10,0,4,6,1,0,11,0,2,4,1
4JGH_A-4JGH_C,3,7,1,5,12,0,0,10,1,2,6,0
4M6B_A-4M6B_C,0,10,1,7,3,1,5,6,0,4,4,0
3G5O_D-3G5O_C,0,11,0,3,3,8,0,8,3,1,2,5
1GNG_A-1GNG_X,0,10,1,0,12,0,1,10,0,2,0,7
4G4S_P-4G4S_O,6,2,3,7,11,3,7,2,2,4,0,5
1IAR_A-1IAR_B,1,9,1,1,6,0,6,2,3,0,5,0
2WJV_E-2WJV_B,2,1,8,0,6,10,0,3,8,4,3,2
3KMU_B-3KMU_A,4,7,0,8,7,1,4,6,1,0,5,1
5ABV_F-5ABV_E,2,7,2,2,8,3,0,10,1,5,4,0
3W1S_A-3W1S_B,1,4,6,1,10,0,0,11,0,2,7,0
1FXK_A-1FXK_C,0,2,9,3,5,6,2,3,6,1,6,0
2QKL_B-2QKL_A,1,10,0,0,7,7,1,10,0,3,4,0
2GWW_A-2GWW_B,0,11,0,0,9,0,0,11,0,6,3,1
4D18_E-4D18_H,0,11,0,0,6,0,1,10,0,1,4,0
4G91_B-4G91_A,0,11,0,0,6,0,0,11,0,2,3,1
2P22_C-2P22_D,4,5,2,3,3,3,3,5,3,0,7,0
2VPZ_A-2VPZ_B,3,8,0,3,8,1,5,6,0,2,3,3
3WHL_C-3WHL_D,0,11,0,0,7,0,0,11,0,4,1,2
4NTW_B-4NTW_C,6,4,1,4,2,1,6,2,3,1,3,1
4JQU_A-4JQU_B,0,11,0,1,10,0,0,11,0,1,5,0
4JMF_A-4JMF_B,3,5,3,3,9,6,1,2,8,7,2,0
2XPP_A-2XPP_B,1,10,0,1,5,1,1,9,1,0,7,0
5N9J_S-5N9J_W,0,11,0,0,9,0,11,0,0,4,0,3
4P1B_I-4P1B_A,3,4,4,0,9,1,0,11,0,1,2,4
4V3K_B-4V3K_C,1,2,8,3,4,2,4,4,3,1,2,1
3LK2_B-3LK2_A,1,9,1,4,9,5,1,2,8,1,8,0
1YKH_A-1YKH_B,0,11,0,1,12,1,2,9,0,1,6,0
1K8K_C-1K8K_F,4,0,7,3,4,0,6,2,3,4,0,4
1H3O_B-1H3O_A,3,6,2,3,8,2,0,11,0,4,5,0
4GIZ_D-4GIZ_B,0,10,1,0,7,0,1,10,0,4,2,1
3L2O_B-3L2O_A,1,10,0,9,10,1,5,6,0,3,4,1
2Y69_E-2Y69_D,0,11,0,3,10,2,2,7,2,1,6,0
5KBX_B-5KBX_A,1,10,0,0,12,1,0,11,0,4,0,3
3B0D_C-3B0D_B,0,11,0,0,22,2,3,6,2,5,4,0
1NH2_D-1NH2_C,0,0,11,2,0,14,0,0,11,4,5,1
2I3T_C-2I3T_D,3,6,2,1,7,2,2,4,5,3,0,6
2PBD_P-2PBD_V,2,8,1,6,0,0,11,0,0,2,6,1
1P9M_A-1P9M_C,4,0,7,1,0,8,3,0,8,0,0,4
2Z0D_B-2Z0D_A,5,0,6,3,8,10,3,1,7,2,5,0
2PU9_B-2PU9_A,4,2,5,3,9,2,2,9,0,3,1,2
3R45_A-3R45_C,3,6,2,2,4,5,1,5,5,3,4,1
2O8G_A-2O8G_I,2,2,7,5,2,2,7,1,3,3,7,0
4LX3_A-4LX3_B,0,2,9,2,0,12,1,1,9,4,2,4
5J9T_B-5J9T_C,0,11,0,3,8,0,0,11,0,0,6,0
2FYU_A-2FYU_G,2,2,7,3,2,8,2,1,8,3,6,1
4HUQ_T-4HUQ_S,0,11,0,0,14,0,0,11,0,7,0,3
1G8K_B-1G8K_A,3,0,8,9,12,3,7,3,1,7,0,2
3TX7_B-3TX7_A,2,9,0,0,12,0,1,10,0,1,4,0
5JA4_D-5JA4_B,4,5,2,6,0,0,10,1,0,8,2,0
3U6X_D-3U6X_Y,4,7,0,4,6,8,3,2,6,4,2,0
4WJ3_P-4WJ3_A,2,9,0,2,3,7,1,6,4,3,3,0
5LSJ_A-5LSJ_D,0,11,0,3,4,0,4,7,0,4,3,0
1OGY_O-1OGY_P,1,7,3,8,1,5,1,8,2,1,0,8
4U7U_E-4U7U_B,4,0,7,2,4,0,2,9,0,2,0,2
1L1O_C-1L1O_B,2,0,9,2,5,4,0,11,0,4,3,1
1X3Z_B-1X3Z_A,0,11,0,0,11,0,2,8,1,5,3,0
5X3T_C-5X3T_D,7,2,2,2,18,2,1,9,1,8,2,0
4P5O_K-4P5O_B,2,0,9,4,1,2,8,2,1,1,0,6
1XDT_R-1XDT_T,3,4,4,2,0,19,0,2,9,2,6,0
3Q33_B-3Q33_A,3,5,3,7,6,4,4,5,2,1,6,0
1Y96_A-1Y96_B,3,3,5,1,10,0,2,3,6,3,5,1
4W4L_B-4W4L_C,0,10,1,3,10,11,8,3,0,2,5,0
3MHS_A-3MHS_E,1,8,2,3,8,1,3,2,6,5,5,0
3PNL_A-3PNL_B,4,4,3,3,11,1,3,6,2,3,3,2
3N9U_C-3N9U_B,5,5,1,1,2,2,4,2,5,4,1,2
4H3H_B-4H3H_A,6,0,5,0,13,0,1,10,0,1,0,6
5LDD_C-5LDD_A,1,6,4,0,13,0,0,11,0,2,0,7
3LCB_C-3LCB_B,2,9,0,2,10,2,2,5,4,6,0,2
3DDC_A-3DDC_B,3,0,8,0,2,9,0,0,11,2,0,8
5T5I_B-5T5I_G,2,5,4,8,2,4,6,5,0,3,0,6
2A40_D-2A40_F,1,10,0,3,6,0,7,3,1,3,0,5
3FIE_C-3FIE_A,6,0,5,6,3,12,3,2,6,5,0,2
2JF1_A-2JF1_T,1,0,10,1,0,9,2,0,9,2,4,4
1K8K_A-1K8K_D,4,7,0,4,9,4,0,11,0,2,0,5
2A1J_A-2A1J_B,1,8,2,1,6,3,1,7,3,0,7,0
4DL0_E-4DL0_G,0,11,0,0,11,0,0,10,1,4,2,1
1A0R_B-1A0R_P,3,3,5,2,5,7,2,6,3,2,8,0
4LL1_B-4LL1_A,2,4,5,2,0,5,3,2,6,4,2,3
2Y69_O-2Y69_U,3,2,6,2,4,4,1,9,1,5,1,1
2QTV_B-2QTV_A,8,0,3,10,12,1,4,7,0,0,1,5
4M1U_A-4M1U_E,4,6,1,0,6,0,0,11,0,0,1,4
2FHZ_A-2FHZ_B,3,3,5,6,6,11,1,6,4,6,1,2
3DIN_A-3DIN_E,0,10,1,1,0,4,7,2,2,0,6,0
2QKH_A-2QKH_B,1,9,1,0,6,0,0,11,0,2,4,1
3ISM_A-3ISM_C,0,11,0,2,5,0,3,7,1,3,5,0
4P6V_B-4P6V_A,9,0,2,5,12,11,2,6,3,5,0,1
1OFH_A-1OFH_G,6,2,3,1,6,2,0,10,1,2,3,0
5FVD_B-5FVD_A,5,4,2,0,20,0,2,9,0,4,3,1
5UK4_N-5UK4_n,4,4,3,4,4,1,4,2,5,0,4,0
2WDQ_C-2WDQ_B,6,3,2,5,6,11,5,6,0,4,2,1
3OAK_A-3OAK_D,1,8,2,1,8,1,1,9,1,3,4,0
3K8P_D-3K8P_C,1,8,2,1,9,0,2,9,0,1,4,0
1R6O_B-1R6O_D,1,8,2,5,7,0,0,7,4,1,6,0
4E6K_D-4E6K_H,8,0,3,1,4,2,1,5,5,2,2,0
5T5I_B-5T5I_D,1,9,1,4,10,3,4,2,5,3,0,7
2PT7_D-2PT7_H,0,11,0,0,12,0,0,11,0,0,7,0
4OR5_B-4OR5_E,4,5,2,8,7,4,7,0,4,4,6,0
4MQW_Z-4MQW_H,4,2,5,3,0,2,6,3,2,2,0,4
4KT5_C-4KT5_A,1,10,0,4,2,6,1,2,8,2,4,0
1T0P_A-1T0P_B,2,3,6,1,0,5,1,0,10,2,0,5
5BWA_A-5BWA_B,7,0,4,1,11,2,0,11,0,3,7,0
5AWW_Y-5AWW_G,0,11,0,0,13,0,3,7,1,1,7,0
4QTT_C-4QTT_D,4,2,5,3,3,5,3,3,5,2,5,1
2P22_B-2P22_A,5,4,2,1,10,3,0,11,0,2,2,3
3HMX_B-3HMX_A,3,7,1,4,1,4,5,0,6,2,6,0
5LDA_B-5LDA_A,5,0,6,6,3,6,6,4,1,2,2,2
4YK8_A-4YK8_B,4,3,4,1,9,3,0,10,1,3,0,4
4XDN_A-4XDN_B,2,6,3,6,3,4,6,4,1,2,5,3
4H1W_A-4H1W_B,0,8,3,0,5,0,0,11,0,2,6,0
2ZXE_B-2ZXE_A,4,3,4,2,9,2,2,6,3,2,7,1
2Y9Y_A-2Y9Y_B,2,7,2,6,17,2,5,2,4,9,0,0
4OO1_J-4OO1_C,3,2,6,6,4,6,5,0,6,4,4,1
3TUJ_C-3TUJ_A,6,2,3,2,9,0,5,6,0,1,0,7
3BG4_C-3BG4_D,0,2,9,1,0,8,4,1,6,7,0,2
1YAR_C-1YAR_S,0,3,8,1,1,1,6,2,3,1,1,1
3L75_E-3L75_D,0,11,0,0,8,0,0,11,0,4,2,0
1R5I_A-1R5I_D,0,11,0,3,9,0,0,11,0,6,0,0
3PHF_4-3PHF_3,0,11,0,6,10,5,2,9,0,10,0,0
5FU7_C-5FU7_B,6,2,3,6,14,2,5,4,2,2,6,1
5VOB_B-5VOB_D,0,0,11,6,3,5,8,2,1,6,0,3
4UQI_M-4UQI_A,0,3,8,0,9,1,1,8,2,1,1,2
3U1J_E-3U1J_B,5,0,6,5,9,13,0,2,9,4,3,0
5FQ8_D-5FQ8_E,5,5,1,8,3,6,4,2,5,3,0,4
4DH2_B-4DH2_A,0,10,1,3,1,8,2,2,7,2,2,2
2QWO_A-2QWO_B,4,3,4,1,9,0,1,10,0,0,0,4
4XPN_A-4XPN_B,3,1,7,8,0,5,5,0,6,4,5,0
4WYB_C-4WYB_D,2,2,7,1,8,0,2,9,0,5,0,4
4Z42_F-4Z42_A,0,11,0,4,3,4,3,7,1,4,5,0
1DOW_B-1DOW_A,2,9,0,3,15,0,0,11,0,2,5,0
3F1S_B-3F1S_A,0,8,3,1,6,1,1,9,1,5,0,3
4H44_G-4H44_F,0,11,0,2,9,0,0,11,0,3,5,0
4HI8_B-4HI8_A,3,5,3,3,5,0,4,6,1,1,1,2
5LXT_A-5LXT_E,2,2,7,3,0,7,3,0,8,3,1,6
2FYU_C-2FYU_G,0,11,0,0,8,0,0,11,0,1,5,1
2AUH_B-2AUH_A,5,0,6,6,5,6,3,3,5,5,0,5
1DS6_A-1DS6_B,1,10,0,6,6,6,1,10,0,1,0,7
1WUI_L-1WUI_S,3,8,0,7,8,8,3,7,1,4,0,6
4DGL_C-4DGL_B,2,3,6,1,5,4,1,6,4,7,0,2
3MXN_A-3MXN_B,3,8,0,1,7,0,2,9,0,4,4,0
3VUX_B-3VUX_E,4,1,6,1,7,1,6,2,3,1,2,1
4KBB_D-4KBB_B,1,10,0,2,2,9,4,1,6,1,6,0
2NPS_C-2NPS_D,0,11,0,0,8,0,2,9,0,1,5,0
1QGK_B-1QGK_A,3,7,1,1,18,0,3,8,0,1,3,1
4UI1_A-4UI1_D,5,2,4,0,12,0,1,10,0,1,0,4
2EQB_A-2EQB_B,5,2,4,0,8,0,0,11,0,1,0,5
5DMB_D-5DMB_A,1,10,0,4,2,13,2,3,6,5,0,1
2PMZ_Q-2PMZ_W,0,10,1,0,10,1,1,10,0,7,0,0
1JB0_D-1JB0_C,5,1,5,2,4,12,4,2,5,7,0,2
3KFD_K-3KFD_G,3,7,1,4,0,3,8,0,3,3,0,4
2D1K_A-2D1K_C,2,1,8,7,0,3,8,0,3,5,0,5
4OWR_A-4OWR_C,4,0,7,4,1,5,9,2,0,4,1,3
4ETP_A-4ETP_B,0,11,0,0,8,0,0,11,0,0,6,0
3TU5_A-3TU5_B,0,10,1,6,9,2,0,11,0,4,0,5
5WXM_B-5WXM_V,1,9,1,0,8,0,0,11,0,5,3,0
1H9D_C-1H9D_D,2,0,9,4,4,11,1,4,6,7,0,3
5JAA_D-5JAA_A,2,4,5,3,6,4,1,10,0,2,3,4
4BJJ_A-4BJJ_B,3,2,6,4,3,10,4,0,7,4,0,6
4HZU_T-4HZU_S,0,11,0,0,15,0,0,11,0,4,5,1
5JPO_A-5JPO_E,0,11,0,2,4,0,3,8,0,4,0,3
2FDB_M-2FDB_P,4,0,7,4,0,11,3,0,8,0,9,0
4JCV_C-4JCV_E,0,10,1,1,6,2,0,10,1,1,5,1
2CLY_C-2CLY_B,9,1,1,3,4,1,10,1,0,0,4,0
3WO4_A-3WO4_C,1,2,8,2,3,3,2,3,6,0,0,3
4KP3_B-4KP3_F,1,7,3,7,1,2,7,2,2,5,1,3
3L75_R-3L75_T,6,4,1,5,2,1,6,3,2,5,2,0
5CSF_B-5CSF_C,3,7,1,3,0,1,9,0,2,3,5,0
5VXZ_D-5VXZ_B,2,0,9,3,6,11,1,0,10,6,0,3
2Y69_Q-2Y69_X,0,11,0,7,0,0,8,3,0,4,4,2
3T12_A-3T12_C,0,11,0,0,6,0,0,11,0,0,0,5
1F3U_E-1F3U_F,0,2,9,1,2,13,0,1,10,3,4,3
4NUT_A-4NUT_B,2,8,1,0,5,0,1,10,0,3,2,3
5LSB_A-5LSB_B,1,9,1,7,8,0,2,9,0,3,0,3
4Z2M_I-4Z2M_B,0,11,0,2,0,7,2,0,9,0,4,0
5LSK_N-5LSK_P,0,11,0,2,0,2,8,0,3,2,0,3
4CCN_D-4CCN_B,1,0,0,0,0,0,3,0,8,4,0,2
5F4E_B-5F4E_A,4,6,1,2,1,9,0,4,7,3,2,2
1QS0_A-1QS0_B,5,3,3,1,8,5,3,8,0,9,0,0
2Y3A_B-2Y3A_A,0,11,0,1,0,12,3,2,6,3,3,1
1WWW_V-1WWW_Y,4,5,2,3,0,10,3,0,8,2,5,0
4R10_B-4R10_A,5,1,5,0,21,4,0,8,3,2,1,2
2NQ2_C-2NQ2_A,4,4,3,3,6,1,1,9,1,1,0,8
5D6H_A-5D6H_B,3,0,8,8,0,13,3,0,8,4,0,6
2YFV_C-2YFV_B,0,10,1,1,7,0,1,10,0,3,0,3
3RGB_J-3RGB_I,1,8,2,7,13,1,9,0,2,2,6,0
5MSM_F-5MSM_D,6,2,3,4,0,14,0,0,11,6,0,2
1ZAV_A-1ZAV_V,0,11,0,1,8,0,2,9,0,3,5,0
4CO6_C-4CO6_E,2,8,1,1,13,2,0,11,0,1,6,1
4YL8_B-4YL8_A,3,4,4,0,10,8,0,4,7,3,2,5
5T70_G-5T70_A,2,4,5,0,7,0,0,11,0,2,0,5
3M91_A-3M91_B,0,11,0,0,5,0,0,11,0,0,5,0
1G1X_C-1G1X_A,3,6,2,3,0,8,8,0,3,2,4,0
2BKR_B-2BKR_A,2,4,5,1,12,4,2,9,0,1,1,5
1Z2C_A-1Z2C_B,1,9,1,5,11,1,1,9,1,2,0,6
1GL2_A-1GL2_D,0,11,0,0,8,0,0,11,0,0,6,0
5DA9_C-5DA9_A,3,4,4,2,10,0,0,11,0,2,5,0
4OY2_F-4OY2_E,1,0,10,11,5,12,3,0,8,4,3,2
4EAH_G-4EAH_E,1,9,1,2,8,0,0,11,0,4,0,5
1HFE_S-1HFE_L,6,4,1,3,19,3,4,7,0,3,7,0
2W19_B-2W19_D,1,10,0,0,9,0,4,6,1,9,0,0
4R3U_A-4R3U_C,0,11,0,1,9,0,4,7,0,3,5,1
4CFR_Q-4CFR_B,5,2,4,3,12,2,0,11,0,3,2,2
4F6U_A-4F6U_B,4,7,0,9,6,2,1,9,1,4,4,0
4HI0_A-4HI0_E,3,5,3,6,6,0,2,9,0,1,6,0
5LXR_A-5LXR_B,0,10,1,3,9,0,3,8,0,1,2,3
4UB8_A-4UB8_V,6,1,4,5,4,0,4,4,3,2,3,0
5H2F_F-5H2F_J,3,8,0,0,6,2,0,9,2,3,3,1
4KYO_A-4KYO_B,6,5,0,0,21,0,0,11,0,3,3,1
5VK3_A-5VK3_B,1,0,10,9,1,9,5,3,3,4,2,4
5FL7_O-5FL7_H,1,10,0,4,0,2,6,0,5,0,6,0
3WWT_A-3WWT_B,0,11,0,1,7,1,0,11,0,1,3,1
3GE3_A-3GE3_C,3,3,5,0,4,8,1,2,8,3,6,0
3EAB_A-3EAB_G,0,11,0,1,9,0,0,11,0,1,7,0
3KYI_B-3KYI_A,2,7,2,1,9,0,2,9,0,1,0,5
3QKS_C-3QKS_A,2,9,0,0,11,0,0,11,0,1,5,0
3PIN_A-3PIN_B,2,4,5,5,3,2,8,0,3,1,3,4
3VYT_A-3VYT_B,0,2,9,3,11,2,0,11,0,1,0,5
4JHJ_C-4JHJ_A,1,10,0,2,11,2,1,6,4,1,5,1
5O7X_G-5O7X_H,1,8,2,6,10,1,1,10,0,3,5,0
4OWT_A-4OWT_C,0,10,1,2,4,6,5,0,6,5,0,5
4HSU_C-4HSU_A,6,5,0,5,15,12,7,2,2,3,2,0
5BZ0_B-5BZ0_A,4,0,7,2,6,12,2,8,1,1,1,6
3R07_A-3R07_C,3,6,2,1,2,6,2,3,6,3,0,6
3ZIA_Q-3ZIA_T,0,11,0,3,5,1,4,6,1,1,5,0
3OVU_C-3OVU_A,2,9,0,0,11,0,7,2,2,2,7,0
3WYG_D-3WYG_C,2,9,0,2,17,1,1,10,0,2,4,0
1RH5_A-1RH5_C,5,5,1,7,2,1,8,2,1,1,8,1
3X1L_C-3X1L_B,4,0,7,2,1,5,1,2,8,1,0,8
4D0N_A-4D0N_B,7,0,4,1,17,1,0,11,0,1,0,5
4TPS_D-4TPS_C,1,6,4,0,9,0,0,11,0,0,6,0
2PMZ_B-2PMZ_N,6,0,5,4,4,0,3,7,1,2,4,1
1ZOQ_C-1ZOQ_A,5,5,1,1,7,3,0,11,0,2,5,0
4ZK9_B-4ZK9_A,6,0,5,2,3,11,3,2,6,4,0,5
1W85_C-1W85_D,3,5,3,3,9,5,2,7,2,4,5,0
4IIQ_C-4IIQ_A,0,11,0,3,1,4,3,0,8,0,0,3
1WVE_A-1WVE_C,2,8,1,5,4,0,4,5,2,5,4,0
1SXJ_B-1SXJ_G,5,6,0,8,0,2,7,0,4,1,3,0
5T5I_B-5T5I_A,1,5,5,2,6,8,2,3,6,2,0,7
4WNL_D-4WNL_E,5,3,3,5,1,1,1,0,0,0,0,0
2PMZ_A-2PMZ_H,2,4,5,2,1,10,3,0,8,8,0,0
2FMM_C-2FMM_E,3,4,4,3,8,4,7,0,4,5,4,0
1TII_C-1TII_E,0,11,0,3,5,0,1,10,0,1,4,0
4HEA_5-4HEA_4,7,4,0,7,5,4,5,1,5,1,9,0
5N9J_S-5N9J_G,6,1,4,1,8,0,1,10,0,6,0,1
2PMS_A-2PMS_C,4,1,6,0,11,0,0,11,0,1,0,6
2C7M_B-2C7M_A,3,1,6,0,12,0,0,11,0,2,0,6
3DCG_E-3DCG_D,5,6,0,5,14,0,2,9,0,3,4,0
4YII_U-4YII_A,2,2,7,0,9,0,1,10,0,1,6,0
5BNX_D-5BNX_B,5,2,4,3,2,5,3,3,5,2,0,7
2J12_B-2J12_A,0,2,9,2,4,5,4,2,5,2,0,3
3MML_A-3MML_B,7,2,2,4,1,10,1,0,10,3,0,6
4U7U_V-4U7U_M,4,0,7,1,4,3,0,10,1,1,0,5
4I6N_B-4I6N_A,4,0,7,8,0,6,7,2,2,2,2,4
1A0R_B-1A0R_G,0,4,7,5,6,0,5,6,0,2,8,0
4UZZ_B-4UZZ_A,2,9,0,2,15,1,0,11,0,3,5,0
3MHS_D-3MHS_A,5,0,6,4,4,18,2,8,1,1,1,6
2C1M_A-2C1M_B,0,8,3,9,2,1,10,0,1,3,7,0
3PNR_A-3PNR_B,4,3,4,4,3,6,5,1,5,1,8,0
1PBY_C-1PBY_A,5,4,2,6,8,10,6,0,5,4,4,2
1N2D_C-1N2D_A,0,11,0,5,13,3,3,8,0,1,4,0
4U4C_A-4U4C_B,2,7,2,7,7,1,5,3,3,4,0,5
2H32_B-2H32_A,5,0,6,6,3,22,2,0,9,7,0,3
4P5O_C-4P5O_F,0,11,0,1,5,3,1,5,5,2,5,0
1IS8_H-1IS8_S,1,6,4,2,4,0,4,3,4,0,4,0
5N9J_S-5N9J_U,2,8,1,7,9,2,5,5,1,6,0,4
4D18_M-4D18_J,0,11,0,0,9,0,0,11,0,2,5,0
2NN6_I-2NN6_G,1,0,10,2,1,4,4,2,5,3,1,2
5O7X_I-5O7X_G,10,0,1,7,5,8,5,6,0,7,0,2
3HZH_A-3HZH_B,2,6,3,2,7,0,0,11,0,2,3,1
3ABQ_D-3ABQ_C,6,1,4,4,15,4,0,7,4,3,5,1
1BML_B-1BML_D,3,0,8,2,1,10,4,5,2,5,1,2
5XJL_A-5XJL_2,0,2,9,4,2,2,4,5,2,1,5,0
4LNU_A-4LNU_K,2,9,0,3,9,1,0,11,0,2,1,3
4GD3_T-4GD3_A,3,6,2,8,6,1,1,10,0,3,0,6
4HEA_Q-4HEA_G,2,8,1,4,7,5,7,3,1,5,1,0
4UX3_A-4UX3_B,0,11,0,2,12,2,0,11,0,3,0,5
2OT3_B-2OT3_A,4,2,5,2,12,3,2,7,2,1,0,9
2PMZ_V-2PMZ_G,5,2,4,1,10,5,1,10,0,5,2,3
2Y69_A-2Y69_D,0,11,0,0,8,0,0,11,0,3,4,0
4H9N_C-4H9N_B,0,11,0,0,9,1,0,11,0,2,4,0
3AU4_B-3AU4_A,0,11,0,1,10,5,0,11,0,2,4,0
2V5P_B-2V5P_C,3,2,6,5,2,1,0,9,2,4,2,2
4M70_I-4M70_J,0,11,0,4,9,0,0,11,0,1,6,0
1GL2_A-1GL2_B,1,10,0,1,9,0,0,11,0,1,6,0
1R0R_I-1R0R_E,6,0,5,7,10,16,3,4,4,6,1,2
2Y69_C-2Y69_G,2,6,3,8,3,2,2,9,0,6,0,1
2PBD_A-2PBD_P,2,5,4,1,2,8,0,2,9,1,0,5
3SQG_C-3SQG_B,4,6,1,1,20,0,1,9,1,6,2,1
4UEL_B-4UEL_A,4,0,7,9,0,5,5,2,4,2,2,3
4FOU_A-4FOU_C,1,7,3,1,4,10,0,8,3,2,5,0
4XLR_C-4XLR_M,2,3,6,4,1,7,3,0,8,6,0,2
1PRT_E-1PRT_F,1,0,10,3,4,6,2,2,7,1,0,7
5KP7_B-5KP7_A,1,10,0,0,13,0,0,11,0,2,6,0
4II2_B-4II2_A,5,0,6,5,3,11,3,2,6,2,0,6
3A0R_B-3A0R_A,5,3,3,3,10,0,3,7,1,2,1,2
3M1C_B-3M1C_A,5,2,4,4,6,14,2,5,4,5,0,5
4EB5_A-4EB5_C,2,9,0,1,1,10,1,5,5,4,3,2
4CT0_A-4CT0_B,1,10,0,6,5,1,7,4,0,2,0,7
1B33_E-1B33_N,0,9,2,2,0,2,7,1,3,0,4,0
4XGC_D-4XGC_E,1,9,1,7,5,4,3,8,0,0,5,0
4FAO_W-4FAO_d,1,7,3,1,2,2,2,2,7,0,2,0
1L0O_C-1L0O_B,1,10,0,1,11,0,2,8,1,2,5,0
3LPE_A-3LPE_B,3,2,6,3,4,7,2,6,3,4,0,4
4HSA_E-4HSA_F,8,2,1,1,7,7,2,0,9,6,0,2
3GLI_A-3GLI_B,1,10,0,1,6,3,0,6,5,2,4,2
4WV4_A-4WV4_B,0,11,0,1,21,0,2,6,3,2,7,0
1T6G_D-1T6G_B,2,2,7,3,7,8,4,2,5,0,0,5
3L3O_B-3L3O_M,7,3,1,0,7,0,1,10,0,3,2,2
3K51_B-3K51_A,5,0,6,1,1,3,3,2,6,1,0,5
2ZXE_B-2ZXE_G,5,3,3,2,2,0,5,6,0,2,6,0
5F0J_C-5F0J_A,10,0,1,1,12,0,0,11,0,5,0,1
4HEA_3-4HEA_9,2,7,2,2,2,5,5,5,1,0,1,6
5FU7_A-5FU7_D,1,9,1,2,6,0,1,10,0,5,3,2
3RNQ_A-3RNQ_B,1,1,9,4,1,7,0,2,9,2,0,7
3IJ2_X-3IJ2_B,3,3,5,5,0,0,8,2,1,1,1,3
1KF6_D-1KF6_B,4,6,1,0,14,1,0,10,1,5,0,3
5JWO_A-5JWO_B,4,3,4,8,8,10,2,5,4,6,1,1
3NMU_F-3NMU_A,3,7,1,2,16,5,2,8,1,2,1,5
2EQ7_C-2EQ7_B,4,3,4,1,7,3,1,8,2,3,4,0
4NWO_A-4NWO_B,1,10,0,2,5,3,2,7,2,2,0,6
5JEA_K-5JEA_I,2,9,0,1,1,14,2,2,7,2,5,1
3X1L_B-3X1L_A,4,2,5,1,11,1,0,11,0,1,0,6
3CI0_I-3CI0_J,2,9,0,5,0,6,3,2,6,0,9,0
4DCN_A-4DCN_C,3,0,8,0,12,0,0,11,0,3,0,4
3VYT_C-3VYT_B,5,2,4,3,19,0,0,10,1,2,3,2
3S8G_B-3S8G_C,0,11,0,2,3,0,2,9,0,1,4,0
4FJV_B-4FJV_A,5,0,6,3,5,4,4,7,0,5,0,2
3ZIA_E-3ZIA_G,3,7,1,0,5,0,0,11,0,1,0,5
4Y99_C-4Y99_A,1,9,1,1,16,1,0,11,0,6,0,1
5G1X_B-5G1X_A,8,3,0,2,6,6,5,0,6,5,2,0
1I1R_A-1I1R_B,5,2,4,0,10,0,0,10,1,2,0,4
5L9W_A-5L9W_C,1,1,9,6,3,5,4,3,4,4,5,0
4QPJ_C-4QPJ_A,0,11,0,1,14,0,0,11,0,4,0,4
2WBL_C-2WBL_A,2,8,1,3,19,0,0,11,0,1,0,7
1JB0_A-1JB0_C,6,3,2,7,4,0,5,6,0,2,0,3
3TND_A-3TND_B,1,8,2,4,3,0,6,4,1,4,1,2
3WXF_B-3WXF_A,6,0,5,6,5,14,3,2,6,0,1,6
2QFA_C-2QFA_B,0,9,2,0,7,1,0,11,0,1,3,1
3KFU_H-3KFU_J,0,11,0,2,13,0,3,8,0,1,8,0
4FAO_M-4FAO_Q,1,1,9,4,1,9,2,3,6,1,0,8
5FQD_B-5FQD_A,1,7,3,5,3,12,4,0,7,1,5,0
4R6U_D-4R6U_A,3,7,1,3,2,9,5,0,6,1,0,8
1EEX_L-1EEX_M,0,11,0,2,17,1,0,10,1,2,6,0
5C2J_B-5C2J_A,0,10,1,1,14,0,3,7,1,2,0,6
5FU7_E-5FU7_G,3,8,0,1,8,1,0,11,0,4,5,1
4DGW_B-4DGW_A,0,11,0,0,13,2,2,9,0,3,4,0
3LVK_A-3LVK_B,0,11,0,0,8,0,0,11,0,2,2,2
3RLF_G-3RLF_E,2,5,4,3,6,1,1,10,0,1,4,0
4HKJ_P-4HKJ_N,2,0,9,3,1,3,4,0,7,5,0,1
