contacts,cs,ce,Chain,Length,designed_receptor_seq,native_receptor_seq,designed_binder_seq,native_binder_seq
12.0,4,14,A,10,SNGEALLKAAEAGHAEVVKLLLEKGAPITHDEDGITPLHLAAREGHLETTKVLLEAGVEVDARTNSEETPLHFAAREGHADVVKILLENGANVDARDLLERTALHWATRNGHTEVVKLLLENGANVDLRDIFERTPLHIAVENGNLELAKILL,DLGKKLLEAARAGQDDEVRILMANGAPFTTDWLGTSPLHLAAQYGHFSTTEVLLRAGVSRDARTKVDRTPLHMAASEGHANIVEVLLKHGADVNAKDMLKMTALHWATEHNHQEVVELLIKYGADVHTQSKFCKTAFDISIDNGNEDLAEILQ,LEELRKLLEG,QFLLELLTDK
15.0,85,105,A,20,SNGEALLKAAEAGHAEVVKLLLEKGAPVTADEDGVTPLHLAAREGHGETTKVLLEAGVEVDARTKVDRTPLHFAAEKGHADVVKILLEHGADVNARDEDDRTALHWATRNGHADVVKLLLEHGADVNVRDKFDRTPLHIAVLNGNEELAKILE,DLGKKLLEAARAGQDDEVRILMANGAPFTTDWLGTSPLHLAAQYGHFSTTEVLLRAGVSRDARTKVDRTPLHMAASEGHANIVEVLLKHGADVNAKDMLKMTALHWATEHNHQEVVELLIKYGADVHTQSKFCKTAFDISIDNGNEDLAEILQ,EETGLTEEEYEELRAAKEKR,TLIGYSAAELNRLVIECEQK
15.0,75,105,A,30,SNGEALLKAAEAGDAEKVKELLKEGAPVTADEDGVTPLHLAAREGHGETTKVLLEAGVEVDARTNVERTPLHFAAREGHADVVKVLLEHGADVNARDALERTALHWATENGHEDVVKLLLEHGADVNLRDAFDRTPLHIAVLNGNEGLAKILE,DLGKKLLEAARAGQDDEVRILMANGAPFTTDWLGTSPLHLAAQYGHFSTTEVLLRAGVSRDARTKVDRTPLHMAASEGHANIVEVLLKHGADVNAKDMLKMTALHWATEHNHQEVVELLIKYGADVHTQSKFCKTAFDISIDNGNEDLAEILQ,GRTVFEGDLKELVGFSAEELAELVERKRRR,FVYKFVCDLKTLIGYSAAELNRLVIECEQK
15.0,65,105,A,40,SNGEALLKAAEAGHAEVVKLLLEKGAPVTADEDGVTPLHLAAREGHGETTKVLLEAGVEVDARTNVERTPLHFAAREGHADVVKVLLEHGADVNARDALDRTALHWATENGHEDVVKLLLEHGADVNVRDAFDRTPLHIAVLNGNEGLAKILE,DLGKKLLEAARAGQDDEVRILMANGAPFTTDWLGTSPLHLAAQYGHFSTTEVLLRAGVSRDARTKVDRTPLHMAASEGHANIVEVLLKHGADVNAKDMLKMTALHWATEHNHQEVVELLIKYGADVHTQSKFCKTAFDISIDNGNEDLAEILQ,EEVEEVEGVEDLYEVVLDLGELVGFTAEELAELVERKLRE,DMICKVQGKRFVYKFVCDLKTLIGYSAAELNRLVIECEQK
15.0,55,105,A,50,SNGEALLKAAEAGHAEVVKLLLEKGAPVTADEDGVTPLHLAAREGHGETTKVLLEAGVEVDARTNVERTPLHFAAREGHADVVKVLLEHGADVNARDALDRTALHWATENGHEDVVKLLLEHGADVNVRDAFDRTPLHIAVLNGNEGLAKILE,DLGKKLLEAARAGQDDEVRILMANGAPFTTDWLGTSPLHLAAQYGHFSTTEVLLRAGVSRDARTKVDRTPLHMAASEGHANIVEVLLKHGADVNAKDMLKMTALHWATEHNHQEVVELLIKYGADVHTQSKFCKTAFDISIDNGNEDLAEILQ,LEALGELEGGDVVTRVEGVEDAWELILDLGELIGLTAEELAELVARKLER,SRALRYYYDGDMICKVQGKRFVYKFVCDLKTLIGYSAAELNRLVIECEQK
11.0,123,133,B,10,MELHEILLDFLRDPRMLDVIDFVGDDGAFVLTDPDLVAELVGGVLEEPDMNYRKLRARLGNYLGSDVIDVVEGKRYTFKFILDLKELIGYSASELARLVRRRRREIEEAR,IQLWQFLLELLTDKDARDCISWVGDEGEFKLNQPELVAQKWGQRKNKPTMNYEKLSRALRYYYDGDMICKVQGKRFVYKFVCDLKTLIGYSAAELNRLVIECEQKKLARM,VDLFEEGRFG,ADVHTQSKFC
11.0,113,133,B,20,MELHEILLDFLRDPRMLDVIDFVGFDGAFVLTDPDEVARRVGGVLEEPDMNYRKLRARLGNYLGSDVIDEVEGRRYTFKFILDLKELIGYSASELARLVRARRREIEERE,IQLWQFLLELLTDKDARDCISWVGDEGEFKLNQPELVAQKWGQRKNKPTMNYEKLSRALRYYYDGDMICKVQGKRFVYKFVCDLKTLIGYSAAELNRLVIECEQKKLARM,RERERLRERGADEDFEDRFG,EVVELLIKYGADVHTQSKFC
11.0,103,133,B,30,MELHEILLDFLRDPRMLDVIDFVGNTGAFVLTDPDEVARRVGGVFEEPDMNYRKLRARLGNYLGSNIITEVKGKRNTFKFILNLKELIGRSASELAALVRERRERIERER,IQLWQFLLELLTDKDARDCISWVGDEGEFKLNQPELVAQKWGQRKNKPTMNYEKLSRALRYYYDGDMICKVQGKRFVYKFVCDLKTLIGYSAAELNRLVIECEQKKLARM,LDLAVERGHLEVVRLLEERGADLDRRDRFG,LHWATEHNHQEVVELLIKYGADVHTQSKFC
20.0,93,133,B,40,MELHEILLDFLTDPEMLDVIDFVGNDGAFVLTDPDEVARRVGGVLEEPDMNYRKLRARLGNYFGSNIITEVKGKKNTFKFILNLKELIGYSASELAELVRKRREEIEREK,IQLWQFLLELLTDKDARDCISWVGDEGEFKLNQPELVAQKWGQRKNKPTMNYEKLSRALRYYYDGDMICKVQGKRFVYKFVCDLKTLIGYSAAELNRLVIECEQKKLARM,ERRDILNRTALHWAADRGHLEIVKLLLERGADVNLKDRFG,NAKDMLKMTALHWATEHNHQEVVELLIKYGADVHTQSKFC
20.0,83,133,B,50,MELHEILLDFLTDPEMLDVIDFVGNDGAFVLTDPDEVARRVGGVLEEPDMNYRKLRARLGNYLGSNIITEVKGKKNTFKFILNLKELIGYSASELAELVRKRREEIERER,IQLWQFLLELLTDKDARDCISWVGDEGEFKLNQPELVAQKWGQRKNKPTMNYEKLSRALRYYYDGDMICKVQGKRFVYKFVCDLKTLIGYSAAELNRLVIECEQKKLARM,RELLERGADVNARDLLKRTALHWATERGHLEVVKLLLEHGADANLKDRFG,EVLLKHGADVNAKDMLKMTALHWATEHNHQEVVELLIKYGADVHTQSKFC
