contacts,cs,ce,Chain,Length,designed_receptor_seq,native_receptor_seq,designed_binder_seq,native_binder_seq
7.0,96,106,A,10,MIYYRVSFVVPNRRSKSKKDWSKYRERTMIVPYEKFDEFKKMVEELGGKITKVEVFTGKKGVKVGLP,GRLFKITACVPSQTRIRTQRELQNTYFTKLVPYENWFREQQRIQKMGGKIVKVELATGKQGINTGLA,SGDLTPLIEV,AGDVTPIEEI
8.0,86,106,A,20,MIYYRVSYVVPSKKSKSKKDWSKYRERTEIVPYEKFAERRKEIEELGGKITKVEVFTGKKGVLVGKP,GRLFKITACVPSQTRIRTQRELQNTYFTKLVPYENWFREQQRIQKMGGKIVKVELATGKQGINTGLA,KEKLKKLGEKAGNDLPIKEM,YLRLITYGIVAGDVTPIEEI
8.0,76,106,A,30,MIYYRVKFVVPKRKSKSKRDWSKYEEREMIVPYERFDEFKKMVERLGGKILEVEVATGKKGVLVGKP,GRLFKITACVPSQTRIRTQRELQNTYFTKLVPYENWFREQQRIQKMGGKIVKVELATGKQGINTGLA,EEEKEKLKELYKKLKELGEKAGNWEPVIEI,TATCLRDLDYYLRLITYGIVAGDVTPIEEI
8.0,66,106,A,40,MIYYRVSYVVPNRRSKSKKDWSKYRERTEIVPYERWAERRAEIERLGGTITRVEVATGREGVLVGRP,GRLFKITACVPSQTRIRTQRELQNTYFTKLVPYENWFREQQRIQKMGGKIVKVELATGKQGINTGLA,RGAWWYGEEAARRGEELRRRWERLRELGRRAGNWEPVVEA,PGGNAYGQEMTATCLRDLDYYLRLITYGIVAGDVTPIEEI
8.0,56,106,A,50,MIYYRVRFVVPKRRARSRLDWSRYERREMLVPAERWAEFRRRVERLGGRILEVEVATGRRGVLVGRP,GRLFKITACVPSQTRIRTQRELQNTYFTKLVPYENWFREQQRIQKMGGKIVKVELATGKQGINTGLA,VRRRFPELFAPGGVFYGEEAARRGEELLRFWERAARLGERAGNLEPVLEL,LFQKRPDVVSPGGNAYGQEMTATCLRDLDYYLRLITYGIVAGDVTPIEEI
8.0,56,66,B,10,SIVERAAREALARRRALTPEELAAIDRYVREGARRERIAAKLRAHADEIVRRAGERTFARHPEVVAPGGWAYGEEARARFLEDLAFYLDAITDGIRAGTTRPIEERYIRGHRELYARLGVPIDVVSAGIRAMREEAAALLSEEEAAYAGRFFDYVAGALR,SIVTKSIVNADAEARYLSPGELDRIKSFVSSGEKRLRIAQILTDNRERIVKQAGDQLFQKRPDVVSPGGNAYGQEMTATCLRDLDYYLRLITYGIVAGDVTPIEEIGIVGVREMYKSLGTPIDAVAAGVSAMKNVASSILSAEDAAEAGAYFDYVAGALA,AGREGVLVGR,TGKQGINTGL
8.0,46,66,B,20,SIVERAAREALARLRALTPEELAAIDRYVREGERRARIAAKLREHADEIVRGAGERLFARHPEVVAPGGWAYGEEARARFLEDLAFYLDAITDGIRAGTTRPIEERYIVGHHELYARLGVPIDVVSAGIRAMREEAARRLSEEEAAYAGRFFDYVAGALR,SIVTKSIVNADAEARYLSPGELDRIKSFVSSGEKRLRIAQILTDNRERIVKQAGDQLFQKRPDVVSPGGNAYGQEMTATCLRDLDYYLRLITYGIVAGDVTPIEEIGIVGVREMYKSLGTPIDAVAAGVSAMKNVASSILSAEDAAEAGAYFDYVAGALA,ERRVVRVENVLGRRGVLVGG,GGKIVKVELATGKQGINTGL
8.0,36,66,B,30,SIVERALREALARRRALTPEELAAIDRYVREGERRLRIAEKLRRHADEIVRGAGERLFARHPEVVAPGGWAYGEEARRRFLEDLRFYLDAITLGIRAGTTRPIEEMRIRGVRERYARLGVPLDVVSAGIRAMREEAARLLSEEEAAYAGRFFDYVAGALR,SIVTKSIVNADAEARYLSPGELDRIKSFVSSGEKRLRIAQILTDNRERIVKQAGDQLFQKRPDVVSPGGNAYGQEMTATCLRDLDYYLRLITYGIVAGDVTPIEEIGIVGVREMYKSLGTPIDAVAAGVSAMKNVASSILSAEDAAEAGAYFDYVAGALA,RRALEEVRRAGGEVVEVRVASGRLGVLVGG,FREQQRIQKMGGKIVKVELATGKQGINTGL
8.0,26,66,B,40,SIVERAAREALARLRALTPEELAAIDRYVREGERRLRIAEKLRRHADEIVRGAGERLFARHPEVVAPGGWAYGEEARARFLEDLRFHLDAITDGIRAGTTRPIEERYIRGHREVYARLGVPIEVVSAGIRAMREEAARLLSEEERAYAGRFFDYVAGALR,SIVTKSIVNADAEARYLSPGELDRIKSFVSSGEKRLRIAQILTDNRERIVKQAGDQLFQKRPDVVSPGGNAYGQEMTATCLRDLDYYLRLITYGIVAGDVTPIEEIGIVGVREMYKSLGTPIDAVAAGVSAMKNVASSILSAEDAAEAGAYFDYVAGALA,RRELVPLEEFARYYERVRREGGRIVRVRLASGRVGVEVGG,FTKLVPYENWFREQQRIQKMGGKIVKVELATGKQGINTGL
8.0,16,66,B,50,SIVERAAREALARLRALTPEELAAIDRYVREGERRARIAAKLEAHADEIVRGAGERTFARHPEVVAPGGWAYGEEARARFLEDLRFYLDAITDGIRAGTTRPIEERRIVGVGELYARLGVPIDVVSAGIRAMREEAARLLSEEEAAYAGRFFDYVAGALR,SIVTKSIVNADAEARYLSPGELDRIKSFVSSGEKRLRIAQILTDNRERIVKQAGDQLFQKRPDVVSPGGNAYGQEMTATCLRDLDYYLRLITYGIVAGDVTPIEEIGIVGVREMYKSLGTPIDAVAAGVSAMKNVASSILSAEDAAEAGAYFDYVAGALA,GEADLSRLLRFRTLVPAERFAEFREAVERAGGRIEEVRLADGREGVLVGG,RTQRELQNTYFTKLVPYENWFREQQRIQKMGGKIVKVELATGKQGINTGL
