contacts,cs,ce,Chain,Length,designed_receptor_seq,native_receptor_seq,designed_binder_seq,native_binder_seq
35.0,25,35,A,10,MAPNYILLEGEKLKGMLDAFKPLKDSLLDSLLLMGDKGILVVNKIHGEDVYLPLPKSSFTSYKWEGPVVAFRSKVKEDRSLLDVFRKGGYPDLERVTFEVEGEYPNRYLTQKIWVKEEGGKVVLKEELTLKKEELKEWEVKVPVGKPDVVVTLTKPQLEKVLDTMGESLEEPTTFELGENGKFTVKTKDKEVTFTAVELGGKSLLENPEKVVYGYNISKEFKLTLKDAKLKKVLRKLKVEGGRLKFFLKPPVPRLMIVATGPNNVAAVFELEPKE,GAPCQVVLQGAELNGILQAFAPLRTSLLDSLLVMGDRGILIHNTIFGEQVFLPLEHSQFSRYRWRGPTAAFLSLVDQKRSLLSVFRANQYPDLRRVELAITGQAPFRTLVQRIWTTTSDGEAVELASETLMKRELTSFVVLVPQGTPDVQLRLTRPQLTKVLNATGADSATPTTFELGVNGKFSVFTTSTCVTFAAREEGVSSSTSTNAKTVYGENTHRTFSVVVDDCSMRAVLRRLQVGGGTLKFFLTTPVPSLCVTATGPNAVSAVFLLKPQK,EGLGEAFKVL,RMLHRAFDTL
45.0,15,35,A,20,SAPNYILLEGEKLKGMLDAFKPLKDSLLDSTLLMGDKGILVVNEIYGEKVYYPLPKESFTSYKWEGPLAAFKSKVDEDRSLLDVFRKGGYPDLERVTFEVKGEYPNRYLTQKIWVKEEGGKVVEKKELELKKEELKGFSLKVPVGKPDVVVTLTKPQLEKVLDTMGESLEEPTTFELGENGKFTVKTKDKEVTFTAVELGGESLLKNGDKVVYGYNISKEFKLTYKGAGLKKVLTKLKVEGGELKFFLKPPVPRLMIRATGPNKVAAVFELEPKK,GAPCQVVLQGAELNGILQAFAPLRTSLLDSLLVMGDRGILIHNTIFGEQVFLPLEHSQFSRYRWRGPTAAFLSLVDQKRSLLSVFRANQYPDLRRVELAITGQAPFRTLVQRIWTTTSDGEAVELASETLMKRELTSFVVLVPQGTPDVQLRLTRPQLTKVLNATGADSATPTTFELGVNGKFSVFTTSTCVTFAAREEGVSSSTSTNAKTVYGENTHRTFSVVVDDCSMRAVLRRLQVGGGTLKFFLTTPVPSLCVTATGPNAVSAVFLLKPQK,LEGLSEEEAKKLLGEAFKTL,GAGATAEETRRMLHRAFDTL
77.0,5,35,A,30,MAPNYILLEGEKLKGMLDAFKPLKDSLLDSLLVMGDEGILVVNEIYGEDVYLPLPKESFTEYKWEGPISAFRSRVNEDRSLLDVFRKGGYPDLERVTFEVEGEYPNRYLTQRIWVKEEGGKVVEKKELTLKKEELKSFSVLVPAGEPDVVVTLTKPQLERVLDAMGESLEEPTTFELGENGRFTVRTKDKEVTFTAVELGGESLLKNGEKVVYGYRISKEFKLTYTGSKLKKVLRKLKVEGGRLEFFLKPPVPRLMIRATGPNNVAAVFLLKPSK,GAPCQVVLQGAELNGILQAFAPLRTSLLDSLLVMGDRGILIHNTIFGEQVFLPLEHSQFSRYRWRGPTAAFLSLVDQKRSLLSVFRANQYPDLRRVELAITGQAPFRTLVQRIWTTTSDGEAVELASETLMKRELTSFVVLVPQGTPDVQLRLTRPQLTKVLNATGADSATPTTFELGVNGKFSVFTTSTCVTFAAREEGVSSSTSTNAKTVYGENTHRTFSVVVDDCSMRAVLRRLQVGGGTLKFFLTTPVPSLCVTATGPNAVSAVFLLKPQK,EWKKAGFLEVGKGKSEEEAREVLGKAFETL,RLRAAGFGAVGAGATAEETRRMLHRAFDTL
0.0,0,0,A,0,MAPNYILLEGEKLKGMLDAFKPLKDALLDSTLLMGDKGILIVNEIYGEKVFFPLPKSSFTSYKWEGPKVAFKSLVDEDRSLLDVFRKGGYPDLERVTFEVEGEYPNRYLTQKIWVKEEGGKVVLKEELTLKKEELKEWKVEVPVGEPDVVVTLTKPQLEKVLDTMGESLEEPTTFELGENGKFTVKTKDKEVTFTAVELGGESLLKNPEKVVYGYRISKKFKLTLKDAKLKKVLRKLKVEGGKLEFYLKPPVPRLRIVATGPNKVAVEVELEPKE,GAPCQVVLQGAELNGILQAFAPLRTSLLDSLLVMGDRGILIHNTIFGEQVFLPLEHSQFSRYRWRGPTAAFLSLVDQKRSLLSVFRANQYPDLRRVELAITGQAPFRTLVQRIWTTTSDGEAVELASETLMKRELTSFVVLVPQGTPDVQLRLTRPQLTKVLNATGADSATPTTFELGVNGKFSVFTTSTCVTFAAREEGVSSSTSTNAKTVYGENTHRTFSVVVDDCSMRAVLRRLQVGGGTLKFFLTTPVPSLCVTATGPNAVSAVFLLKPQK,MAPNYILLEGEKLKGMLDAFKPLKDALLDSTLLMGDKGILIVNEIYGEKVFFPLPKSSFTSYKWEGPKVAFKSLVDEDRSLLDVFRKGGYPDLERVTFEVEGEYPNRYLTQKIWVKEEGGKVVLKEELTLKKEELKEWKVEVPVGEPDVVVTLTKPQLEKVLDTMGESLEEPTTFELGENGKFTVKTKDKEVTFTAVELGGESLLKNPEKVVYGYRISKKFKLTLKDAKLKKVLRKLKVEGGKLEFYLKPPVPRLRIVATGPNKVAVEVELEPKEGEEEEEEEEE,
0.0,0,0,A,0,MAPNYILLEGEKLKGMLDAFKPLKDALLDSTLLMGDKGILIVNEIYGEKVFFPLPKSSFTSYKWEGPKVAFKSLVDEDRSLLDVFRKGGYPDLERVTFEVEGEYPNRYLTQKIWVKEEGGKVVLKEELTLKKEELKEWKVEVPVGEPDVVVTLTKPQLEKVLDTMGESLEEPTTFELGENGKFTVKTKDKEVTFTAVELGGESLLKNPEKVVYGYRISKKFKLTLKDAKLKKVLRKLKVEGGKLEFYLKPPVPRLRIVATGPNKVAVEVELEPKE,GAPCQVVLQGAELNGILQAFAPLRTSLLDSLLVMGDRGILIHNTIFGEQVFLPLEHSQFSRYRWRGPTAAFLSLVDQKRSLLSVFRANQYPDLRRVELAITGQAPFRTLVQRIWTTTSDGEAVELASETLMKRELTSFVVLVPQGTPDVQLRLTRPQLTKVLNATGADSATPTTFELGVNGKFSVFTTSTCVTFAAREEGVSSSTSTNAKTVYGENTHRTFSVVVDDCSMRAVLRRLQVGGGTLKFFLTTPVPSLCVTATGPNAVSAVFLLKPQK,MAPNYILLEGEKLKGMLDAFKPLKDALLDSTLLMGDKGILIVNEIYGEKVFFPLPKSSFTSYKWEGPKVAFKSLVDEDRSLLDVFRKGGYPDLERVTFEVEGEYPNRYLTQKIWVKEEGGKVVLKEELTLKKEELKEWKVEVPVGEPDVVVTLTKPQLEKVLDTMGESLEEPTTFELGENGKFTVKTKDKEVTFTAVELGGESLLKNPEKVVYGYRISKKFKLTLKDAKLKKVLRKLKVEGGKLEFYLKPPVPRLRIVATGPNKVAVEVELEPKEGEEEEEEEEE,
32.0,136,146,B,10,MGRAAELRAAGYARVGRGRSRAEAERVLGEYRAGTG,DDVAARLRAAGFGAVGAGATAEETRRMLHRAFDTLA,PRVVLVPVGR,SFVVLVPQGT
33.0,127,147,B,20,SGLEEELRAKGYARVGRGRSREEAERVVGEYNRVTE,DDVAARLRAAGFGAVGAGATAEETRRMLHRAFDTLA,EEVEVEAPEEFVVYVPVGEE,ETLMKRELTSFVVLVPQGTP
33.0,117,147,B,30,DPEAERLRAEGYAVVGRGRSREEAERVVGEYRRVTA,DDVAARLRAAGFGAVGAGATAEETRRMLHRAFDTLA,EDGRVVVREEEVRVEEAPEEFEVLVPVGEE,SDGEAVELASETLMKRELTSFVVLVPQGTP
33.0,107,147,B,40,DPEAEKLKAEGYAEVGKGKSKEEAEKIVGEYNKTTE,DDVAARLRAAGFGAVGAGATAEETRRMLHRAFDTLA,TYVTETYVKDKDGKEVLDKDKRKEEKAPKEFTVLVPVGKK,TLVQRIWTTTSDGEAVELASETLMKRELTSFVVLVPQGTP
33.0,97,147,B,50,SGAEEELRAKGYAAVGSGASAEEAERIVGEYNRVTA,DDVAARLRAAGFGAVGAGATAEETRRMLHRAFDTLA,VEVKGEEPNRYAVVTVYEKDENGKEVEKKELTKTAKEPKSFTVLVPVGKK,LAITGQAPFRTLVQRIWTTTSDGEAVELASETLMKRELTSFVVLVPQGTP
