contacts,cs,ce,Chain,Length,designed_receptor_seq,native_receptor_seq,designed_binder_seq,native_binder_seq
39.0,89,99,A,10,GPLGSSAVVYPVYRPTNVNTSYNLMIFDKADNFDFSKVKSYTLERDTTNLVVYKKVKKGEKEKEEGEEEYTTEKLEFAPEDLPWILKINGENGRTYIGFEVGKKESTSFDLVYTQAPDGSYYAYPVKKTYLFLPKEKVKLDSKEDLIKYYEKTK,GPSSQNVTEYVVRVPKNTTKKYNIMAFNAADKVNFATWNQARLERDLSNKKIYQEEEMRKLREEARRKKYGIVLKEFRPEDQPWLLRVNGKSGRKFKGIKKGGVTENTSYYIFTQCPDGAFEAFPVHNWYNFTPLARHRTLTAEEAEEEWERRN,DDIYVFTIEN,QTLTVFTESS
47.0,89,109,A,20,SPLFSEAVVYPVYRPTDVDTDYNLMIFDKKDNFDWSKVKSYTLERDYTNLVVYKKVKKGEKKKKKGEEEYTTEKLEFDPEDLPWILKINGENGRTYIGFEVGKKKSKSFLLLRTQAPDGSYYEYPIKKIYNFYPLEKYKGDSKEELIKYYKKKK,GPSSQNVTEYVVRVPKNTTKKYNIMAFNAADKVNFATWNQARLERDLSNKKIYQEEEMRKLREEARRKKYGIVLKEFRPEDQPWLLRVNGKSGRKFKGIKKGGVTENTSYYIFTQCPDGAFEAFPVHNWYNFTPLARHRTLTAEEAEEEWERRN,DDIYVFTISKDNKKTIVAKL,QTLTVFTESSSDKLSLEGIV
70.0,15,45,A,30,SPLFSEETVYDVYVPQNVNTTYNLMRFDKKDNFDWSKVKSATLERDTTNLVVYKKVKKGEKKKKKDEEEYTTEKLEFDPEDLPWILKINGKKGRTYIGFEVGKKKSDSSYYIFTQAPDGSYYAYPVDKDYLFLPESKVKLDSKEDIIKYYKTKK,GPSSQNVTEYVVRVPKNTTKKYNIMAFNAADKVNFATWNQARLERDLSNKKIYQEEEMRKLREEARRKKYGIVLKEFRPEDQPWLLRVNGKSGRKFKGIKKGGVTENTSYYIFTQCPDGAFEAFPVHNWYNFTPLARHRTLTAEEAEEEWERRN,DVLLVEVPNPVTEEWKKAKGKGKVGELRIK,GVWLVKVPKYLSQQWAKASGRGEVGKLRIA
81.0,4,44,A,40,SPLFSESIVYPVYVPQNVNTSYNLMIFDKKDNFDFSKVKSATLKRDTTNLVVYKKVKKGEKKKKKDEEEYTTEKLEFDPEDLPWILEINGKDGKKYIGLEVEKKESDSSYYIFTQAPDGSYYAYPVDKIYNFSPIEKFKFDSKEDIIKYYEKKK,GPSSQNVTEYVVRVPKNTTKKYNIMAFNAADKVNFATWNQARLERDLSNKKIYQEEEMRKLREEARRKKYGIVLKEFRPEDQPWLLRVNGKSGRKFKGIKKGGVTENTSYYIFTQCPDGAFEAFPVHNWYNFTPLARHRTLTAEEAEEEWERRN,ELDISGIKNNTKVLLVEVPNPVTEEWKKAKGKGLIGYYVN,ELDLTGAKQNTGVWLVKVPKYLSQQWAKASGRGEVGKLRI
85.0,0,50,A,50,SPLFSESTVYPVYVPQNVNTTYNLMRFDKKDNFDFSKVKSATLVRDTTNLVVYKKVKKGEKKKKKDEEEYTTEKLEFDPEDLPWLLKINGKKGKKYKGFEVEKKESDSSYYIFTQAPDGSYYAYPVDKDYLFTPIEKFKSDDKESIIKEYKKKK,GPSSQNVTEYVVRVPKNTTKKYNIMAFNAADKVNFATWNQARLERDLSNKKIYQEEEMRKLREEARRKKYGIVLKEFRPEDQPWLLRVNGKSGRKFKGIKKGGVTENTSYYIFTQCPDGAFEAFPVHNWYNFTPLARHRTLTAEEAEEEWERRN,IGKGELDLSGIKNNTKVLLVEVPNPVTEEWKKAKGKGKVGELKITGKKGE,AERGELDLTGAKQNTGVWLVKVPKYLSQQWAKASGRGEVGKLRIAKTQGR
37.0,18,28,B,10,MGRGELDLTGVLEDTKVWLIAVPEPLAAKWALAKDEGPVGYITIEEEEGKVKVSFTLNEELDSIHPEGGEPEEEEEPKEHPFELLSNGGETIKVYTVSSKKEKKLVAIVSLKAKMLPG,AERGELDLTGAKQNTGVWLVKVPKYLSQQWAKASGRGEVGKLRIAKTQGRTEVSFTLNEDLANIHDIGGKPASVSAPREHPFVLQSVGGQTLTVFTESSSDKLSLEGIVVQRAECRPA,EEEYHLLIEE,TKKYNIMAFN
65.0,7,27,B,20,MGSGELDLTGVLEDTKVWLIAVPEPLMEKWSLAKDRGHVGYMYVEREEGKVKVSFQLNEELDSIHPEGAKPEEESEPKEHPFELLSNGGEVIKVYTVSKSKEKKLVATVAQKAVCLDS,AERGELDLTGAKQNTGVWLVKVPKYLSQQWAKASGRGEVGKLRIAKTQGRTEVSFTLNEDLANIHDIGGKPASVSAPREHPFVLQSVGGQTLTVFTESSSDKLSLEGIVVQRAECRPA,EEFEVYVPQDVDVDYNLLVE,TEYVVRVPKNTTKKYNIMAF
79.0,5,35,B,30,MGSGELDLTGVLENRKVWLIKVPEPLMEKWSLAKDRGHVGYMSVTRKEGEVKVSFTLNEELDSIHPEGGKPKKKSKPKEHPFKLLSNDGEKIYVYTVSKSKEKKLVAEVSQKAVCLDG,AERGELDLTGAKQNTGVWLVKVPKYLSQQWAKASGRGEVGKLRIAKTQGRTEVSFTLNEDLANIHDIGGKPASVSAPREHPFVLQSVGGQTLTVFTESSSDKLSLEGIVVQRAECRPA,EEEVFPVYVPQDVDVDYNLLVFDKKDKVKF,NVTEYVVRVPKNTTKKYNIMAFNAADKVNF
94.0,3,43,B,40,MGKGELDLTGVKENRKVWLIAVPEPLMEKFSLAKDKGHVGYLYVEREEGKTKVSFQLNEELDSIYPEGAKPKKKSKPKEHPFKLLSNDGETILVYTVSKKKEKKLVAIVSQKAVMLDS,AERGELDLTGAKQNTGVWLVKVPKYLSQQWAKASGRGEVGKLRIAKTQGRTEVSFTLNEDLANIHDIGGKPASVSAPREHPFVLQSVGGQTLTVFTESSSDKLSLEGIVVQRAECRPA,EEEEEVYPVYVPQDVDEDYNLLVFDKKDKVDFSKVKKAKL,SQNVTEYVVRVPKNTTKKYNIMAFNAADKVNFATWNQARL
94.0,0,50,B,50,MGKGELDLSGVKRNTKVWLISVPEPLMEKFSLAKDRGHVGYLYVEREEGKTKVSFQLNEELDSIYPEGAKPKKKSKPKEHPFKLLSNDGETILVYTVSKKNEKSLVAIVSQKAVMLDG,AERGELDLTGAKQNTGVWLVKVPKYLSQQWAKASGRGEVGKLRIAKTQGRTEVSFTLNEDLANIHDIGGKPASVSAPREHPFVLQSVGGQTLTVFTESSSDKLSLEGIVVQRAECRPA,EEEEEEEEVYPVYVPQDVDVDYNLLVFDKEDEFDFSKVKSATLKPDLSNL,GPSSQNVTEYVVRVPKNTTKKYNIMAFNAADKVNFATWNQARLERDLSNK
