contacts,cs,ce,Chain,Length,designed_receptor_seq,native_receptor_seq,designed_binder_seq,native_binder_seq
24.0,42,52,A,10,MGLEEARERLKELEEEVEELREEVGRLEEELGEVEEEVERLEEEAEELEEEAEELREERE,HERESSIRQLEADIMDINEIFKDLGMMIHEQGDVIDSIEANVESAEVHVQQANQQLSRAA,EGEEELEEAR,TSEHFKTTSQ
43.0,32,52,A,20,MGLLDKIKNLKKEIEKLEKEIEKLGKEIEELGKVIEKIKANIEKAKENIEKAKENIEKKG,HERESSIRQLEADIMDINEIFKDLGMMIHEQGDVIDSIEANVESAEVHVQQANQQLSRAA,KLKEEEEKLKKSEEELKKAK,LRNKTEDLEATSEHFKTTSQ
54.0,22,52,A,30,MGLLDKLLNLKKELEALEKEVERIGKEVEEMGKVVEEIVANVESAKKNVEDAKKNVEAKL,HERESSIRQLEADIMDINEIFKDLGMMIHEQGDVIDSIEANVESAEVHVQQANQQLSRAA,VEEKGKELKEKLEKTKEEEKKSKEELEKAK,ILARGENLDHLRNKTEDLEATSEHFKTTSQ
69.0,12,52,A,40,MGHHHHHHHHHHHHHHMEHLLEEIGREVEEQGKVVEEIVRNVEEAKENVEKAMENLRKKG,HERESSIRQLEADIMDINEIFKDLGMMIHEQGDVIDSIEANVESAEVHVQQANQQLSRAA,EEELREELERERERGRELRRERGRTEELREESRRLLEEAR,KNIMTQNVERILARGENLDHLRNKTEDLEATSEHFKTTSQ
82.0,1,51,A,50,MGEEERRRELEKRKEELRRLKEEIGRMKEEMGKVKEEIERNREEARRLREEAERKLRERG,HERESSIRQLEADIMDINEIFKDLGMMIHEQGDVIDSIEANVESAEVHVQQANQQLSRAA,VEEEEEELEEELERWREELERWREEGRRLREELERTREERERSREELERA,VRNLQSEVEGVKNIMTQNVERILARGENLDHLRNKTEDLEATSEHFKTTS
24.0,43,53,B,10,SNAELERLLAELERVLAENERLLAENERLLAENERLLAENERLSAELLAAARER,RVRNLQSEVEGVKNIMTQNVERILARGENLDHLRNKTEDLEATSEHFKTTSQKV,GAAENVRLAL,SAEVHVQQAN
44.0,36,56,B,20,SNAELERLLAELDRVLAELDRVLAELDRVLAELDGLLVELDRASAELLAAAREV,RVRNLQSEVEGVKNIMTQNVERILARGENLDHLRNKTEDLEATSEHFKTTSQKV,PLEAHAARARENVAAARAAL,SIEANVESAEVHVQQANQQL
55.0,26,56,B,30,SNALKAKLLAGLNKVFSALDDAFAELGRLLEELNGLTEELDAASAVLLKEAKEV,RVRNLQSEVEGVKNIMTQNVERILARGENLDHLRNKTEDLEATSEHFKTTSQKV,AGAAMGAVVDRIVANLNSAKENVAAANKLL,MIHEQGDVIDSIEANVESAEVHVQQANQQL
70.0,16,56,B,40,GGMAEAILLAGLREVLTAELDAERERGRLLRELLGLTEELDRLSEELLRLAEEV,RVRNLQSEVEGVKNIMTQNVERILARGENLDHLRNKTEDLEATSEHFKTTSQKV,LGELLEEIGRRVEEMGEVVERIRANLERARENVERARERL,INEIFKDLGMMIHEQGDVIDSIEANVESAEVHVQQANQQL
82.0,5,55,B,50,SNAEHLKLVEELERIFTELLDAERERGRLLRELLGLTEELERLSEELLRLAREV,RVRNLQSEVEGVKNIMTQNVERILARGENLDHLRNKTEDLEATSEHFKTTSQKV,EGEELEERLERLRRLLEEIGRRVEEQGEVVRRILANLERARENVRRALEE,SIRQLEADIMDINEIFKDLGMMIHEQGDVIDSIEANVESAEVHVQQANQQ
