contacts,cs,ce,Chain,Length,designed_receptor_seq,native_receptor_seq,designed_binder_seq,native_binder_seq
16.0,30,40,A,10,GPGSMIAGAALAELEVLGEERGRLEAENERLRAENERLVREARELLRERERLLRE,DAGLDALSSIISRQKQMGQEIGNELDEQNEIIDDLANLVENTDEKLRTEARRVTL,LLLEELERLL,DHLRNKTEDL
31.0,24,44,A,20,GPGSMIAGAALAKVVVLGEERGALLARLEEVVAELAELVEEATELARELRALREE,DAGLDALSSIISRQKQMGQEIGNELDEQNEIIDDLANLVENTDEKLRTEARRVTL,RLGERLEELRGKLEELREEL,ARGENLDHLRNKTEDLEATS
44.0,21,51,A,30,GPGSMAAGAALAKLEVLGEERDALLERLEEVVAELAELARETLELARELAELVRE,DAGLDALSSIISRQKQMGQEIGNELDEQNEIIDDLANLVENTDEKLRTEARRVTL,LLERLGELLEELEGLLEELEEELERLEEEL,RILARGENLDHLRNKTEDLEATSEHFKTTS
53.0,7,47,A,40,GPGSMAAGAALAELLELGRREGARLERERERLAEEAERVREALEEARRLAEELRR,DAGLDALSSIISRQKQMGQEIGNELDEQNEIIDDLANLVENTDEKLRTEARRVTL,EEEEAEEVLRENLRLLEEKGRLLEELEGLREELEEELRRL,EVEGVKNIMTQNVERILARGENLDHLRNKTEDLEATSEHF
63.0,0,50,A,50,GPGSMALGAAVAELLELGRREGARLERERERLAEEAERVRRALEEARRLAEELRR,DAGLDALSSIISRQKQMGQEIGNELDEQNEIIDDLANLVENTDEKLRTEARRVTL,GGEELARLLEEARRVLEENLRLLEEKGRLLEELRGLLEELREELERLREL,RVRNLQSEVEGVKNIMTQNVERILARGENLDHLRNKTEDLEATSEHFKTT
16.0,30,40,B,10,SNAELERLLAELERVLAELERALAELGRLLAELERALAELERALAELERALAEL,RVRNLQSEVEGVKNIMTQNVERILARGENLDHLRNKTEDLEATSEHFKTTSQKV,LLELELERVL,IIDDLANLVE
32.0,34,54,B,20,SNAELERLLAEVDRVTAELDRLEAERGRLEAELDGLLAELEAERARLAAVRAER,RVRNLQSEVEGVKNIMTQNVERILARGENLDHLRNKTEDLEATSEHFKTTSQKV,AAEAARAERERARAEAARLE,LANLVENTDEKLRTEARRVT
47.0,24,54,B,30,SNAELDRLLAELDRVLAANVDLLREQGRLLAELDGLLAELEAEQARLAAVAAET,RVRNLQSEVEGVKNIMTQNVERILARGENLDHLRNKTEDLEATSEHFKTTSQKV,LRERNREIARLAEEARRTLERNRALAALLR,LDEQNEIIDDLANLVENTDEKLRTEARRVT
53.0,10,50,B,40,SNAERARLLAEINRVEAENRRLLEEMGRLKAELNGLEEELRAAEERLRALEEER,RVRNLQSEVEGVKNIMTQNVERILARGENLDHLRNKTEDLEATSEHFKTTSQKV,LEERLEEGRRLRERLEREIERIRERAEEVRRRLEELRRRA,ISRQKQMGQEIGNELDEQNEIIDDLANLVENTDEKLRTEA
65.0,3,53,B,50,SNAELEKLLAEAEKIFAENEKLLAEKGKLLAELNGKLEELKAEQEKLKAKAEKV,RVRNLQSEVEGVKNIMTQNVERILARGENLDHLRNKTEDLEATSEHFKTTSQKV,LEKLKAEVEKLIAEGKKLGEKLKAENEKIAELAKKAEELKKKLEELAKKL,LDALSSIISRQKQMGQEIGNELDEQNEIIDDLANLVENTDEKLRTEARRV
