contacts,cs,ce,Chain,Length,designed_receptor_seq,native_receptor_seq,designed_binder_seq,native_binder_seq
31.0,31,41,A,10,GGMTFETVKQFMRDELDKIDILGRSAKDPEYAEATRQSILSSVYSRERDRTGAYLLAKGFDIKPFLKEIGEAAKAAGLPGTTKDGVFTPSGAGQNPFLSPLISSAASKYPEMFVDKKKQAEFAEYAEKIIMEEVAPLFDNNKMPTPEEFEKKLKEIADKFKEKIP,GSLTNKVVKDFMLQTLNDIDIRGSASKDPAYASQTREAILSAVYSKNKDQCCNLLISKGINIAPFLQEIGEAAKNAGLPGTTKNDVFTPSGAGANPFITPLISSANSKYPRMFINQHQQASFKIYAEKIIMTEVAPLFNECAMPTPQQFQLILENIANKYIQNTP,FKPTIKTDFF,YVPTVFDNYA
50.0,54,74,A,20,MGLTFETVKQFMRDELDRIDILGRSAADPEFAEQTRQAVLSSVYTRELWRTCDLLTALGRDTLPFMREIGEAARAAGLPGRTKRGVFTPDGAGQNPFLPPLMKAARARFPEMFVDRKRQTEFAVFAEAIIMEAVAPLFDDDARPTPEEFEARLRAIADAFIERIP,GSLTNKVVKDFMLQTLNDIDIRGSASKDPAYASQTREAILSAVYSKNKDQCCNLLISKGINIAPFLQEIGEAAKNAGLPGTTKNDVFTPSGAGANPFITPLISSANSKYPRMFINQHQQASFKIYAEKIIMTEVAPLFNECAMPTPQQFQLILENIANKYIQNTP,RVSRAGQSRFDRLLPLADPG,LFDTAGQEDYDRLRPLSYPQ
54.0,37,67,A,30,GGMTKETVQQFMRDVLDEIDILGRSAADPEYAEETRQAILSAVYTRELVRTCVTLLAAGEDILPFMKEIGEAARAAGLPGRTKRDVFTPDGAGQNPFLSPLLVSAATRYPEMFVDVEDQREFALFAEEIIMEEVAPLFDDDAMPTPEEFRARLREIADRYLERVE,GSLTNKVVKDFMLQTLNDIDIRGSASKDPAYASQTREAILSAVYSKNKDQCCNLLISKGINIAPFLQEIGEAAKNAGLPGTTKNDVFTPSGAGANPFITPLISSANSKYPRMFINQHQQASFKIYAEKIIMTEVAPLFNECAMPTPQQFQLILENIANKYIQNTP,GDFAVEVELDGEPHVLIRESRAGTFRFDRL,DNYAVTVMIGGEPYTLGLFDTAGQEDYDRL
80.0,31,71,A,40,GGMTKETVQQFMRDELDRIDIRGRSAADPEFAEQTRQAVLSSVYSRLRDETGALLLARGADIAPFLREIGEAARAAGLPGRTRDGVFTPSGAGQNPFLPPLLVRAATRFPEMFVDRADQREFAEFAEAIIMEEVAPLFDDDARPTPEEFGARLRAIADRFLERVP,GSLTNKVVKDFMLQTLNDIDIRGSASKDPAYASQTREAILSAVYSKNKDQCCNLLISKGINIAPFLQEIGEAAKNAGLPGTTKNDVFTPSGAGANPFITPLISSANSKYPRMFINQHQQASFKIYAEKIIMTEVAPLFNECAMPTPQQFQLILENIANKYIQNTP,FRPVIFRDFAVRVELAGRPHVLVVSDRTGTSEFDRLRPLF,YVPTVFDNYAVTVMIGGEPYTLGLFDTAGQEDYDRLRPLS
87.0,24,74,A,50,GGMTFETVKQFMRDELDRIDIRGRSAADPEFAEQTRQAVLSSVYSRLRDETCETLLAAGRDIAPFLKEIGEAARAAGLPGTTKDGVFTPSGAGQNPFLPPLLKAAATRFPEMFVDEKAQREFAEYAEAIIMEEVAPLFDDDAMPTPEEFRARLQAIADRFLERVP,GSLTNKVVKDFMLQTLNDIDIRGSASKDPAYASQTREAILSAVYSKNKDQCCNLLISKGINIAPFLQEIGEAAKNAGLPGTTKNDVFTPSGAGANPFITPLISSANSKYPRMFINQHQQASFKIYAEKIIMTEVAPLFNECAMPTPQQFQLILENIANKYIQNTP,GEAFPVRYKPTIFRNFAVREERDGRPHVLIRVSTAGTSRFDRLLPLILPG,TNKFPSEYVPTVFDNYAVTVMIGGEPYTLGLFDTAGQEDYDRLRPLSYPQ
35.0,93,103,B,10,MNEIKCVVVGDGAVGKTTLLISYTTNAFPEEYVPTVFENYAVEKEIGGKPYTLGLWDTAGQEDYDRLRPLSYPQTDVFLVCFSVVSPSSFENVREKWVPEITHYCPDTPFLLVGTKIDLRDDPDVVEKLKAKNQKPITPEEAKKLAEELGAVAYVECSALTQEGLNEVFDLAIKAALS,MQTIKCVVVGDGAVGKTCLLISYTTNKFPSEYVPTVFDNYAVTVMIGGEPYTLGLFDTAGQEDYDRLRPLSYPQTDVFLVCFSVVSPSSFENVKEKWVPEITHHCPKTPFLLVGTQIDLRDDPSTIEKLAKNKQKPITPETAEKLARDLKAVKYVECSALTQKGLKNVFDEAILAALE,QDPTLPPEVL,ANPFITPLIS
52.0,91,111,B,20,MNTIKCVVVGDGAVGKTTLLISYTTNAFPEEYVPTVFENYAVRVEIDGKPYVLGLSDTAGQEDYDRLRPLSYPQTDVFLVCFSVVSPSSFENVREKWVPEITHYCPDTPFLLVGTKIDLRDDPDVREKLAAENQKPITPEEAKKLAEELGAVAYVECSAKTREGLDEVFELAVKAALS,MQTIKCVVVGDGAVGKTCLLISYTTNKFPSEYVPTVFDNYAVTVMIGGEPYTLGLFDTAGQEDYDRLRPLSYPQTDVFLVCFSVVSPSSFENVKEKWVPEITHHCPKTPFLLVGTQIDLRDDPSTIEKLAKNKQKPITPETAEKLARDLKAVKYVECSALTQKGLKNVFDEAILAALE,KGANPKDNPKRLEELRKNPK,AGANPFITPLISSANSKYPR
63.0,89,119,B,30,MNTIKCVVVGDGAVGKTTLLISYTTNAFPEEYVPTVFENYAVEKEIDGKPYILGLSDTAGQEDYDRLRPLSYPQTDVFLVCFSVVSPSSFENVREKWVPEITHYCPDTPFLLVGTKIDLRDDPDVREKLAAENQKPITPEEAKKLAEELGAVAYVECSAKTREGLDEVFDLAIKAALS,MQTIKCVVVGDGAVGKTCLLISYTTNKFPSEYVPTVFDNYAVTVMIGGEPYTLGLFDTAGQEDYDRLRPLSYPQTDVFLVCFSVVSPSSFENVKEKWVPEITHHCPKTPFLLVGTQIDLRDDPSTIEKLAKNKQKPITPETAEKLARDLKAVKYVECSALTQKGLKNVFDEAILAALE,NVEGQNPLDPPLLLDAIREKPEEFVDEEDL,SGAGANPFITPLISSANSKYPRMFINQHQQ
66.0,83,123,B,40,MNTIKCVVVGDGAVGKTTLLISYTTNAFPEEYVPTVFENYAVEKEIGGKPYILGLFDTAGQEDYDRLRPLSYPQTDVFLVCFSVVSPSSFENVREKWVPEITHYCPDTPFLLVGTKIDLRDDPDVREELAAEDQEPITPEQAEELAEELGAVAYVECSAKTREGLDEVFDLAIEAALS,MQTIKCVVVGDGAVGKTCLLISYTTNKFPSEYVPTVFDNYAVTVMIGGEPYTLGLFDTAGQEDYDRLRPLSYPQTDVFLVCFSVVSPSSFENVKEKWVPEITHHCPKTPFLLVGTQIDLRDDPSTIEKLAKNKQKPITPETAEKLARDLKAVKYVECSALTQKGLKNVFDEAILAALE,EEEEEPEEEGQNPLLPPLLTSAVREHPEEFVDEEKQREFL,NDVFTPSGAGANPFITPLISSANSKYPRMFINQHQQASFK
67.0,73,123,B,50,MNTIKCVVVGDGAVGKTTLLISYTTNAFPEEYVPTVFENYAVEKEIGGKPYILGLFDTAGQEDYDRLRPLSYPQTDVFLVCFSVVSPSSFENVREKWVPEITHYCPDTPFLLVGTKIDLRDDPDVREKLAAENQKPITPEEAKKLAEELGAVAYVECSAKTREGLDEVFDLAIEAALS,MQTIKCVVVGDGAVGKTCLLISYTTNKFPSEYVPTVFDNYAVTVMIGGEPYTLGLFDTAGQEDYDRLRPLSYPQTDVFLVCFSVVSPSSFENVKEKWVPEITHHCPKTPFLLVGTQIDLRDDPSTIEKLAKNKQKPITPETAEKLARDLKAVKYVECSALTQKGLKNVFDEAILAALE,DEDGNPGYTVDGVFTPDGDGQDPTLTPLLSSAVRENPEEFVDAEKQREFR,KNAGLPGTTKNDVFTPSGAGANPFITPLISSANSKYPRMFINQHQQASFK
