contacts,cs,ce,Chain,Length,designed_receptor_seq,native_receptor_seq,designed_binder_seq,native_binder_seq
9.0,4,14,A,10,MIKPYRGNPFAPALDTPLTNSRLVRLVVGNLPLFRKGWGPFRRGLLVGIAHGFVLILPFVFFGPWANTDVAADGGLITALVVIALYWLGLLTNGLFSFRGGGSATDPLRTRAGWLRFTAGFLVGAVGSAYVAYWLIENWDTVAGLLTGAYG,LVKPYNGDPFVGHLSTPISDSGLVKTFIGNLPAYRQGLSPILRGLEVGMAHGYFLIGPWVKLGPLRDSDVANLGGLISGIALILVATACLAAYGLVSFQKGGSSSDPLKTSEGWSQFTAGFFVGAMGSAFVAFFLLENFLVVDGIMTGLFN,GGPPAFAGAW,GQPPLYGGST
12.0,1,21,A,20,MTKPFRGDPFVGALDTPLTSSRLVRLVVGNLPLFRRGWGPFRRGLLVGVAHGFVLGLPFVFFGPWADTDVAADGALVTALVVIALYWLFLLTNGLFNYRRGGSATDPLHTRRGWLAFTAGFLVGAVGSAYVAYWLLENWDTVAGLLTGAYG,LVKPYNGDPFVGHLSTPISDSGLVKTFIGNLPAYRQGLSPILRGLEVGMAHGYFLIGPWVKLGPLRDSDVANLGGLISGIALILVATACLAAYGLVSFQKGGSSSDPLKTSEGWSQFTAGFFVGAMGSAFVAFFLLENFLVVDGIMTGLFN,AATGAPPAFAGSLDGRGWAD,TLTGQPPLYGGSTGGLLSAA
12.0,0,30,A,30,SVKPFLGDPFVGALDTPLTSSDFVRKFVGNLPLFKKGLDPFTRGLLVGIAHGFVLILPFVFFGPWANTDVAELGGLVTALFVIALYWLGLYTNGLFSFRKGGSETDPLHTREGWLKFTKGFLIGAVGSAFIAFFLLENWDTVKGLLTGKYG,LVKPYNGDPFVGHLSTPISDSGLVKTFIGNLPAYRQGLSPILRGLEVGMAHGYFLIGPWVKLGPLRDSDVANLGGLISGIALILVATACLAAYGLVSFQKGGSSSDPLKTSEGWSQFTAGFFVGAMGSAFVAFFLLENFLVVDGIMTGLFN,VKVTGEPPEFKGSLDGAGIEAFTKETTFTP,TTLTGQPPLYGGSTGGLLSAADTEEKYAIT
13.0,3,43,A,40,SVKPFAGDPFVGALDTPLTSSDFVRAFVGNLPLFREGLDPFVRGLLVGLAHGFVLGLPFYFFGPWAKTDRAEDGALVTALVVIALFWLWHLTWGLFSFREGGSATDPLHTTAGWLQFTAGFLVGAVGSAYVAYWLLRNRARVEGLLTGAFG,LVKPYNGDPFVGHLSTPISDSGLVKTFIGNLPAYRQGLSPILRGLEVGMAHGYFLIGPWVKLGPLRDSDVANLGGLISGIALILVATACLAAYGLVSFQKGGSSSDPLKTSEGWSQFTAGFFVGAMGSAFVAFFLLENFLVVDGIMTGLFN,AGEPPAFAGSLGGRGIAAFTDATATLTFTTPAAAPFTMPF,TGQPPLYGGSTGGLLSAADTEEKYAITWTSPKEQVFEMPT
14.0,6,56,A,50,MTKPFLGDPFVGALDTPLTSSRLVRLVVGNLPLFRPGWGPLRRGLLVGLAHGFVLGLPFYFFGPWADTDRAADGALVTALVVIALYWLFLLAYGLVSFRRGGSATDPLHTRRGWLAFTAGFLVGAVGSAYVAYWLLRNWDTVAGLLTGAYG,LVKPYNGDPFVGHLSTPISDSGLVKTFIGNLPAYRQGLSPILRGLEVGMAHGYFLIGPWVKLGPLRDSDVANLGGLISGIALILVATACLAAYGLVSFQKGGSSSDPLKTSEGWSQFTAGFFVGAMGSAFVAFFLLENFLVVDGIMTGLFN,APVYGGSLGGRGLAALTDATTTVTWTAPAAAPATSPLGGTLTVRAGTNTV,PPLYGGSTGGLLSAADTEEKYAITWTSPKEQVFEMPTAGAAVMREGENLV
15.0,4,14,B,10,MALTGQPPIYKGSTGGLGIAALTEERYAITFTSPEEMEMLSPEGGKMIVQKGKNLIFFQKYEECTEFAEKELYPNNIYDYKIYKILPDGTTTLISPEDGVPPEIYHEGREAVNVVPRKKEERPKKEELKGTGKKPDDP,TTLTGQPPLYGGSTGGLLSAADTEEKYAITWTSPKEQVFEMPTAGAAVMREGENLVYFARKEQCLALAAQQLRPRKINDYKIYRIFPDGETVLIHPKDGVFPEKVNKGREAVNSVPRSIGQNPNPSQLKFTGKKPYDP,KDGNPFWGGK,YNGDPFVGHL
16.0,0,20,B,20,MALTGQPPIYKGSTGGLGIAALTEERYAITFTSPEEMEMLSPEGGKMTVQKGKNLIFFQKYEECMEFAEKELYPRNIFDYKIYKILPDGTTTLISPEDGVDPEKYHEGREAVNVVPRKIEERPKIEELKGTGKKPDDP,TTLTGQPPLYGGSTGGLLSAADTEEKYAITWTSPKEQVFEMPTAGAAVMREGENLVYFARKEQCLALAAQQLRPRKINDYKIYRIFPDGETVLIHPKDGVFPEKVNKGREAVNSVPRSIGQNPNPSQLKFTGKKPYDP,GVKPYKGNPFYGALETPENG,LVKPYNGDPFVGHLSTPISD
16.0,0,30,B,30,MALTGQPPIYKGSTGGLGIAALTEERYAITFTSPEEMEMLMPEGGKMTVQKGKNLIFFQKYEECTEFAEKELYPRNIFDYKIYKILPDGTTTLISPEDGVPPEKYHEGREAVNVVPRKIEERPKIEELKGTGKKPDDP,TTLTGQPPLYGGSTGGLLSAADTEEKYAITWTSPKEQVFEMPTAGAAVMREGENLVYFARKEQCLALAAQQLRPRKINDYKIYRIFPDGETVLIHPKDGVFPEKVNKGREAVNSVPRSIGQNPNPSQLKFTGKKPYDP,GVKPYRGNPFYGALDTPETNSEEVRKKRGR,LVKPYNGDPFVGHLSTPISDSGLVKTFIGN
16.0,0,40,B,40,MALTGQPPIYKGSTGGLGIAAFTEERYAITFTSPEEMEMLMPEGGKMTVRKGKNLIFFQKYEECTEFAEKELYPRNIFDYKIYKILPDGTTTLISPEDGVPPEKYHEGREAVNVVPRKIEERPKIEELKGTGKKPDDP,TTLTGQPPLYGGSTGGLLSAADTEEKYAITWTSPKEQVFEMPTAGAAVMREGENLVYFARKEQCLALAAQQLRPRKINDYKIYRIFPDGETVLIHPKDGVFPEKVNKGREAVNSVPRSIGQNPNPSQLKFTGKKPYDP,KVKPYRGNPFVGALDTPETNSEEVRKKVGNLPEYKKGLKK,LVKPYNGDPFVGHLSTPISDSGLVKTFIGNLPAYRQGLSP
16.0,0,50,B,50,MALTGQPPIYGGSTGGLGIAALTEERYAITFTSPEEMEMLSPEGGKMTVRKGKNLIFFQKYEECMEFAEKELYPRNIFDYKIYKILPDGTTTLISPEDGVPPEKYHEGREAVNVVPRKIEERPKIEELKGTGKKPDDP,TTLTGQPPLYGGSTGGLLSAADTEEKYAITWTSPKEQVFEMPTAGAAVMREGENLVYFARKEQCLALAAQQLRPRKINDYKIYRIFPDGETVLIHPKDGVFPEKVNKGREAVNSVPRSIGQNPNPSQLKFTGKKPYDP,GVKPYRGNPFVGALDTPETNSEEVRKYVGNLPAFKEGWDPEKRAEEIAKG,LVKPYNGDPFVGHLSTPISDSGLVKTFIGNLPAYRQGLSPILRGLEVGMA
