contacts,cs,ce,Chain,Length,designed_receptor_seq,native_receptor_seq,designed_binder_seq,native_binder_seq
39.0,1,11,A,10,GPLSARRLFGPVDEAAAAAAAAAAAAAAAAAADERYGFDFAANRPRAGRWAWRAVPNGAVPAAYWRPPA,KPSACRNLFGPVDHEELTRDLEKHCRDMEEASQRKWNFDFQNHKPLEGKYEWQEVEKGSLPEFYYRPPR,AAGTTWVAEP,TYGVVYKARN
47.0,1,21,A,20,GPLGSVSLFGPVDVEAEAARRREEEARRREEEDRRYGFDFARRRPVAGRWRWEAVPRGEVPAYYWRPPR,KPSACRNLFGPVDHEELTRDLEKHCRDMEEASQRKWNFDFQNHKPLEGKYEWQEVEKGSLPEFYYRPPR,RRGRVWVARREGEGGVVYLR,TYGVVYKARNKLTGEVVALK
50.0,0,30,A,30,GPLGSVLLNGPVDLEAEAERLRRELEEAREEEDRRYGFDFRRRRPLRGRWRWEAVENGAVPAALWRPPE,KPSACRNLFGPVDHEELTRDLEKHCRDMEEASQRKWNFDFQNHKPLEGKYEWQEVEKGSLPEFYYRPPR,EEEGVTWVARREGEGGVVALREWELPLLEE,GTYGVVYKARNKLTGEVVALKKIRLDTETE
54.0,0,40,A,40,GPLGSVLLNGPVDLEAEAERLRAELAAARAELDERYSFDFARRRPRRGRWRWEAVERGAVPAALWRPPG,KPSACRNLFGPVDHEELTRDLEKHCRDMEEASQRKWNFDFQNHKPLEGKYEWQEVEKGSLPEFYYRPPR,AAAGRVWRARRAGAGGEVYLREWELPLLRGGVPEELRREL,GTYGVVYKARNKLTGEVVALKKIRLDTETEGVPSTAIREI
54.0,0,50,A,50,GPLGSVLLNGPVDVEAAVERARAAAAAARAEVDERYSFDFARRRPRAGRWRWEAVENGAVPAALWRPPR,KPSACRNLFGPVDHEELTRDLEKHCRDMEEASQRKWNFDFQNHKPLEGKYEWQEVEKGSLPEFYYRPPR,AAAGRTWVARRAGAGGEVALREWRLPLLRDGVPEEVRREVAEALRRARPG,GTYGVVYKARNKLTGEVVALKKIRLDTETEGVPSTAIREISLLKELNHPN
38.0,54,64,B,10,GSSGVVELEEDEEEGGVVALKVLKLDLEEEGVPITALREISLLKELQHPNIVRLKDVFHTTNRLYLVFEYLDTDLKKYMKATKKLGIPEPEIKSYIYQLLRGLAFCHENFVLHRDLKPQNLLINKEGYVKLADFGLARAFGIPVKTYTFVVTLWYRAPELLLGAKVYSTAIDMWSLGCIFAEMATTKPLFPGDSEIDQLFKIFRTLGTPNEEIWPGVSSMPDYSPDFPKFERQDFSTVVPPLDENGRDLLQRMLTYDPAKRITAREALSHPYFADVTQPKPSIEL,GTYGVVYKARNKLTGEVVALKKIRLDTETEGVPSTAIREISLLKELNHPNIVKLLDVIHTENKLYLVFEFLHQDLKKFMDASALTGIPLPLIKSYLFQLLQGLAFCHSHRVLHRDLKPQNLLINTEGAIKLADFGLARAFGVPVRTYHEVVTLWYRAPEILLGCKYYSTAVDIWSLGCIFAEMVTRRALFPGDSEIDQLFRIFRTLGTPDEVVWPGVTSMPDYKPSFPKWARQDFSKVVPPLDEDGRSLLSQMLHYDPNKRISAKAALAHPFFQDVTKPVPHLRL,VPRHLVPSVF,VEKGSLPEFY
66.0,48,68,B,20,GSHGSVELAEDSSSGGRVALKVLKLDLEEEGVPITALREISLLKQLQHPNIVRLLDVFHTTSRLYLVFEYLDTDLKKYMKATKKLGIPEPEIKSYLYQLLRGLAFCHENFVLHRDLKPQNLLINSKGDVKLADFGLARAFGIPVKTYTFVVTLWYRAPELLLGAKVYSTAIDMWSLGCIFAELATTKPLFPGDSEIDQLFKIFRTLGTPNEEIWPGVSSMPDYSPDFPKFERQDFSTVVPPLDENGRDLLQRMLTYDPAKRITAREALSHPYFADVTQPKPSIEL,GTYGVVYKARNKLTGEVVALKKIRLDTETEGVPSTAIREISLLKELNHPNIVKLLDVIHTENKLYLVFEFLHQDLKKFMDASALTGIPLPLIKSYLFQLLQGLAFCHSHRVLHRDLKPQNLLINTEGAIKLADFGLARAFGVPVRTYHEVVTLWYRAPEILLGCKYYSTAVDIWSLGCIFAEMVTRRALFPGDSEIDQLFRIFRTLGTPDEVVWPGVTSMPDYKPSFPKWARQDFSKVVPPLDEDGRSLLSQMLHYDPNKRISAKAALAHPFFQDVTKPVPHLRL,PLKRTLVDCKDIPSFYYSPP,KYEWQEVEKGSLPEFYYRPP
77.0,35,65,B,30,GSHGFVWLAEDSSSGNKVALKVLKLDLEEEGVPITALREISLLKQLQHPNIVRLLDVVHTSNRLYLVFEYLDTDLKKYMKATKNLGIPEPEIKSYIYQLLRGLAFCHENFVLHRDLKPQNLLINSKGDVKLADFGLARAFGIPVKTYTFVVTLWYRAPELLLGAKVYSTAIDMWSLGCIFAELATTKPLFPGDSEIDQLFKIFRTLGTPNEEIWPGVSSMPDYSPDFPKFERQDFSTVVPPLDDNGRDLLQKMLTYDPAKRITAREALSHPYFADVTQPKPSIEL,GTYGVVYKARNKLTGEVVALKKIRLDTETEGVPSTAIREISLLKELNHPNIVKLLDVIHTENKLYLVFEFLHQDLKKFMDASALTGIPLPLIKSYLFQLLQGLAFCHSHRVLHRDLKPQNLLINTEGAIKLADFGLARAFGVPVRTYHEVVTLWYRAPEILLGCKYYSTAVDIWSLGCIFAEMVTRRALFPGDSEIDQLFRIFRTLGTPDEVVWPGVTSMPDYKPSFPKWARQDFSKVVPPLDEDGRSLLSQMLHYDPNKRISAKAALAHPFFQDVTKPVPHLRL,IDFDFENDEPLSGKYKWTKVNTKDVPSFYF,WNFDFQNHKPLEGKYEWQEVEKGSLPEFYY
88.0,28,68,B,40,GSHGFVWLAENEATGERVALKVLKLDLEEEGVPITALREISLLKQLQHPNIVRLLDVVHTENRLYLVFEYLDTDLKKYMKATKKLGIPEPEIKSYLYQLLRGLAFCHENFVLHRDLKPQNLLINSKGDVKLADFGLARAFGIPVKTYTFVVTLWYRAPELLLGAKVYSTAVDMWSLGCIFAELATTKPLFPGDSELDQLFKIFRTLGTPNEEIWPGVSSMPDYSPDFPKFERQDFSTVVPPLDENGRDLLQRMLTYDPAKRITAREALSHPYFADVTQPKPSIEL,GTYGVVYKARNKLTGEVVALKKIRLDTETEGVPSTAIREISLLKELNHPNIVKLLDVIHTENKLYLVFEFLHQDLKKFMDASALTGIPLPLIKSYLFQLLQGLAFCHSHRVLHRDLKPQNLLINTEGAIKLADFGLARAFGVPVRTYHEVVTLWYRAPEILLGCKYYSTAVDIWSLGCIFAEMVTRRALFPGDSEIDQLFRIFRTLGTPDEVVWPGVTSMPDYKPSFPKWARQDFSKVVPPLDEDGRSLLSQMLHYDPNKRISAKAALAHPFFQDVTKPVPHLRL,PPEADEKYCFDFKNDKPLKGKFKWTAVENSKIPSFYHMPP,EEASQRKWNFDFQNHKPLEGKYEWQEVEKGSLPEFYYRPP
93.0,18,68,B,50,GSHGSVWLAENEATGERVALKVLKLDLEEEGVPITALREISLLQQLQHPNIVRLLDVVHTEDKLYLVFEYLDTDLKKYMKATKKLGIPEPEIKSYIYQLLRGLAFCHENFVLHRDLKPQNLLINSKGDVKLADFGLARAFGIPVKTYTFVVTLWYRAPELLLGAKVYSTAVDMWSLGCIFAELATTKPLFPGDSEIDQLFKIFRTLGTPNEEIWPGVSSMPDYSPDFPKFERQDFSTVVPPLDDNGRDLLQKMLTYDPAKRITAREALSHPYFADVTQPKPSIEL,GTYGVVYKARNKLTGEVVALKKIRLDTETEGVPSTAIREISLLKELNHPNIVKLLDVIHTENKLYLVFEFLHQDLKKFMDASALTGIPLPLIKSYLFQLLQGLAFCHSHRVLHRDLKPQNLLINTEGAIKLADFGLARAFGVPVRTYHEVVTLWYRAPEILLGCKYYSTAVDIWSLGCIFAEMVTRRALFPGDSEIDQLFRIFRTLGTPDEVVWPGVTSMPDYKPSFPKWARQDFSKVVPPLDEDGRSLLSQMLHYDPNKRISAKAALAHPFFQDVTKPVPHLRL,PPPPPPPPPPPPPSDEKYNFDFKNDKPLDGKWKWTAVDNKDIPSFYHMPP,RDLEKHCRDMEEASQRKWNFDFQNHKPLEGKYEWQEVEKGSLPEFYYRPP
