contacts,cs,ce,Chain,Length,designed_receptor_seq,native_receptor_seq,designed_binder_seq,native_binder_seq
26.0,175,185,A,10,GMDDEPFLNEVEKKLEEALKLEKVESEVFPNAELPEVVFRLVPENLGEPVEVSKDEEVRVLIESSKNAVRISIAIRKPDELSEVLCDLLTRFLERRAEELNILLREPVEGFDISFLITWRHTKNLDPEKLVEFVIFFIKEIDRFIEEAEKGIHEVAKKAAEAIRSRG,TATLRPYLSAVRATLQAALCLENFSSQVVERHNKPEVEVRSSKELLLQPVTISRNEKEKVLIEGSINSVRVSIAVKQADEIEKILCHKFMRFMMMRAENFFILRRKPVEGYDISFLITNFHTEQMYKHKLVDFVIHFMEEIDKEISEMKLSVNARARIVAEEFLKNF,AFAGVLLEEL,VIGKVFMQEF
44.0,261,281,A,20,GMDDEPFLNEVEKKLEEALKLEKVECEVHPNAECPCVVCRLVPEHLGEPVEVSKDEKVKVLIESSKNAVRISIAIEKPDLMSEILCASFTKFIEDRAEEFDIFLREAVPGYDISFLITWEHTKNHDPKKLVDFIIYFIKEIGKVIELAKIGILAEAVKAVAEKASKE,TATLRPYLSAVRATLQAALCLENFSSQVVERHNKPEVEVRSSKELLLQPVTISRNEKEKVLIEGSINSVRVSIAVKQADEIEKILCHKFMRFMMMRAENFFILRRKPVEGYDISFLITNFHTEQMYKHKLVDFVIHFMEEIDKEISEMKLSVNARARIVAEEFLKNF,VKEIFEKVTEKYLKVLESSK,IHTRMRAKTSDFLKVLNRAR
56.0,252,282,A,30,GMDDEPFLNEVEKKLEEALKLEKVESEVFPNAELPEVVFRLVPENLGEPVEVSKDENVKVLIESSKNAVRISIAIEKPDFLSEVLCARFTKFIEDRAEEFDIFLREAVPGYDISFLITWEHTKNRDPKKLVDFIIYFIKEIGKTIEEARKLVLEKAKEAVEKVLSKL,TATLRPYLSAVRATLQAALCLENFSSQVVERHNKPEVEVRSSKELLLQPVTISRNEKEKVLIEGSINSVRVSIAVKQADEIEKILCHKFMRFMMMRAENFFILRRKPVEGYDISFLITNFHTEQMYKHKLVDFVIHFMEEIDKEISEMKLSVNARARIVAEEFLKNF,KFKEEMEKEIDKVFEEVTEKYLKILESTKP,YHIKCSKAYIHTRMRAKTSDFLKVLNRARP
61.0,242,282,A,40,GMDDEPFLNEVEKKLEEALKLEKVESEVFPNAELPEVVFRLVPENLGEPVEVSKDEEVKVLIESSKNAVRISIAIRKPDLLSEILCARFTRFIERRAKEFDIFLREAVPGYDISFLITWEHTKNHDPKKLVDFIIYFIKEIDRVIDEAEKLVYERAKEVIEEYLSKL,TATLRPYLSAVRATLQAALCLENFSSQVVERHNKPEVEVRSSKELLLQPVTISRNEKEKVLIEGSINSVRVSIAVKQADEIEKILCHKFMRFMMMRAENFFILRRKPVEGYDISFLITNFHTEQMYKHKLVDFVIHFMEEIDKEISEMKLSVNARARIVAEEFLKNF,LLEGLEEYILENIEKTIEEIDKVFEEVTERFLEILESTKP,LIHTFRDYLHYHIKCSKAYIHTRMRAKTSDFLKVLNRARP
65.0,232,282,A,50,GMDDEPFLNEVEKKLKEALKLKKVESEVFPNAELPEVVFRKVPENLGEPVEVSKDEKVKVLIESSVNAVRISIAIEKPDLISEILCARFTKFIEERAEEFDIFLREAVPGYDISFLITWEHTKNRDPEKLVDFIIYFIKEINKVIEEARKLVLEKAKEIVKEFASKF,TATLRPYLSAVRATLQAALCLENFSSQVVERHNKPEVEVRSSKELLLQPVTISRNEKEKVLIEGSINSVRVSIAVKQADEIEKILCHKFMRFMMMRAENFFILRRKPVEGYDISFLITNFHTEQMYKHKLVDFVIHFMEEIDKEISEMKLSVNARARIVAEEFLKNF,SEENLENGLKLITGLKDYILKNIEETIKEIDKVFEEVTSKYLEILESTKP,NASARDNTINLIHTFRDYLHYHIKCSKAYIHTRMRAKTSDFLKVLNRARP
36.0,154,164,B,10,GMLLKVENEIISSTLRDRFLRAKAGDEPLAVDVRFGDRYGARYHIDNPDGDTRLVRVSIALDYYDQLAEHGADELLREIYGDLLVEPEEGYNVSLLFDLDDLPEDTEAIVETASRLKFNCYASVYRKYFRYQRLGIEGVEPARIDFEPDETMYIESFEDRVTVVFEMLFGEPEDVVIGKRFLREFRRGRLFKPDAPLFGFRHAEAFPELADTDARVGPQVGYVRAVLFDRHTNDEAEEGTIAKITLFADYLKYHIREYKKAVDEVNRALTSARDRILRSLDPGG,MILLEVNNRIIEETLALKFENAAAGNKPEAVEVTFADFDGVLYHISNPNGDKTKVMVSISLKFYKELQAHGADELLKRVYGSYLVNPESGYNVSLLYDLENLPASKDSIVHQAGMLKRNCFASVFEKYFQFQEEGKEGENRAVIHYRDDETMYVESKKDRVTVVFSTVFKDDDDVVIGKVFMQEFKEGRRASHTAPQVLFSHREPPLELKDTDAAVGDNIGYITFVLFPRHTNASARDNTINLIHTFRDYLHYHIKCSKAYIHTRMRAKTSDFLKVLNRARPDA,LAREVARTFL,RARIVAEEFL
54.0,146,166,B,20,GMLLKVENEIISSTLRDRFLRAKAGDEPLAVDVRFGDRYGARYHIDNPDGDTRLVRVSIALDYYDQLAEHGADELLREIYGDLLVEPEPGYNVSLLFDLDDLPEDTEAIVETASRLKFNCYASVYRKYFRYQRLGIEGVEPARIDFEPDETMYIESFEDRVTVTFEMLFGDPEDVEIGKIFLREFRRGRLFAPDAPLVGFRHAEAFPELADTDARVGPQVGYVRFVLYDRHTNDEAEEGTIALITQFAAYLKYHIRETKREVDRVRVELTSALLRVLESLRPGG,MILLEVNNRIIEETLALKFENAAAGNKPEAVEVTFADFDGVLYHISNPNGDKTKVMVSISLKFYKELQAHGADELLKRVYGSYLVNPESGYNVSLLYDLENLPASKDSIVHQAGMLKRNCFASVFEKYFQFQEEGKEGENRAVIHYRDDETMYVESKKDRVTVVFSTVFKDDDDVVIGKVFMQEFKEGRRASHTAPQVLFSHREPPLELKDTDAAVGDNIGYITFVLFPRHTNASARDNTINLIHTFRDYLHYHIKCSKAYIHTRMRAKTSDFLKVLNRARPDA,AVRELVEERAREVAREFLTR,EMKLSVNARARIVAEEFLKN
59.0,136,166,B,30,GMLLKVENEIISSTLRNRFLNAKAGNEPEAVDVRFGDRYGARYHIDNPDGDTNLVRVSIALDYYDQLAEHGADELLKEIYGDLLVEPEEGYNVSLLFDLNNLPEDTEAIVEKASRLKFNCYASVYRKYFKYQREGKTGVEPARIDFEKDETMYIKSYADRVTVDFEMLFGDPEDVKIGKIFLKEFEKGRKYVPTAPLVGYNHAKAFPELADTDARVGPNIGYVRFVLYDRHTNDEAEEKTIELITEFADYLKYHIKETKKEVEKVNEAVTSAYKKVEESLKPGK,MILLEVNNRIIEETLALKFENAAAGNKPEAVEVTFADFDGVLYHISNPNGDKTKVMVSISLKFYKELQAHGADELLKRVYGSYLVNPESGYNVSLLYDLENLPASKDSIVHQAGMLKRNCFASVFEKYFQFQEEGKEGENRAVIHYRDDETMYVESKKDRVTVVFSTVFKDDDDVVIGKVFMQEFKEGRRASHTAPQVLFSHREPPLELKDTDAAVGDNIGYITFVLFPRHTNASARDNTINLIHTFRDYLHYHIKCSKAYIHTRMRAKTSDFLKVLNRARPDA,LEKLKKEVEKLKEELVNKKAKEVAKEFLSR,FMEEIDKEISEMKLSVNARARIVAEEFLKN
68.0,124,164,B,40,GMLLKVENEIISSTLRNRFENAKAGNEPEAVDVRFGDRYGARYHIDNPDGDTNLVRVSIALDYYDQLAEHGADELLKEIYGDLLVEPEEGYNVSLLFDLNNLPEDTEAIVEKASRLKFNCYASVYKKYFKYQAEGKEGVEYARIDFEKNETMYIKSYKDRVTVDFEMLFGDPEDVKIGKIFLKEFEKGREYKPDAPLFGYNHNKAFPELADTDAKVGPNIGYVRAVLYPKHTNDEAEDETIKKITLFADYLKYHIKETKKEVEKINEEVTSAYKKVLESTKPGK,MILLEVNNRIIEETLALKFENAAAGNKPEAVEVTFADFDGVLYHISNPNGDKTKVMVSISLKFYKELQAHGADELLKRVYGSYLVNPESGYNVSLLYDLENLPASKDSIVHQAGMLKRNCFASVFEKYFQFQEEGKEGENRAVIHYRDDETMYVESKKDRVTVVFSTVFKDDDDVVIGKVFMQEFKEGRRASHTAPQVLFSHREPPLELKDTDAAVGDNIGYITFVLFPRHTNASARDNTINLIHTFRDYLHYHIKCSKAYIHTRMRAKTSDFLKVLNRARPDA,RDPKKIGDFYKYYAEQIKKTKEETEKLVNEKAKEVAKEFL,MYKHKLVDFVIHFMEEIDKEISEMKLSVNARARIVAEEFL
76.0,116,166,B,50,GMLLKVENEIISSTLRNRFENAKAGNEPEAVDVRFGDRYGARYHIDNPDGDTNLVRVSIALDYYDQLAEHGADELLKEIYGDLLVEPEEGYNVSLLFDLNNLPEDTEAIVEKASRLKFNCYASVYKKYFKYQAEGKEGVEYARIDFEKDETMYIKSYKDRVTVDFEMLFGEPEDVKIGKIFLEEFKKGREYVPEAPLVGYNHNKAFPELDDTDARVGPNIGYVRFVLYPKHTNDEAEEKTIELITEFADYLKYHIRETKKEVEKINEEVTSAYKKVLESTKPGK,MILLEVNNRIIEETLALKFENAAAGNKPEAVEVTFADFDGVLYHISNPNGDKTKVMVSISLKFYKELQAHGADELLKRVYGSYLVNPESGYNVSLLYDLENLPASKDSIVHQAGMLKRNCFASVFEKYFQFQEEGKEGENRAVIHYRDDETMYVESKKDRVTVVFSTVFKDDDDVVIGKVFMQEFKEGRRASHTAPQVLFSHREPPLELKDTDAAVGDNIGYITFVLFPRHTNASARDNTINLIHTFRDYLHYHIKCSKAYIHTRMRAKTSDFLKVLNRARPDA,ITPEITKNHDPKKIGDFFVYYAKEIKKTKEETEKLVHEKAKEVAKEFLSK,ITNFHTEQMYKHKLVDFVIHFMEEIDKEISEMKLSVNARARIVAEEFLKN
