contacts,cs,ce,Chain,Length,designed_receptor_seq,native_receptor_seq,designed_binder_seq,native_binder_seq
13.0,9,19,A,10,MERVLHGVLVEIYGLGVLITGKSGVGKSETALELVKRGHRLIADDAVVVRRLDEERIEGRAPPILRHLLEIRGLGIVDVKELFGEGAVAPSSVIDLIVHLEEWRPEREFDRLGLEEETRMILDVPIPLVRIPVRPGRNLAVIIEVAALNFKLKRLGYDPAEELERLLRENLRLREE,ERRSMHGVLVDIYGLGVLITGDSGVGKSETALELVQRGHRLIADDRVDVYQQDEQTIVGAAPPILSHLLEIRGLGIIDVMNLFGAGAVREDTTISLIVHLENWTPDKTFDRLGSGEQTQLIFDVPVPKITVPVKVGRNLAIIIEVAAMNFRAKSMGYDATKTFEKNLNHLIEHNEE,LGGLGLEPLL,DSGIHARPAT
15.0,3,23,A,20,MEKVLHGVLVEILGLGVLITGKSGVGKSETALELVKRGHRLIADDAVVVRRLDEERIEGRAPPILRHLLEIRGLGIVDVKELFGEGAVAPSSVIDLIVHLEEWRPEREFDRLGLEEETRMILDVPIPLVRIPVRPGRNLAVEIEVAALNFKLKRLGYDPAEILERLEREVIELFRR,ERRSMHGVLVDIYGLGVLITGDSGVGKSETALELVQRGHRLIADDRVDVYQQDEQTIVGAAPPILSHLLEIRGLGIIDVMNLFGAGAVREDTTISLIVHLENWTPDKTFDRLGSGEQTQLIFDVPVPKITVPVKVGRNLAIIIEVAAMNFRAKSMGYDATKTFEKNLNHLIEHNEE,EVEVRLREGIGRRPLLRLLE,TFKVTADSGIHARPATVLVQ
15.0,0,30,A,30,MERVLHGVLVEILGLGVLITGKSGVGKSETALELVKRGHRLIADDAVVVRRLDEERIEGRAPPILRHLLEIRGLGIVDVKELFGEGAVAPSSVIDLIVHLEEWRPEREFDRLGLEEETRMILDVPIPLVRIPVRPGRNLAVEIEVAALNFKLKRLGYDPAEILERELRRLLEEGRR,ERRSMHGVLVDIYGLGVLITGDSGVGKSETALELVQRGHRLIADDRVDVYQQDEQTIVGAAPPILSHLLEIRGLGIIDVMNLFGAGAVREDTTISLIVHLENWTPDKTFDRLGSGEQTQLIFDVPVPKITVPVKVGRNLAIIIEVAAMNFRAKSMGYDATKTFEKNLNHLIEHNEE,RRVRFRVEAEEGIGRRPLLRLLELLARLEG,AQKTFKVTADSGIHARPATVLVQTASKYDA
17.0,9,49,A,40,MERVLHGVLVEILGLGVLITGESGVGKSETALELVKRGHRLVADDAVVVRRLDEERIEGRAPPILRHLLEIRGLGIVDVRELFGEGAVAPSRVIDLIVELVRWEPGVEFDRVGLEEEVRLILDVPIPLVRIPVAPGRNLAVLIEVAALNFLLKRLGYDPARVFERLLREALRLGRE,ERRSMHGVLVDIYGLGVLITGDSGVGKSETALELVQRGHRLIADDRVDVYQQDEQTIVGAAPPILSHLLEIRGLGIIDVMNLFGAGAVREDTTISLIVHLENWTPDKTFDRLGSGEQTQLIFDVPVPKITVPVKVGRNLAIIIEVAAMNFRAKSMGYDATKTFEKNLNHLIEHNEE,GGGVGLLPALVLSRLASRTEREVRVEVEGRVVDAKLPELL,DSGIHARPATVLVQTASKYDADVNLEYNGKTVNLKIMGVM
25.0,7,57,A,50,MEKVLHGVLVEILGLGVLIRGKSGVGKSETALELVKRGHRLIADDAVVVRRLDEERIEGRAPPILRHLLEIRGLGIVDVKELFGEGAVAPSSVIDLIVELVEWRPEVEFDRLGLEEETEEILDVPIPLVRIPVRPGRNLALIIEVAALNFKLKRLGYDPAEIEERLLRELIERNRR,ERRSMHGVLVDIYGLGVLITGDSGVGKSETALELVQRGHRLIADDRVDVYQQDEQTIVGAAPPILSHLLEIRGLGIIDVMNLFGAGAVREDTTISLIVHLENWTPDKTFDRLGSGEQTQLIFDVPVPKITVPVKVGRNLAIIIEVAAMNFRAKSMGYDATKTFEKNLNHLIEHNEE,ELEEGIGRRPALRLARLASRTEREIRVEYRGRVVDAKLPEILSLGIAPGD,TADSGIHARPATVLVQTASKYDADVNLEYNGKTVNLKIMGVMSLGIAKGA
16.0,165,175,B,10,MEKTFTVTNKKGIHARPAAALVKTASKFSAEITLTYKGKTVNLKMMDVMSLGIAKGAKITISAKGEDEEAAIAALEKEMADQKIGE,AQKTFKVTADSGIHARPATVLVQTASKYDADVNLEYNGKTVNLKIMGVMSLGIAKGAEITISASGADENDALNALEETMKSERLGE,EIMELIKKNK,NLNHLIEHNE
18.0,155,175,B,20,MEKTFTVTNEKGIHARPAAALVKTASKFEAEITLTYKGKTVNLKMMDVMSLGIAKGAEITISAKGEDEEAAIAALEKEMADQKIGE,AQKTFKVTADSGIHARPATVLVQTASKYDADVNLEYNGKTVNLKIMGVMSLGIAKGAEITISASGADENDALNALEETMKSERLGE,EDDPIGEFMKNLKKLIEENK,GYDATKTFEKNLNHLIEHNE
18.0,145,175,B,30,MEKTFTVTNEKGIHARPAAALVKTASKFEAEVTLTYKGKTVNLKMPDVMSLGIAKGAEITVSAKGEDEEAAIAALEKEMADLKIGE,AQKTFKVTADSGIHARPATVLVQTASKYDADVNLEYNGKTVNLKIMGVMSLGIAKGAEITISASGADENDALNALEETMKSERLGE,EKKEEELIKKGFDPVKEFMKNLKKLIEKNK,AAMNFRAKSMGYDATKTFEKNLNHLIEHNE
18.0,135,175,B,40,MEKTFTVTAEKGIHARPAAALVATASKFSAEVTLTYKGKTVNLKMPDVMSLGIAKGAEITVSAKGEDEEAALAALEKEMADKKIGE,AQKTFKVTADSGIHARPATVLVQTASKYDADVNLEYNGKTVNLKIMGVMSLGIAKGAEITISASGADENDALNALEETMKSERLGE,GFDEAKFAELAKKVEEAKKAGKDPVAEFMKNLKKLIEENK,GRNLAIIIEVAAMNFRAKSMGYDATKTFEKNLNHLIEHNE
18.0,125,175,B,50,MEKTFTVTAEKGIHARPAAALVKTASKFSAEITLTYKGKTVNLKMPDVMSLGIAKGAEITISAKGEDEEAAIAALEKEMADLKIGE,AQKTFKVTADSGIHARPATVLVQTASKYDADVNLEYNGKTVNLKIMGVMSLGIAKGAEITISASGADENDALNALEETMKSERLGE,KPVVTIPVKPGVDLKKYIEEAKKVYEDIKKGKDPVKEFMKNLKKLIEENK,VPKITVPVKVGRNLAIIIEVAAMNFRAKSMGYDATKTFEKNLNHLIEHNE
