contacts,cs,ce,Chain,Length,designed_receptor_seq,native_receptor_seq,designed_binder_seq,native_binder_seq
24.0,59,69,A,10,SNAGAISQETRDKIIEAFKNKKSKLN,SPKGSISEETKQKLKSAILSAQSAAN,NPNEVLAGLV,DMDRVLLKYT
33.0,57,77,A,20,SNAGEISEETRQKLIDAYNNGTSALN,SPKGSISEETKQKLKSAILSAQSAAN,GVDPNEVVAKLTEFKEPVKK,STDMDRVLLKYTEYSEPHES
33.0,47,77,A,30,SNAGEISEETRQKLIDAIKNKKSALN,SPKGSISEETKQKLKSAILSAQSAAN,DKNNKVYFYAKDNLNKVLEELTKYKEPKKK,NSANRLFQYASTDMDRVLLKYTEYSEPHES
33.0,37,77,A,40,SNAGEISEETRQKLIDAIKNKKSALN,SPKGSISEETKQKLKSAILSAQSAAN,EGIEVAVIILDKDNKLYTYASKDLNKILSELTKYEKPLIK,CDCEIALIIFNSANRLFQYASTDMDRVLLKYTEYSEPHES
33.0,27,77,A,50,SNAGEISEETRNKLIDAIKNKKSLLN,SPKGSISEETKQKLKSAILSAQSAAN,INKAKEISEKYNVEIAVIIYDKNNKLYTYASTNLNKIISELTKYKKPKIK,MKKAYELSVLCDCEIALIIFNSANRLFQYASTDMDRVLLKYTEYSEPHES
16.0,4,14,B,10,GSHMAKIEKIKNAKERKIAFRRRKKGLFDKAKELSENFDVEIAVLIYDEEKKLYSYASTDLNKILSKLSEYKKPDLELTPEDIEKIIEKAGKE,GRKKIQISRILDQRNRQVTFTKRKFGLMKKAYELSVLCDCEIALIIFNSANRLFQYASTDMDRVLLKYTEYSEPHESRTNTDILETLKRRGIG,KISKETYEKL,SISEETKQKL
28.0,4,24,B,20,GSHMAKIEKIENAKERKIAFRRRKKGLFDKAKELSENFNVEIAVLIFDEENKLYTYASTDLNKILSKLTEYKKPELKITKKDIEEAIKKAGKK,GRKKIQISRILDQRNRQVTFTKRKFGLMKKAYELSVLCDCEIALIIFNSANRLFQYASTDMDRVLLKYTEYSEPHESRTNTDILETLKRRGIG,KISKKTEEKLIEKIKNKELA,SISEETKQKLKSAILSAQSA
0.0,0,0,B,0,MSLKRKLEKIENAKEREIAFRRYKKGLFDKAEKLSLLLDVEIAVVVYDSKKRLFTYASSDLSKIISRLTEYKKPKLELTPEDIEKAIEKAGKE,GRKKIQISRILDQRNRQVTFTKRKFGLMKKAYELSVLCDCEIALIIFNSANRLFQYASTDMDRVLLKYTEYSEPHESRTNTDILETLKRRGIG,MSLKRKLEKIENAKEREIAFRRYKKGLFDKAEKLSLLLDVEIAVVVYDSKKRLFTYASSDLSKIISRLTEYKKPKLELTPEDIEKAIEKAGKELEKLKKELEK,
0.0,0,0,B,0,MSLKRKLEKIENAKEREIAFRRYKKGLFDKAEKLSLLLDVEIAVVVYDSKKRLFTYASSDLSKIISRLTEYKKPKLELTPEDIEKAIEKAGKE,GRKKIQISRILDQRNRQVTFTKRKFGLMKKAYELSVLCDCEIALIIFNSANRLFQYASTDMDRVLLKYTEYSEPHESRTNTDILETLKRRGIG,MSLKRKLEKIENAKEREIAFRRYKKGLFDKAEKLSLLLDVEIAVVVYDSKKRLFTYASSDLSKIISRLTEYKKPKLELTPEDIEKAIEKAGKELEKLKKELEK,
0.0,0,0,B,0,MSLKRKLEKIENAKEREIAFRRYKKGLFDKAEKLSLLLDVEIAVVVYDSKKRLFTYASSDLSKIISRLTEYKKPKLELTPEDIEKAIEKAGKE,GRKKIQISRILDQRNRQVTFTKRKFGLMKKAYELSVLCDCEIALIIFNSANRLFQYASTDMDRVLLKYTEYSEPHESRTNTDILETLKRRGIG,MSLKRKLEKIENAKEREIAFRRYKKGLFDKAEKLSLLLDVEIAVVVYDSKKRLFTYASSDLSKIISRLTEYKKPKLELTPEDIEKAIEKAGKELEKLKKELEK,
