contacts,cs,ce,Chain,Length,designed_receptor_seq,native_receptor_seq,designed_binder_seq,native_binder_seq
16.0,20,30,A,10,ETYLLFAQRGRIMKLPLVDDVMQKEKAEVFVEIPESTIVGLAFECRTQTVYWTDISRPSIGKASLEGGKPEVIIRENLGRPTGIALDWIGRKIFWTDSELHRIEVADLDGTNRKVLFGEGLVWPRGIVTDPVNGMLYWTDWDREKPKIEMANMDGTNRRVLLKENLGWPNGLTYEARSRRLCWVDAGTHGIECVNPETPGKRLRIEGVKWPGAVTSLGEYLYYTDWKTRSVIKVHIETKTVVDRFYPPDRTTLYGITIAYPSC,GTHLLFAQTGKIERLPLERNTMKKTEAKAFLHIPAKVIIGLAFDCVDKVVYWTDISEPSIGRASLHGGEPTTIIRQDLGSPEGIALDHLGRTIFWTDSQLDRIEVAKMDGTQRRVLFDTGLVNPRGIVTDPVRGNLYWTDWNRDNPKIETSHMDGTNRRILAQDNLGLPNGLTFDAFSSQLCWVDAGTHRAECLNPAQPGRRKVLEGLQYPFAVTSYGKNLYYTDWKTNSVIAMDLAISKEMDTFHPHKQTRLYGITIALSQC,VPGRLPPGSY,VCTHCPTGTA
28.0,19,39,A,20,ETYLLFAQTGRIEKLPLVDDVMQKEKAETFVSIPESTIVGLAFECRTQTVYWTDISRPSIGKASLEGGKPEVIIRENLGRPTGIALDWIGRKIFWTDSELHRIEVADLDGTNRKVLFGEGLVWPRGIVTDPERGWLFWTDWDREKPKIEMARMDGTDRRVLLKENLGWPNGLTYERRSRRLCWVDAGTHGISCVNPETPGKRLRIEGVEWPGAVTSLGEYLYYTDWKTRSVIKVHIETKTVVDRYYPPKRTRLFGITIAYPSC,GTHLLFAQTGKIERLPLERNTMKKTEAKAFLHIPAKVIIGLAFDCVDKVVYWTDISEPSIGRASLHGGEPTTIIRQDLGSPEGIALDHLGRTIFWTDSQLDRIEVAKMDGTQRRVLFDTGLVNPRGIVTDPVRGNLYWTDWNRDNPKIETSHMDGTNRRILAQDNLGLPNGLTFDAFSSQLCWVDAGTHRAECLNPAQPGRRKVLEGLQYPFAVTSYGKNLYYTDWKTNSVIAMDLAISKEMDTFHPHKQTRLYGITIALSQC,PRCERCPPGTAGRLCERLDP,VVCTHCPTGTAGKRCELCDD
29.0,9,39,A,30,ETYLLFAQTGRIEKLPLVNDTMQKEKAETFVSIPESTIVGLAFECKTQTVYWTDISKPSIGKASLEGGKPEIIIKENLGRPTGIALDWIGRKIFWTDSELHRIEVADLDGTNRKVLFGEGLVWPRGIVTDPENGWLYWTDWDREKPKIEMANMDGTNRRVLLKENLGWPNGLTYEKESRSLCWVDAGTHSIECVNPETPGKRLVIEGVKWPGAVTSLGRYLYYTDWKTRSVIKVDIETKTVVDRYYPPKRTRLFGITIAYPSC,GTHLLFAQTGKIERLPLERNTMKKTEAKAFLHIPAKVIIGLAFDCVDKVVYWTDISEPSIGRASLHGGEPTTIIRQDLGSPEGIALDHLGRTIFWTDSQLDRIEVAKMDGTQRRVLFDTGLVNPRGIVTDPVRGNLYWTDWNRDNPKIETSHMDGTNRRILAQDNLGLPNGLTFDAFSSQLCWVDAGTHRAECLNPAQPGRRKVLEGLQYPFAVTSYGKNLYYTDWKTNSVIAMDLAISKEMDTFHPHKQTRLYGITIALSQC,GGCCDPKTKVCECLKCPPGTAGLLCERKDP,SCAIVPKTKEVVCTHCPTGTAGKRCELCDD
29.0,0,40,A,40,ETYLLFAQTGRIEKLPLVDDVMQKEKAETFVSIPESTIVGLAFECKTQTVYWTDISKPSIGKASLEGGKPEIIIKENLGRPTGIALDWIGRKIFWTDSELHRIEVADLDGTNRKVLFGEGLVWPRGIVTDPENGWLYWTDWDREKPKIEMANMDGTNRRVLLKENLGWPNGLTYEKESRSLCWVDAGTHGISCVNPETPGKRLRIEGVKWPGAVTSLGRYLYYTDWKTRSVTVVDIETKTVVDRYYPPQRTTLFGITIAYCSC,GTHLLFAQTGKIERLPLERNTMKKTEAKAFLHIPAKVIIGLAFDCVDKVVYWTDISEPSIGRASLHGGEPTTIIRQDLGSPEGIALDHLGRTIFWTDSQLDRIEVAKMDGTQRRVLFDTGLVNPRGIVTDPVRGNLYWTDWNRDNPKIETSHMDGTNRRILAQDNLGLPNGLTFDAFSSQLCWVDAGTHRAECLNPAQPGRRKVLEGLQYPFAVTSYGKNLYYTDWKTNSVIAMDLAISKEMDTFHPHKQTRLYGITIALSQC,DPCPCPGGSGCTTDPETKVTTCDRCPPGTAGLLCERKDIG,QPCPCPGGSSCAIVPKTKEVVCTHCPTGTAGKRCELCDDG
41.0,19,69,A,50,ETYLLFAQTGRIEKLPLVDDVMQKEKAETFVSIPESTIVGLAYECRTQTVYWTDISRPSIGKASLEGGKPEVIIRENLGRPTGIALDWIGRKIFWTDSELHRIEVADLDGTNRKVLFGEGLVRPRGIVTDPERGWLFWTDWDREKPKIEMANMDGTNRRVLLKENLGRPGGLTYERRSRSLCWVDAGTHGAFCVNPETPGKRLRIEGLEWPFAVTSLGEYLYYTDWKTRSVIAVHRETKTVVDRFYPPKRTTLFGITIAYCSC,GTHLLFAQTGKIERLPLERNTMKKTEAKAFLHIPAKVIIGLAFDCVDKVVYWTDISEPSIGRASLHGGEPTTIIRQDLGSPEGIALDHLGRTIFWTDSQLDRIEVAKMDGTQRRVLFDTGLVNPRGIVTDPVRGNLYWTDWNRDNPKIETSHMDGTNRRILAQDNLGLPNGLTFDAFSSQLCWVDAGTHRAECLNPAQPGRRKVLEGLQYPFAVTSYGKNLYYTDWKTNSVIAMDLAISKEMDTFHPHKQTRLYGITIALSQC,PRLERCPPGTAGRLCERCDVGYWGNPLGLCGPVVECRPYQCNNGCDPNSF,VVCTHCPTGTAGKRCELCDDGYFGDPLGSNGPVRLCRPCQCNDNIDPNAV
17.0,244,254,B,10,EPCPCPGGSSCFTDPATQVTTCLTCPEGTTGLLCEGCEDGYFGDPRGLSGPVRECRPCECNNNIDPADTGNCDRVTGECLKCIHNTAGRRCERCREGFYGDPLAPDPAGRCRACACNPFGTVNRATTCDPVTGQCQCLPNVIGRRCDTCAPGFYNLESGRGCQP,QPCPCPGGSSCAIVPKTKEVVCTHCPTGTAGKRCELCDDGYFGDPLGSNGPVRLCRPCQCNDNIDPNAVGNCNRLTGECLKCIYNTAGFYCDRCKEGFFGNPLAPNPADKCKACACNPYGTVQQQSSCNPVTGQCQCLPHVSGRDCGTCDPGYYNLQSGQGCER,PRPPKQVRQP,FHPHKQTRLY
17.0,234,254,B,20,EPCPCPGGSSCFTDPVTQVTTCLTCPPGTTGLLCEGCEDGYFGDPLGLSGPVRECRPCECNNNIDPADTGNCDRVTGECLKCIHNTAGRRCERCREGFYGDPLAPDPAGRCRACACNPFGTVNRATTCDPVTGQCQCLPNVIGRQCDTCAPGFYNLESGRGCQP,QPCPCPGGSSCAIVPKTKEVVCTHCPTGTAGKRCELCDDGYFGDPLGSNGPVRLCRPCQCNDNIDPNAVGNCNRLTGECLKCIYNTAGFYCDRCKEGFFGNPLAPNPADKCKACACNPYGTVQQQSSCNPVTGQCQCLPHVSGRDCGTCDPGYYNLQSGQGCER,DGATRRLLATLTPPKATRLP,DLAISKEMDTFHPHKQTRLY
17.0,224,254,B,30,EPCPCPGGSGCFTDPVTQVTTCLTCPPGTTGLLCEGCEDGYFGDPRGLSGPVRECRPCECNNNIDPADTGNCDRVTGECLKCIHNTAGRRCERCREGFYGDPLAPDPAGRCRACACNPFGTVNRATTCDPVTGQCQCLPNVIGRRCDTCAPGFYNLESGRGCQP,QPCPCPGGSSCAIVPKTKEVVCTHCPTGTAGKRCELCDDGYFGDPLGSNGPVRLCRPCQCNDNIDPNAVGNCNRLTGECLKCIYNTAGFYCDRCKEGFFGNPLAPNPADKCKACACNPYGTVQQQSSCNPVTGQCQCLPHVSGRDCGTCDPGYYNLQSGQGCER,DGATRAVVAVERASRRELARYYPPKRTRLP,DWKTNSVIAMDLAISKEMDTFHPHKQTRLY
17.0,214,254,B,40,EPCPCPGGSGCFTDPVTQVTTCLHCPPGTTGRLCEGCEDGYFGDPRGLSGPVRECRPCECNNNIDPADTGNCDRVTGECLKCIHNTAGRRCERCRRGFYGDPLAPDPAGRCRACACNPFGTVNRATDCDPVTGQCQCLPNVIGRRCDTCAPGFYNLRSGRGCQP,QPCPCPGGSSCAIVPKTKEVVCTHCPTGTAGKRCELCDDGYFGDPLGSNGPVRLCRPCQCNDNIDPNAVGNCNRLTGECLKCIYNTAGFYCDRCKEGFFGNPLAPNPADKCKACACNPYGTVQQQSSCNPVTGQCQCLPHVSGRDCGTCDPGYYNLQSGQGCER,PQAGRYLLGADRETRSLTVVERASRRVVARYYPPKRTRLP,TSYGKNLYYTDWKTNSVIAMDLAISKEMDTFHPHKQTRLY
18.0,6,56,B,50,EPCPCPGGSSCTTDPATQVTTCHTCPAGTAGRLCERCEDGYFGDPLGLSGPVRECRPCECNNNIDPADVGNCDRVTGECLKCIHNTAGRRCERCRRGFYGNPLAPDPAGRCRACACNPFGTVNRATDCDPVTGQCQCLPNVIGRQCDTCAPGFYNLESGRGCQR,QPCPCPGGSSCAIVPKTKEVVCTHCPTGTAGKRCELCDDGYFGDPLGSNGPVRLCRPCQCNDNIDPNAVGNCNRLTGECLKCIYNTAGFYCDRCKEGFFGNPLAPNPADKCKACACNPYGTVQQQSSCNPVTGQCQCLPHVSGRDCGTCDPGYYNLQSGQGCER,PDDGRILRLPLVNRRLQLAQAEVFLELPAQRVVGLAYDRQTDTVYFTDIG,AQTGKIERLPLERNTMKKTEAKAFLHIPAKVIIGLAFDCVDKVVYWTDIS
