contacts,cs,ce,Chain,Length,designed_receptor_seq,native_receptor_seq,designed_binder_seq,native_binder_seq
23.0,77,87,A,10,SNAEIVKNFVQKYLDYLEDPSGNLEEFIKLYPPENSIIFNNKPFSSAKDFVEFWYNKQKKTKHELISCDYVIIPGSGKFIVSVETKVKFDPGPEYGVKQILIVDNKILENKEDGVISGDVFEITWGPN,NQAQITATFTKKILAHLDDPDSNLAQFVQLFNPNCRIIFNATPFAQATVFLQMWQNQVVQTQHALTGVDYHAIPGSGTLICNVNCKVRFDWGPYFGISLQLIIDDRIFRNDFNGVISGFNYNMVYKPE,KTITIEFPYL,SMETISYPQI
34.0,75,95,A,20,SNAEKVKEFVQLYLDYLEDPSGDLEKFISLYPPENSIIFNNKPFSSAKDFVEFWRTKQKKTKHELVSCDYVEIPGAGKFVVNVKTKVKFDGGPEYGVSQVLVVDNAILENKLDGVISGDVFEITSGPE,NQAQITATFTKKILAHLDDPDSNLAQFVQLFNPNCRIIFNATPFAQATVFLQMWQNQVVQTQHALTGVDYHAIPGSGTLICNVNCKVRFDWGPYFGISLQLIIDDRIFRNDFNGVISGFNYNMVYKPE,PVKVVVIDYPEANAKIVVVY,EYSMETISYPQINGFVITLH
39.0,111,141,A,30,MEEEIVKNFVKKYLAYLEDPSGNLEEFIKLFPPENFIVYNNKPFEKAEDFVKFWYEKEKKRKFELVSCQYEIIPGEGKFVVAVRTKVKFEPGPEYGVAQVLVVDLKILENKEEGVISGDIFEIISGPE,NQAQITATFTKKILAHLDDPDSNLAQFVQLFNPNCRIIFNATPFAQATVFLQMWQNQVVQTQHALTGVDYHAIPGSGTLICNVNCKVRFDWGPYFGISLQLIIDDRIFRNDFNGVISGFNYNMVYKPE,FRVLVVKPENNGFKVLADLVEEFEEAKGAF,DRTWVIVPMNNSVIIASDLLTVRAYSTGAW
46.0,76,116,A,40,SNAEKVKEFVQLYLDYLEDPSGNLEEFIKLYPPENSIIFNNKPFSSAKDFVKFWREKQKKTKHELVSCDYVEIPGSGKFIVLSNHTVKFDGGPEYGVAQVLVVDKKLLENKLDGVISGDIFEIVWGPE,NQAQITATFTKKILAHLDDPDSNLAQFVQLFNPNCRIIFNATPFAQATVFLQMWQNQVVQTQHALTGVDYHAIPGSGTLICNVNCKVRFDWGPYFGISLQLIIDDRIFRNDFNGVISGFNYNMVYKPE,EKKVVIDFPEAKSKIVITFGSKIVKENNKEKEEKFVKVEV,YSMETISYPQINGFVITLHGFFEETSNNKLSKKSFDRTWV
52.0,82,132,A,50,SNAEIVKNFVQKYLDYLEDPSGNLEEFIKLYPPENFIVFNDKPFSSAKDFVKFWREKQKKTKHELVSCDYEIIPGSGKFVVSALTKVKFDGGPEYGVAQTLVVDEKILKNETDGVISGDIFKIVSGPN,NQAQITATFTKKILAHLDDPDSNLAQFVQLFNPNCRIIFNATPFAQATVFLQMWQNQVVQTQHALTGVDYHAIPGSGTLICNVNCKVRFDWGPYFGISLQLIIDDRIFRNDFNGVISGFNYNMVYKPE,PFPEIKGFIVTTIGSKIVLENNKLKEEKFVVTNVLKPENNGFKILSRLER,SYPQINGFVITLHGFFEETSNNKLSKKSFDRTWVIVPMNNSVIIASDLLT
26.0,116,126,B,10,MAFKFENDESGESAIRFATEFLNLFDNDRESLLALYTPESVFESSVVEGFKGPEEIKKVLESLPKTKHFLKEKPEEYAMVVTAAPEINGYIITLFGYFEKLENNEKKKTSFVRTWTIKPENDSVTILKDKLVVMKYAEGAFKTEKNGIQFKKIE,QQFFFENDALGQSSTDFATNFLNLWDNNREQLLNLYSPQSQFSVSVDSTSIGQESINSIFKTLPKTKHHLQEQPNEYSMETISYPQINGFVITLHGFFEETSNNKLSKKSFDRTWVIVPMNNSVIIASDLLTVRAYSTGAWKTASIAIAQAAGS,GISIKETVFK,SGFNYNMVYK
42.0,64,84,B,20,MAFAFTNDPSGQSAIDFATNFLNLFDNDRASLLALYTPTSVFKSGTVTGFTGPAAIAAQLAALPATTHHLTTQPQDYAMVVRAAPEINGYIIELYGSFTELVNNQQVQRSFRQVWVIQPQNNSVTILSDLLVVEKYAVGSWQTAANGVQFAQTA,QQFFFENDALGQSSTDFATNFLNLWDNNREQLLNLYSPQSQFSVSVDSTSIGQESINSIFKTLPKTKHHLQEQPNEYSMETISYPQINGFVITLHGFFEETSNNKLSKKSFDRTWVIVPMNNSVIIASDLLTVRAYSTGAWKTASIAIAQAAGS,AALSLSVTIPGAGFSITASA,LTGVDYHAIPGSGTLICNVN
44.0,68,98,B,30,MAFAFTNDPSGQSAINFATEFLKLFDTNRAALLALYTPTSVFKSGTVTGFTGPAAIAAQLAALPATTHHLTTEPQAYAMVVRAAPEINGYIIELYGYFTELVNNQQVKRSFVRTWVIQPGNNSVTILSDLLVVRKYEEGSFKTAANGVQFAQTG,QQFFFENDALGQSSTDFATNFLNLWDNNREQLLNLYSPQSQFSVSVDSTSIGQESINSIFKTLPKTKHHLQEQPNEYSMETISYPQINGFVITLHGFFEETSNNKLSKKSFDRTWVIVPMNNSVIIASDLLTVRAYSTGAWKTASIAIAQAAGS,LSVTIPGAGFSIAATASYVQVNPGPLYFVP,DYHAIPGSGTLICNVNCKVRFDWGPYFGIS
53.0,62,102,B,40,MAFAFTNDPSGQSAIDFATNFLNLFDNDRASLLALYTPTSVFKQGTVTGFTGPAAIAAQLAALPATTHHLTTEPQDYAMVVRDAPEINGYVIELLGSFTELVDNKQVKRSFRQVWVIQPQNNSVTILSDLLVVDKYREGAWKTAANGVAFEQTA,QQFFFENDALGQSSTDFATNFLNLWDNNREQLLNLYSPQSQFSVSVDSTSIGQESINSIFKTLPKTKHHLQEQPNEYSMETISYPQINGFVITLHGFFEETSNNKLSKKSFDRTWVIVPMNNSVIIASDLLTVRAYSTGAWKTASIAIAQAAGS,PTLVLDLSVTIPGAGTSIHAQAYTVQVNGGPAQRVFRVVF,HALTGVDYHAIPGSGTLICNVNCKVRFDWGPYFGISLQLI
57.0,34,84,B,50,MAFAFTNDASGQSAIDFATNFLNLFDNDRASLLALYTPTSVFKQGVVEGKTGPAAIAAELAALPASKHFLTTEPQDYAMDVIAAPEINGYIIRLNGWFERLENNQWVKQSFVRTWVIQPQNNSVTILSDLLVEMKYAEGAWKTAANGVQFAQAN,QQFFFENDALGQSSTDFATNFLNLWDNNREQLLNLYSPQSQFSVSVDSTSIGQESINSIFKTLPKTKHHLQEQPNEYSMETISYPQINGFVITLHGFFEETSNNKLSKKSFDRTWVIVPMNNSVIIASDLLTVRAYSTGAWKTASIAIAQAAGS,ASIIYNFTPFSSLADFQAFAAANLAASTPTLTLSLSDTIPGAGFSITLTA,CRIIFNATPFAQATVFLQMWQNQVVQTQHALTGVDYHAIPGSGTLICNVN
