contacts,cs,ce,Chain,Length,designed_receptor_seq,native_receptor_seq,designed_binder_seq,native_binder_seq
23.0,93,103,A,10,SNAMIKNGTIISDIPAGLAGAVLKVLGIGEGEKISIVQFEKSEKLGLKDVVKIEDKWISEEEANLISLIAPEAKVYLVENYEVVKELKLEIPEIVEGLLKCPNPKCIASNDPKAIPKFKTVSKEPLIMECVYCGLKIDKEEIVKQITE,MVSKIKNGTVIDHIPAGRAFAVLNVLGIKEGFRIALVINVDSKKMGKKDIVKIEDKEISDTEANLITLIAPTATINIVREYEVVKKTKLEVPKVVKGILKCPNPYCITSNDVEAIPTFKTLTEKPLKMRCEYCETIIDENEIMSQILG,ESPYYGAEKF,RHKYDGASRF
24.0,87,107,A,20,SNAMIKNGTIISDIPAGLADSVLKVLGIEEGEKISIEKFVESKKLGKMDIVKIEDKWISEEEANLISLIAPEAKVYLVENYEIVKELKLEIPEIVEGLLKCPNPNCIASNDPEAIPKFKTVSKEPLIMECIYCGTKIDKEEIVKQITE,MVSKIKNGTVIDHIPAGRAFAVLNVLGIKEGFRIALVINVDSKKMGKKDIVKIEDKEISDTEANLITLIAPTATINIVREYEVVKKTKLEVPKVVKGILKCPNPYCITSNDVEAIPTFKTLTEKPLKMRCEYCETIIDENEIMSQILG,GDFVIASAPFYGFVTYLSSL,SDGIVMRHKYDGASRFASEI
32.0,73,103,A,30,SNAMIKNGTIISDIPAGLASSVLKVLGISEGEKISIEKFVSSKKLGKMDIVKIEDKWISEEEANLISLIAPEAKVYLVKDYKIVKELKLEIPEIVEGLLKCPNPNCIASNEPEAIPKFKTVSKEPLIMECIYCGTKIDKEEIVKQITE,MVSKIKNGTVIDHIPAGRAFAVLNVLGIKEGFRIALVINVDSKKMGKKDIVKIEDKEISDTEANLITLIAPTATINIVREYEVVKKTKLEVPKVVKGILKCPNPYCITSNDVEAIPTFKTLTEKPLKMRCEYCETIIDENEIMSQILG,GVSLKEILKEAKKLSKGIIMSSPYKGAIKF,GENLADTIRMLNNYSDGIVMRHKYDGASRF
33.0,67,107,A,40,SNAMIKNGTIISDIPAGLAGAVLKVLGIEEGEKISIETFVSSEKLGKMDIVKIEDKWISEEEANLISLIAPEAKVELVENYEVVKELKLEIPEYVEGLLKCPNPNCIASNDPEAIPVFKTVSKEPLIMECIYCGTKIDKEEIVKQITE,MVSKIKNGTVIDHIPAGRAFAVLNVLGIKEGFRIALVINVDSKKMGKKDIVKIEDKEISDTEANLITLIAPTATINIVREYEVVKKTKLEVPKVVKGILKCPNPYCITSNDVEAIPTFKTLTEKPLKMRCEYCETIIDENEIMSQILG,IGFEGEGVSLAEIVKLLKELADGIIMKSPYKGAIKFASSI,IGFSGEGENLADTIRMLNNYSDGIVMRHKYDGASRFASEI
38.0,70,120,A,50,SNAMIKNGTIISDIPAGLAGAVLKVLGIEEGEKISIETFVESEKLGKMDIVKIEDKWISEEEANLISLIAPEAKVELVENYEVVEELELEIPEYVEGLLKCPNPNCICSNEPEAIPVFKTVSKEPLIMECIYCGTKIDKEEIVEQITS,MVSKIKNGTVIDHIPAGRAFAVLNVLGIKEGFRIALVINVDSKKMGKKDIVKIEDKEISDTEANLITLIAPTATINIVREYEVVKKTKLEVPKVVKGILKCPNPYCITSNDVEAIPTFKTLTEKPLKMRCEYCETIIDENEIMSQILG,IKEGVSLAEVIRELNEKADGIILKHPYDGAAKFASEISEIPVIDAGSGES,SGEGENLADTIRMLNNYSDGIVMRHKYDGASRFASEISDIPVINAGDGKH
29.0,104,114,B,10,MKNIISANDFTREELEEIFKLTDKYKNGEKNIEKILEGKTIAIAFFEPSTRTYLSFKKAIERLGGKVIGFSGKNETLKDTIKTLNVYSDGIVMRHPANGAAEFASKVSKIPVINAGDGKHEHPTQAVIDLYTIKKKFNKIDGLTFALLGDLKYSRTVHSLLKILSIFKPKKVYLISPEELKVKEELLKELNYPTEEIENIEDVIDEVDVLYTTRIQKERFKNEEEYEKVKKNYIVTKEIEEKMKEDSIILHPLPRVDEIDPEVDKSEKAYYFEQAKNGVPVRMAILKKIFGE,LKHIISAYNFSRDELEDIFALTDKYSKNLNDTRKILSGKTISIAFFEPSTRTYLSFQKAIINLGGDVIGFSGEGENLADTIRMLNNYSDGIVMRHKYDGASRFASEISDIPVINAGDGKHEHPTQAVIDIYTINKHFNTIDGLVFALLGDLKYARTVNSLLRILTRFRPKLVYLISPQLLRARKEILDELNYPVKEVENPFEVINEVDVLYVTRIQKERFVDEMEYEKIKGSYIVSLDLANKMKKDSIILHPLPRVNEIDRKVDKTTKAKYFEQASYGVPVRMSILTKIYGE,YLISEVEPEA,YCITSNDVEA
30.0,94,114,B,20,MKNIISANDFTREELEEIFKLTDKYKNGEKNIEKILEGKTIAIAFFEPSTRTYLSFKKAIERLGGKVIGFSGKNESLKDTIKTLNSYSDGIVMRHPYNGAAEFASKVSKIPVINAGDGKHEHPTQAVIDLYTIKKKFNKIDGLTFALLGDLKYSRTVHSLLKILSIFKPKKVYLISPEELKVKEELLKELNYETEEIENIEDVIDEVDVLYTTRIQKERFKNEEEYEKVKKNYIVTKEIEEKMKEDSIILHPLPRVDEIDPEVDKSEKAYYFEQAKNGVPVRMAILKKIFGE,LKHIISAYNFSRDELEDIFALTDKYSKNLNDTRKILSGKTISIAFFEPSTRTYLSFQKAIINLGGDVIGFSGEGENLADTIRMLNNYSDGIVMRHKYDGASRFASEISDIPVINAGDGKHEHPTQAVIDIYTINKHFNTIDGLVFALLGDLKYARTVNSLLRILTRFRPKLVYLISPQLLRARKEILDELNYPVKEVENPFEVINEVDVLYVTRIQKERFVDEMEYEKIKGSYIVSLDLANKMKKDSIILHPLPRVNEIDRKVDKTTKAKYFEQASYGVPVRMSILTKIYGE,EKEKEKCGNPYCIYSNDPEA,VKGILKCPNPYCITSNDVEA
40.0,104,134,B,30,MKNIISANDFTREELEEIFKLTDKYLKGEENIEKILEGKTIAIAFFEPSTRTYLSFKKAIERLGGKVIGFSGGNETLADTIRTLNSYSDGIVMRHPANGAAKFAAEISKIPVINAGDGKHEHPTQAVIDLYTIKKKFNKIDGLTFALLGDLKYSRTIHSLLLLLNKFKPKKVYLISPEELKVKEELLKKLNYPTEEIENIEDVIDEVDVLYTTRIQKERFKNEEEYEKVKKNYIVTLERAKKMKEDSIILHPLPRVNEIDPEVDKLEKAYYFEQAKNGVPVRMAILKKIFGE,LKHIISAYNFSRDELEDIFALTDKYSKNLNDTRKILSGKTISIAFFEPSTRTYLSFQKAIINLGGDVIGFSGEGENLADTIRMLNNYSDGIVMRHKYDGASRFASEISDIPVINAGDGKHEHPTQAVIDIYTINKHFNTIDGLVFALLGDLKYARTVNSLLRILTRFRPKLVYLISPQLLRARKEILDELNYPVKEVENPFEVINEVDVLYVTRIQKERFVDEMEYEKIKGSYIVSLDLANKMKKDSIILHPLPRVNEIDRKVDKTTKAKYFEQASYGVPVRMSILTKIYGE,ICICEVEKEAKPKYVVVSEEPKIEECVYCG,YCITSNDVEAIPTFKTLTEKPLKMRCEYCE
44.0,96,136,B,40,MKNIISANDFTREELEEIFKLTDKYKNGEKNIEKILEGKTIAIAFFEPSTRTYLSFETAIKRLGGNVIGFSGKNETLADTIRTLNSYSDGIVMRHPYNGAAKFAAEISKIPVINAGDGKHEHPTQAVIDLYTIKKKFNKIDGLTFALLGDLKFSRTIHSLLLLLNKFKPKKVYLISPEELKVKEELLKKLNYPTEEIENIEDVIDEVDVLYTTRIQKERFKNEEEYEKIKKNYIVTKEIEEKMKEDSIILHPLPRVNEIDPEVDKSEKAYYFEQAKNGVPVRMAILKKIFGE,LKHIISAYNFSRDELEDIFALTDKYSKNLNDTRKILSGKTISIAFFEPSTRTYLSFQKAIINLGGDVIGFSGEGENLADTIRMLNNYSDGIVMRHKYDGASRFASEISDIPVINAGDGKHEHPTQAVIDIYTINKHFNTIDGLVFALLGDLKYARTVNSLLRILTRFRPKLVYLISPQLLRARKEILDELNYPVKEVENPFEVINEVDVLYVTRIQKERFVDEMEYEKIKGSYIVSLDLANKMKKDSIILHPLPRVNEIDRKVDKTTKAKYFEQASYGVPVRMSILTKIYGE,EEKKCGNPYCIASNEKEAIPKFEVVTEEPKIERCVYCGLE,GILKCPNPYCITSNDVEAIPTFKTLTEKPLKMRCEYCETI
44.0,86,136,B,50,MKNIISANDFTREELEEIFKLTDKYLKGEENIEKILEGKTIAIAFFEPSTRTYLSFETAIKRLGGNVIGFSGKGESLADTIRTLNSYSDGIVMRHPYNGAAKFAAEISKIPVINAGDGKHEHPTQAVIDLYTIKKKFNKIDGLTFALLGDLKFSRTIHSLLLLLNKFKPKKVYLISPEELKVKEELLKKLNYPTEEIENIEDVIDEVDVLYTTRIQKERFKNEEEYEKIKKNYIVTLERVKKMKEDSIILHPLPRVDEIDPEVFKTEKAYYFEQAKYGVPVRMAILKKIFGE,LKHIISAYNFSRDELEDIFALTDKYSKNLNDTRKILSGKTISIAFFEPSTRTYLSFQKAIINLGGDVIGFSGEGENLADTIRMLNNYSDGIVMRHKYDGASRFASEISDIPVINAGDGKHEHPTQAVIDIYTINKHFNTIDGLVFALLGDLKYARTVNSLLRILTRFRPKLVYLISPQLLRARKEILDELNYPVKEVENPFEVINEVDVLYVTRIQKERFVDEMEYEKIKGSYIVSLDLANKMKKDSIILHPLPRVNEIDRKVDKTTKAKYFEQASYGVPVRMSILTKIYGE,KEKKVPEIIKGKIKCGNPNCISSNEPEAIPEFKTVTEEPLIMECVYCGLK,TKLEVPKVVKGILKCPNPYCITSNDVEAIPTFKTLTEKPLKMRCEYCETI
