contacts,cs,ce,Chain,Length,designed_receptor_seq,native_receptor_seq,designed_binder_seq,native_binder_seq
22.0,75,85,A,10,KNLVIIKYLPPDITKEELIKELSPLPEHTYFDFYKDDTKNYPNLYAYAYIEFTNEEDIEKFKEKFNGYVFLDKDGKEYPSIVEYSKYQEVE,LSKVVIRRLPPTLTKEQLQEHLQPMPEHDYFEFFSNDTSLYPHMYARAYINFKNQEDIILFRDRFDGYVFLDNKGQEYPAIVEFAPFQKAA,VKEKHRILRD,IHVVDGVLED
32.0,72,92,A,20,MNKVIIKYLPPDITKEELIEKLSPLPEHTYFDFFKDNTDLYPYEYAYAYIVFKNEEDIEKFKEKFNGYVFLDKDGKEYPAEVDYSPYQEAI,LSKVVIRRLPPTLTKEQLQEHLQPMPEHDYFEFFSNDTSLYPHMYARAYINFKNQEDIILFRDRFDGYVFLDNKGQEYPAIVEFAPFQKAA,AEEIIEKHTELMNEELGKVI,DVGIHVVDGVLEDIRLGMEV
37.0,70,100,A,30,MNKVIIKFLPPDITKEELIEKLSPLPEHTYFDFFKDNTLLYPHYYAYAYIVFKNEEDIEKFKEKFNGYVFLDKDGKEYPAEVDYAEYQEAE,LSKVVIRRLPPTLTKEQLQEHLQPMPEHDYFEFFSNDTSLYPHMYARAYINFKNQEDIILFRDRFDGYVFLDNKGQEYPAIVEFAPFQKAA,EGEEEIIEKHTILFNEELYKEVNLPEFDEI,QEDVGIHVVDGVLEDIRLGMEVNQPKFNQR
38.0,64,104,A,40,MNKVIIKYLPPDITKEELIEKLSPLPEHTYFDFFKDNTFLYPHYYAYAYIEFKNEEDIEKFKEKFNGYVFLDKDGKEYPAEVDYADYQVVD,LSKVVIRRLPPTLTKEQLQEHLQPMPEHDYFEFFSNDTSLYPHMYARAYINFKNQEDIILFRDRFDGYVFLDNKGQEYPAIVEFAPFQKAA,GGLEKYFPELGIILKHTILENKRLGKKVNKPEFKDILEFL,AGLVLYQEDVGIHVVDGVLEDIRLGMEVNQPKFNQRRISS
42.0,42,92,A,50,MNKVIIKYLPPDITKEELIKELSPLPEHTYFDFFRDDTRLYPYYYARAYIVFKNEEDIKKFKEKFDGYVFLDKNGKKYPAEVDYAPYQVAD,LSKVVIRRLPPTLTKEQLQEHLQPMPEHDYFEFFSNDTSLYPHMYARAYINFKNQEDIILFRDRFDGYVFLDNKGQEYPAIVEFAPFQKAA,VKDIINIEKVDENKRKDILKFLAELVKYAPAIGVAVIKGILRDIELGKKV,ICCMINIWNVKYNSIHCVANLLAGLVLYQEDVGIHVVDGVLEDIRLGMEV
28.0,33,43,B,10,MDPLSEYIDYLLYEELSDETVDEVTEKMIALPWEDEDIYDYVVKSCINIHNVDSDRIHCVAKLLSNLIEYIPELGEDVVDGILDDILDGEKINEPEYDDKRIASCIFLGELYNYDLVDADVIFDTLYMFISYGVAPDGSPTGLDPEEDLFDIVRVCAILNTCGGKFNEGETLEKLDVFLIYFQLYVWYKKSRSIWTEDNPFPEDITELIEDTLLELRPDIHICESLEEAEEEVATEEEIFEEIEGLVP,RPPLQEYVRKLLYKDLSKVTTEKVLRQMRKLPWQDQEVKDYVICCMINIWNVKYNSIHCVANLLAGLVLYQEDVGIHVVDGVLEDIRLGMEVNQPKFNQRRISSAKFLGELYNYRMVESAVIFRTLYSFTSFGVNPDGSPSSLDPPEHLFRIRLVCTILDTCGQYFDRGSSKRKLDCFLVYFQRYVWWKKSLEVWTKDHPFPIDIDYMISDTLELLRPKIKLCNSLEESIRQVQDLEREFLIKLGLVN,EGDNTSLEPY,FSNDTSLYPH
31.0,29,49,B,20,MDPLSEYIDYLLYEELSDETVDEVTEKMIALPWEDEDIYDYVVTSCINIHNVDSDRIHCVAKLLSNLIEYIPELGEDVVDGILKDIKDGIDVNEPEFDDKRIASCIFLGELYNYDLVDADVIFDTLYMFISYGVADDGSPTGLDPEEDLFDIVRVCAILNTCGGYFNEGETLEALDEFLIYFQLYVWYKKSRSIWTEDNPFPEDIENLITDTLLELRPDIHICESLEEAEEEVATQEEIFEEIYGTVP,RPPLQEYVRKLLYKDLSKVTTEKVLRQMRKLPWQDQEVKDYVICCMINIWNVKYNSIHCVANLLAGLVLYQEDVGIHVVDGVLEDIRLGMEVNQPKFNQRRISSAKFLGELYNYRMVESAVIFRTLYSFTSFGVNPDGSPSSLDPPEHLFRIRLVCTILDTCGQYFDRGSSKRKLDCFLVYFQRYVWWKKSLEVWTKDHPFPIDIDYMISDTLELLRPKIKLCNSLEESIRQVQDLEREFLIKLGLVN,EEYYYSDDTLLYPYETSWSN,YFEFFSNDTSLYPHMYARAY
31.0,19,49,B,30,MDPLSEYIDYLLYEELSDETVDEVTEKMIALPWEDEDIYDYVVTSCINIHNVDSDRIHCVAKLLSNLIEYIPELGEDVVDGILKDIKLGEEVNEPEFDDKRIASCIFLGELYNYDLVDADVIFDTLYFFISYGVADDGSPTGLDPEEDLFDIVRVCAILNTCGGYFNEGETLEALDEFLIYFQLYVWYKKSRSIWTEDNPFPEDIENLITDTLLELRPDIHICESLEEAEEEVATQEEIFEEIEGLVP,RPPLQEYVRKLLYKDLSKVTTEKVLRQMRKLPWQDQEVKDYVICCMINIWNVKYNSIHCVANLLAGLVLYQEDVGIHVVDGVLEDIRLGMEVNQPKFNQRRISSAKFLGELYNYRMVESAVIFRTLYSFTSFGVNPDGSPSSLDPPEHLFRIRLVCTILDTCGQYFDRGSSKRKLDCFLVYFQRYVWWKKSLEVWTKDHPFPIDIDYMISDTLELLRPKIKLCNSLEESIRQVQDLEREFLIKLGLVN,EEEEPLPEHDYDDYYWDDTSLYPYLTWRRN,EHLQPMPEHDYFEFFSNDTSLYPHMYARAY
32.0,3,43,B,40,MDPLSEYIDYLLYEELSDETVDEVTEKMIALPWEDEDIYDYVVTSMINIHNVDSDRIHCVAKLLSNLIEYIPELGEDVVDGILDNIHDGELINEPEFDDKRIASCIFLGELYNYDLVDADVIFDTLYFFISYGVAPDGSPTGLDPEEDLFDIVRVCAILNTCGGKFNEGETLEALDEFLIYFQLYVWYKKSRSIWTEDNPFPEDIENLITDTLLELRPDIHICESLEEAEEEVATQEEIFEEIEGNVN,RPPLQEYVRKLLYKDLSKVTTEKVLRQMRKLPWQDQEVKDYVICCMINIWNVKYNSIHCVANLLAGLVLYQEDVGIHVVDGVLEDIRLGMEVNQPKFNQRRISSAKFLGELYNYRMVESAVIFRTLYSFTSFGVNPDGSPSSLDPPEHLFRIRLVCTILDTCGQYFDRGSSKRKLDCFLVYFQRYVWWKKSLEVWTKDHPFPIDIDYMISDTLELLRPKIKLCNSLEESIRQVQDLEREFLIKLGLVN,YRIYDLDPEITKEELIELLSPLPEHDYLDFYGDDTSLYPY,VVIRRLPPTLTKEQLQEHLQPMPEHDYFEFFSNDTSLYPH
35.0,0,50,B,50,MDPLSEYIDYLLYEELSDETVDEVTEKMIALPWEDEDIYDYVVTSLIRIDRVESDRIHCVAKLLSNLIEYIPELGEDVVDGILRDILLGELVNEPEFDDKRIASCIFLGELYNYDLVDADVIFDTLYMFISFGVAPDGSPTGLDPEEDLFDIVRVCAILNTCGGKFNEGETLEKLDVFLIYFQLYVWYKKSRSIWTEENPFPEDIENLITDTLLELRPDIHICESLEEAEEEVATEEEIFEEIEGLVG,RPPLQEYVRKLLYKDLSKVTTEKVLRQMRKLPWQDQEVKDYVICCMINIWNVKYNSIHCVANLLAGLVLYQEDVGIHVVDGVLEDIRLGMEVNQPKFNQRRISSAKFLGELYNYRMVESAVIFRTLYSFTSFGVNPDGSPSSLDPPEHLFRIRLVCTILDTCGQYFDRGSSKRKLDCFLVYFQRYVWWKKSLEVWTKDHPFPIDIDYMISDTLELLRPKIKLCNSLEESIRQVQDLEREFLIKLGLVN,EGIYRIYLLDPEITLEELIEELEPLPEHDYLDFYKDDTLLYPYEFAYAYL,LSKVVIRRLPPTLTKEQLQEHLQPMPEHDYFEFFSNDTSLYPHMYARAYI
