contacts,cs,ce,Chain,Length,designed_receptor_seq,native_receptor_seq,designed_binder_seq,native_binder_seq
40.0,189,199,A,10,GGSITLKVVTLTNKVISYKVKLDTNLKLLKESFCEQEGVPLDSRRFFFKGKEIKDDDTPESLGMEENDVIEVFRVLKTL,GEYIKLKVIGQDSSEIHFKVKMTTHLKKLKESYCQRQGVPMNSLRFLFEGQRIADNHTPKELGMEEEDVIEVYQEQTGG,EDIEMIEVKE,MDVQEVQYTF
49.0,187,207,A,20,GGSITLKVVTLTNKTISYKVRLDCNLKKLKESFCEKEGVPLDSLRFFFKGKEIKDDDTPESLGMKENDVIEVFRVKEEE,GEYIKLKVIGQDSSEIHFKVKMTTHLKKLKESYCQRQGVPMNSLRFLFEGQRIADNHTPKELGMEEEDVIEVYQEQTGG,EDEDIEEIEVTYDEEKEKEE,RNMDVQEVQYTFDLQLAQED
49.0,177,207,A,30,SGSITLKVVTLTNKTISFKVRLDCNLKKLKETFCEIEGVPLDSRRFFFKGKEIKDDDTPESLGMKENDVINVIRVKKEE,GEYIKLKVIGQDSSEIHFKVKMTTHLKKLKESYCQRQGVPMNSLRFLFEGQRIADNHTPKELGMEEEDVIEVYQEQTGG,EEEEEEEGKEIDEDIVMTKVTYDKEKEEEE,DLRDQLKGIERNMDVQEVQYTFDLQLAQED
54.0,164,204,A,40,GGSITLKVVTLTNRVISFKVRMDCNLKKLKETFCEIEGVPLDSRRFFFKGKEIKDDDTPESLGMKENDVINVFRVKEEE,GEYIKLKVIGQDSSEIHFKVKMTTHLKKLKESYCQRQGVPMNSLRFLFEGQRIADNHTPKELGMEEEDVIEVYQEQTGG,EEEEEVFWEYKEELERKKKEGIEIDEDIEMIEVTYDKEKA,RAQDKVHYYIKLKDLRDQLKGIERNMDVQEVQYTFDLQLA
55.0,157,207,A,50,GGSITLHVVTLTNRDISFRVRMDCNLKKLKETFCEIEGVPLDSLRFFFKGKEIADDDTPESLGMEENDVIEVFRVLETQ,GEYIKLKVIGQDSSEIHFKVKMTTHLKKLKESYCQRQGVPMNSLRFLFEGQRIADNHTPKELGMEEEDVIEVYQEQTGG,KGDKERPLKRDRIFWDYKAELERKRKEGIEIDDDIEMTKLTFDLEKAKEE,ARCAQFPRAQDKVHYYIKLKDLRDQLKGIERNMDVQEVQYTFDLQLAQED
39.0,11,21,B,10,MDLLSKTLPPILTDNLDIVIIGINPGLLAAEKGVWFPGPTDHFWDCMYLSGLTDKQLDATDDYLLPGKYGIGFTEMVKETGTNASSRSDEEFKEGGKKLVELLQKYKPKIAVFNGKTVYKIYSKVVYGKEVKNLKYGLQPEKIPNTDTLNYVIPHTSASNKEHPRAEDKVFYFIQLKRLRDKLNGIEIDESKVMTKLTFDLEKAKEKAKEEAKKKG,AELLTKTLPDILTFNLDIVIIGINPGLMAAYKGHHYPGPGNHFWKCLFMSGLSEVQLNHMDDHTLPGKYGIGFTNMVERTTPGSKDLSSKEFREGGRILVQKLQKYQPRIAVFNGKCIYEIFSKEVFGVKVKNLEFGLQPHKIPDTETLCYVMPSSSARCAQFPRAQDKVHYYIKLKDLRDQLKGIERNMDVQEVQYTFDLQLAQEDAKKMAVKEE,DKRVIEYEVK,DSSEIHFKVK
45.0,9,29,B,20,MDLLSKTLPPILTDNLDIVIIGINPGLLAAEKGVWFPGPTDHFWDCMYLSGLTDKQLDATDDYLLPGKYGIGFTEMVKETGTNASKRSDEEFKEGGKKLVELLQKYKPKIAVFNGKTVYKIYSKVVYGKEVKNLKYGLQPEKIPNTDTLNYVIPHTSASNKEHPRAEDKVFYFIKLKELRDKLNGIEIDENFKMTKFTFDLEKAKEKAKKEAEKKK,AELLTKTLPDILTFNLDIVIIGINPGLMAAYKGHHYPGPGNHFWKCLFMSGLSEVQLNHMDDHTLPGKYGIGFTNMVERTTPGSKDLSSKEFREGGRILVQKLQKYQPRIAVFNGKCIYEIFSKEVFGVKVKNLEFGLQPHKIPDTETLCYVMPSSSARCAQFPRAQDKVHYYIKLKDLRDQLKGIERNMDVQEVQYTFDLQLAQEDAKKMAVKEE,TPDNSVIEFEVKEDADLKKL,GQDSSEIHFKVKMTTHLKKL
57.0,7,37,B,30,MDLLSKTLPPILTDNLDIVIIGINPGLLAAEKGVWFPGPTDHFWDCMYLSGLTDKQLDATDDYLLPGKYGIGFTEMVKETGTNASKRSDEEFKEGGKKLVELLQKYKPKIAVFNGKTVYKIYSKVVYGKEVKNLKYGLQPEKIPNTDTLNYVIPHTSASNKEHPRAEDKVFYFIKLKELRDKLNGIEIDDDVKMTKLTFDLEKSKELAKKEAEKKK,AELLTKTLPDILTFNLDIVIIGINPGLMAAYKGHHYPGPGNHFWKCLFMSGLSEVQLNHMDDHTLPGKYGIGFTNMVERTTPGSKDLSSKEFREGGRILVQKLQKYQPRIAVFNGKCIYEIFSKEVFGVKVKNLEFGLQPHKIPDTETLCYVMPSSSARCAQFPRAQDKVHYYIKLKDLRDQLKGIERNMDVQEVQYTFDLQLAQEDAKKMAVKEE,VEFDNDRKITFEVREDVDLKKLIETLKRSE,VIGQDSSEIHFKVKMTTHLKKLKESYCQRQ
59.0,0,40,B,40,MELYEKTLPPILTDNLDIVIIGINPGLLAAEKGVWFPGPTDHFWDCMYMSGLTDKQLDATDDYLLPGKYGIGFTEMVKETGTNASKRSDEEFKEGGKKLVELLQKYKPKIAVFNGKTVYKIYSKVVYGKEVKNLKYGLQPEKIPDTDTLNYVIPHTSASNKEHPRAIDKVFYFYKLKELRDKLNGIEIDDDVEMTKLTFDLEKSKELAKKEAEKKK,AELLTKTLPDILTFNLDIVIIGINPGLMAAYKGHHYPGPGNHFWKCLFMSGLSEVQLNHMDDHTLPGKYGIGFTNMVERTTPGSKDLSSKEFREGGRILVQKLQKYQPRIAVFNGKCIYEIFSKEVFGVKVKNLEFGLQPHKIPDTETLCYVMPSSSARCAQFPRAQDKVHYYIKLKDLRDQLKGIERNMDVQEVQYTFDLQLAQEDAKKMAVKEE,GGYEVVEVVGDDDRKISFKVRKDVDKKKLIETLKRILGVP,GEYIKLKVIGQDSSEIHFKVKMTTHLKKLKESYCQRQGVP
59.0,0,50,B,50,MELYEKTLPPILTDNLDIVIIGINPGLLAAEKGVWFPGPTDHFWDCMYMSGLTDKQLDATDDYLLPGKYGIGFTEMVKETGPNASRRSDEEFKEGGKKLVELLQKYKPKIAVFNGKTVYKIYSKVVYGKEVKNLKYGLQPEKIPNTDTLNYVIPHTSASNKETPLARNKVFYFYKLKELRDKLNGIEIDDDVEMTKLTFDLEKEKERAKKIAEEKK,AELLTKTLPDILTFNLDIVIIGINPGLMAAYKGHHYPGPGNHFWKCLFMSGLSEVQLNHMDDHTLPGKYGIGFTNMVERTTPGSKDLSSKEFREGGRILVQKLQKYQPRIAVFNGKCIYEIFSKEVFGVKVKNLEFGLQPHKIPDTETLCYVMPSSSARCAQFPRAQDKVHYYIKLKDLRDQLKGIERNMDVQEVQYTFDLQLAQEDAKKMAVKEE,GGKVVVKVVTEDDMVIEFEVRKDVDLKKLKETLCRILGVPLDSIELYYNG,GEYIKLKVIGQDSSEIHFKVKMTTHLKKLKESYCQRQGVPMNSLRFLFEG
