contacts,cs,ce,Chain,Length,designed_receptor_seq,native_receptor_seq,designed_binder_seq,native_binder_seq
28.0,35,45,A,10,GSMSEEIKSLLEFEKNRKASIEALEKMKGHKVTFSMKGGKTTSAVFNATDDAFEVFYVSELETPEGVVKEAVIKVSDVKSVSYTD,AQESLESQEQRARAALRERYLRSLLAMVGHQVSFTLHEGVRVAAHFGATDLDVANFYVSQLQTPIGVQAEALLRCSDIISYTFKP,GVDPVSNAKF,TTDPVSANIV
37.0,23,43,A,20,GSMSEEIKSLLEFEKNYKKAVEALEKMKGHKMTFTMKGGKTLSAVFNATDEKFEVFYVSELETPEGVVKEAVIKVSDVISVSYTD,AQESLESQEQRARAALRERYLRSLLAMVGHQVSFTLHEGVRVAAHFGATDLDVANFYVSQLQTPIGVQAEALLRCSDIISYTFKP,GEEGLEFEGEVVTVDPVSLR,ASEKNEYKGWVLTTDPVSAN
58.0,34,64,A,30,GSMSEEIKSKLEFLKNREAAIKALENMKGHKVTFGMKDGKTTSAIFNDTDDEFSVFYVSELETPEGIVKEAVIKVSDVISVTYSP,AQESLESQEQRARAALRERYLRSLLAMVGHQVSFTLHEGVRVAAHFGATDLDVANFYVSQLQTPIGVQAEALLRCSDIISYTFKP,ITTDPVSNDTFYEYNNEDGTVSIEAVVGSA,LTTDPVSANIVLVNFLEDGSMSVTGIMGHA
66.0,24,64,A,40,GSMSEEIKSRLEFLKNREAAIKALENMKGHKVTFTMKDGKTTSAIFNDTDDKFEVFYVSELETPEGIVKEAVIKVSDVISVTYSP,AQESLESQEQRARAALRERYLRSLLAMVGHQVSFTLHEGVRVAAHFGATDLDVANFYVSQLQTPIGVQAEALLRCSDIISYTFKP,KENLEFKGEVITVDPVSNDIFLKNNNEDGTVSITSIVGSA,SEKNEYKGWVLTTDPVSANIVLVNFLEDGSMSVTGIMGHA
71.0,8,58,A,50,GSMSEEILSEEARKKLREAAIEALEKMKGHRVTFTLKEGKTLSAIFNDTDEEVSVFYVSELETPEGIIEEAIIKVEDVISVTYSP,AQESLESQEQRARAALRERYLRSLLAMVGHQVSFTLHEGVRVAAHFGATDLDVANFYVSQLQTPIGVQAEALLRCSDIISYTFKP,ALEALKLIDKEVEVEAEEGNKFKGKVLCIDPVSNAIFLEKENEDGTVSIS,PLEWQDYIYKEVRVTASEKNEYKGWVLTTDPVSANIVLVNFLEDGSMSVT
30.0,74,84,B,10,GSHWKSLAPSELEKLVYKKVKVSASKDNEFEGWVLNVDPVTSDITLVNFNDDGTTSVTTIKGHSVETVEVLDEGDEEIKEKLKKLS,MSEWMKKGPLEWQDYIYKEVRVTASEKNEYKGWVLTTDPVSANIVLVNFLEDGSMSVTGIMGHAVQTVETMNEGDHRVREKLMHLF,GSDVIYETWK,CSDIISYTFK
42.0,7,27,B,20,GSHWKKLKPSELMKLVYKKVKVEAKDDKKFEGWVLCVDPVTSDICLVNFEEDGSVSVTFIKGKDVITVEVLDEGDEEIKEKLKKLF,MSEWMKKGPLEWQDYIYKEVRVTASEKNEYKGWVLTTDPVSANIVLVNFLEDGSMSVTGIMGHAVQTVETMNEGDHRVREKLMHLF,KEEEEKKKLLEKYIEAIKAF,QEQRARAALRERYLRSLLAM
45.0,7,37,B,30,GSHWKKLKPSEYYKLIYKKVKVEASKDRKFEGWVYCVDPVTSDICLINFEEDGSVSVTFIEGESVETVEVLDEGDEEIKEKLKKLF,MSEWMKKGPLEWQDYIYKEVRVTASEKNEYKGWVLTTDPVSANIVLVNFLEDGSMSVTGIMGHAVQTVETMNEGDHRVREKLMHLF,EEEEEEEKLYEAYVKALEGAKGKKVKVVEP,QEQRARAALRERYLRSLLAMVGHQVSFTLH
46.0,0,40,B,40,GSHWKSLSPLEYMKLVYKKVKVSASEDRKFEGWVLCVDPVTSDICLVNFEEDGSVSVTWIAGESVETVEVLDEGDEEIREKLEKLF,MSEWMKKGPLEWQDYIYKEVRVTASEKNEYKGWVLTTDPVSANIVLVNFLEDGSMSVTGIMGHAVQTVETMNEGDHRVREKLMHLF,EEESEEVKEEEAREKLREKYVKALEGAKGKKVVVEEEEGE,AQESLESQEQRARAALRERYLRSLLAMVGHQVSFTLHEGV
53.0,3,53,B,50,GSHWKKLKPTEYMKLVYKKVKVEASEDRKFEGWVLCVDPVTSDICLVNFEEDGSVSVTWIAGESVETVEVLDEGDEEIKEKLKKLF,MSEWMKKGPLEWQDYIYKEVRVTASEKNEYKGWVLTTDPVSANIVLVNFLEDGSMSVTGIMGHAVQTVETMNEGDHRVREKLMHLF,EEEEEEEEAEEELREKYVKALEGMKGKKVKLYLKDGKVKEMVFGKVDEEG,SLESQEQRARAALRERYLRSLLAMVGHQVSFTLHEGVRVAAHFGATDLDV
