contacts,cs,ce,Chain,Length,designed_receptor_seq,native_receptor_seq,designed_binder_seq,native_binder_seq
25.0,0,10,A,10,SNAMAPERPDRLRAWYTRLLEADLTPCLVVDVRLPGVQVPLEYARDGRIVLRIAPAAVGDLSLDDAAVTFTARFGGTPTAVRIPLAAVLAIFAWENGEGVRFEPEAAFE,LSQLTPRRPYLLRAFYEWLLDNQLTPHLVVDVTLPGVQVPMEYARDGQIVLNIAPRAVGNLELANDEVRFNARFGGIPRQVSVPLAAVLAIYARENGAGTMFEPEAAYD,AEQLGPDEWR,EAQPAPHQWQ
0.0,0,0,A,0,SNAMAPERPDRLRAWYTRLLEADRTPHLVVDVRLPGVQVPLEFARDGRIVLDISPAAVGDLSLDDAAVTFTARFGGVPRRVRIPMAAVLAIFAAEDGAGVRFEPEAAFE,LSQLTPRRPYLLRAFYEWLLDNQLTPHLVVDVTLPGVQVPMEYARDGQIVLNIAPRAVGNLELANDEVRFNARFGGIPRQVSVPLAAVLAIYARENGAGTMFEPEAAYD,SNAMAPERPDRLRAWYTRLLEADRTPHLVVDVRLPGVQVPLEFARDGRIVLDISPAAVGDLSLDDAAVTFTARFGGVPRRVRIPMAAVLAIFAAEDGAGVRFEPEAAFEAAAAAAAAAA,
0.0,0,0,A,0,SNAMAPERPDRLRAWYTRLLEADRTPHLVVDVRLPGVQVPLEFARDGRIVLDISPAAVGDLSLDDAAVTFTARFGGVPRRVRIPMAAVLAIFAAEDGAGVRFEPEAAFE,LSQLTPRRPYLLRAFYEWLLDNQLTPHLVVDVTLPGVQVPMEYARDGQIVLNIAPRAVGNLELANDEVRFNARFGGIPRQVSVPLAAVLAIYARENGAGTMFEPEAAYD,SNAMAPERPDRLRAWYTRLLEADRTPHLVVDVRLPGVQVPLEFARDGRIVLDISPAAVGDLSLDDAAVTFTARFGGVPRRVRIPMAAVLAIFAAEDGAGVRFEPEAAFEAAAAAAAAAA,
0.0,0,0,A,0,SNAMAPERPDRLRAWYTRLLEADRTPHLVVDVRLPGVQVPLEFARDGRIVLDISPAAVGDLSLDDAAVTFTARFGGVPRRVRIPMAAVLAIFAAEDGAGVRFEPEAAFE,LSQLTPRRPYLLRAFYEWLLDNQLTPHLVVDVTLPGVQVPMEYARDGQIVLNIAPRAVGNLELANDEVRFNARFGGIPRQVSVPLAAVLAIYARENGAGTMFEPEAAYD,SNAMAPERPDRLRAWYTRLLEADRTPHLVVDVRLPGVQVPLEFARDGRIVLDISPAAVGDLSLDDAAVTFTARFGGVPRRVRIPMAAVLAIFAAEDGAGVRFEPEAAFEAAAAAAAAAA,
0.0,0,0,A,0,SNAMAPERPDRLRAWYTRLLEADRTPHLVVDVRLPGVQVPLEFARDGRIVLDISPAAVGDLSLDDAAVTFTARFGGVPRRVRIPMAAVLAIFAAEDGAGVRFEPEAAFE,LSQLTPRRPYLLRAFYEWLLDNQLTPHLVVDVTLPGVQVPMEYARDGQIVLNIAPRAVGNLELANDEVRFNARFGGIPRQVSVPLAAVLAIYARENGAGTMFEPEAAYD,SNAMAPERPDRLRAWYTRLLEADRTPHLVVDVRLPGVQVPLEFARDGRIVLDISPAAVGDLSLDDAAVTFTARFGGVPRRVRIPMAAVLAIFAAEDGAGVRFEPEAAFEAAAAAAAAAA,
16.0,42,52,B,10,MRQLTPEEWKKLPFFKKL,EAQPAPHQWQKMPFWQKV,NEVDGIIVIK,YARDGQIVLN
20.0,37,57,B,20,MKQLTPEEWKKLPFFKEL,EAQPAPHQWQKMPFWQKV,KVPEELAVDGVIVIDITPEY,QVPMEYARDGQIVLNIAPRA
23.0,26,56,B,30,MRQLTPEEWMKLPFWKEF,EAQPAPHQWQKMPFWQKV,YLVIDVTKPGVKVPMELAVDGYIVVDVRPP,HLVVDVTLPGVQVPMEYARDGQIVLNIAPR
26.0,17,57,B,40,MKQLTPEEWKKLPFWKEF,EAQPAPHQWQKMPFWQKV,EALEKKLRPHLVIDVRKPGVKVPLELAVDGYIVVDISPEP,WLLDNQLTPHLVVDVTLPGVQVPMEYARDGQIVLNIAPRA
34.0,44,94,B,50,MEQLKPEEWKKLPFWKEL,EAQPAPHQWQKMPFWQKV,EDGYIALDISPEHVGNLKLDGEEVTFDAKFGGKPEKVSIPRKNVLAVKKP,RDGQIVLNIAPRAVGNLELANDEVRFNARFGGIPRQVSVPLAAVLAIYAR
