contacts,cs,ce,Chain,Length,designed_receptor_seq,native_receptor_seq,designed_binder_seq,native_binder_seq
39.0,14,24,A,10,SEEELKAKEMLTEEQIGEFKEAFSLFDKDGDGSISTKELGTVMRSLGQNPTEAELQDMINEVDADGSGTIDFAEFLVMMVRMKREEEERERREELREAFRIFDKDGNGYISTAELRHVMTSLGEKLTEEEVEEVMREADVDGDGQINFEEFLRMMAGTP,TDQQAEARAFLSEEMIAEFKAAFDMFDADGGGDISTKELGTVMRMLGQNPTKEELDAIIEEVDEDGSGTIDFEEFLVMMVRQMKEDAKGKSEEELANCFRIFDKNADGFIDIEELGEILRATGEHVTEEDIEDLMKDSDKNNDGRIDFDEFLKMMEGVQ,KLRAVMKKIM,LKSAMLQLAV
51.0,7,27,A,20,MAEIEEAKKELTEEQIKEFKEAFDLFDKDGDGAISTKELGTVMRSLGQNPTEAELQDMINEVDADGSGTIDFEEFLVMMVRMKREEERREREEELREAFRIFDKDGNGYIDIRELGTVMRSLGEKVTEEDLREVMREADVDGDGQINFEEFLRVMRGTP,TDQQAEARAFLSEEMIAEFKAAFDMFDADGGGDISTKELGTVMRMLGQNPTKEELDAIIEEVDEDGSGTIDFEEFLVMMVRQMKEDAKGKSEEELANCFRIFDKNADGFIDIEELGEILRATGEHVTEEDIEDLMKDSDKNNDGRIDFDEFLKMMEGVQ,KEERLRRLLRGIYRYAKEKM,ATARRQHLKSAMLQLAVTEI
52.0,0,30,A,30,MDEIEEAKKELTEEQIKEFKEAFDLFDKDGDGAISTKELGTVMRSLGQNPTEAELQDMINEVDADGSGTIDFEEFLVMMVRMMKEKEREERLRELREAFRIFDKDGNGYIDISELGTVMRSLGEKVTEEDIREVMREADVDGDGQINFEEFLRMMKGTT,TDQQAEARAFLSEEMIAEFKAAFDMFDADGGGDISTKELGTVMRMLGQNPTKEELDAIIEEVDEDGSGTIDFEEFLVMMVRQMKEDAKGKSEEELANCFRIFDKNADGFIDIEELGEILRATGEHVTEEDIEDLMKDSDKNNDGRIDFDEFLKMMEGVQ,ADPEAELRERRIRELLRGILRYAREERRRR,EEKKRRAATARRQHLKSAMLQLAVTEIEKE
54.0,97,137,A,40,MAEIEEAKKELSEEQIGLLKEAFSLFDKDGDGSISKKELGTVMRSLGQNPTEEELNEMIREVDIDGSGTIDFEEFLVMMVKRMREDAERERLRELREAFRLFDKDGDGYISVAELRRVMTSLGEKLTEEEVQEMMREADVDGDGQINFEEFLRVMAGKE,TDQQAEARAFLSEEMIAEFKAAFDMFDADGGGDISTKELGTVMRMLGQNPTKEELDAIIEEVDEDGSGTIDFEEFLVMMVRQMKEDAKGKSEEELANCFRIFDKNADGFIDIEELGEILRATGEHVTEEDIEDLMKDSDKNNDGRIDFDEFLKMMEGVQ,EEEEEEEEEEEEEEEEMSIREILRRLLGEKVEEEEEEEEE,FDLRGKFKRPPLRRVRMSADAMLRALLGSKHKVNMDLRAN
54.0,87,137,A,50,MAEIEEAKKELSEEQIGLLKKAFDLFDKDGDGSISKKELGTVMRSLGQNPTEEELNEMIREVDIDGSGTIDFEEFLVMMVKRMREDAERERLRELREAFRLFDKDGDGYISVAELRRVMTSLGEKLTEEEVEEMMREADVDGDGQINFEEFLRVMKGKE,TDQQAEARAFLSEEMIAEFKAAFDMFDADGGGDISTKELGTVMRMLGQNPTKEELDAIIEEVDEDGSGTIDFEEFLVMMVRQMKEDAKGKSEEELANCFRIFDKNADGFIDIEELGEILRATGEHVTEEDIEDLMKDSDKNNDGRIDFDEFLKMMEGVQ,EEEEEEEEEEEEEEGEKEEKPRRRRGKSLREILRELLGEEAEEEEEEEEE,KELEDLSQKLFDLRGKFKRPPLRRVRMSADAMLRALLGSKHKVNMDLRAN
19.0,91,101,B,10,MGPLDKLKKELEEGKRKAEEEAAKKALEEKRKAEEERRREEAARRNPPFVAPAGGEEAAALLARLEAERKRLEEERRRLEEERRRLEEERRRLEEELRRRYGELENPPLRERGKSLRELLEERFGELARVEVREEEFREPE,EEKKRRAATARRQHLKSAMLQLAVTEIEKEAAAKEVEKQNYLAEHSPPLSLPGSMQELQELSKKLHAKIDSVDEERYDTEVKLQKTNKELEDLSQKLFDLRGKFKRPPLRRVRMSADAMLRALLGSKHKVNMDLRANLKQV,EEEEEEGEEL,EEELANCFRI
31.0,81,101,B,20,MGPLDALRERLGEGERLLREGLGEVLLRLREELERGGEELLRALEEPEEELPEGGEELLAALLRRREELRRRREELRRLEEELRRLEEELRRLEEELRRLLGELERPPLRERGPSLRELLEERLGELAEEELREEEEEEPP,EEKKRRAATARRQHLKSAMLQLAVTEIEKEAAAKEVEKQNYLAEHSPPLSLPGSMQELQELSKKLHAKIDSVDEERYDTEVKLQKTNKELEDLSQKLFDLRGKFKRPPLRRVRMSADAMLRALLGSKHKVNMDLRANLKQV,PPPGDEEEERLRREALLREL,QMKEDAKGKSEEELANCFRI
34.0,72,102,B,30,MGKLDKLKKLEEEGKRLAEEAAAEAALEAVRVAREGLERLAAALEAPALELPEGGEALAALGARLAAENARLEAERAALEARLAAAEAGLAALAAAVAAAEGEPANPPLAERGESLAELLARRYGAEAAAAAAAAAAAAPA,EEKKRRAATARRQHLKSAMLQLAVTEIEKEAAAKEVEKQNYLAEHSPPLSLPGSMQELQELSKKLHAKIDSVDEERYDTEVKLQKTNKELEDLSQKLFDLRGKFKRPPLRRVRMSADAMLRALLGSKHKVNMDLRANLKQV,AALAAAAAARLAGDAAAAAAARAAAGAALA,EEFLVMMVRQMKEDAKGKSEEELANCFRIF
43.0,84,124,B,40,MGPLDRLKALERLGRALALRRWAVEERRRRAEERRGREEEALAREAPPLELPEGGEELLALLARLQEERERLERERERLEEELRRLEEELRRLEEELRRRYGELENPPLRERGPSLRELLRERFGELARREEEEEEEEEPE,EEKKRRAATARRQHLKSAMLQLAVTEIEKEAAAKEVEKQNYLAEHSPPLSLPGSMQELQELSKKLHAKIDSVDEERYDTEVKLQKTNKELEDLSQKLFDLRGKFKRPPLRRVRMSADAMLRALLGSKHKVNMDLRANLKQV,EEEEEEEEEELRELFRLLDRDRDGRIDLEEFLRALRATGL,EDAKGKSEEELANCFRIFDKNADGFIDIEELGEILRATGE
51.0,80,130,B,50,GGMASKAELLRRQRLALALRRWAEEELVRREVERLGRLEELLAERFPPLELPEGGEELLALLARLQEENRRLREEVERLREEVERLREEERRLEEELRRRYGELENPPLRERGPSLRELLRERYGELARLEEEEEEEEEPE,EEKKRRAATARRQHLKSAMLQLAVTEIEKEAAAKEVEKQNYLAEHSPPLSLPGSMQELQELSKKLHAKIDSVDEERYDTEVKLQKTNKELEDLSQKLFDLRGKFKRPPLRRVRMSADAMLRALLGSKHKVNMDLRANLKQV,ELRREDERRRREERLRRYFEVLDRDRDGRIDREELWRALRATGEEVEPEE,RQMKEDAKGKSEEELANCFRIFDKNADGFIDIEELGEILRATGEHVTEED
