contacts,cs,ce,Chain,Length,designed_receptor_seq,native_receptor_seq,designed_binder_seq,native_binder_seq
35.0,9,19,A,10,VVGGFDCGPHRQPWQVSLNSGYHFCGGSLINERWVVSAAHCHRSNVTVVLGEHDITTEEGNEQRIRASLAVVHPQYNSSTLDNDIMLIKLSSPATLNSNVAAIALPTSCASPGTQCLVSGWGNILSSGSSYPDTLQCLNAPILSDADCRRSYPGQITDNMFCAGLEGGDSCQGDSGGPMVCNGRLQGIVSWGDGCARNKPGVYTRVCNYVSWINSTISSN,IVGGYTCGANTVPYQVSLNSGYHFCGGSLINSQWVVSAAHCYKSGIQVRLGEDNINVVEGNEQFISASKSIVHPSYNSNTLNNDIMLIKLKSAASLNSRVASISLPTSCASAGTQCLISGWGNTKSSGTSYPDVLKCLKAPILSTSSCKSAYPGQITSNMFCAGLEGGDSCQGDSGGPVVCSGKLQGIVSWGSGCAKNKPGVYTKVCNYVSWIKQTIASN,SSGPTKVLQN,DYGPCRALLL
35.0,0,20,A,20,VVGGFDCGPHRQPWQVSLHSGYHFCGGSLINERWVVSAAHCYRSNVTVRLGEYNINTEEGNEQKIRASLAVVHPQYNSSTLDNDIMLIKLSSPATLNSNVAAIALPTSCASPGTQCLVSGWGNTLSSGSSYPDTLQCLNAPILSDADCRRSYPGQITDNMFCAGLEGGDSCQGDSGGPMVCNGQLQGIVSWGDGCARNKPGVYTRVCNYVSWINSTISSN,IVGGYTCGANTVPYQVSLNSGYHFCGGSLINSQWVVSAAHCYKSGIQVRLGEDNINVVEGNEQFISASKSIVHPSYNSNTLNNDIMLIKLKSAASLNSRVASISLPTSCASAGTQCLISGWGNTKSSGTSYPDVLKCLKAPILSTSSCKSAYPGQITSNMFCAGLEGGDSCQGDSGGPVVCSGKLQGIVSWGSGCAKNKPGVYTKVCNYVSWIKQTIASN,SSSSSSSPYNAGPIKVLLPQ,PAEICLLPLDYGPCRALLLR
42.0,9,39,A,30,VVGGFDCGPHRQPWQVALHSGYHFCGGSLINERWVVSAAHCHRSNVTVVLGEYNINTWEGNEQWIRASLAVVHPSYNSSTLDNDIMLIKLSSPATLNSNVAAIALPTSCASPGTQCLVSGWGNTLSSGSSIPDTLQCLNAPILSDSSCRSSYPGQITSNMFCAGLEGGDSCQGDSGGPMVCNGQLQGIVSWGSGCARNKPGVYTRVCNYVSWINSTISSN,IVGGYTCGANTVPYQVSLNSGYHFCGGSLINSQWVVSAAHCYKSGIQVRLGEDNINVVEGNEQFISASKSIVHPSYNSNTLNNDIMLIKLKSAASLNSRVASISLPTSCASAGTQCLISGWGNTKSSGTSYPDVLKCLKAPILSTSSCKSAYPGQITSNMFCAGLEGGDSCQGDSGGPVVCSGKLQGIVSWGSGCAKNKPGVYTKVCNYVSWIKQTIASN,GRGPADARLLRTYYDSSSSSTRNYYWGGST,DYGPCRALLLRYYYDRYTQSCRQFLYGGCE
42.0,0,40,A,40,VVGGFDCGPHRQPWQVALHSGYHFCGGSLINERWVVSAAHCHRSNVTVVLGEYNINTWEGNEQRIRASLAVVHPQYNGSTLDNDIMLIKLSSPATLNSNVAAIALPTSCASPGTQCLASGWGNTLSSGSSYPDTLQCLNMPILSDSSCRSSYPGQITSNMFCAGLEGGDTCQGDSGGPLVCNGQLQGIVSWGSGCARNKPGVYTRVCNYVSWINSTISSN,IVGGYTCGANTVPYQVSLNSGYHFCGGSLINSQWVVSAAHCYKSGIQVRLGEDNINVVEGNEQFISASKSIVHPSYNSNTLNNDIMLIKLKSAASLNSRVASISLPTSCASAGTQCLISGWGNTKSSGTSYPDVLKCLKAPILSTSSCKSAYPGQITSNMFCAGLEGGDSCQGDSGGPVVCSGKLQGIVSWGSGCAKNKPGVYTKVCNYVSWIKQTIASN,SSSSSSQPVDRGPCLARLKRTYYNSSTNSTESYYWGGCAG,PAEICLLPLDYGPCRALLLRYYYDRYTQSCRQFLYGGCEG
42.0,0,50,A,50,VVGGFDCGAHTRPYQVALNSGYHFCGGSLINERWVVSAAHCYRSNVTVVLGEYNINTWEGNEQRIRASLAVVHPSYNSSTLDNDIMLIKLSSPATLNSNVAAIALPTSDASPGTMCLASGWGNTLSSGSSYPDTLQCLNMPILSDSSCRSSYPGQITSNMFCAGLEGGDTCQGDSGGPLVCNGRLQGIVSWGSGCARNKPGVYTKVSNYVSWINSTISSN,IVGGYTCGANTVPYQVSLNSGYHFCGGSLINSQWVVSAAHCYKSGIQVRLGEDNINVVEGNEQFISASKSIVHPSYNSNTLNNDIMLIKLKSAASLNSRVASISLPTSCASAGTQCLISGWGNTKSSGTSYPDVLKCLKAPILSTSSCKSAYPGQITSNMFCAGLEGGDSCQGDSGGPVVCSGKLQGIVSWGSGCAKNKPGVYTKVCNYVSWIKQTIASN,SSSVRDLPVDRGPCLARLKRWYYNSSTNSCEQFYWGGCAGNGNNFSSKSS,PAEICLLPLDYGPCRALLLRYYYDRYTQSCRQFLYGGCEGNANNFYTWEA
12.0,165,175,B,10,EAEVCLLPVDVGPCLARLPRWYYNSSTAACEQFLYGGCQGNANNFDSREECERACARLE,PAEICLLPLDYGPCRALLLRYYYDRYTQSCRQFLYGGCEGNANNFYTWEACDDACWRIE,PPPPPRHGDG,EGGDSCQGDS
17.0,171,191,B,20,EAEVCLLPVDVGPCKAKIPRWYYNSSTSSCEQFLYGGCQGNENNFDSKEECEKTCSSIE,PAEICLLPLDYGPCRALLLRYYYDRYTQSCRQFLYGGCEGNANNFYTWEACDDACWRIE,YGTCGKEIVINGELVGICSQ,QGDSGGPVVCSGKLQGIVSW
21.0,165,195,B,30,EAEVCLLPVDVGPCKALLPRWYYNSSTSSCEQFLYGGCQGNGNNFDSQEECEQTCAEIE,PAEICLLPLDYGPCRALLLRYYYDRYTQSCRQFLYGGCEGNANNFYTWEACDDACWRIE,EEGECKHGDGGKKIVVNGELVGVCSWFEGC,EGGDSCQGDSGGPVVCSGKLQGIVSWGSGC
21.0,155,195,B,40,AAEVCLLPVDVGPCKALLPRWYYNSSTSSCEQFLYGGCQGNGNNFASREECEQACASLD,PAEICLLPLDYGPCRALLLRYYYDRYTQSCRQFLYGGCEGNANNFYTWEACDDACWRIE,LTERMFAAGGRGGDSCQGDSGGPVVVNGRLVGVVSWGPNC,ITSNMFCAGLEGGDSCQGDSGGPVVCSGKLQGIVSWGSGC
21.0,145,195,B,50,AAEVCLLPVDVGPCKALLPRWYYNSSTSACEPFLYGGCEGNANNFASREECERACARLE,PAEICLLPLDYGPCRALLLRYYYDRYTQSCRQFLYGGCEGNANNFYTWEACDDACWRIE,PPCEARYPGQITDRMFCAGREGGDACHGDSGGPVVVNGRLVGVVSWGRGC,SSCKSAYPGQITSNMFCAGLEGGDSCQGDSGGPVVCSGKLQGIVSWGSGC
