contacts,cs,ce,Chain,Length,designed_receptor_seq,native_receptor_seq,designed_binder_seq,native_binder_seq
32.0,64,74,A,10,MKLVFSDESLADYEYWKSTDAKKLEKIEELIAAIKKTPFSGLGKPEPLKSELAGTWSRRITNKDRLIYAVTDTELLIASCKKHD,MKLIWSEESWDDYLYWQETDKRIVKKINELIKDTRRTPFEGKGKPEPLKHNLSGFWSRRITEEHRLVYAVTDDSLLIAACRYHY,KLLIKSIKEL,RRLMDSIDSL
56.0,65,85,A,20,MKLIFSDQSWADYQYWLSTDAKKLERINELIAAIQKTPFSGLGKPEPLKDKYAGYWSRRITDKDRLIYAVTDTELLIGACKKHD,MKLIWSEESWDDYLYWQETDKRIVKKINELIKDTRRTPFEGKGKPEPLKHNLSGFWSRRITEEHRLVYAVTDDSLLIAACRYHY,RYLPSIAELKAGKGVERALK,RLMDSIDSLKSGKGTEKDII
72.0,55,85,A,30,MKLIFSDQSWADYQYWLSTDAKKLERINELIAATQKTPFSGLGKPEPLKDELAGYWSRRITDRDRLVYAVTDTELLIGSCKYHT,MKLIWSEESWDDYLYWQETDKRIVKKINELIKDTRRTPFEGKGKPEPLKHNLSGFWSRRITEEHRLVYAVTDDSLLIAACRYHY,GLLSAPAHAKYLLESIAQLKAGQGKERALA,YLLRSPANARRLMDSIDSLKSGKGTEKDII
85.0,45,85,A,40,MKLIFSDQSWADYQYWLSTDAKKLERINQLIAATQKTPFSGLGKPTPLLDELAGYWARSITNRDRLVYAVTDTELLIASCKYHH,MKLIWSEESWDDYLYWQETDKRIVKKINELIKDTRRTPFEGKGKPEPLKHNLSGFWSRRITEEHRLVYAVTDDSLLIAACRYHY,PEKESADMTAYLLKAPANAKYLLESIAQLKAGQGKERALA,EEYNSLEETAYLLRSPANARRLMDSIDSLKSGKGTEKDII
85.0,35,85,A,50,MKLIFSKQSWADYQYWLSTDQKKLEKINQLIAATQKTPFSGLGKPTPLLDELSGYWARSITNRDRLVYAVTDTELLIASCKYHT,MKLIWSEESWDDYLYWQETDKRIVKKINELIKDTRRTPFEGKGKPEPLKHNLSGFWSRRITEEHRLVYAVTDDSLLIAACRYHY,GGKKVKVMSKEEYESADMTRYLLSAPANAKRLLNSIAELKAGKGVEKEIK,NGEACVLMSLEEYNSLEETAYLLRSPANARRLMDSIDSLKSGKGTEKDII
29.0,0,10,B,10,MPKLKTISKEEYDKNKEEVIKWVIENNEPILVTKKDGKDVVVMSKELYDKVKAAVDLLSDPKNAENLIKSAKEMLAGKGKVRERIV,GPHMRTISYSEARQNLSATMMKAVEDHAPILITRQNGEACVLMSLEEYNSLEETAYLLRSPANARRLMDSIDSLKSGKGTEKDIIE,KELVYTKISR,MKLIWSEESW
31.0,0,20,B,20,MPKLKTISKEEYDKNKEEVIKWVIENNEPILVTKKDGKDVIVMSKELYDKVKAARDLLSDPKNAELLIKSALEMIAGKGKERERIE,GPHMRTISYSEARQNLSATMMKAVEDHAPILITRQNGEACVLMSLEEYNSLEETAYLLRSPANARRLMDSIDSLKSGKGTEKDIIE,RKLIFTDIDWERYEKRKKEK,MKLIWSEESWDDYLYWQETD
37.0,1,31,B,30,MPKLKTISKEEYDKNKEEVIKWVIENNEPILVTRKDGKDVIVMSKELYDKVKAAVDLLSDPKRAELLIKSALEMIAGKGKERELIE,GPHMRTISYSEARQNLSATMMKAVEDHAPILITRQNGEACVLMSLEEYNSLEETAYLLRSPANARRLMDSIDSLKSGKGTEKDIIE,KLIFTDIDWARYEYLLKTDKEKVKELNKRY,KLIWSEESWDDYLYWQETDKRIVKKINELI
45.0,43,83,B,40,MPKLKTISKEVYDKNKEEVIAWVKENNEPILVTRKDGKDIVVMSKELYDSVDMTNYLLSNPKHAENLMKSIEKLKAGEGKEKKRKK,GPHMRTISYSEARQNLSATMMKAVEDHAPILITRQNGEACVLMSLEEYNSLEETAYLLRSPANARRLMDSIDSLKSGKGTEKDIIE,YTYPLKDELAGYYASSITNKDRLVYAVTDTELLIAAKKYY,KPEPLKHNLSGFWSRRITEEHRLVYAVTDDSLLIAACRYH
57.0,2,52,B,50,MPKLKTISLEEYQKNKEEVIKWVIENDEPILVTRKDGKDVIVMSLKLFESAAATARLLANPKNAELLIKSRDEMLAGKGKKREIIE,GPHMRTISYSEARQNLSATMMKAVEDHAPILITRQNGEACVLMSLEEYNSLEETAYLLRSPANARRLMDSIDSLKSGKGTEKDIIE,FIWSEETWAHYEYLLKTDKEALKELNRLVKAAKKTPFSGLGKPVPLLKIL,LIWSEESWDDYLYWQETDKRIVKKINELIKDTRRTPFEGKGKPEPLKHNL
