contacts,cs,ce,Chain,Length,designed_receptor_seq,native_receptor_seq,designed_binder_seq,native_binder_seq
28.0,80,90,A,10,ACENVDCGPGRICRTNEKGECECVCNPDCSNIEYKGPVCGSDGVTYPNECALLRARCEKMPDLVVQYRGECQKTCENVTCPGETTCVVDSVNRAHCIKPFTECPVPDDTSSDLCGKDGVTYSSACALQKATCLKGESIGLAHKGKCKK,TCENVDCGPGKKCRMNKKNKPRCVCAPDCSNITWKGPVCGLDGKTYRNECALLKARCKEQPELEVQYQGKCKKTCRDVFCPGSSTCVVDQTNNAYCVTCNRICPEPSSSEQSLCGNDGVTYSSACHLRKATCLLGRSIGLAYEGKCIK,LSFDDNLDIV,LYYDDGQNII
46.0,73,93,A,20,ECENVDCGPGRICRTNEKGECECVCNPDCSNIEYKGPVCGSDGVTYPNECALLRARCESYPDLIVQYRGECQKTCENVTCPGESTCIVDQVNRAHCIIPKTECPVPDDTSSDLCGKDGVTYSSACALQKATCLKGESIGLAHKGSCKD,TCENVDCGPGKKCRMNKKNKPRCVCAPDCSNITWKGPVCGLDGKTYRNECALLKARCKEQPELEVQYQGKCKKTCRDVFCPGSSTCVVDQTNNAYCVTCNRICPEPSSSEQSLCGNDGVTYSSACHLRKATCLLGRSIGLAYEGKCIK,GTYPRSRLYFDDNLDIIHEL,KLRPMSMLYYDDGQNIIKKD
49.0,70,100,A,30,ECENVDCGPGRICRTNEKGECECVCNPDCSNIEYKGPVCGSDGVTYPNECALLRARCESYPYLIVQYRGECQKTCENVTCPGESTCIVDQVNRAHCIIPKTECPVPDDTSSDLCGKDGVTYSSACALQKATCLKGESIGLAHRGSCKE,TCENVDCGPGKKCRMNKKNKPRCVCAPDCSNITWKGPVCGLDGKTYRNECALLKARCKEQPELEVQYQGKCKKTCRDVFCPGSSTCVVDQTNNAYCVTCNRICPEPSSSEQSLCGNDGVTYSSACHLRKATCLLGRSIGLAYEGKCIK,PPGETFPASELFFDENLDIVHRLVPNRICG,VPTKLRPMSMLYYDDGQNIIKKDIQNMIVE
49.0,60,100,A,40,ECENVDCGPGRICRTNEDGECECVCNPDCSNIEYKGPVCGSDGVTYPNECALLRARCESYPYLIVQYRGECQKTCENVTCPGESTCIVDQVNRAHCIIPKTECPVPDDTSSDLCGRDGVTYSSACALQKATCLKGESIGLAHRGSCKE,TCENVDCGPGKKCRMNKKNKPRCVCAPDCSNITWKGPVCGLDGKTYRNECALLKARCKEQPELEVQYQGKCKKTCRDVFCPGSSTCVVDQTNNAYCVTCNRICPEPSSSEQSLCGNDGVTYSSACHLRKATCLLGRSIGLAYEGKCIK,EEEEEEEEEEVCTVTYPASELFFDENLDIVHRLVPNRICG,SPFANLKSCCVPTKLRPMSMLYYDDGQNIIKKDIQNMIVE
49.0,50,100,A,50,ECENVDCGPGRICRTNEKGEPECVCNPDCSNIEYKGPVCGSDGVTYPNECALLRARCESYPYLIVQYRGECQKTCENVTCPGESTCIVDQVNRAHCIIPKTECPVPDDTSSDLCGRDGVTYSSACALQKATCLKGESIGLAHRGSCKE,TCENVDCGPGKKCRMNKKNKPRCVCAPDCSNITWKGPVCGLDGKTYRNECALLKARCKEQPELEVQYQGKCKKTCRDVFCPGSSTCVVDQTNNAYCVTCNRICPEPSSSEQSLCGNDGVTYSSACHLRKATCLLGRSIGLAYEGKCIK,ECEKYCEPGAEPYCPCNKCPVCTKTYPRSELFFDENLDIVHRLVPNQICG,VINHYRMRGHSPFANLKSCCVPTKLRPMSMLYYDDGQNIIKKDIQNMIVE
18.0,53,63,B,10,EDPCEEGECCLVPHYISFKDLGFDELIISPSGYYQNYCEGECPELSLLESVISVFETPGASPYAPVCRCCRPTKRAPMAMTYLDENKEVVTRLLPNMIVEECGCT,GLECDGNICCKKQFFVSFKDIGWNDWIIAPSGYHANYCEGECPSLSFHSTVINHYRMRGHSPFANLKSCCVPTKLRPMSMLYYDDGQNIIKKDIQNMIVEECGCS,EEKEKYYPHL,KARCKEQPEL
26.0,83,103,B,20,EDPCEEGECCLVPHYISFKDLGFDKLIISPEGYYQNYCEGECPELSLLESVISVFETPGAKPYAPVCRCCLPTKRAPRSMLYYDENKEIIHRVLPNMIVEECGCT,GLECDGNICCKKQFFVSFKDIGWNDWIIAPSGYHANYCEGECPSLSFHSTVINHYRMRGHSPFANLKSCCVPTKLRPMSMLYYDDGQNIIKKDIQNMIVEECGCS,PEVIKDQVGREHVVCPSREG,STCVVDQTNNAYCVTCNRIC
27.0,83,113,B,30,EDPCEEGECCLVPHYISFKDLGFDTLIISPKGYYQNYCEGECPELSLLESVISVFETPGAKPYAPVCRCCLPTKRAPREMLYYDENNEIIHRVLPNMIVEECGCT,GLECDGNICCKKQFFVSFKDIGWNDWIIAPSGYHANYCEGECPSLSFHSTVINHYRMRGHSPFANLKSCCVPTKLRPMSMLYYDDGQNIIKKDIQNMIVEECGCS,TETITDQDGKEHTVTPNTCYPVPDDDLLDE,STCVVDQTNNAYCVTCNRICPEPSSSEQSL
40.0,58,98,B,40,EDPCEEGECCLVPSYISFKDLGFDELIIWPEGYYQNYCEGECPELTLLESVISVFETPGATPYAPVCRCCLPTKRAPMGMLYYDENKEIIYRLLPNMIVEECGCT,GLECDGNICCKKQFFVSFKDIGWNDWIIAPSGYHANYCEGECPSLSFHSTVINHYRMRGHSPFANLKSCCVPTKLRPMSMLYYDDGQNIIKKDIQNMIVEECGCS,EYPEAEVIYEGPCEKSCENVECPGESYCITDQVNRAHCVK,EQPELEVQYQGKCKKTCRDVFCPGSSTCVVDQTNNAYCVT
44.0,53,103,B,50,EDPCEEGECCLVPSYISFKDLGFDKLIISPEGYYQNYCEGECPELSLLESVISIFETPGAKPYAPVCKCCLPTKTAPMGMLYYDENKEIIYRLLPNMIVEECGCT,GLECDGNICCKKQFFVSFKDIGWNDWIIAPSGYHANYCEGECPSLSFHSTVINHYRMRGHSPFANLKSCCVPTKLRPMSMLYYDDGQNIIKKDIQNMIVEECGCS,EERKKYYPHLKVIYEGPCEKSCENVTCPGESTCITDQINRAHCVIPSTEE,KARCKEQPELEVQYQGKCKKTCRDVFCPGSSTCVVDQTNNAYCVTCNRIC
