contacts,cs,ce,Chain,Length,designed_receptor_seq,native_receptor_seq,designed_binder_seq,native_binder_seq
6.0,58,68,A,10,MSDVPLTTPLSSSSGKYTLGLVTQPGPFHEAHRADEGSRGAIRAPDGGYPVVRLGGYTADAPLALEVFIGDASGSALAPDVFYQPDPLTGAAVHTAVTVEQRGDTTVLVLTLDPATAYTVTVDAVGILRLPVEQVVARAGNTADGRNDDRVVLVFRVNVPDADGTDVWLQRASTPIETSAARQATVPTIDRQSRTSTTVAGGETVTLTGSNLTADTRVVFRREDAAGNVTWTQTATVTWDPATPNTLTVTVPAYADTAATAPVTVYYYLQNGAGTVSGDQPFTYLPA,ASLPPLEWPLSSQSGSYELRIEVQPKPHHRAHYETEGSRGAVKAPTGGHPVVQLHGYMENKPLGLQIFIGTADERILKPHAFYQVHRITGKTVTTTSYEKIVGNTKVLEIPLEPKNNMRATIDCAGILKLRNADIELRKGETDIGRKNTRVRLVFRVHIPESSGRIVSLQTASNPIECSQRSAHELPMVERQDTDSCLVYGGQQMILTGQNFTSESKVVFTEKTTDGQQIWEMEATVDKDKSQPNMLFVEIPEYRNKHIRTPVKVNFYVINGKRKRSQPQHFTYHPV,GNTVTVTTAP,KCFVRVENVK
6.0,48,68,A,20,MSDVPLTTPLSSSSGKYTLNLVTQPGPFHEAHRADEGSRGAIRAPDGGYPVVQLGGYTADAPLDLEVFIGDASGSALAPDVFYQPDPLTGAAVTTAVRVEQRGDTTVLVLTLDPATAYRVTVDAVGILRLPVEQVVARAGNTADGRNDDRVVLVYRVNVPDADGTDVWLQRASTPIETSAARQATVPTIDRQSRTSTTVAGGETVTLTGSNLTADTRVVFRREDAAGNVTWTQTATVTWDPATPNTLTVTVPAYADTAATAPVTVYYYLQNGAGTVSGDQPFTYLPA,ASLPPLEWPLSSQSGSYELRIEVQPKPHHRAHYETEGSRGAVKAPTGGHPVVQLHGYMENKPLGLQIFIGTADERILKPHAFYQVHRITGKTVTTTSYEKIVGNTKVLEIPLEPKNNMRATIDCAGILKLRNADIELRKGETDIGRKNTRVRLVFRVHIPESSGRIVSLQTASNPIECSQRSAHELPMVERQDTDSCLVYGGQQMILTGQNFTSESKVVFTEKTTDGQQIWEMEATVDKDKSQPNMLFVEIPEYRNKHIRTPVKVNFYVINGKRKRSQPQHFTYHPV,AAQGALLTTRTDFVRVATAA,NAVRHNLSLHKCFVRVENVK
6.0,38,68,A,30,MSDVPLTTPLSSSSGKYTLNLVTQPGPFHEAHLASEGSRGAIKAPDGGYPVVQLGGYTADAPLKLYVFIGDASGSALAPHVFYQPYPLTGANVTTAVEVEQRGDTTVLVLTLDPATNYTVTVDAVGILQLPIEQVVNQAGNTANGYNDRRVVPVFRVNIPDADGTDVWLQVASTPIETSATNQATVPTIDTQSITSTTVAGGTTVTLTGNNLTTNTKVYFVTRDANGNVTWTKQATVTYDPANPNTLSVTVPAYANTAITAPITAYYYLQNGTGTVSGDQPFTYTPT,ASLPPLEWPLSSQSGSYELRIEVQPKPHHRAHYETEGSRGAVKAPTGGHPVVQLHGYMENKPLGLQIFIGTADERILKPHAFYQVHRITGKTVTTTSYEKIVGNTKVLEIPLEPKNNMRATIDCAGILKLRNADIELRKGETDIGRKNTRVRLVFRVHIPESSGRIVSLQTASNPIECSQRSAHELPMVERQDTDSCLVYGGQQMILTGQNFTSESKVVFTEKTTDGQQIWEMEATVDKDKSQPNMLFVEIPEYRNKHIRTPVKVNFYVINGKRKRSQPQHFTYHPV,TGTTNTATWVAALNTLLTTNTAFTKVTTTP,YFRRNAATWKNAVRHNLSLHKCFVRVENVK
7.0,28,68,A,40,MSDVPLTTPLSSSSGKYTLNLVTQPGPFHEAHLASEGSRGAIKAPDGGYPVVSLGGYTADAPLKLYVFIGDASGSALAPDVFYQPYPLTGSSVSTAVEVEQRGDTTVLVLTLDPATNYTVTVDAVGILRLPVEQVVNRAGNTADGRNDRRVVPVFRVNIPDADGTDVWLQRASTPIETSAARQATVPTIDTQSITSTTVAGGTTVTLTGNNLTTTTKVYFVTRDASGTVTETVQATVTYDPANPNTLSVTVPAYANTAATAPITAYYYLQNGTGTVSGDQPFTYTPT,ASLPPLEWPLSSQSGSYELRIEVQPKPHHRAHYETEGSRGAVKAPTGGHPVVQLHGYMENKPLGLQIFIGTADERILKPHAFYQVHRITGKTVTTTSYEKIVGNTKVLEIPLEPKNNMRATIDCAGILKLRNADIELRKGETDIGRKNTRVRLVFRVHIPESSGRIVSLQTASNPIECSQRSAHELPMVERQDTDSCLVYGGQQMILTGQNFTSESKVVFTEKTTDGQQIWEMEATVDKDKSQPNMLFVEIPEYRNKHIRTPVKVNFYVINGKRKRSQPQHFTYHPV,LTGLLTNTFAAFQSNTATWTALLNTVLTTNTAFTKVTTTP,IYSWFTRTFAYFRRNAATWKNAVRHNLSLHKCFVRVENVK
11.0,18,68,A,50,MSDVPLTTPLSSSSGKYTLNLVTQPGPFHEAHRADEGSRGAIRAPDGGYPVVSLGGYTADAPLDLEVFIGDASGSALAPDVFFDPYPLTGAAYHTAVRVEQRGDTTVLVLTLDPATAYTVTVDAVGILRRPVEEVVNRAGNTEDGRNDDRVVPVFRVNIPDADGTDVWLQRASTPIETSAERQRTVPTIDRQSRTSCTVAGGETVTLTGSNLTADTRVVFRREDAAGNVTETVEAAVEWDPARPNTLVVTVPAYADAAATAPVTVYYYLQNGAGTVSGDQPFTYLPA,ASLPPLEWPLSSQSGSYELRIEVQPKPHHRAHYETEGSRGAVKAPTGGHPVVQLHGYMENKPLGLQIFIGTADERILKPHAFYQVHRITGKTVTTTSYEKIVGNTKVLEIPLEPKNNMRATIDCAGILKLRNADIELRKGETDIGRKNTRVRLVFRVHIPESSGRIVSLQTASNPIECSQRSAHELPMVERQDTDSCLVYGGQQMILTGQNFTSESKVVFTEKTTDGQQIWEMEATVDKDKSQPNMLFVEIPEYRNKHIRTPVKVNFYVINGKRKRSQPQHFTYHPV,TADGRLTFPQLVGLLRNTSAAFRSNEAAWVGALGTVLTTDARFTAVATAP,SSDRQLTLNEIYSWFTRTFAYFRRNAATWKNAVRHNLSLHKCFVRVENVK
6.0,138,148,B,10,MEKPPYTMRELICEAILTSGDGKLRFPEIVGWFEETYDYFRSNKRTWVSKAGRVLKEYECFVPVKNEKGVVWTVVPEKYAEKY,IVRPPFTYATLIRQAIMESSDRQLTLNEIYSWFTRTFAYFRRNAATWKNAVRHNLSLHKCFVRVENVKGAVWTVDEVEYQKRR,KGDKKKGKKK,KGETDIGRKN
8.0,128,148,B,20,MEKPPYTMRELICEAILTSGDGKLRFREIVGWFERTYDYFRSNRRTWQGQAGRVLKEYGCFVPVKNEKGVVWTVVPELYEKEG,IVRPPFTYATLIRQAIMESSDRQLTLNEIYSWFTRTFAYFRRNAATWKNAVRHNLSLHKCFVRVENVKGAVWTVDEVEYQKRR,EEPLEEVREREGYEGSGYEE,KLRNADIELRKGETDIGRKN
8.0,118,148,B,30,MEKPPYTMRELICEAILTSGDGKLRFREIVGWFERTYDYFRSNRSSWQKQAGRVLKEYECFVPVKNEKGVVWTVVPEKYAEKY,IVRPPFTYATLIRQAIMESSDRQLTLNEIYSWFTRTFAYFRRNAATWKNAVRHNLSLHKCFVRVENVKGAVWTVDEVEYQKRR,KKEEKKVGVVVLPNEVVRNLEGYEGDGEKE,RATIDCAGILKLRNADIELRKGETDIGRKN
8.0,108,148,B,40,MEKPPYTMRELICEAILTSGDGKLRFREIVGWFERTYDYFRSNRSSWQKQAGRVLKEYECFVPVKNEKGVVWTVVPEKYAEKG,IVRPPFTYATLIRQAIMESSDRQLTLNEIYSWFTRTFAYFRRNAATWKNAVRHNLSLHKCFVRVENVKGAVWTVDEVEYQKRR,VVELTPENNYEAKIDNVGVLVLPNEVVRNLEGNKLDGEKE,EIPLEPKNNMRATIDCAGILKLRNADIELRKGETDIGRKN
8.0,98,148,B,50,MEKPPYTMRELICEAILTSGNGRLRFREIVGWFERTYDYFRSNRRNWQRQVGRVLKEYECFVPEKNERGVVWTVVPEKYAEKY,IVRPPFTYATLIRQAIMESSDRQLTLNEIYSWFTRTFAYFRRNAATWKNAVRHNLSLHKCFVRVENVKGAVWTVDEVEYQKRR,EREEGGVRVVVLEATPENNYEVEVKDVEVKELPLEEVRKLEGYEGDGERE,EKIVGNTKVLEIPLEPKNNMRATIDCAGILKLRNADIELRKGETDIGRKN
