contacts,cs,ce,Chain,Length,designed_receptor_seq,native_receptor_seq,designed_binder_seq,native_binder_seq
18.0,93,103,A,10,MAPELEKLKKIAEVAKEILEEKGGIPGLGEEFEKALEEERKKLEELFGKEDWSKEPEVKLEEPVFE,LDPVQKLFVDKIREYRTKRQTSGGPVDAGPEYQQDLDRELFKLKQMYGKADMNTFPNFTFEDPKFE,KIAELVKKKL,HMINWVEKRV
30.0,71,91,A,20,GSPEFEKLKEEVEKLKEKLEKEGGVPELGPEYEKLKEEILKKLEEEFGKEDHSKPPEVKEKPPVYE,LDPVQKLFVDKIREYRTKRQTSGGPVDAGPEYQQDLDRELFKLKQMYGKADMNTFPNFTFEDPKFE,EEERRKEFWKALAEKLKELE,EVKNRLDYHISVQNMMRQKE
44.0,73,103,A,30,GSHMEELKKKIEEVAKEIAEKKGGVPGLGPEFEKELEEELKKLEEKYGKVDHSKPPEVKELPPVYE,LDPVQKLFVDKIREYRTKRQTSGGPVDAGPEYQQDLDRELFKLKQMYGKADMNTFPNFTFEDPKFE,EVREKYWEALAEKLAEMVAKHGVELVKKKL,KNRLDYHISVQNMMRQKEQEHMINWVEKRV
55.0,63,103,A,40,GSHMEELKKKIEEKIKEIEEKKGGVPGLGEEYEKIKEEIEKELEKIYGKEDHSKEPEFEFEEPKYE,LDPVQKLFVDKIREYRTKRQTSGGPVDAGPEYQQDLDRELFKLKQMYGKADMNTFPNFTFEDPKFE,EKEKIKEEVKKRREEYKKALEEAEKALEEAWKEALVEAKL,ERLHRVYREVKNRLDYHISVQNMMRQKEQEHMINWVEKRV
64.0,53,103,A,50,GSHMEELKKKIEEVKKEIEEYKGGVPGLGEEYEKILEEEKEKLREKYGEEDHSKEPEFEFEEPKFE,LDPVQKLFVDKIREYRTKRQTSGGPVDAGPEYQQDLDRELFKLKQMYGKADMNTFPNFTFEDPKFE,EEEVLEEWEEEKEERKEEEEERREEYWEALEELLEELEEEWEEELVEERL,IAMALEVTYRERLHRVYREVKNRLDYHISVQNMMRQKEQEHMINWVEKRV
21.0,53,63,B,10,MEELKKKLEELEKKVEELEKKLEELEKKVEELEKKLEELEKKLEELEKKLEELEKKLEELKKKLEELEKKLEELKKKLEELEKKLEELEKKLEELEKKLEELEKK,GEFADKLNEQKIAQLEEVKQASIKQIQDAIDMEKSQQALVQKRHYLFDVQRNNIAMALEVTYRERLHRVYREVKNRLDYHISVQNMMRQKEQEHMINWVEKRVVQ,LEPEFEFKEP,TFPNFTFEDP
34.0,45,65,B,20,MEELKKKLEELEKEVEELKKKLEEEEKEKELEEKIKELEEKLKELEEKIKELEEKIKELEREIEIEIEKLKEILRRELYWLYKEAEELKKELEELEKEIEELEKE,GEFADKLNEQKIAQLEEVKQASIKQIQDAIDMEKSQQALVQKRHYLFDVQRNNIAMALEVTYRERLHRVYREVKNRLDYHISVQNMMRQKEQEHMINWVEKRVVQ,LFGEEDHSKEPEFEFEEPEF,MYGKADMNTFPNFTFEDPKF
44.0,35,65,B,30,MEELKKLLEEKERELEEARRREEEERRREEEERRREEEERRREEEEERRREEEERRREEERRREEEERRREEEERRREYWEALREALEELEREREEEERRREEEE,GEFADKLNEQKIAQLEEVKQASIKQIQDAIDMEKSQQALVQKRHYLFDVQRNNIAMALEVTYRERLHRVYREVKNRLDYHISVQNMMRQKEQEHMINWVEKRVVQ,EEERREELRERYGEEDHEREPEFEFEEPEW,LDRELFKLKQMYGKADMNTFPNFTFEDPKF
50.0,24,64,B,40,MEELKKKLEELEKENEELKRKLEEEEREREREREREREREEEEREREEEREREREREEEEREREREEERERERERRERYWEALEEELERLLEEWEREREREREEE,GEFADKLNEQKIAQLEEVKQASIKQIQDAIDMEKSQQALVQKRHYLFDVQRNNIAMALEVTYRERLHRVYREVKNRLDYHISVQNMMRQKEQEHMINWVEKRVVQ,EEEEGEEFEEELEERLEELREEFGEEDHEEEPEFEFEEPE,PVDAGPEYQQDLDRELFKLKQMYGKADMNTFPNFTFEDPK
59.0,13,63,B,50,MEELKKKLEELKKKLEEAKKKAEEEKREEERREEERREEEERREEEERREEEERREEEERAEEEREREREREEERREEYWEALEEELERLREEWREELVEELEEE,GEFADKLNEQKIAQLEEVKQASIKQIQDAIDMEKSQQALVQKRHYLFDVQRNNIAMALEVTYRERLHRVYREVKNRLDYHISVQNMMRQKEQEHMINWVEKRVVQ,VREEIEEWEGGVPEEGEEWEEELEERLEELREEYGEEDHEEEPEFEFEEP,EYRTKRQTSGGPVDAGPEYQQDLDRELFKLKQMYGKADMNTFPNFTFEDP
