contacts,cs,ce,Chain,Length,designed_receptor_seq,native_receptor_seq,designed_binder_seq,native_binder_seq
31.0,16,26,A,10,MGYPLHEACRNNNLEKVKELLEKDPSLLLERDENGRIPLHWAVEYNNLEIVKELLERLKDVSLDDFPDENGWTPFHIACAVGNLEIVKELFERPKKPNLDLQDGDGRTALHLVVGKNHFEVAKYLIEHGASVEVKDGDNRTPLHYAAYIGSLELVKELLGKGKASVDLQDKDGWTPLHWALKSGHWEVAKELVEKYGANPNLQDKDGRTALQLAKDEETKKKFLEAT,SNYPLHQACMENEFFKVQELLHSKPSLLLQKDQDGRIPLHWSVSFQAHEITSFLLSKMENVNLDDYPDDSGWTPFHIACSVGNLEVVKSLYDRPLKPDLNKITNQGVTCLHLAVGKKWFEVSQFLIENGASVRIKDKFNQIPLHRAASVGSLKLIELLCGLGKSAVNWQDKQGWTPLFHALAEGHGDAAVLLVEKYGAEYDLVDNKGAKAEDVALNEQVKKFFLNNV,PSSWEIRKKL,PEADLDSLII
44.0,10,30,A,20,SGFPLHEACRNNNLEKVKELLEKDPSLLLSRDENGRIPLHWAVAYNNLEIVKELLERLKDVSLDDFPDENGWTPFHIACAVGNLEIVKELFERPKKPNLDLQDGDGRTALHLVVGKNHFEVAKFLIEHGASVEVKDKNNRTPLHYAAAVGSLELVKELLGKGKASVDLQDKNGWTPLHHALAKGHWEVAKELVEKYGANPNLQDKNGRTALQLAKDEETKKKFLEAT,SNYPLHQACMENEFFKVQELLHSKPSLLLQKDQDGRIPLHWSVSFQAHEITSFLLSKMENVNLDDYPDDSGWTPFHIACSVGNLEVVKSLYDRPLKPDLNKITNQGVTCLHLAVGKKWFEVSQFLIENGASVRIKDKFNQIPLHRAASVGSLKLIELLCGLGKSAVNWQDKQGWTPLFHALAEGHGDAAVLLVEKYGAEYDLVDNKGAKAEDVALNEQVKKFFLNNV,GKTVLEPWEDKLLEELKKGK,SKMSLAPEADLDSLIIRNDS
49.0,0,30,A,30,MGYPLHEACRNNNLEKVKELLEKDPSLLLERDEEGRIPLHWAVAYNNLEIVKELLERLKDVSLDDFPDKYGWTPFHIACAVGNLEIVKELFERPKKPNLDLQDKDGRTALHLVVGKNHFEVAKFLIEHGASVEVKDKYKRTPLHYAAAVGSLELVKELLGKGKASVDLQDKEGWTPLHLALASGHWEVAKELVEKYGANPNLKDKYGRTALHLAKDEETKKKFLEAV,SNYPLHQACMENEFFKVQELLHSKPSLLLQKDQDGRIPLHWSVSFQAHEITSFLLSKMENVNLDDYPDDSGWTPFHIACSVGNLEVVKSLYDRPLKPDLNKITNQGVTCLHLAVGKKWFEVSQFLIENGASVRIKDKFNQIPLHRAASVGSLKLIELLCGLGKSAVNWQDKQGWTPLFHALAEGHGDAAVLLVEKYGAEYDLVDNKGAKAEDVALNEQVKKFFLNNV,LDPEKWFKEAEKLELEPWFDLFREILKKGK,ERRLIFGTIASKMSLAPEADLDSLIIRNDS
53.0,16,56,A,40,MGYPLHEACRKNNLEKVKELLEKDPSLLLERDELGRIPLHWAVEFNNLEIVKELLKRLENVSLDDFPDIFGWTPFHIACAVGNLEIVKELFERPIKPNLDLQDKDKRTALHLVVGKNHFEVAKFLIEHGASVEVKDEYKRTPLHYAAYVGSLELVKLLLGEGKASIDLQDKEGWTPLHHALYSGHWEVAVELVKKYGANPNLKDKNGKTALELAKDEETKKYFLENV,SNYPLHQACMENEFFKVQELLHSKPSLLLQKDQDGRIPLHWSVSFQAHEITSFLLSKMENVNLDDYPDDSGWTPFHIACSVGNLEVVKSLYDRPLKPDLNKITNQGVTCLHLAVGKKWFEVSQFLIENGASVRIKDKFNQIPLHRAASVGSLKLIELLCGLGKSAVNWQDKQGWTPLFHALAEGHGDAAVLLVEKYGAEYDLVDNKGAKAEDVALNEQVKKFFLNNV,PSLNLNLFLSKYGKLSEEEKKKFLEELGKLVEKLGFKYIP,PEADLDSLIIRNDSLSGAVIAAIMQEAGLRAVRKNRYVIL
65.0,11,61,A,50,MGYPLHEACRRNNLELVKLLLEKDPSLLLERDEYGRIPLHWAVAFNNLEIVKYLLERLKDVSLDDFPDKSGWTPFHIACAVGNLEIVKLLYERPIKPNLDLQDKDKRTALHLVVGKNHFEVAKFLIEHGASVEVKDEYKRTPLHYAAAVGSLELVKLLCGECKASVDLQDKDGWTPLHHALASGHWEVAVYLVKEYGANPNLKDKNGKTALERAKDEETKKYFLENT,SNYPLHQACMENEFFKVQELLHSKPSLLLQKDQDGRIPLHWSVSFQAHEITSFLLSKMENVNLDDYPDDSGWTPFHIACSVGNLEVVKSLYDRPLKPDLNKITNQGVTCLHLAVGKKWFEVSQFLIENGASVRIKDKFNQIPLHRAASVGSLKLIELLCGLGKSAVNWQDKQGWTPLFHALAEGHGDAAVLLVEKYGAEYDLVDNKGAKAEDVALNEQVKKFFLNNV,KLNLAPEVDLNLLLLRKGNLSEEEKKKILEEAKKRAEEKGSKWIHQYDLL,KMSLAPEADLDSLIIRNDSLSGAVIAAIMQEAGLRAVRKNRYVILQSDLE
13.0,67,77,B,10,MDRETFERIAERLNLHPDVDLDRLIERRGDYSGAAVAAVFREAGLLAARAGRREILQEDLDEAARRV,ERRLIFGTIASKMSLAPEADLDSLIIRNDSLSGAVIAAIMQEAGLRAVRKNRYVILQSDLEEAYATQ,DRAGRTPEDL,DDSGWTPFHI
19.0,61,81,B,20,MDREAFEKIAEKLNLHPEVDLERVIERKGNYSGAAVAAILREAGILAARAGRKEILQEDLEEAYKKV,ERRLIFGTIASKMSLAPEADLDSLIIRNDSLSGAVIAAIMQEAGLRAVRKNRYVILQSDLEEAYATQ,KPEDFPDKNGWTPEDIKKAK,NLDDYPDDSGWTPFHIACSV
19.0,51,81,B,30,MDREAFYKIAKKLNLHPSVNIDKIINRKGKYSGAAVAAILREAGILAAREGKKTISQKHLEEAYKKV,ERRLIFGTIASKMSLAPEADLDSLIIRNDSLSGAVIAAIMQEAGLRAVRKNRYVILQSDLEEAYATQ,PEALKKLKDVKLEDIPDEDGWTPLDKLKAL,SFLLSKMENVNLDDYPDDSGWTPFHIACSV
26.0,67,107,B,40,MDREAFEKIAKKLNLHPEADLDYLINKKGKYSEAAVAAIFKEAGILAAREGKKTISQKHLDEAYKKV,ERRLIFGTIASKMSLAPEADLDSLIIRNDSLSGAVIAAIMQEAGLRAVRKNRYVILQSDLEEAYATQ,GPNGLTPFHIAVRKGDKKEIEKLFNKPKKPDLNKKDLLGR,DDSGWTPFHIACSVGNLEVVKSLYDRPLKPDLNKITNQGV
30.0,31,81,B,50,MDREAFEKIAEKLNLAPHVDLESLIEKKGNFSEEEVKEIFKEAGKIAEKLGHKTIFQYDLEEAFKKV,ERRLIFGTIASKMSLAPEADLDSLIIRNDSLSGAVIAAIMQEAGLRAVRKNRYVILQSDLEEAYATQ,DKLGRIPLHYAVIYGDKELVEKLLKELKDKKLEDFPDISGWTPLHHAVAN,DQDGRIPLHWSVSFQAHEITSFLLSKMENVNLDDYPDDSGWTPFHIACSV
