contacts,cs,ce,Chain,Length,designed_receptor_seq,native_receptor_seq,designed_binder_seq,native_binder_seq
16.0,23,33,A,10,MDELERRLLEEEVRRLEEEVRRLEEEVRRLEEEVRRLEEEVRRLEEEVRRLEEEVRRLEEEVRRLEEALRRLEEEVRRLEEEVRRLEEEVRRL,SNYNQLKEDYNTLKRELSDRDDEVKRLREDIAKENELRTKAEEEADKLNKEVEDLTASLFDEANNMVADARKEKYAIEILNKRLTEQLREKDT,LRRLELLPRF,FVEDKFNPSF
26.0,23,43,A,20,MDEEELKKLEEEIKKLEEEIKKLEEEIKKLEEEIKKLEEEIKKLEEEIKKLEEEIKKLIFEKLIEEVKKLEEEIKKLEEEIKKLEEEIKKLEE,SNYNQLKEDYNTLKRELSDRDDEVKRLREDIAKENELRTKAEEEADKLNKEVEDLTASLFDEANNMVADARKEKYAIEILNKRLTEQLREKDT,KLEEKLKPDFSKILGIDIYE,FVEDKFNPSFITTIGIDFKI
27.0,26,56,A,30,MDLEELKAEVERLRAEVERLRAEVERLRAEVERLRAEVERLRAEVERLRAEVERLRREVFRLLNEAVAAARRAVEEARRAVEEARRAVEEARR,SNYNQLKEDYNTLKRELSDRDDEVKRLREDIAKENELRTKAEEEADKLNKEVEDLTASLFDEANNMVADARKEKYAIEILNKRLTEQLREKDT,DLLAPDFSRVLGVDVREEEVEEEGRRVVRV,DKFNPSFITTIGIDFKIKTVDINGKKVKLQ
27.0,3,43,A,40,MDEEELKKLEEEIKKLEEEIKKLEEEIKKLEEEIKKLEEEIKKLEEEIKKLEEEIKKLEFEILREIVKKAREEIKKLEEEIKKLEEEIKKLEE,SNYNQLKEDYNTLKRELSDRDDEVKRLREDIAKENELRTKAEEEADKLNKEVEDLTASLFDEANNMVADARKEKYAIEILNKRLTEQLREKDT,IIKIGLIGETGVGKTELVKKIFKDELAPDFSKELGINIYE,IMKILLIGDSGVGKSCLLVRFVEDKFNPSFITTIGIDFKI
38.0,25,75,A,50,MDLEELKKEVERLKEEVERLKEEVERLKEEVERLKEEVERLKEEVERLKEELPELLKELFERAREAVAEARRRVEELRREVEELRREVEELRR,SNYNQLKEDYNTLKRELSDRDDEVKRLREDIAKENELRTKAEEEADKLNKEVEDLTASLFDEANNMVADARKEKYAIEILNKRLTEQLREKDT,EEELRPDFLEVLGLDYREEEVEEEGERVVLEVWVVAGEEELEEVVEALRE,EDKFNPSFITTIGIDFKIKTVDINGKKVKLQLWDTAGQERFRTITTAYYR
19.0,58,68,B,10,MAKEIKVILVGDGGVGKTSLLIRFTNDEFAPVYVETIGIDFKIRTVEIDGRKVKLQIWDTAGQERFRTITSAYYRGAHGIILVYDVTNRESFENIKKWYEEIKKYANGDAVILLAGNKVDLEGRVITTEEGEKLAKEFGIPFIETSAKTNENVEELFLLLTKEILEKEEKE,GSSIMKILLIGDSGVGKSCLLVRFVEDKFNPSFITTIGIDFKIKTVDINGKKVKLQLWDTAGQERFRTITTAYYRGAMGIILVYDVTDERTFTNIKQWFKTVNEHANDEAQLLLVGNKSDMETRVVTADQGEALAKELGIPFIESSAKNDDNVNEIFFTLAKLIQEKIDSN,KFLEKIKKKG,LFDEANNMVA
35.0,48,68,B,20,MAKEIKVILVGDGGVGKTSLLIRFTNDEFAPVYVETIGIDFKIRTVEIDGEKVKLQIWDTAGQERFRTITSSYYRGAHGIILVYDVTNRESFENIKKWYEEIKEHANGDAVILLAGNKVDLEGRVITTEEGEELAKEFGIPFIETSAKTNENVEELFLLLTKEILKKEEEE,GSSIMKILLIGDSGVGKSCLLVRFVEDKFNPSFITTIGIDFKIKTVDINGKKVKLQLWDTAGQERFRTITTAYYRGAMGIILVYDVTDERTFTNIKQWFKTVNEHANDEAQLLLVGNKSDMETRVVTADQGEALAKELGIPFIESSAKNDDNVNEIFFTLAKLIQEKIDSN,EEEEVEEIEEEFLELIEEEG,NKEVEDLTASLFDEANNMVA
39.0,45,75,B,30,MAEEIKVILVGDGGVGKTSLLKRFIDDPFAPDYLSTIGIDFKIRTVEIDGRKVKLQIWDTAGQERFRTITSSYYRGAHGIILVYDVTNRESFENIKKWYEEIKEHANGDAVILLAGNKVDLEGRVITTEEGEELAKEFGIPFIETSAKTNENVEELFLLLTKEILEKREKE,GSSIMKILLIGDSGVGKSCLLVRFVEDKFNPSFITTIGIDFKIKTVDINGKKVKLQLWDTAGQERFRTITTAYYRGAMGIILVYDVTDERTFTNIKQWFKTVNEHANDEAQLLLVGNKSDMETRVVTADQGEALAKELGIPFIESSAKNDDNVNEIFFTLAKLIQEKIDSN,EEEEKKKVEEEEKKFLELIEKERKKRIEEE,DKLNKEVEDLTASLFDEANNMVADARKEKY
39.0,35,75,B,40,MAKEIKVILVGDGGVGKTSLLKRFIDDPFAPDYLSTIGIDFKIRTVEIDGEKVKLQIWDTAGQERFRTITSSYYRGAHGIILVYDVTNEESFNNIKKWYEEIKENANGDVVILLAGNKVDLEGRVITTEQGEELAKEFGIPFIETSAKTNENVDELFLLLTKEILKKEEEE,GSSIMKILLIGDSGVGKSCLLVRFVEDKFNPSFITTIGIDFKIKTVDINGKKVKLQLWDTAGQERFRTITTAYYRGAMGIILVYDVTDERTFTNIKQWFKTVNEHANDEAQLLLVGNKSDMETRVVTADQGEALAKELGIPFIESSAKNDDNVNEIFFTLAKLIQEKIDSN,KEEEEKKKEEEEKKKKEVEEKIKEFEEKIKEEEEKRKKEE,ELRTKAEEEADKLNKEVEDLTASLFDEANNMVADARKEKY
39.0,25,75,B,50,MAEEIKVILVGDGGVGKTSLLKRFIDDPFKPEYIQTIGIDFKIRTVEIDGRKVKLQIWDTAGQERFRTITSSYYRGAHGAILVYDVTNRESFENIKKWYEELKEHADGNVVLLLAGNKVDLEGRVITTEEGEELAKEFGIPFIETSAKTNENVEELFLLLTKEILEKREKE,GSSIMKILLIGDSGVGKSCLLVRFVEDKFNPSFITTIGIDFKIKTVDINGKKVKLQLWDTAGQERFRTITTAYYRGAMGIILVYDVTDERTFTNIKQWFKTVNEHANDEAQLLLVGNKSDMETRVVTADQGEALAKELGIPFIESSAKNDDNVNEIFFTLAKLIQEKIDSN,KEEKEKEEKEKEEKEKEEKEKEEEEKKVEEEIEKFEKEIEKEREKREKEK,RLREDIAKENELRTKAEEEADKLNKEVEDLTASLFDEANNMVADARKEKY
