contacts,cs,ce,Chain,Length,designed_receptor_seq,native_receptor_seq,designed_binder_seq,native_binder_seq
33.0,18,28,A,10,GGSHMSEEGKNILAVNCKKCGTKILEPGTALFSTKKIFLPNPEGEGEELNEHWLVNDKNIFNKIGFTKKVGNIQYLVCENCKNGPIGYHDINYKDEYYIATDRVSFS,QGHMVSAEGRNRKAVLCQRCGSRVLQPGTALFSRRQLFLPSMRKDGDLLQEHWLVEDMFIFENVGFTKDVGNIKFLVCADCEIGPIGWHCLDDKNSFYVALERVSHE,SEFIKKIGIE,STFISTIGID
54.0,13,33,A,20,GGSHMSEEGKNILAVLCKDCGEKILDPGTAYYSTKKIFLPNPEGEGEELNEHWLVNDKNIFNNIGFTKKVGNIQYLVCAKCEIGPIGYHDINNKDEYYIALDRVAFE,QGHMVSAEGRNRKAVLCQRCGSRVLQPGTALFSRRQLFLPSMRKDGDLLQEHWLVEDMFIFENVGFTKDVGNIKFLVCADCEIGPIGWHCLDDKNSFYVALERVSHE,EEKKECPLIKKIGIDYKIKK,DSAFNSTFISTIGIDFKIRT
56.0,1,31,A,30,GGSHMSEEGKNILAVLCKDCGTKILDPGTAYYSTKKIFLPNPEGEGEELNEHWLVNDKFIFNKIGFTKKVGNIQYLVCASCKKGPIGYHDINIKDEYYIATDRVAFE,QGHMVSAEGRNRKAVLCQRCGSRVLQPGTALFSRRQLFLPSMRKDGDLLQEHWLVEDMFIFENVGFTKDVGNIKFLVCADCEIGPIGWHCLDDKNSFYVALERVSHE,GYEEIKEEKIEGEGEEECEFVKKIGIDYII,TYDYLFKLLLIGDSAFNSTFISTIGIDFKI
60.0,0,40,A,40,SGSDISEEGKNILAVLCKDCGEKILNPNTALFSTEKIFLPNPEGEGEELNEHWLVNDKFIFNNIGFTKKVGNIQYLVCAKCRNGPIGYHDTRIKDKYYIATDRVSFE,QGHMVSAEGRNRKAVLCQRCGSRVLQPGTALFSRRQLFLPSMRKDGDLLQEHWLVEDMFIFENVGFTKDVGNIKFLVCADCEIGPIGWHCLDDKNSFYVALERVSHE,KYYDKIEEKEIKGEGEEECKFVKEIGIDYIIITEEKDGKK,KTYDYLFKLLLIGDSAFNSTFISTIGIDFKIRTIELDGKR
62.0,0,50,A,50,GGSHMSEEGKNILAVLCKDCGEKILNPGTAYYSTKKIFLPNPEGEGEELNEHWLVNDKYIFNNIGFTKKVGNIQYLVCANCKIGPIGYHDINNKDEYYIATDRVAFE,QGHMVSAEGRNRKAVLCQRCGSRVLQPGTALFSRRQLFLPSMRKDGDLLQEHWLVEDMFIFENVGFTKDVGNIKFLVCADCEIGPIGWHCLDDKNSFYVALERVSHE,KYYDYLYEEEKIGEEKEECPFIKKIGIDYIIETIEENGKIIKKKIKDIRK,KTYDYLFKLLLIGDSAFNSTFISTIGIDFKIRTIELDGKRIKLQIWDTAG
27.0,58,68,B,10,MSYDYLFKLLVLGDSSVSDPELEKIGIDFIIKTIEIDGKIIKLQIWDTSGQERFRTITKSYYRGAQGILLVFDITNEESFQSIKDWIGEINKLASSNVEKIIVGNKSDLKRNVSTEDGLNLGKENNIPYFETSGFNIEDCFIELTKRIKEKTEKEKE,KTYDYLFKLLLIGDSAFNSTFISTIGIDFKIRTIELDGKRIKLQIWDTAGQERFRTITTAYYRGAMGIMLVYDITNEKSFDNIRNWIRNIEEHASADVEKMILGNKDVDKRQVSKERGEKLALDYGIKFMETANINVENAFFTLARDIKAKMDKNWK,EKEENIYFPN,FIFENVGFTK
36.0,57,77,B,20,MSYDYLFKLLVLGDSSVSNPFLEKIGIDYTIETIEIDGKIIKLQIWDTSGQERFRTITKGFFRGAQGILLVFDITNEESFESIKKWIGEINKLASKNVEMIIVGNKSDKKRNVSTEDGLNLGKENNIKYFETNNFNIKDCFIELTKNIKEKTEKEKE,KTYDYLFKLLLIGDSAFNSTFISTIGIDFKIRTIELDGKRIKLQIWDTAGQERFRTITTAYYRGAMGIMLVYDITNEKSFDNIRNWIRNIEEHASADVEKMILGNKDVDKRQVSKERGEKLALDYGIKFMETANINVENAFFTLARDIKAKMDKNWK,KYDYENIAFTKKVGNKQYIL,MFIFENVGFTKDVGNIKFLV
49.0,55,85,B,30,MSYDYLFKLLVLGNSGVEDEFIKKIGIDYIIKTIEIDGKIIKLQIWDTSGQERFRTITKSYYRGAQGILLVFDITNKESFESIKEWINEINKLASKNVEKIIVGNKSDLKRNVSEEEGLELGKENNIKYFETKNFNIEDCFIELTKNIKEKTEKEKE,KTYDYLFKLLLIGDSAFNSTFISTIGIDFKIRTIELDGKRIKLQIWDTAGQERFRTITTAYYRGAMGIMLVYDITNEKSFDNIRNWIRNIEEHASADVEKMILGNKDVDKRQVSKERGEKLALDYGIKFMETANINVENAFFTLARDIKAKMDKNWK,ENIYDYENIGFTKKVGNKQYLVCANCLKGP,EDMFIFENVGFTKDVGNIKFLVCADCEIGP
49.0,45,85,B,40,MSYDYLFKLLVLGNSSVEDEFIKKIGIDYVIKTIEIDNKIIKLQIWDTSGQERFRTITKEFYRGAQGILLVFDITNEESFESIKEWINEINKLASKNVEKIIVGNKSDLKRNVSTEDGLNLGKENNIDYFETNNFNIEDCFIELTKRIKEKTEKEKE,KTYDYLFKLLLIGDSAFNSTFISTIGIDFKIRTIELDGKRIKLQIWDTAGQERFRTITTAYYRGAMGIMLVYDITNEKSFDNIRNWIRNIEEHASADVEKMILGNKDVDKRQVSKERGEKLALDYGIKFMETANINVENAFFTLARDIKAKMDKNWK,KKEENKFEIINDKYIFKNIGFTKKVGNIQYLVDANNLKGP,GDLLQEHWLVEDMFIFENVGFTKDVGNIKFLVCADCEIGP
58.0,35,85,B,50,MSYDYLFKLLVLGNSGVECPFIKKIGIDYIIKTIEIDGKIIKLQIWDTSGQERFRTITKEYYRGAQGILLVFDITNEESFESIKKWIGEINKLASKNVEKIIVGNKSDLKRNVSTEDGLNLGKENNIDYFETSGFNIEDCFIELTKRIKEKTEKEKE,KTYDYLFKLLLIGDSAFNSTFISTIGIDFKIRTIELDGKRIKLQIWDTAGQERFRTITTAYYRGAMGIMLVYDITNEKSFDNIRNWIRNIEEHASADVEKMILGNKDVDKRQVSKERGEKLALDYGIKFMETANINVENAFFTLARDIKAKMDKNWK,EIFLPNPEGEGKKINKFEEINDKYIFKNIGFTKKVGNIQYLVDANNLIGP,QLFLPSMRKDGDLLQEHWLVEDMFIFENVGFTKDVGNIKFLVCADCEIGP
