contacts,cs,ce,Chain,Length,designed_receptor_seq,native_receptor_seq,designed_binder_seq,native_binder_seq
27.0,68,78,A,10,CGENEVECNRECVYEGEGCCCADGFFRNAENECVSPEECEEDCVDVVECDGP,CGENEKYDDKKCKYDGVECVCEEGFYRNKDDKCVSAEDCELDNMDFIYPGTR,EVLVRLVNRR,EVEVVIKHNR
28.0,66,86,A,20,CGENEVEGGRECVYEGEGCECAEGFFLDAERRCVSPEECQLDCVDVREGGGP,CGENEKYDDKKCKYDGVECVCEEGFYRNKDDKCVSAEDCELDNMDFIYPGTR,GGGVLLRLVRNDYSPETDEC,VHEVEVVIKHNRFTKETYDF
28.0,47,77,A,30,CGENEVEGGRECVYEGEGCECAEGFFLDREGRCVSPEECERDCVEVREGGGP,CGENEKYDDKKCKYDGVECVCEEGFYRNKDDKCVSAEDCELDNMDFIYPGTR,GGGVVVGVEDPLAYTGGERLYRVERWLVRR,RFKVRVGDRNTEQEEGGEAVHEVEVVIKHN
38.0,38,78,A,40,CGENEVEGGRECVYEGEGCECAEGFFLDENRRCVSPEECEEDCVDVVEGGRE,CGENEKYDDKKCKYDGVECVCEEGFYRNKDDKCVSAEDCELDNMDFIYPGTR,VDPELLCEGEHVVVVGVEDPEEYEGGERVFEVERWYVNRR,TAAHCLYQKRFKVRVGDRNTEQEEGGEAVHEVEVVIKHNR
39.0,36,86,A,50,CGENEVEGGRECEYEGEGCECAEGFFLDRNRRCVSPEECERDCVDVVEGGRC,CGENEKYDDKKCKYDGVECVCEEGFYRNKDDKCVSAEDCELDNMDFIYPGTR,VLTAAHCLFEECAVVRLGEHDPSRYTGGERVLRVERVLRHRRYSSETHEC,ILTAAHCLYQKRFKVRVGDRNTEQEEGGEAVHEVEVVIKHNRFTKETYDF
38.0,41,51,B,10,IVGGEECGEGECPWQASLRNENNEHFCGGTILSEYHILTAAHCFYEKSFTVVVGERNINEDEGGEQEHEVEVVYLHNGYSSETFDNDIAVLKLKTPITFTTNVAPACLPEEEEEELLGETAIASGWGRTSETGSLSDTLKKLEVPFVDRETCKEASEYEITDNMFCAGYEKEEDTCQGDSGGPLVQKIDDTWYVVGIVSWGEGCARPKYGVYTRVSSFIDWIKAAMT,IVGGQECKDGECPWQALLINEENEGFCGGTILSEFYILTAAHCLYQKRFKVRVGDRNTEQEEGGEAVHEVEVVIKHNRFTKETYDFDIAVLRLKTPITFRMNVAPACLPRDWAESTTQKTGIVSGFGRTHEKGRQSTRLKMLEVPYVDRNSCKLSSSFIITQNMFCAGYDKQEDACQGDSGGPHVTRFKDTYFVTGIVSWGEGCARKKYGIYTKVTAFLKWIDRSMK,EDVDLVEEEE,DNMDFIYPGT
49.0,31,51,B,20,IVGGEECGEGECPWQASLRNENNEHFCGGTILDEYHILTAAHCFYEGSFTVVVGERNINEDEGGEQEHEVEVVYLHNGYSSETFDNDIAVLKLKTPITFTTNVAPACLPEEEEEELLGEYGIASGWGRTSETGSLSDTLKKLKVPFVDRETCKEASEYEITDNMFCAGYEKEEDTCQGDSGGPLVQKINDTWYVVGIVSWGEGCARPKYGVYTRVSSFIDWIKRAMT,IVGGQECKDGECPWQALLINEENEGFCGGTILSEFYILTAAHCLYQKRFKVRVGDRNTEQEEGGEAVHEVEVVIKHNRFTKETYDFDIAVLRLKTPITFRMNVAPACLPRDWAESTTQKTGIVSGFGRTHEKGRQSTRLKMLEVPYVDRNSCKLSSSFIITQNMFCAGYDKQEDACQGDSGGPHVTRFKDTYFVTGIVSWGEGCARKKYGIYTKVTAFLKWIDRSMK,EECSELEKECKYMDKVTLEE,KCVSAEDCELDNMDFIYPGT
49.0,21,51,B,30,IVGGEECGEGECPWQASLRNENNEHFCGGTILDEYHILTAAHCFYEKSFTVVVGERNINEDEGGEQEYEVETVYLHNGYSSETYDNDIAVLKLKTPITFTTNVAPACLPEEECEELEGEYGIASGWGRTSETGSLSDTLKKLEVPFVDRETCKEASEYEITDNMFCAGYEKEEDTCQGDSGGPLVCKFEDTWYVVGIVSWGEGCARPKYGVYTRVSSFIDWIKYAMT,IVGGQECKDGECPWQALLINEENEGFCGGTILSEFYILTAAHCLYQKRFKVRVGDRNTEQEEGGEAVHEVEVVIKHNRFTKETYDFDIAVLRLKTPITFRMNVAPACLPRDWAESTTQKTGIVSGFGRTHEKGRQSTRLKMLEVPYVDRNSCKLSSSFIITQNMFCAGYDKQEDACQGDSGGPHVTRFKDTYFVTGIVSWGEGCARKKYGIYTKVTAFLKWIDRSMK,EEGKVCNENEECVSPLECEKDYVDKVTLEE,EEGFYRNKDDKCVSAEDCELDNMDFIYPGT
56.0,11,51,B,40,IVGGTECGEGECPWQASLRDENNQHFCGGTILSEYHILTAAHCFYEKSFTVVVGERNINEDEGGEQEYEVETVYLHNGYSSETFDHDIAVLKLKTPITFTTNVAPACLPEEEEEELLGETATASGWGRTSETGSLSDTLKKLEVPFVDRETCKEASEYEITPNMFCAGYEKEEDTCQGDSGGPLVQKINDTWYVVGIVSWGEGCARPKYGVYTRVSSFLTWIKYAMT,IVGGQECKDGECPWQALLINEENEGFCGGTILSEFYILTAAHCLYQKRFKVRVGDRNTEQEEGGEAVHEVEVVIKHNRFTKETYDFDIAVLRLKTPITFRMNVAPACLPRDWAESTTQKTGIVSGFGRTHEKGRQSTRLKMLEVPYVDRNSCKLSSSFIITQNMFCAGYDKQEDACQGDSGGPHVTRFKDTYFVTGIVSWGEGCARKKYGIYTKVTAFLKWIDRSMK,CPYDGVGEECEEGEYCNSEKECVSLEGCQGDLVDKVTLEE,CKYDGVECVCEEGFYRNKDDKCVSAEDCELDNMDFIYPGT
56.0,1,51,B,50,IVGGTECGEGECPWQASLRNENNEHFCGGTILDEYHILTAAHCFYEGSFTVVVGERNINEDEGGEQEYEVETVYLHNGYSSETFDHDIAVLKLKTPITFTTNVAPACLPEEEEEELLGEYGIASGWGRTSETGSLSDTLKKLEVPFVDRETCKEAMEYEITPNMFCAGYEKEEDTCQGDSGGPLVQKINDTWYVVGIVSWGEGCARPKYGVYTRVSSFLTWIKYAMT,IVGGQECKDGECPWQALLINEENEGFCGGTILSEFYILTAAHCLYQKRFKVRVGDRNTEQEEGGEAVHEVEVVIKHNRFTKETYDFDIAVLRLKTPITFRMNVAPACLPRDWAESTTQKTGIVSGFGRTHEKGRQSTRLKMLEVPYVDRNSCKLSSSFIITQNMFCAGYDKQEDACQGDSGGPHVTRFKDTYFVTGIVSWGEGCARKKYGIYTKVTAFLKWIDRSMK,EENEEEGEEECEYDGEEKVCKEGTYCNKEKECVSPEECQGDYVDKVELEH,GENEKYDDKKCKYDGVECVCEEGFYRNKDDKCVSAEDCELDNMDFIYPGT
