contacts,cs,ce,Chain,Length,designed_receptor_seq,native_receptor_seq,designed_binder_seq,native_binder_seq
6.0,8,18,A,10,PRAEDDENDPRYVPRGGDFNRFDRLPPRTNGNYDAAKEKPPSKEELVAKYGYDIRA,LDDDEDRKNPAYIPRKGLFFEHDLRGRWEHDKFREDEQAPKSRQELIALYGYDIRS,KGYKGKFGEV,VGHKGKFGHE
6.0,0,20,A,20,PLPEDDENDPRYIPRGGDFNRFDRLPPLTNDGYDAAKEQPPSKEELVAKYGYDIRK,LDDDEDRKNPAYIPRKGLFFEHDLRGRWEHDKFREDEQAPKSRQELIALYGYDIRS,DKVFVGQLAGYVGKFGVVYP,SDFYLRYYVGHKGKFGHEFL
7.0,9,39,A,30,PLPFEDENDPRYVPRGGDFNRFDRLPPLTNDGYDAAGEQPPSVEELVAKYGYDIRA,LDDDEDRKNPAYIPRKGLFFEHDLRGRWEHDKFREDEQAPKSRQELIALYGYDIRS,GHYGKYGRCYNEWELRPDGTLVVRHHTDYG,GHKGKFGHEFLEFEFRPDGKLRYANNSNYK
7.0,0,40,A,40,PLPFEDENHPDYIPRGGDFNRFDYLPPLTNDGYDAAKEQPPSKEELVAKYGYDIRA,LDDDEDRKNPAYIPRKGLFFEHDLRGRWEHDKFREDEQAPKSRQELIALYGYDIRS,GEFYLREYEGYRGKYGDCYNEYELKPDGTLIVRHHTDYLG,SDFYLRYYVGHKGKFGHEFLEFEFRPDGKLRYANNSNYKN
7.0,0,50,A,50,PLPFEDENDPRYVPRGGDFNIFDELPPLTNDLYDEEKEKPPSKEELVAKYGYDIRS,LDDDEDRKNPAYIPRKGLFFEHDLRGRWEHDKFREDEQAPKSRQELIALYGYDIRS,DKVFVREYEGYKGKYGDCYYEWELKPDGTVVIRHHSEYLNGKLVEKSFKA,SDFYLRYYVGHKGKFGHEFLEFEFRPDGKLRYANNSNYKNDVMIRKEAYV
9.0,15,25,B,10,MSFYLRYFEGHRGKYGDEFLEFEFKPDGTLTYRSNSEYLNSKLVEKSLKVDESVIEKLKELIKKSKILEKSPEKFPPPNAVGKNRLEIELGEKKVVFELGLIGDEEDVKKSEDPGGLKVFYYLVGELKSMVYSIIGGAFLKPPP,SDFYLRYYVGHKGKFGHEFLEFEFRPDGKLRYANNSNYKNDVMIRKEAYVHKSVMEELKRIIDDSEITKEDDALWPPPDRVGRQELEIVIGDEHISFTTSKIGSLIDVNQSKDPEGLRVFYYLVQDLKCLVFSLIGLHFKIKPI,PGPEDIFDYL,KGLFFEHDLR
9.0,5,25,B,20,SMFYLRYFSGHRGKYGDEFLEFEFKPDGTLSYRSNSEYKNSKLVEKSLKVDESVIEKLKELIKKSKILEKSPEKFPPPNAVGKNRLEIELGEKKVVFELGLIGDEEDVKKSEDPGGLKVFYYLVGELNSMVSKIIGGHFLKDPK,SDFYLRYYVGHKGKFGHEFLEFEFRPDGKLRYANNSNYKNDVMIRKEAYVHKSVMEELKRIIDDSEITKEDDALWPPPDRVGRQELEIVIGDEHISFTTSKIGSLIDVNQSKDPEGLRVFYYLVQDLKCLVFSLIGLHFKIKPI,DKKDPKYIPLGGEFNEFDFL,DRKNPAYIPRKGLFFEHDLR
9.0,0,30,B,30,MSFYLRYFSGRRGKYGDEFLEFEFKPDGTLSYRSNSEYKNSKLVEKSLKVDESVIEKLKELIKKSKILEKSPEKFPPPNAAGRNRLEIELGEKKVVFELGLIGDLEDVKKSEDPGGLEVFYYLVGALNSMVSSIIGGAFAKPPP,SDFYLRYYVGHKGKFGHEFLEFEFRPDGKLRYANNSNYKNDVMIRKEAYVHKSVMEELKRIIDDSEITKEDDALWPPPDRVGRQELEIVIGDEHISFTTSKIGSLIDVNQSKDPEGLRVFYYLVQDLKCLVFSLIGLHFKIKPI,PKAEDDKNNPKYIPRGGEFNEFDEHPPKVK,LDDDEDRKNPAYIPRKGLFFEHDLRGRWEH
9.0,0,40,B,40,SMFYLRYFSGRRGKYGNEFLEFEFKPDGTLSYTSNSEYKNSKLVEKSLKVDESVIEKLKELIKKSKILEKSPEKFPPPNAAGKNRLEIELGEKKVTFELGLIGDEEDVKKSEDPGGLKVFYYLVGDLNSMVSSIIGGAFAKPPP,SDFYLRYYVGHKGKFGHEFLEFEFRPDGKLRYANNSNYKNDVMIRKEAYVHKSVMEELKRIIDDSEITKEDDALWPPPDRVGRQELEIVIGDEHISFTTSKIGSLIDVNQSKDPEGLRVFYYLVQDLKCLVFSLIGLHFKIKPI,PSAEEDKNNPKYIPKEGEFNIFDEHPPKKNDKFDAKKEKK,LDDDEDRKNPAYIPRKGLFFEHDLRGRWEHDKFREDEQAP
9.0,0,50,B,50,SMFYLRYFSGHRGKYGNEFLEFEFKPDGTLSYTSNSEYKNSKLVEKSLKVDESVIEKLKELIKKSKILEKSPEKFPPPNAAGKNRLEIELGEKKVTFELGLIGDEEDVKKSEDPGGLKVFYYLVGDLNSMVSSIIGGAFAKPPP,SDFYLRYYVGHKGKFGHEFLEFEFRPDGKLRYANNSNYKNDVMIRKEAYVHKSVMEELKRIIDDSEITKEDDALWPPPDRVGRQELEIVIGDEHISFTTSKIGSLIDVNQSKDPEGLRVFYYLVQDLKCLVFSLIGLHFKIKPI,PSPEEDKNNPKYIPKGGEFNIFDEHPPKKNDGFDAKKNKPPSKEELEKKF,LDDDEDRKNPAYIPRKGLFFEHDLRGRWEHDKFREDEQAPKSRQELIALY
