contacts,cs,ce,Chain,Length,designed_receptor_seq,native_receptor_seq,designed_binder_seq,native_binder_seq
24.0,34,44,A,10,MCTSCSSSTSS,LFKSATTTVMN,SSSCSSGPSC,LAIAVEGPSK
37.0,29,49,A,20,MYTSTTTRTVP,LFKSATTTVMN,TGAGTETVSVTGPATATITF,AGAGGLAIAVEGPSKAEISF
40.0,26,56,A,30,MATSTTTITVP,LFKSATTTVMN,TSGLGAGTLTVSVTGPATATITFGTFTVTA,TREAGAGGLAIAVEGPSKAEISFESCGVAY
40.0,16,56,A,40,GSTSTNTITLP,LFKSATTTVMN,AGTPVTFTIATAALGAGTLTVSATGPAAATITFGTLTVTA,AGVPAEFSIWTREAGAGGLAIAVEGPSKAEISFESCGVAY
41.0,20,70,A,50,MATSTNTITLP,LFKSATTTVMN,ATFGIATAALGAGTLTVSVTGPSTATITFGTTGVTYTVTAPGTYTVNVTF,AEFSIWTREAGAGGLAIAVEGPSKAEISFESCGVAYVVQEPGDYEVSVKF
40.0,0,10,B,10,AAPLVTAGGAGLSSAVAGVPATFGIATAAAGSGTLTVSVTGPSTATITFGSTGVSYTVTAPGTYTVSVTFDGTNIPGSPFTVPVAAA,GAHKVRAGGPGLERAEAGVPAEFSIWTREAGAGGLAIAVEGPSKAEISFESCGVAYVVQEPGDYEVSVKFNEEHIPDSPFVVPVASP,PAVSSNTITL,LFKSATTTVM
0.0,0,0,B,0,AAPLVTASGAGLSSATAGVPATFGIATAAAGAGTLTVTVAGPSAATITFGSTGVSYTVTAPGTYAVSVKFDNVNIPGSPFTVPVAAA,GAHKVRAGGPGLERAEAGVPAEFSIWTREAGAGGLAIAVEGPSKAEISFESCGVAYVVQEPGDYEVSVKFNEEHIPDSPFVVPVASP,AAPLVTASGAGLSSATAGVPATFGIATAAAGAGTLTVTVAGPSAATITFGSTGVSYTVTAPGTYAVSVKFDNVNIPGSPFTVPVAAAAAALEHHHHH,
0.0,0,0,B,0,AAPLVTASGAGLSSATAGVPATFGIATAAAGAGTLTVTVAGPSAATITFGSTGVSYTVTAPGTYAVSVKFDNVNIPGSPFTVPVAAA,GAHKVRAGGPGLERAEAGVPAEFSIWTREAGAGGLAIAVEGPSKAEISFESCGVAYVVQEPGDYEVSVKFNEEHIPDSPFVVPVASP,AAPLVTASGAGLSSATAGVPATFGIATAAAGAGTLTVTVAGPSAATITFGSTGVSYTVTAPGTYAVSVKFDNVNIPGSPFTVPVAAAAAALEHHHHH,
0.0,0,0,B,0,AAPLVTASGAGLSSATAGVPATFGIATAAAGAGTLTVTVAGPSAATITFGSTGVSYTVTAPGTYAVSVKFDNVNIPGSPFTVPVAAA,GAHKVRAGGPGLERAEAGVPAEFSIWTREAGAGGLAIAVEGPSKAEISFESCGVAYVVQEPGDYEVSVKFNEEHIPDSPFVVPVASP,AAPLVTASGAGLSSATAGVPATFGIATAAAGAGTLTVTVAGPSAATITFGSTGVSYTVTAPGTYAVSVKFDNVNIPGSPFTVPVAAAAAALEHHHHH,
0.0,0,0,B,0,AAPLVTASGAGLSSATAGVPATFGIATAAAGAGTLTVTVAGPSAATITFGSTGVSYTVTAPGTYAVSVKFDNVNIPGSPFTVPVAAA,GAHKVRAGGPGLERAEAGVPAEFSIWTREAGAGGLAIAVEGPSKAEISFESCGVAYVVQEPGDYEVSVKFNEEHIPDSPFVVPVASP,AAPLVTASGAGLSSATAGVPATFGIATAAAGAGTLTVTVAGPSAATITFGSTGVSYTVTAPGTYAVSVKFDNVNIPGSPFTVPVAAAAAALEHHHHH,
