contacts,cs,ce,Chain,Length,designed_receptor_seq,native_receptor_seq,designed_binder_seq,native_binder_seq
29.0,9,19,A,10,MNELIELAKKYGIPEPLKPEKDTPLPDIESLSSWAEKKKLLEEEREWLKEYVKKFRPDTERRKKLEEEYKKLEEEKERLEKEKERLEKEKEELEKKIEELKKKLEELEKKLEKLKNEEGIPALIKKLEEEIKKLKEEYEKLLKETKEIKDEKKLGEYLKRLSELYKRYKEGEELLKKLKEEKIPEL,SRLDIIRAEMDVVPSPGLPSKNIPLPEGINLLSSKEIIDLIQTHRHQLELYVTKFNPLTDFAGKIHAFRDQFKQLEENFEDLHEQKDKVQALLENARILESKYVASWQDYHSEFSKKYGDIALKKKLEQNTKKLDEESSQLETTTRSIDSADDLDQFIKNYLDIRTQYHLRREKLATWDKQGNLKY,ELKKLINELW,NLQTVVNELY
45.0,2,22,A,20,MNELEKLAKLLGIPEPLKPEKDVPLPDADSLSKWTAIKKLIEEEREWLREYVKQFKPDDELQAKIDALNAEIERLKEENRKLEEENRKLEEENRKLEEEKKRLEEEIRKLEEKYRNELGIPALIKKLEERIRELKEEYKRMLEETKEIKDEKALGEYIRRLSELYRRYNEGVELLKKLREEKIPEL,SRLDIIRAEMDVVPSPGLPSKNIPLPEGINLLSSKEIIDLIQTHRHQLELYVTKFNPLTDFAGKIHAFRDQFKQLEENFEDLHEQKDKVQALLENARILESKYVASWQDYHSEFSKKYGDIALKKKLEQNTKKLDEESSQLETTTRSIDSADDLDQFIKNYLDIRTQYHLRREKLATWDKQGNLKY,EKEKWIERLQEVINELWRLE,NHHEMLQNLQTVVNELYRED
55.0,94,124,A,30,MEELKKLAEELGLPEPLKPGELVPLPDLEKLSSLEELKKLLLEEKEWLLEYLKKFVPLDELEKKLEELKKKVEELKKKVEELKKKLEELKKKLEELKKKLEELKKKLEEELKKLEEEEGIPALIKKLEERIKELEEELKKLEEEVKEIKDEKEKGKFLEKKFRLLVEYYYGKILLEKLKEEKLEEL,SRLDIIRAEMDVVPSPGLPSKNIPLPEGINLLSSKEIIDLIQTHRHQLELYVTKFNPLTDFAGKIHAFRDQFKQLEENFEDLHEQKDKVQALLENARILESKYVASWQDYHSEFSKKYGDIALKKKLEQNTKKLDEESSQLETTTRSIDSADDLDQFIKNYLDIRTQYHLRREKLATWDKQGNLKY,EDVGKLIKAPTEEEEKKLWEEARKKAEEEL,EDVNSIAVAKTDGLNQLYNLVAQDYALTDT
63.0,1,41,A,40,MNEYEKLLKELGLPEPLKPEEDIPLPDAESLSGWKAIKKLIEEEREWIREYVKKFDPDDEFNERVAKYEEKLKEIEEKYKKLEEENKKLEEENKKLEEENKKLEEENKKLEELYKNELGIPAIIKKIEERRDFLKELYKKYLEETKEIKDEKALGEYEKLLSDLYKEYNKLKELLEKLKKEKIEEL,SRLDIIRAEMDVVPSPGLPSKNIPLPEGINLLSSKEIIDLIQTHRHQLELYVTKFNPLTDFAGKIHAFRDQFKQLEENFEDLHEQKDKVQALLENARILESKYVASWQDYHSEFSKKYGDIALKKKLEQNTKKLDEESSQLETTTRSIDSADDLDQFIKNYLDIRTQYHLRREKLATWDKQGNLKY,KKKEEWIKRLQEVINEEYRKRKEYLEKYVYKKLEGLEEEL,TNHHEMLQNLQTVVNELYREDVDYVADKILTRQTVMQESI
73.0,2,52,A,50,MNEYEKLLKELGLPEPLKPEEDIPLPDAESLSGWRAIKKLIEEEREWIEEYVKKFVPDDEFNRRVEEYEKKFEELREKYRELAEKYGELREKLEELREKLEELEKKLEEELKKYEEEEGIPALIRKLEERIRWLKEEYERMKEETKEIKDEEALGKYEERLRKLWEEYERGKELLEKLREEEIPEL,SRLDIIRAEMDVVPSPGLPSKNIPLPEGINLLSSKEIIDLIQTHRHQLELYVTKFNPLTDFAGKIHAFRDQFKQLEENFEDLHEQKDKVQALLENARILESKYVASWQDYHSEFSKKYGDIALKKKLEQNTKKLDEESSQLETTTRSIDSADDLDQFIKNYLDIRTQYHLRREKLATWDKQGNLKY,EKEEWIRRLQEVVNEAYRRRKEYLERYVYKRLEGLEEEIEKEEEEIEKLE,NHHEMLQNLQTVVNELYREDVDYVADKILTRQTVMQESIARFHEIIAIDK
31.0,160,170,B,10,MPEELEKLKEEIERLKEELERLKEEYEKKVKVLEEKLEELKEELERLKEELERLKEELERLKEELERLKEELERLKEELERLKEELERLVEVGEEELGELVRAPTLEEELLRLLLALRDALEEVVRELERLLEEGRIPEEEFRRLGEELRRLKEEVERLIEELLRPLE,PTNHHEMLQNLQTVVNELYREDVDYVADKILTRQTVMQESIARFHEIIAIDKNHLRAVEQAIEQTMHSLNAQIDVLTANRAKVQQFSSTSHVDDEDVNSIAVAKTDGLNQLYNLVAQDYALTDTIECLSRMLHRGTIPLDTFVKQGRELARQQFLVRWHIQRITSPLS,LLLRLALRRL,YLDIRTQYHL
42.0,153,173,B,20,MPEELLKKLEELEKKVEELKKKVEELEKKVFVKLEKLEEKVKELEEKVKELEEKVKELEEKVKELEEKVKELEEKLKELEEKVKELEEKVKVEEEDLGKLIRAPTPEEELLRRLRALEKALEETVRLLEELLEKGVIPEEVFKEVGEKLRELKEKVRELIEKLEEPLK,PTNHHEMLQNLQTVVNELYREDVDYVADKILTRQTVMQESIARFHEIIAIDKNHLRAVEQAIEQTMHSLNAQIDVLTANRAKVQQFSSTSHVDDEDVNSIAVAKTDGLNQLYNLVAQDYALTDTIECLSRMLHRGTIPLDTFVKQGRELARQQFLVRWHIQRITSPLS,LKELVEEFLKKKAEEWYKKL,LDQFIKNYLDIRTQYHLRRE
53.0,144,174,B,30,MPEELKKLEEEIKKLEEEIKKLEEEIKKKIEKLEEEIKKLEEEIKKLEEEIKKLEEEIKKLEEEIKKLEEEIKKLEEEIKKLEEEIKKLEEKVEEDLGKLIKAPTEEEELLRWLLANLLASEETIKLLEELLKKGIIPEEVFKKIGEEIKKLKEEIKKLIEELLKPLE,PTNHHEMLQNLQTVVNELYREDVDYVADKILTRQTVMQESIARFHEIIAIDKNHLRAVEQAIEQTMHSLNAQIDVLTANRAKVQQFSSTSHVDDEDVNSIAVAKTDGLNQLYNLVAQDYALTDTIECLSRMLHRGTIPLDTFVKQGRELARQQFLVRWHIQRITSPLS,KKEIKDEKELGKFIAEFFKKKVEEWYKKIK,TRSIDSADDLDQFIKNYLDIRTQYHLRREK
56.0,134,174,B,40,MPEELKKLEEEIKKLEEEIKKLEEEIKKKIEKLEEEIKKLEEEIKKLEEEIKKLEEEIKKLEEEIKKLEEEIKKLEEEIKKLEEEIKKLEEKVEEDIGKLIKAPTEEEELLKWLLANLLASEETIRLLLLLLLLGVIPLEVFLKVGLEIAKKGAEISKLIGELLKPLE,PTNHHEMLQNLQTVVNELYREDVDYVADKILTRQTVMQESIARFHEIIAIDKNHLRAVEQAIEQTMHSLNAQIDVLTANRAKVQQFSSTSHVDDEDVNSIAVAKTDGLNQLYNLVAQDYALTDTIECLSRMLHRGTIPLDTFVKQGRELARQQFLVRWHIQRITSPLS,EEELKKLEEETKEIKDEKELGKFILKLFSLATGIWYLKIL,DEESSQLETTTRSIDSADDLDQFIKNYLDIRTQYHLRREK
66.0,124,174,B,50,MPEELLKLLEELEKLKEELEKLKEEYEKKVKVLEEKKEELEKLKEELEKLKEELEKLKEELEKLKEELEKLKEELEKLKEELEKLKEELEEKKEEDEGYLIRAPTEEEELLRRLLAELLALEETVALLLLLLLLGVIPLEVFLLVGLLLLLLGLLVLLLIGLLLLPLL,PTNHHEMLQNLQTVVNELYREDVDYVADKILTRQTVMQESIARFHEIIAIDKNHLRAVEQAIEQTMHSLNAQIDVLTANRAKVQQFSSTSHVDDEDVNSIAVAKTDGLNQLYNLVAQDYALTDTIECLSRMLHRGTIPLDTFVKQGRELARQQFLVRWHIQRITSPLS,LLLLLYALLLGLLALLLFLLTLLLLDLLLLGLFVLLFWLLLTLFWYLLLL,KKLEQNTKKLDEESSQLETTTRSIDSADDLDQFIKNYLDIRTQYHLRREK
