contacts,cs,ce,Chain,Length,designed_receptor_seq,native_receptor_seq,designed_binder_seq,native_binder_seq
13.0,51,61,A,10,MADEELIRRLFAELPKAGLEEEARRLREEILSRPELSEEEIRRLFEEALRRALEEGREDLGREALEALGRVLERVPEPLEELLFYLLLEGRPPEPLYVVYPPEGRERDPEAVERLRERLRELGAEVVEVGERLVLVLRGADLEGLLRVPGLDRERLRPLDLRAVERLLGREAARRLLLERLRELLERAGVRVPEEALRLLAELHLRGGGPLPLGLEGLLRRPLCVRCAALLYRGEEVLREALERGEELRCRCPLCLRLLGVPPLEGEGRVRVRCRPCGP,PYLEEKVKQASNILPQKIVDDLKNLILNKEIIVTRDEIDKIFDLAIKEYSEGLIAPGEAIGIVAAQSVGEPGTQMTLGLPRLIEIVDAKKVPSTPMMTIYLTDEYKRDRDKALEVARKLEYKRAIVQKKGDEYIILTDGSNLSGVLSVKGVDVAKVETNNIREIEEVFGIEAAREIIIREISKVLAEQGLDVDIRHILLIADVMTRTGIVRQIGRHGVTGEKNSVLARAAFEVTVKHLLDAAARGDVEEFKGVVENIIIGHPIKLGTGMVELTMRPILR,EEEEEGECRC,KTSEEGILVF
19.0,48,68,A,20,MADEELLRRLFAELPRLGLEEEARRLREELLRPPRLSGEEVLRLLLEALRPRLRGGRPDLGRLALEALGRLLERVPEPLEELLFLLLLRGEPPEPLYLLFPPEGEERDPEAVERLARRLEELGWEVVEVGERLVLLSRGADLEGVLRVPGLDRERLLPLGLEAVERLLGREAARRLLLERLRELLERAGERVPEEALELLAELHLRGGGPLPLGLEGLLRRPLCVRCAALLFEGERVLREALERGEELPLECPLCLLLLGRPPLLGEGRRRLRCRPCGP,PYLEEKVKQASNILPQKIVDDLKNLILNKEIIVTRDEIDKIFDLAIKEYSEGLIAPGEAIGIVAAQSVGEPGTQMTLGLPRLIEIVDAKKVPSTPMMTIYLTDEYKRDRDKALEVARKLEYKRAIVQKKGDEYIILTDGSNLSGVLSVKGVDVAKVETNNIREIEEVFGIEAAREIIIREISKVLAEQGLDVDIRHILLIADVMTRTGIVRQIGRHGVTGEKNSVLARAAFEVTVKHLLDAAARGDVEEFKGVVENIIIGHPIKLGTGMVELTMRPILR,PPPPPPPPGRCCPGCGRCLP,LNVKTSEEGILVFGDGATYH
19.0,38,68,A,30,MADEELLRRLFAELPRLGLEEEARRLREELLRRPPLSEEEVRRLLEEALRPFLRGGRPDLGRLALEALGRVLERVPEPLEELLFLLLLRGEPPEPLYLLFPPEGEERDPEAVERLARELERLGWEVVEVGERLVLLSRGADLEGVLRVPGLDRERLLPLGLEAVERLLGREAARRLLLERLRELLERAGVRVPEEALRLAAELLLREGGPRPLGLEGLLRRPLCVLCAALLLEGERVLREALRRGEELPLECPLCLLLLGRPPLLGEGRRRLRCRPCGP,PYLEEKVKQASNILPQKIVDDLKNLILNKEIIVTRDEIDKIFDLAIKEYSEGLIAPGEAIGIVAAQSVGEPGTQMTLGLPRLIEIVDAKKVPSTPMMTIYLTDEYKRDRDKALEVARKLEYKRAIVQKKGDEYIILTDGSNLSGVLSVKGVDVAKVETNNIREIEEVFGIEAAREIIIREISKVLAEQGLDVDIRHILLIADVMTRTGIVRQIGRHGVTGEKNSVLARAAFEVTVKHLLDAAARGDVEEFKGVVENIIIGHPIKLGTGMVELTMRPILR,PPPPGRVLGVPPPPPPPPGRCPPGCGRCLP,LKDLGLVLAILNVKTSEEGILVFGDGATYH
19.0,28,68,A,40,MELEELIERLFAELPKLGLEEEAERLREEILSRPLLSEEEILELFLRALEERLREGEEDLGREALEELGRLLEEVPEPLEELLFYLLLEGEPPEPLYLVYPPEGEEEDPEAVERLAEELEELGWEVVEVGERLVLLSRGCDLEGVLEVPGLDRERLLPLCPRCVERLLGREALREFLLERLRELLERAGVEVPEEALRLLAELHLRGGGPLPLGEEGLLREELCVLCAALLYEGEEVLREALERGEELELRCPLCLRALGVPPLCGEGRRREECRPPEP,PYLEEKVKQASNILPQKIVDDLKNLILNKEIIVTRDEIDKIFDLAIKEYSEGLIAPGEAIGIVAAQSVGEPGTQMTLGLPRLIEIVDAKKVPSTPMMTIYLTDEYKRDRDKALEVARKLEYKRAIVQKKGDEYIILTDGSNLSGVLSVKGVDVAKVETNNIREIEEVFGIEAAREIIIREISKVLAEQGLDVDIRHILLIADVMTRTGIVRQIGRHGVTGEKNSVLARAAFEVTVKHLLDAAARGDVEEFKGVVENIIIGHPIKLGTGMVELTMRPILR,PLEELLLGREHPLLGRVLGVEEVLEERPGRRCPGCGRLLP,ELRQQYQEKILKDLGLVLAILNVKTSEEGILVFGDGATYH
25.0,17,67,A,50,MELEELIERLFAELPRLGLEEEAERLREEILRPPRLSEEEVLRLFLEALRPRLRGGRPDLGRLALEALGRVLERVPEPLEELLFYLLLEGRPPLPLYVLYPPEGRERDPEAVERLAERLRELGAEVVEVGERLVLLLRGADLEGLLRVPGLDRERLLPLDPEAVERLLGREALRRLLLERLRELLERAGVRVPEEALELLAELHLRGGGPLPLGEEGLLRRPLCVRCAALLYRGGEVLLEALREGRELRLECPLCLLLLGEPPLLGEGRVRLRCRPCRP,PYLEEKVKQASNILPQKIVDDLKNLILNKEIIVTRDEIDKIFDLAIKEYSEGLIAPGEAIGIVAAQSVGEPGTQMTLGLPRLIEIVDAKKVPSTPMMTIYLTDEYKRDRDKALEVARKLEYKRAIVQKKGDEYIILTDGSNLSGVLSVKGVDVAKVETNNIREIEEVFGIEAAREIIIREISKVLAEQGLDVDIRHILLIADVMTRTGIVRQIGRHGVTGEKNSVLARAAFEVTVKHLLDAAARGDVEEFKGVVENIIIGHPIKLGTGMVELTMRPILR,PGAPCRPVVRELLERALLGREHPLLGRVLGVREVRECRPGRPCPGCGRLL,FGKPLNEIALNELRQQYQEKILKDLGLVLAILNVKTSEEGILVFGDGATY
25.0,268,278,B,10,MYRIIDYEEEIEIPLEYIGEPLEKIVKERLEEKYLGKYDEELGYVLDIYDVYSAEEGEIREGTGNIYVPVRFRLLVFKPEENEIVEGEVIEVTPEGVIVDIGPLEGLIHISELFDEELEYDEEEGVIVLKESGLEFGIGDRVRGVVKEVDPENGRVLLSTREPNLGPEWYIEELEE,MYKLIKARSIVRIPPNEFGKPLNEIALNELRQQYQEKILKDLGLVLAILNVKTSEEGILVFGDGATYHEVEFDMITYVPVVQEVVEGEVLQVDNYGIFVNLGPMDGLVHISQITDDTLKYDNVRGIIFGEKSKKVIQKGDKVRARVISVASTVPRIALTMRQPYLGKLEWITQTKK,EEEEEVEPLG,MVELTMRPIL
26.0,258,278,B,20,MYRIIDAEEEIEIPLERIGEPLEEIVKEELEKRYLGKWDEELGYVLDIYDVYSAEPGEIREGTGNLYVPVRFRLLVFKPEENEIVEGEVIEVTPEGVIVDIGPLEGLIHISELFDEELEYDEEEGVIVLKESGLEFGIGLRVRGVVKEVDPERGRVLLSTREPNLGPEWYIEELEE,MYKLIKARSIVRIPPNEFGKPLNEIALNELRQQYQEKILKDLGLVLAILNVKTSEEGILVFGDGATYHEVEFDMITYVPVVQEVVEGEVLQVDNYGIFVNLGPMDGLVHISQITDDTLKYDNVRGIIFGEKSKKVIQKGDKVRARVISVASTVPRIALTMRQPYLGKLEWITQTKK,EEEPPEWGEGEEEEEVEPLE,IGHPIKLGTGMVELTMRPIL
26.0,248,278,B,30,MYRIIDAEEEIEIPLSRIGEPAEEIVREELEKRYLGKWDEELGYVLDIYDVYSAEPGEIRVGTGNLYVPVRFRLLVFKPEENERVRGVVVEVTPEGVVVDIGPLRGLIHVSELFDEELEYDEERGVIVTRRRRLRLGVGDEVVGVVEEVDPERGRVRLSTRRPRLGPEWYVERLEE,MYKLIKARSIVRIPPNEFGKPLNEIALNELRQQYQEKILKDLGLVLAILNVKTSEEGILVFGDGATYHEVEFDMITYVPVVQEVVEGEVLQVDNYGIFVNLGPMDGLVHISQITDDTLKYDNVRGIIFGEKSKKVIQKGDKVRARVISVASTVPRIALTMRQPYLGKLEWITQTKK,ELEDEEEREEEGIPPLEGEGEEEEEVEPLE,EFKGVVENIIIGHPIKLGTGMVELTMRPIL
26.0,238,278,B,40,MYRIIDYEEEIEIPLEYIGEPAEKIVKERLEEKYLNKWDEKLGYVLDIYDVYSAEEGEIREGTGNLYVPVKFRLLVFKPEENEIVEGEVIEVTPEGVIVDIGPLRGLIHISELFDEELEYDEEKGIIVTKKRKLEFKKGDKVRGIVKEYDKENGKVLLTTKEPNLGPLWYIEKKKE,MYKLIKARSIVRIPPNEFGKPLNEIALNELRQQYQEKILKDLGLVLAILNVKTSEEGILVFGDGATYHEVEFDMITYVPVVQEVVEGEVLQVDNYGIFVNLGPMDGLVHISQITDDTLKYDNVRGIIFGEKSKKVIQKGDKVRARVISVASTVPRIALTMRQPYLGKLEWITQTKK,KKKEEEGKEEKIEDEEEAKKRGIPPKKGKYEKKIEVKPKE,LDAAARGDVEEFKGVVENIIIGHPIKLGTGMVELTMRPIL
26.0,228,278,B,50,MYRIIDYEEEIEIPLEYIGEPAEKIVKERLEEKYLNKWDEKLGYVLDIYDVYSAEEGEIREGTGNLYVPVKFRLLVFKPEENEIVEGEVIEVTPEGVIVDIGPLRGLIHISELFDEEIEYDEEKGIIVLKEKKIELKKGLKVRGIVKEYDKENGKVKLTTKEPNLGPLWYIEKKKE,MYKLIKARSIVRIPPNEFGKPLNEIALNELRQQYQEKILKDLGLVLAILNVKTSEEGILVFGDGATYHEVEFDMITYVPVVQEVVEGEVLQVDNYGIFVNLGPMDGLVHISQITDDTLKYDNVRGIIFGEKSKKVIQKGDKVRARVISVASTVPRIALTMRQPYLGKLEWITQTKK,IGKEDKEKALKEAKEKGEEIKGEDPETLKKLGIPPLWGEYKKKIEVKPKE,AAFEVTVKHLLDAAARGDVEEFKGVVENIIIGHPIKLGTGMVELTMRPIL
