contacts,cs,ce,Chain,Length,designed_receptor_seq,native_receptor_seq,designed_binder_seq,native_binder_seq
13.0,1,11,A,10,LKKGTYEYNKAKAEDAKRIEEIKAKIEALKDG,YAEGTFISDYSIAMDKIHQQDFVNWLLAQKGK,DTSGELIKKL,QTAGELYQRW
13.0,0,20,A,20,MKKGTFEYNLAKAFDAVGRKIIIDIIKATKDG,YAEGTFISDYSIAMDKIHQQDFVNWLLAQKGK,DDTSGNLIKKIKKAIKEIKK,GQTAGELYQRWERYRRECQE
14.0,31,61,A,30,LKEGTFEYDFAKALSDVGKKIVVAIKKAKVAG,YAEGTFISDYSIAMDKIHQQDFVNWLLAQKGK,KRAGKFDGYVQWDEAEANKVAKADAPSYLD,ACNGSFDMYVCWDYAAPNATARASCPWYLP
23.0,0,40,A,40,LKKGTFEYNLAKAFDAVGRKIIEAIRKAKKAG,YAEGTFISDYSIAMDKIHQQDFVNWLLAQKGK,GDTLGNLIKREKKRKKEALERLAKEKPPKGKAKKGKYDDE,GQTAGELYQRWERYRRECQETLAAAEPPSGLACNGSFDMY
23.0,0,50,A,50,LKEGTFEYDLAKALDAVGREVFVAALKAKKDG,YAEGTFISDYSIAMDKIHQQDFVNWLLAQKGK,GDTLGDQIKKYKKDKEDCLKKLAAAKPPKGKAKAGKFDYLKCHDYEKPKK,GQTAGELYQRWERYRRECQETLAAAEPPSGLACNGSFDMYVCWDYAAPNA
19.0,17,27,B,10,AGSCEELVARHEVYRRECLERLAAAEPPEGLACAGRFDRFVCWDHAAPDAVARAACPWYLPWHADVAAGFVLRRCGADGRWGEEMDAGACLDPG,GQTAGELYQRWERYRRECQETLAAAEPPSGLACNGSFDMYVCWDYAAPNATARASCPWYLPWHHHVAAGFVLRQCGSDGQWGLWRDHTQCENPE,GARALVRRWL,HQQDFVNWLL
30.0,10,30,B,20,AGTSEELVARHEKYKADCLKELAAAKPPKGLACAGHFDHYVCWKHAKPNATAKAKCPWYLPWHADVKDGYVLRYCGADGKWGSWMDAGACEDPG,GQTAGELYQRWERYRRECQETLAAAEPPSGLACNGSFDMYVCWDYAAPNATARASCPWYLPWHHHVAAGFVLRQCGSDGQWGLWRDHTQCENPE,KKKKDKKKQREFVAELKAKR,SIAMDKIHQQDFVNWLLAQK
30.0,0,30,B,30,AGTSGELVARWEKYRADCLAELAAAEPPEGLACAGHFDHYVCWAHAAPDAVARAACPWYLPWHADVAAGFVLRDCGADGVWGEDMDAGACEDPG,GQTAGELYQRWERYRRECQETLAAAEPPSGLACNGSFDMYVCWDYAAPNATARASCPWYLPWHHHVAAGFVLRQCGSDGQWGLWRDHTQCENPE,PEPGTWEWEEAAAEDAVRQRELVAALLARR,YAEGTFISDYSIAMDKIHQQDFVNWLLAQK
0.0,0,0,B,0,GGSHMELEARKREYERLCLEELARAEPPEGLACAGHFDGYVCWRHAAPGAVARAPCPWYLPWHADVAHGFVLRYCGEDGRWGEWMDAGACLDPG,GQTAGELYQRWERYRRECQETLAAAEPPSGLACNGSFDMYVCWDYAAPNATARASCPWYLPWHHHVAAGFVLRQCGSDGQWGLWRDHTQCENPE,GGSHMELEARKREYERLCLEELARAEPPEGLACAGHFDGYVCWRHAAPGAVARAPCPWYLPWHADVAHGFVLRYCGEDGRWGEWMDAGACLDPGPPPPPPPPPP,
0.0,0,0,B,0,GGSHMELEARKREYERLCLEELARAEPPEGLACAGHFDGYVCWRHAAPGAVARAPCPWYLPWHADVAHGFVLRYCGEDGRWGEWMDAGACLDPG,GQTAGELYQRWERYRRECQETLAAAEPPSGLACNGSFDMYVCWDYAAPNATARASCPWYLPWHHHVAAGFVLRQCGSDGQWGLWRDHTQCENPE,GGSHMELEARKREYERLCLEELARAEPPEGLACAGHFDGYVCWRHAAPGAVARAPCPWYLPWHADVAHGFVLRYCGEDGRWGEWMDAGACLDPGPPPPPPPPPP,
