contacts,cs,ce,Chain,Length,designed_receptor_seq,native_receptor_seq,designed_binder_seq,native_binder_seq
13.0,61,71,A,10,GSHMGILENIRKDLESVLDELEK,SEDEEEEEEALEAMQSRLATLRS,ELEELRKYIG,YNKYITLFIE
18.0,86,106,A,20,GSHMGEALEILKSLEEVKKELEK,SEDEEEEEEALEAMQSRLATLRS,EEEEVEELLEEIIPEAEEEK,KKDTVKKLKEIAFPKAEELK
24.0,65,95,A,30,SNAMGEELEKLKSYEAVLKEALK,SEDEEEEEEALEAMQSRLATLRS,AIKWIKELPKHPKFASAKMPELKEIVEKLE,ITLFIEKLPKHRDYKSAVIPEKKDTVKKLK
30.0,62,102,A,40,GSHMGEELEVLKSLESVLEELEK,SEDEEEEEEALEAMQSRLATLRS,KKVLKKWVEELPKHPLYEKAEMPELKEIVKKLKEVWFPKA,NKYITLFIEKLPKHRDYKSAVIPEKKDTVKKLKEIAFPKA
32.0,56,106,A,50,GSHMGEELEILKSLESELEELLK,SEDEEEEEEALEAMQSRLATLRS,EELEEYLEIITHYVKELPKHPLFEEAEMPELKEIVKKLKEVWFPKAKELK,HAFILYNKYITLFIEKLPKHRDYKSAVIPEKKDTVKKLKEIAFPKAEELK
24.0,12,22,B,10,GSSEDVSIPPEERVKALSGIGSQVSVDPNVPPVEYFRAGVDIVNEAAVKEKEGDIETAFVLYNQYLTLFVKELPKHKDYASSKIPEEKETKKRMKEVAFPKAEELKGKLLGKFGEEYEKYKEEQRRKAEEERRKKLIDPSK,SDHGDVSLPPEDRVRALSQLGSAVEVNEDIPPRRYFRSGVEIIRMASIYSEEGNIEHAFILYNKYITLFIEKLPKHRDYKSAVIPEKKDTVKKLKEIAFPKAEELKAELLKRYTKEYTEYNEEKKKEAEELARNMAIQQEL,ELEERLKKLR,AMQSRLATLR
37.0,2,22,B,20,GSSEDVSIPPEERVKALSGIGSQVSVDPNVPPVEYFKAGKDIINEAAVKEKEGDIETAFILYNKYITLFVKELPKHKDFEKSKIPEMKETVKKLKEVAFPKAEELKGKLLGKYTEEYEKYKEEQRIKAEKERINKLIDPSK,SDHGDVSLPPEDRVRALSQLGSAVEVNEDIPPRRYFRSGVEIIRMASIYSEEGNIEHAFILYNKYITLFIEKLPKHRDYKSAVIPEKKDTVKKLKEIAFPKAEELKAELLKRYTKEYTEYNEEKKKEAEELARNMAIQQEL,KREEELKILEELKEKLKKLN,DEEEEEEALEAMQSRLATLR
0.0,0,0,B,0,GSSEDVSIPPEERVAALSGIGSQVSVDPNVPPADYFRAGVDIVNEAAVKEKEGDIETAFVLYNKYLTLFETKLPQHKDYASSKIPEEAATKERMKNVARPRRDELKGKLLGKFGEEYEKYKAEQKRKAEEAARKKRIDPSK,SDHGDVSLPPEDRVRALSQLGSAVEVNEDIPPRRYFRSGVEIIRMASIYSEEGNIEHAFILYNKYITLFIEKLPKHRDYKSAVIPEKKDTVKKLKEIAFPKAEELKAELLKRYTKEYTEYNEEKKKEAEELARNMAIQQEL,GSSEDVSIPPEERVAALSGIGSQVSVDPNVPPADYFRAGVDIVNEAAVKEKEGDIETAFVLYNKYLTLFETKLPQHKDYASSKIPEEAATKERMKNVARPRRDELKGKLLGKFGEEYEKYKAEQKRKAEEAARKKRIDPSKEAAAKAAAAK,
0.0,0,0,B,0,GSSEDVSIPPEERVAALSGIGSQVSVDPNVPPADYFRAGVDIVNEAAVKEKEGDIETAFVLYNKYLTLFETKLPQHKDYASSKIPEEAATKERMKNVARPRRDELKGKLLGKFGEEYEKYKAEQKRKAEEAARKKRIDPSK,SDHGDVSLPPEDRVRALSQLGSAVEVNEDIPPRRYFRSGVEIIRMASIYSEEGNIEHAFILYNKYITLFIEKLPKHRDYKSAVIPEKKDTVKKLKEIAFPKAEELKAELLKRYTKEYTEYNEEKKKEAEELARNMAIQQEL,GSSEDVSIPPEERVAALSGIGSQVSVDPNVPPADYFRAGVDIVNEAAVKEKEGDIETAFVLYNKYLTLFETKLPQHKDYASSKIPEEAATKERMKNVARPRRDELKGKLLGKFGEEYEKYKAEQKRKAEEAARKKRIDPSKEAAAKAAAAK,
0.0,0,0,B,0,GSSEDVSIPPEERVAALSGIGSQVSVDPNVPPADYFRAGVDIVNEAAVKEKEGDIETAFVLYNKYLTLFETKLPQHKDYASSKIPEEAATKERMKNVARPRRDELKGKLLGKFGEEYEKYKAEQKRKAEEAARKKRIDPSK,SDHGDVSLPPEDRVRALSQLGSAVEVNEDIPPRRYFRSGVEIIRMASIYSEEGNIEHAFILYNKYITLFIEKLPKHRDYKSAVIPEKKDTVKKLKEIAFPKAEELKAELLKRYTKEYTEYNEEKKKEAEELARNMAIQQEL,GSSEDVSIPPEERVAALSGIGSQVSVDPNVPPADYFRAGVDIVNEAAVKEKEGDIETAFVLYNKYLTLFETKLPQHKDYASSKIPEEAATKERMKNVARPRRDELKGKLLGKFGEEYEKYKAEQKRKAEEAARKKRIDPSKEAAAKAAAAK,
