contacts,cs,ce,Chain,Length,designed_receptor_seq,native_receptor_seq,designed_binder_seq,native_binder_seq
16.0,36,46,A,10,MKKEDLSDEVFEKITAEKKEELAKKEEELKKKIEEENKKKEE,DILENLDDSVFSKRHAKLELDEKRRKRWDIQRIREQRILQRL,KEKVVKYKES,CLKYMKYEKS
19.0,33,53,A,20,GSLEDLSDEVFEAENAELEAKNAELEAKNAALIAENNRLKNE,DILENLDDSVFSKRHAKLELDEKRRKRWDIQRIREQRILQRL,CGKCKKVFKYKKSVERHKGG,CEYCLKYMKYEKSYRFHLGQ
22.0,20,50,A,30,GSLEDGSDEVFENMLAEERERRRKLEEYERERIERERIERER,DILENLDDSVFSKRHAKLELDEKRRKRWDIQRIREQRILQRL,IVRDLGKKPVLYVCSNCKKVYHYKESFEKH,FPEDYGKQPKLWLCEYCLKYMKYEKSYRFH
23.0,13,53,A,40,GSLEDLSDEVYENMLAELREKREKERERERERIERERIERER,DILENLDDSVFSKRHAKLELDEKRRKRWDIQRIREQRILQRL,ERKRYYPFPEDLGKEPVLYVCSECKKVMKYKESAEKHKGG,DAWYFSPFPEDYGKQPKLWLCEYCLKYMKYEKSYRFHLGQ
29.0,36,86,A,50,GSLEDLSDEVFENKYKEKIEELKKKEEELKKKIEEEEKKKKE,DILENLDDSVFSKRHAKLELDEKRRKRWDIQRIREQRILQRL,LLLKVKNKETLEKLKGEIGYDKPPGEKIYEKDKISIYKVKGKDNLIFCLS,CLKYMKYEKSYRFHLGQCQWRQPPGKEIYRKSNISVYEVDGKDHKIYCQN
21.0,1,11,B,10,MSTTKIHIGDFDIDAEYYSPFPDDYGKQPKLYICQFCLKYMKHEESYEEHIGECGYNKPPGDCIYEKDNIRVYEVKGEDNKIFCQNLNLLSKLFIEYGVTTDVEPYTFYILTLVDEEGAHLVGMYSRLNESPLGENIGGLVLPPFRRKGYGTFLIDFAYELAIRENRLGEPEPPLSESGIKAYTRYFHYVLLNILKTYDGELTIKDLSKMTSITEGSILETLRKLDMVEEVDGEEYIGTPEKVEKNLKSDKYEKPPIQVDSESINYEPPE,KYVDKIHIGNYEIDAWYFSPFPEDYGKQPKLWLCEYCLKYMKYEKSYRFHLGQCQWRQPPGKEIYRKSNISVYEVDGKDHKIYCQNLCLLAKLFLDHTLYFDVEPFVFYILTEVDRQGAHIVGYFSKEKESPDGNNVAILTLPPYQRRGYGKFLIAFSYELSKLESTVGSPEKPLSDLGKLSYRSYWSWVLLEILRDFRGTLSIKDLSQMTSITQNDIISTLQSLNMVKYWKGQHVIVTPKLVEEHLKSAQYKKPPITVDSVCLKWAPPK,EPEDLSDEVY,ILENLDDSVF
38.0,0,20,B,20,MSTTKIHIGDFDIDAKYYSPFPDDYGKEPKLYICQFCLKYMKHKESYEEHIGECGYNKPPGDCIYEKDNIRVYEVKGEDNEVFCQNLNLLSKLFIEYGEHFNVEPYTFYILTLVDEEGAHMVGMFSRLNESPEGENIGGLVLPPFQRKGYGTFLIDFAYELAIRENKLGEPEPPLSESGIKAYTKYFHYVLLNILKTYDGELTIKDLSKMTSITEGSILTTLRELDMVEEVDGEEYIGTPEKVEKNLKSDKYEKPPIEVDSESINYEPPE,KYVDKIHIGNYEIDAWYFSPFPEDYGKQPKLWLCEYCLKYMKYEKSYRFHLGQCQWRQPPGKEIYRKSNISVYEVDGKDHKIYCQNLCLLAKLFLDHTLYFDVEPFVFYILTEVDRQGAHIVGYFSKEKESPDGNNVAILTLPPYQRRGYGKFLIAFSYELSKLESTVGSPEKPLSDLGKLSYRSYWSWVLLEILRDFRGTLSIKDLSQMTSITQNDIISTLQSLNMVKYWKGQHVIVTPKLVEEHLKSAQYKKPPITVDSVCLKWAPPK,EELEDLSDEVYEEMYKELRG,DILENLDDSVFSKRHAKLEL
45.0,0,30,B,30,MSTTKIHIGDFDIDAKYYSPFPDDYGKEPVLYICQFCLKYMKHKESYELHKGLCGYNKPPGECIYEKDNIRVYKVEGEKNEIFCQNLNLLSSLFIEDGIHFNVEPYTFYILTLVDEEGAHVVGMFSRLKESPEGENIEGLVLPPFQRKGYGTFLIDFAYEIAKRENRLGEPEEPLSESGKKAFEKYAHYVLLEILKTYDGELTIKDLSKMTSITEGAILSTLRKLGMVEEVDGEEYIGTPEKVEKNLKSDKYEKPPIEVDSKSINWEPPE,KYVDKIHIGNYEIDAWYFSPFPEDYGKQPKLWLCEYCLKYMKYEKSYRFHLGQCQWRQPPGKEIYRKSNISVYEVDGKDHKIYCQNLCLLAKLFLDHTLYFDVEPFVFYILTEVDRQGAHIVGYFSKEKESPDGNNVAILTLPPYQRRGYGKFLIAFSYELSKLESTVGSPEKPLSDLGKLSYRSYWSWVLLEILRDFRGTLSIKDLSQMTSITQNDIISTLQSLNMVKYWKGQHVIVTPKLVEEHLKSAQYKKPPITVDSVCLKWAPPK,EEIEDLSDEVYEEMYKELKEEEKEEIEEEE,DILENLDDSVFSKRHAKLELDEKRRKRWDI
45.0,0,40,B,40,MSTTKIIIGDFEIEAKYYSPFPDDYGKEPVLYICEFCLKYMKYKESYEEHIGKCGYNKPPGECIYEKDNIRVYKVEGEKNEIFCQNLNLLSSLFIEYGTHFNVEPYTFYILTLVDEEGAHVVGMYSRLKESPLGENIGGLVLPPFQRKGYGTFLIDFAYEIAKRENKLGEPEEPLSESGIKAYTKYRNYVLLNILKEYDGELTIKDLSKMTSITEGAILETLKKLGMVEEVDGEEYIGTPEKVEKNLKSDKYEEPPIKVDSKSINWEPPK,KYVDKIHIGNYEIDAWYFSPFPEDYGKQPKLWLCEYCLKYMKYEKSYRFHLGQCQWRQPPGKEIYRKSNISVYEVDGKDHKIYCQNLCLLAKLFLDHTLYFDVEPFVFYILTEVDRQGAHIVGYFSKEKESPDGNNVAILTLPPYQRRGYGKFLIAFSYELSKLESTVGSPEKPLSDLGKLSYRSYWSWVLLEILRDFRGTLSIKDLSQMTSITQNDIISTLQSLNMVKYWKGQHVIVTPKLVEEHLKSAQYKKPPITVDSVCLKWAPPK,EKLEDLSDEVYEEMYKELKEEEKEEIEYWKKYIEELEKER,DILENLDDSVFSKRHAKLELDEKRRKRWDIQRIREQRILQ
0.0,0,0,B,0,MSTTKIHIGDFDIDAEFYSPFPDDLGKQPVLYICQFCLKHMKTKEEYEEHIGKCGYNKPPGDCIYEKDNIRVYEVKGEENKEFCQNLNLLSKLFIEYGVTTDVEPYTFYILTLVDEEGAHLVGMYSRLNESPLGENIGGLVLPPFRRKGYGTFLIDFAYELALRENRLGEPEPPLSESGIKANMRYYRYVLLNILKTYDGELTIKDLSKMTSITEGAILETLRELDMVEEVDGEEYIGTPEKVEKNLKSDKYEKPPIEVDSESINWEPPK,KYVDKIHIGNYEIDAWYFSPFPEDYGKQPKLWLCEYCLKYMKYEKSYRFHLGQCQWRQPPGKEIYRKSNISVYEVDGKDHKIYCQNLCLLAKLFLDHTLYFDVEPFVFYILTEVDRQGAHIVGYFSKEKESPDGNNVAILTLPPYQRRGYGKFLIAFSYELSKLESTVGSPEKPLSDLGKLSYRSYWSWVLLEILRDFRGTLSIKDLSQMTSITQNDIISTLQSLNMVKYWKGQHVIVTPKLVEEHLKSAQYKKPPITVDSVCLKWAPPK,MSTTKIHIGDFDIDAEFYSPFPDDLGKQPVLYICQFCLKHMKTKEEYEEHIGKCGYNKPPGDCIYEKDNIRVYEVKGEENKEFCQNLNLLSKLFIEYGVTTDVEPYTFYILTLVDEEGAHLVGMYSRLNESPLGENIGGLVLPPFRRKGYGTFLIDFAYELALRENRLGEPEPPLSESGIKANMRYYRYVLLNILKTYDGELTIKDLSKMTSITEGAILETLRELDMVEEVDGEEYIGTPEKVEKNLKSDKYEKPPIEVDSESINWEPPKEEEEEEEEEE,
