contacts,cs,ce,Chain,Length,designed_receptor_seq,native_receptor_seq,designed_binder_seq,native_binder_seq
18.0,170,180,A,10,GGHMAFDSRFPGCDQTEECKYNFDQYYRCLEAQLAAGGDPSACQAYLDRYRDLCPADWVAGAERRMAEGTYPGDI,YQTAPFDSRFPNQNQTRNCWQNYLDFHRCEKAMTAKGGDVSVCEWYRRVYKSLCPISWVSTWDDRRAEGTFPGKI,PPVVPGVLCR,TDAIPGRLNQ
22.0,91,111,A,20,ADCAPFDSRFPGADQTEECRYNFDQYYRCLYAQLAQGGDPSACQAYYDRQRCLCPADWRAGAARRMAEGTYPGDI,YQTAPFDSRFPNQNQTRNCWQNYLDFHRCEKAMTAKGGDVSVCEWYRRVYKSLCPISWVSTWDDRRAEGTFPGKI,PRRTVLRTGHDGYWTYEDRC,PSLTVKTMGHQWYWSYEYTD
27.0,86,116,A,30,AGCAPYDSRFPGADQTQECEYNFDQYYRCLYAQLAQGGDPSACQAYYDRQKCLCPSDWRAGRARDMAAGTYPGTI,YQTAPFDSRFPNQNQTRNCWQNYLDFHRCEKAMTAKGGDVSVCEWYRRVYKSLCPISWVSTWDDRRAEGTFPGKI,PPPQGPDLHVLRTGHDGYWTYEVRDHADLG,DEINNPSLTVKTMGHQWYWSYEYTDYEDLS
27.0,76,116,A,40,SLCAPYDSRFPGADQTEECRYNFDQYHRCLERQLAAGGDPSACQAYYDRQRCLCPRDWLAGAARRRAAGTYPGTL,YQTAPFDSRFPNQNQTRNCWQNYLDFHRCEKAMTAKGGDVSVCEWYRRVYKSLCPISWVSTWDDRRAEGTFPGKI,PPPPPPPPPPPPPRGPDLHVLATGHDGYWTFEVRDHAALG,LPSLRILYMMDEINNPSLTVKTMGHQWYWSYEYTDYEDLS
27.0,66,116,A,50,ADCAPYDSRFPGADQTEECRYNFDQYHRCLERQLAAGGDPSACQAYYDRQRCLCPRDWLEGAARRRAEGTYPGEL,YQTAPFDSRFPNQNQTRNCWQNYLDFHRCEKAMTAKGGDVSVCEWYRRVYKSLCPISWVSTWDDRRAEGTFPGKI,PPPPPPPPPPPPPPPPPPPPPPPRGPDLHVLATGHDGYWTFEVRDHAALG,LPAIILILIALPSLRILYMMDEINNPSLTVKTMGHQWYWSYEYTDYEDLS
21.0,47,57,B,10,MEKNQIGLEKPMSPLKKGWHYFNLWFIIILLVVGTGIAYGIYGLLSTDKTFNEEISLTGILYIFIFVPLILLILIAIPGIILYFIKKRKKNPVLTIKVTGHNHYWTFEINDEYDISFGSYMVPDEELKEGEIKDMEVDNKIVIPVNEWIEIRVTSADTNHAFSIPSAGINTDAIKGELNTTKLYLEETGLFYGKNGAYSGEGFNYNPIVFEAVEKENFNKWKESQK,AYPMQLGFQDATSPIMEELLHFHDHTLMIVFLISSLVLYIISLMLTTKLTHTSTMDAQEVETIWTILPAIILILIALPSLRILYMMDEINNPSLTVKTMGHQWYWSYEYTDYEDLSFDSYMIPTSELKPGELRLLEVDNRVVLPMEMTIRMLVSSEDVLHSWAVPSLGLKTDAIPGRLNQTTLMSSRPGLYYGQCSEICGSNHSFMPIVLELVPLKYFEKWSASML,KEEKRLNPIW,RVYKSLCPIS
32.0,0,20,B,20,GSHMAVGLEAPKSPLKKGWHYFNAWAIFIICVVGTAIAFNIVNLLSTDETFNEEVSLTGISFIWIFVPLILLILIAIPGIILYFWKRRKRNPVLTIAVVGHNHYWSFYINDKDKISYDSHMVPDEELKEGERKDWEVDNKIVIPVNEWIRIEVTSADTNHAFSVPSAGINTDAIKGKLNETYLYFEETGEFYGKNNAYSGAGFNYNPIVFKAVERENFNKWVESQK,AYPMQLGFQDATSPIMEELLHFHDHTLMIVFLISSLVLYIISLMLTTKLTHTSTMDAQEVETIWTILPAIILILIALPSLRILYMMDEINNPSLTVKTMGHQWYWSYEYTDYEDLSFDSYMIPTSELKPGELRLLEVDNRVVLPMEMTIRMLVSSEDVLHSWAVPSLGLKTDAIPGRLNQTTLMSSRPGLYYGQCSEICGSNHSFMPIVLELVPLKYFEKWSASML,KECEKYDERFPFIDQTERRK,YQTAPFDSRFPNQNQTRNCW
32.0,0,30,B,30,GSHMAEGLEEPKSPLKKGWHYFNKWANFINNVTGTAIALFIIYLLTTDKTSTEKVELSGILYIFIFVPLILLILIAIPGIILYFIKRRKRNPVLTIAVVGHNHYWSFYINDKYKISYDSHMVPDEELKEGERKYMEVDNKIVIPVNEWIRIVVTSADTNHAFSIPSAGINTDAIKGKINETYLYLEEEGEFYGQNNAYSGAGFNYNPIVFKAVKREEFNKWVESQK,AYPMQLGFQDATSPIMEELLHFHDHTLMIVFLISSLVLYIISLMLTTKLTHTSTMDAQEVETIWTILPAIILILIALPSLRILYMMDEINNPSLTVKTMGHQWYWSYEYTDYEDLSFDSYMIPTSELKPGELRLLEVDNRVVLPMEMTIRMLVSSEDVLHSWAVPSLGLKTDAIPGRLNQTTLMSSRPGLYYGQCSEICGSNHSFMPIVLELVPLKYFEKWSASML,KECPKYDERFPFIDQTERFIYYKEKYYKEK,YQTAPFDSRFPNQNQTRNCWQNYLDFHRCE
32.0,0,40,B,40,GSHMAEGLEEPKSPLKKGWHYFNLWADFINFVTGTAIALFIIYLLTTDKTSTEKKSLKGILYIFIFVPLILFILIAIPGIILYFIEKRKREPVLTIAVVGHNHYWSFYINDKDKISYDSYMVPDEELKEGEIKDWEVDNKIVIPVNEWIRIVVTSADTNHAFSIPSAGINTDAIKGVRNETYLYLEEEGEFYGKNNAYSGKGFWNSPIVFKAVPREEFNKWRESQK,AYPMQLGFQDATSPIMEELLHFHDHTLMIVFLISSLVLYIISLMLTTKLTHTSTMDAQEVETIWTILPAIILILIALPSLRILYMMDEINNPSLTVKTMGHQWYWSYEYTDYEDLSFDSYMIPTSELKPGELRLLEVDNRVVLPMEMTIRMLVSSEDVLHSWAVPSLGLKTDAIPGRLNQTTLMSSRPGLYYGQCSEICGSNHSFMPIVLELVPLKYFEKWSASML,EKTLKYDERFPFKDQTERFKYYEELEKERYEKLKEEGKEP,YQTAPFDSRFPNQNQTRNCWQNYLDFHRCEKAMTAKGGDV
38.0,7,57,B,50,SMANQIGLEAPKSPLKKGWHYFNAWAIFIILVVGTGIALFIVYLLTTDKTSTEKVELTGILYIFIFVPLILLILIAIPGIILYFIKKRKREPVLTIRVTGHNHYWTFEIRDEDDISFGSYEVPDEELKEGERKDWEVDNKIVIPENEWIRILVTSADTNHAFSVPSAGINTDAIKGKLNSTDLYLEETGEFYGKNNAYSGKGYWNNPIVFKVVPKEEFNKWKESQK,AYPMQLGFQDATSPIMEELLHFHDHTLMIVFLISSLVLYIISLMLTTKLTHTSTMDAQEVETIWTILPAIILILIALPSLRILYMMDEINNPSLTVKTMGHQWYWSYEYTDYEDLSFDSYMIPTSELKPGELRLLEVDNRVVLPMEMTIRMLVSSEDVLHSWAVPSLGLKTDAIPGRLNQTTLMSSRPGLYYGQCSEICGSNHSFMPIVLELVPLKYFEKWSASML,EKFPGKDQTEKCKYNKEKYEECYWKKKEEGGDPKECEEYYKIQKRLCPKE,SRFPNQNQTRNCWQNYLDFHRCEKAMTAKGGDVSVCEWYRRVYKSLCPIS
