contacts,cs,ce,Chain,Length,designed_receptor_seq,native_receptor_seq,designed_binder_seq,native_binder_seq
28.0,8,18,A,10,GSHMEELERLEELERELEELREELEELEEELEELEEEEEEEELEELLELAEELGLEELEELEELGLESEEERELAEELAELLEEPLEERGGVLLLEEVYELVNELLEEEELEEEELLRALEVLEELGLPLELEETEEGRVYVRLEEEDPEELVEEAYELVEENGRLTAEEFAEEAGMEEERARELLELAREEGYLEVEESEEGVYYYPNYREEEE,KNISEAFEDLSKLMIKAKEMVELSKSIANKIKDKQGDITEDETIRFKSYLLSMGIANPVTRETYGSGTQYHMQLAKQLAGILQVPLEERGGIMSLTEVYCLVNRARGMELLSPEDLVNACKMLEALKLPLRLRVFDSGVMVIELQSHKEEEMVASALETVSEKGSLTSEEFAKLVGMSVLLAKERLLLAEKMGHLCRDDSVEGLRFYPNLFMTQS,PPWEETEQPL,FPPFFTLQPN
39.0,8,28,A,20,GSHMEKLEKLEELLKELEELKEKLEELKEKLEELEEEEEEEELEELLELAEELGVELPEELEELGLESEKEKELAKELAELLEEPLEERGGVLLLEEVYELVNELLEEEKLSEEELLKALEVLEELGLPLELEETEEGRKLVKLKEFDPEEEVEEALELVEENGRLTAEEFAEEKGISLELARELLELAEEEGYLEREESEEGVYYYPAYLLEEE,KNISEAFEDLSKLMIKAKEMVELSKSIANKIKDKQGDITEDETIRFKSYLLSMGIANPVTRETYGSGTQYHMQLAKQLAGILQVPLEERGGIMSLTEVYCLVNRARGMELLSPEDLVNACKMLEALKLPLRLRVFDSGVMVIELQSHKEEEMVASALETVSEKGSLTSEEFAKLVGMSVLLAKERLLLAEKMGHLCRDDSVEGLRFYPNLFMTQS,PPPLETEQPNEELLELQEEL,FPPFFTLQPNVDTRQKQLAA
41.0,0,30,A,30,GSHMEKLEKLEELLKELEELKEELEELKEELEELEEEEEEEELEELLEKAEELGLEELEELEELGLESEEEKELAEELAELLEEPLEERGGVLLLEEVYELVNELLEEEKLEEEELLRALEVLEELGLPLELEETEEGRVYVRLEEVDPEELVEEALELVEENGALTAEEFAEEAGMEEELARELLELAEEEGYLTREESEEGVYYYPALFLEGE,KNISEAFEDLSKLMIKAKEMVELSKSIANKIKDKQGDITEDETIRFKSYLLSMGIANPVTRETYGSGTQYHMQLAKQLAGILQVPLEERGGIMSLTEVYCLVNRARGMELLSPEDLVNACKMLEALKLPLRLRVFDSGVMVIELQSHKEEEMVASALETVSEKGSLTSEEFAKLVGMSVLLAKERLLLAEKMGHLCRDDSVEGLRFYPNLFMTQS,EEESPWEEYPPFYTEQPNEELLERQEEIRE,FEWPWQYRFPPFFTLQPNVDTRQKQLAAWC
41.0,0,40,A,40,GSHMEKLEKLEELLKELEELKEELEELKEELEELEEEEEEEELEELLEKAEELGLEELEELEELGLESEEEKELAEELAELLEEPLEERGGVLLLEEVYELVNELLEEEKLEEEELLRALEVLEELGLPLELEETEEGRVYVRLEEVDPEELVEEALELVEENGALTAEEFAEEAGMEEELARELLELAEEEGYLTREESEEGVYYYPALFLEGE,KNISEAFEDLSKLMIKAKEMVELSKSIANKIKDKQGDITEDETIRFKSYLLSMGIANPVTRETYGSGTQYHMQLAKQLAGILQVPLEERGGIMSLTEVYCLVNRARGMELLSPEDLVNACKMLEALKLPLRLRVFDSGVMVIELQSHKEEEMVASALETVSEKGSLTSEEFAKLVGMSVLLAKERLLLAEKMGHLCRDDSVEGLRFYPNLFMTQS,EEEHPAEEYPPFYTEQPNEELRERQEEIREELEELEEEEE,FEWPWQYRFPPFFTLQPNVDTRQKQLAAWCSLVLSFCRLH
41.0,0,50,A,50,GSHMEKLKELEEKLKELEEKLKELEEKLKELEEKLKEEEKEELEELLEELEELGLEELEELEELGLESEKEKELAKELAELLEEPLKERGGILLLEEVYELVNSLLEEEKLSLEELLKALEVLEELGLPLELEETEEGRKLVKLKEFDPEEEVEEALELVEENGSLTPEEFSEEKGISLELARELLELAEEKGYLTREESEEGVYYYPALFLEGE,KNISEAFEDLSKLMIKAKEMVELSKSIANKIKDKQGDITEDETIRFKSYLLSMGIANPVTRETYGSGTQYHMQLAKQLAGILQVPLEERGGIMSLTEVYCLVNRARGMELLSPEDLVNACKMLEALKLPLRLRVFDSGVMVIELQSHKEEEMVASALETVSEKGSLTSEEFAKLVGMSVLLAKERLLLAEKMGHLCRDDSVEGLRFYPNLFMTQS,EEEHPFEEYPPFYTEQPNEELLEKQEEIKEEEEEEEEEEEEEEEEEEEEE,FEWPWQYRFPPFFTLQPNVDTRQKQLAAWCSLVLSFCRLHKQSSMTVMEA
20.0,195,205,B,10,MPLPPEYLDPPFFTRQPDEELRERQLRVWGEAVLEYFRERRVRRFTLEELRELPIFSNGERGLTLPRGFVYEVLRRLEERGYLERLDERGREYVLLE,FEWPWQYRFPPFFTLQPNVDTRQKQLAAWCSLVLSFCRLHKQSSMTVMEAQESPLFNNVKLQRKLPVESIQIVLEELRKKGNLEWLDKSKSSFLIMW,VLAVSEEGVE,CRDDSVEGLR
38.0,194,214,B,20,MPKHPAYDYPPFFTEQPDEELREKQLEIWGEELLKYFEENKITEFTLEELLELPIFSNEEEGLTLPRGFVSKILNRLEERGYLERLDERGRKYRLLK,FEWPWQYRFPPFFTLQPNVDTRQKQLAAWCSLVLSFCRLHKQSSMTVMEAQESPLFNNVKLQRKLPVESIQIVLEELRKKGNLEWLDKSKSSFLIMW,EVLAVSEEGVFRYPPLFLEG,LCRDDSVEGLRFYPNLFMTQ
41.0,184,214,B,30,MPLPWWYDYPPFFTEQPNEETREKQLEIWGEALLEYFRENNITEFTLEELLELPIFSNEEEGLTLPEEFVEEVLEYLEEKGYLERLDEEGETYRLLE,FEWPWQYRFPPFFTLQPNVDTRQKQLAAWCSLVLSFCRLHKQSSMTVMEAQESPLFNNVKLQRKLPVESIQIVLEELRKKGNLEWLDKSKSSFLIMW,EEEELLEEGYLCIEESEEGVFYYPNLFLEG,RLLLAEKMGHLCRDDSVEGLRFYPNLFMTQ
41.0,174,214,B,40,MEKHPFYDYPPFFTEQPNEETREKQLEIWGEELLKYFEENNITEFTLEELLELPIFSNEEEGLTLPEEFIEEVLEYLEEKGYLERLDEEGETYILKE,FEWPWQYRFPPFFTLQPNVDTRQKQLAAWCSLVLSFCRLHKQSSMTVMEAQESPLFNNVKLQRKLPVESIQIVLEELRKKGNLEWLDKSKSSFLIMW,EEISEEEAEEILEELAEEGYLTKEVSEEGVFYYPNLFLEG,VGMSVLLAKERLLLAEKMGHLCRDDSVEGLRFYPNLFMTQ
42.0,164,214,B,50,MEKSWAYDYPPFFTEQPNEETREKQLEIWGEELLKYFEENNITEFTLEELLELPIFSNEEEGLTLPEEFIEEILEYLEEKGYLERLDEEEETYILKE,FEWPWQYRFPPFFTLQPNVDTRQKQLAAWCSLVLSFCRLHKQSSMTVMEAQESPLFNNVKLQRKLPVESIQIVLEELRKKGNLEWLDKSKSSFLIMW,PVTAEEYAEEEGISYEEALEILEELEEEGYLCKEESEEGVYYYPNLFLEG,SLTSEEFAKLVGMSVLLAKERLLLAEKMGHLCRDDSVEGLRFYPNLFMTQ
