contacts,cs,ce,Chain,Length,designed_receptor_seq,native_receptor_seq,designed_binder_seq,native_binder_seq
18.0,150,160,A,10,MEEEFRKAIEEYYKTGKLSELLK,NANQMLTDILSFMKSGKRAAALE,KPLHKDQPKF,HPMNEEQPWI
18.0,140,160,A,20,MEEEFKKAIEEYIKTGKLDERLK,NANQMLTDILSFMKSGKRAAALE,GKKNSLKPPFYPLHEDEPEF,SQQRSIKPPFHPMNEEQPWI
21.0,130,160,A,30,MEEEFKKAIEEFVKTGKKAELLK,NANQMLTDILSFMKSGKRAAALE,KKVKYYVLKPSKKDSLKPPFYPLHEEQPAF,TVRIYQTLIPSQQRSIKPPFHPMNEEQPWI
21.0,120,160,A,40,MEEEFKKAIEEYVKTGKLDERLK,NANQMLTDILSFMKSGKRAAALE,FGTVSFAHGKAYVKYYVLKPNKENSLEPPFYPLAEDQPAF,QGLEYFFFDTTVRIYQTLIPSQQRSIKPPFHPMNEEQPWI
25.0,110,160,A,50,MEEEFKKDIEEFMKTGNLSERLK,NANQMLTDILSFMKSGKRAAALE,EGKFSHEFVVLGEESFAFGKTFRKYWVLKPNKKFSLEPPFYPLAEDQPAF,GYEFSHEYIIQGLEYFFFDTTVRIYQTLIPSQQRSIKPPFHPMNEEQPWI
28.0,4,14,B,10,MLELYLIGSVPEEKLKEVVEKLKEKLGGPKEVLDYYVVFKPKPPDPSKYLRLRADISKVDENDENWYKKVEWEVYLKGYSLPFLENKPGIRPVYKAVVKEGDVLEKVKELGYEFDREFVVYGLEFEEYGTKTRIYLVLKPSKKFSIKPPFLPFSLDQPWILYVYTIVEDEKDEEAVEKAKENLEKVKELLSEFVELKNVGF,MQELYLLGVVPSRRFEAVVNSLSKTLDGPKTILEFWVVYRPKPRQPDSWLRLCSNIESHDETDTEWSKNTQWSMYLEGNSEPKREDKCGIRPVNRAKLTNGSVTEFVEKMGYEFSHEYIIQGLEYFFFDTTVRIYQTLIPSQQRSIKPPFHPMNEEQPWILHVYTHVADASNQVAMAKAEANLTKVKTLLSAFCDLKNVRL,KLEEILKFIR,MLTDILSFMK
37.0,1,21,B,20,MLELYLIGVVPEEKLKEVVEKLKEKLGGPEEVLDYYVVFKPKPPDPSKWLRLRADISKVDENDENWYKKVEWEVYLKGYSLPFLENLPGIRPVFKATVKEGDVLEKVKELGYEFSHEYVVYGLRFKEYGVTVEIYKVLKPSKELSIKPPFLPFHLEQPWILYVYTIVEDEKDEEAVKKAVENLEKVKELLSEFVELKNVGR,MQELYLLGVVPSRRFEAVVNSLSKTLDGPKTILEFWVVYRPKPRQPDSWLRLCSNIESHDETDTEWSKNTQWSMYLEGNSEPKREDKCGIRPVNRAKLTNGSVTEFVEKMGYEFSHEYIIQGLEYFFFDTTVRIYQTLIPSQQRSIKPPFHPMNEEQPWILHVYTHVADASNQVAMAKAEANLTKVKTLLSAFCDLKNVRL,PEEYLKAILEYVRTGKLPEP,ANQMLTDILSFMKSGKRAAA
0.0,0,0,B,0,MLELYLLGTVPAERLAEVVSALKEKLGGPEEVLDYVVVFKPKPPDPSKWLRLRADISKVDVNDENWYKNVEWEVYLRGYSLPFLENRPGARPVFKATVKEGDVLEKVKELGYEFAYEYVVYGLRFKEYGVTVEIYLRLVPSKKFSVKPPFLPLSLDQPWTLYVYTLVEDEKDEEAVEKAVENLEKVKELLSEFVELKNVGV,MQELYLLGVVPSRRFEAVVNSLSKTLDGPKTILEFWVVYRPKPRQPDSWLRLCSNIESHDETDTEWSKNTQWSMYLEGNSEPKREDKCGIRPVNRAKLTNGSVTEFVEKMGYEFSHEYIIQGLEYFFFDTTVRIYQTLIPSQQRSIKPPFHPMNEEQPWILHVYTHVADASNQVAMAKAEANLTKVKTLLSAFCDLKNVRL,MLELYLLGTVPAERLAEVVSALKEKLGGPEEVLDYVVVFKPKPPDPSKWLRLRADISKVDVNDENWYKNVEWEVYLRGYSLPFLENRPGARPVFKATVKEGDVLEKVKELGYEFAYEYVVYGLRFKEYGVTVEIYLRLVPSKKFSVKPPFLPLSLDQPWTLYVYTLVEDEKDEEAVEKAVENLEKVKELLSEFVELKNVGVGPEELKKLLE,
0.0,0,0,B,0,MLELYLLGTVPAERLAEVVSALKEKLGGPEEVLDYVVVFKPKPPDPSKWLRLRADISKVDVNDENWYKNVEWEVYLRGYSLPFLENRPGARPVFKATVKEGDVLEKVKELGYEFAYEYVVYGLRFKEYGVTVEIYLRLVPSKKFSVKPPFLPLSLDQPWTLYVYTLVEDEKDEEAVEKAVENLEKVKELLSEFVELKNVGV,MQELYLLGVVPSRRFEAVVNSLSKTLDGPKTILEFWVVYRPKPRQPDSWLRLCSNIESHDETDTEWSKNTQWSMYLEGNSEPKREDKCGIRPVNRAKLTNGSVTEFVEKMGYEFSHEYIIQGLEYFFFDTTVRIYQTLIPSQQRSIKPPFHPMNEEQPWILHVYTHVADASNQVAMAKAEANLTKVKTLLSAFCDLKNVRL,MLELYLLGTVPAERLAEVVSALKEKLGGPEEVLDYVVVFKPKPPDPSKWLRLRADISKVDVNDENWYKNVEWEVYLRGYSLPFLENRPGARPVFKATVKEGDVLEKVKELGYEFAYEYVVYGLRFKEYGVTVEIYLRLVPSKKFSVKPPFLPLSLDQPWTLYVYTLVEDEKDEEAVEKAVENLEKVKELLSEFVELKNVGVGPEELKKLLE,
0.0,0,0,B,0,MLELYLLGTVPAERLAEVVSALKEKLGGPEEVLDYVVVFKPKPPDPSKWLRLRADISKVDVNDENWYKNVEWEVYLRGYSLPFLENRPGARPVFKATVKEGDVLEKVKELGYEFAYEYVVYGLRFKEYGVTVEIYLRLVPSKKFSVKPPFLPLSLDQPWTLYVYTLVEDEKDEEAVEKAVENLEKVKELLSEFVELKNVGV,MQELYLLGVVPSRRFEAVVNSLSKTLDGPKTILEFWVVYRPKPRQPDSWLRLCSNIESHDETDTEWSKNTQWSMYLEGNSEPKREDKCGIRPVNRAKLTNGSVTEFVEKMGYEFSHEYIIQGLEYFFFDTTVRIYQTLIPSQQRSIKPPFHPMNEEQPWILHVYTHVADASNQVAMAKAEANLTKVKTLLSAFCDLKNVRL,MLELYLLGTVPAERLAEVVSALKEKLGGPEEVLDYVVVFKPKPPDPSKWLRLRADISKVDVNDENWYKNVEWEVYLRGYSLPFLENRPGARPVFKATVKEGDVLEKVKELGYEFAYEYVVYGLRFKEYGVTVEIYLRLVPSKKFSVKPPFLPLSLDQPWTLYVYTLVEDEKDEEAVEKAVENLEKVKELLSEFVELKNVGVGPEELKKLLE,
