contacts,cs,ce,Chain,Length,designed_receptor_seq,native_receptor_seq,designed_binder_seq,native_binder_seq
38.0,283,293,A,10,GGSPEFGVKYVPGNKKEENPDPKQKFSVSTEPIAVMRTFSGEEFDRTDKTVDPEAEEAVKKVEEKVKKMKLFPVTLEKDEKGLGISIKGVGAGEKKGDDFLLILVKEVVEGGAADKEGKIKVNDVLVEVDGVSLVGVTEAFAKKVLKEAKGKVKFVIGRE,PYEPESGCVEIPGLSEEEDPAPSRKIHFSTAPIQVFSTYSNEDYDRRNEDVDPMAASAEYELEKRVERLELFPVELEKDSEGLGISIIGMGAGADMGLEKLGIFVKTVTEGGAAHRDGRIQVNDLLVEVDGTSLVGVTQSFAASVLRNTKGRVRFMIGRE,EFFSVVFKPK,MCSFQILKPA
43.0,273,293,A,20,GGSPEFGVKYVPGFKKEENPDPKQKFSVSTKPIAVMRTFSGEEFDRTNPNIDPEAEEAVKKVEEKVKKLKLFPVTLEKDEKGLGISIKGVGAGEKKGDDFLLILVKEVVEGGAADKEGKIKVNDVLVEVDGKSLVGVTEAFAKKVLKEAKGKVKFVIGRE,PYEPESGCVEIPGLSEEEDPAPSRKIHFSTAPIQVFSTYSNEDYDRRNEDVDPMAASAEYELEKRVERLELFPVELEKDSEGLGISIIGMGAGADMGLEKLGIFVKTVTEGGAAHRDGRIQVNDLLVEVDGTSLVGVTQSFAASVLRNTKGRVRFMIGRE,GFKVNVDKDLTMSLTVFRPE,GAMMSVDETLMCSFQILKPA
53.0,263,293,A,30,GGSPEFGVKYVPGFKKEENPDPKQKFSVSTEPIAVLRTFSGEEFDRTNPNIDPEAEEAVKKVEEKVKKLKLFPVTLEKDEKGLGISIKGVGAGEKTGDDFLLILVKEVVEGGAADKEGKIKVNDVLVEVDGVSLVGVTEEFAKKVLKEAKGKVKFVIGRE,PYEPESGCVEIPGLSEEEDPAPSRKIHFSTAPIQVFSTYSNEDYDRRNEDVDPMAASAEYELEKRVERLELFPVELEKDSEGLGISIIGMGAGADMGLEKLGIFVKTVTEGGAAHRDGRIQVNDLLVEVDGTSLVGVTQSFAASVLRNTKGRVRFMIGRE,AGYMGLTGNAAFVVNVDEKLEMSLTVFRPK,PNYCGEFDNAGAMMSVDETLMCSFQILKPA
57.0,253,293,A,40,GGSPEFGVKYVPGFAKLENPDPKQKFSISTKPIAVLRTFSGEEFDRTNPNIDPVAEEAVKKVEEKVKKLKLFPVTLEKDEKGLGISIKGVGAGKDTGDDFLLILVKEVVEGGAADKEGTIKVNDVLVEVDGVSLVGVTEEFATKVLKEAKGKVKFVIGRE,PYEPESGCVEIPGLSEEEDPAPSRKIHFSTAPIQVFSTYSNEDYDRRNEDVDPMAASAEYELEKRVERLELFPVELEKDSEGLGISIIGMGAGADMGLEKLGIFVKTVTEGGAAHRDGRIQVNDLLVEVDGTSLVGVTQSFAASVLRNTKGRVRFMIGRE,EEGVVVLGSAPNFLGKYGNAGAIMLVDEKLEMSFVVFKPE,KRQLVTLFSAPNYCGEFDNAGAMMSVDETLMCSFQILKPA
57.0,243,293,A,50,GGSPEFGVKYVPGLEKEENPDPERKYSFSTEPIAVLRVCSGEECDRTNPLIDPVAEEAVRKVEEEVKKMKLFPVTLEKDEKGLGISIKGVGAGKKTGKDFLLILVKEVVEGGAADVEGTIKVNDVLVEVDGVSLVGVTEEFATKVLKECKGKVKFVIGRK,PYEPESGCVEIPGLSEEEDPAPSRKIHFSTAPIQVFSTYSNEDYDRRNEDVDPMAASAEYELEKRVERLELFPVELEKDSEGLGISIIGMGAGADMGLEKLGIFVKTVTEGGAAHRDGRIQVNDLLVEVDGTSLVGVTQSFAASVLRNTKGRVRFMIGRE,IVENGYKFLNKRNVVILQSAPNYLGKTNNAGAVMLVDKDLTCSFIIFKPE,VVEDGYEFFAKRQLVTLFSAPNYCGEFDNAGAMMSVDETLMCSFQILKPA
37.0,31,41,B,10,GMLDEIIDRLLEVEGSKPGKPVILSEEEILSLCEEAKKIFLSQPILLELKAPLKICGDIHGQYYDLLDLFRYGGFPPESRYLFLGDYVDRGYQSLETICLLLAYKIKYPEDFFLLRGNHECAQINRVYGFYDECKRRYNVKLWKAFCACFDCLPLAAIVDDKIFCCHGGLSPELNDFSQIKEIKRPTDVPDSGLVCDLLWSDPDENVEGWGENPRGVSYTFGAEVVKKFLKKHNLELICRAHQVVENGYEFFADRNLVTLFSAPNYCGEFNNAGAIMSVDEEMNCSFEIFRPSP,LNLDSIIGRLLEVQGSRPGKNVQLTENEIRGLCLKSREIFLSQPILLELEAPLKICGDIHGQYYDLLRLFEYGGFPPESNYLFLGDYVDRGKQSLETICLLLAYKIKYPENFFLLRGNHECASINRIYGFYDECKRRYNIKLWKTFTDCFNCLPIAAIVDEKIFCCHGGLSPDLQSMEQIRRIMRPTDVPDQGLLCDLLWSDPDKDVQGWGENDRGVSFTFGAEVVAKFLHKHDLDLICRAHQVVEDGYEFFAKRQLVTLFSAPNYCGEFDNAGAMMSVDETLMCSFQILKPAD,EVKVHTVRRP,PIQVFSTYSN
68.0,24,44,B,20,MGLDEIIDRLLEVEGSRPGKPVILTEEEILSLCEEAKKIFLSQPILLELKSPLKICGDLHGQYYDLLKLFRYGGFPPESRYLFLGDYVDRGYQSLETICLLLAYKIKYPEDFFLLRGNHECAQINRVYGFYDECKRRYNVKLWKAFCSCFDCLPLAAIVDDKIFCCHGGLSPELNDFSQIKEIKRPTDVPDSGLVCDLLWSDPDENVEGWGENPRGVSYTFGAEVVKKFLEKHNLDLICRAHQVVENGYEFFADRKLVTLFSAPNYCGEFNNAGAIMSVDENLECSFEIFRPSE,LNLDSIIGRLLEVQGSRPGKNVQLTENEIRGLCLKSREIFLSQPILLELEAPLKICGDIHGQYYDLLRLFEYGGFPPESNYLFLGDYVDRGKQSLETICLLLAYKIKYPENFFLLRGNHECASINRIYGFYDECKRRYNIKLWKTFTDCFNCLPIAAIVDEKIFCCHGGLSPDLQSMEQIRRIMRPTDVPDQGLLCDLLWSDPDKDVQGWGENDRGVSFTFGAEVVAKFLHKHDLDLICRAHQVVEDGYEFFAKRQLVTLFSAPNYCGEFDNAGAMMSVDETLMCSFQILKPAD,RISFSEEPISVHTVYSLEEE,KIHFSTAPIQVFSTYSNEDY
90.0,23,53,B,30,MGLDEIIDRLLEVEGSKPGKPVKLSREEILSLCEEAKKIFLSQPILLELKSPLKICGDLHGQYYDLLKLFRYGGFPPESRYLFLGDYVDRGKQSLETICLLLAYKIKYPEDFFLLRGNHECAQINRIYGFYDECKRRYNVKLWKAFCECFDCLPLAAIVDDKIFCCHGGLSPELNDFSQIKEIKRPTDVPDEGLVCDLLWSDPDENVEGWGENPRGVSYTFGAEVVKKFLKKHNLDLICRAHQVVENGYEFFADRKLVTLFSAPNYCGEFNNAGAIMSVDENLECSFEIFRPSE,LNLDSIIGRLLEVQGSRPGKNVQLTENEIRGLCLKSREIFLSQPILLELEAPLKICGDIHGQYYDLLRLFEYGGFPPESNYLFLGDYVDRGKQSLETICLLLAYKIKYPENFFLLRGNHECASINRIYGFYDECKRRYNIKLWKTFTDCFNCLPIAAIVDEKIFCCHGGLSPDLQSMEQIRRIMRPTDVPDQGLLCDLLWSDPDKDVQGWGENDRGVSFTFGAEVVAKFLHKHDLDLICRAHQVVEDGYEFFAKRQLVTLFSAPNYCGEFDNAGAMMSVDETLMCSFQILKPAD,EKISFSEEPISVHTVYSEEEYDTTNPEIKP,RKIHFSTAPIQVFSTYSNEDYDRRNEDVDP
100.0,20,60,B,40,MGLDEIIDRLLEVEGSKPGKPVKLSREEILSLCEEAKKIFLSQPILLELKAPLKICGDLHGQYYDLLKLFRYGGFPPESRYLFLGDYVDRGKQSLETICLLLAYKIKYPEDFFLLRGNHECAQINRIYGFYDECKRRYNVKLWKAFQECFNCLPLAAIVDDKIFCCHGGLSPELNDFSQIKEIKRPTDVPDSGLVCDLLWSDPDENVEGWGENPRGVSYTFGAEVVKKFLKKHNLDLICRAHQVVENGYEFFADRNLVTLFSAPNYCGEFNNAGAIMSVDENLECSFEIFRPSE,LNLDSIIGRLLEVQGSRPGKNVQLTENEIRGLCLKSREIFLSQPILLELEAPLKICGDIHGQYYDLLRLFEYGGFPPESNYLFLGDYVDRGKQSLETICLLLAYKIKYPENFFLLRGNHECASINRIYGFYDECKRRYNIKLWKTFTDCFNCLPIAAIVDEKIFCCHGGLSPDLQSMEQIRRIMRPTDVPDQGLLCDLLWSDPDKDVQGWGENDRGVSFTFGAEVVAKFLHKHDLDLICRAHQVVEDGYEFFAKRQLVTLFSAPNYCGEFDNAGAMMSVDETLMCSFQILKPAD,EEERKISFSEEPISVHTVYSEEEYDTTNPEIDPEAARKEG,APSRKIHFSTAPIQVFSTYSNEDYDRRNEDVDPMAASAEY
104.0,10,60,B,50,MGLDEIIDRLLEVEGSKPGKPVKLSREEILSLCEEAKKIFLSQPILLELKAPLKICGDLHGQYYDLLKLFRYGGFPPESRYLFLGDYVDRGKQSLETICLLLAYKIKYPEDFFLLRGNHECAQINRIYGFYDECKRRYNVKLWKAFQECFNCLPLAAIVDDRIFCCHGGLSPELNDFSQIKEIKRPTDVPDSGLVCDLLWSDPDENVEGWGENPRGVSYTFGADVVKKFLKKHNLDLICRAHQVVENGYEFFADRNLVTLFSAPNYCGEFNNAGAIMSVDENLECSFEIFRPSE,LNLDSIIGRLLEVQGSRPGKNVQLTENEIRGLCLKSREIFLSQPILLELEAPLKICGDIHGQYYDLLRLFEYGGFPPESNYLFLGDYVDRGKQSLETICLLLAYKIKYPENFFLLRGNHECASINRIYGFYDECKRRYNIKLWKTFTDCFNCLPIAAIVDEKIFCCHGGLSPDLQSMEQIRRIMRPTDVPDQGLLCDLLWSDPDKDVQGWGENDRGVSFTFGAEVVAKFLHKHDLDLICRAHQVVEDGYEFFAKRQLVTLFSAPNYCGEFDNAGAMMSVDETLMCSFQILKPAD,VPGFEEEEEPDPERKISFSTKPIKVHKVYSEEEYDTTNPEIDPEAARKEG,IPGLSEEEDPAPSRKIHFSTAPIQVFSTYSNEDYDRRNEDVDPMAASAEY
