contacts,cs,ce,Chain,Length,designed_receptor_seq,native_receptor_seq,designed_binder_seq,native_binder_seq
39.0,23,33,A,10,GSHMDEEFYYKDEYVDSTKPEELEKLYEKCRNDILNGKMPVSFEDACKFGGYLCQIRFGPCKEDIHKPGFLKLEDYLPKKYVNRKGAEEKIFEYHKKQGNMSKIEAMVKFVLLAHSLKTYGVTFFEVEKKAKGKNEWVPRLFGVSKTSVMFVDPETCDVLWTAPLTQLKRWGYSPTTFTLDFGEHRKELFTVRTTKGKEISELIKGNIEKLVEKKKK,GIDPFTKFFYSDQNVDSRDPVQLNLLYVQARDDILNGSHPVSFEKACEFGGFQAQIQFGPHVEHKHKPGFLDLKEFLPKEYIKQRGAEKRIFQEHKNCGEMSEIEAKVKYVKLARSLRTYGVSFFLVKEKMKGKNKLVPRLLGITKDSVMRVDEKTKEVLQEWPLTTVKRWAASPKSFTLDFGEYQESYYSVQTTEGEQISQLIAGYIDIILKKKQS,LTWEMEENPI,AKWDTQENPI
62.0,16,36,A,20,GSHMDEEFYYKDEYVDSTKPEELEKLYEKCRNDILNGKMPVSFEDACKFGGYLCQIRFGPCKEDIHKPGFLKLEDYLPKKYVNRKGAEEKIFEYHKKQGNMSKIEAMVKFVLLAHSLKTYGVTFFEVEKLKKGENKLVPRLFGVSKTSVMFVDPETCDVLWTAPLTQLYRFAYSPTTFTLDFGSHRKEKFTVKTTKGKEIAELIKGNIEKLVEKKKK,GIDPFTKFFYSDQNVDSRDPVQLNLLYVQARDDILNGSHPVSFEKACEFGGFQAQIQFGPHVEHKHKPGFLDLKEFLPKEYIKQRGAEKRIFQEHKNCGEMSEIEAKVKYVKLARSLRTYGVSFFLVKEKMKGKNKLVPRLLGITKDSVMRVDEKTKEVLQEWPLTTVKRWAASPKSFTLDFGEYQESYYSVQTTEGEQISQLIAGYIDIILKKKQS,FEEEEKNAVWEMEKNPIYKE,FEKEKMNAKWDTQENPIYKS
75.0,7,37,A,30,GSHMDEEFYYKDEYVDSTKPEELEKLYEKCRNDILNGKMPVSFEDACKFGGYLCQIRFGPCKEDVHKPGFLKLEDYLPKKYVNRKGAEEKIFEYHKKQGNMSKIEAMVKFVLLAHSLKTYGVTFFEVEKQKKGEKKLVPRLFGVSKTSVMFVDPETCDVLWTAPLTQLYRFAYSPSSFTLDFGDYRKEKFSVKTTKGGEIANLIKGNIEKLVKKKEK,GIDPFTKFFYSDQNVDSRDPVQLNLLYVQARDDILNGSHPVSFEKACEFGGFQAQIQFGPHVEHKHKPGFLDLKEFLPKEYIKQRGAEKRIFQEHKNCGEMSEIEAKVKYVKLARSLRTYGVSFFLVKEKMKGKNKLVPRLLGITKDSVMRVDEKTKEVLQEWPLTTVKRWAASPKSFTLDFGEYQESYYSVQTTEGEQISQLIAGYIDIILKKKQS,EKEEKEFEEFEKEKENAKWEMEENPIYKKK,IHDRREFAKFEKEKMNAKWDTQENPIYKSP
0.0,0,0,A,0,GSHMDEEFYYKDEYVDSTKPEELEKQYEKCRNDILNGKMPVSFEDACKFGGYLCQIRFGPCKEDIHKPGFLKLEDYLPKKYVNRKGAEEKIFEHHKKCGNMSKIEAMVKFVLLAHSLKTYGVTFFEVEKKAKGKNELVPRLFGVSEDSVMFVDPETCDVLWTAPLSQLKSFGATPTSFTLDFGKHRKKKFTVKTTKGKEIAELIKGNLKKLEEKKKK,GIDPFTKFFYSDQNVDSRDPVQLNLLYVQARDDILNGSHPVSFEKACEFGGFQAQIQFGPHVEHKHKPGFLDLKEFLPKEYIKQRGAEKRIFQEHKNCGEMSEIEAKVKYVKLARSLRTYGVSFFLVKEKMKGKNKLVPRLLGITKDSVMRVDEKTKEVLQEWPLTTVKRWAASPKSFTLDFGEYQESYYSVQTTEGEQISQLIAGYIDIILKKKQS,GSHMDEEFYYKDEYVDSTKPEELEKQYEKCRNDILNGKMPVSFEDACKFGGYLCQIRFGPCKEDIHKPGFLKLEDYLPKKYVNRKGAEEKIFEHHKKCGNMSKIEAMVKFVLLAHSLKTYGVTFFEVEKKAKGKNELVPRLFGVSEDSVMFVDPETCDVLWTAPLSQLKSFGATPTSFTLDFGKHRKKKFTVKTTKGKEIAELIKGNLKKLEEKKKKEEEEEEEEEE,
0.0,0,0,A,0,GSHMDEEFYYKDEYVDSTKPEELEKQYEKCRNDILNGKMPVSFEDACKFGGYLCQIRFGPCKEDIHKPGFLKLEDYLPKKYVNRKGAEEKIFEHHKKCGNMSKIEAMVKFVLLAHSLKTYGVTFFEVEKKAKGKNELVPRLFGVSEDSVMFVDPETCDVLWTAPLSQLKSFGATPTSFTLDFGKHRKKKFTVKTTKGKEIAELIKGNLKKLEEKKKK,GIDPFTKFFYSDQNVDSRDPVQLNLLYVQARDDILNGSHPVSFEKACEFGGFQAQIQFGPHVEHKHKPGFLDLKEFLPKEYIKQRGAEKRIFQEHKNCGEMSEIEAKVKYVKLARSLRTYGVSFFLVKEKMKGKNKLVPRLLGITKDSVMRVDEKTKEVLQEWPLTTVKRWAASPKSFTLDFGEYQESYYSVQTTEGEQISQLIAGYIDIILKKKQS,GSHMDEEFYYKDEYVDSTKPEELEKQYEKCRNDILNGKMPVSFEDACKFGGYLCQIRFGPCKEDIHKPGFLKLEDYLPKKYVNRKGAEEKIFEHHKKCGNMSKIEAMVKFVLLAHSLKTYGVTFFEVEKKAKGKNELVPRLFGVSEDSVMFVDPETCDVLWTAPLSQLKSFGATPTSFTLDFGKHRKKKFTVKTTKGKEIAELIKGNLKKLEEKKKKEEEEEEEEEE,
36.0,164,174,B,10,GSHMEELKRLEEEKRRFEEEKKNAVFKMEENPIYKEKENG,GPKLLMIIHDRREFAKFEKEKMNAKWDTQENPIYKSPINN,PTKILRWAEK,LTTVKRWAAS
49.0,164,184,B,20,GPLGSLLLLLLLLLLLFLVLRRRAVWQMEENPIYRHPSEG,GPKLLMIIHDRREFAKFEKEKMNAKWDTQENPIYKSPINN,PERLLRWARSPFSFVLDFGD,LTTVKRWAASPKSFTLDFGE
54.0,163,193,B,30,GPLGSLLLLLLLLRALFLVLRRRAVWLMERNPIYRHPDEG,GPKLLMIIHDRREFAKFEKEKMNAKWDTQENPIYKSPINN,GPDRLLRWAVSPFSFCLDYGAYRRRLLCFP,PLTTVKRWAASPKSFTLDFGEYQESYYSVQ
55.0,161,201,B,40,GPLGSLAAKLEKEKADFEKEKENAKWVMEKNPIYKEPENG,GPKLLMIIHDRREFAKFEKEKMNAKWDTQENPIYKSPINN,GVPLTQIKRWAYSPTSFCIDCGAYMDKEICIKTKKGKELA,EWPLTTVKRWAASPKSFTLDFGEYQESYYSVQTTEGEQIS
63.0,162,212,B,50,GMEEKKKEKEEKEKKEFLEKKKEAKWVMEENPIYKEPENG,GPKLLMIIHDRREFAKFEKEKMNAKWDTQENPIYKSPINN,FPLSTLKKMAYSPESFCLDFGKYQKEKLCIKTKEGKKIAEIIKGEIEKLK,WPLTTVKRWAASPKSFTLDFGEYQESYYSVQTTEGEQISQLIAGYIDIIL
