contacts,cs,ce,Chain,Length,designed_receptor_seq,native_receptor_seq,designed_binder_seq,native_binder_seq
12.0,29,39,A,10,MEEEEKEEEEEEEEEE,AYQQGQNQLYNELNLG,EEEEEEEEEE,ARRHRILDIY
19.0,19,39,A,20,MEEEELKELLKELNIE,AYQQGQNQLYNELNLG,LGIEEGIELTEEKIEILKKI,KGGLEGIYYSARRHRILDIY
21.0,12,42,A,30,GSSGSSGSSLSSLRLG,AYQQGQNQLYNELNLG,LGELLGKNGVLEGVRLTEERKEELRRFLEG,MSHFIKEKGGLEGIYYSARRHRILDIYLEK
21.0,2,42,A,40,GSSGSSGKKLEKLNLG,AYQQGQNQLYNELNLG,EPLTKEKLEELKKLLGENGVLEGVELTEERLEELKELLEG,RTMSYKLAIDMSHFIKEKGGLEGIYYSARRHRILDIYLEK
21.0,0,50,A,50,GSSGSSGEAYRRLNLG,AYQQGQNQLYNELNLG,EPRRLTAEDRERLRELLGRRGVLEGVRLTAERRRELEELLRREFGVDPEG,PLRTMSYKLAIDMSHFIKEKGGLEGIYYSARRHRILDIYLEKEEGIIPDW
21.0,5,15,B,10,MPRKATFELLKELSEELKKRGMLEGVEYTSRREKILKRYFLEKHGIDPSWLSWTKGPGIRYPKTFGWLWKLVPPPSPDADPNGLKLKWVYDPELLEKDLAKELYPEEFG,PLRTMSYKLAIDMSHFIKEKGGLEGIYYSARRHRILDIYLEKEEGIIPDWQDYTSGPGIRYPKTFGWLWKLVPVTSQWDDPWGEVLAWKFDPTLAYTYEAYVRYPEEFG,KGKEYEELNW,QNQLYNELNL
0.0,0,0,B,0,MPRKATFELLKELSEELKKEGGLEGEEYTFEKEKELKEYFKKKYGIDPSWLDWTEGPGIRYPKFFGWLWKLVPPPSPDADPNGLKLKWVYDPELLEKDLAKELYPEEFG,PLRTMSYKLAIDMSHFIKEKGGLEGIYYSARRHRILDIYLEKEEGIIPDWQDYTSGPGIRYPKTFGWLWKLVPVTSQWDDPWGEVLAWKFDPTLAYTYEAYVRYPEEFG,MPRKATFELLKELSEELKKEGGLEGEEYTFEKEKELKEYFKKKYGIDPSWLDWTEGPGIRYPKFFGWLWKLVPPPSPDADPNGLKLKWVYDPELLEKDLAKELYPEEFGEEEEEEEEEE,
0.0,0,0,B,0,MPRKATFELLKELSEELKKEGGLEGEEYTFEKEKELKEYFKKKYGIDPSWLDWTEGPGIRYPKFFGWLWKLVPPPSPDADPNGLKLKWVYDPELLEKDLAKELYPEEFG,PLRTMSYKLAIDMSHFIKEKGGLEGIYYSARRHRILDIYLEKEEGIIPDWQDYTSGPGIRYPKTFGWLWKLVPVTSQWDDPWGEVLAWKFDPTLAYTYEAYVRYPEEFG,MPRKATFELLKELSEELKKEGGLEGEEYTFEKEKELKEYFKKKYGIDPSWLDWTEGPGIRYPKFFGWLWKLVPPPSPDADPNGLKLKWVYDPELLEKDLAKELYPEEFGEEEEEEEEEE,
0.0,0,0,B,0,MPRKATFELLKELSEELKKEGGLEGEEYTFEKEKELKEYFKKKYGIDPSWLDWTEGPGIRYPKFFGWLWKLVPPPSPDADPNGLKLKWVYDPELLEKDLAKELYPEEFG,PLRTMSYKLAIDMSHFIKEKGGLEGIYYSARRHRILDIYLEKEEGIIPDWQDYTSGPGIRYPKTFGWLWKLVPVTSQWDDPWGEVLAWKFDPTLAYTYEAYVRYPEEFG,MPRKATFELLKELSEELKKEGGLEGEEYTFEKEKELKEYFKKKYGIDPSWLDWTEGPGIRYPKFFGWLWKLVPPPSPDADPNGLKLKWVYDPELLEKDLAKELYPEEFGEEEEEEEEEE,
0.0,0,0,B,0,MPRKATFELLKELSEELKKEGGLEGEEYTFEKEKELKEYFKKKYGIDPSWLDWTEGPGIRYPKFFGWLWKLVPPPSPDADPNGLKLKWVYDPELLEKDLAKELYPEEFG,PLRTMSYKLAIDMSHFIKEKGGLEGIYYSARRHRILDIYLEKEEGIIPDWQDYTSGPGIRYPKTFGWLWKLVPVTSQWDDPWGEVLAWKFDPTLAYTYEAYVRYPEEFG,MPRKATFELLKELSEELKKEGGLEGEEYTFEKEKELKEYFKKKYGIDPSWLDWTEGPGIRYPKFFGWLWKLVPPPSPDADPNGLKLKWVYDPELLEKDLAKELYPEEFGEEEEEEEEEE,
