contacts,cs,ce,Chain,Length,designed_receptor_seq,native_receptor_seq,designed_binder_seq,native_binder_seq
15.0,229,239,A,10,MAEKKKKDKAAFYKAGYHKYGLYSDDTLKEDGDVKEALKRLDKKTLEERKFRLEHAKLLEKKKEVLPKEKWIKYEDDKPYLTPLLKEVRKERKEKEEKEKE,GRLMDRIRKWYYNAAGFNKYGLMRDDTLYEDDDVKEALKRLPEDLYNERMFRIKRALDLSLKHRILPKEQWVKYEEDKPYLEPYLKEVIRERLEREAWNKK,EKEKEIKYEP,LKSRKMAYRP
15.0,219,239,A,20,MAEEEEEEEEEFYEAGYHKYGLYRDDTLVEDEDVKEALKRLDEETLEERKFRLLHALLLLVKEEVLPEEEWVKYEDDDPFLEPLLEEVRKEREEEEEEEEE,GRLMDRIRKWYYNAAGFNKYGLMRDDTLYEDDDVKEALKRLPEDLYNERMFRIKRALDLSLKHRILPKEQWVKYEEDKPYLEPYLKEVIRERLEREAWNKK,EEEEEEEEEELLEAEIEYVP,YYMKRHKWSVLKSRKMAYRP
15.0,209,239,A,30,MAEKKKKEKAAFYKAGYHKYGLYSDDTLKEDGDVKEALKRLDKETLEERKFRLEHAALLKIKKEVLPEEKWIKYEDDKPYLTPLLEEVRKEREEKRKKEKE,GRLMDRIRKWYYNAAGFNKYGLMRDDTLYEDDDVKEALKRLPEDLYNERMFRIKRALDLSLKHRILPKEQWVKYEEDKPYLEPYLKEVIRERLEREAWNKK,EEKEKEEKEKEEKEKEELKKLLEKEIKYEP,LISALLTSLLYYMKRHKWSVLKSRKMAYRP
15.0,199,239,A,40,MAEKKKKDKAAFYKAGYHKYGLYSDDTLKEDGDVKEALKRLDKETLEERKFRLEHAALLGFKKEVLPEEKWIKYEDDKPYLTPLLKEVRKEREEKRKAEKE,GRLMDRIRKWYYNAAGFNKYGLMRDDTLYEDDDVKEALKRLPEDLYNERMFRIKRALDLSLKHRILPKEQWVKYEEDKPYLEPYLKEVIRERLEREAWNKK,KEKEKEKEREEKRKELEEKLKKEIEEKLKKYLEKKIEYKP,QRKRMGLKMLLISALLTSLLYYMKRHKWSVLKSRKMAYRP
15.0,189,239,A,50,MAEEEEEEEEEFYEAGYHRYGLYRDDTLVEDEDVKEALKRLDEETLEERKFRLLHALLLLVKEEVLPEEEWVKYEDDKPYLLPLLEEVRKEREEREREERE,GRLMDRIRKWYYNAAGFNKYGLMRDDTLYEDDDVKEALKRLPEDLYNERMFRIKRALDLSLKHRILPKEQWVKYEEDKPYLEPYLKEVIRERLEREAWNKK,EEEEEDPLREEREELREELEELREELEEEVGELREELEEELLEAEMEYEP,LRWAAEPEHDQRKRMGLKMLLISALLTSLLYYMKRHKWSVLKSRKMAYRP
9.0,52,62,B,10,SDVQLLPPVYPWDFRGPFDKLNYESVRRGFLVYDRVCSRCHSMTNRRFADLIGVIYTEEEAVALAKKQQYTDGPDENGELYQRPGRITDYLPRPYPNPEAAAAANNGFLPPDLSLIPLRREGGVDYLYAVLTGYEEPPEGVTVPEGKYYNPYFPGHATGMKPPIKDNVLTFDDGTPATKENIAWDVCAFLKWAADPGHDERKERLKVYLEERERLEKENGELIRKRNEALLKAKVELVPPE,GELELHPPAFPWSHGGPLSALDHSSVRRGFQVYKQVCSACHSMDYVAFRNLIGVTHTEAEAKALAEEVEVQDGPDENGELFMRPGKISDYFPKPYPNPEAARAANNGALPPDLSYIVNARHGGEDYVFSLLTGYCDPPAGVVVREGLHYNPYFPGQAIGMAPPIYNEILEYDDGTPATMSQIAKDVCTFLRWAAEPEHDQRKRMGLKMLLISALLTSLLYYMKRHKWSVLKSRKMAYRPPK,EVLKALEGFR,IKRALDLSLK
15.0,42,62,B,20,SDFRVEPPVYPWDFRGPFDKLDYERVRRGFLVYDRVCSRCHSMTNRRFADLIGVIYTEEEARALAERYEYEDGPDENGEMYKRKGRITDYLPRPYPDPEAAKAANNGFLPPDLSLIPLRREGGVDYLYAVLTGYEEPPEGVEVPEGRYYNPYCPGHATGMKPPIRDNVLEFDDGTPATKENIAWDVCAFLKWAADPGHDERKERLKEYLERREREEKELGEKIRELGEKLRTAKIEYRPPE,GELELHPPAFPWSHGGPLSALDHSSVRRGFQVYKQVCSACHSMDYVAFRNLIGVTHTEAEAKALAEEVEVQDGPDENGELFMRPGKISDYFPKPYPNPEAARAANNGALPPDLSYIVNARHGGEDYVFSLLTGYCDPPAGVVVREGLHYNPYFPGQAIGMAPPIYNEILEYDDGTPATMSQIAKDVCTFLRWAAEPEHDQRKRMGLKMLLISALLTSLLYYMKRHKWSVLKSRKMAYRPPK,PEEVGRALYERVKELLEGFR,EDLYNERMFRIKRALDLSLK
15.0,32,62,B,30,SDVQLLPPVYPWDFRGPFDKLNYESVRRGFLVYDRVCSRCHSMTNRRFADLIGVIYTEEEAVALAKRHQYTDGPDENGELYQRPGRITDYLPRPYPNPEAAAAANNGFLPPDLSLIPLRREGGVDYLYAVLTGYEEPPEGVTVPEGRYYNPYFPGHATGMKPPIKDNVLTFDDGTPATKENIAWDVCAFLKWAADPGHDERKERLKEYLERREKEEKELGEKIRELGKKYLEAKIEYNPPE,GELELHPPAFPWSHGGPLSALDHSSVRRGFQVYKQVCSACHSMDYVAFRNLIGVTHTEAEAKALAEEVEVQDGPDENGELFMRPGKISDYFPKPYPNPEAARAANNGALPPDLSYIVNARHGGEDYVFSLLTGYCDPPAGVVVREGLHYNPYFPGQAIGMAPPIYNEILEYDDGTPATMSQIAKDVCTFLRWAAEPEHDQRKRMGLKMLLISALLTSLLYYMKRHKWSVLKSRKMAYRPPK,ELAEKIKKLDKETLEKLLFALVKKALEGFR,DVKEALKRLPEDLYNERMFRIKRALDLSLK
15.0,22,62,B,40,SDVQLLPPVYPWDFRGPFDLLDYDSVRRGFLVYDRVCSRCHSMTNRRFADLIGVIYTEEEAVALAERHQYTDGPDENGELYERPGRITDYLPRPYPDPEAAAEANNGFLPPDLSLITLRREGGTDYLYAFLTGYEEPPEGVEVPEGRYYNPYFPGHATGMKPPIRDDVLEFDDGTPATKENIAWDVCAFLEWAANPGHDEAKRLLAVQLEERERLEAELGERVRELGAELLEAEIEYRPPE,GELELHPPAFPWSHGGPLSALDHSSVRRGFQVYKQVCSACHSMDYVAFRNLIGVTHTEAEAKALAEEVEVQDGPDENGELFMRPGKISDYFPKPYPNPEAARAANNGALPPDLSYIVNARHGGEDYVFSLLTGYCDPPAGVVVREGLHYNPYFPGQAIGMAPPIYNEILEYDDGTPATMSQIAKDVCTFLRWAAEPEHDQRKRMGLKMLLISALLTSLLYYMKRHKWSVLKSRKMAYRPPK,TEEDLRVADGEVLLELSLLEEEELEARLFRLVRAALEGVR,MRDDTLYEDDDVKEALKRLPEDLYNERMFRIKRALDLSLK
15.0,12,62,B,50,SNAQVTPPVYPWDFRGPFDKLNYDSVRRGFLVYDRVCSRCHSMTNRRFADLIGVIYTEEEAVALAKRYQYTDGPDENGELYQRPGRITDYLPRPYPDPAAAAAANNGFLPPDLSLITLRREGGVDYLYAVLTGYEDPPEGVTVPEGRYYNPYFPGHATGMKPPIRDNVLTFDDGTPATKENIAWDVCAFLQWAADPGHDAAKERLAEELERRREEEARLGEEIRRRNAALLEAKMEYRPPE,GELELHPPAFPWSHGGPLSALDHSSVRRGFQVYKQVCSACHSMDYVAFRNLIGVTHTEAEAKALAEEVEVQDGPDENGELFMRPGKISDYFPKPYPNPEAARAANNGALPPDLSYIVNARHGGEDYVFSLLTGYCDPPAGVVVREGLHYNPYFPGQAIGMAPPIYNEILEYDDGTPATMSQIAKDVCTFLRWAAEPEHDQRKRMGLKMLLISALLTSLLYYMKRHKWSVLKSRKMAYRPPK,PEDGYERFGLLAEDTLVADGAVLEALRRLDRAALEERLFRLASALRKGVR,NAAGFNKYGLMRDDTLYEDDDVKEALKRLPEDLYNERMFRIKRALDLSLK
