contacts,cs,ce,Chain,Length,designed_receptor_seq,native_receptor_seq,designed_binder_seq,native_binder_seq
18.0,33,43,A,10,GSHMEPSNLGKLPEFKSLYKEVKELKELPKKVG,FISELPSEEGKKLEHFTKLRPKRNKKQQPTQAA,KVIPLLRTLE,LCEDLLSSVD
23.0,23,43,A,20,GSHMEPSNLGKLPEFKSLYKKVVERKELPKTVS,FISELPSEEGKKLEHFTKLRPKRNKKQQPTQAA,KAELIKKYPELAEILLRTIE,LSDLIDLVPSLCEDLLSSVD
25.0,12,42,A,30,GSHMEPSGLGKLPEFKSLYKKVKKLEKLPEKVS,FISELPSEEGKKLEHFTKLRPKRNKKQQPTQAA,PNAPKELLEENIEALVKAVPEAKEVLLRTL,RRLPPQQIEKNLSDLIDLVPSLCEDLLSSV
36.0,3,43,A,40,GSHMEPSGGGRRRRHASLFRRRRRRRRRPRRVS,FISELPSEEGKKLEHFTKLRPKRNKKQQPTQAA,ALAAALDYMGRVPARRRRAELERLVAAAPALADALLRCVD,QLDCALDLMRRLPPQQIEKNLSDLIDLVPSLCEDLLSSVD
36.0,0,50,A,50,GSHMEPSGGGEELEHESLYREVVEREEEPEDVG,FISELPSEEGKKLEHFTKLRPKRNKKQQPTQAA,EEELLRAALDYMGRVPPEETRENLEALVEEYPELEEELLRTVELPEEEEE,SDQQLDCALDLMRRLPPQQIEKNLSDLIDLVPSLCEDLLSSVDQPLKIAR
41.0,14,24,B,10,MEELLDLALAYMGVVPASETEENLSALIALVPELEEELRRTVFLPLKVALDPEVGKEYLLSSYNRDGDSYRSPHSNKYYPPLENGTMPSEELRELEVKANEAFEKYREENFKGGISSVYLWDTENGFSGVVLIHKEGDGSKEFKWAWDLYAVVTVEEEEDGKTAFLDLIQTVGYDVRTSKEEEGGFRLVGSITRRWTKRAEISEENPYIKNIGEMVEESTGEIRKELEEVWFGKVMEILKSL,SDQQLDCALDLMRRLPPQQIEKNLSDLIDLVPSLCEDLLSSVDQPLKIARDKVVGKDYLLCDYNRDGDSYRSPWSNKYDPPLEDGAMPSARLRKLEVEANNAFDQYRDLYFEGGVSSVYLWDLDHGFAGVILIKKAGDGSKKIKGCWDSIHVVEVQEKSSGRTAHYKLTSTVMLWLQTNKTGSGTMNLGGSLTRQMEKDETVSDSSPHIANIGRLVEDMENKIRSTLNEIYFGKTKDIVNGL,FLTKYMAKKE,HFTKLRPKRN
69.0,12,32,B,20,MEELLDLALDYMGVVPASQTRENLTALIALVPELEEALLRTVDEPLEVALDPEVGREYLLSYYNRDGDSYRSPWSNRYYPPLENGTMPSEELRELEVEANEAFERYREEHFRGGISSVYLWDTEDGFAGVVLIHKAGDGSAEFSWAWDLRARVTVRREEDGRRAFLDLVMTVRYDVRRNVEGEGGLRLVGALTRRWTREAEISEESPYILNIGEMVEEAEGEIRRELERVWFGEVMEVLRSL,SDQQLDCALDLMRRLPPQQIEKNLSDLIDLVPSLCEDLLSSVDQPLKIARDKVVGKDYLLCDYNRDGDSYRSPWSNKYDPPLEDGAMPSARLRKLEVEANNAFDQYRDLYFEGGVSSVYLWDLDHGFAGVILIKKAGDGSKKIKGCWDSIHVVEVQEKSSGRTAHYKLTSTVMLWLQTNKTGSGTMNLGGSLTRQMEKDETVSDSSPHIANIGRLVEDMENKIRSTLNEIYFGKTKDIVNGL,REHLTRYMAVREWKEEPEEP,LEHFTKLRPKRNKKQQPTQA
71.0,2,32,B,30,MEELLDLALDFMGVVPASQTRENLTALIALAPELEEALLATVDEPLEVALDPEVGREYLLCSYNRDGDSYRSPWSNRYSPPLEDGTMPSAELAELEREANEAFERYREEHFKGGISSVYLWDTEDGFAGVVLIHKAGDGSAEFSDAWDLRARVSVRREEDGRRAFLDLVMTVRYDVRTSREGEGGLRLVGALTRRWTRSAEISEESPYILQIGEMVEEAEGEIRELLRDVWFGTVGEVLASL,SDQQLDCALDLMRRLPPQQIEKNLSDLIDLVPSLCEDLLSSVDQPLKIARDKVVGKDYLLCDYNRDGDSYRSPWSNKYDPPLEDGAMPSARLRKLEVEANNAFDQYRDLYFEGGVSSVYLWDLDHGFAGVILIKKAGDGSKKIKGCWDSIHVVEVQEKSSGRTAHYKLTSTVMLWLQTNKTGSGTMNLGGSLTRQMEKDETVSDSSPHIANIGRLVEDMENKIRSTLNEIYFGKTKDIVNGL,EEEEEEEGEEEEHLTRFMPVREWKEEPEEP,SELPSEEGKKLEHFTKLRPKRNKKQQPTQA
0.0,0,0,B,0,MEELLKNALDYMNVVPASETEENLSALIELVPELEEELKKNVFLPLKVALDPEVNKEYLLSSYNQDGDSYRSPHSNKYYPPLENGKMPSEELAELEKKANEYFEEYRKDNFFGGISSVYLWDTEDGFSGVVLIHKEGDQSKEFKWAWDLIAEVEVKVEEDGKTAFLDLKMTVGYDVRTSKEEEGGFNLVGSITRKWTKRAEISEENPFIKNIGEMVSDAEGTIRSELRRIVFGTTMEILKSL,SDQQLDCALDLMRRLPPQQIEKNLSDLIDLVPSLCEDLLSSVDQPLKIARDKVVGKDYLLCDYNRDGDSYRSPWSNKYDPPLEDGAMPSARLRKLEVEANNAFDQYRDLYFEGGVSSVYLWDLDHGFAGVILIKKAGDGSKKIKGCWDSIHVVEVQEKSSGRTAHYKLTSTVMLWLQTNKTGSGTMNLGGSLTRQMEKDETVSDSSPHIANIGRLVEDMENKIRSTLNEIYFGKTKDIVNGL,MEELLKNALDYMNVVPASETEENLSALIELVPELEEELKKNVFLPLKVALDPEVNKEYLLSSYNQDGDSYRSPHSNKYYPPLENGKMPSEELAELEKKANEYFEEYRKDNFFGGISSVYLWDTEDGFSGVVLIHKEGDQSKEFKWAWDLIAEVEVKVEEDGKTAFLDLKMTVGYDVRTSKEEEGGFNLVGSITRKWTKRAEISEENPFIKNIGEMVSDAEGTIRSELRRIVFGTTMEILKSLPEEEKEEEEE,
0.0,0,0,B,0,MEELLKNALDYMNVVPASETEENLSALIELVPELEEELKKNVFLPLKVALDPEVNKEYLLSSYNQDGDSYRSPHSNKYYPPLENGKMPSEELAELEKKANEYFEEYRKDNFFGGISSVYLWDTEDGFSGVVLIHKEGDQSKEFKWAWDLIAEVEVKVEEDGKTAFLDLKMTVGYDVRTSKEEEGGFNLVGSITRKWTKRAEISEENPFIKNIGEMVSDAEGTIRSELRRIVFGTTMEILKSL,SDQQLDCALDLMRRLPPQQIEKNLSDLIDLVPSLCEDLLSSVDQPLKIARDKVVGKDYLLCDYNRDGDSYRSPWSNKYDPPLEDGAMPSARLRKLEVEANNAFDQYRDLYFEGGVSSVYLWDLDHGFAGVILIKKAGDGSKKIKGCWDSIHVVEVQEKSSGRTAHYKLTSTVMLWLQTNKTGSGTMNLGGSLTRQMEKDETVSDSSPHIANIGRLVEDMENKIRSTLNEIYFGKTKDIVNGL,MEELLKNALDYMNVVPASETEENLSALIELVPELEEELKKNVFLPLKVALDPEVNKEYLLSSYNQDGDSYRSPHSNKYYPPLENGKMPSEELAELEKKANEYFEEYRKDNFFGGISSVYLWDTEDGFSGVVLIHKEGDQSKEFKWAWDLIAEVEVKVEEDGKTAFLDLKMTVGYDVRTSKEEEGGFNLVGSITRKWTKRAEISEENPFIKNIGEMVSDAEGTIRSELRRIVFGTTMEILKSLPEEEKEEEEE,
