contacts,cs,ce,Chain,Length,designed_receptor_seq,native_receptor_seq,designed_binder_seq,native_binder_seq
11.0,19,29,A,10,GSHMELEAEVRRLTELERLVRELERVLRESE,STAAGQERREKLTEETDDLLDEIDDVLEENA,GGLGGLLARL,SKLMETLKEA
21.0,19,39,A,20,GSHMEAAAVVELLTEAERLRLALERVLAEGA,STAAGQERREKLTEETDDLLDEIDDVLEENA,GGLGEMLARVGRMREALERA,SKLMETLKEARQQLLALREE
23.0,13,43,A,30,GSHMAAAAAVALLSEAERLRLALARTLAASA,STAAGQERREKLTEETDDLLDEIDDVLEENA,AAAAAAAAAAAQAAAAGAQAAALAAAAAAA,SLAARNSKLMETLKEARQQLLALREEVDRL
23.0,3,43,A,40,GSHMAAAAAVALLSEAEALRLELERVLAESA,STAAGQERREKLTEETDDLLDEIDDVLEENA,PPPPPPPPPPPPPPPPPRLRATLARLDAQRAALAAALAAA,DIHQLEARIDSLAARNSKLMETLKEARQQLLALREEVDRL
0.0,0,0,A,0,GSHMELLEKIKTLTEKNKLIEENKRLEEENK,STAAGQERREKLTEETDDLLDEIDDVLEENA,GSHMELLEKIKTLTEKNKLIEENKRLEEENKKLEEEKKKKK,
11.0,13,23,B,10,AAAAAAAAAAAAAAAAAAAAAAAALAAEAAAEAAALAAAAAAAAA,SARDIHQLEARIDSLAARNSKLMETLKEARQQLLALREEVDRLGQ,AAAAALAAAA,EETDDLLDEI
20.0,6,26,B,20,AAAAAAAAAAAAAAAAAAAAAAAAAAAAAAAQAAALAAAAAAAAA,SARDIHQLEARIDSLAARNSKLMETLKEARQQLLALREEVDRLGQ,AAAAAAAAAAAALAAAAAAA,ERREKLTEETDDLLDEIDDV
23.0,0,30,B,30,AAAAAAAAAAAAAAAAAAAAAAAAAAAAAAAQAAALAAAAAAAAA,SARDIHQLEARIDSLAARNSKLMETLKEARQQLLALREEVDRLGQ,ASAAAAAAAAALAAAAAALAAAAAAAAAAA,STAAGQERREKLTEETDDLLDEIDDVLEEN
0.0,0,0,B,0,MAEELKKLEEEVKKLEEEVKKLEEEVKKLEEEVKKLEEEVKKLEE,SARDIHQLEARIDSLAARNSKLMETLKEARQQLLALREEVDRLGQ,MAEELKKLEEEVKKLEEEVKKLEEEVKKLEEEVKKLEEEVKKLEEELKKLEEELK,
0.0,0,0,B,0,MAEELKKLEEEVKKLEEEVKKLEEEVKKLEEEVKKLEEEVKKLEE,SARDIHQLEARIDSLAARNSKLMETLKEARQQLLALREEVDRLGQ,MAEELKKLEEEVKKLEEEVKKLEEEVKKLEEEVKKLEEEVKKLEEELKKLEEELK,
