contacts,cs,ce,Chain,Length,designed_receptor_seq,native_receptor_seq,designed_binder_seq,native_binder_seq
17.0,34,44,A,10,GGMSTRLEPVEVEVPEDVLVRRVVGPLFFAEAGELFEELSTLLEGKRVVVLRLRDVPVLDSGGLRALGRFVDALPEGTELRVCEVQFQPLATMVRAGVRPVPGKLAFFEDLEAALEDL,GSHMTRLAPVVVDVPDDVLVLRVIGPLFFAAAEGLFTDLESRLEGKRIVILKWDAVPVLDAGGLDAFQRFVKRLPEGCELRVCNVEFQPLRTMARAGIQPIPGRLAFFPNRRAAMADL,GPLELVRRVL,DSLDTVELVM
17.0,24,44,A,20,GGMSTRLEPVEVEVPEDVLVRRVVGPLFFEEAGELFEELSTLLEGKRVVVLRLRDVPVLDSGGLRALGRFVDALPEGTELRVCEVQFQPLATMERAGVRPVPGKLAFFEDLEAALEDL,GSHMTRLAPVVVDVPDDVLVLRVIGPLFFAAAEGLFTDLESRLEGKRIVILKWDAVPVLDAGGLDAFQRFVKRLPEGCELRVCNVEFQPLRTMARAGIQPIPGRLAFFPNRRAAMADL,PPDPIRDLGFDRLDLVRLVL,NASFVEDLGADSLDTVELVM
23.0,30,60,A,30,GGMSTRLVPVDVEVPADVLVRRVVGPLFFAEAGELFEELSTLLEGKRVVVLDLREVPVLDSGGLRALGRFVDALPEGTELRVCSVQFQPLRTMTRAGVRPVPGKLAFFEDLEAALADV,GSHMTRLAPVVVDVPDDVLVLRVIGPLFFAAAEGLFTDLESRLEGKRIVILKWDAVPVLDAGGLDAFQRFVKRLPEGCELRVCNVEFQPLRTMARAGIQPIPGRLAFFPNRRAAMADL,GGGLDSLDYVRLVLAVEERFDVEIPPEVAR,DLGADSLDTVELVMALEEEFDTEIPDEEAE
23.0,20,60,A,40,GGMSTRLEPVEVEVPEDVLVRRVVGPLFFAEANELFEELSTLLEGKRVVVLRLRDVPVLDSGGLRALGRFVDALPEGTELRVCEVQFQPLRTMTRAGVRPIPGKLAFFENLEEALADL,GSHMTRLAPVVVDVPDDVLVLRVIGPLFFAAAEGLFTDLESRLEGKRIVILKWDAVPVLDAGGLDAFQRFVKRLPEGCELRVCNVEFQPLRTMARAGIQPIPGRLAFFPNRRAAMADL,PRRGYASAIRDLGFDSLDYVRFVLAVEERFRVRIPPEVAR,EVTNNASFVEDLGADSLDTVELVMALEEEFDTEIPDEEAE
23.0,10,60,A,50,GGMSTRLEPVEVAVPADVLVRRVVGPLFFAEAGELFEELSTLLEGKRVVVLRLRDVPVLDSGGLRALGRFVDALPEGTELRVCEVQFQPLRTMERAGLRPVPGKLAFFEDLEAALADL,GSHMTRLAPVVVDVPDDVLVLRVIGPLFFAAAEGLFTDLESRLEGKRIVILKWDAVPVLDAGGLDAFQRFVKRLPEGCELRVCNVEFQPLRTMARAGIQPIPGRLAFFPNRRAAMADL,RAEELGVAGERVVGSASAVRDLGADSLDFVRLVLAVERRYRVRIPPEVAR,IGEQLGVKQEEVTNNASFVEDLGADSLDTVELVMALEEEFDTEIPDEEAE
20.0,84,94,B,10,GSMEERVKEIIGEQLGVEGEKVTDDASFIDDLGADSLDTVELVMALEEEFDMEIPDEEAEKITTVNAAIEYINGHQD,STIEERVKKIIGEQLGVKQEEVTNNASFVEDLGADSLDTVELVMALEEEFDTEIPDEEAEKITTVQAAIDYINGHQA,EEFAPLKEAA,VEFQPLRTMA
21.0,75,95,B,20,GSMEERVKEIIGEQLGVEGEKVVDEASFIDDLGADSLDTVELIMALEEEFDIEIPDEEAEKITTVNAAIEYINGHQD,STIEERVKKIIGEQLGVKQEEVTNNASFVEDLGADSLDTVELVMALEEEFDTEIPDEEAEKITTVQAAIDYINGHQA,EGVTLVVENVEFEPLRELAE,EGCELRVCNVEFQPLRTMAR
23.0,79,109,B,30,GSMEERVKEIIGEQLGVEGEKVTDDASFIDDLGADSLDTVELIMALEEEFDIEIPPEEAEKITTVNAAIEYINGHQD,STIEERVKKIIGEQLGVKQEEVTNNASFVEDLGADSLDTVELVMALEEEFDTEIPDEEAEKITTVQAAIDYINGHQA,VVIENVEFAPLAAMARAGVEPIPGVLSFKP,LRVCNVEFQPLRTMARAGIQPIPGRLAFFP
23.0,69,109,B,40,GSMEERVKEIIGEQLGVEGEKVTDDASFIDDLGADSLDTVELIMALEEEFDMEIPPEEAEKITTVNAAIDYINGHQD,STIEERVKKIIGEQLGVKQEEVTNNASFVEDLGADSLDTVELVMALEEEFDTEIPDEEAEKITTVQAAIDYINGHQA,FVEDLPEGVELVVSDVEFAPLAAMARAGVEPIPGKLSFEP,FVKRLPEGCELRVCNVEFQPLRTMARAGIQPIPGRLAFFP
23.0,59,109,B,50,GSMEERVKEIIGEQLGVEGERVTDDASFIDDLGADSLDTVELIMALEEEFDVEIPPEEAEKITTVSAAIDYVEGHQD,STIEERVKKIIGEQLGVKQEEVTNNASFVEDLGADSLDTVELVMALEEEFDTEIPDEEAEKITTVQAAIDYINGHQA,DLGGLRAFLEFVDALPEGVELVVRNVEFAPLATMARAGVTPIPGKLAFEP,DAGGLDAFQRFVKRLPEGCELRVCNVEFQPLRTMARAGIQPIPGRLAFFP
