contacts,cs,ce,Chain,Length,designed_receptor_seq,native_receptor_seq,designed_binder_seq,native_binder_seq
23.0,64,74,A,10,MGFIFHERQGGNNCLQNCLNNLLQGDVFTPEDLDEAAEELEEEEREEEEGEESEEYEEFLEEPSRFTEEGWRDVRVLRKLLSRHGLESVPYDDPEYRERGIDPRDEVAFVCNVDNHWFAIRKFGEEWFNLDSLLEGPELIEEPDLVELLEEILEEEDSVFVVVGELPECEADDLRLEERLEE,GDFIFHEKQEGFLCAQHCLNNLLQGEYFSPVELASIAHQLDEEERRAEGGVTSEEYLAFLQQPSENDDTGFFSIQVISNALKFWGLEIIHFNNPEYQKLGIDPINERSFICNYKQHWFTIRKFGKHWFNLNSLLAGPELISDTCLANFLARLQQQAYSVFVVKGDLPDCEADQLLQIISVEE,EEEEEWEELF,STLHLVLRLR
23.0,54,74,A,20,MGFIFHERQGGNNCLQNCLNNLLQGNVFTPEDLDEAARELEEEERRRLLGEDSEEYREFLRRPSRFTEEGWRDVRVLRRLLSRHGLRSVPYDDPEYRRRGVDPRDEVAFVLNVDNHWFAVRRFGERWFNLDSLLEGPRLIEEPDLVRLLEEVLSRRDSVYVVVGELPECEADRLDLEARLRR,GDFIFHEKQEGFLCAQHCLNNLLQGEYFSPVELASIAHQLDEEERRAEGGVTSEEYLAFLQQPSENDDTGFFSIQVISNALKFWGLEIIHFNNPEYQKLGIDPINERSFICNYKQHWFTIRKFGKHWFNLNSLLAGPELISDTCLANFLARLQQQAYSVFVVKGDLPDCEADQLLQIISVEE,PPEELGLEPGARVPLVEVLL,TLSDYNIQKESTLHLVLRLR
26.0,44,74,A,30,MGFIFHERQEGNNCLQNCLNNLLQGNVFTPEDLDEIAEELEEEEREEEGGEESEEYEEFLEEPSWFTEEGWRDVRVLRRALRRYGLESVPYDDPEYRERGIDPRDEVAFVLNVDNHWFAIRKFGEEWFNLDSLLEGPELIEEEDLEELLEEVLEEEDSVYVVVGELPECEADELRREEREEE,GDFIFHEKQEGFLCAQHCLNNLLQGEYFSPVELASIAHQLDEEERRAEGGVTSEEYLAFLQQPSENDDTGFFSIQVISNALKFWGLEIIHFNNPEYQKLGIDPINERSFICNYKQHWFTIRKFGKHWFNLNSLLAGPELISDTCLANFLARLQQQAYSVFVVKGDLPDCEADQLLQIISVEE,YGGRRLEEGAPLEEYEVEEGTEVLRRVVLP,FAGKQLEDGRTLSDYNIQKESTLHLVLRLR
34.0,34,74,A,40,MGFIFHERQEGNNCLQNCLNNLLQGDVFTPEDLDEIAEELEEEERELLGGEDSEEYEEFLEEPSRFTEEGWRDVRVLRRALRRYGLESVYYLDPEYRERGIDPRDEVAFVLNVDNHWFAIRKFGEEWFNLDSLLEGPRLIEEPDLVELLEEVLEEEDGVWVVVGELPECEADELRREEREEE,GDFIFHEKQEGFLCAQHCLNNLLQGEYFSPVELASIAHQLDEEERRAEGGVTSEEYLAFLQQPSENDDTGFFSIQVISNALKFWGLEIIHFNNPEYQKLGIDPINERSFICNYKQHWFTIRKFGKHWFNLNSLLAGPELISDTCLANFLARLQQQAYSVFVVKGDLPDCEADQLLQIISVEE,GWPPEVCRLWHRGRRLEEGAPLEEYEVEEGDEVLLRLEWP,GIPPDQQRLIFAGKQLEDGRTLSDYNIQKESTLHLVLRLR
41.0,24,74,A,50,GSHMFHERQEGFNCLQNCLNNLLQGDVFTEEDLDEIAEELEEEERELLGGEESEEYEEFLEEPSWFTEEGWRDVRVLRRALSRYGLESVYYTNPEYRKRGIDPRDEVAFVLNVDNHWFAIRKFGEEWYNLDSLLEGPELIEEEDLEELLEEVLEEEDGVWVVVGELPECEADELNLEERLEE,GDFIFHEKQEGFLCAQHCLNNLLQGEYFSPVELASIAHQLDEEERRAEGGVTSEEYLAFLQQPSENDDTGFFSIQVISNALKFWGLEIIHFNNPEYQKLGIDPINERSFICNYKQHWFTIRKFGKHWFNLNSLLAGPELISDTCLANFLARLQQQAYSVFVVKGDLPDCEADQLLQIISVEE,ELKERIYEETGIPPEVQRLWHKGRLLEEGAPLEEYEIEEGDEVLLRLEYP,NVKAKIQDKEGIPPDQQRLIFAGKQLEDGRTLSDYNIQKESTLHLVLRLR
17.0,65,75,B,10,MQIFVKTLTNKTITLEVEPSDTIENVKQKIQDKEGIPPDQQRLIFAGKQLEDGRTLSDYNIQKESTLHLVLRLRE,MQIFVKTLTGKTITLEVEPSDTIENVKAKIQDKEGIPPDQQRLIFAGKQLEDGRTLSDYNIQKESTLHLVLRLRG,TLTTGKTLSD,NDDTGFFSIQ
23.0,62,82,B,20,MQIFVKTLTNKTFTLEVEPSDTIENVKQKIFDKEGIPPDQQRLIFAGKQLEDGRTLSDYNIQKESTLHLVLRKFF,MQIFVKTLTGKTITLEVEPSDTIENVKAKIQDKEGIPPDQQRLIFAGKQLEDGRTLSDYNIQKESTLHLVLRLRG,EEEEDEEGRISLEDVLKKLG,PSENDDTGFFSIQVISNALK
29.0,64,94,B,30,MQIFVKTLTNKTFTLEVEPSDTIENVKQKIFDKEGIPPDQQRLIFAGKQLEDGRTLSDYNIQKESTLHLVLEKLF,MQIFVKTLTGKTITLEVEPSDTIENVKAKIQDKEGIPPDQQRLIFAGKQLEDGRTLSDYNIQKESTLHLVLRLRG,SDTPEGKISIEDVKKKLQEYGIELVPSDKP,ENDDTGFFSIQVISNALKFWGLEIIHFNNP
33.0,39,79,B,40,MQIFVKTLTGKTFTLEVEPTDTVEDVKQKIFDKEGIPPDQQRLIFAGKQLEDGRTLSDYNIQKESTLHLVLRKMF,MQIFVKTLTGKTITLEVEPSDTIENVKAKIQDKEGIPPDQQRLIFAGKQLEDGRTLSDYNIQKESTLHLVLRLRG,LEKKIRELEGGKDSEEYKKFLKQPSLFDEEGNISIEEILY,LDEEERRAEGGVTSEEYLAFLQQPSENDDTGFFSIQVISN
37.0,45,95,B,50,MEIFVKTLTGKTFTLKVKPTDTVEDVKQKIFDLEGIPPDQQRLIFAGKQLEDGRTLADYNIQKESTLHLVLRKMF,MQIFVKTLTGKTITLEVEPSDTIENVKAKIQDKEGIPPDQQRLIFAGKQLEDGRTLSDYNIQKESTLHLVLRLRG,VKLGGKDSEEYKKFLKQPKLEDENGNISIEDVKKKLQEYGIELVPADNPG,RAEGGVTSEEYLAFLQQPSENDDTGFFSIQVISNALKFWGLEIIHFNNPE
