contacts,cs,ce,Chain,Length,designed_receptor_seq,native_receptor_seq,designed_binder_seq,native_binder_seq
27.0,249,259,A,10,GSHMGVYVVPAGLAEEGELEVLEVENPAEGEGMQVVYDRKREELYGVLVLEEEEREWEVGEGVVPGGEVRFVVPLDPLFLLLPEFLEEGEGEEEELLERPGAEGLLERVLEGEVELDLERLAEYLLERVEELREELEEEEVEGELEELAFGLLCELTPLCEELLEALEEEE,AARQLVFLLPEHLKDASSLLFVKLANPHSGEGATYLIDMCLQQLFEIKVFKEKHHSWFINQSVQSGGLLHFATPMDPLFLLLHYLLKAGKPDCTLLLRFPELEKSLRHVTEKYYKYSSEKTLKWLEKKVNQTVVALKANNVNEDYVRYAHGLISDYIPKELSDDLSKFLKL,LLEELGLRWE,YFQERGLEAA
41.0,241,261,A,20,GSHMEVWVVPEGLKEEGELEVVRVKNPAEGEEMLVVYDKKRKELYVVLVLEEENRFWEVGEGVVEGGEVYFAVPLDPLFLILPKYLEEGEGEEEELFERPGFEGLLEKVLEGEVEFDEEKLVEYLKELVEEVKEELEEEGVEGEEEELAFGLLCELTPLCEELEEALEEEE,AARQLVFLLPEHLKDASSLLFVKLANPHSGEGATYLIDMCLQQLFEIKVFKEKHHSWFINQSVQSGGLLHFATPMDPLFLLLHYLLKAGKPDCTLLLRFPELEKSLRHVTEKYYKYSSEKTLKWLEKKVNQTVVALKANNVNEDYVRYAHGLISDYIPKELSDDLSKFLKL,EEEEEEEEFLEELGLEFLEE,IWEDSPHRYFQERGLEAASS
41.0,231,261,A,30,GSHMGVWVVPEGLKEEGELEVVRVKNPAEGEEMLVVYDKKRKELYGVYVLEEENRFWKVGEGIVPGGKIYFVVPLDPLFLILPKYLEEGEGEEEKLFERPGFEELLKKVLEGEVKFDEEKLKEYLKEKVEEIKEELEKEGVEGEEEELAFGLLCELTPLCEKLKEALEEEE,AARQLVFLLPEHLKDASSLLFVKLANPHSGEGATYLIDMCLQQLFEIKVFKEKHHSWFINQSVQSGGLLHFATPMDPLFLLLHYLLKAGKPDCTLLLRFPELEKSLRHVTEKYYKYSSEKTLKWLEKKVNQTVVALKANNVNEDYVRYAHGLISDYIPKELSDDLSKFLKL,EEEEEEEEEEEEEEEEEEFLEELGLRWLEE,AILEKEAEDVIWEDSPHRYFQERGLEAASS
41.0,221,261,A,40,GSHMEVWVVPEGLKEEGELEVVRVKNPAEGEEMLVVYDKKRKELYVVLVLEEENRFWKVGEGIVPGGKIYFAIPLDPLFLILPKYLEEGEGEEEKLFERPGFEELLKKVLEGEVKFDEEKLKEYLKEKVEELKELLEELEVEGEEEELAFGLLCELTPLCEKLKEALEEEE,AARQLVFLLPEHLKDASSLLFVKLANPHSGEGATYLIDMCLQQLFEIKVFKEKHHSWFINQSVQSGGLLHFATPMDPLFLLLHYLLKAGKPDCTLLLRFPELEKSLRHVTEKYYKYSSEKTLKWLEKKVNQTVVALKANNVNEDYVRYAHGLISDYIPKELSDDLSKFLKL,EEDLEDEEALEELLEELEEVELEEGEEEFLEELGLEFLEE,FVRFSWSTAQAILEKEAEDVIWEDSPHRYFQERGLEAASS
42.0,211,261,A,50,GSHMEVWVTPEGLKEEGELEVVEVENPAEGEKMKVVYDKKKKELYVVLVLEEENRFWKIGDGIVPGGKIYFAIPLDPLFLILPKYLKEGKGEEEKLFERPGFEEELKKVLDEEVKFDKEKLVEYLKEKVEEIKKELEEKKVEGEEEELAFGLLCELTPLCEELKKALEEEK,AARQLVFLLPEHLKDASSLLFVKLANPHSGEGATYLIDMCLQQLFEIKVFKEKHHSWFINQSVQSGGLLHFATPMDPLFLLLHYLLKAGKPDCTLLLRFPELEKSLRHVTEKYYKYSSEKTLKWLEKKVNQTVVALKANNVNEDYVRYAHGLISDYIPKELSDDLSKFLKL,EVDPFFGFPPEVDLESEEAKEILKKKAVKVELEEGEEEFLKKLGLKFLEE,HVDPVFGFPQFVRFSWSTAQAILEKEAEDVIWEDSPHRYFQERGLEAASS
21.0,44,54,B,10,MEGRLRLETPVPEVLRTEPAVLGVDEAGRGPVLGPMVIAVVAAPLSRLEELERLHDSKLSAEERERLYRELERRGDWVWWALEVVSPEEISRAMLGEERFNLNRLNLEAMKRVIQLALDRGVRVVEVHVDCHGNPEGIREELQRYFPGVRVEVRSDGERLHPVVSAASIFAKVARDRAMEEWRRRMEEEGRDARWGSGYPSDPRTVEWLERHVDPERGFPPEVKRSHRTAQRILERRARPVVREGEEEELLRRLGLRRDRES,NTGRCRLSSPVPAVCLKEPCVLGVDEAGRGPVLGPMVYAICYCPLSRLADLEALKVATLTENERERLFAKMEEDGDFVGWALDVLSPNLISTSMLGRVKYNLNSLSHDTAAGLIQYALDQNVNVTQVFVDTVGMPETYQARLQQHFPGIEVTVKAKADSLFPVVSAASIFAKVARDKAVKNWQFVENLQDLDSDYGSGYPNDPKTKAWLRKHVDPVFGFPQFVRFSWSTAQAILEKEAEDVIWEDSPHRYFQERGLEAASSL,RVRLLLEREG,FEIKVFKEKH
25.0,31,51,B,20,MEGRLRLETPVPEVLRTEPAVLGVDEAGRGPVLGPMVVAVVAAPLSRLEELERLHDSKLSAEERERLYEELRRRGDFVWWALEVVSPEEISRAMLGEERFNLNRLLYETHKRVIQLALERGVRVVEVYVDTLGNPEGLEEELQRYFPGVRVVVRSDGERLHPVVSAASIFAKVARDRAMEEWRRVMEERGLDARWGSGYPSDPKTVEWLERHVDPERGFPPEVKRSHRTALRILERRARRVVLEGGEEELLRRLGLRLDRSL,NTGRCRLSSPVPAVCLKEPCVLGVDEAGRGPVLGPMVYAICYCPLSRLADLEALKVATLTENERERLFAKMEEDGDFVGWALDVLSPNLISTSMLGRVKYNLNSLSHDTAAGLIQYALDQNVNVTQVFVDTVGMPETYQARLQQHFPGIEVTVKAKADSLFPVVSAASIFAKVARDKAVKNWQFVENLQDLDSDYGSGYPNDPKTKAWLRKHVDPVFGFPQFVRFSWSTAQAILEKEAEDVIWEDSPHRYFQERGLEAASSL,VVAVVVDLERREVYLVLRRP,GATYLIDMCLQQLFEIKVFK
30.0,24,54,B,30,MEGRLRLETPVPEVLRTEPAVLGVDEAGRGPVLGPMVIAVVAAPLSRLEELERLHDSKLSAEERERLYEELRRRGDFVWWALEVVSPEEISRAMLGEERFNLNRLNLEAMKRVIQLALDRGVRVVEVHVDCLGNPEGIREELQRYFPGVRVEVRSDGERLHPVVSAASIFAKVARDRELERWREEMRRRGLDARWGSGYPSDPKTVEWLERHVDPERGFPPEVKRSHRTAQRILERRARPVVREGGEEELLRRLGLRLDRSL,NTGRCRLSSPVPAVCLKEPCVLGVDEAGRGPVLGPMVYAICYCPLSRLADLEALKVATLTENERERLFAKMEEDGDFVGWALDVLSPNLISTSMLGRVKYNLNSLSHDTAAGLIQYALDQNVNVTQVFVDTVGMPETYQARLQQHFPGIEVTVKAKADSLFPVVSAASIFAKVARDKAVKNWQFVENLQDLDSDYGSGYPNDPKTKAWLRKHVDPVFGFPQFVRFSWSTAQAILEKEAEDVIWEDSPHRYFQERGLEAASSL,PNPLEGEELAVVVDLERREVYVVLRLEREG,ANPHSGEGATYLIDMCLQQLFEIKVFKEKH
32.0,14,54,B,40,GSGMEIIETPVPEVLKTEPAVLGVDEAGRGPVLGPMVIAVVAAPKSKMEELEKLHDKKLSAKKREEIYEKLKEKGDFVWWALKIVSPEEISKAMLGEKKYNLNRLNLEAMKEIIQLALDRNVKVVEVYVDCLGNPEGIEKELQEYFPGIKVIVKDKGDKLHPVVSAASIFAKVARDKAMEEWKRIMEENKLDYRWGSGYGTDPKTIEYLEKHVDPEKGFPPIVKRSHGTAKRILEKYAKKKVDENGNEELLKKLGLELDKET,NTGRCRLSSPVPAVCLKEPCVLGVDEAGRGPVLGPMVYAICYCPLSRLADLEALKVATLTENERERLFAKMEEDGDFVGWALDVLSPNLISTSMLGRVKYNLNSLSHDTAAGLIQYALDQNVNVTQVFVDTVGMPETYQARLQQHFPGIEVTVKAKADSLFPVVSAASIFAKVARDKAVKNWQFVENLQDLDSDYGSGYPNDPKTKAWLRKHVDPVFGFPQFVRFSWSTAQAILEKEAEDVIWEDSPHRYFQERGLEAASSL,EGKEVEVVKRKNPVSGEEMAVVVDKKKKEYYVVLKKVEKG,DASSLLFVKLANPHSGEGATYLIDMCLQQLFEIKVFKEKH
34.0,20,70,B,50,GSGMEIIETPVPEVLKTEPAVLGVDEAGRGPVLGPMVIAAVAAPLSRMEELEKLHDSKLSAEERERIYEELKKRGDFVWWALKIVSPEEISRAMLGEEKYNLNRLNLEAMKEIIQLALDRNVKVVEVYVDCLGNPEGIEKELQEYFPGIKVIVRDKGEKLHPVVSAASIFAKVARDRAMEEWKRIARENGLDANWGSGYGTDPKTIEYLEKHVDPVWGFPPEVRRSDETAKRILEKKAIKVYTKDGKEVLLKELGLRLDTET,NTGRCRLSSPVPAVCLKEPCVLGVDEAGRGPVLGPMVYAICYCPLSRLADLEALKVATLTENERERLFAKMEEDGDFVGWALDVLSPNLISTSMLGRVKYNLNSLSHDTAAGLIQYALDQNVNVTQVFVDTVGMPETYQARLQQHFPGIEVTVKAKADSLFPVVSAASIFAKVARDKAVKNWQFVENLQDLDSDYGSGYPNDPKTKAWLRKHVDPVFGFPQFVRFSWSTAQAILEKEAEDVIWEDSPHRYFQERGLEAASSL,VVKVKDPEKGEEMAVVRDPKTKKYYVVLVLEKENRFWIVGDSVVPGGKIY,FVKLANPHSGEGATYLIDMCLQQLFEIKVFKEKHHSWFINQSVQSGGLLH
