contacts,cs,ce,Chain,Length,designed_receptor_seq,native_receptor_seq,designed_binder_seq,native_binder_seq
19.0,30,40,A,10,GSHMAEAEIAAYAAAIEAAIAAFDDPAAYAGKKAVLRLSLDPDGGLLRAEPAGGDPALNAAALEAAKKATIPKPPSAAVYGRFKDAELTLTP,NNGASGADINNYAGQIKSAIESFYDASSYAGKTCTLRIKLAPDGMLLDIKPEGGDPALCQAALAAAKLAKIPKPPSQAVYEVFKNAPLDFKP,YAPEGAGIAR,MVPYGRGFTR
20.0,20,40,A,20,GSHMAEAEIAAYAAAIEAAIAAFDDPAAYAGKKAVLRLSLSPDGRLLRAEPAGGDPALQAAALEAAKKATIPKPPSAAVYGRFKDAELTLTP,NNGASGADINNYAGQIKSAIESFYDASSYAGKTCTLRIKLAPDGMLLDIKPEGGDPALCQAALAAAKLAKIPKPPSQAVYEVFKNAPLDFKP,AAAATAANGTMVPVGAGIER,GTVMTADNSSMVPYGRGFTR
28.0,10,40,A,30,GSHMAEEKIAAYAAAIEAAIAAFDDPAAYAGKKAVLELSLSPDGRLLRARPAGGDPALNAAALEAAKKATIPKPPDAAVYGVFKSRKLTLTP,NNGASGADINNYAGQIKSAIESFYDASSYAGKTCTLRIKLAPDGMLLDIKPEGGDPALCQAALAAAKLAKIPKPPSQAVYEVFKNAPLDFKP,AAAAGKPVVDGKAVTAANGKMVPVGDGIER,INAAGQPTMNGTVMTADNSSMVPYGRGFTR
33.0,0,40,A,40,GSHMAEAEIAAYAAAIEAAIAAFDDPAAYAGKKAVLELSLSPDGRLLRARPAGGDPALNAAALEAAKKATIPKPPSAAVYGRFKSAKLTLTP,NNGASGADINNYAGQIKSAIESFYDASSYAGKTCTLRIKLAPDGMLLDIKPEGGDPALCQAALAAAKLAKIPKPPSQAVYEVFKNAPLDFKP,AFEDAAGTYTLDAAGRVTRDGAAVTAANGTFVPDGDGIVR,SYNTPWGKVIINAAGQPTMNGTVMTADNSSMVPYGRGFTR
0.0,0,0,A,0,GSHMDEALIEQYGQQIVQAIQAFDNPEAYAGQEAWLRLSLDPQGGLLRAEPAGGDPALQQALLQAAQQAQIPRPPSAAVYGRFRDAELLVRP,NNGASGADINNYAGQIKSAIESFYDASSYAGKTCTLRIKLAPDGMLLDIKPEGGDPALCQAALAAAKLAKIPKPPSQAVYEVFKNAPLDFKP,GSHMDEALIEQYGQQIVQAIQAFDNPEAYAGQEAWLRLSLDPQGGLLRAEPAGGDPALQQALLQAAQQAQIPRPPSAAVYGRFRDAELLVRPAAAAAAAAAA,
26.0,40,50,B,10,MFSNEWGTFTLNENNELTHNGVVITEENSVMVEDGDGYVRVPKDAEKEP,SYNTPWGKVIINAAGQPTMNGTVMTADNSSMVPYGRGFTRVLNSLVNNP,DANGEVVYEK,APDGMLLDIK
28.0,31,51,B,20,MFTNEWGTITLDANGKPTMDGVAITDANAVMVPEGDGVVRVAKNADAPP,SYNTPWGKVIINAAGQPTMNGTVMTADNSSMVPYGRGFTRVLNSLVNNP,AAATLTLTLDPNGKLLKAVP,KTCTLRIKLAPDGMLLDIKP
32.0,37,67,B,30,MFENEWGTITLDENGRPTMDGVVITEENAVMVPEGDGLVRVLKNADAPP,SYNTPWGKVIINAAGQPTMNGTVMTADNSSMVPYGRGFTRVLNSLVNNP,VVLDPNGRLLHVHPVGGDPEENAALLEELK,IKLAPDGMLLDIKPEGGDPALCQAALAAAK
32.0,27,67,B,40,MFENEWGTITLDAAGRPTMDGVAITAANARMVPEGAGLVRVADNAAAPP,SYNTPWGKVIINAAGQPTMNGTVMTADNSSMVPYGRGFTRVLNSLVNNP,AFAGKTATLRLLLDPAGGLLAAAPAGGDPALNAAALAALR,SYAGKTCTLRIKLAPDGMLLDIKPEGGDPALCQAALAAAK
33.0,34,84,B,50,MFENEWGTITLDENGRPTMDGVVITKENGVMVPEGDGIVRVLKNADKPP,SYNTPWGKVIINAAGQPTMNGTVMTADNSSMVPYGRGFTRVLNSLVNNP,KLHLVLDPFGNLLKAEPVGGDPKKNKELLEKLKTAKIPKPPSKEVYEKIK,TLRIKLAPDGMLLDIKPEGGDPALCQAALAAAKLAKIPKPPSQAVYEVFK
