contacts,cs,ce,Chain,Length,designed_receptor_seq,native_receptor_seq,designed_binder_seq,native_binder_seq
33.0,20,30,A,10,MGFSKKLLFVLLSLLVFNLLVLLYVGVFYFTAGRDASSPAYQVYWLGLLYFFIALEIVVFVLVIGYLLFTRKKDLENLSPEELLERSLTGFQFLVGFAVGAFYSDFVFRWLYELWLGVREPQTLLTPLNIVHVFLAVPIMIILGFAAMVYFYTRLPGFRDRLSLPLLLFVLGPLFSFPLPPKLFILGTLVEWYRALTLGLREGLEELLEELGL,LLDKKWLTFALAIYTVFYLWVRWYEGVYGWSAGLDSFAPEFETYWMNFLYTEIVLEIVTASILWGYLWKTRDRNLAALTPREELRRNFTHLVWLVAYAWAIYWGASYFTEQDGTWHQTIVRDTDFTPSHIIEFYLSYPIYIITGFAAFIYAKTRLPFFAKGISLPYLVLVVGPFMILPNVLALAVMGTLTQTFYSFAQGGLGQSLCEAVDEGL,LVLVLVLLAG,FVVFFVIVGS
52.0,13,33,A,20,MGLSKKLIFILLSLLIFNLLVLIYVGIFYFTAGRDASSPEYQVYWLNLLYFSIALHIIVFILVIGYLLFKRDKNLENLSPEELEKRGYTGLNFLVGFALSAFWSDFVFRWLHEIWLGIETPQTALTPLHIVHAYIAVPIMIILGFAAMVYFITQLPGFRKGLNPFLLIFVLGPLFIFPLPPKIAILGTLIHFYRTLTLGRKEELEKLKEEGKL,LLDKKWLTFALAIYTVFYLWVRWYEGVYGWSAGLDSFAPEFETYWMNFLYTEIVLEIVTASILWGYLWKTRDRNLAALTPREELRRNFTHLVWLVAYAWAIYWGASYFTEQDGTWHQTIVRDTDFTPSHIIEFYLSYPIYIITGFAAFIYAKTRLPFFAKGISLPYLVLVVGPFMILPNVLALAVMGTLTQTFYSFAQGGLGQSLCEAVDEGL,KVLILFGIVLLFTLIGGLTS,TIDWMALFVVFFVIVGSYHI
71.0,0,30,A,30,MGLSKKLIFILLSLTIFNLLVLIYVGIFYFTAGRDASSPEYQVYWLNLLYFTIAAQIIIAILVIGYLLFTRKKDLSNLSPEELLNRSLTGLQWLVGFALSAFWSLFVFENLHRIWLGIETPQTILTPLHIVHVYLAVPIMIILGIAAMVYLITRLPGFSKKISIPLLIFVLGPLFIFPLPPLIAILGTLIEFYKTLTIGLKEGALEEARKKGE,LLDKKWLTFALAIYTVFYLWVRWYEGVYGWSAGLDSFAPEFETYWMNFLYTEIVLEIVTASILWGYLWKTRDRNLAALTPREELRRNFTHLVWLVAYAWAIYWGASYFTEQDGTWHQTIVRDTDFTPSHIIEFYLSYPIYIITGFAAFIYAKTRLPFFAKGISLPYLVLVVGPFMILPNVLALAVMGTLTQTFYSFAQGGLGQSLCEAVDEGL,KVPSPEEALKILKKFRILAGIVLLFTLLAG,AVRSHAEAVQVSRTIDWMALFVVFFVIVGS
82.0,0,40,A,40,MGLSKKLIFILLSLTIFNLLVLIYVGIFYFTAGRDASSPEYQVYWLNLLYFTIAAQIIIAILVIGYLLFTRKKDLSNLSPEELLERSLTGLNYLVGFALSAFWSLFVFQWLDYLWHGVMTPQTELTPLHIVHVYLAVPIMIILGIAAMVYLYTQLPGFRKGLNPFLLIFVLGPLFIFPLPPLIAIFGTLIHFYRTLTLGLKEGALEEARKKGE,LLDKKWLTFALAIYTVFYLWVRWYEGVYGWSAGLDSFAPEFETYWMNFLYTEIVLEIVTASILWGYLWKTRDRNLAALTPREELRRNFTHLVWLVAYAWAIYWGASYFTEQDGTWHQTIVRDTDFTPSHIIEFYLSYPIYIITGFAAFIYAKTRLPFFAKGISLPYLVLVVGPFMILPNVLALAVMGTLTQTFYSFAQGGLGQSLCEAVDEGL,AVPSPEEALKILKKFRILAGIVLLFTLIGGLSYLILHFLP,AVRSHAEAVQVSRTIDWMALFVVFFVIVGSYHIHAMLTMG
83.0,0,50,A,50,MGLSKKLLFVLLSLTVFNLLVLLYVGVFYFTAGRDASSPAYQVYWLGLLYFVIAAQIVVAVLVLGYLLFTRDRDLANLSPEERLRRGLTALQWGVGFALGAFWADFVWLNLHRLWLLVETPQTALTPLHIVDVYLAVPVMIILGLAFAVYLYTRLPGFRDRLSLPLLLFVLGPLLSFPLPDPLFILGALVLLYRAFTEGLREGALERARAEGG,LLDKKWLTFALAIYTVFYLWVRWYEGVYGWSAGLDSFAPEFETYWMNFLYTEIVLEIVTASILWGYLWKTRDRNLAALTPREELRRNFTHLVWLVAYAWAIYWGASYFTEQDGTWHQTIVRDTDFTPSHIIEFYLSYPIYIITGFAAFIYAKTRLPFFAKGISLPYLVLVVGPFMILPNVLALAVMGTLTQTFYSFAQGGLGQSLCEAVDEGL,ALPSPEEALRLLRRWRVLAGVVLLLTLLGGLSLLVYLFLPPELLFLERLR,AVRSHAEAVQVSRTIDWMALFVVFFVIVGSYHIHAMLTMGDWDFWSDWKD
29.0,104,114,B,10,MIPSPEELKKVLKKRAVINGIILFFVLMGLYTLWVYLTTPLLDLFIDRKDWIWFTLLMPILLIAFPAMIMRILTKEYKFYGGATICVLGLEIGLWIGILFFAVGKKGFPFIYVFPSVWIPGAIILDVILWKTKSYLKTIIIGGLGFGLIFYPGNLPIILPFLIPVNYNGEPMTLADILGLTYKTPPLISSIISAILCIFVIYIFYYVGEKFAEKKEEG,AVRSHAEAVQVSRTIDWMALFVVFFVIVGSYHIHAMLTMGDWDFWSDWKDRRLWVTVTPIVLVTFPAAVQSYLWERYRLPWGATVCVLGLLLGEWINRYFNFWGWTYFPINFVFPASLVPGAIILDTVLMLSGSYLFTAIVGAMGWGLIFYPGNWPIIAPLHVPVEYNGMLMSIADIQGYNYVRTAPVSAFFSAFMSILIYFMWHFIGRWFSNERFLQ,EEEELIKKLF,ASYFTEQDGT
50.0,97,117,B,20,MIPSPEELKEVLKKARVKNFINLFFTIMGFYTLWVFLTTPLLDLFIDRKDLILFTLLMPILLIAFPAMFMRILTKEYKFYGGATICVLGLEIGLWISILLFGVGFKGFPFIYVFPSVLIPGAIILDVILWKTKSYLKTIIIGGLGFGLIFYPGNLPIILPFLIPINYNGEPMTLADILGLTYKTPPLISSIISAILCIFVIYIFYFVGEKFAEKKEEG,AVRSHAEAVQVSRTIDWMALFVVFFVIVGSYHIHAMLTMGDWDFWSDWKDRRLWVTVTPIVLVTFPAAVQSYLWERYRLPWGATVCVLGLLLGEWINRYFNFWGWTYFPINFVFPASLVPGAIILDTVLMLSGSYLFTAIVGAMGWGLIFYPGNWPIIAPLHVPVEYNGMLMSIADIQGYNYVRTAPVSAFFSAFMSILIYFMWHFIGRWFSNERFLQ,PILIFILFTLLLIALLFLIL,AWAIYWGASYFTEQDGTWHQ
67.0,90,120,B,30,MIPSPEELKKVLEKRKVKTFIVLFFTIAGFYTLWETLTTPFLHIFIDRKDLIWFTLLMPILLIAFPAMFMRILTKEYKFYGGATIVVLGLEIGLWISILLFGHGFYGFPIIYVFPPVLIPGAIILDVILWKTKSFLFTAIIGGLGFGLIFYPGNLPIIAPFFIPVNYNGEPMTLADILGLTYKTNLPLSSIISAILCIFVFYIFYYVGKKFAEKKEIE,AVRSHAEAVQVSRTIDWMALFVVFFVIVGSYHIHAMLTMGDWDFWSDWKDRRLWVTVTPIVLVTFPAAVQSYLWERYRLPWGATVCVLGLLLGEWINRYFNFWGWTYFPINFVFPASLVPGAIILDTVLMLSGSYLFTAIVGAMGWGLIFYPGNWPIIAPLHVPVEYNGMLMSIADIQGYNYVRTAPVSAFFSAFMSILIYFMWHFIGRWFSNERFLQ,INKYVIIAILIFILFTLLLYAYLFYILKNP,LVWLVAYAWAIYWGASYFTEQDGTWHQTIV
75.0,78,118,B,40,AVPSPEEAAKIAAKAAVKVGFVLFFTLAGFYTLWETLTTPFLHVFVDRKDWFWFTLLMPILLIAFPAMFMRILTRDYKFYGGATICVLGLEIGLWISILLFGHGFYGYPLAYVFPPVLIGGAIILDVVLWKTKSYLATAIIGGLGFGLIFYPENLPIIAPFFEPVIYEGKPMTVADILGLTYKTNPLLSSILSAVLCIFVFWIFWYVGEKLAEKKEEG,AVRSHAEAVQVSRTIDWMALFVVFFVIVGSYHIHAMLTMGDWDFWSDWKDRRLWVTVTPIVLVTFPAAVQSYLWERYRLPWGATVCVLGLLLGEWINRYFNFWGWTYFPINFVFPASLVPGAIILDTVLMLSGSYLFTAIVGAMGWGLIFYPGNWPIIAPLHVPVEYNGMLMSIADIQGYNYVRTAPVSAFFSAFMSILIYFMWHFIGRWFSNERFLQ,SPEEAVKKGLKILDYLVLGAAGLFVLLTLLLRALEVAILA,TPREELRRNFTHLVWLVAYAWAIYWGASYFTEQDGTWHQT
77.0,70,120,B,50,AELSPEEAAKVAAKAAVMVGFVLFFTLAGFYTLWETVTTPFLHLFVDKKDWFWFTLLMPILLIAFPAMFMRILTRDYKFYGGATICVLGLEIGLWISILLFGHGLYGYPIAYVFPPVLIGGAIILDVVLWKTKSYLATAIIGGLGFGLIFYPENLPIIAPFYAPVNYQGKPMTVADIMGLTYKTNPLLSSILSAVLCIFVFWIFWYVGKKLAEKPVEV,AVRSHAEAVQVSRTIDWMALFVVFFVIVGSYHIHAMLTMGDWDFWSDWKDRRLWVTVTPIVLVTFPAAVQSYLWERYRLPWGATVCVLGLLLGEWINRYFNFWGWTYFPINFVFPASLVPGAIILDTVLMLSGSYLFTAIVGAMGWGLIFYPGNWPIIAPLHVPVEYNGMLMSIADIQGYNYVRTAPVSAFFSAFMSILIYFMWHFIGRWFSNERFLQ,PIPGAEKLSPEEALKIGFKGLLGLMGFALGAFILLTLLLRAFQWAVLANP,RDRNLAALTPREELRRNFTHLVWLVAYAWAIYWGASYFTEQDGTWHQTIV
