contacts,cs,ce,Chain,Length,designed_receptor_seq,native_receptor_seq,designed_binder_seq,native_binder_seq
11.0,6,16,A,10,GPAGLLAVTDVVRRTVEVITEGVRALVEALG,KPKGALAVILVLTLTILVFWLGVYAVFFARG,GGGAAVAAAV,KAILAYEKGW
18.0,3,23,A,20,GPAGLLAVTRVLRDTYLAITNGLRALVNALG,KPKGALAVILVLTLTILVFWLGVYAVFFARG,GGGGGVLAWLAVLLVLWWAL,KAHKAILAYEKGWLAFSLAM
21.0,4,34,A,30,GPAGALAVVRVLLETFLRIYLGLLAVYFALS,KPKGALAVILVLTLTILVFWLGVYAVFFARG,GGAAVLALLAVCLLVAAAVLAVVAVLVALL,AHKAILAYEKGWLAFSLAMLFVFIALIAYT
23.0,0,40,A,40,GPAGALAVTTVDLLTFLTITLGLYAVYWALG,KPKGALAVILVLTLTILVFWLGVYAVFFARG,GGGGGGGGALLFLAVELLVFAAVLAVVAVLVAVTLTTAAA,DEHKAHKAILAYEKGWLAFSLAMLFVFIALIAYTLATHTA
23.0,0,50,A,50,GPAGALAVTTVLLATFLVIFFGTYAVFWALG,KPKGALAVILVLTLTILVFWLGVYAVFFARG,GGGAAAAAALAWLAVELVVAAAVLAVVAVLVAVVLTTRAAAVVPPGRRRP,DEHKAHKAILAYEKGWLAFSLAMLFVFIALIAYTLATHTAGVIPAGKLER
13.0,0,10,B,10,GSHMASAAFLKELAKLEAKIKDLGDKVKELVAYVKTTEAAGVIPEGKVEKVDPTTIRKEGPWADPSKAVVQTGPKEYTVYVLAYNCGYEPDPIVVPKGALITFKITSPDVVHGFHVEGTNVDVAVVPGEVSTVKYTFKKEGKYTIVDNIYSGDCWPTCFGTIEVTD,DEHKAHKAILAYEKGWLAFSLAMLFVFIALIAYTLATHTAGVIPAGKLERVDPTTVRQEGPWADPAQAVVQTGPNQYTVYVLAFAFGYQPNPIEVPQGAEIVFKITSPDVIHGFHVEGTNINVEVLPGEVSTVRYTFKRPGEYRIICNQYCGLGHQNMFGTIVVKE,GPAELLKIFS,KPKGALAVIL
19.0,0,20,B,20,GSHMASAAFWRWLAVNLALWAAVLAVVAVLVAYVLTTDAAGVIPDGAVRAVDPTTVRSSGPWADPSKAVVQTGPDTYTVYVLAYNCGYEPDPIVVPAGALIVFRITSPDVVHGFHVEGTNVDVAVVPGEVSTVRYRFATPGTYTIVDDVYSGGCWPTDRGTIVVTD,DEHKAHKAILAYEKGWLAFSLAMLFVFIALIAYTLATHTAGVIPAGKLERVDPTTVRQEGPWADPAQAVVQTGPNQYTVYVLAFAFGYQPNPIEVPQGAEIVFKITSPDVIHGFHVEGTNINVEVLPGEVSTVRYTFKRPGEYRIICNQYCGLGHQNMFGTIVVKE,GPWGLNAVTLVLLLAFLVVL,KPKGALAVILVLTLTILVFW
26.0,0,30,B,30,GSHMDSFLIWLFTAVNLLFWLFLGAVWAVLIAYVLTTEKAGVIPDGEERRVDPTTIRSEGPWADPSKAVVQTGPDTYTVYVLAYDCGYEPDPIVVPQGALIVFRITSPDVVHGFHVVGTNVNVAVVPGEVSTVRYTFKKSGTYTIEDDIYSGECWPTDFGTIEVTD,DEHKAHKAILAYEKGWLAFSLAMLFVFIALIAYTLATHTAGVIPAGKLERVDPTTVRQEGPWADPAQAVVQTGPNQYTVYVLAFAFGYQPNPIEVPQGAEIVFKITSPDVIHGFHVEGTNINVEVLPGEVSTVRYTFKRPGEYRIICNQYCGLGHQNMFGTIVVKE,GPWFLNAVTLVLTLTFLVITLGWYAVFWRR,KPKGALAVILVLTLTILVFWLGVYAVFFAR
0.0,0,0,B,0,GSHMASAEIEKYKAELEKLKKDVEDIYKKLIAYVKTTEAAGVIPEGKVEKVDPTTIRKEGPWADPSKAVVQTGPNEYTVYVLAYNCGYEPDPIVVPKGALITFKITSPDVVHGFHVEGTNVDVAVVPGEVSTVKYTFKKSGTYTIVDNIYSGSCWPTDYGTIVVTD,DEHKAHKAILAYEKGWLAFSLAMLFVFIALIAYTLATHTAGVIPAGKLERVDPTTVRQEGPWADPAQAVVQTGPNQYTVYVLAFAFGYQPNPIEVPQGAEIVFKITSPDVIHGFHVEGTNINVEVLPGEVSTVRYTFKRPGEYRIICNQYCGLGHQNMFGTIVVKE,GSHMASAEIEKYKAELEKLKKDVEDIYKKLIAYVKTTEAAGVIPEGKVEKVDPTTIRKEGPWADPSKAVVQTGPNEYTVYVLAYNCGYEPDPIVVPKGALITFKITSPDVVHGFHVEGTNVDVAVVPGEVSTVKYTFKKSGTYTIVDNIYSGSCWPTDYGTIVVTDEPVKAEKPKK,
0.0,0,0,B,0,GSHMASAEIEKYKAELEKLKKDVEDIYKKLIAYVKTTEAAGVIPEGKVEKVDPTTIRKEGPWADPSKAVVQTGPNEYTVYVLAYNCGYEPDPIVVPKGALITFKITSPDVVHGFHVEGTNVDVAVVPGEVSTVKYTFKKSGTYTIVDNIYSGSCWPTDYGTIVVTD,DEHKAHKAILAYEKGWLAFSLAMLFVFIALIAYTLATHTAGVIPAGKLERVDPTTVRQEGPWADPAQAVVQTGPNQYTVYVLAFAFGYQPNPIEVPQGAEIVFKITSPDVIHGFHVEGTNINVEVLPGEVSTVRYTFKRPGEYRIICNQYCGLGHQNMFGTIVVKE,GSHMASAEIEKYKAELEKLKKDVEDIYKKLIAYVKTTEAAGVIPEGKVEKVDPTTIRKEGPWADPSKAVVQTGPNEYTVYVLAYNCGYEPDPIVVPKGALITFKITSPDVVHGFHVEGTNVDVAVVPGEVSTVKYTFKKSGTYTIVDNIYSGSCWPTDYGTIVVTDEPVKAEKPKK,
