contacts,cs,ce,Chain,Length,designed_receptor_seq,native_receptor_seq,designed_binder_seq,native_binder_seq
23.0,214,224,A,10,GDRELLEKYLEEARKNEGELKEAVEKFKKAVEEKKPPEEFLKLSKEVVKEAHKFVEIGKKLEEELEDEEAKKVVKKYAEELEKILEDIVKKAEEAAKKYPSPEALEELKKAVEELEKKVKEFLEELEKLAEKLK,SDRQLLLFYLEQCEANLTTLTNAVDAFFTAVATNQPPKIFVAHSKFVILSAHKLVFIGDTLSRQAKAADVRSQVTHYSNLLCDLLRGIVATTKAAALQYPSPSAAQDMVERVKELGHSTQQFRRVLGQLAAALE,KGLKELLEEL,HGVEVVLAHL
34.0,212,232,A,20,GDRELLEKYLEEARKNEGELKEAVEKFKKAVEEKKPPEEFLKLSKEVVKEAFKFVEIGKKLEEELEDEEAKKITKKYSEELEKILEDIVKKAEEAAKKYPSPEALEELKKAVEELEKKVKEFLEELEKLAEKLK,SDRQLLLFYLEQCEANLTTLTNAVDAFFTAVATNQPPKIFVAHSKFVILSAHKLVFIGDTLSRQAKAADVRSQVTHYSNLLCDLLRGIVATTKAAALQYPSPSAAQDMVERVKELGHSTQQFRRVLGQLAAALE,EEEELKELLEKLKKSLEEKE,SEHGVEVVLAHLEAARTVAH
37.0,202,232,A,30,GDRELLEKYLEEARKNNGELTNAVNEFFKAIEENKPPEVFLEKSKKVVIEAFKFVEIGHKLEKELEDEKAKKITKKYSEELEKILEDIVKNAEEAAKKYPSPEALEKLKKSVEKLVEKVKEFLEELEKLAEELG,SDRQLLLFYLEQCEANLTTLTNAVDAFFTAVATNQPPKIFVAHSKFVILSAHKLVFIGDTLSRQAKAADVRSQVTHYSNLLCDLLRGIVATTKAAALQYPSPSAAQDMVERVKELGHSTQQFRRVLGQLAAALE,KKEPYEKIIKEGLDLKEILEVLKKHLEELE,HVLPLITLLESEHGVEVVLAHLEAARTVAH
37.0,192,232,A,40,GDRELLEKYLEEARKNNGALTGAVNAFNEAVAKNAPPEVFLKLSKEVVIEAFKFVEIGHKLEKEAKDPKVKEITKKYSEELEKILEDIVKNAEEAAKKYPSPEALKKLQESVKKLQEKVKEFLEELEKLAKELG,SDRQLLLFYLEQCEANLTTLTNAVDAFFTAVATNQPPKIFVAHSKFVILSAHKLVFIGDTLSRQAKAADVRSQVTHYSNLLCDLLRGIVATTKAAALQYPSPSAAQDMVERVKELGHSTQQFRRVLGQLAAALE,KKPKEEEKEPEVKPFFEIIKGKYDLKEILKILKESLKILE,GPPLSNTTFPHVLPLITLLESEHGVEVVLAHLEAARTVAH
37.0,182,232,A,50,GDRELLEKYLEEARKNNGALTGAVNAFFEAVKEKKPPEVFLEKSKEVVKEAFKFVVIGKILEEKLEDEKAKKITKKYSEELEKILEDIVKNAEEAAKKYPSPEALEKLKKSVEKLVEKVKEFLEELEKLAEELG,SDRQLLLFYLEQCEANLTTLTNAVDAFFTAVATNQPPKIFVAHSKFVILSAHKLVFIGDTLSRQAKAADVRSQVTHYSNLLCDLLRGIVATTKAAALQYPSPSAAQDMVERVKELGHSTQQFRRVLGQLAAALE,KLKKLLEGEEGPPKEEEKEPFVLPFLLLMSGGFDLKTLLKHLKRFLEILE,FLKSLNEGKEGPPLSNTTFPHVLPLITLLESEHGVEVVLAHLEAARTVAH
24.0,54,64,B,10,GMPEVRTTSSFNPSAYRSALIPEGAPPLDEALLARIAALFDAVDARELARHVTLVSNLDAYILGVSPEDQARMGVDWGTELLGLPHGRQLRLDLLVKHRTFSLFLALLLLGERRSARARAALLAKLIALADELLNVEGDMFNFSATLSALTLPEVSRLEATWRLLEEEHAETARLFREELLPRLADWVAGREGPPLERTVFPMILPLIRLLEGGFDPETVERHLERYREIMRSGGVFARNAEGLLEGFEPDPDLLEVFDTEFQLRLIFGRGGAERSFEEQFREMEAVLAEMAEELEPRE,TVPIVEVTSSFNPATFQSLLIPRDNRPLEVGLLRKVKELLAEVDARTLARHVTKVDCLVARILGVTKEMQTLMGVRWGMELLTLPHGRQLRLDLLERFHTMSIMLAVDILGSTGSAEERAALLHKTIQLAAELRGTMGNMFSFAAVMGALDMAQISRLEQTWVTLRQRHTEGAILYEKKLKPFLKSLNEGKEGPPLSNTTFPHVLPLITLLESEHGVEVVLAHLEAARTVAHHGGLYHTNAEVKLQGFQARPELLEVFSTEFQMRLLWGSQGASSSQARRYEKFDKVLTALSHKLEPAV,EFEGLREELV,VFIGDTLSRQ
39.0,43,63,B,20,GSPVVRTTSSFNPSAYRSALIPEGAPPLDEALLARIRALFDAVDARELARHVTLVSNLDAYILGVSPEDQARMGVPWGTTLLGLPHGRQLRLDLLVRHRTFSLFLALLLLGERRSAEARAALLAKLIALADELLNVEGDMFNFSATLSALTLPEVSRLEATWRLLEERHRETARRFREELLPRLADWVAGREGPPLERTVFPFILPLIRLLTGGYDPETVRRHLERYKEIMRSGGVFARNAEGLLEGFEPDPDLLEVFDTEFQLRLIFGRGGAERSFEEQFREMEEVLRRLSEELEPSG,TVPIVEVTSSFNPATFQSLLIPRDNRPLEVGLLRKVKELLAEVDARTLARHVTKVDCLVARILGVTKEMQTLMGVRWGMELLTLPHGRQLRLDLLERFHTMSIMLAVDILGSTGSAEERAALLHKTIQLAAELRGTMGNMFSFAAVMGALDMAQISRLEQTWVTLRQRHTEGAILYEKKLKPFLKSLNEGKEGPPLSNTTFPHVLPLITLLESEHGVEVVLAHLEAARTVAHHGGLYHTNAEVKLQGFQARPELLEVFSTEFQMRLLWGSQGASSSQARRYEKFDKVLTALSHKLEPAV,EKEELLREYREVFEELAREL,SKFVILSAHKLVFIGDTLSR
41.0,34,64,B,30,GSPVVRTTSSFNPSAYRSALIPEGAPPLDEALLARIRALFDAVDARELARHVTLVDNLDAYILGVSPEDQARMGVDWGTELLGLPHGRQLRLDLLVKHRTYALFLALLLLGERRSARARAALLAKLIALADELLNVEGDMFNFSATLLALTLPEVRRLDAVWRELERAHAETARRFREELLPRLADLNAGREGPPLERTVFPEILPLIRLLTGGYDLETVRRHLERYKVVMRSGGVFARNAAERLRGFEPDPDLLEVFDTEFQLRLIFGRGGAERSFEEQFREMEAVLAELAEELEPRE,TVPIVEVTSSFNPATFQSLLIPRDNRPLEVGLLRKVKELLAEVDARTLARHVTKVDCLVARILGVTKEMQTLMGVRWGMELLTLPHGRQLRLDLLERFHTMSIMLAVDILGSTGSAEERAALLHKTIQLAAELRGTMGNMFSFAAVMGALDMAQISRLEQTWVTLRQRHTEGAILYEKKLKPFLKSLNEGKEGPPLSNTTFPHVLPLITLLESEHGVEVVLAHLEAARTVAHHGGLYHTNAEVKLQGFQARPELLEVFSTEFQMRLLWGSQGASSSQARRYEKFDKVLTALSHKLEPAV,LPPEVWERLLKEEVLEEYRRVFEELRRELV,QPPKIFVAHSKFVILSAHKLVFIGDTLSRQ
42.0,42,82,B,40,GMPEVRTTSSFNPETYRSALIPEGAPPLDEALLARIRALFDAVDARELARHVTLVDNLDAYILGVSPEDQARMGVDWGTELLTLPHGRQLRLDLLVKHRTFSLFLALLLLGERRSARARAALLAKLIALADELLNVEGDMFNFSATLSALTLPEVRRLEATWRLLEEEHAETARLFREELLPRLADWVAGREGPPLERTVFPFILPLIRLLNGGYDPETVRRHLERALEIAASGGLFARNAAERLEGFEPDPDLLEVFDTEFQLRLIFGRGGASRSFEEQFREMEAVLAELAEELEPRE,TVPIVEVTSSFNPATFQSLLIPRDNRPLEVGLLRKVKELLAEVDARTLARHVTKVDCLVARILGVTKEMQTLMGVRWGMELLTLPHGRQLRLDLLERFHTMSIMLAVDILGSTGSAEERAALLHKTIQLAAELRGTMGNMFSFAAVMGALDMAQISRLEQTWVTLRQRHTEGAILYEKKLKPFLKSLNEGKEGPPLSNTTFPHVLPLITLLESEHGVEVVLAHLEAARTVAHHGGLYHTNAEVKLQGFQARPELLEVFSTEFQMRLLWGSQGASSSQARRYEKFDKVLTALSHKLEPAV,EEVEELLERYREVFEGLRRALTAEDPEERRRVLEEALRRL,HSKFVILSAHKLVFIGDTLSRQAKAADVRSQVTHYSNLLC
51.0,43,93,B,50,GMPEVRTTSSFNPSAYRSALIPEGAPPLDEALLARIRALFDAVDARELARHVTLVDNLDAYILGVSPEDQARMGVDWGTELLTLPHGRQLRLDLLVRHRTFALFLALLLLGERRSAEARAALLAKLIALADELLNVEGDMFNFSATLLALTLPEVRRLEATWRLLEERHAETARRFREELLPRLADLEAGREGPPLERTVFPHILPLIRLLLGGYDVETVLAHLERARVVAASGGVFARNAAERLEGFEPDPDLLEVFDTEFQLRLIFGRGGAERSFEEQFREMEAVLAELAEELEPRE,TVPIVEVTSSFNPATFQSLLIPRDNRPLEVGLLRKVKELLAEVDARTLARHVTKVDCLVARILGVTKEMQTLMGVRWGMELLTLPHGRQLRLDLLERFHTMSIMLAVDILGSTGSAEERAALLHKTIQLAAELRGTMGNMFSFAAVMGALDMAQISRLEQTWVTLRQRHTEGAILYEKKLKPFLKSLNEGKEGPPLSNTTFPHVLPLITLLESEHGVEVVLAHLEAARTVAHHGGLYHTNAEVKLQGFQARPELLEVFSTEFQMRLLWGSQGASSSQARRYEKFDKVLTALSHKLEPAV,VVEEVLERFREVALGLALARTAEDPELREEVTRRAGELREELRRLVEEAR,SKFVILSAHKLVFIGDTLSRQAKAADVRSQVTHYSNLLCDLLRGIVATTK
