contacts,cs,ce,Chain,Length,designed_receptor_seq,native_receptor_seq,designed_binder_seq,native_binder_seq
12.0,201,211,A,10,MADFLKEAPNLEERLAKIDSLSLDELLVLRKEIVAYMNSLDAAFEVVGKDGKDEEFKGFVAELKANRNKARDALNHLNQVALAKLKAVEAAG,LLANVKIDPSLTSRISQIDSFKLSELMVLKTDIETQLEAYFSVLEQQGIGMDSDVDVLQVTMIRKNVNMLKNDLNHLLQRSHVLLNQHFDNM,EVQAGFAKLG,TVEAGMIALR
17.0,195,215,A,20,MADFPVELPDYEARAAAIDTLTLDELLVLDREMVAGMDALDAVFARWGRDGSDAEFAGGLAELRARRGAMQDARFRLNQRALALLRARREAG,LLANVKIDPSLTSRISQIDSFKLSELMVLKTDIETQLEAYFSVLEQQGIGMDSDVDVLQVTMIRKNVNMLKNDLNHLLQRSHVLLNQHFDNM,RAELLAAVAAGKQALLNGLA,AQLKAVTVEAGMIALRNGQS
20.0,177,207,A,30,GSHMIETLPDLEARLAAIDTLSLDELDALEAEIDAGMAALDAAFAATGRDGSDAEFAAGHAALVAERGRLLDARGRLRARRLALLEARFAAR,LLANVKIDPSLTSRISQIDSFKLSELMVLKTDIETQLEAYFSVLEQQGIGMDSDVDVLQVTMIRKNVNMLKNDLNHLLQRSHVLLNQHFDNM,ALGLDPAALAAATADWDDAALRDLVVALAG,KMTINWQELARSTDEFNGAQLKAVTVEAGM
26.0,176,216,A,40,GSHMIETLPDLEARLAAIDTLSLDELFVLDREIDAGMAALDAAFAELGVDGSDAEAAGFVAELRARRGALRDARGRLNARALALLEAVYAAR,LLANVKIDPSLTSRISQIDSFKLSELMVLKTDIETQLEAYFSVLEQQGIGMDSDVDVLQVTMIRKNVNMLKNDLNHLLQRSHVLLNQHFDNM,AGLAVDPAALARATADWDDAARRQLVVALGRQLLAEGRAA,RKMTINWQELARSTDEFNGAQLKAVTVEAGMIALRNGQSS
27.0,166,216,A,50,GSHMIKELPNYEERAAQIETLSLEELFVLEEEIDAYMDSLDAVLEEYGVDGEDEEFEGFVEELIAERNEALDTRGRLNREAYRKLCAVFEER,LLANVKIDPSLTSRISQIDSFKLSELMVLKTDIETQLEAYFSVLEQQGIGMDSDVDVLQVTMIRKNVNMLKNDLNHLLQRSHVLLNQHFDNM,ERAEVLREYAEPLELDWEALAEETEDYDEEQLFRLVVRLGRRLLEEGREE,SRAQILQIHSRKMTINWQELARSTDEFNGAQLKAVTVEAGMIALRNGQSS
18.0,80,90,B,10,MGVERPDVTFDDIGGLEEQKKALKEAIELPLKHPELFKKVGVEPPKGVLLYGPPGCGKTLMAKAVANETNSTFISVSGSELVEERVRELFEKARENAPCIIFIDEIDAIGGQGRTFNQLLVEMDGFEPNSNVKVIAATNRPDVLDPALLRPGRFDRKIYVPLPDKEARAQILKIHSKKMKLDWEKAAELTENFNGAQLKAVVVEAGLKAVREGKKEVEFEDFVEGIKNVKEK,EVVERPNVTYNDIGGLKKQLQELREAIELPLKHPELFEEVGIDPPKGVLLYGPPGCGKTLMAKAIAHEVNATFIRVVGSELVARLVHELFELAKEKAPTIIFIDEIDAIGAKNRTLMQLLAEMDGFDPRGNVKVIAATNRPDILDPALLRPGRFDRLIEVPLPDEFSRAQILQIHSRKMTINWQELARSTDEFNGAQLKAVTVEAGMIALRNGQSSVKHEDFVEGISEVQAR,VLKALEEYYK,SHVLLNQHFD
22.0,70,90,B,20,MGVERPDVTFDDIGGLEEQKKALKEAIELPLKRPELFKKVGVEPPKGVLLYGPPGCGKTLMAKAVANETNSTFISVSGSELVEERVRELFEKARENAPCIIFIDEIDAIGGQGRTFNQLLVEMDGFEPNSNVRVIAATNRPDVLDPALLRPGRFDRKIYVPLPDKEARAQILKIHSKKMKLDWEKAAELTENFNGAQLKAVVVEAGLKAVREGKKEITFEDFIEGIKNVREK,EVVERPNVTYNDIGGLKKQLQELREAIELPLKHPELFEEVGIDPPKGVLLYGPPGCGKTLMAKAIAHEVNATFIRVVGSELVARLVHELFELAKEKAPTIIFIDEIDAIGAKNRTLMQLLAEMDGFDPRGNVKVIAATNRPDILDPALLRPGRFDRLIEVPLPDEFSRAQILQIHSRKMTINWQELARSTDEFNGAQLKAVTVEAGMIALRNGQSSVKHEDFVEGISEVQAR,TEEEAKELEEKYEELAKLFK,KNDLNHLLQRSHVLLNQHFD
22.0,60,90,B,30,MGVERPDVTFDDIGGLEEQKKALKEAIELPLKRPELFEKVGIKPPKGVLLYGPPGCGKTLMAKAVANETNSTFISVSGSELVEERVRELFEKARENAPCIIFIDEIDAIGGQGRTFNQLLVEMDGFEPNSNVKVIAATNRPDVLDPALLRPGRFDRKIYVPLPDKEARAQILKIHSKKMKLDWEKAAELTENFNGAQLKAVVVEAGLKAVREGKKEITFEDFIEGIKNVKES,EVVERPNVTYNDIGGLKKQLQELREAIELPLKHPELFEEVGIDPPKGVLLYGPPGCGKTLMAKAIAHEVNATFIRVVGSELVARLVHELFELAKEKAPTIIFIDEIDAIGAKNRTLMQLLAEMDGFDPRGNVKVIAATNRPDILDPALLRPGRFDRLIEVPLPDEFSRAQILQIHSRKMTINWQELARSTDEFNGAQLKAVTVEAGMIALRNGQSSVKHEDFVEGISEVQAR,LKEKEEKEKKEKEEKEKKEKLYEELAKLFK,TMIRKNVNMLKNDLNHLLQRSHVLLNQHFD
22.0,50,90,B,40,MGVERPDVTFDDIGGLEEQKKALKEAIELPLKRPELFEKVGIKPPKGVLLYGPPGTGKTLMAKAVANETNATFISVSGSELTEERVRELFEKARENAPCIIFIDEIDAIGGQGRTFNQLLVEMDGFEPNSNVKVIAATNRPDVLDPALLRPGRFDRKIYVPLPDKEARAQILKIHSKKMKLDWEKAAELTENFNGAQLKAVVVEAGLKAVREGKKEVTFEDFIEGIKNVKEK,EVVERPNVTYNDIGGLKKQLQELREAIELPLKHPELFEEVGIDPPKGVLLYGPPGCGKTLMAKAIAHEVNATFIRVVGSELVARLVHELFELAKEKAPTIIFIDEIDAIGAKNRTLMQLLAEMDGFDPRGNVKVIAATNRPDILDPALLRPGRFDRLIEVPLPDEFSRAQILQIHSRKMTINWQELARSTDEFNGAQLKAVTVEAGMIALRNGQSSVKHEDFVEGISEVQAR,LKDEKEKEKIKELIKKIEEEKKKLEEELKKLYEELAKLYK,MDSDVDVLQVTMIRKNVNMLKNDLNHLLQRSHVLLNQHFD
22.0,40,90,B,50,MGVERPDVTFDDIGGLEEQKKALKEAIELPLKRPELFEKVGIKPPKGVLLYGPPGTGKTLMAKAVANETNATFISVSGSELVEERVRELFEKARENAPCIIFIDEIDAIGGQGRTFRQLLVEMDGFEPNSNVKVIAATNRPDVLDPALLRPGRFDRKIYVPLPDKEARAQILKIHSKKMKLDWEKAAELTENFNGAQLKNVVVEAGLKAVREGKKEVTFEDFIEGIKNVKEK,EVVERPNVTYNDIGGLKKQLQELREAIELPLKHPELFEEVGIDPPKGVLLYGPPGCGKTLMAKAIAHEVNATFIRVVGSELVARLVHELFELAKEKAPTIIFIDEIDAIGAKNRTLMQLLAEMDGFDPRGNVKVIAATNRPDILDPALLRPGRFDRLIEVPLPDEFSRAQILQIHSRKMTINWQELARSTDEFNGAQLKAVTVEAGMIALRNGQSSVKHEDFVEGISEVQAR,EEALKKTGKSGKDEEFKKAVEEAIKKANELKEKLKKENEEKYKKLAELYK,FSVLEQQGIGMDSDVDVLQVTMIRKNVNMLKNDLNHLLQRSHVLLNQHFD
