contacts,cs,ce,Chain,Length,designed_receptor_seq,native_receptor_seq,designed_binder_seq,native_binder_seq
25.0,38,48,A,10,MLEFVTPEKVLLKADEVVVPTAEGEIGILAGHVPLVSEIKPGLIRIKEGEKEKEFFVSGGFLKITPDNKVKILVEEAKPLEEFDKEKIEKALEEAKKKVEEGKEEEKEKAKEEVEILEKLLELF,KLQFALPHETLYSVTQVNLPAKSGRIGVLANHVPTVEQLLPGVVEVMEGSNSKKFFISGGFATVQPDSQLCVTAIEAFPLESFSQENIKNLLAEAKKNVSSSDAREAAEAAIQVEVLENLQSVL,KKKEELKKAG,ISAKKMDEAE
33.0,34,54,A,20,MIEFVTPEKTLLKADEIIVPTAEGEMGILKGHVPLISEIKPGLIKIKEGEKEKEFFVSGGFLYIDPENKVYILVEEAKPLEEFDKEKIEKALEKAKELVKKGEKEEAEKAKEAVEILEKLKELL,KLQFALPHETLYSVTQVNLPAKSGRIGVLANHVPTVEQLLPGVVEVMEGSNSKKFFISGGFATVQPDSQLCVTAIEAFPLESFSQENIKNLLAEAKKNVSSSDAREAAEAAIQVEVLENLQSVL,KKKEEEKKKLEEAKKKLEEL,EKAKISAKKMDEAEQLFYKN
33.0,24,54,A,30,MIEFVTPEKTLLKADEAIVPTAEGEMGILAGHVPLISEIKPGLIKIKEGEKEKEFFVSGGFLYIDPENKVFILVEEAKPLEEFDKEKIEGALKEAEEKVKSGEEEEKEKAEKEVEILKKLLELF,KLQFALPHETLYSVTQVNLPAKSGRIGVLANHVPTVEQLLPGVVEVMEGSNSKKFFISGGFATVQPDSQLCVTAIEAFPLESFSQENIKNLLAEAKKNVSSSDAREAAEAAIQVEVLENLQSVL,EEKKEEEKKEEEKKKAEEELKKAKEKLEEL,IVASTRLSKAEKAKISAKKMDEAEQLFYKN
33.0,14,54,A,40,MIKFVTPTKTLLEADEVIVPTAEGEIGILKGHVPLISEIKPGLIKIKEGEKEKEFFVSGGILYIDPENNVYIIVEEAKPLEEFDKEKIEGALEKAKELVKSGEEELKEKAEKAVEILEKLKELL,KLQFALPHETLYSVTQVNLPAKSGRIGVLANHVPTVEQLLPGVVEVMEGSNSKKFFISGGFATVQPDSQLCVTAIEAFPLESFSQENIKNLLAEAKKNVSSSDAREAAEAAIQVEVLENLQSVL,KKEEIEKKLKELEEKLKELEEKLKENLEKLKEALEKLKEL,NIEKITKTMKIVASTRLSKAEKAKISAKKMDEAEQLFYKN
33.0,4,54,A,50,MIKFVTPTKTLLEADEVIVPTAEGEIGILKGHVPLISEIKPGLIKIKEGEKEKEFFVSGGILIITPDNEVRIIVEEAKPLEEFDKEKIEGALEKAKELVKSGEEELKEKAKEAVEILEKLKELL,KLQFALPHETLYSVTQVNLPAKSGRIGVLANHVPTVEQLLPGVVEVMEGSNSKKFFISGGFATVQPDSQLCVTAIEAFPLESFSQENIKNLLAEAKKNVSSSDAREAAEAAIQVEVLENLQSVL,KKEEIEKKLEELEKKLEELKKKLEELEKKLEELKKNLEELKKALEELKKL,EVEMRLKSIKNIEKITKTMKIVASTRLSKAEKAKISAKKMDEAEQLFYKN
22.0,0,10,B,10,MDLEEIKKKLEEIKEKEKIYSEKAEEAKKELEKAKELAKNAEKLYEALTEFEKEANVKEEELIIVVGSDLGEEGEIHEKLGEKVLEYLKENPKAKIVTIGKKIYEYLSKEKPENIIKEFTGVGASLPTYELAKEITKELLEKVKAEEYKKIKIFYNYPVSEEEFKPEETEIYGAEEIKKAPNYGKYKIDEEKEVPKELFEKKLAGLLLYAMANSYLASIIAAKKEYEGKAEEAKKEIEELEKKYEEKKKEEEIKKEIEKIKKELE,ATLKEVEMRLKSIKNIEKITKTMKIVASTRLSKAEKAKISAKKMDEAEQLFYKNAETKNKELIVAITSDKGLCGSIHSQLAKAVRRHLNDQPNADIVTIGDKIKMQLLRTHPNNIKLSINGIGKDAPTFQESALIADKLLSVMKAGTYPKISIFYNDPVSSLSFEPSEKPIFNAKTIEQSPSFGKFEIDTDANVPRDLFEYTLANQMLTAMAQGYAAEISARRNAMDNASKNAGDMINRYSILYNRTRQAVITNELVDIITGASS,KELKVKPEEP,KLQFALPHET
25.0,2,22,B,20,MDLEEIKKKLEEIKKKEEEYKKKAEEYKKKLEEAKELAKNAEELKKALEEFEKEAKVKEEELIIVVASDRGNAGEISSKLGEKVLEYLKENPKAKIVTIGSKIYEELKKEKPENIILNFTGVGGLEPTPELAKKIAEELLKKVKAEEYKKIKIFYNEPVSEEEFKPKEEEIFGAEELKKAPNYGKFKIDEKKEIPKLLFESRLAGKLLYAMALSYLAEITAAKKENEGKAKEAEEEIKKLEEEYEKKKKEEEIKKEIEKLKKELE,ATLKEVEMRLKSIKNIEKITKTMKIVASTRLSKAEKAKISAKKMDEAEQLFYKNAETKNKELIVAITSDKGLCGSIHSQLAKAVRRHLNDQPNADIVTIGDKIKMQLLRTHPNNIKLSINGIGKDAPTFQESALIADKLLSVMKAGTYPKISIFYNDPVSSLSFEPSEKPIFNAKTIEQSPSFGKFEIDTDANVPRDLFEYTLANQMLTAMAQGYAAEISARRNAMDNASKNAGDMINRYSILYNRTRQAVITNELVDIITGASS,KLVTPEKVLKEGEKIEIPLP,QFALPHETLYSVTQVNLPAK
31.0,6,36,B,30,MDLEEIKKKLEEIKKKEEEYKKKAEEYKKKLEEAKELAKNAEELKKELEKFLEEAKVKEEELIIVVASDLGEAGEISSKLGEKVLEYLKENPKAKIVTIGKKIYEELKKEVPENIILNFEGVGEKEPTFELAKEITKKLLEEVKAEEYKKIKIFYLEPVSEEEFKPKEEEIFGAEEIKKAPNYGKFKIDEEKEVPKLLFETILAGKLLYAMALSYLAEIIAAEKEFKEKAEEAKKEIEELEKKYEEKKKEEEIKKEIEKLKKELE,ATLKEVEMRLKSIKNIEKITKTMKIVASTRLSKAEKAKISAKKMDEAEQLFYKNAETKNKELIVAITSDKGLCGSIHSQLAKAVRRHLNDQPNADIVTIGDKIKMQLLRTHPNNIKLSINGIGKDAPTFQESALIADKLLSVMKAGTYPKISIFYNDPVSSLSFEPSEKPIFNAKTIEQSPSFGKFEIDTDANVPRDLFEYTLANQMLTAMAQGYAAEISARRNAMDNASKNAGDMINRYSILYNRTRQAVITNELVDIITGASS,EGKVEKKEEKIEVPTLLGKVKIEKGEKPIL,PHETLYSVTQVNLPAKSGRIGVLANHVPTV
47.0,0,40,B,40,MDLETIKKELEEIKEKEKIYSELAEEAKKELEKAKELAKNAEELEKVSSEFEKIANVKEEELIIVVASDLGNSGEISSKLGEKVLEYLKENPKAKIVTIGSKIYEELSKEVPENIILNITGVGASEPTYELAKEISKKLLEEVKAEEYKKIKIFYLKPVSEEEFEPEEKEIFGAEEIKKAPNYGKFKIDEEKEIPKKLFEKRLANELLYAMANSYLAAIIAAKKEFEGKAEEAKKEIEELEKKYEEKKKEEEIKKEIEKLKKEIE,ATLKEVEMRLKSIKNIEKITKTMKIVASTRLSKAEKAKISAKKMDEAEQLFYKNAETKNKELIVAITSDKGLCGSIHSQLAKAVRRHLNDQPNADIVTIGDKIKMQLLRTHPNNIKLSINGIGKDAPTFQESALIADKLLSVMKAGTYPKISIFYNDPVSSLSFEPSEKPIFNAKTIEQSPSFGKFEIDTDANVPRDLFEYTLANQMLTAMAQGYAAEISARRNAMDNASKNAGDMINRYSILYNRTRQAVITNELVDIITGASS,KIKLVTPEKTLLEGEEIKVPLKEGEVKIKKGEEPIILPLK,KLQFALPHETLYSVTQVNLPAKSGRIGVLANHVPTVEQLL
47.0,0,50,B,50,MDLETIKKELEEIKEKEKIYSELAEEAKKELEEAKELAKNAEELEKVSSEFEKEAKVKEEELIIVVASDLGNAGEISSKLGEKVLEYLKENPKAKIVTIGSKIYEELSKEKPENIILNFTGVGASKPTYELAKEISKKLLEEVKAEEYKKIKIFYLKPVSEEEFEPEEKEIYGAEEIKKAPNYGKFKIDEEKEIPKKLFEERLANELLYAMALSYKAEIIAAEKEFKGKAEEAKKEIEELEKKYEEKKKEEEIKKEIEKLKKEIE,ATLKEVEMRLKSIKNIEKITKTMKIVASTRLSKAEKAKISAKKMDEAEQLFYKNAETKNKELIVAITSDKGLCGSIHSQLAKAVRRHLNDQPNADIVTIGDKIKMQLLRTHPNNIKLSINGIGKDAPTFQESALIADKLLSVMKAGTYPKISIFYNDPVSSLSFEPSEKPIFNAKTIEQSPSFGKFEIDTDANVPRDLFEYTLANQMLTAMAQGYAAEISARRNAMDNASKNAGDMINRYSILYNRTRQAVITNELVDIITGASS,EIKLVTPEKTLLEGKEIIVPLEEGEKKIKKGEKPIIEKIKPGKIEIKLEG,KLQFALPHETLYSVTQVNLPAKSGRIGVLANHVPTVEQLLPGVVEVMEGS
