contacts,cs,ce,Chain,Length,designed_receptor_seq,native_receptor_seq,designed_binder_seq,native_binder_seq
26.0,67,77,A,10,GSSPMHEAARVGDAEALKGLIEKGEGVNVYTEGNVSPLHLACLGGHLECVKILLEHGAEVNVVTSDDETPLYLACVSGSVEVVKLLLEHGAEVEPESPETVPIHEAASRGHVECVKLLVEHGGDIDLCVEELGTPLYLACLNEQEEAVKFLLEAGADVNLGRGETTPLHEVCRLESESLVKLLVEYGADVNARNEEGKAPVELVSPESPLREYFEEHKGPRSEAELCREAIRACFGVKERHRIEELDLPEELKRFLLYE,DWSPMHEAAIHGHQLSLRNLISQGWAVNIITADHVSPLHEACLGGHLSCVKILLKHGAQVNGVTADWHTPLFNACVSGSWDCVNLLLQHGASVQPESDLASPIHEAARRGHVECVNSLIAYGGNIDHKISHLGTPLYLACENQQRACVKKLLESGADVNQGKGQDSPLHAVARTASEELACLLMDFGADTQAKNAEGKRPVELVPPESPLAQLFLEREGPPSLMQLCRLRIRKCFGIQQHHKITKLVLPEDLKQFLLHL,EWLERLLEAW,IALELLMAAN
37.0,57,77,A,20,GSSPMHEAARVGDAEALKGLIEKGEGVNVYTEGNVSPLHLACLGGHLECVKILLEHGAEVNVVTSDDETPLYLACVSGSVEVVKLLLEHGAEVEPESPETSPIHEAASRGHVECVKLLVEHGGDIDLCLEEEGTPLYLACLNEQEEAVKFLLEAGADVNLGRGETSPLHEVCRLESESLVKLLVEYGADVNLRNEEGKAPIELVSPESPLREYFEEHKGPPSLAELCRRRIRSGFGVKERHRIEELDLPEELKRFLLFE,DWSPMHEAAIHGHQLSLRNLISQGWAVNIITADHVSPLHEACLGGHLSCVKILLKHGAQVNGVTADWHTPLFNACVSGSWDCVNLLLQHGASVQPESDLASPIHEAARRGHVECVNSLIAYGGNIDHKISHLGTPLYLACENQQRACVKKLLESGADVNQGKGQDSPLHAVARTASEELACLLMDFGADTQAKNAEGKRPVELVPPESPLAQLFLEREGPPSLMQLCRLRIRKCFGIQQHHKITKLVLPEDLKQFLLHL,EEEEEEIELEEALELLLEAW,EIPEFPIAPEIALELLMAAN
43.0,49,79,A,30,GSSPMHEAARVGDAEALKGLIEKGEGVNVYTEGNVSPLHLACLGGHLECVKILLEHGAEVNVVTSDDETPLYLACVSGSVEVVKLLLEHGAEVEPESPETSPIHEAASRGHVECVKLLVEHGGDIDLCLEEEGTPLYLACLNEQEEAVKFLLEAGADVNLGRGETSPLHEVCRLESESLVKLLVEYGADVHLRNEEGKAPIELVSPESPLREYFEEHKGPRSLMELCRERIRSGFGVKEREKIEELDLPEELKNFLLFR,DWSPMHEAAIHGHQLSLRNLISQGWAVNIITADHVSPLHEACLGGHLSCVKILLKHGAQVNGVTADWHTPLFNACVSGSWDCVNLLLQHGASVQPESDLASPIHEAARRGHVECVNSLIAYGGNIDHKISHLGTPLYLACENQQRACVKKLLESGADVNQGKGQDSPLHAVARTASEELACLLMDFGADTQAKNAEGKRPVELVPPESPLAQLFLEREGPPSLMQLCRLRIRKCFGIQQHHKITKLVLPEDLKQFLLHL,EEEEYEEEEIPEVPIEEEEAIELLLEAWEE,YKVRYTNSEIPEFPIAPEIALELLMAANFL
46.0,39,79,A,40,GSSPMHEAARVGDAEALKGLIEKGEGVNVYTEGNVSPLHLACLGGHLECVKILLEHGAEVNVVTSDDETPLYLACVSGSVEVVKLLLEHGAEVEPESPETSPIHEAASRGHVECVKLLVEHGGDIDLCLEEEGTPLYLACLNRQREAVKFLLEAGADVNLGRGETSPLHEVCRLEDEELVKLLVEYGADVHLRNEEGKAPIELVSPDSPLREYFEEHKGPRSLMELCRERIRSGFGVKEREKIEELELPEELKKFLLFE,DWSPMHEAAIHGHQLSLRNLISQGWAVNIITADHVSPLHEACLGGHLSCVKILLKHGAQVNGVTADWHTPLFNACVSGSWDCVNLLLQHGASVQPESDLASPIHEAARRGHVECVNSLIAYGGNIDHKISHLGTPLYLACENQQRACVKKLLESGADVNQGKGQDSPLHAVARTASEELACLLMDFGADTQAKNAEGKRPVELVPPESPLAQLFLEREGPPSLMQLCRLRIRKCFGIQQHHKITKLVLPEDLKQFLLHL,VEEKVEEYREYYEKYKEEEIPEFPIEEEIAIDLLLAAWEE,VLSKVCMYFTYKVRYTNSEIPEFPIAPEIALELLMAANFL
46.0,29,79,A,50,GSSPMHEAARVGDAEALKGLIEKGEGVNVYTEGNVSPLHLACLGGHLECVKILLEHGAEVNVVTSDDETPLYLACVSGSVEVVKLLLEHGAEVEPESPETSPIHEAASRGHVECVKLLVEHGGDINLQVEELGTPLYLACLNRQREAVKFLLEAGADVNLGRGEESPLHQVCRIEDEELVKLLVEYGADVHLRNEEGKAPIELVSPDSPLREYFEEHKGPRSLMELCRERIRSGFGVKEREKIEELDLPEELKKFLLFE,DWSPMHEAAIHGHQLSLRNLISQGWAVNIITADHVSPLHEACLGGHLSCVKILLKHGAQVNGVTADWHTPLFNACVSGSWDCVNLLLQHGASVQPESDLASPIHEAARRGHVECVNSLIAYGGNIDHKISHLGTPLYLACENQQRACVKKLLESGADVNQGKGQDSPLHAVARTASEELACLLMDFGADTQAKNAEGKRPVELVPPESPLAQLFLEREGPPSLMQLCRLRIRKCFGIQQHHKITKLVLPEDLKQFLLHL,EEEDEEIPPEILEKVREFEEYYEEYKEEEIPEFPIEEEIAIPLLLAAWKL,EVNFREIPSHVLSKVCMYFTYKVRYTNSEIPEFPIAPEIALELLMAANFL
31.0,221,231,B,10,MVTLTSKDGKKFEIEEIFALGSGTIKEMLPLEFPDIPSNILEKVCEYFEYYVKYKDKEIPEFPIEKSIALDLLMAANYLDC,YVKLISSDGHEFIVKREHALTSGTIKAMLEVNFREIPSHVLSKVCMYFTYKVRYTNSEIPEFPIAPEIALELLMAANFLDC,TLEELCKENL,SLMQLCRLRI
39.0,214,234,B,20,MVTLTSKDGKKFEIEEEAALGSGTIKRMLPLEFPDIPSNILEKVCEYFEYYVKYKDKPIPEFPIEASIALDLLMAANYLDC,YVKLISSDGHEFIVKREHALTSGTIKAMLEVNFREIPSHVLSKVCMYFTYKVRYTNSEIPEFPIAPEIALELLMAANFLDC,EEEEGPPSLSELCIKTILSQ,LEREGPPSLMQLCRLRIRKC
43.0,219,249,B,30,MVTLTSKDGKKFEIEEEKALVSGTIKDMLPLEFPDIPSNILEKVCEYFDYYVKYKDKEIPEFPIEDSIAIDLLLAANYLDC,YVKLISSDGHEFIVKREHALTSGTIKAMLEVNFREIPSHVLSKVCMYFTYKVRYTNSEIPEFPIAPEIALELLMAANFLDC,PPSLEILCIKKIASTFGEGELEKIFDLDIP,PPSLMQLCRLRIRKCFGIQQHHKITKLVLP
47.0,216,256,B,40,MVTLTSKDGKKFEIEEEKALGSGTIKRMLPLEFPDIPSNILEKVCEYFDYYVKYKDKEIPEFPIEPEIAIDLLIAADYLDC,YVKLISSDGHEFIVKREHALTSGTIKAMLEVNFREIPSHVLSKVCMYFTYKVRYTNSEIPEFPIAPEIALELLMAANFLDC,EEGPPSLKELCKETILAQFGEGEEEEVEELDLPEELKEFL,REGPPSLMQLCRLRIRKCFGIQQHHKITKLVLPEDLKQFL
47.0,206,256,B,50,MVTLTSKDGKKFEIEEEKALGSGTIKRMLPLEFPDIPSNILEKVCEYFDYYVKYKDKEIPEFPIEPEIAIDLLIAADYLDC,YVKLISSDGHEFIVKREHALTSGTIKAMLEVNFREIPSHVLSKVCMYFTYKVRYTNSEIPEFPIAPEIALELLMAANFLDC,EEEEEEEEEEEEGPPSLKELCKETILAQFGEGEEEEVEELDLPEELKEFL,ESPLAQLFLEREGPPSLMQLCRLRIRKCFGIQQHHKITKLVLPEDLKQFL
