contacts,cs,ce,Chain,Length,designed_receptor_seq,native_receptor_seq,designed_binder_seq,native_binder_seq
44.0,103,113,A,10,GGSHMGLDYTAGPAVTIQGNGNIGTNLLIGTLTLSGYPDGMRSDQVNFTDAAATPKQITLTSTDGKGHQFTTIIVGKDSANNDIAPKVNGAVLVGANATLAAGSQKFEIRSVGSTGGALAAGTYTNSITVNVTFP,EPARITLTYKEGAPITIMDNGNIDTELLVGTLTLGGYKTGTTSTSVNFTDAAGDPMYLTFTSQDGNNHQFTTKVIGKDSRDFDISPKVNGENLVGDDVVLATGSQDFFVRSIGSKGGKLAAGKYTDAVTVTVSNQ,AVTINVTFTL,DVGVFVQFAI
63.0,98,118,A,20,GSHMLGLDYTAGPAVTIQGNGNIGTNLLIGTLTLSGYPAGMRSDQVNFTDAAATPKQITLTSTDGQGHQFTTIIVGKDAANNDIAPKVNGAVLVGANATLAAGSQQFQIKSVGSTGGALAAGTYTASITVTVNHA,EPARITLTYKEGAPITIMDNGNIDTELLVGTLTLGGYKTGTTSTSVNFTDAAGDPMYLTFTSQDGNNHQFTTKVIGKDSRDFDISPKVNGENLVGDDVVLATGSQDFFVRSIGSKGGKLAAGKYTDAVTVTVSNQ,TTTATTVNINITFTLNNQVG,PKDDKDVGVFVQFAINNCIK
66.0,88,118,A,30,GSHMLGLDYTAGPPVTIQGNGNIGTNLLIGTLTLSGYPAGMRSDQVNFTDAAATPKQITLTSTDGQGHQFTTIIVGKDAANNDIAPKVNGAVLVGANATLAAGSQQFQIKSVGSTGGALAAGDYTASITVTVTHP,EPARITLTYKEGAPITIMDNGNIDTELLVGTLTLGGYKTGTTSTSVNFTDAAGDPMYLTFTSQDGNNHQFTTKVIGKDSRDFDISPKVNGENLVGDDVVLATGSQDFFVRSIGSKGGKLAAGKYTDAVTVTVSNQ,TATTCTTTTAPAAATTVNINVTFALSNCVG,LKWLCVKGIPPKDDKDVGVFVQFAINNCIK
66.0,78,118,A,40,SGYDLGLDYTAGPAVTIGGDGNIGTNLLIGTLTLSGYPAGMRSDQVNFTDAAATPKQITLTSTDGKGHQFTTTIVGKDSANNDIAPKVNGAVSTGADVTLAAGSQKFEIKSVGSTGGALAAGDYTASITVTVKHA,EPARITLTYKEGAPITIMDNGNIDTELLVGTLTLGGYKTGTTSTSVNFTDAAGDPMYLTFTSQDGNNHQFTTKVIGKDSRDFDISPKVNGENLVGDDVVLATGSQDFFVRSIGSKGGKLAAGKYTDAVTVTVSNQ,TGTYPTTSAVTTTTCTTTTAPAAAGTVNINVTFALSNCVA,GGVFPRDKESLKWLCVKGIPPKDDKDVGVFVQFAINNCIK
66.0,68,118,A,50,SGYDLGLDYTAGAPVTIGGDGNIGTNLLIGTLTLSGYPAGMRSDQVNFTDAAATPKQITLTSTDGKGHQFTTTIVGKDSANNDIAPKVNGAVSTGADVTLAAGSQKFEIKSVGSTGGALAAGDYTASITVTVNHA,EPARITLTYKEGAPITIMDNGNIDTELLVGTLTLGGYKTGTTSTSVNFTDAAGDPMYLTFTSQDGNNHQFTTKVIGKDSRDFDISPKVNGENLVGDDVVLATGSQDFFVRSIGSKGGKLAAGKYTDAVTVTVSNQ,TSATLTVTGNGGTLPTDKATTGTLTVTANAPAAATTVNINVTFALANSVA,QQNSLRIAQAGGVFPRDKESLKWLCVKGIPPKDDKDVGVFVQFAINNCIK
42.0,1,11,B,10,GSHMASSSYGVTIGQSLIRYPLNAAGVSVSVTNTESYPITIVAGIYDENLQASGPFVVSPPSFTLAAKQSASLTIAQNGGTWPLDRESLYWLTVTGLAPASAGTVNVNVSYAIANSIPLIITPTALTGVPTDYAADLTWSVSGGKLVATNPSPFYMRIGSLTYNGKAIAPAYVPPKSTYAFTLPAGTTGTVSWQIIDDNGNLGPTYTKAVSG,DIKFASKEYGVTIGESRIIYPLDAAGVMVSVKNTQDYPVLIQSRIYDENKEKEDPFVVTPPLFRLDAKQQNSLRIAQAGGVFPRDKESLKWLCVKGIPPKDDKDVGVFVQFAINNCIKLLVRPNELKGTPIQFAENLSWKVDGGKLIAENPSPFYMNIGELTFGGKSIPSHYIPPKSTWAFDLPKGLAGNVSWRIINDQGGLDRLYSKNVTL,PSTVTLTATA,PARITLTYKE
55.0,0,20,B,20,GSHMATSSYGVTIGQSLIRYPLNAAGVSVSVTNTQSYPITIVAGIYDENLQQTGPFVVSPPSFTLAAKQSASLTIAQNGGTWPLDHESLYWLTVTGLAPASATTVNVNVSYAIANSIPLIITPTALTGVPTDYAADLTWSVSGGKLVATNPSPFYMRIGSLTYNGKAIAPAYVPPKSTYAFTLPAGTTGTVSWQIIDDNGNLGPTYTKAVGG,DIKFASKEYGVTIGESRIIYPLDAAGVMVSVKNTQDYPVLIQSRIYDENKEKEDPFVVTPPLFRLDAKQQNSLRIAQAGGVFPRDKESLKWLCVKGIPPKDDKDVGVFVQFAINNCIKLLVRPNELKGTPIQFAENLSWKVDGGKLIAENPSPFYMNIGELTFGGKSIPSHYIPPKSTWAFDLPKGLAGNVSWRIINDQGGLDRLYSKNVTL,VPSTVTLTATAGAPVTVGGG,EPARITLTYKEGAPITIMDN
57.0,0,30,B,30,GSHMATSSYGVTIGQSLIRYPLNAAGVSVSVTNTQSYPIVIVAGIYDENLQQSGPFVVSPPAFVLAAKQSASLTIAQNGGTWPLDRESLYWLTVTGLAPASASAVNVNLSFAIANSIPLIITPTALTGVPTDYAADLTWSVVGGKLVATNPSPFYMRIGSLTYNGKAIAPAYVPPKSTYAFDLPAGTAGTVSWQIIDDNGNLGPTYTKAVGG,DIKFASKEYGVTIGESRIIYPLDAAGVMVSVKNTQDYPVLIQSRIYDENKEKEDPFVVTPPLFRLDAKQQNSLRIAQAGGVFPRDKESLKWLCVKGIPPKDDKDVGVFVQFAINNCIKLLVRPNELKGTPIQFAENLSWKVDGGKLIAENPSPFYMNIGELTFGGKSIPSHYIPPKSTWAFDLPKGLAGNVSWRIINDQGGLDRLYSKNVTL,VPSTVTLTYTAGAPVTVQGNGLIASNLVIG,EPARITLTYKEGAPITIMDNGNIDTELLVG
58.0,0,40,B,40,GSHMATASYGVTIGQSQIIYPLNAAGVSVSVTNTQSYPIVIVAGIYDENLQASGPFVVTPPAFVLAAKQSASLTIAQNGGTWPLDHESLYWLTVTGLAPASASAVNVNVSFAIANSIPLIIRPTALTGVPTDYAADLTWSVVGGKLVATNPSPFYMRIGYLTYNGKVIPPAYVPPKSTYAFDLPAGTAGTVSWQIIDDNGNLGPTYTKAVGG,DIKFASKEYGVTIGESRIIYPLDAAGVMVSVKNTQDYPVLIQSRIYDENKEKEDPFVVTPPLFRLDAKQQNSLRIAQAGGVFPRDKESLKWLCVKGIPPKDDKDVGVFVQFAINNCIKLLVRPNELKGTPIQFAENLSWKVDGGKLIAENPSPFYMNIGELTFGGKSIPSHYIPPKSTWAFDLPKGLAGNVSWRIINDQGGLDRLYSKNVTL,VPSTTTLTYTAGAPVTVQGNGLIAANLNIGTLTLGGLPAG,EPARITLTYKEGAPITIMDNGNIDTELLVGTLTLGGYKTG
63.0,0,50,B,50,GSHMATASYGVTIGQSLIRYPLNAAGVSVSVTNTQSYPITVVAGIYDEGLQASGPFVVSPPSFALAARQSASLTVAQNGGTWPLDRESLYWLGVTGLAPASASAVDVNVSFALTNRIPLIITPTALTGVPTDYAADLTWSVSGGQLVASNPSPFYMRIGRLTYNGKALPPAYVPPRSTYAFALPAGTAGTVSWQIVDDAGNLGPTYTKAVGG,DIKFASKEYGVTIGESRIIYPLDAAGVMVSVKNTQDYPVLIQSRIYDENKEKEDPFVVTPPLFRLDAKQQNSLRIAQAGGVFPRDKESLKWLCVKGIPPKDDKDVGVFVQFAINNCIKLLVRPNELKGTPIQFAENLSWKVDGGKLIAENPSPFYMNIGELTFGGKSIPSHYIPPKSTWAFDLPKGLAGNVSWRIINDQGGLDRLYSKNVTL,VPSTVTLTYTAGAPVTVQGNGLIAANLNIGTLTLGGLPAGFAPQGVRIVN,EPARITLTYKEGAPITIMDNGNIDTELLVGTLTLGGYKTGTTSTSVNFTD
