contacts,cs,ce,Chain,Length,designed_receptor_seq,native_receptor_seq,designed_binder_seq,native_binder_seq
18.0,0,10,A,10,GSHMEDDSCGLCLSYELDGTLPDVVCENEECGQPFHQECLYAFLKGKETSSQDDNTLYGECPVCKKPITLTLKEP,EKSDFTMDCGICYAYQLDGTIPDQVCDNSQCGQPFHQICLYEWLRGLLTSRQSFNIIFGECPYCSKPITLKMSGR,EEEGGCEESR,YTQGMQRASR
21.0,0,20,A,20,GSSGSSGACGLCLDYELDGTTPDVVCENEECGQPFHQECLYAFLKGKETSSQDKNTIFGNCPFCKKPITLKLKKP,EKSDFTMDCGICYAYQLDGTIPDQVCDNSQCGQPFHQICLYEWLRGLLTSRQSFNIIFGECPYCSKPITLKMSGR,KPKGYHIKTREEKLKELLEG,YTQGMQRASRLKRELHMLAT
21.0,0,30,A,30,GSSGSSGACGLCLAEELDGTLPDVVCENEECGQPFHQECLYAFLKGKETSSQDENTIFGECPVCKKPITLTLKEP,EKSDFTMDCGICYAYQLDGTIPDQVCDNSQCGQPFHQICLYEWLRGLLTSRQSFNIIFGECPYCSKPITLKMSGR,EEEGGHVETRLKKLLELLKTKPPPGFSFSL,YTQGMQRASRLKRELHMLATEPPPGITCWQ
21.0,0,40,A,40,GSSGSSGACGLCLAEELDGTLPDVVCENEECGQPFHQECLYAFLKGKETSSQDENTIFGECPVCKKPITLTLKEP,EKSDFTMDCGICYAYQLDGTIPDQVCDNSQCGQPFHQICLYEWLRGLLTSRQSFNIIFGECPYCSKPITLKMSGR,EEEGGHVETCLEKLLELLETEPPPGFTCRRCEECEEELVP,YTQGMQRASRLKRELHMLATEPPPGITCWQDKDQMDDLRA
21.0,0,50,A,50,SMDEEDDSCGLCLDYELDGTLPDVVCENEECGQPFHQECLYAFLKGKETSSQDENTIFGECPVCKKPITLKLKKP,EKSDFTMDCGICYAYQLDGTIPDQVCDNSQCGQPFHQICLYEWLRGLLTSRQSFNIIFGECPYCSKPITLKMSGR,KPKGGHIKTCLEKLLEALEKEPPPGFTCKRCEECEEKLEATLEGAEETPF,YTQGMQRASRLKRELHMLATEPPPGITCWQDKDQMDDLRAQILGGANTPY
22.0,8,18,B,10,GPLGSMRRSRLQKELELLKTEPPPGITCEVDEEDEDLLTATILGAEDTPYEDGSFKLSVKIPEDYPFTPPKIKFLTPIYHPNIDSNGNICLDILKLPPEGKWNPALNISTVLLSIQSLLCDPNPDSPLNLEISKIYQENKPEFEKNAREYTKKYARK,YTQGMQRASRLKRELHMLATEPPPGITCWQDKDQMDDLRAQILGGANTPYEKGVFKLEVIIPERYPFEPPQIRFLTPIYHPNIDSAGRICLDVLKLPPKGAWRPSLNIATVLTSIQLLMSEPNPDDPLMADISSEFKYNKPAFLKNARQWTEKHARQ,DPITLAKKEG,CGICYAYQLD
22.0,0,20,B,20,GPLGSMRRTRLQKELELLKTEPPPGITCEVDEEDLSLLKATILGAEDTPYEDGSFQLSVEIPEDYPFTPPKIKFLTPIYHPNIDSNGRICLDILKLPPEGKWNPALDISSVLTSIQSLLCDPNPDSPLNLEISKIYQENRPEFEKNAREYTKKYAGK,YTQGMQRASRLKRELHMLATEPPPGITCWQDKDQMDDLRAQILGGANTPYEKGVFKLEVIIPERYPFEPPQIRFLTPIYHPNIDSAGRICLDVLKLPPKGAWRPSLNIATVLTSIQLLMSEPNPDDPLMADISSEFKYNKPAFLKNARQWTEKHARQ,KKKKKSNACGICLSEFHDGS,EKSDFTMDCGICYAYQLDGT
26.0,9,39,B,30,GPLGSMRRTRLEKELEELKTNPPPGITCEQDEEDLSLLKGTILGSEDTPYEDGSFQLSIEIPEDYPFTPPKIKFLTPIYHPNIDSNGNICLDILKLPPEGKWNPALNISTVLTSIQNLLNDPNPDSPLNLEISKIYQENKPEFEKNAREYTKKYAGK,YTQGMQRASRLKRELHMLATEPPPGITCWQDKDQMDDLRAQILGGANTPYEKGVFKLEVIIPERYPFEPPQIRFLTPIYHPNIDSAGRICLDVLKLPPKGAWRPSLNIATVLTSIQLLMSEPNPDDPLMADISSEFKYNKPAFLKNARQWTEKHARQ,FGCSSEELDGTKPDVICSNKECGKPFHKSC,GICYAYQLDGTIPDQVCDNSQCGQPFHQIC
34.0,8,48,B,40,GPLGSMRRTRLQKELEELKTNPPPGITCEQDEEDLSLLKATILGSEDTPYEDGSFQLSVEIPEDYPFTPPKIKFLTPIYHPNIDSEGRICLDVLKLPPEGKWNPALNISTVLTSIQNLLCDPNPDSPLNLEISKIYQENKPEFEKNAREHTKKYAGK,YTQGMQRASRLKRELHMLATEPPPGITCWQDKDQMDDLRAQILGGANTPYEKGVFKLEVIIPERYPFEPPQIRFLTPIYHPNIDSAGRICLDVLKLPPKGAWRPSLNIATVLTSIQLLMSEPNPDDPLMADISSEFKYNKPAFLKNARQWTEKHARQ,CNICLSEELDGTKPDVVCSNKKCGAPFHKTCLVKWNKGLP,CGICYAYQLDGTIPDQVCDNSQCGQPFHQICLYEWLRGLL
34.0,0,50,B,50,GPLGSMRRTRLEKELEELKTEPPPGITCEVDEEDLELLTATILGAEDTPYEDGSFKLSVEIPEDYPFTPPKIKFLTPIYHPNIDSNGNICLDVLKLPPEGKWNPALNISTVLTSIQNLLCDPNPDSPLNLEISEIYKTNKPEFEKNAREYTKKYAGK,YTQGMQRASRLKRELHMLATEPPPGITCWQDKDQMDDLRAQILGGANTPYEKGVFKLEVIIPERYPFEPPQIRFLTPIYHPNIDSAGRICLDVLKLPPKGAWRPSLNIATVLTSIQLLMSEPNPDDPLMADISSEFKYNKPAFLKNARQWTEKHARQ,KKKKKSDACGICLSYELDGTKPDVVCSNEECGTPFHKECLVKWNKGLASN,EKSDFTMDCGICYAYQLDGTIPDQVCDNSQCGQPFHQICLYEWLRGLLTS
