contacts,cs,ce,Chain,Length,designed_receptor_seq,native_receptor_seq,designed_binder_seq,native_binder_seq
31.0,0,10,A,10,GSPEFLVPPYTYLDDLRAAKPKGVVKIWVRARIVRQLSELSAKGGKWSQKLEITDGTEKLTVSLKNSLLVKAIGFSVPEMKEAFKDPEKLKKLGEGLKKLKETLKNLEAKMLIEYNPKTKEATVKKIEEPNLEDLKAELEREKL,IAMDLYSPPFVYLSVLMASKPKEVTTVKVKAFIVTLTGNLSSSGGIWSITAKVSDGTAYLDVDFVDEILTSLIGFSVPEMKQSKKDPLQYQKFLEGLQKCQRDLIDLCCLMTISFNPSLSKAMVLALQDVNMEHLENLKKRLNK,LPLGVEVKEE,DLFSVTFDLG
0.0,0,0,A,0,GSHMASVPPYTYLDDLRAAKPKGVVKIWVRARIVRRLGELSTEGGKWSQRLEITDGTERLTVSLKNSLITAAIGFSVPEMKEAFKDPAKLAKLNEGLKKYEETLKNLEAKMLISYNPVNKEATVEKIEEPNLEDLFDELVRRKL,IAMDLYSPPFVYLSVLMASKPKEVTTVKVKAFIVTLTGNLSSSGGIWSITAKVSDGTAYLDVDFVDEILTSLIGFSVPEMKQSKKDPLQYQKFLEGLQKCQRDLIDLCCLMTISFNPSLSKAMVLALQDVNMEHLENLKKRLNK,GSHMASVPPYTYLDDLRAAKPKGVVKIWVRARIVRRLGELSTEGGKWSQRLEITDGTERLTVSLKNSLITAAIGFSVPEMKEAFKDPAKLAKLNEGLKKYEETLKNLEAKMLISYNPVNKEATVEKIEEPNLEDLFDELVRRKLLEEAKKAAEE,
0.0,0,0,A,0,GSHMASVPPYTYLDDLRAAKPKGVVKIWVRARIVRRLGELSTEGGKWSQRLEITDGTERLTVSLKNSLITAAIGFSVPEMKEAFKDPAKLAKLNEGLKKYEETLKNLEAKMLISYNPVNKEATVEKIEEPNLEDLFDELVRRKL,IAMDLYSPPFVYLSVLMASKPKEVTTVKVKAFIVTLTGNLSSSGGIWSITAKVSDGTAYLDVDFVDEILTSLIGFSVPEMKQSKKDPLQYQKFLEGLQKCQRDLIDLCCLMTISFNPSLSKAMVLALQDVNMEHLENLKKRLNK,GSHMASVPPYTYLDDLRAAKPKGVVKIWVRARIVRRLGELSTEGGKWSQRLEITDGTERLTVSLKNSLITAAIGFSVPEMKEAFKDPAKLAKLNEGLKKYEETLKNLEAKMLISYNPVNKEATVEKIEEPNLEDLFDELVRRKLLEEAKKAAEE,
0.0,0,0,A,0,GSHMASVPPYTYLDDLRAAKPKGVVKIWVRARIVRRLGELSTEGGKWSQRLEITDGTERLTVSLKNSLITAAIGFSVPEMKEAFKDPAKLAKLNEGLKKYEETLKNLEAKMLISYNPVNKEATVEKIEEPNLEDLFDELVRRKL,IAMDLYSPPFVYLSVLMASKPKEVTTVKVKAFIVTLTGNLSSSGGIWSITAKVSDGTAYLDVDFVDEILTSLIGFSVPEMKQSKKDPLQYQKFLEGLQKCQRDLIDLCCLMTISFNPSLSKAMVLALQDVNMEHLENLKKRLNK,GSHMASVPPYTYLDDLRAAKPKGVVKIWVRARIVRRLGELSTEGGKWSQRLEITDGTERLTVSLKNSLITAAIGFSVPEMKEAFKDPAKLAKLNEGLKKYEETLKNLEAKMLISYNPVNKEATVEKIEEPNLEDLFDELVRRKLLEEAKKAAEE,
0.0,0,0,A,0,GSHMASVPPYTYLDDLRAAKPKGVVKIWVRARIVRRLGELSTEGGKWSQRLEITDGTERLTVSLKNSLITAAIGFSVPEMKEAFKDPAKLAKLNEGLKKYEETLKNLEAKMLISYNPVNKEATVEKIEEPNLEDLFDELVRRKL,IAMDLYSPPFVYLSVLMASKPKEVTTVKVKAFIVTLTGNLSSSGGIWSITAKVSDGTAYLDVDFVDEILTSLIGFSVPEMKQSKKDPLQYQKFLEGLQKCQRDLIDLCCLMTISFNPSLSKAMVLALQDVNMEHLENLKKRLNK,GSHMASVPPYTYLDDLRAAKPKGVVKIWVRARIVRRLGELSTEGGKWSQRLEITDGTERLTVSLKNSLITAAIGFSVPEMKEAFKDPAKLAKLNEGLKKYEETLKNLEAKMLISYNPVNKEATVEKIEEPNLEDLFDELVRRKLLEEAKKAAEE,
20.0,32,42,B,10,MPAGSVVTVTVT,DLFSVTFDLGFC,GTTTTADATV,IVTLTGNLSS
21.0,29,49,B,20,MPLGSVTVTGTG,DLFSVTFDLGFC,TGTGTGTGTATTLTGGTPTG,KAFIVTLTGNLSSSGGIWSI
21.0,19,49,B,30,MPLGSLLTGGSG,DLFSVTFDLGFC,GPAGPVTVTVTARVVEATGDVSLAGGRPSG,KPKEVTTVKVKAFIVTLTGNLSSSGGIWSI
21.0,9,49,B,40,MPLGSHHHHHHG,DLFSVTFDLGFC,SGTGGELIAANPSGAVTVTLNVKVAEVTGDVSTAGGKPSG,FVYLSVLMASKPKEVTTVKVKAFIVTLTGNLSSSGGIWSI
21.0,0,50,B,50,MPLGSLVRVGGG,DLFSVTFDLGFC,GGGGGGGGGFTTGGAVVAAAPAGAVTVTVRARVVEVLGELSLAGGRPSQR,IAMDLYSPPFVYLSVLMASKPKEVTTVKVKAFIVTLTGNLSSSGGIWSIT
