contacts,cs,ce,Chain,Length,designed_receptor_seq,native_receptor_seq,designed_binder_seq,native_binder_seq
40.0,35,45,A,10,GSPNVVVHYEEGDTWREFLQLEPAEERSLHELYRRNRALLLVAARVLGDREPLLRANADYMVLAMVVADRPATEEEEAAAEALEERLIELIAARRVEEEGLPPEEARAFAEEAFREERRRQREGEPE,ARPEIIVLREPGATWGNYLQHQKASNHSLHNLYNLQRDLLTVAATVLGKQDPVLTSMANQMELAKVKADRPATKQEEAAAKALKKNLIELIAARTQQQDGLPAKEAHRFAAVAFRDAQVKQLNNQPW,EEEPFAVRVE,VFDNYAVTVM
51.0,33,53,A,20,GSPEVVVLEEEGETWREFLQREPAEERSLHELYRRNRALLLVAARVLGEREPRLLALARYMELAMVVRDRPATEEEEAAAERLEEELIELIAARRVEEEGLPPEEARAFAEEAFREELRRQREGEPE,ARPEIIVLREPGATWGNYLQHQKASNHSLHNLYNLQRDLLTVAATVLGKQDPVLTSMANQMELAKVKADRPATKQEEAAAKALKKNLIELIAARTQQQDGLPAKEAHRFAAVAFRDAQVKQLNNQPW,GELPGPFAVRVLVGGVPYVL,PTVFDNYAVTVMIGGEPYTL
64.0,37,67,A,30,GSPEVVVREEEGETWREFLQREPAEERSLHELYRRNRDLLLVAAAVLGEEEPVLLRMAEHMELLKTVRDRPATEEEERYAEELEENLIRLIAARRVEREGLPPEEALRFAREAFREEKRRREEGRPE,ARPEIIVLREPGATWGNYLQHQKASNHSLHNLYNLQRDLLTVAATVLGKQDPVLTSMANQMELAKVKADRPATKQEEAAAKALKKNLIELIAARTQQQDGLPAKEAHRFAAVAFRDAQVKQLNNQPW,EPFAVEVLVGGVPYTLAVFRGAPEERWRRL,DNYAVTVMIGGEPYTLGLFDTAGQEDYDRL
90.0,34,74,A,40,GSPEVVVREEEGETWREFLQREPAEERSLHELYRRNRDLLLVAARVLGEEEPVLLRYAEYMELLKTVRDRPATEEEERRAEELEENLIRLIAARRVEEEGLPPEEALRFAREAFREEKRRQEEERPE,ARPEIIVLREPGATWGNYLQHQKASNHSLHNLYNLQRDLLTVAATVLGKQDPVLTSMANQMELAKVKADRPATKQEEAAAKALKKNLIELIAARTQQQDGLPAKEAHRFAAVAFRDAQVKQLNNQPW,PVRGPFAVEVLVGGVPYTLTVIDVAGEERWEELRPLVFPG,TVFDNYAVTVMIGGEPYTLGLFDTAGQEDYDRLRPLSYPQ
94.0,24,74,A,50,GSPEVVVHYEEGETWREFLQREPAEERSLHELYRRNRDLLLVAADVLGDEEPVLRAYADYMELLKTVADRPATEEEEAAAERLEEDLIELIAARRVEREGLPPEEARAFAEEAFREALRRRREGEPE,ARPEIIVLREPGATWGNYLQHQKASNHSLHNLYNLQRDLLTVAATVLGKQDPVLTSMANQMELAKVKADRPATKQEEAAAKALKKNLIELIAARTQQQDGLPAKEAHRFAAVAFRDAQVKQLNNQPW,EEEEEEEEVPVVRGPFAVPVEIGGVPYTLTVIDVAGHEDYARLRPLVFPG,TNKFPSEYVPTVFDNYAVTVMIGGEPYTLGLFDTAGQEDYDRLRPLSYPQ
30.0,54,64,B,10,MPEIKCVVVGDGAVGKTCLLISYTTNQFPTEYVPTVFDNYSAPVEIDGQPYRLTLWDTAGQEDYDRLRPLSYPQTDVFLVCFSVVSPSSFENVRSKWVPEITHHCPDTPFLLVGLKNDLRDDPDTLEALEEEGEEPITPEEAGELAEELKAVEYVECSALTQEGLQEVFDRAIEAALGP,MQTIKCVVVGDGAVGKTCLLISYTTNKFPSEYVPTVFDNYAVTVMIGGEPYTLGLFDTAGQEDYDRLRPLSYPQTDVFLVCFSVVSPSSFENVKEKWVPEITHHCPKTPFLLVGTQIDLRDDPSTIEKLAKNKQKPITPETAEKLARDLKAVKYVECSALTQKGLKNVFDEAILAALEP,PPYAAYLDLL,TSMANQMELA
48.0,50,70,B,20,MPHIKCVVVGDGAVGKTCLLISYTTNQFPTEYVPVVFDNYSAPVEIDGETYTLGLFDTAGQEEYDRLRPLSYPQTDVFLVCFSVVSPSSFENVRTKWVPEITHHCPDTPFLLVGLKNDLRDDPDVLEALEEEGEEPITPEEAGELAEELKAVEYVECSALTQEGLQEVFDRAIEAALTP,MQTIKCVVVGDGAVGKTCLLISYTTNKFPSEYVPTVFDNYAVTVMIGGEPYTLGLFDTAGQEDYDRLRPLSYPQTDVFLVCFSVVSPSSFENVKEKWVPEITHHCPKTPFLLVGTQIDLRDDPSTIEKLAKNKQKPITPETAEKLARDLKAVKYVECSALTQKGLKNVFDEAILAALEP,PPVLEAYAAYAELLKLRLGS,DPVLTSMANQMELAKVKADR
52.0,49,79,B,30,MPHIKCVVVGDGAVGKTCLLISYTTNQFPTEYVPVVFDNYSAPVEIDGETYTLGLFDTAGQEEYDRLRPLSYPQTDVFLVCFSVVSPSSFENVRTKWVPEITHHCPDTPFLLVGLKNDLRDDPGVREALAEEGQEPITPEEAGELAEELKAVEYVECSALTQEGLQEVFDRAIEAALGP,MQTIKCVVVGDGAVGKTCLLISYTTNKFPSEYVPTVFDNYAVTVMIGGEPYTLGLFDTAGQEDYDRLRPLSYPQTDVFLVCFSVVSPSSFENVKEKWVPEITHHCPKTPFLLVGTQIDLRDDPSTIEKLAKNKQKPITPETAEKLARDLKAVKYVECSALTQKGLKNVFDEAILAALEP,PDPVLEAYRRYAELLKLKAPRPLTEEERRR,QDPVLTSMANQMELAKVKADRPATKQEEAA
63.0,50,90,B,40,MPHIKCVVVGDGAVGKTCLLISYTTNQFPTEYVPVVFDNYSAPVEIDGETYTLGLFDTAGQEEYDRLRPLSYPQTDVFLVCFSVVSPSSFENVRTKWVPEITHHCPDTPFLLVGLKNDLRDDPGVREALAEEGEEPITPEEAGELAEELKAVEYVECSALTQEGLQEVFDRAIEAALGP,MQTIKCVVVGDGAVGKTCLLISYTTNKFPSEYVPTVFDNYAVTVMIGGEPYTLGLFDTAGQEDYDRLRPLSYPQTDVFLVCFSVVSPSSFENVKEKWVPEITHHCPKTPFLLVGTQIDLRDDPSTIEKLAKNKQKPITPETAEKLARDLKAVKYVECSALTQKGLKNVFDEAILAALEP,PPVLEAYRRYGELLKLKAPRPLTEEEREALRRLEEDLRRL,DPVLTSMANQMELAKVKADRPATKQEEAAAKALKKNLIEL
65.0,44,94,B,50,MPHIKCVVVGDGAVGKTCLLISYTTNQFPTEYVPVVFDNYSAPVEIDGQPYTLGLFDTAGQEDYDRLRPLSYPQTDVFLVCFSVVSPSSFENVRTKWVPEITHHCPDTPFLLVGLKNDLRDDPGVREALAEEGEEPITPEEAGELAEELKAVEYVECSALTQEGLDEVFERAIEAALGP,MQTIKCVVVGDGAVGKTCLLISYTTNKFPSEYVPTVFDNYAVTVMIGGEPYTLGLFDTAGQEDYDRLRPLSYPQTDVFLVCFSVVSPSSFENVKEKWVPEITHHCPKTPFLLVGTQIDLRDDPSTIEKLAKNKQKPITPETAEKLARDLKAVKYVECSALTQKGLKNVFDEAILAALEP,PELGDEVPVLAAYRAYGELLKLKAPRPLTEEEEEALRELEEDLEELRERL,TVLGKQDPVLTSMANQMELAKVKADRPATKQEEAAAKALKKNLIELIAAR
