contacts,cs,ce,Chain,Length,designed_receptor_seq,native_receptor_seq,designed_binder_seq,native_binder_seq
17.0,190,200,A,10,GGGSMEFIKLVKKTEGDLSTRDLNDIVKPSDFVLNSKKLTTVFVAVPKELDKDFKENYEKLSKNVVPNSSKVIAEDDKYVLYNVVLDKKSVEEFKKAAKEKKYIPREYNYTEEKIKELKKK,ESGSMNLAAAERKKTGDLSVRSLHDIVKPEDFVLNSEHLTTVLVAVPKSLKSDFEKSYETLSKNVVPASASVIAEDAEYVLFNVHLFKKNVQEFTTAAREKKFIPREFNYSEELIDQLKKE,DGDKKYKVIG,NASDKIEINN
28.0,193,213,A,20,GGGSHMLDVLEKKTEGDLSTRDLSDIVKPEDFVLNSKKLTTVFVAVPKELDKDFRENYESLSENVVPNSSSVVAEDDKYVLYRVNLDKSSVEEFVKAAKEKKYTPREYNYTEESLKKLEEG,ESGSMNLAAAERKKTGDLSVRSLHDIVKPEDFVLNSEHLTTVLVAVPKSLKSDFEKSYETLSKNVVPASASVIAEDAEYVLFNVHLFKKNVQEFTTAAREKKFIPREFNYSEELIDQLKKE,KGFKVDSSEEEKKRRLEEVE,DKIEINNTLEERLKLLSEEA
30.0,175,205,A,30,GGGSMEFAKLEKRTEGDLSTRDLSDIVKPEDFVLNSKKLTTVFVAVPKELDKDFRENYEKLSKNVVPNSSKVVDEDDKYVLYNVVLDKKSVEEFKKAAKEKKYTPREYNYTEEKVKELKKK,ESGSMNLAAAERKKTGDLSVRSLHDIVKPEDFVLNSEHLTTVLVAVPKSLKSDFEKSYETLSKNVVPASASVIAEDAEYVLFNVHLFKKNVQEFTTAAREKKFIPREFNYSEELIDQLKKE,KGLNKELVSGGVIVRDKKKKYRINATVEEK,DYLNKDLVSGGVVVSNASDKIEINNTLEER
39.0,173,213,A,40,GGGSMELAKLEKRTEGDLSTRDLSDIVKPEDFVLNSKKLTTVLVAVPKELDSDFRSNYESLSKNVVPNSSKVIDEDDKYVLYNVNLDKSSVSEFTSAAKKKKYTPREYNYTEESLKKLKEG,ESGSMNLAAAERKKTGDLSVRSLHDIVKPEDFVLNSEHLTTVLVAVPKSLKSDFEKSYETLSKNVVPASASVIAEDAEYVLFNVHLFKKNVQEFTTAAREKKFIPREFNYSEELIDQLKKE,SPKKLNEELVSGGVIVRDKSKKYRINATVEEIKRRLEEKK,SNDYLNKDLVSGGVVVSNASDKIEINNTLEERLKLLSEEA
40.0,166,216,A,50,GGGSMELAKLEKRTEGDLSTRDLNDIVEPSDFVLNSKKLTTVLVAVPKELDSDFRSNYESLSKNVVPNSSSVIAEDDKYVLYNVNLDKSSVSEFTSAAKKKKYTPREYNYTEESLKKLKEG,ESGSMNLAAAERKKTGDLSVRSLHDIVKPEDFVLNSEHLTTVLVAVPKSLKSDFEKSYETLSKNVVPASASVIAEDAEYVLFNVHLFKKNVQEFTTAAREKKFIPREFNYSEELIDQLKKE,KVEKIVKSDNKLNEELYSGGVIISDKSKKYKINATIEEIKRRADKVLKPL,PLEEIVISNDYLNKDLVSGGVVVSNASDKIEINNTLEERLKLLSEEALPA
31.0,1,11,B,10,MEIETKLTPEEELKELLKKEYEELKKKIEGLKEKYEKLKEELEKELKEKLEKEIEELKGKLEEELKKLEEELEKLKEEIEKLKEELEKLKKEAILEEIFKEAEKLLKGIAEDKELYKPILKELIVESLLKLKEPVAVIRALKKDVELIKKMEEEIKKEYGKRNKENPLEEIIIDEEYLDEEKVVGGVVVEDLKKEKKVDNTLEKILERFKEKLKPLLKKELFG,SSAITALTPNQVNDELNKMQAFIRKEAEEKAKEIQLKADQEYEIEKTNIVRNETNNIDGNFKSKLKKAMLSQQITKSTIANKMRLKVLSAREQSLDGIFEETKEKLSGIANNRDEYKPILQSLIVEALLKLLEPKAIVKALERDVDLIESMKDDIMREYGEKAQRAPLEEIVISNDYLNKDLVSGGVVVSNASDKIEINNTLEERLKLLSEEALPAIRLELYG,LKEKELVKLE,SGSMNLAAAE
35.0,0,20,B,20,MEIETDLTPGEILEKALEEERRRLEEEIRGLEERYREAEERYREELERELEERVRELEGRLEEELERLEEELERLEEEVERLEEELERLEEEAVLEAIFEEAERLLEGIARDRELYRPILLELIVESLLKLREPVAVVRALEEDVELIEEMKEEIKERYGELNREAPLEEIVISEEYLDEEKVVGGVVVEDLEREFRVDNTLEERLRRFREVAEPLLRELLFG,SSAITALTPNQVNDELNKMQAFIRKEAEEKAKEIQLKADQEYEIEKTNIVRNETNNIDGNFKSKLKKAMLSQQITKSTIANKMRLKVLSAREQSLDGIFEETKEKLSGIANNRDEYKPILQSLIVEALLKLLEPKAIVKALERDVDLIESMKDDIMREYGEKAQRAPLEEIVISNDYLNKDLVSGGVVVSNASDKIEINNTLEERLKLLSEEALPAIRLELYG,LGGEIELARLERREEEEEEE,ESGSMNLAAAERKKTGDLSV
35.0,0,30,B,30,MEIETDLTPGEELALALEEERRRLEAEVEGLRERYERLREELEREVEERVREEVERLRGELEELREELERLREEVERLREELERLREELEREAVLEAVFEVAERVLEGVARDRELYRPLLLELIVESLLKLREPVAVVRALEEDVELIRSMEEEVKERYGELNREAPLEEIVISEEFLDEELVVGGVVVEDLEREFRVDNTLEARLERFREVAEPLLRELLFG,SSAITALTPNQVNDELNKMQAFIRKEAEEKAKEIQLKADQEYEIEKTNIVRNETNNIDGNFKSKLKKAMLSQQITKSTIANKMRLKVLSAREQSLDGIFEETKEKLSGIANNRDEYKPILQSLIVEALLKLLEPKAIVKALERDVDLIESMKDDIMREYGEKAQRAPLEEIVISNDYLNKDLVSGGVVVSNASDKIEINNTLEERLKLLSEEALPAIRLELYG,LGGEVELARLERKEEEDLLVRELEEVLRPE,ESGSMNLAAAERKKTGDLSVRSLHDIVKPE
35.0,0,40,B,40,MEIETDLTPGEILEKALEEERRRLEEEIRGLEERYREAEERFREELERELEERVRELEGRLEEELERLREELERLREEVERLREELERELEEAVLEAVFEVAEEVLRGIAEDRELYRPILLELIVESLLKLREPVAVVRALEEDVELIRSMEEEIKERYGELNREAPLEEIVISEEFLDEELVVGGVVVEDLEREFRVDNTLEERLRRFREVAEPLLRELLFG,SSAITALTPNQVNDELNKMQAFIRKEAEEKAKEIQLKADQEYEIEKTNIVRNETNNIDGNFKSKLKKAMLSQQITKSTIANKMRLKVLSAREQSLDGIFEETKEKLSGIANNRDEYKPILQSLIVEALLKLLEPKAIVKALERDVDLIESMKDDIMREYGEKAQRAPLEEIVISNDYLNKDLVSGGVVVSNASDKIEINNTLEERLKLLSEEALPAIRLELYG,LGGEIELARLERKEEEDLLVRELEEVLEPEDFVLEHHHHH,ESGSMNLAAAERKKTGDLSVRSLHDIVKPEDFVLNSEHLT
36.0,0,50,B,50,MEIETDLTPGEILEKALEEERRRLEEEIRGLEERYREAEERFREELRRELEERVRELEGRLEEELERLREELERLREEVERLREELERELEEAVLEAVFEVAEEVLRGIAEDRELYRPILLELIVESLLKLREPVAVVRALEEDVELIREMEEEIKERYGELNREAPLEEIVISEEFLDEEEVVGGVVVEDLEREFRVDNTLEERLRRFREVAEPLLRELLFG,SSAITALTPNQVNDELNKMQAFIRKEAEEKAKEIQLKADQEYEIEKTNIVRNETNNIDGNFKSKLKKAMLSQQITKSTIANKMRLKVLSAREQSLDGIFEETKEKLSGIANNRDEYKPILQSLIVEALLKLLEPKAIVKALERDVDLIESMKDDIMREYGEKAQRAPLEEIVISNDYLNKDLVSGGVVVSNASDKIEINNTLEERLKLLSEEALPAIRLELYG,LGGEIELARLERKEEEDLFSRELEEVLEPEDFVLESEELFTVVVAVPREE,ESGSMNLAAAERKKTGDLSVRSLHDIVKPEDFVLNSEHLTTVLVAVPKSL
