contacts,cs,ce,Chain,Length,designed_receptor_seq,native_receptor_seq,designed_binder_seq,native_binder_seq
47.0,146,156,A,10,SLDAEFSIQYVGSIENLSSKDLKGPEALINFVKVAIDNGQLPSVPPSTKYIMHVSTDGIRVSDSSKSKTLHFFKLDLIVRMVSFDDGKGSGSTLLVLKTTNSKKNKYGIHVFQTDSKEVAKKICAVLRKAFEEVAK,DTCAEFRIKYVGAIEKLKLSGLEGPLDLINYIDVAQQDGKLPFVPPEEEFIMGVSKYGIKVSTSDQYDVLHRHALYLIIRMVCYDDGLGAGKSLLALKTTDASNEEYSLWVYQCNSLEQAQAICKVLSTAFDSVLT,KILEDVVNPN,RIKTNVINPA
67.0,137,157,A,20,SLDAEFSIQFVGSIENLSSKDLKGPLALINFVDVAILEGKLPSVPPKTKYIMHVSTEGIRVSDSSKSKTLHFFELDLIVRMVSFDDGLGSGSTLLVLKTTNKKKNKFGIYVFQTDSKEVAKKICAVLRKAFEEVAK,DTCAEFRIKYVGAIEKLKLSGLEGPLDLINYIDVAQQDGKLPFVPPEEEFIMGVSKYGIKVSTSDQYDVLHRHALYLIIRMVCYDDGLGAGKSLLALKTTDASNEEYSLWVYQCNSLEQAQAICKVLSTAFDSVLT,KKKRPKPEDRIMEDVWNPKY,ALFRPSPLERIKTNVINPAY
73.0,127,157,A,30,SLDAEFSIQYVGSIENLSSKDLKGPLALINFVDVAQLEGKLPFVPPKTKYIMHVSTEGIRVSDSSKSKTLHFFKLDLIVRMVSFDDGLGAGSTLLVLKTTNKKKNKFGIYVFQTDSKEVAKKICAVLRKAFEEVAK,DTCAEFRIKYVGAIEKLKLSGLEGPLDLINYIDVAQQDGKLPFVPPEEEFIMGVSKYGIKVSTSDQYDVLHRHALYLIIRMVCYDDGLGAGKSLLALKTTDASNEEYSLWVYQCNSLEQAQAICKVLSTAFDSVLT,KKKKKGYHVPNLFRPKPEERIMEDVWNPKY,ERHAQSHFIPALFRPSPLERIKTNVINPAY
73.0,117,157,A,40,SLDAEFSIQYVGSIENLSSKDLKGPLALINFIDVAQDEGKLPFVPPKTKYIMHVSTEGIRVSDSSKSKTLHFFKLDLIIRMVSFDDGLGSGSTLLALLVTNEKKNKYGVYVFQTDSKEVAKKICAVLRKAFEEVAK,DTCAEFRIKYVGAIEKLKLSGLEGPLDLINYIDVAQQDGKLPFVPPEEEFIMGVSKYGIKVSTSDQYDVLHRHALYLIIRMVCYDDGLGAGKSLLALKTTDASNEEYSLWVYQCNSLEQAQAICKVLSTAFDSVLT,KKKKKKKKKKKKKKKGYHIPNEFRPKPEDRIMEDVWNPKY,MLIALDKWLDERHAQSHFIPALFRPSPLERIKTNVINPAY
73.0,107,157,A,50,SLDAEFSIQYVGSIENLSSKGLKGPLALINFIDVAQLQGKLPFVPPKTKYIMHVSTEGIRVSDSSKSKTLYFFKLDLIIRMVSFDDGLGSGSTLLALLVTNSKKNKYGVYVFQTDSKEVAEKICSVLRKAFEEVAK,DTCAEFRIKYVGAIEKLKLSGLEGPLDLINYIDVAQQDGKLPFVPPEEEFIMGVSKYGIKVSTSDQYDVLHRHALYLIIRMVCYDDGLGAGKSLLALKTTDASNEEYSLWVYQCNSLEQAQAICKVLSTAFDSVLT,KKKLDKKEEKLLIENEKYFEKIKKEGYKLPNLFRPSPEKRIMTDVWNPKY,CTHFATLTARMLIALDKWLDERHAQSHFIPALFRPSPLERIKTNVINPAY
32.0,78,88,B,10,MRDYIAVIRPGSGSSRTFDASDYELLLYEEGERRLLYLERDGDLESSILSFVREVTRPEGGGIEGLDVVLLEEFPLGGEEEGEVAYLYLVPVRGEPRFERLDRILEEAGGFEELTRRMLEALAEYLEERHREGLEVPLLFRPRPEERVLEVRVDPRYLG,EDAYVAVIRPKSLNSREYRAKSYEILLHEVPKKVLLETKLQSEITQGILDYVVETTKPINQGIRGKRVVLMKKFPLDGEKMGREASLFIVPSVVCPIFYCLQDIMRVCTHFATLTARMLIALDKWLDERHAQSHFIPALFRPSPLERIKTNVINPAYAT,VLEVTYRDGL,IRMVCYDDGL
37.0,73,93,B,20,MDAYIAVIRPGSGHSRTFDAADYELLLYEEGERRLLHLELDGDLEEGILSFVREVTRPEGGGLEGLDVVLLEEFPLGGEEEGEVAYLYLVPVVGEPRFERLDRILEEAGGFEELTRRMLEALAERLEEWHAEGERVPRLFRPRPEERVREVWLNPAYAG,EDAYVAVIRPKSLNSREYRAKSYEILLHEVPKKVLLETKLQSEITQGILDYVVETTKPINQGIRGKRVVLMKKFPLDGEKMGREASLFIVPSVVCPIFYCLQDIMRVCTHFATLTARMLIALDKWLDERHAQSHFIPALFRPSPLERIKTNVINPAYAT,EEEELVLVVSYDDGLGEGRG,ALYLIIRMVCYDDGLGAGKS
37.0,63,93,B,30,MDAYIAVIRPGSGHSRTFDAADYELLLYEEGERRLLHLELDGDLEEGILSFVREVTRPEGGGLEGLDVVLLEEFPLGGEEEGEVAYLYLVPVVGEPRFERLDRILEEAGGFEELTRRMLEALAERLEELHAEGEEVPRLFRPRPEERVLTVHLNPAYLG,EDAYVAVIRPKSLNSREYRAKSYEILLHEVPKKVLLETKLQSEITQGILDYVVETTKPINQGIRGKRVVLMKKFPLDGEKMGREASLFIVPSVVCPIFYCLQDIMRVCTHFATLTARMLIALDKWLDERHAQSHFIPALFRPSPLERIKTNVINPAYAT,EEEEEELFVFEAEEVVLVVSYLDGLGEGRG,SDQYDVLHRHALYLIIRMVCYDDGLGAGKS
37.0,53,93,B,40,MDAYIAVIRPGSGHSRTFDAADYELLLYEEGERRLLHLELDGDLEEGILSFVEEVTRPEGGGLRGLDVVLLEEFPLGGEEEGEVAYLYLVPVVGEPRFERLDRILEEAGGFEELTRRMLEALAERLEEWHAEGERVPALFRPAPEERVLTDWLNPAYAG,EDAYVAVIRPKSLNSREYRAKSYEILLHEVPKKVLLETKLQSEITQGILDYVVETTKPINQGIRGKRVVLMKKFPLDGEKMGREASLFIVPSVVCPIFYCLQDIMRVCTHFATLTARMLIALDKWLDERHAQSHFIPALFRPSPLERIKTNVINPAYAT,VGEEGIRVRDLSEEREYFFLEAERIVRIVTERDGLGEGRG,VSKYGIKVSTSDQYDVLHRHALYLIIRMVCYDDGLGAGKS
44.0,74,124,B,50,MDAYIAVIRPGAGHSRRFDAADYELLLYEEGRRRLLHLELDGDLEEGILSFVREVTRPEGGGLEGLDVVLLEEFPRGGRRRGEVVRLYLVPVRGEPRFERLDRILARAGGFERLTRRMLEALAERLEEWHAEGERVPALFRPRPEERVLEVLWNPAYLG,EDAYVAVIRPKSLNSREYRAKSYEILLHEVPKKVLLETKLQSEITQGILDYVVETTKPINQGIRGKRVVLMKKFPLDGEKMGREASLFIVPSVVCPIFYCLQDIMRVCTHFATLTARMLIALDKWLDERHAQSHFIPALFRPSPLERIKTNVINPAYAT,EELLVRAVTYDDGLGEGRTLLELLVTDEEEERLGVLTFEAESREEARRLG,LYLIIRMVCYDDGLGAGKSLLALKTTDASNEEYSLWVYQCNSLEQAQAIC
