contacts,cs,ce,Chain,Length,designed_receptor_seq,native_receptor_seq,designed_binder_seq,native_binder_seq
29.0,20,30,A,10,SNADVVFDENKVYLDVIEEEDLLVSKDGTILKNEIKGRIEADVQLSGNPLCELLLNDKAYLDNTGRGSEKGVDLENVKFHECVDKEKYEKDKSIVFKPPVGKFTLMTYEVKEGQKPLIEVDLKTETKDENTVTYTVKVKANYKKEATAKDVKVYIPIPKDSKDWKFKTDKGSVKEDKENSRIVWSIDELPGNTEITATVSGKTDKPPISVDFTIPNFTLSGLKIEDLKIEEKDGKKATANVRYITKNGDYKIETK,RSEGIKYRKNEVFLDVIEAVNLLVSANGNVLRSEIVGSIKMRVFLSGMPELRLGLNDKVLFDNTGRGKSKSVELEDVKFHQCVRLSRFENDRTISFIPPDGEFELMSYRLNTHVKPLIWIESVIEKHSHSRIEYMVKAKSQFKRRSTANNVEIHIPVPNDADSPKFKTTVGSVKWVPENSEIVWSVKSFPGGKEYLMRAHFGLPKPPISVKFEIPYFTTSGIQVRYLKIIEKSGYQALPWVRYITQNGDYQLRTQ,KKEVGFPVKK,AEEVGFPVTP
34.0,16,36,A,20,SNADVVFDENRVFLDVIEEEDLLVSKDGTILKNEIVGRIEADVQLSGNPLCELLLNDRAYLDNTGRGHEKGVNLENVKFHECVDKEKYEKDRSIVFVPPVGKFTLMTYKVTEGQKPLIEVDLKTETKDENTVTYTVKVKANYKKEATAKDVKVYIPIPKDSKDWKFSTDKGSVTEDKENSRIVWTIDELPGDTTITATASGKTDKPPISVDFTIPNFTLSGLKIVDLKIIDKDGNKATAYVRYTTKNGDYKIETK,RSEGIKYRKNEVFLDVIEAVNLLVSANGNVLRSEIVGSIKMRVFLSGMPELRLGLNDKVLFDNTGRGKSKSVELEDVKFHQCVRLSRFENDRTISFIPPDGEFELMSYRLNTHVKPLIWIESVIEKHSHSRIEYMVKAKSQFKRRSTANNVEIHIPVPNDADSPKFKTTVGSVKWVPENSEIVWSVKSFPGGKEYLMRAHFGLPKPPISVKFEIPYFTTSGIQVRYLKIIEKSGYQALPWVRYITQNGDYQLRTQ,EKEEKEEVGFPYEPNKPITP,RAEPAEEVGFPVTPQVPLRP
34.0,6,36,A,30,SNADVVFDENRVFLDVIEEEDLLVSKDGTILKNEIVGRIEADVQLSGNPLCELLLNDRAYLDNTGRGAEHGVNLENVTFHECVDKEAYAKDRSILFTPPVGKFTLMTYKVTEGQKPLIEVDLKTETVDENTVTYTVTVKANYKKVATAENVEVVIPIPADSSNWTFSTDKGSVTEDKENSQIVWKIDKLPGNTTITATASGKTTAPPVSVKFKIPNFTLSGLKIVDLKIIDKDGNKATANVRYTTKNGTYEIETK,RSEGIKYRKNEVFLDVIEAVNLLVSANGNVLRSEIVGSIKMRVFLSGMPELRLGLNDKVLFDNTGRGKSKSVELEDVKFHQCVRLSRFENDRTISFIPPDGEFELMSYRLNTHVKPLIWIESVIEKHSHSRIEYMVKAKSQFKRRSTANNVEIHIPVPNDADSPKFKTTVGSVKWVPENSEIVWSVKSFPGGKEYLMRAHFGLPKPPISVKFEIPYFTTSGIQVRYLKIIEKSGYQALPWVRYITQNGDYQLRTQ,NEELLKKIKELKKENEEVGFPYVPNVPYTP,GWPAVRERMRRAEPAEEVGFPVTPQVPLRP
35.0,22,62,A,40,SNADVVFDENRVYLDVIEEEDLLVSKDGTILKNEIVGRIEADVQLSGNPLCELLLNDRAYLDNTGLGHLKGVNLENVKFHECVDKEKYEKDRSIVFKPPVGKFTLMTYKVTEGQKPLIEVDLKTETKDENTVTYTVTVKANYKKEATAKDVKVYIPIPKDSKDWKFSTDKGSVTEDKENSRIVWTIDELPGETTITATASGKTDKPPVSVDFTIPNFTLSGLRILDLKIIDKDGNKATAYVRYTTKNGDYKIETK,RSEGIKYRKNEVFLDVIEAVNLLVSANGNVLRSEIVGSIKMRVFLSGMPELRLGLNDKVLFDNTGRGKSKSVELEDVKFHQCVRLSRFENDRTISFIPPDGEFELMSYRLNTHVKPLIWIESVIEKHSHSRIEYMVKAKSQFKRRSTANNVEIHIPVPNDADSPKFKTTVGSVKWVPENSEIVWSVKSFPGGKEYLMRAHFGLPKPPISVKFEIPYFTTSGIQVRYLKIIEKSGYQALPWVRYITQNGDYQLRTQ,AVGYPYEKDVPIYPLTKEEAEKEYNRLKKEGGLEGKKYKK,EVGFPVTPQVPLRPMTYKAAVDLSHFLKEKGGLEGLIHSQ
35.0,12,62,A,50,SNADVVFDENRVFLDVIEEEDLLVSADGTVLKNEIVGRIEADVQLSGNPLCELHLNDRAYLDNTGLGHLHGVDLTDVRFHECVDREAYARDRSILFRPPVGRFTLMTYRVTEGQVPLIEVDLERRVEDEGTVTYRVRVRANYRREATARDVAVVIPVPADSRDWRFETDVGSVTEDPAAAAIVWRIPELPGGTTVEATVSGRGDAPPVSVTFRIPDFTLSGLRVEALRIEDAAGTEAVALVRYTTRHGRYEIATG,RSEGIKYRKNEVFLDVIEAVNLLVSANGNVLRSEIVGSIKMRVFLSGMPELRLGLNDKVLFDNTGRGKSKSVELEDVKFHQCVRLSRFENDRTISFIPPDGEFELMSYRLNTHVKPLIWIESVIEKHSHSRIEYMVKAKSQFKRRSTANNVEIHIPVPNDADSPKFKTTVGSVKWVPENSEIVWSVKSFPGGKEYLMRAHFGLPKPPISVKFEIPYFTTSGIQVRYLKIIEKSGYQALPWVRYITQNGDYQLRTQ,AAAAAAPADAAVGFPVEPGVPRRPLTDAEAAALRDYLARTGGLAGRTYRP,ERMRRAEPAEEVGFPVTPQVPLRPMTYKAAVDLSHFLKEKGGLEGLIHSQ
19.0,60,70,B,10,SPELEAGWPAVRDAMLATPPDAVPGRPRVPGRPLRPMTREAAVALSRFLRERGGLEGLVYSQARKDLLADWLYETLGFVPDWDCFTPGPGVRYPLQHGWCYRLVPIDPAAAEAAAAEAADAAAQVLAYRYDASLADRHVARELHPEFFA,SKSSVIGWPAVRERMRRAEPAEEVGFPVTPQVPLRPMTYKAAVDLSHFLKEKGGLEGLIHSQRRQDILDLWIYHTQGYFPDWQNYTPGPGVRYPLTFGWCYKLVPVEPDKVEEANKGENDPEREVLEWRFDSRLAFHHVARELHPEYFK,PEPDGRGACP,FDNTGRGKSK
22.0,51,71,B,20,SPELEAGWPAVRDAMLATPPDAVPGRPRVPGRPLRPMTREAAVALSRFLRERGGLEGLVYSQARKDLLTDFLYETLGFVPWWDCFTPGPGVRYPLQHGWCYRLVPIDPAAAEAAAAAAADAAAQRLAFRYDESLADRHVARELHPEFFA,SKSSVIGWPAVRERMRRAEPAEEVGFPVTPQVPLRPMTYKAAVDLSHFLKEKGGLEGLIHSQRRQDILDLWIYHTQGYFPDWQNYTPGPGVRYPLTFGWCYKLVPVEPDKVEEANKGENDPEREVLEWRFDSRLAFHHVARELHPEYFK,PPLLPDRAWLEAHGRGAAPG,RLGLNDKVLFDNTGRGKSKS
23.0,213,243,B,30,SEALEKGWPEVRDKMLATPPDSVPGYPFEPGKPRRPMTYEAAKELSLFLKEKGGLEGLVYSQERKDILEKFLYETLGFWPDWSEFTPGPGIRYPYQWGWCYRLVPIDPEEAKKAEEEKKDPEKQVLAFRYDESLMEKHVAKELHPEAFK,SKSSVIGWPAVRERMRRAEPAEEVGFPVTPQVPLRPMTYKAAVDLSHFLKEKGGLEGLIHSQRRQDILDLWIYHTQGYFPDWQNYTPGPGVRYPLTFGWCYKLVPVEPDKVEEANKGENDPEREVLEWRFDSRLAFHHVARELHPEYFK,EEDFTESGARVKSVEVKLKGGGEVEVKVRF,IPYFTTSGIQVRYLKIIEKSGYQALPWVRY
23.0,51,91,B,40,SPELEKGWPEVAEKMKATPPEEEEGEPEEPGKPYRPMTKEAAVELSEFLKKKGGLEGMVYSQERKDILTKFLYEKLGFYPDFLCFTPGPGVRYPLQHGWCYRLVPIEPEEAEKAEKEEEDPEKQKLAFRYDPELAEKHVAEELHPEFFE,SKSSVIGWPAVRERMRRAEPAEEVGFPVTPQVPLRPMTYKAAVDLSHFLKEKGGLEGLIHSQRRQDILDLWIYHTQGYFPDWQNYTPGPGVRYPLTFGWCYKLVPVEPDKVEEANKGENDPEREVLEWRFDSRLAFHHVARELHPEYFK,EVRLPWKRWLDEHGRGEAPGVELKDVEFHPSVDLEKVRKA,RLGLNDKVLFDNTGRGKSKSVELEDVKFHQCVRLSRFEND
23.0,41,91,B,50,SEALEKGWPEVAEKMKATPPEEEEGEPEEPGKPYRPMTYEAAKELSLFLKEKGGLEGMVYSQERKDILEKFLYETLGFVPDFLCFTPGPGVRYPLQHGWCYRLVPIEPEEAEKAEKEEEDPEKQRLAFRYDESLAEKHVAEELHPEFFE,SKSSVIGWPAVRERMRRAEPAEEVGFPVTPQVPLRPMTYKAAVDLSHFLKEKGGLEGLIHSQRRQDILDLWIYHTQGYFPDWQNYTPGPGVRYPLTFGWCYKLVPVEPDKVEEANKGENDPEREVLEWRFDSRLAFHHVARELHPEYFK,ELELEGEPELVLRLPWRRYLERTGRGEAPGVELKDVEFHPLVDREKVEKE,RVFLSGMPELRLGLNDKVLFDNTGRGKSKSVELEDVKFHQCVRLSRFEND
