contacts,cs,ce,Chain,Length,designed_receptor_seq,native_receptor_seq,designed_binder_seq,native_binder_seq
16.0,99,109,A,10,VPPLPDVVCRVYNVEYMDCTWDYRNQPVPVNLEITYRYDSSHTWNKCSNYLYTDSITSGCRLTKDQIFLYTTFIVTIKNPLNPAEIKTQRLLRNRVVPYAPRNLRLYKLDDNKLELTWENDHYDRCLSHLVQWKTDEDSDWHSQFVDYSRTFTLPEVDGSKKYTFRVKSRYYPNCGDATEWSDWSEPITWGSP,PLPLPEVQCFVFNVEYMNCTWQSSSEPQPTNLTLHYWYNSDNDVQKCSHYLFSEEITSGCQLQKKEIHLYQTFVVQLQDPREPRRQATQMLLQNLVIPWAPENLTLHKLSESQLELNWNNRFLNHCLEHLVQYRTDWDHSWTEQSVDYRHKFSLPSVDGQKRYTFRVRSRFNPLCGSAQHWSEWSHPIHWGSN,PGVWERQRLN,SFVHIVQMFI
16.0,89,109,A,20,VPPLPDVVCRVYNVEYMDCTWDYRNQPVPVNLEITYRYDSSHTWNKCSNYLYTDSITSGCRLTKDQIFLYTDFIVTIKNPLNPAEIKTQTLLRDRVVPYAPRNLKLYKLDDNKLELTWENDHYDRCLSHLVQWKTDEDSDWSSQFVDYSRTFTLPEVDGSKKYTFRVKSRYYPNCGDAEEWSDWSEPITWGSP,PLPLPEVQCFVFNVEYMNCTWQSSSEPQPTNLTLHYWYNSDNDVQKCSHYLFSEEITSGCQLQKKEIHLYQTFVVQLQDPREPRRQATQMLLQNLVIPWAPENLTLHKLSESQLELNWNNRFLNHCLEHLVQYRTDWDHSWTEQSVDYRHKFSLPSVDGQKRYTFRVRSRFNPLCGSAQHWSEWSHPIHWGSN,PPPVTEEYYRELRRILQKLN,ELEENIEFLQSFVHIVQMFI
16.0,79,109,A,30,VPPLPDVVCRVYNVEYMDCTWDYRNQPVPVNLEITYRYDSDHEWHECKDYLYEDDIVSGCRLEKEEIFLYTDFIVTIKNPENPEEVKVQTLLRDRVVPYAPRNLRLYELDENKLELTWENDHYDRCLSHLVQWKTDEDEEWSEEEVDYSRTFTLPEVDGSKKYTFRVKSRYYPRCGDAEEWSEWSEPITWGEP,PLPLPEVQCFVFNVEYMNCTWQSSSEPQPTNLTLHYWYNSDNDVQKCSHYLFSEEITSGCQLQKKEIHLYQTFVVQLQDPREPRRQATQMLLQNLVIPWAPENLTLHKLSESQLELNWNNRFLNHCLEHLVQYRTDWDHSWTEQSVDYRHKFSLPSVDGQKRYTFRVRSRFNPLCGSAQHWSEWSHPIHWGSN,EEEEGELEEEELEEDEEYEEELEWVLQKLN,VTESGCKECEELEENIEFLQSFVHIVQMFI
17.0,0,40,A,40,VPPLPDVVCRVYNVEYMDCTWDYRNQPVPVNLEITYRYVDDHEVHKCEDYLYEDDIVSGCRLTKDQIFLYSTFVVTLKNPLNPEEVKVQRLLSDRVVPYAPRNLRLYELDENKLELTWENDHYDWCLSHLVQWKTDEDEEWHEEFVDYSRRFTLPEVDGSKRYTFRVKSRYYPRCGNAEEWSEWSEPITWGSP,PLPLPEVQCFVFNVEYMNCTWQSSSEPQPTNLTLHYWYNSDNDVQKCSHYLFSEEITSGCQLQKKEIHLYQTFVVQLQDPREPRRQATQMLLQNLVIPWAPENLTLHKLSESQLELNWNNRFLNHCLEHLVQYRTDWDHSWTEQSVDYRHKFSLPSVDGQKRYTFRVRSRFNPLCGSAQHWSEWSHPIHWGSN,GGEEEEEEEEEEEEEEEEEEEEEEEEEVEEVDPEEEEEAE,MGNWVNVISDLIEDLIQSMHIDATLYTESDVHPSCKVTAM
17.0,0,50,A,50,VPPLPDVVCRVYNVEYMDCTWDYRNQPVPVNLEITYRYVDDHEVHKCEDYLYEDDIVSGCRLTKDQIFLYSTFVVTLKNPLNPEEVKVQRLLHDRVVPYAPRNLRLYELDENKLELTWENDHYDWCLSHLVQWKTDEDEEWHEEFVDYSRRFTLPEVDGSKRYTFRVKSRYYPLCGTAEEWSEWSEPITWGEP,PLPLPEVQCFVFNVEYMNCTWQSSSEPQPTNLTLHYWYNSDNDVQKCSHYLFSEEITSGCQLQKKEIHLYQTFVVQLQDPREPRRQATQMLLQNLVIPWAPENLTLHKLSESQLELNWNNRFLNHCLEHLVQYRTDWDHSWTEQSVDYRHKFSLPSVDGQKRYTFRVRSRFNPLCGSAQHWSEWSHPIHWGSN,GGLFVEALKLLKGLELLEKDINKTYEFVGEVDPEKALEAAELFLKEAEKL,MGNWVNVISDLIEDLIQSMHIDATLYTESDVHPSCKVTAMKCFLLELQVI
13.0,62,72,B,10,GSSWEKVLELNIGKLLEKMDINIKLHTDGNVDPKCKITAMKCFIEELEKIKKASGNEEVKKTVEGLKKEANGALKKLGGKKEEGCPKCEDLPKDVKFLKYFEKIVKMFID,MGNWVNVISDLIEDLIQSMHIDATLYTESDVHPSCKVTAMKCFLLELQVISLESGDASIHDTVENLIILANNSLSSNGNVTESGCKECEELEENIEFLQSFVHIVQMFIN,EPEKVFKYLP,QKKEIHLYQT
13.0,52,72,B,20,GSSWEKVLELNIGKLLEKMDINIKLNTDSEVDPKCKITSMKCFIEELEKIKKASGNEEVKKTVENLKKEANGYLKELGGKKEEGCPKCEDLPKDVKFLKSFEKIVKMFID,MGNWVNVISDLIEDLIQSMHIDATLYTESDVHPSCKVTAMKCFLLELQVISLESGDASIHDTVENLIILANNSLSSNGNVTESGCKECEELEENIEFLQSFVHIVQMFIN,GNNKVVGKVLKKEEIHKYLP,SEEITSGCQLQKKEIHLYQT
17.0,63,93,B,30,GSSWEKVLELNIGKLLEKMDINIKLHTESEVDPKCKITAMKCFIEELEKIKKASGNEEVKKTVENLKKEANGALEKLGKKKETNCPKCEDLPKDVKFLKSFEKIVKEFID,MGNWVNVISDLIEDLIQSMHIDATLYTESDVHPSCKVTAMKCFLLELQVISLESGDASIHDTVENLIILANNSLSSNGNVTESGCKECEELEENIEFLQSFVHIVQMFIN,KGEVNKYTTKVVVAKDPKNPEKKVTVKING,KKEIHLYQTFVVQLQDPREPRRQATQMLLQ
18.0,32,72,B,40,GSSWEKVLELNIGKILEKKNINIKLNTDSEVDPKCKITSMKCFIEELEKIKKESGDKEVEKKVEELKKLANGELEKLGKKKEEGCPKCEDLPKDVKFLKNFEKIVKMFID,MGNWVNVISDLIEDLIQSMHIDATLYTESDVHPSCKVTAMKCFLLELQVISLESGDASIHDTVENLIILANNSLSSNGNVTESGCKECEELEENIEFLQSFVHIVQMFIN,EIKYKYKSKHEENKCKNYLYKDNKISGCELEKEEIFKYEP,TLHYWYNSDNDVQKCSHYLFSEEITSGCQLQKKEIHLYQT
18.0,22,72,B,50,EELWKKVLEDLIGDILKDKNINIKLNTDGEVDPKCKITSMKCFIEELEKIKKESGDKEVEKRVKNLKKKANGYLKKLGKKKEKGCPKCEDLPKDVKFLKNFKKIVEEFID,MGNWVNVISDLIEDLIQSMHIDATLYTESDVHPSCKVTAMKCFLLELQVISLESGDASIHDTVENLIILANNSLSSNGNVTESGCKECEELEENIEFLQSFVHIVQMFIN,EKKEPVPVNFKITYKYKDKNEENECKNYLYKDKIVSGCELKKEEIFKYSP,SSSEPQPTNLTLHYWYNSDNDVQKCSHYLFSEEITSGCQLQKKEIHLYQT
