contacts,cs,ce,Chain,Length,designed_receptor_seq,native_receptor_seq,designed_binder_seq,native_binder_seq
14.0,268,278,A,10,GSSHMAKVGKGAKEAGELVGKLVGELAKDKL,MLAIVAYIGFLALFTGIAAGLLFGLRSAKIL,KIDEELKKLG,QVMLVLKKKQ
18.0,261,281,A,20,GSSSSSSSGFGALFAGLFAGLFVGLLALKIL,MLAIVAYIGFLALFTGIAAGLLFGLRSAKIL,PVVLVVLVGLVLLYLLKRRG,VALVMLAQVMLVLKKKQVEK
18.0,251,281,A,30,GSHMAAAIGFGALFAGIFVGLLVGLLALKIL,MLAIVAYIGFLALFTGIAAGLLFGLRSAKIL,PLLLGLFVLALAVVVVAVELVVLAVLRRRG,ANRVGWLIAFVALVMLAQVMLVLKKKQVEK
18.0,241,281,A,40,GSHMKALIGFGALFAGIFIGLFIGLYALDIL,MLAIVAYIGFLALFTGIAAGLLFGLRSAKIL,GSISFSIDLDILTLGIFILILAIIIIIIELIILYIIKKIK,QLDAEIVLQDANRVGWLIAFVALVMLAQVMLVLKKKQVEK
18.0,231,281,A,50,GSHMAAAIGFGALFAGVFVGLLVGLAALDVL,MLAIVAYIGFLALFTGIAAGLLFGLRSAKIL,AADPAAGGVGLAVSVSVDVDAGVLGLLALALAAAVVAVELVVLAVLRRRG,TNNPNVGGFGQLDAEIVLQDANRVGWLIAFVALVMLAQVMLVLKKKQVEK
12.0,12,22,B,10,SPTELREVYPESPILPDGTITFEKAWLKKTPTYVEVPEKVLPDTVFEVVVKVPFDITVKDVGADGKKVGMDTEAVLVLPKGFKVAPEDKIPEEMKKKIGDVKFEPYGENQENIVMVGPLPGEKYQEIVFPVLSPNPKNDKNIKYGVYDVIVGGNVGRGQIYPDGTLTNNREFLAKKDGKIVKVEEVKGEDGKKVYKVTVEDKDGKKVSQEIPAGPKLKVKKGDVVKKGDVITEDPNVGGFGQVKAKIELADAEKEKKEKEEKEKKEIAEIEKILKEKEEKEKKEKEKKE,YPFWAQQTYPETPREPTGRIVCANCHLAAKPTEVEVPQSVLPDTVFKAVVKIPYDTSVQQVGADGSKVGLNVGAVLMLPEGFKIAPEDRIPEELKEEIGDVYFQPYGEDKDNIVIVGPLPGEQYQEIVFPVLSPNPANDKNIHFGKYSVHVGGNRGRGQVYPTGEKSNNNLYSAAATGTISKIAKQEGEDGSVKYLVDIKTESGEVVSDTIPAGPELIVSEGQAVTAGDALTNNPNVGGFGQLDAEIVLQDANRVGWLIAFVALVMLAQVMLVLKKKQVEKVQAAEMNF,EFKGKLEGKK,LFTGIAAGLL
14.0,10,30,B,20,SPTELREVYPESPILPDGTITFEKAWLKKTPTYVEVPEKVLPDTVFEVVVKVPFDITVKDVGADGSKVGMDTEAVLVLPKGFKVAPEDKIPEEMKKKIGDVKFEPYGENQENIVMVGPLPGEKYQEIVFPVLSPNPKNDKNIKYGVYDVIVGGNVGRGQIYPDGTLTNNREFLAKKKGKIVKVEEVKGEDGKKVYKVTVEDENGKEVSQEIPAGPKLKVKEGDVVEKGDVITKDPNVGGFGQVKAKIELADAEKEYKEKLEKAKKEIEEIEKKLKEEEEKIKKEKEKKE,YPFWAQQTYPETPREPTGRIVCANCHLAAKPTEVEVPQSVLPDTVFKAVVKIPYDTSVQQVGADGSKVGLNVGAVLMLPEGFKIAPEDRIPEELKEEIGDVYFQPYGEDKDNIVIVGPLPGEQYQEIVFPVLSPNPANDKNIHFGKYSVHVGGNRGRGQVYPTGEKSNNNLYSAAATGTISKIAKQEGEDGSVKYLVDIKTESGEVVSDTIPAGPELIVSEGQAVTAGDALTNNPNVGGFGQLDAEIVLQDANRVGWLIAFVALVMLAQVMLVLKKKQVEKVQAAEMNF,PEEFKGLYEGLKKGREKLKL,LALFTGIAAGLLFGLRSAKI
14.0,0,30,B,30,SPTELREVYPESPILPDGTITFEKAWLKKTPTYVEVPEAVLPDSVFEVVVKVPFDITVKDVGADGKKVGMDTEAVLVLPKGFKVAPEDKIPEEMKKKIGDVKFEPYGENQENIVMVGPLPGEKYQEIVFPVLSPNPKNDKDIKYGVYDVIVGGNVGRGQIYPDGTLTNNREFLAKKKGKIVKVEEVKGEDGKKVYKVTVEDENGKEVSQEIPAGPKLKVKEGDVVEKGDVITKDPNVGGFGQVKAKIKLADAKEYYEKAKKEAEEIIKKIEEELKKAEEEIKKAEEKKG,YPFWAQQTYPETPREPTGRIVCANCHLAAKPTEVEVPQSVLPDTVFKAVVKIPYDTSVQQVGADGSKVGLNVGAVLMLPEGFKIAPEDRIPEELKEEIGDVYFQPYGEDKDNIVIVGPLPGEQYQEIVFPVLSPNPANDKNIHFGKYSVHVGGNRGRGQVYPTGEKSNNNLYSAAATGTISKIAKQEGEDGSVKYLVDIKTESGEVVSDTIPAGPELIVSEGQAVTAGDALTNNPNVGGFGQLDAEIVLQDANRVGWLIAFVALVMLAQVMLVLKKKQVEKVQAAEMNF,GEKVKAAVGFGAAFAGLYAGLKAGRKALGL,MLAIVAYIGFLALFTGIAAGLLFGLRSAKI
0.0,0,0,B,0,MPDELREVYPESPILPDGTITFEKFWLKKTPTYVEVPEKVLPDTVFEVVVKVPFDLTVKDVGADGSKVGMDTEAVLVLPKGFKVAPEDLIPEEMKKKIGDVKFEPYGENQENIVMVGPLPGEKYQEIVFPVLSPNPKNDKNIKYGVYDVIVGGNVGRGQIYPDGTLTNNREFLAKKDGKIVKVEEVKGEDGKKVYKVTVEDENGKKVSQEIPAGPKLKVKKGDVVKKGDVITKDPNVGGFGQVKAKIKLADAEEERKKKEEEEKKKKEEEEKKKKEEEEKKKKEEEKKK,YPFWAQQTYPETPREPTGRIVCANCHLAAKPTEVEVPQSVLPDTVFKAVVKIPYDTSVQQVGADGSKVGLNVGAVLMLPEGFKIAPEDRIPEELKEEIGDVYFQPYGEDKDNIVIVGPLPGEQYQEIVFPVLSPNPANDKNIHFGKYSVHVGGNRGRGQVYPTGEKSNNNLYSAAATGTISKIAKQEGEDGSVKYLVDIKTESGEVVSDTIPAGPELIVSEGQAVTAGDALTNNPNVGGFGQLDAEIVLQDANRVGWLIAFVALVMLAQVMLVLKKKQVEKVQAAEMNF,MPDELREVYPESPILPDGTITFEKFWLKKTPTYVEVPEKVLPDTVFEVVVKVPFDLTVKDVGADGSKVGMDTEAVLVLPKGFKVAPEDLIPEEMKKKIGDVKFEPYGENQENIVMVGPLPGEKYQEIVFPVLSPNPKNDKNIKYGVYDVIVGGNVGRGQIYPDGTLTNNREFLAKKDGKIVKVEEVKGEDGKKVYKVTVEDENGKKVSQEIPAGPKLKVKKGDVVKKGDVITKDPNVGGFGQVKAKIKLADAEEERKKKEEEEKKKKEEEEKKKKEEEEKKKKEEEKKKEEEKKKEEEK,
0.0,0,0,B,0,MPDELREVYPESPILPDGTITFEKFWLKKTPTYVEVPEKVLPDTVFEVVVKVPFDLTVKDVGADGSKVGMDTEAVLVLPKGFKVAPEDLIPEEMKKKIGDVKFEPYGENQENIVMVGPLPGEKYQEIVFPVLSPNPKNDKNIKYGVYDVIVGGNVGRGQIYPDGTLTNNREFLAKKDGKIVKVEEVKGEDGKKVYKVTVEDENGKKVSQEIPAGPKLKVKKGDVVKKGDVITKDPNVGGFGQVKAKIKLADAEEERKKKEEEEKKKKEEEEKKKKEEEEKKKKEEEKKK,YPFWAQQTYPETPREPTGRIVCANCHLAAKPTEVEVPQSVLPDTVFKAVVKIPYDTSVQQVGADGSKVGLNVGAVLMLPEGFKIAPEDRIPEELKEEIGDVYFQPYGEDKDNIVIVGPLPGEQYQEIVFPVLSPNPANDKNIHFGKYSVHVGGNRGRGQVYPTGEKSNNNLYSAAATGTISKIAKQEGEDGSVKYLVDIKTESGEVVSDTIPAGPELIVSEGQAVTAGDALTNNPNVGGFGQLDAEIVLQDANRVGWLIAFVALVMLAQVMLVLKKKQVEKVQAAEMNF,MPDELREVYPESPILPDGTITFEKFWLKKTPTYVEVPEKVLPDTVFEVVVKVPFDLTVKDVGADGSKVGMDTEAVLVLPKGFKVAPEDLIPEEMKKKIGDVKFEPYGENQENIVMVGPLPGEKYQEIVFPVLSPNPKNDKNIKYGVYDVIVGGNVGRGQIYPDGTLTNNREFLAKKDGKIVKVEEVKGEDGKKVYKVTVEDENGKKVSQEIPAGPKLKVKKGDVVKKGDVITKDPNVGGFGQVKAKIKLADAEEERKKKEEEEKKKKEEEEKKKKEEEEKKKKEEEKKKEEEKKKEEEK,
