contacts,cs,ce,Chain,Length,designed_receptor_seq,native_receptor_seq,designed_binder_seq,native_binder_seq
15.0,99,109,A,10,DLEKLKELEEKLKELEEP,QDTEKEEQLDLLSAILDP,EEEEEEEEEE,NLLVLRLLLV
20.0,96,116,A,20,MIEELKKLLEELEKLLNP,QDTEKEEQLDLLSAILDP,KEEKEEKEKIEEILKKLEEL,KRANLLVLRLLLVVIFKKTL
20.0,86,116,A,30,MIEELKKLEEELERIKNP,QDTEKEEQLDLLSAILDP,EEEEEEEEEDEEEEEEEEGIEEIEEELEEE,LDDDLPKINDKRANLLVLRLLLVVIFKKTL
20.0,76,116,A,40,MIEELKKLEEELEKIKNP,QDTEKEEQLDLLSAILDP,GFEVKIEVVDEEKEEPREDDLEALKKVLGLIEVLKKLEEG,NEKFEIELLSLDDDLPKINDKRANLLVLRLLLVVIFKKTL
20.0,66,116,A,50,MIEELKKLEEELEKIKNP,QDTEKEEQLDLLSAILDP,GENEIIIELPNFYIKIKIEDKEKEEEEEYDKEEKLLLLGLEIIKKLKEIE,NENKVIIELPNEKFEIELLSLDDDLPKINDKRANLLVLRLLLVVIFKKTL
15.0,1,11,B,10,MGSHKHFHISIYEKDENNESYYLGGESGEEEEEEEEEEEEEEEFEEELELIFEEAKLLEEDGVEVVDENTIVINLPGYAIVIELKDEEEEEEEELDELAELLKLGKNLVIIKLKEELEERLNPEGEVELSVEEDYKILRPLLGKIKFEYYLEELKEIIEEEVLEEIPGASVEEEEGEEEEELEEEIEEYEELFEVPEKIIKIILPEKEGYEPELWLIRSPDYLSYEIEIYFEGEEEEEEVEFEETFTDFEEVREELEEIVEEYLKE,HSVKKFLRVRIFTKIESEDDYILSGESVDRDIRKQIQLLKKIIFEKELYQIKKECALLISYGVSIENENKVIIELPNEKFEIELLSLDDDLPKINDKRANLLVLRLLLVVIFKKTLRSRISSPHGLINLNVDDDILIIRPILGKVRFANYKLLLKKIIKDYVLDIVPGSSITETEVENITKLNKEIRAFDKLLNIPRRELKINLPLTEHKSPNLSLLESPNYCNALIHIKFSAGTEANAVSFDTTFSDFKEVEDFLHFIVAEYIQQ,EEEEEELEEE,DTEKEEQLDL
0.0,0,0,B,0,MGDFKYFRISIYEKDENNESYYLGGISGEISEEEIKKILEEYIFENLLKLIFLEAELLKDDGVEVIDENTIVINLPNYSIIIELTDEEEGEERELDELANLKKLGENLIIILLKIYKEYLENPEGEVELSIEEDFKILRPIIGKIKFEYYLSELKEIIKEEVLDRIPGASIEEKEGEELEEIDELIEKYNELFSVPEKILKIILPEKEGYKPELYLIRSPDYLSKEIEIYFEEEIEGEKVEFEEKFSDFEEVREFLEYIVEEYLLP,HSVKKFLRVRIFTKIESEDDYILSGESVDRDIRKQIQLLKKIIFEKELYQIKKECALLISYGVSIENENKVIIELPNEKFEIELLSLDDDLPKINDKRANLLVLRLLLVVIFKKTLRSRISSPHGLINLNVDDDILIIRPILGKVRFANYKLLLKKIIKDYVLDIVPGSSITETEVENITKLNKEIRAFDKLLNIPRRELKINLPLTEHKSPNLSLLESPNYCNALIHIKFSAGTEANAVSFDTTFSDFKEVEDFLHFIVAEYIQQ,MGDFKYFRISIYEKDENNESYYLGGISGEISEEEIKKILEEYIFENLLKLIFLEAELLKDDGVEVIDENTIVINLPNYSIIIELTDEEEGEERELDELANLKKLGENLIIILLKIYKEYLENPEGEVELSIEEDFKILRPIIGKIKFEYYLSELKEIIKEEVLDRIPGASIEEKEGEELEEIDELIEKYNELFSVPEKILKIILPEKEGYKPELYLIRSPDYLSKEIEIYFEEEIEGEKVEFEEKFSDFEEVREFLEYIVEEYLLPEEEEEEEEEE,
0.0,0,0,B,0,MGDFKYFRISIYEKDENNESYYLGGISGEISEEEIKKILEEYIFENLLKLIFLEAELLKDDGVEVIDENTIVINLPNYSIIIELTDEEEGEERELDELANLKKLGENLIIILLKIYKEYLENPEGEVELSIEEDFKILRPIIGKIKFEYYLSELKEIIKEEVLDRIPGASIEEKEGEELEEIDELIEKYNELFSVPEKILKIILPEKEGYKPELYLIRSPDYLSKEIEIYFEEEIEGEKVEFEEKFSDFEEVREFLEYIVEEYLLP,HSVKKFLRVRIFTKIESEDDYILSGESVDRDIRKQIQLLKKIIFEKELYQIKKECALLISYGVSIENENKVIIELPNEKFEIELLSLDDDLPKINDKRANLLVLRLLLVVIFKKTLRSRISSPHGLINLNVDDDILIIRPILGKVRFANYKLLLKKIIKDYVLDIVPGSSITETEVENITKLNKEIRAFDKLLNIPRRELKINLPLTEHKSPNLSLLESPNYCNALIHIKFSAGTEANAVSFDTTFSDFKEVEDFLHFIVAEYIQQ,MGDFKYFRISIYEKDENNESYYLGGISGEISEEEIKKILEEYIFENLLKLIFLEAELLKDDGVEVIDENTIVINLPNYSIIIELTDEEEGEERELDELANLKKLGENLIIILLKIYKEYLENPEGEVELSIEEDFKILRPIIGKIKFEYYLSELKEIIKEEVLDRIPGASIEEKEGEELEEIDELIEKYNELFSVPEKILKIILPEKEGYKPELYLIRSPDYLSKEIEIYFEEEIEGEKVEFEEKFSDFEEVREFLEYIVEEYLLPEEEEEEEEEE,
0.0,0,0,B,0,MGDFKYFRISIYEKDENNESYYLGGISGEISEEEIKKILEEYIFENLLKLIFLEAELLKDDGVEVIDENTIVINLPNYSIIIELTDEEEGEERELDELANLKKLGENLIIILLKIYKEYLENPEGEVELSIEEDFKILRPIIGKIKFEYYLSELKEIIKEEVLDRIPGASIEEKEGEELEEIDELIEKYNELFSVPEKILKIILPEKEGYKPELYLIRSPDYLSKEIEIYFEEEIEGEKVEFEEKFSDFEEVREFLEYIVEEYLLP,HSVKKFLRVRIFTKIESEDDYILSGESVDRDIRKQIQLLKKIIFEKELYQIKKECALLISYGVSIENENKVIIELPNEKFEIELLSLDDDLPKINDKRANLLVLRLLLVVIFKKTLRSRISSPHGLINLNVDDDILIIRPILGKVRFANYKLLLKKIIKDYVLDIVPGSSITETEVENITKLNKEIRAFDKLLNIPRRELKINLPLTEHKSPNLSLLESPNYCNALIHIKFSAGTEANAVSFDTTFSDFKEVEDFLHFIVAEYIQQ,MGDFKYFRISIYEKDENNESYYLGGISGEISEEEIKKILEEYIFENLLKLIFLEAELLKDDGVEVIDENTIVINLPNYSIIIELTDEEEGEERELDELANLKKLGENLIIILLKIYKEYLENPEGEVELSIEEDFKILRPIIGKIKFEYYLSELKEIIKEEVLDRIPGASIEEKEGEELEEIDELIEKYNELFSVPEKILKIILPEKEGYKPELYLIRSPDYLSKEIEIYFEEEIEGEKVEFEEKFSDFEEVREFLEYIVEEYLLPEEEEEEEEEE,
0.0,0,0,B,0,MGDFKYFRISIYEKDENNESYYLGGISGEISEEEIKKILEEYIFENLLKLIFLEAELLKDDGVEVIDENTIVINLPNYSIIIELTDEEEGEERELDELANLKKLGENLIIILLKIYKEYLENPEGEVELSIEEDFKILRPIIGKIKFEYYLSELKEIIKEEVLDRIPGASIEEKEGEELEEIDELIEKYNELFSVPEKILKIILPEKEGYKPELYLIRSPDYLSKEIEIYFEEEIEGEKVEFEEKFSDFEEVREFLEYIVEEYLLP,HSVKKFLRVRIFTKIESEDDYILSGESVDRDIRKQIQLLKKIIFEKELYQIKKECALLISYGVSIENENKVIIELPNEKFEIELLSLDDDLPKINDKRANLLVLRLLLVVIFKKTLRSRISSPHGLINLNVDDDILIIRPILGKVRFANYKLLLKKIIKDYVLDIVPGSSITETEVENITKLNKEIRAFDKLLNIPRRELKINLPLTEHKSPNLSLLESPNYCNALIHIKFSAGTEANAVSFDTTFSDFKEVEDFLHFIVAEYIQQ,MGDFKYFRISIYEKDENNESYYLGGISGEISEEEIKKILEEYIFENLLKLIFLEAELLKDDGVEVIDENTIVINLPNYSIIIELTDEEEGEERELDELANLKKLGENLIIILLKIYKEYLENPEGEVELSIEEDFKILRPIIGKIKFEYYLSELKEIIKEEVLDRIPGASIEEKEGEELEEIDELIEKYNELFSVPEKILKIILPEKEGYKPELYLIRSPDYLSKEIEIYFEEEIEGEKVEFEEKFSDFEEVREFLEYIVEEYLLPEEEEEEEEEE,
