contacts,cs,ce,Chain,Length,designed_receptor_seq,native_receptor_seq,designed_binder_seq,native_binder_seq
21.0,155,165,A,10,MEELKKILEEIKEKLKEEGKVEVKYPEEPVKLEPDVIGLPRILKEPDGLSRCIGCAACAAACPANAIYVEPALNDPEDPVAKSDTYAKVIQINLLACIFCGACERACPSGALVPGYYFEMEDEDPEERIYTLEEMTEDVVGTRPMRRAAEETGEPVEVPFVVPYVREELKGVEVPVEGKE,TLKALAQSLGITLKYLFSKPVTVPYPDAPVALKPRFHGRHVLTRHPNGLEKCIGCSLCAAACPAYAIYVEPAENDPENPVSAGERYAKVYEINMLRCIFCGLCEEACPTGAIVLGYDFEMADYEYSDLVYGKEDMLVDVVGTKPQRREAKRTGKPVKVGYVVPYVRPELEGFKAPTEGGK,PVEFKGGLKL,PTLFREGRYI
24.0,152,172,A,20,AGILAAVEKAVADALKKAGVKVTDYPKEPVKLEPDVIGLPRLLKNPDGLSRCIGCAACAAACPAFAIYVEPALNDPEDPVAVSDTYAKVVEINLLACIFCGACEKACPSGGLVPGYYFEMEDEDPMDRIYTLDEMTEDVVGTRPMRRAAEATGKPVKVGFVVPYVRDELKGVKAPVDGKD,TLKALAQSLGITLKYLFSKPVTVPYPDAPVALKPRFHGRHVLTRHPNGLEKCIGCSLCAAACPAYAIYVEPAENDPENPVSAGERYAKVYEINMLRCIFCGLCEEACPTGAIVLGYDFEMADYEYSDLVYGKEDMLVDVVGTKPQRREAKRTGKPVKVGYVVPYVRPELEGFKAPTEGGK,GKKPVVFKGGKTIDPEKFKP,GETPTLFREGRYIIPAEFRA
24.0,142,172,A,30,AGILAAVEKAVADALKKAGVKVTNVPEEPLKLEPDVIGRPVLLKNPDGLSRCIGCAACAAACPAVAIYVEPALNDPEDPVAVSDTYAKVVEINLDACIFCGACEKACPSGGLVPGYYFEDEDEDPEERIYTLDEMTEDVVGTRPMRRAAEATGEPVKVGFVVPYVRDELKGVKAPVDGKD,TLKALAQSLGITLKYLFSKPVTVPYPDAPVALKPRFHGRHVLTRHPNGLEKCIGCSLCAAACPAYAIYVEPAENDPENPVSAGERYAKVYEINMLRCIFCGLCEEACPTGAIVLGYDFEMADYEYSDLVYGKEDMLVDVVGTKPQRREAKRTGKPVKVGYVVPYVRPELEGFKAPTEGGK,PDPDDPEVPKGLKPVEFKGGKVIDPEKFKP,GHPLRKDYPLGETPTLFREGRYIIPAEFRA
24.0,132,172,A,40,AGILAAVEKAVADALKKAGVKVTDYPKEPVKLEPDVIGRPVLLKNPDGLSRCIGCAACAAACPAFAIYVEPALNDPEDPVAVSDTYAKVVEINLLACIFCGACEKACPAGALVPGYYFEDEDEDPMDRIYTLDEMTEDVVGTRPMRRAAEATGEPVKVGFVVPYVRDELKGVKAPVEGAE,TLKALAQSLGITLKYLFSKPVTVPYPDAPVALKPRFHGRHVLTRHPNGLEKCIGCSLCAAACPAYAIYVEPAENDPENPVSAGERYAKVYEINMLRCIFCGLCEEACPTGAIVLGYDFEMADYEYSDLVYGKEDMLVDVVGTKPQRREAKRTGKPVKVGYVVPYVRPELEGFKAPTEGGK,EKEEEEEEYEGDPWDEEEPEGLEPVEFKGGKVIDPEEFRP,RKILTPEDLEGHPLRKDYPLGETPTLFREGRYIIPAEFRA
24.0,122,172,A,50,AGILAAVEKAVADALKKAGVKVTDYPKEPVKLEPDVIGRPVLLKNPDGLSRCIGCAACAAACPAFAIYVEPALNDPEDPVAVSDTYAKVVEINLLACIFCGACEKACPSGGLVPGYYFEDEDEDPMDRIYTLDEMTEDVVGTRPMRRAAEATGKPVKVGFVVPYVRDELKGVKAPVDGKD,TLKALAQSLGITLKYLFSKPVTVPYPDAPVALKPRFHGRHVLTRHPNGLEKCIGCSLCAAACPAYAIYVEPAENDPENPVSAGERYAKVYEINMLRCIFCGLCEEACPTGAIVLGYDFEMADYEYSDLVYGKEDMLVDVVGTKPQRREAKRTGKPVKVGYVVPYVRPELEGFKAPTEGGK,GKVVPGAPEVKKGVWPEDYKGDPWDPKTPVGLKPVEFKGGKKIDPLKFLP,GIVFEGHPDLRKILTPEDLEGHPLRKDYPLGETPTLFREGRYIIPAEFRA
10.0,58,68,B,10,MRLEELLEEARKRGYPIEEDERGVLWVELPREEFEEFCRWLKEKGFDYLHAITGVDYLERPEPVPERFEVVYHFEVLPWGEEGDGSRFRVRVFVPEEEPRLPSLYEEWEAARWQEREVYDLFGIRFEGHPEQRRLLVPEDYEGHPLRKDVPLGLEPVEFEGGRVIWPEEARVVLGPRDPGPWEERGGRWEGWEPEE,MRLERVLEEARAKGYPIEDNGLGNLWVVLPRERFKEEMAHYKAMGFNFLADIVGLDYLTYPDPRPERFAVVYELVSLPGWKDGDGSRFFVRVYVPEEDPRLPTVTDLWGSANFLEREVYDLFGIVFEGHPDLRKILTPEDLEGHPLRKDYPLGETPTLFREGRYIIPAEFRAALTGKDPGLTFYKGGSRKGYRSLW,PEECPEFACP,AAACPAYAIY
11.0,50,70,B,20,MLLEKLLEEAKKRGYPIYEDEGGVLYVELPREEFEEFCRWLKELGFDYLHAITGVDYLERPEPVPERFEVVYHFEKLPWGEEGDGSRFRVKVFVPEEEPRLPSLYEEWEAARWQEREVYDLFGIRFEGHPEQRRLLVPEDYEGHPLRKDVPPGLEPVEFEGGKVIWPEERRVDLGPRDPGPWEERGGRWEGWEPEE,MRLERVLEEARAKGYPIEDNGLGNLWVVLPRERFKEEMAHYKAMGFNFLADIVGLDYLTYPDPRPERFAVVYELVSLPGWKDGDGSRFFVRVYVPEEDPRLPTVTDLWGSANFLEREVYDLFGIVFEGHPDLRKILTPEDLEGHPLRKDYPLGETPTLFREGRYIIPAEFRAALTGKDPGLTFYKGGSRKGYRSLW,ECIGCGLCAAVCPEFAIYVP,KCIGCSLCAAACPAYAIYVE
17.0,63,93,B,30,MLLEKLLEYAKEKGYPIEEDEGGELWVELPREEFEEVMKWVKEAGFDYLHAITGVDYLDRAEPVPERFEVVYHFEVLPWGEEGDGSRFRVRVFVPEEEPRLPSLYEEWEAAKWQERETYDMFGIVFEGHPEQKRLLLPEDYEGHPLRKDFPLGLEPVEFEGGRVIWPEEARVVLGPRDPGFWEERGGRWEGWEPEE,MRLERVLEEARAKGYPIEDNGLGNLWVVLPRERFKEEMAHYKAMGFNFLADIVGLDYLTYPDPRPERFAVVYELVSLPGWKDGDGSRFFVRVYVPEEDPRLPTVTDLWGSANFLEREVYDLFGIVFEGHPDLRKILTPEDLEGHPLRKDYPLGETPTLFREGRYIIPAEFRAALTGKDPGLTFYKGGSRKGYRSLW,EYRVLVEWGENDPEEPVAEGEWWAKVVEVV,AYAIYVEPAENDPENPVSAGERYAKVYEIN
20.0,56,96,B,40,MLLEKLLEYAKEKGYPIEEDEGGVLYVTLPREEFKEVMKWVKELGFDYLHAITGVDYLERAEPVPERFEVVYHFEKLPWGEEGDGSRFRVKVFVPEEEPRLPSLYEEWEAAKWHEREVYDLFGIRFEGHPEQKRLLVPEDYEGHPLRKDVPLGLKPVEFEGGRVIWPEERRVVLGPKDPGFWEERGGAWEGWEPEE,MRLERVLEEARAKGYPIEDNGLGNLWVVLPRERFKEEMAHYKAMGFNFLADIVGLDYLTYPDPRPERFAVVYELVSLPGWKDGDGSRFFVRVYVPEEDPRLPTVTDLWGSANFLEREVYDLFGIVFEGHPDLRKILTPEDLEGHPLRKDYPLGETPTLFREGRYIIPAEFRAALTGKDPGLTFYKGGSRKGYRSLW,EEEEECPAFAIYIEWGEVEPEEPVAEEEWYPKVVEVNEEA,LCAAACPAYAIYVEPAENDPENPVSAGERYAKVYEINMLR
20.0,46,96,B,50,MLLEKLLEYAKEKGYPIYEDEGGTLYVELPREEFKEVMKEIKEMGFDYLHAITGVDYLERKEPVPERFEVVYHFEKLPWGEEGDGSRFFVRVFVPEEEPRLPSLYEEWEAAKWQEREVYDLFGIKFEGHPEQKRLLVPEDYEGHPLRKDVPLGLKPVEFEGGRKIYPEEWRVYLGPKDPGFWEERGGAWEGWEPEE,MRLERVLEEARAKGYPIEDNGLGNLWVVLPRERFKEEMAHYKAMGFNFLADIVGLDYLTYPDPRPERFAVVYELVSLPGWKDGDGSRFFVRVYVPEEDPRLPTVTDLWGSANFLEREVYDLFGIVFEGHPDLRKILTPEDLEGHPLRKDYPLGETPTLFREGRYIIPAEFRAALTGKDPGLTFYKGGSRKGYRSLW,EGLCICTGCAVCAAVCPEFAIYVEPAENDPEEPVAEWEWYAKRFEVNEEA,NGLEKCIGCSLCAAACPAYAIYVEPAENDPENPVSAGERYAKVYEINMLR
