contacts,cs,ce,Chain,Length,designed_receptor_seq,native_receptor_seq,designed_binder_seq,native_binder_seq
22.0,88,98,A,10,MGLFDRYNPYAYGQDPRLKLLLVLLFVFALFLVRDWRQWLLLGAFTLFLLLSSRLGGRGYLRGLRPFLWLIPLLLLLQLLLGGGVSAEALRGAGYLLLRFLLVIWFSTWFLLTTRPLDLLRGLAWLLRPLRRLRVPVDELALMLGLALRFLPTLLEEARRIREAQEARGVRFGEGGLLRRLRALLPLLVPLLLLAFRRAEELALAMLARGFGRAEERTSLLRLRPGRWDLLLLLGFLLFLLGLLL,FGRYLPLDSVVHRLDPRAKLMLSFCYIIVVFLANNIWSYAILIAFTVGAILSSKISLGFFLKGIRPLLWLIVFTVVLQLLFSINVTQDGLINAGYIFVRFLLIIMMSTLLTLSTQPLDIATGLASLMKPLRWVKVPVDTLAMMLSIALRFVPTLMDEATKIMNAQRARGVDFGEGGLFKQAKSLIPLMVPLFMSAFNRAEDLSTAMEARGYQDSEHRSQYRILTWQRRDTVTWLLFLLGFVAILI,PPPLPWLARW,VFQFPENQLF
29.0,78,98,A,20,MGLFDRYNPNAYRYDPRLKLLLVLLFVFALFLTRDARQWLLLLAFTAFLIAASRIGGRGYLRGLRPFLWLIPLLLLLQLLLGGGVSAAALAGVGYLGLRFLLVIVFSTLFLLTTRPLDFLRGLAWLLRPLRRLRVPVDELALMLGLALRYLPTLLDETRRIALAQRARGVEFGRGGLRARLRALVPLLVPLLLLAFRGAERLALAMEARCFGRAEARTSLLRLRPGRADLLLALAFLLFLLALLA,FGRYLPLDSVVHRLDPRAKLMLSFCYIIVVFLANNIWSYAILIAFTVGAILSSKISLGFFLKGIRPLLWLIVFTVVLQLLFSINVTQDGLINAGYIFVRFLLIIMMSTLLTLSTQPLDIATGLASLMKPLRWVKVPVDTLAMMLSIALRFVPTLMDEATKIMNAQRARGVDFGEGGLFKQAKSLIPLMVPLFMSAFNRAEDLSTAMEARGYQDSEHRSQYRILTWQRRDTVTWLLFLLGFVAILI,LAPLFRALRVRLPLPWLERW,LKPLRQHVGMVFQFPENQLF
32.0,82,112,A,30,MGSLAVKNPNAIRTDPRLKLLLVLLFVFALFLTRDAVQWLLLLAFTGFLIAASRIGGRGYLRGLRPFLWLIPFLLLFQLLAGGGVSAAAWQGVGYLGLRFLLVIVWSTLFLLTTDPVELLRGLAWLLRPLRRLRVPVDELALMAGLALRYLPTLLDETVRIRDAQRARGVEFGRGGLRARLRALVPLLVPLLVLAFRGAERDALALRARGFGRAEARSSLRRLRPGRADLLLALAFLVFLAGLLL,FGRYLPLDSVVHRLDPRAKLMLSFCYIIVVFLANNIWSYAILIAFTVGAILSSKISLGFFLKGIRPLLWLIVFTVVLQLLFSINVTQDGLINAGYIFVRFLLIIMMSTLLTLSTQPLDIATGLASLMKPLRWVKVPVDTLAMMLSIALRFVPTLMDEATKIMNAQRARGVDFGEGGLFKQAKSLIPLMVPLFMSAFNRAEDLSTAMEARGYQDSEHRSQYRILTWQRRDTVTWLLFLLGFVAILI,AGARRVVLPLPWLERFLPTPALDAAFGPLQ,RQHVGMVFQFPENQLFEETVRQDIAFGPKN
33.0,72,112,A,40,MGSLAVKNPNAIRTDPRLKLLLVLLFSFALYLTRDAVQWLLLLAFTAFLIAASRIGGRGYLRGLRPFLWLIPFLLLLQLLLGGGVSAAAWQGVGYLGLRFLLVIVWSTLFLLTTDPVELLRGLAWLLRPLRRLRVPVDELALGLGLALRFLPTLLDETVRIADAQRARGVRFGEGGLRARLRALVPLLVPLLLVAFRGAERMYLAMLARGFGRAEARSSLRRLRPGRADLLLALAFLVFLAGLLL,FGRYLPLDSVVHRLDPRAKLMLSFCYIIVVFLANNIWSYAILIAFTVGAILSSKISLGFFLKGIRPLLWLIVFTVVLQLLFSINVTQDGLINAGYIFVRFLLIIMMSTLLTLSTQPLDIATGLASLMKPLRWVKVPVDTLAMMLSIALRFVPTLMDEATKIMNAQRARGVDFGEGGLFKQAKSLIPLMVPLFMSAFNRAEDLSTAMEARGYQDSEHRSQYRILTWQRRDTVTWLLFLLGFVAILI,GARLADLEPLFRAVRVVPPLPWLGRFLPTPALDAAFGPLN,ETTNAALKPLRQHVGMVFQFPENQLFEETVRQDIAFGPKN
34.0,48,98,A,50,MGSSAVDIPGAVRRDPRLKLLLVLLFSFALYLVRDARQWLVLLAFTAFLLLASRVGGRGYLRGLRPFLWLIPLLLLLQLLLGGGVSAAAVAGVGYLGLRFLLVVWFSTLFLLTTRPEDFLLALAWLLRPLRRLRVPVDELALGLGLALRFLPVLLDEAVRIADAQRARGVEFGRGGLRRRLRALVPLLVPLLVLAFRRAEELYLALLARGFGDARARTSLRRLEPGRADLLLLAGFLVFLAALLA,FGRYLPLDSVVHRLDPRAKLMLSFCYIIVVFLANNIWSYAILIAFTVGAILSSKISLGFFLKGIRPLLWLIVFTVVLQLLFSINVTQDGLINAGYIFVRFLLIIMMSTLLTLSTQPLDIATGLASLMKPLRWVKVPVDTLAMMLSIALRFVPTLMDEATKIMNAQRARGVDFGEGGLFKQAKSLIPLMVPLFMSAFNRAEDLSTAMEARGYQDSEHRSQYRILTWQRRDTVTWLLFLLGFVAILI,PLLLNAALLPAAGRLRLAPFEVTPGSREADLAPLRRAVRLVYLDPRLVEG,IQQLNALLKPTSGTIKIDEFTITPETTNAALKPLRQHVGMVFQFPENQLF
27.0,158,168,B,10,MIEFKNVSVTYGGKKPGAVTALENVSLKLEEGGFLAVVGPSGSGKSTLVQLLNALLFPTSGELVIDEFRVTPETKEEDLLPLRRYVGFVFQFPEYQLFEETVLEDIAFGPRNFGVDEEEALKRAEEMLKVVGLPEEYAYRSPFELSGGQKRRVALAGVLAMEPKVLVLDEPTAGLDPRGRREMLELFHRLHKERKLTIVLVTHDVEVVARYAKKVAVMYKGKLVGFGTPEEIFADEEWLRKRGLRVPEAAEFAKKLEELGFRFPERPLTFEELARYLRELAKKA,AIAFEHVTYTYQAGTPMAHTALTDVSLTVPDRGYLAIIGHTGSGKSTLIQQLNALLKPTSGTIKIDEFTITPETTNAALKPLRQHVGMVFQFPENQLFEETVRQDIAFGPKNFGMADADALALADEMLTTVGLDQSYAERSPFELSGGQMRRVAIAGVLAMQPKVLVLDEPTAGLDPQGRQEMMRLFARLHQEQGLTIVLVTHQMEDVAQYAEQVAVMHEGRLMKFGTPADVFSNREWLQDHQLDVPQAAQFARRLRDRGLTFPKQPLTADQLADYLAQQWAQR,EEVELALLAL,TKIMNAQRAR
30.0,151,171,B,20,MIEFKNVSVTYGGKKPGAVTALENVSLKLEEGGFLAVVGPSGSGKSTLVQLLNALLFPTSGELVIDEFRVTPETKVEDLKPLRRYVGYVFQFPEHGLFEETVLEDIAFGPRNFGVDREEALKRAEEMLKVVGLPEEYAYRSPFELSGGQKRRVALAGVLAMEPKVLVLDEPTAGLDPRGRREMLELFHRLHKERKLTIVLVTHDVEVVARYADRVAVMYRGRLVGFGTPEEIFADEEWLRRVGLRVPEAAEFAKRLEELGFRFPRRPLTFEELAEYLRELAREG,AIAFEHVTYTYQAGTPMAHTALTDVSLTVPDRGYLAIIGHTGSGKSTLIQQLNALLKPTSGTIKIDEFTITPETTNAALKPLRQHVGMVFQFPENQLFEETVRQDIAFGPKNFGMADADALALADEMLTTVGLDQSYAERSPFELSGGQMRRVAIAGVLAMQPKVLVLDEPTAGLDPQGRQEMMRLFARLHQEQGLTIVLVTHQMEDVAQYAEQVAVMHEGRLMKFGTPADVFSNREWLQDHQLDVPQAAQFARRLRDRGLTFPKQPLTADQLADYLAQQWAQR,VEEEEEEEEVRKALLALGVE,PTLMDEATKIMNAQRARGVD
36.0,160,190,B,30,MIEFKNVSVTYGGKKPGAVTALENVSLKLEEGGFLAVVGPSGSGKSTLVQLLNALLFPTSGELVIDEFRVTPETKVEDLKPLRRYVGYVFQNPEHQLFLPTVREDIAFGPENFGVDREEALKRAEEMLKVVGLPEEYADRSPFELSGGQKRRVALAGVLAMEPKVLVLDEPTAGLDPEGRREMLELFHRLHKERKLTIVLVTHDVETVARYADRVAVMYRGRLVGFGTPEEIFADEEWLRKRGLRVPEAAEFAKRLEELGFRFPERPLTFEELARYLRELAEKG,AIAFEHVTYTYQAGTPMAHTALTDVSLTVPDRGYLAIIGHTGSGKSTLIQQLNALLKPTSGTIKIDEFTITPETTNAALKPLRQHVGMVFQFPENQLFEETVRQDIAFGPKNFGMADADALALADEMLTTVGLDQSYAERSPFELSGGQMRRVAIAGVLAMQPKVLVLDEPTAGLDPQGRQEMMRLFARLHQEQGLTIVLVTHQMEDVAQYAEQVAVMHEGRLMKFGTPADVFSNREWLQDHQLDVPQAAQFARRLRDRGLTFPKQPLTADQLADYLAQQWAQR,RALAQLAIGVEFGEGGEEEERRRLEPLLRP,IMNAQRARGVDFGEGGLFKQAKSLIPLMVP
41.0,154,194,B,40,MIEFKNVSVTYGGKKPGAVTALENVSLKLEEGGFLAVVGPSGSGKSTLVQLLNALLFPTSGELVIDEFRVTPETKEEDLLPLRRYVGYVFQNPEHGLFLPTVREDIAFGPENFGVDREEALKRAEEMLKVVGLPEEYADRSPFELSGGQKRRVALAGVLAMEPKVLVLDEPTAGLDPEGRREMLELFHRLHKERKLTIVLVTHDVETVARYADRVAVMYRGRLVGFGTPEEIFADEEWLRRVYLRVPEAAEFAKRLEELGFRFPERPLTFEELARYLRELAERG,AIAFEHVTYTYQAGTPMAHTALTDVSLTVPDRGYLAIIGHTGSGKSTLIQQLNALLKPTSGTIKIDEFTITPETTNAALKPLRQHVGMVFQFPENQLFEETVRQDIAFGPKNFGMADADALALADEMLTTVGLDQSYAERSPFELSGGQMRRVAIAGVLAMQPKVLVLDEPTAGLDPQGRQEMMRLFARLHQEQGLTIVLVTHQMEDVAQYAEQVAVMHEGRLMKFGTPADVFSNREWLQDHQLDVPQAAQFARRLRDRGLTFPKQPLTADQLADYLAQQWAQR,PEVARRIALAQLAVGVRFGEGGEEERRRALEPLLVPLLRE,MDEATKIMNAQRARGVDFGEGGLFKQAKSLIPLMVPLFMS
41.0,144,194,B,50,MIEFKNVSVTYGGKKEGAVTALENVSLKLEEGGFLAVVGPSGSGKSTLVQLLNALLFPTSGELVIDEFRVTPETKVEDLKPLRRYVGYVFQNPEHQLFLPTVREDIAFGPENFGVDREEALKRAEEMLKVVGLPEEYADRSPFELSGGQKRRVALAGVLAMEPKVLVLDEPTAGLDPEGRREMLELFHRLHKERKLTIVLVTHDVETVARYADRVAVMYRGRLVGFGTPEEIFADEEWLRKRGLRVPEAAEFAKRLEELGFRFPERPLTFEELARYLRELAEKA,AIAFEHVTYTYQAGTPMAHTALTDVSLTVPDRGYLAIIGHTGSGKSTLIQQLNALLKPTSGTIKIDEFTITPETTNAALKPLRQHVGMVFQFPENQLFEETVRQDIAFGPKNFGMADADALALADEMLTTVGLDQSYAERSPFELSGGQMRRVAIAGVLAMQPKVLVLDEPTAGLDPQGRQEMMRLFARLHQEQGLTIVLVTHQMEDVAQYAEQVAVMHEGRLMKFGTPADVFSNREWLQDHQLDVPQAAQFARRLRDRGLTFPKQPLTADQLADYLAQQWAQR,LRREVLRPVLEELRERIRLAQLAVGVEFGEGGEEERLRRLEPLLRPLLRA,SIALRFVPTLMDEATKIMNAQRARGVDFGEGGLFKQAKSLIPLMVPLFMS
