contacts,cs,ce,Chain,Length,designed_receptor_seq,native_receptor_seq,designed_binder_seq,native_binder_seq
32.0,25,35,A,10,MNPAYAATVARLYRALALPPPAAQAGVLSLQVGPHRCYLAEYPADYLLMFTELDGRGDPSDGEINQATDDPFKPYLGQDPESGRRVLYNMAALADLDEARVFHQLERLVAAAERLD,MNPLYRAAIHQLFLALDLPTPNDEESVLSLQVGPHLCHLAEHPTDHLLMFTRLEGQGDATANEQNLFSQDPCKPILGRDPESGERLLWNRQPLQLLDRAQIHHQLEQLVAAAEELR,VLPALGARHG,LLSRLGAALA
47.0,15,35,A,20,MNPAYAATVARLYRALRLPPPAAAAGVLSLQVGPHRCYLAEQPADELLMFTVLDDRGDPSDGEINQATQDPFKPRLTQDPASGQRILWNRAALADLDEARVHHQLQQLVAEAERLD,MNPLYRAAIHQLFLALDLPTPNDEESVLSLQVGPHLCHLAEHPTDHLLMFTRLEGQGDATANEQNLFSQDPCKPILGRDPESGERLLWNRQPLQLLDRAQIHHQLEQLVAAAEELR,AAEAAPRGEDLLARLGARHG,QRQEAPKGEGLLSRLGAALA
59.0,15,45,A,30,MNPAYAATVARLERALALPPAAAREGVLALQVGPHLCFLAEEPADELLMFTVLDDRGDPSDGEINRATQDPFKPRLSQDPLSGQRVLWNRAALADLDEARVHHQLQQLVAEAERLD,MNPLYRAAIHQLFLALDLPTPNDEESVLSLQVGPHLCHLAEHPTDHLLMFTRLEGQGDATANEQNLFSQDPCKPILGRDPESGERLLWNRQPLQLLDRAQIHHQLEQLVAAAEELR,AALAAPRGEDLLAALGARWAEPPAALLGAL,QRQEAPKGEGLLSRLGAALARPFVAIIEWL
66.0,9,49,A,40,MNPAYAATVARLERALALPPAAAREGVLALQVGPHLCYLAEHPADELLMFTELDDRGDPSDGEINQATQDPFKPRLTQDPLSGRRRLQNRAALADLDEARVHHQLQQLVAEAERLD,MNPLYRAAIHQLFLALDLPTPNDEESVLSLQVGPHLCHLAEHPTDHLLMFTRLEGQGDATANEQNLFSQDPCKPILGRDPESGERLLWNRQPLQLLDRAQIHHQLEQLVAAAEELR,AAAAAAGRRAAPRGEDLLAALGARHAEPPAALLEWLGEAL,EAQQLAQRQEAPKGEGLLSRLGAALARPFVAIIEWLGKLL
0.0,0,0,A,0,MNPAYAATVARLYDALALPPPAAAADVLSLQVGRHRCFLAEDPADELLMWTELDDRGDPSDGEINRATADPFRPRLDQDPLSGRRTLWNRAALADLDGDRVRHQLARLVAAADRLD,MNPLYRAAIHQLFLALDLPTPNDEESVLSLQVGPHLCHLAEHPTDHLLMFTRLEGQGDATANEQNLFSQDPCKPILGRDPESGERLLWNRQPLQLLDRAQIHHQLEQLVAAAEELR,MNPAYAATVARLYDALALPPPAAAADVLSLQVGRHRCFLAEDPADELLMWTELDDRGDPSDGEINRATADPFRPRLDQDPLSGRRTLWNRAALADLDGDRVRHQLARLVAAADRLDAALEHHHHHH,
25.0,25,35,B,10,GSMLVDVPEDVKKLAKLKVAPFGENLLDKLGVKKAEPPKELIEKANEILK,EARQVATPREAQQLAQRQEAPKGEGLLSRLGAALARPFVAIIEWLGKLLG,GVDVYKVGDF,SVLSLQVGPH
32.0,15,35,B,20,GSHMVAVPAEVEALAGRRVAPFGEGLLAALGARWAEPPAELLEAAGRVLA,EARQVATPREAQQLAQRQEAPKGEGLLSRLGAALARPFVAIIEWLGKLLG,LGLPPPAAREGVLALAVGPL,LDLPTPNDEESVLSLQVGPH
38.0,12,42,B,30,GSMLTAVPADVVALAGRRVAPGGEGLLDALGARWAEPPAALLERLGRVLA,EARQVATPREAQQLAQRQEAPKGEGLLSRLGAALARPFVAIIEWLGKLLG,PAALALPPPAAREGVLALQVGPALVALAGA,FLALDLPTPNDEESVLSLQVGPHLCHLAEH
39.0,8,48,B,40,GSMLTAVPAHVVALAGRRLAPRGEGALAALGARHAEPPAALLERLGRVLA,EARQVATPREAQQLAQRQEAPKGEGLLSRLGAALARPFVAIIEWLGKLLG,LAALERALALPPAAARAGVRALQVGPALLLLAEAPAARLL,IHQLFLALDLPTPNDEESVLSLQVGPHLCHLAEHPTDHLL
43.0,20,70,B,50,GSHMVEVPEHVKKLSKRKRAPSGEGLLEKLGAKLAEPPEEVLEALGKVLE,EARQVATPREAQQLAQRQEAPKGEGLLSRLGAALARPFVAIIEWLGKLLG,GEEKEGVLALQVGPFLVFLAEYPKDHLLLFSLLDEEGDPSDSLENLRSQY,PNDEESVLSLQVGPHLCHLAEHPTDHLLMFTRLEGQGDATANEQNLFSQD
