contacts,cs,ce,Chain,Length,designed_receptor_seq,native_receptor_seq,designed_binder_seq,native_binder_seq
23.0,116,126,A,10,GSPEPGIFYRPWEVSAGLVPVGSTLATYGRLEEYDEEKSLALLLAEREGELHEVLVDTRRVEPFRAERGAWYVVVGRLEARPGEGAVVRAEALENVEGVDLPRLEEAVRRAREARRAG,MLPKPGTYYLPWEVSAGQVPDGSTLRTFGRLCLYDMIQSRVTLMAQHGSDQHQVLVCTKLVEPFHAQVGSLYIVLGELQHQQDRGSVVKARVLTCVEGMNLPLLEQAIREQRLYKQER,RLEEEIERLL,VWNIQIARML
33.0,113,133,A,20,GSPEPGIFYRPEEVSAGLVPVGSTLATYGRLEEYDGERSLALLLAERGGELHEVLVDTRRVEPFRAERGAWYVVVGRLEARPGGGAVVRAEELRNVEGVDLPRLEEAVRRAREALRAG,MLPKPGTYYLPWEVSAGQVPDGSTLRTFGRLCLYDMIQSRVTLMAQHGSDQHQVLVCTKLVEPFHAQVGSLYIVLGELQHQQDRGSVVKARVLTCVEGMNLPLLEQAIREQRLYKQER,EDPTFGREIDLLLALPGVLG,DDPVWNIQIARMLELPTIYR
34.0,107,137,A,30,GSPEPGIFYRPEEVSAGLVPVGSTLATYGRLREYDGERHLALLLAERGGELHEVLVDTRRVEPFRAERGAWYVVVGRLEAREGEGAVVRAERLENVEGVDLPRLLEAVRRRREALRAL,MLPKPGTYYLPWEVSAGQVPDGSTLRTFGRLCLYDMIQSRVTLMAQHGSDQHQVLVCTKLVEPFHAQVGSLYIVLGELQHQQDRGSVVKARVLTCVEGMNLPLLEQAIREQRLYKQER,GRARVVDDPRFEVRIDLLLALPGVYERVLR,TTYYKVDDPVWNIQIARMLELPTIYRKVYD
35.0,97,137,A,40,GSPEPGIFYRPWEVSAGLVPVGSTLATYGRLREYDGERHLALLLAEREGELHEVLVDTRRVEPFRAERGAWYVVVGRLEAREGEGAVVRAERLLNVEGVDLPRLLEAVRRAREARRAR,MLPKPGTYYLPWEVSAGQVPDGSTLRTFGRLCLYDMIQSRVTLMAQHGSDQHQVLVCTKLVEPFHAQVGSLYIVLGELQHQQDRGSVVKARVLTCVEGMNLPLLEQAIREQRLYKQER,EREGRWEVEYERAEVVEDPRFERLIDLLLALPGVWERVLR,TYREEREIHATTYYKVDDPVWNIQIARMLELPTIYRKVYD
36.0,83,133,A,50,GSPEPAIDYFPWEVSAGLVPVGSTLATYGRLREYDGERHLALLLAERGGELHEVRVDTRRVEPFRAERGAYYVVRGRLEAREGEGAVVRAEVLRNVAGVDLPRLLEAVRRRREALRAG,MLPKPGTYYLPWEVSAGQVPDGSTLRTFGRLCLYDMIQSRVTLMAQHGSDQHQVLVCTKLVEPFHAQVGSLYIVLGELQHQQDRGSVVKARVLTCVEGMNLPLLEQAIREQRLYKQER,VGVGDVVEVVGRLRERRGRREVVAERARVVDDPRFEVLVDALLAVPGVRE,IEIGDTIRVRGSIRTYREEREIHATTYYKVDDPVWNIQIARMLELPTIYR
18.0,0,10,B,10,GSGSYARLYIADILRMPESEEEPGVYLYNGHPIRRVDILGTVVGVEEKEKYRRYAVDDGTGVIDCIVWKKKKKKKKKKKKKKEIKVGDIVRVKGSIREYKGEREIWADYAEKVDDPDGLIRRARRALLPLIYALVYDQPAG,VFLAFAKLYIRDILDMKESRQVPGVFLYNGHPIKQVDVLGTVIGVRERDAFYSYGVDDSTGVINCICWKKLKKLQETIEQKTKIEIGDTIRVRGSIRTYREEREIHATTYYKVDDPVWNIQIARMLELPTIYRKVYDQPFH,ELPEPEVEEE,MLPKPGTYYL
32.0,94,114,B,20,GSGSYARLYISDILTMPESEEEPGVYLYNGHPIRRVDILGWVVGVEEKEKYRSYLVDDGTGVINCIVPKKKGKKKKKKKKKKEIKVGDIVRVKGSIREYKGERQIVADEAEKVDDPTLTISIDRLLELPGIYERIFNQPAG,VFLAFAKLYIRDILDMKESRQVPGVFLYNGHPIKQVDVLGTVIGVRERDAFYSYGVDDSTGVINCICWKKLKKLQETIEQKTKIEIGDTIRVRGSIRTYREEREIHATTYYKVDDPVWNIQIARMLELPTIYRKVYDQPFH,DFEGVDWPRLEEALRRRREF,CVEGMNLPLLEQAIREQRLY
37.0,84,114,B,30,GSHMYHRLYISDILTMPESEEEPGVYLYNGHPIRRVDILGWVVGVEEKEKFRRYTVDDGTGVIDCIVPKPKGKKKGKKKEEEEIKVGDIVRVKGEIREYRGERQIVADEAEKVDDPTLTIMIDRMLELPGIYERIFNQPAG,VFLAFAKLYIRDILDMKESRQVPGVFLYNGHPIKQVDVLGTVIGVRERDAFYSYGVDDSTGVINCICWKKLKKLQETIEQKTKIEIGDTIRVRGSIRTYREEREIHATTYYKVDDPVWNIQIARMLELPTIYRKVYDQPFH,EEEIEEIVSRDVSGVDVPRLEEAIRRRREF,GSVVKARVLTCVEGMNLPLLEQAIREQRLY
40.0,74,114,B,40,SMGRYHRLYISDILRMPESEEEPGVYLYNGHPIRRVDILGWVVGVRELERFRRYTVDDGTGVIDCVVWKPRGARRGRRRRREEIGVGDIVRVRGEIREYRGEREIHADYAEKVDDPTLEVMIDRLLELPGIYERVFDQPAG,VFLAFAKLYIRDILDMKESRQVPGVFLYNGHPIKQVDVLGTVIGVRERDAFYSYGVDDSTGVINCICWKKLKKLQETIEQKTKIEIGDTIRVRGSIRTYREEREIHATTYYKVDDPVWNIQIARMLELPTIYRKVYDQPFH,LGRLVEREGGGEEVEAEVRRDVSGVDVPRLLEALRRRLES,LGELQHQQDRGSVVKARVLTCVEGMNLPLLEQAIREQRLY
41.0,64,114,B,50,SNAMYHRLYISDILTMPESEEEPGVYLYNGHPIQRVDILGWVVGVRELDKLRIYTVDDGTGVIDCVVPKKGGKKKGKKKEEEEIKVGDIVRVRGAIREYRGEREIHADYAEKVDDPTFTIMIDRMLELPGIYERIYNQPAG,VFLAFAKLYIRDILDMKESRQVPGVFLYNGHPIKQVDVLGTVIGVRERDAFYSYGVDDSTGVINCICWKKLKKLQETIEQKTKIEIGDTIRVRGSIRTYREEREIHATTYYKVDDPVWNIQIARMLELPTIYRKVYDQPFH,EEVEGAYYIAIGTLEENEEGGDVIRAEVLRNVEGVDVPRLEEAIRRREEF,HAQVGSLYIVLGELQHQQDRGSVVKARVLTCVEGMNLPLLEQAIREQRLY
