contacts,cs,ce,Chain,Length,designed_receptor_seq,native_receptor_seq,designed_binder_seq,native_binder_seq
12.0,72,82,A,10,MATTPDEQKRIVGLADKNGKLWNITEVYGPVIKYTVPPEKIKIKTKDGVEVEFDFKDYVKEAFEMWKPSGIKFEEVKEPVVKFKTVNRGDKTLGSTTFDPSGATVVEIDVGSFEKYALDDYDELKKSGAIPEDMTPEEYIKLLLKETIIHEIGHVLGLLHNDEEGKEFPYGKGIVVAKCTLINQKPSIMLNYRKYNYIKELSKYLERPVTIEDIGPSRNDIEGVKVMMRGGSGDSLENRYSCIDLLKYF,AERTPNEEKKVIGYADHNGQLYNITSIYGPVINYTVPDENITINTINRTQLTINYSDYVREAFNEWAPSGIRVQQVSSRVVSFSTTNYADNSLGSTIFDPSGNSRTRIDIGSFNRIVMNNFEKLKSRGAIPANMSPEEYIKLKLRITIKHEIGHILGLLHNNEGGSYFPHGVGLEVARCRLLNQAPSIMLNGSNYDYIDRLSHYLERPVTETDIGPSRNDIEGVRVMRRGGSGNSFTNRFSCLGLGLAF,ELFKKATGEK,LRAAYFTGIK
13.0,62,82,A,20,MATTPDEQKTIVGLADKNGKLYNITEIYGPVIKYTVPPEKIKIKTKDGVEVEFDFKDYVKEAFEMWKPSGIKFEEVEEPVVKFRTVNRGDKTLGSTTFDPSGATTVSIDVGSFEKYALDDYDELKESGAIPEDMTPEEYIKLLLKETIIHEIGHVLGLLHNDEDGKEFPYGKGIVVARCTLINQKPSIMLNYRKYNYIKELSKYLERPVTIEDIGPSRNDIEGVKVMMRGGSGDSLENRYSCIDLLKEF,AERTPNEEKKVIGYADHNGQLYNITSIYGPVINYTVPDENITINTINRTQLTINYSDYVREAFNEWAPSGIRVQQVSSRVVSFSTTNYADNSLGSTIFDPSGNSRTRIDIGSFNRIVMNNFEKLKSRGAIPANMSPEEYIKLKLRITIKHEIGHILGLLHNNEGGSYFPHGVGLEVARCRLLNQAPSIMLNGSNYDYIDRLSHYLERPVTETDIGPSRNDIEGVRVMRRGGSGNSFTNRFSCLGLGLAF,ELPKKIEELIKKFKEATGFK,KRPLERMKDTLRAAYFTGIK
13.0,52,82,A,30,MATTPDEQKRIVGLADKNGKLWNITEVYGPVIKYTVPPEKIKIKTKDGVEVEFDFKDYVKEAFEMWKPSGIKFEEVEEPVVKFRTVRRGDKTLGSTVFDPSGATTVSIDVGSFEKYALDDYDELKKSGAIPEDMTPEEYIKLLLKETIIHEIGHVLGLLHNDEDGKEFPYGKGIVVARCDLINQKPSIMLNYRKYNYIKELSKYLERPVTIEDIGPSLNDINGVKVMMRGGSGDSLENRFSCIDLLKYF,AERTPNEEKKVIGYADHNGQLYNITSIYGPVINYTVPDENITINTINRTQLTINYSDYVREAFNEWAPSGIRVQQVSSRVVSFSTTNYADNSLGSTIFDPSGNSRTRIDIGSFNRIVMNNFEKLKSRGAIPANMSPEEYIKLKLRITIKHEIGHILGLLHNNEGGSYFPHGVGLEVARCRLLNQAPSIMLNGSNYDYIDRLSHYLERPVTETDIGPSRNDIEGVRVMRRGGSGNSFTNRFSCLGLGLAF,EPGEDMSLEELLPYLKKKREELFKKATGRK,VPGSQHLESQKRPLERMKDTLRAAYFTGIK
15.0,64,104,A,40,MATTPDELKRIVGRADKNGKLWNITEVYGPVIKYTVPPEKIKIEVKGKVKVELDFKDYVKEAFEMWKPSGIKFEEVEEPVVKFKTVRKGDKTLGRTVFDPSGATEVEIDVESFKKYALDDYEELKKSGAIPEDMTPEEYILLKLKETIIHEIGHVLGLLHNDEEGKEFPYGKGIVVARCDLINQKPSIMLNYRKYNYIKELSKYLERPVTIEDIGPSLNDIEGVKVMMRGGSGDSLENRFSCIDLLKEF,AERTPNEEKKVIGYADHNGQLYNITSIYGPVINYTVPDENITINTINRTQLTINYSDYVREAFNEWAPSGIRVQQVSSRVVSFSTTNYADNSLGSTIFDPSGNSRTRIDIGSFNRIVMNNFEKLKSRGAIPANMSPEEYIKLKLRITIKHEIGHILGLLHNNEGGSYFPHGVGLEVARCRLLNQAPSIMLNGSNYDYIDRLSHYLERPVTETDIGPSRNDIEGVRVMRRGGSGNSFTNRFSCLGLGLAF,EEELMKKILKFIEKTGAPIYKLLVDLNKNPPKILAIEIRK,PLERMKDTLRAAYFTGIKISKLCAWTNKSPNSIAAIELSN
15.0,54,104,A,50,MATTPNEQKTIVGLADKNGKLYNITEIYGPVIKYTVPPEKIKISVKGKVEVELDFKDYVKEAFEMWKPSGIKFEEVKEPVVKFKTVNKGDKTLGSTVFDPSGATEVSIDVGSFEKYALDNYDELKKSGAIPENMTPEEYILLTLKETIIHEIGHVLGLLHNDEDGKEFPYGKGIVVAKCDLINQKPSIMLNYRKYNYIKELSKYLERPVTIEDIGPSLNDINGVKVMMRGGSGDSLENRYSCIDLLKSF,AERTPNEEKKVIGYADHNGQLYNITSIYGPVINYTVPDENITINTINRTQLTINYSDYVREAFNEWAPSGIRVQQVSSRVVSFSTTNYADNSLGSTIFDPSGNSRTRIDIGSFNRIVMNNFEKLKSRGAIPANMSPEEYIKLKLRITIKHEIGHILGLLHNNEGGSYFPHGVGLEVARCRLLNQAPSIMLNGSNYDYIDRLSHYLERPVTETDIGPSRNDIEGVRVMRRGGSGNSFTNRFSCLGLGLAF,GEELLESEKEPLKIMENILKFIKETGAPIHKLLVDLNKNPPKILAIEIKE,GSQHLESQKRPLERMKDTLRAAYFTGIKISKLCAWTNKSPNSIAAIELSN
7.0,238,248,B,10,SNAQNIEDYCNQFENTEILTLNKSIAKYEYSTEKNNEKVIISFEDGSTYQVAVPGSADSESELLPRKIMESILKAAFVTGIPISKLCVYTDYDPPSIAAIEFSPE,MTPQNITDLCNEYQNTMIYSLNKEIATYTESLAGKREMVIISFSNGATFQVEVPGSQHLESQKRPLERMKDTLRAAYFTGIKISKLCAWTNKSPNSIAAIELSNL,EEENSWKELA,RFSCLGLGLA
7.0,228,248,B,20,SMPKNIEDYCNLFENTEILTLNKSIAKFEYSTEKNNEKVIISFEDGSTFQVPVPGSSMSLSELLPNAIMQSVLKAAFVTGIPISKLCVYTDYDPPAILAIEFSPE,MTPQNITDLCNEYQNTMIYSLNKEIATYTESLAGKREMVIISFSNGATFQVEVPGSQHLESQKRPLERMKDTLRAAYFTGIKISKLCAWTNKSPNSIAAIELSNL,EGGSGLSLKNRFNNLEKLLA,RGGSGNSFTNRFSCLGLGLA
7.0,218,248,B,30,SMPKNIEDYCNLFENTEILTLNKSIAKFEYSTEKNFERVIISFEDGSTFQVAVPGKEMSLSELLPREIMMSVLKAAFVTGIPISKLCVYTDYDPPSIAAIEFSPE,MTPQNITDLCNEYQNTMIYSLNKEIATYTESLAGKREMVIISFSNGATFQVEVPGSQHLESQKRPLERMKDTLRAAYFTGIKISKLCAWTNKSPNSIAAIELSNL,EEEEEEEVKERGGSGLSLENMFHHLEKLKA,NDIEGVRVMRRGGSGNSFTNRFSCLGLGLA
7.0,208,248,B,40,MKPKNIEDYCNLFENTEILTLNKSIAKFEYSTEKNFERVIISFEDGSTFQVAVPGSADSISELLPLEIMRSVLKAAFVTGIPISKLCVYTDFDPPSILAIEFSPE,MTPQNITDLCNEYQNTMIYSLNKEIATYTESLAGKREMVIISFSNGATFQVEVPGSQHLESQKRPLERMKDTLRAAYFTGIKISKLCAWTNKSPNSIAAIELSNL,IPEEEKGPTFYDIMKEKVEKRGGSGDSLENRFFNLEKLLA,VTETDIGPSRNDIEGVRVMRRGGSGNSFTNRFSCLGLGLA
7.0,198,248,B,50,SMPKNIEDYCNLFENTEILTLNKSIAKFEYSTEKNFERVIISFEDGSTFQVAVPGSADSISELLPLEIMRSVLKAAFVTGIPISKLCVYTDFDPPSIAGIEFSPD,MTPQNITDLCNEYQNTMIYSLNKEIATYTESLAGKREMVIISFSNGATFQVEVPGSQHLESQKRPLERMKDTLRAAYFTGIKISKLCAWTNKSPNSIAAIELSNL,EELEELLERPVDEEDKGPTFFDIMKENVEKRGGSGDSLENRFFNLEALKA,DRLSHYLERPVTETDIGPSRNDIEGVRVMRRGGSGNSFTNRFSCLGLGLA
