contacts,cs,ce,Chain,Length,designed_receptor_seq,native_receptor_seq,designed_binder_seq,native_binder_seq
14.0,66,76,A,10,MKSFEVVFDEPDKTYGEGDLVAGKVILEVDEETEVTAVTILARGVQTISWTKDGKPVSDVRAYVNYSDTLRLAEHPEGDDVSVTFKPGKSYEFDFGFTLPEGDLGTSFLGEYGSIDYYVTATLSRPDEPDLTTTTSFNAKGDLLAPVSKSKSASVPSKDIPDGKVSISAKIDRTAYAVGDKISIDASFSNTSAKTVTPKAAIVRNVYYKEGGKIKTKTETLSSISGDDLPSGYSSDWNGKSLTVEKPDTLRDEYALLVYVEVPGYDDVVLKIPLVIGD,IKSFEVVFNDPEKVYGSGEKVAGRVIVEVCEVTRVKAVRILACGVAKVLWMQGSQQCKQTSEYLRYEDTLLLEDQPTGENEMVIMRPGNKYEYKFGFELPQGPLGTSFKGKYGSVDYWVKAFLDRPSQPTQETKKNFEVVPDLMAPVSAKKEKKVSSMFIPDGRVSVSARIDRKGFCEGDEISIHADFENTSSRIVVPKAAIVARHTYLANGQTKVLTQKLSSVRGNHIISGTCASWRGKSLRVQKINILRVEYSLLIYVSVPGSKKVILDLPLVIGS,AAAKVTRWPE,SECEVKCMPT
17.0,56,76,A,20,MKSFEVVFDEPDKTYGEGDLVSGKVILEVDEETEVTAVTILARGVQTISWTKDDKPVSDTRAYVNYSDTLRLAEHPEGDDVSVTFKPGKSYEFDFGFTLPEGDLGTSFLGEYGSIDYYVTATLSRPDEPDLTTTTSFNADGDLLAPVSKSKSASVPSEDIPDGEVSISAKIDRTAYAVGDKISIDASFSNTSDKTVTPKAAIVRNVYYKEDGKIKTKTETLSSISGDDLPSGYSTRWDGKSLTVEDPDTLRNEYALLVYVEVPGYDDVVLKIPLVIGD,IKSFEVVFNDPEKVYGSGEKVAGRVIVEVCEVTRVKAVRILACGVAKVLWMQGSQQCKQTSEYLRYEDTLLLEDQPTGENEMVIMRPGNKYEYKFGFELPQGPLGTSFKGKYGSVDYWVKAFLDRPSQPTQETKKNFEVVPDLMAPVSAKKEKKVSSMFIPDGRVSVSARIDRKGFCEGDEISIHADFENTSSRIVVPKAAIVARHTYLANGQTKVLTQKLSSVRGNHIISGTCASWRGKSLRVQKINILRVEYSLLIYVSVPGSKKVILDLPLVIGS,VDVDEDWEKAKELNITRWPE,VDVDDCQDVASECEVKCMPT
18.0,62,92,A,30,MKSFEVVFDEPDKTYGEGDLVKGKVILEVDEETEVTAVTILARGVQTISWTKDGKPVSDVRAYVNYSDTLRLAEHPEGDDVSVVFKPGKSYEFDFGFKLPEGDLGTSFLGKYGSIDYYVTATLSRPNEPDLTTTTYFNAEGDLLAPVSKSKSVSVPSEDIPDGKVSISAKIDRTAYAVGDKISIDASFSNTSAKTVTPKAAIVRNVYYKEGGKIKTKTETLSSISGKDVPSGTSSDWNGKSLTVEKPDTLRDEYALLVYVEVPGEKDVVLKIPLVIGG,IKSFEVVFNDPEKVYGSGEKVAGRVIVEVCEVTRVKAVRILACGVAKVLWMQGSQQCKQTSEYLRYEDTLLLEDQPTGENEMVIMRPGNKYEYKFGFELPQGPLGTSFKGKYGSVDYWVKAFLDRPSQPTQETKKNFEVVPDLMAPVSAKKEKKVSSMFIPDGRVSVSARIDRKGFCEGDEISIHADFENTSSRIVVPKAAIVARHTYLANGQTKVLTQKLSSVRGNHIISGTCASWRGKSLRVQKINILRVEYSLLIYVSVPGSKKVILDLPLVIGS,EEVKKALNVTMTPTTLVFDGGKQVGRFSGG,QDVASECEVKCMPTFQFFKKGQKVGEFSGA
20.0,52,92,A,40,MKSFEVVFDEPDKTYGAGDLVKGKVVLEVDEETEVTAVTILARGVQTISWKKDGKDVSDTRAYVNYSDTLRLAEHPEGDDKNVVFKPGKSYEFDFGFKLPEGDLGTSFLGKYGSIDYYVTATLSRPNEPDLTTKKEFKAEGDLLAPVSKSKSVSVPSKDIPDGKVSISAKIDKTAYAVGDKISIDASFSNTSAKTVTPKAAIVRNVYYKEGGKIKTKTETLSSISGKDVPSGTSTYWDGKSLKVEKPDTLRDEYALKVYVEVPGEKDVVLTIPLVIGG,IKSFEVVFNDPEKVYGSGEKVAGRVIVEVCEVTRVKAVRILACGVAKVLWMQGSQQCKQTSEYLRYEDTLLLEDQPTGENEMVIMRPGNKYEYKFGFELPQGPLGTSFKGKYGSVDYWVKAFLDRPSQPTQETKKNFEVVPDLMAPVSAKKEKKVSSMFIPDGRVSVSARIDRKGFCEGDEISIHADFENTSSRIVVPKAAIVARHTYLANGQTKVLTQKLSSVRGNHIISGTCASWRGKSLRVQKINILRVEYSLLIYVSVPGSKKVILDLPLVIGS,KVVEIDADKDKKTTEKLKVTMVPTTLVFDGGKQVGRFSGY,IFLEVDVDDCQDVASECEVKCMPTFQFFKKGQKVGEFSGA
30.0,26,76,A,50,MKSFEVVFDEPDKTYGAGDLVAGKVVLEVDEETEVTAVTILARGVQTISWTKDGKPVSDTRAYVNYSDTLRLAEHPEGDDVSVVFKPGKSYEFDFGFTLPEGDLGTSFLGEYGSIDYYVTATLSRPDEPDLTTTTSFNADGDLLAPVSKSKSASVPSEDIPDGKVSISAKIDKTAYAVGDKISIDAFFNNTSDKTVTPKAAIVRNVYYKEGGKIKTKTETLSSISGDDVPSGYCTYWDGKSLTVEKPDTLRDEYALLVYVEVPGEKDVVLKIPLVIGD,IKSFEVVFNDPEKVYGSGEKVAGRVIVEVCEVTRVKAVRILACGVAKVLWMQGSQQCKQTSEYLRYEDTLLLEDQPTGENEMVIMRPGNKYEYKFGFELPQGPLGTSFKGKYGSVDYWVKAFLDRPSQPTQETKKNFEVVPDLMAPVSAKKEKKVSSMFIPDGRVSVSARIDRKGFCEGDEISIHADFENTSSRIVVPKAAIVARHTYLANGQTKVLTQKLSSVRGNHIISGTCASWRGKSLRVQKINILRVEYSLLIYVSVPGSKKVILDLPLVIGS,ATADWCPPSNEIKPYYEAASKKYKDVKFVEIDVNKDKETRDKLKITRVPE,FSATWCGPAKMIKPFFHSLSEKYSNVIFLEVDVDDCQDVASECEVKCMPT
26.0,226,236,B,10,MVVEVKSLEEFKKVLESAGDKLVVVDFTATWCGPCRMLAPVFEELSKKYKNVVFVKVDVDEVKEVAAEFKVTGVPTFKFFKNGEEVGRFSGADPVKLEETIKKLL,MVKQIESKTAFQEALDAAGDKLVVVDFSATWCGPAKMIKPFFHSLSEKYSNVIFLEVDVDDCQDVASECEVKCMPTFQFFKKGQKVGEFSGANKEKLEATINELV,EEVPAGTCTF,NHIISGTCAS
27.0,218,238,B,20,MVIEVKSKEEFEKVLKEAGDKLVVVDFTATWCGPCRMLAPVFEELSKKYKDVVFVKVDVDEVKEVAAEFKVTSVPTFKFFKNGEEVGRFSGADPEKLEKTIKELK,MVKQIESKTAFQEALDAAGDKLVVVDFSATWCGPAKMIKPFFHSLSEKYSNVIFLEVDVDDCQDVASECEVKCMPTFQFFKKGQKVGEFSGANKEKLEATINELV,VVGEKVETKEVPAGTCAYIP,QKLSSVRGNHIISGTCASWR
27.0,208,238,B,30,SVVEVTSLEEFKKVLESAGDKLVVVDFTATWCGPCRMLAPVFEELSKKYKDVVFVKVDVDEVREVTAKFEVRSVPTFKFFKNGEEVGRFSGADPVKLEETIKKLK,MVKQIESKTAFQEALDAAGDKLVVVDFSATWCGPAKMIKPFFHSLSEKYSNVIFLEVDVDDCQDVASECEVKCMPTFQFFKKGQKVGEFSGANKEKLEATINELV,EKGGKKVVEVKVGEKVEGEEVPAGTCAYVF,LANGQTKVLTQKLSSVRGNHIISGTCASWR
27.0,198,238,B,40,MVIEVKSKEEFEKVLKEAGDKLVVVDFTATWCGPCRMLAPVFEELSKKYKDVVFVKVDVDEVKEVAAEFKVTGVPTFKFFKNGEEVGRFSGADPEKLEKTIKELK,MVKQIESKTAFQEALDAAGDKLVVVDFSATWCGPAKMIKPFFHSLSEKYSNVIFLEVDVDDCQDVASECEVKCMPTFQFFKKGQKVGEFSGANKEKLEATINELV,GEAEVEVKVVKEGGKLKAKVEVKKARKYKEVPAGTCAYVF,KAAIVARHTYLANGQTKVLTQKLSSVRGNHIISGTCASWR
32.0,186,236,B,50,MVIEVKSKEEFEKVLKEAGDKLVVVDFTATWCGPCRMLAPVFEELSKKYKDVVFVKVDVDEVKEVAAEFKVRSVPTFKFFKNGEEVGRFSGADPEKLEKTIKELK,MVKQIESKTAFQEALDAAGDKLVVVDFSATWCGPAKMIKPFFHSLSEKYSNVIFLEVDVDDCQDVASECEVKCMPTFQFFKKGQKVGEFSGANKEKLEATINELV,GVCNTSPYTIVPFSAEVEVKVVEEGGKLKAKVVVKKAKLGEPVPSGTCTF,DFENTSSRIVVPKAAIVARHTYLANGQTKVLTQKLSSVRGNHIISGTCAS
