contacts,cs,ce,Chain,Length,designed_receptor_seq,native_receptor_seq,designed_binder_seq,native_binder_seq
26.0,21,31,A,10,MIGKEFLNNLENDNSPPFTVSKD,SVGLSALFDLDLDDSEDFTVNSS,TLREALIEAS,SQKSMSILNS
30.0,15,35,A,20,MIGLDELNNLDNDNSPWFTVSSS,SVGLSALFDLDLDDSEDFTVNSS,GSGSGISQRAVEILKAFVEE,HPDTGISQKSMSILNSFVND
33.0,2,32,A,30,MIGLEYLNNLENDNSPLYTVSEN,SVGLSALFDLDLDDSEDFTVNSS,DNSEEIYKILKEIAPNEGITKREMEILNAF,TYSSYIYKVLKQTHPDTGISQKSMSILNSF
34.0,0,40,A,40,MIGLEYLNNLENDNSPLFEVSEN,SVGLSALFDLDLDDSEDFTVNSS,EEDYSEEIYKILKEVAPNEGITKRAMEILNALVNEVKKEL,KETYSSYIYKVLKQTHPDTGISQKSMSILNSFVNDIFERI
34.0,0,50,A,50,MIGLEYLNNLNNDNSPDFTVSKN,SVGLSALFDLDLDDSEDFTVNSS,KEDHSEKIYEILKKVKPNKKISKRAMEILNALVNETNEKFESLSKKLKEL,KETYSSYIYKVLKQTHPDTGISQKSMSILNSFVNDIFERIATEASKLAAY
34.0,3,13,B,10,MADFSREILRVLKEVHPDIGITDRALEILNEFVNSLFERIATRSVALARVLGAETVTERHIALAVREILPGRLAEEALRAGREAVRRFREERSAVSRSERAGLYFDVDRILELLREYAEGGLRVSEEAAVFLTAVLEYLTRRVLVLAGTAARAEGVEVITPLHLKLAIEGDEELRELVRRTVEFY,KETYSSYIYKVLKQTHPDTGISQKSMSILNSFVNDIFERIATEASKLAAYNKKSTISAREIQTAVRLILPGELAKHAVSEGTRAVTKYSSSTQAQSSSARAGLQFPVGRIKRYLKRHATGRTRVGSKAAIYLTAVLEYLTAEVLELAGNAAKDLKVKRITPRHLQLAIRGDDELDSLIRATIASG,LEELFRLGRE,LSALFDLDLD
61.0,0,20,B,20,MADYSSEILKVLKEVHPDIGITKRAMEILNDFVNSLFERIATRSVQLAKVLGSDTITEEHIRLAVREILPGRLAEEAVKAGREAVERFRKERRARSRSERAGLKFDVDRIKELLKEYAEGGLRVSEEAAVYLTAVLEYLTRKVLELAGSAARALGVEVITPEHLKLAIEGDEELRELVRETIRFR,KETYSSYIYKVLKQTHPDTGISQKSMSILNSFVNDIFERIATEASKLAAYNKKSTISAREIQTAVRLILPGELAKHAVSEGTRAVTKYSSSTQAQSSSARAGLQFPVGRIKRYLKRHATGRTRVGSKAAIYLTAVLEYLTAEVLELAGNAAKDLKVKRITPRHLQLAIRGDDELDSLIRATIASG,REGLELLFELGRDESPLYEE,SVGLSALFDLDLDDSEDFTV
0.0,0,0,B,0,MADFRKEILRVLKEVHPDIGITDEALEVLNEFVNRLFERIATRSVALARVLGADTITSRHIQLAVREILPGRLAERAVERGRAAVERFHRERSAVSVSERAGLYFPVERILELLREYAEGGLRVSTDAAVFLTAVLEYLTREVLVLAGTAARAAGVETITPRHLQLAVRGDEELRELVERTLEEL,KETYSSYIYKVLKQTHPDTGISQKSMSILNSFVNDIFERIATEASKLAAYNKKSTISAREIQTAVRLILPGELAKHAVSEGTRAVTKYSSSTQAQSSSARAGLQFPVGRIKRYLKRHATGRTRVGSKAAIYLTAVLEYLTAEVLELAGNAAKDLKVKRITPRHLQLAIRGDDELDSLIRATIASG,MADFRKEILRVLKEVHPDIGITDEALEVLNEFVNRLFERIATRSVALARVLGADTITSRHIQLAVREILPGRLAERAVERGRAAVERFHRERSAVSVSERAGLYFPVERILELLREYAEGGLRVSTDAAVFLTAVLEYLTREVLVLAGTAARAAGVETITPRHLQLAVRGDEELRELVERTLEELRRRGRGGGGG,
0.0,0,0,B,0,MADFRKEILRVLKEVHPDIGITDEALEVLNEFVNRLFERIATRSVALARVLGADTITSRHIQLAVREILPGRLAERAVERGRAAVERFHRERSAVSVSERAGLYFPVERILELLREYAEGGLRVSTDAAVFLTAVLEYLTREVLVLAGTAARAAGVETITPRHLQLAVRGDEELRELVERTLEEL,KETYSSYIYKVLKQTHPDTGISQKSMSILNSFVNDIFERIATEASKLAAYNKKSTISAREIQTAVRLILPGELAKHAVSEGTRAVTKYSSSTQAQSSSARAGLQFPVGRIKRYLKRHATGRTRVGSKAAIYLTAVLEYLTAEVLELAGNAAKDLKVKRITPRHLQLAIRGDDELDSLIRATIASG,MADFRKEILRVLKEVHPDIGITDEALEVLNEFVNRLFERIATRSVALARVLGADTITSRHIQLAVREILPGRLAERAVERGRAAVERFHRERSAVSVSERAGLYFPVERILELLREYAEGGLRVSTDAAVFLTAVLEYLTREVLVLAGTAARAAGVETITPRHLQLAVRGDEELRELVERTLEELRRRGRGGGGG,
0.0,0,0,B,0,MADFRKEILRVLKEVHPDIGITDEALEVLNEFVNRLFERIATRSVALARVLGADTITSRHIQLAVREILPGRLAERAVERGRAAVERFHRERSAVSVSERAGLYFPVERILELLREYAEGGLRVSTDAAVFLTAVLEYLTREVLVLAGTAARAAGVETITPRHLQLAVRGDEELRELVERTLEEL,KETYSSYIYKVLKQTHPDTGISQKSMSILNSFVNDIFERIATEASKLAAYNKKSTISAREIQTAVRLILPGELAKHAVSEGTRAVTKYSSSTQAQSSSARAGLQFPVGRIKRYLKRHATGRTRVGSKAAIYLTAVLEYLTAEVLELAGNAAKDLKVKRITPRHLQLAIRGDDELDSLIRATIASG,MADFRKEILRVLKEVHPDIGITDEALEVLNEFVNRLFERIATRSVALARVLGADTITSRHIQLAVREILPGRLAERAVERGRAAVERFHRERSAVSVSERAGLYFPVERILELLREYAEGGLRVSTDAAVFLTAVLEYLTREVLVLAGTAARAAGVETITPRHLQLAVRGDEELRELVERTLEELRRRGRGGGGG,
