contacts,cs,ce,Chain,Length,designed_receptor_seq,native_receptor_seq,designed_binder_seq,native_binder_seq
53.0,30,40,A,10,AADCPACALRVEPRFSQPGQPVYVCEGCCPGSVRPTPAEVLRLLRRRRPLLVERRCCRAAAYRLVTVLGGFRVRDHTACACRECRDAAA,VQDCPECTLQENPLFSQPGAPILQCMGCCFSRAYPTPLRSKKTMLVQKNVTSESTCCVAKSYNRVTVMGGFKVENHTACHCSTCYYHKS,PVCSVDPVLL,YCYTRDLVYK
69.0,30,50,A,20,AADCPACALRVEPRFSQPGQPVYVCEGCCPSSVRPTPAEVLRLQRVQRPLLVECSCCRAAAYETVTVLGGFTVRNHTACACQRCLYAAD,VQDCPECTLQENPLFSQPGAPILQCMGCCFSRAYPTPLRSKKTMLVQKNVTSESTCCVAKSYNRVTVMGGFKVENHTACHCSTCYYHKS,PTYSVDLVYLHPAAPFRETC,YCYTRDLVYKDPARPKIQKT
93.0,23,53,A,30,AEDCPACALRVEPRFSQPGQPVYVCEGCCPSSSRPTPAEVLRLQRRRRPRLVECSCCRAAAFETVTVLGGFTVRNHTACACRRCRYAAR,VQDCPECTLQENPLFSQPGAPILQCMGCCFSRAYPTPLRSKKTMLVQKNVTSESTCCVAKSYNRVTVMGGFKVENHTACHCSTCYYHKS,GRRVCAGRCYNVDLVYLHPRAPFRERCCAG,NTTWCAGYCYTRDLVYKDPARPKIQKTCTF
95.0,12,52,A,40,AEDCPACALRVEPRFSQPGQPVYVCEGCCPSSSRPTPGSVLLLQGRRRPVEVRRSCCRAAAFETVTVLGGFTVRNHTACACRECRYAEE,VQDCPECTLQENPLFSQPGAPILQCMGCCFSRAYPTPLRSKKTMLVQKNVTSESTCCVAKSYNRVTVMGGFKVENHTACHCSTCYYHKS,YDAARDRATATTVTACAGRCYNVDEVYLHPLAPFREACCR,EKEECRFCISINTTWCAGYCYTRDLVYKDPARPKIQKTCT
106.0,3,53,A,50,EEECPECKLEVEPRFSQPGNPIYVCKGCCPSSERPTPGSVLLLQKKKKPRLVECSCCRAKSFETVTVLGGFTVRNHTACECTECKYASE,VQDCPECTLQENPLFSQPGAPILQCMGCCFSRAYPTPLRSKKTMLVQKNVTSESTCCVAKSYNRVTVMGGFKVENHTACHCSTCYYHKS,PSVEKTIEVLDLEKKKSTKVKITACSGKCYNVDLVYLDPNAPFKEKCCKG,ELTNITIAIEKEECRFCISINTTWCAGYCYTRDLVYKDPARPKIQKTCTF
52.0,27,37,B,10,EDCSLVDQTIAITNEACKKSTFVKIKSCAGTCSNTVLTSLDPNAPIVYKVCTAKSYSVKTVTVPGCENVAATTASYPVATECECGECNTTTTDCVTTGLGPSYCAYGN,NSCELTNITIAIEKEECRFCISINTTWCAGYCYTRDLVYKDPARPKIQKTCTFKELVYETVRVPGCAHHADSLYTYPVATQCHCGKCDSDSTDCTVRGLGPSYCSFGE,TTYSSWYPKP,CCFSRAYPTP
75.0,20,40,B,20,EDCSLVDQTIAIEHKACKKSTFVKIKSCAGTCYNVVLTELKPDAPKVYKVCTAKSYSVKTVTVPGCKDVKATTASYPVATECECGDCNKETTKCVKKGLGPSYCSYGN,NSCELTNITIAIEKEECRFCISINTTWCAGYCYTRDLVYKDPARPKIQKTCTFKELVYETVRVPGCAHHADSLYTYPVATQCHCGKCDSDSTDCTVRGLGPSYCSFGE,EEEEEEGEEFSSWYPKPGSE,PILQCMGCCFSRAYPTPLRS
110.0,27,57,B,30,EDCSLVDQTIAIENKACKKSTFVKIKSCAGTCSNTILTELKPDAPIVYKACTWKSYSTKTVTIPGCENVAATTASYPVATECECGDCNTTIALCTTTGLGPDYSSYGN,NSCELTNITIAIEKEECRFCISINTTWCAGYCYTRDLVYKDPARPKIQKTCTFKELVYETVRVPGCAHHADSLYTYPVATQCHCGKCDSDSTDCTVRGLGPSYCSFGE,PTYSRAYPTPGATLELLGTIKPITVEYCVP,CCFSRAYPTPLRSKKTMLVQKNVTSESTCC
124.0,19,59,B,40,EDCSLVDQTIAIEHKACKKSTFVKIKSCAGTCYNVDLTVLDPNAPKVYKVCAAKSYSVKTVTVPGCKDVKATTASYPVATECECGDCNKDIALCVKKGLGPDYCSYGN,NSCELTNITIAIEKEECRFCISINTTWCAGYCYTRDLVYKDPARPKIQKTCTFKELVYETVRVPGCAHHADSLYTYPVATQCHCGKCDSDSTDCTVRGLGPSYCSFGE,PKVTVCEGKCPSRAYPTPGETLKKLKVKKPWTVEYTVCTP,APILQCMGCCFSRAYPTPLRSKKTMLVQKNVTSESTCCVA
128.0,9,59,B,50,EDCSLVDQTIAIEHKACKKSTFVKIKSCAGTCYNVDLTVLDPNAPKVYKVCAAKSYSVKTVTVPGCKDVKATTASYPVATECECGDCNTTIALCVTKGLGPDYSSYGN,NSCELTNITIAIEKEECRFCISINTTWCAGYCYTRDLVYKDPARPKIQKTCTFKELVYETVRVPGCAHHADSLYTYPVATQCHCGKCDSDSTDCTVRGLGPSYCSFGE,ATHPALSKPGKPVYVCQGKCYSRAYPTPGAQLEKLGTIKPWTVEYTVCTP,QENPLFSQPGAPILQCMGCCFSRAYPTPLRSKKTMLVQKNVTSESTCCVA
