contacts,cs,ce,Chain,Length,designed_receptor_seq,native_receptor_seq,designed_binder_seq,native_binder_seq
19.0,11,21,A,10,MSYDYLFKIILIGDSGVGKSNLLSRFTKNEFNENYISTIGVDFATRTIEVDGKKVKLQIWDTAGQERFRTITSAYYRGAMGALLVYDISNRESFNNIKNWLEELKIHADENIVIMLVGNKSDLDDKREVPTEEAKKFAEENNLLFIETSAKENKNVDEAFEMLATKIYKKISNE,GSYDYLFKVVLIGDSGVGKSNLLSRFTRNEFNLESKSTIGVEFATRSIQVDGKTIKAQIWDTAGQERYRAITSAYYRGAVGALLVYDIAKHLTYENVERWLKELRDHADSNIVIMLVGNKSDLRHLRAVPTDEARAFAEKNNLSFIETSALDSTNVEEAFKNILTEIYRIVSQK,GKKKFIKKAK,LAKQTVAIAE
38.0,11,31,A,20,MSYDYLFKIILIGDSGVGKSNLLSRFTKDEFNENYKATIGVDFATRTIEVDGKKVKLQIWDTAGQERFRTITSAYYRGAMGALLVYDIADRKSFENIKKWLEELKIHADENIVIMLVGNKSDLDDKREVPTEEAKKFAEENNLLFIETSAKENKNVDEAFEMIATKIYKKISGK,GSYDYLFKVVLIGDSGVGKSNLLSRFTRNEFNLESKSTIGVEFATRSIQVDGKTIKAQIWDTAGQERYRAITSAYYRGAVGALLVYDIAKHLTYENVERWLKELRDHADSNIVIMLVGNKSDLRHLRAVPTDEARAFAEKNNLSFIETSALDSTNVEEAFKNILTEIYRIVSQK,KEEEFEKLAEEAEKEFKKLI,LAKQTVAIAELTEELQSKCI
44.0,5,35,A,30,MSYDYLFKIILIGDSGVGKSNLLSRFTKNEFNENYISTIGVDFATRTIEVDGKKVKLQIWDTAGQERFRTITSAYYRGAMGALLVYDIANRESFNNIKKWLEELKIHADENIVIMLVGNKSDLDDKREVPTEEAKKFAEENNLLFIETSAKENKNVDEAFENIATTIYKKISNE,GSYDYLFKVVLIGDSGVGKSNLLSRFTRNEFNLESKSTIGVEFATRSIQVDGKTIKAQIWDTAGQERYRAITSAYYRGAVGALLVYDIAKHLTYENVERWLKELRDHADSNIVIMLVGNKSDLRHLRAVPTDEARAFAEKNNLSFIETSALDSTNVEEAFKNILTEIYRIVSQK,EEEKEKEKEEFIKLAEEAEKEFKENVEKNK,KELREQLAKQTVAIAELTEELQSKCIQLNK
0.0,0,0,A,0,MSYDYLFKIILIGDSGVGKSNLLSRFTKNEFNENYISTIGVDFATRTIEIDGKKVKLQIWDTAGQERFRTITSAYYRGAMGALLVYDISNRESFNNIKNWLEELKIHADENIVIMLVGNKSDLDDKRAVPTEEAKKFAEENNLLFIETSAKENKNVDEAFEMLATKIYKKISGE,GSYDYLFKVVLIGDSGVGKSNLLSRFTRNEFNLESKSTIGVEFATRSIQVDGKTIKAQIWDTAGQERYRAITSAYYRGAVGALLVYDIAKHLTYENVERWLKELRDHADSNIVIMLVGNKSDLRHLRAVPTDEARAFAEKNNLSFIETSALDSTNVEEAFKNILTEIYRIVSQK,MSYDYLFKIILIGDSGVGKSNLLSRFTKNEFNENYISTIGVDFATRTIEIDGKKVKLQIWDTAGQERFRTITSAYYRGAMGALLVYDISNRESFNNIKNWLEELKIHADENIVIMLVGNKSDLDDKRAVPTEEAKKFAEENNLLFIETSAKENKNVDEAFEMLATKIYKKISGEKKKKKKKKKK,
0.0,0,0,A,0,MSYDYLFKIILIGDSGVGKSNLLSRFTKNEFNENYISTIGVDFATRTIEIDGKKVKLQIWDTAGQERFRTITSAYYRGAMGALLVYDISNRESFNNIKNWLEELKIHADENIVIMLVGNKSDLDDKRAVPTEEAKKFAEENNLLFIETSAKENKNVDEAFEMLATKIYKKISGE,GSYDYLFKVVLIGDSGVGKSNLLSRFTRNEFNLESKSTIGVEFATRSIQVDGKTIKAQIWDTAGQERYRAITSAYYRGAVGALLVYDIAKHLTYENVERWLKELRDHADSNIVIMLVGNKSDLRHLRAVPTDEARAFAEKNNLSFIETSALDSTNVEEAFKNILTEIYRIVSQK,MSYDYLFKIILIGDSGVGKSNLLSRFTKNEFNENYISTIGVDFATRTIEIDGKKVKLQIWDTAGQERFRTITSAYYRGAMGALLVYDISNRESFNNIKNWLEELKIHADENIVIMLVGNKSDLDDKRAVPTEEAKKFAEENNLLFIETSAKENKNVDEAFEMLATKIYKKISGEKKKKKKKKKK,
21.0,67,77,B,10,GPLSASAGLAALERNFERIARLARAEDAARAEAGARG,REYHLKELREQLAKQTVAIAELTEELQSKCIQLNKLQ,APAAAAAAAY,YRAITSAYYR
22.0,57,77,B,20,MEELKKKLLKIEKELFVLEAKLLKEEEELLKELEKKG,REYHLKELREQLAKQTVAIAELTEELQSKCIQLNKLQ,KKKKKKKKKKLKEIEEAFEY,QIWDTAGQERYRAITSAYYR
24.0,50,80,B,30,MEEAKKEGLKKLEENFVKLAKELKELKEKAKELGEKG,REYHLKELREQLAKQTVAIAELTEELQSKCIQLNKLQ,DGVEVVEVKFDTSGAKKLEEVKEAFEYGVE,DGKTIKAQIWDTAGQERYRAITSAYYRGAV
25.0,40,80,B,40,GPLAAEAGLKAYAEGFVEAAKNAKAENERAKEAGKKG,REYHLKELREQLAKQTVAIAELTEELQSKCIQLNKLQ,CGSYTYTEEKDGVKVTYIVFDTSCEKKLGEIKEACTYGVE,VEFATRSIQVDGKTIKAQIWDTAGQERYRAITSAYYRGAV
25.0,30,80,B,50,GPLAAAAGREAEARGFVAEARALAAERAAAAEAGARG,REYHLKELREQLAKQTVAIAELTEELQSKCIQLNKLQ,AAAAAAAAAAAGSGTRTVEEDGVAVTYVERDVSGAAAAAAVADAFTLGVD,FNLESKSTIGVEFATRSIQVDGKTIKAQIWDTAGQERYRAITSAYYRGAV
