contacts,cs,ce,Chain,Length,designed_receptor_seq,native_receptor_seq,designed_binder_seq,native_binder_seq
27.0,45,55,A,10,MREIFETEQFKRDVEKLKKENKPEKLEKLKLLIENNFPLPEKYKDHPLKGNYEGYREAHIEPDWILIYKLTDEKLAFIRTGSHKELFG,QRDIEYSGQYSKDVKLAQKRHKDNKLKYLTLLINNTLPLPAVYKDHPLQGSWKGYRDAHVEPDWILIYKLTDKLLRFERTGTHAALFG,PGEELPNKRV,FDLREPNQLT
49.0,42,62,A,20,MREIFETEAFKRDVARLKAENRPEDLARLRLLIEGNFPLPEKYRDHPLKGNYEGYREAHIAPDWLLIYRLTDEELAFVRTGSHEALFG,QRDIEYSGQYSKDVKLAQKRHKDNKLKYLTLLINNTLPLPAVYKDHPLQGSWKGYRDAHVEPDWILIYKLTDKLLRFERTGTHAALFG,GRPPNLELPNAATVAAIKAF,ALPFDLREPNQLTIQSIKNS
66.0,41,71,A,30,MRKIFYSGQFARDVARLKAENRPDDLARLQLLIDGNFPLPAKYRDHPLKGDYAGYREAHVAPDWLLIYRLTDDELMFVRTGSHEALFG,QRDIEYSGQYSKDVKLAQKRHKDNKLKYLTLLINNTLPLPAVYKDHPLQGSWKGYRDAHVEPDWILIYKLTDKLLRFERTGTHAALFG,GDLPPNLRDPNAATVAAIKKAEAGIDVFEL,KALPFDLREPNQLTIQSIKNSEAGIDVHKA
83.0,41,81,A,40,MRKIYYSGQFKRDVEKLKKENKPDKLKKLKLLIENNFPLPEKYRDHPLKGNYEGYREAHIEPDWLLIYKLTDEELMFVRTGSHKELFG,QRDIEYSGQYSKDVKLAQKRHKDNKLKYLTLLINNTLPLPAVYKDHPLQGSWKGYRDAHVEPDWILIYKLTDKLLRFERTGTHAALFG,GYLPPNLKDPNKKTIEAIKKAEAGIDVFEAKNFEDLWKKL,KALPFDLREPNQLTIQSIKNSEAGIDVHKAKDADDLFDKL
84.0,31,81,A,50,MRKIYYSGQFKRDVEKLKKENKPEKLKELKLLIENNFPLPEKYRDHPLKGNYEGYREAHIEPDWLLIYKLTDEELMFVRTGSHKELFG,QRDIEYSGQYSKDVKLAQKRHKDNKLKYLTLLINNTLPLPAVYKDHPLQGSWKGYRDAHVEPDWILIYKLTDKLLRFERTGTHAALFG,KEELEYIKKEKDLPPNLKDPNKKTIEAIKKAEAGIDVFEAKNFEDLWKKL,RITLTKVAREKALPFDLREPNQLTIQSIKNSEAGIDVHKAKDADDLFDKL
34.0,1,11,B,10,GMATVTVPIDPDLKARVAAVLAEGRTLSDAVRDTLAYMAEHRALPPDLLPPGPAERADLADALAGRDVHRAADLDDLLGKLGR,ANAFVRARIDEDLKNQAADVLAGGLTISDLVRITLTKVAREKALPFDLREPNQLTIQSIKNSEAGIDVHKAKDADDLFDKLGI,RPIYFTGRER,RDIEYSGQYS
37.0,0,20,B,20,GHMKVTVPIDPELKARVAAVLAEGKTLSDAVRETLAYMAEKKALPPDLLPPGEEALADLRDALAGRDVHRAADLDDLLGKLGV,ANAFVRARIDEDLKNQAADVLAGGLTISDLVRITLTKVAREKALPFDLREPNQLTIQSIKNSEAGIDVHKAKDADDLFDKLGI,RPRIYFTGRAKELVERLRAE,QRDIEYSGQYSKDVKLAQKR
44.0,3,33,B,30,GHMKVTVPIDPELKARVAAVLAEGKTLSDAVRETLAYMAEKKALPENLLPPGEEALAAVREALAGRDVYPAADLDDLLGKLGL,ANAFVRARIDEDLKNQAADVLAGGLTISDLVRITLTKVAREKALPFDLREPNQLTIQSIKNSEAGIDVHKAKDADDLFDKLGI,LYFSGRAKELVERLKAEGKPEELVELARRL,IEYSGQYSKDVKLAQKRHKDNKLKYLTLLI
45.0,0,40,B,40,GMAKVTVPIDPELKARVAAVLAEGKTLSDAVRETLAYMAEKKALPPNLLPPDEETLAAIRDALAGRDVHEAADGDDLWGKLGL,ANAFVRARIDEDLKNQAADVLAGGLTISDLVRITLTKVAREKALPFDLREPNQLTIQSIKNSEAGIDVHKAKDADDLFDKLGI,APRIFFTGRAKEEIARLKAEGKPEALRRLRQRIEGKFPLP,QRDIEYSGQYSKDVKLAQKRHKDNKLKYLTLLINNTLPLP
57.0,2,52,B,50,GMAKVTVPIDPELKARVAAVLAEGKTLSDAVRETLAYMAEKKDLPPDLLLPDEETLAAIRDALAGRDVHEAADGDDLWGKLGL,ANAFVRARIDEDLKNQAADVLAGGLTISDLVRITLTKVAREKALPFDLREPNQLTIQSIKNSEAGIDVHKAKDADDLFDKLGI,RLYFSGQAKRDVERLKAEGKPEALRELRLRIEGHFPLPEEYRDRPVKGDF,DIEYSGQYSKDVKLAQKRHKDNKLKYLTLLINNTLPLPAVYKDHPLQGSW
