contacts,cs,ce,Chain,Length,designed_receptor_seq,native_receptor_seq,designed_binder_seq,native_binder_seq
24.0,11,21,A,10,MLPVRLSPEELGRLLLENARRNIAVPLEAILVGLRLLARGGREEEALRLIEESAREALARLDFLGIALGARGGEEERIDTGVAERVASRLFVYELPRFTWEGERVLLPRRRVQLLLSLLEIARNSVPEGGSVRVRLEGSAERPRFVVEVRGPVLRVPPAFLELWSGRPPEEPLDSRSVVPYYTLLLAEEAGMEIGVEESEERIVFSAE,SLPVTLSALDLGALLCSRICHDIISPIGAINNGLELLEEGGADEDAMALIKSSARNASARLQFARIAFGAAGSAGVQIDTGDAQNVATEYFRNEKPEFTWEGARVLLPKNKVKLLLNMLLIGNGAIPRGGSLAVRLEGSDTDPRFVITVKGRMLRVPPKFLELHSGAAPEEPIDAHSVQPYYTLLLAEEAGMKISIHATAEDIVFSAE,RFLRRALELL,SAIAQSIELM
29.0,4,24,A,20,MLPVTLSPEELGRLLLENARYNIAQPLNAILAGLALLAAGGAEEEARALIEESAAEARARLAFADIALGATGGEEARIDTAVAERVAAELFVYERPRFTWEGEPVLLPRRRVQLLLSLLEIANNSVPEGGSVRVRLEGTAERPRFVVRVEGPVLRVPPAFLELWSGRPPEEPIDFVSVVPYYTLLLAERAGMRIGVEETEEEIVFSAE,SLPVTLSALDLGALLCSRICHDIISPIGAINNGLELLEEGGADEDAMALIKSSARNASARLQFARIAFGAAGSAGVQIDTGDAQNVATEYFRNEKPEFTWEGARVLLPKNKVKLLLNMLLIGNGAIPRGGSLAVRLEGSDTDPRFVITVKGRMLRVPPKFLELHSGAAPEEPIDAHSVQPYYTLLLAEEAGMKISIHATAEDIVFSAE,EELVVTHRFLRRAIELVLRA,VLLIEDDSAIAQSIELMLKS
30.0,4,34,A,30,SLPVELSPEELGRLLLENARRNIAAPLNAILVGLRLLAEGGVEEEARRLIEESAAEARARLAFADIAYGARGGEEERIDTGVAARVASELFVYERPRFTWEGEPVLLPRRRVQLLLSLLEIANGSVPEGGSLRVRLEGTAERPRFVLRVEGPVLRVPPAFLELWSGRPPEEPLDSRSVVPYYTLLLAERAGMRIEVEETEEEIVFSAE,SLPVTLSALDLGALLCSRICHDIISPIGAINNGLELLEEGGADEDAMALIKSSARNASARLQFARIAFGAAGSAGVQIDTGDAQNVATEYFRNEKPEFTWEGARVLLPKNKVKLLLNMLLIGNGAIPRGGSLAVRLEGSDTDPRFVITVKGRMLRVPPKFLELHSGAAPEEPIDAHSVQPYYTLLLAEEAGMKISIHATAEDIVFSAE,VLLLERARFLRRSVELLLESRGVRVRSLSP,VLLIEDDSAIAQSIELMLKSESFNVYTTDL
30.0,0,40,A,40,SLPVTLSPEELGRLLLGNALRQVAAPLNAIGVGLALLARGGVEEEARALIEESAAEARARLAFADIALGATGGEEERIDTAVAERVASELFVYERPRFTWEGEPVLLPRRRVQLLLSLLEIANNSVPEGGSLRVRLEGTAERPRFVLRVEGPVLRVPPAFLELWSGRPPEEPLDERSVVPYYTLLLAERAGMRIGVEETEEEIVFSAE,SLPVTLSALDLGALLCSRICHDIISPIGAINNGLELLEEGGADEDAMALIKSSARNASARLQFARIAFGAAGSAGVQIDTGDAQNVATEYFRNEKPEFTWEGARVLLPKNKVKLLLNMLLIGNGAIPRGGSLAVRLEGSDTDPRFVITVKGRMLRVPPKFLELHSGAAPEEPIDAHSVQPYYTLLLAEEAGMKISIHATAEDIVFSAE,ERVRVLLVERARFLRRSLELLLESREFEVEAVDRLEEGLR,GSMRVLLIEDDSAIAQSIELMLKSESFNVYTTDLGEEGID
36.0,8,58,A,50,GMPITLSPEELGRLLRENIAYNIDVPLNAIGVGLALLARGGREEEARALIEESAADLEARLAFAGIAYGATGGEEERIDTAEAARVASRLFVYERPRFTWEGEPVLLPRRRVQLLLSLLEIANNSIPRGGSLRVRLEGTAERPRFVLRVEGPVLRVPPAFLELWSGRPPEEPIDFVSVVPYYTLLLAERAGMRIEVEETEEEIVFSAE,SLPVTLSALDLGALLCSRICHDIISPIGAINNGLELLEEGGADEDAMALIKSSARNASARLQFARIAFGAAGSAGVQIDTGDAQNVATEYFRNEKPEFTWEGARVLLPKNKVKLLLNMLLIGNGAIPRGGSLAVRLEGSDTDPRFVITVKGRMLRVPPKFLELHSGAAPEEPIDAHSVQPYYTLLLAEEAGMKISIHATAEDIVFSAE,LRARHAARSVELLLESLDFEVEPVYLGSEALRLGAEREYDVVLLDVDLPD,EDDSAIAQSIELMLKSESFNVYTTDLGEEGIDLGKLYDYDIILLDLNLPD
21.0,22,32,B,10,MSLKVLLIEDEEAIADSIELVLESEDFEVERVSLGSEGIRLGSTKEYDVILLDLMLPDMSGFEVLETLRKNNVKTPILVLSAKPGIGDKVKAFEKGAEDYMTKPFEPEELIARIKAITKK,GSMRVLLIEDDSAIAQSIELMLKSESFNVYTTDLGEEGIDLGKLYDYDIILLDLNLPDMSGYEVLRTLRLSKVKTPILILSGMAGIEDKVRGLGFGADDYMTKPFHKDELIARIHAIVRR,GKIPEGAKKI,IISPIGAINN
31.0,22,42,B,20,MSLKVLLIEDEEAVADSIEAVLESEDYEVERVSLGSEGIRLGSTKEYDVILLDLMLPDMSGFEVLETLRKNKVETPILVLSAKPGVGDAVKAFEKGAEDYMTKPFEPEELLARIRSITRK,GSMRVLLIEDDSAIAQSIELMLKSESFNVYTTDLGEEGIDLGKLYDYDIILLDLNLPDMSGYEVLRTLRLSKVKTPILILSGMAGIEDKVRGLGFGADDYMTKPFHKDELIARIHAIVRR,PVVPEGAKKVGEILKKRGGV,IISPIGAINNGLELLEEGGA
39.0,23,53,B,30,MSLKVLLIEDEEAVADSIELVLESEDYEVERVSLGSEGIRLGSTKEYDVILLDLMLPDMSGFEVLETLRKNKVETPILVLSAKPGVGDKVKAFEKGAEDYMTKPFEPEELIARIKAITKK,GSMRVLLIEDDSAIAQSIELMLKSESFNVYTTDLGEEGIDLGKLYDYDIILLDLNLPDMSGYEVLRTLRLSKVKTPILILSGMAGIEDKVRGLGFGADDYMTKPFHKDELIARIHAIVRR,KIPEGAKEIGKKLLEKGGKEEEAKKLIEKA,ISPIGAINNGLELLEEGGADEDAMALIKSS
42.0,16,56,B,40,MSLKVLLIEDAEHIADSIELVLESEDFEVERVSLGSEGIELGSTKEYDVILLDLNLPDMSGFEVLETLREKNVETPILVLSAEPGIGTAVKAFEKGAEDYMTKPFEPEELLARIRSITKK,GSMRVLLIEDDSAIAQSIELMLKSESFNVYTTDLGEEGIDLGKLYDYDIILLDLNLPDMSGYEVLRTLRLSKVKTPILILSGMAGIEDKVRGLGFGADDYMTKPFHKDELIARIHAIVRR,KEEEKEKNIPKGAVEVGKKLLEKGGKEEEAKKLIEKSEKE,SRICHDIISPIGAINNGLELLEEGGADEDAMALIKSSARN
42.0,6,56,B,50,MSLKVLLIEDAEHIADSIELVLESEDYEVERVSLGSEGIELGSTKEYDVILLDLNLPDMSGFEVLEELRKRNVETPILVLSAEPGEETAVKAFEAGAEDYMTKPFEPEELIARIHSITEK,GSMRVLLIEDDSAIAQSIELMLKSESFNVYTTDLGEEGIDLGKLYDYDIILLDLNLPDMSGYEVLRTLRLSKVKTPILILSGMAGIEDKVRGLGFGADDYMTKPFHKDELIARIHAIVRR,TEEEFEEELEREIEREVNIPLGAVRVGEELLERGGVEEEAEELIEKSREA,SALDLGALLCSRICHDIISPIGAINNGLELLEEGGADEDAMALIKSSARN
