contacts,cs,ce,Chain,Length,designed_receptor_seq,native_receptor_seq,designed_binder_seq,native_binder_seq
28.0,30,40,A,10,GCTPEPVRVVEEGEPFYLKFCGEEEEEWFRETEGEERVKIDEERIEIKDGELLFWPVRLEDTGTYYYRKGDYEKELELRVVERDEERVYSEPAVTTRYVEEGSEFSIECSDEFWEEYVEETRLYRDDEEIEELEATAEEEDEGVYTCEFVLEYEGEEYTLRESYRVEIVEREEVVEPRLLGEEENYVYAEEGEEVELECEAIMNEEDELYWETEEEDVEEEEEREETEEGEWRARKTLTIEELTEEDLERPYTCTVESEYGEESKEYYIVEEEE,SCTSRPHITVVEGEPFYLKHCSCTTKSWYKSSGSQEHVELNPRRIALHDCVLEFWPVELNDTGSYFFQMKNYTQKWKLNVIRRNKHSCFTERQVTSKIVEVKKFFQITCENSYYQTLVNSTSLYKNCKKLPTIKKNAEFEDQGYYSCVHFLHHNGKLFNITKTFNITIVEDRSNIVPVLLGPKLNHVAVELGKNVRLNCSALLNEEDVIYWMFGENIHEEKEMRIMTPEGKWHASKVLRIENIGESNLNVLYNCTVASTGGTDTKSFILVRKAD,CYLTDAEREE,EDMTDSDSRD
38.0,21,41,A,20,GCTPEPVRVVVEGEPFYLKFCGEEEEEYYLETEGEERVKIDEERIEIKDGELLFWPVRLEDTGTYYYRKGDYEKRLVLIVVERDEERVYSEPAVTTRYVEEGSEFSIECSDEFWEEYVEETRLYKNDEEIEEIEATAEEEDEGYYTCEFYLEYEGEEYTLRETYRVEIVEREEVVEPRLLGEKENYVYAEEGEEVELECEAIMNEEDELYWETEEEDVEEEEEREETEEGEWLARKTLTIEELTEEDLERPYTCTVESEYGEESKEYYIVEEEE,SCTSRPHITVVEGEPFYLKHCSCTTKSWYKSSGSQEHVELNPRRIALHDCVLEFWPVELNDTGSYFFQMKNYTQKWKLNVIRRNKHSCFTERQVTSKIVEVKKFFQITCENSYYQTLVNSTSLYKNCKKLPTIKKNAEFEDQGYYSCVHFLHHNGKLFNITKTFNITIVEDRSNIVPVLLGPKLNHVAVELGKNVRLNCSALLNEEDVIYWMFGENIHEEKEMRIMTPEGKWHASKVLRIENIGESNLNVLYNCTVASTGGTDTKSFILVRKAD,TNEEGEEVTAPLTDAEREYN,IDQGNRPLFEDMTDSDSRDN
52.0,30,60,A,30,GCTPEPVRVVVEGEPFYLKVCGEEEEEWFLETEGEERVKIDEERIEVKDGVLLFWPVRLEDSGTYYYRKGDYEKELELIVVERDEERVYSEPAVTTRYVEEGSEFSIECSDEFWEEYVEETRLYKNDEEIEEIEATAEEEDEGYYTCEFYLEYEGEEYTLRETYRVEIVEREEVVEPRLLGEEENYVYAEEGEEVELECEAIMNEEDRLYWIYEGEEYSTEEEREETEEGEWRARKTLTIEELTEEHLERPYTCCVASEYGVECKDYYIVEEEE,SCTSRPHITVVEGEPFYLKHCSCTTKSWYKSSGSQEHVELNPRRIALHDCVLEFWPVELNDTGSYFFQMKNYTQKWKLNVIRRNKHSCFTERQVTSKIVEVKKFFQITCENSYYQTLVNSTSLYKNCKKLPTIKKNAEFEDQGYYSCVHFLHHNGKLFNITKTFNITIVEDRSNIVPVLLGPKLNHVAVELGKNVRLNCSALLNEEDVIYWMFGENIHEEKEMRIMTPEGKWHASKVLRIENIGESNLNVLYNCTVASTGGTDTKSFILVRKAD,CYLTDAEREYNAPYTVEEVVYYPEEEPEGC,EDMTDSDSRDNAPRTIFIISMYKDSQPRGM
60.0,20,60,A,40,GCTPQPVWVVEEGEPFYLKNCGGEEESWYRETEGEERVEIDEERIEIKDGELLFWPVRLEDSGTYYYESEDYRARLELIVVERDEEGVYSEPAVTTVEVEEGSEFSIECSDEFWEEYVEETRLYRDDEEIEELEATAEEEDEGVYTCEFYLEYEGEEYTLRESYRVEIVEREEVVEPRLLGEEENEVYAEEGEEVELECEAIMNEEDRLYWITEEEDVSEEEEREETEEGEWRARKTLTIEELTEEDLERPYTCCVASEYGTECKDYYIVEEEE,SCTSRPHITVVEGEPFYLKHCSCTTKSWYKSSGSQEHVELNPRRIALHDCVLEFWPVELNDTGSYFFQMKNYTQKWKLNVIRRNKHSCFTERQVTSKIVEVKKFFQITCENSYYQTLVNSTSLYKNCKKLPTIKKNAEFEDQGYYSCVHFLHHNGKLFNITKTFNITIVEDRSNIVPVLLGPKLNHVAVELGKNVRLNCSALLNEEDVIYWMFGENIHEEKEMRIMTPEGKWHASKVLRIENIGESNLNVLYNCTVASTGGTDTKSFILVRKAD,YVNEEGEPVTAPLTDAEAEYNAPRTVEEVVYYPEEEPEGC,FIDQGNRPLFEDMTDSDSRDNAPRTIFIISMYKDSQPRGM
63.0,11,61,A,50,GSTPQPVWVVEEGEPFYLKNGSGEKEEWFRETEGEKRKKIDEKRIEIKDGELRFWPVKLEDSGTYYYRKGDYEAKLELIVVERDKERKYSEPAVTTRYVEEGSEFSIECKDEFWEEYVKEKKLYKNDEEIEKIEKKAKKEDEGYYTCEFYLEYEGEEYTLRKTYKVEIVEKEEKVKPKLLGEKENYVYAEEGKEVKLKCEAIMNEEDILYWIYEGEDISTEEKREKTEDGKWKAWKELTIKNLTEEHLNKPYTCCVASEYGVECKDYYIVKEGE,SCTSRPHITVVEGEPFYLKHCSCTTKSWYKSSGSQEHVELNPRRIALHDCVLEFWPVELNDTGSYFFQMKNYTQKWKLNVIRRNKHSCFTERQVTSKIVEVKKFFQITCENSYYQTLVNSTSLYKNCKKLPTIKKNAEFEDQGYYSCVHFLHHNGKLFNITKTFNITIVEDRSNIVPVLLGPKLNHVAVELGKNVRLNCSALLNEEDVIYWMFGENIHEEKEMRIMTPEGKWHASKVLRIENIGESNLNVLYNCTVASTGGTDTKSFILVRKAD,IKDENNRTLFINEENEPLYSYMTDADREYNAPYTKFKIEYYKEENPKGLK,IRNLNDQVLFIDQGNRPLFEDMTDSDSRDNAPRTIFIISMYKDSQPRGMA
30.0,0,10,B,10,GFTKLDSINAIIKDYKNRTLFVNDNLEPLLQPMTNEEIKENSPNTIFTITFYSSDNPKGIAITISVKSNKTLTLSSKNKTISWEEKEPPESINTDKSDIIFYRKTVPGNPKLHTFESSEYEGYYLSSKKEGDKYVIVLKEKESEGDENIQFTIEK,YFGKLESKLSVIRNLNDQVLFIDQGNRPLFEDMTDSDSRDNAPRTIFIISMYKDSQPRGMAVTISVKSEKISTLSSENKIISFKEMNPPDNIKDTKSDIIFFQRSVPGHDNKMQFESSSYEGYFLASEKERDLFKLILKKEDELGDRSIMFTVQN,EGKHQDKKVE,SCTSRPHITV
32.0,1,21,B,20,SFTRLDSINAIIKDYRNRTLFVNDNLEPLLSPMSDENIKENSPATTFTITFYSSDNPKGIAITLSVNKDKTLTLSSKNKTISWEEMEPPESINTDKSDIIFYRKTVPGNPELSTFESSEYKGYYLSSKKEGDLNVIVLKEKESEGDPSIQFTISK,YFGKLESKLSVIRNLNDQVLFIDQGNRPLFEDMTDSDSRDNAPRTIFIISMYKDSQPRGMAVTISVKSEKISTLSSENKIISFKEMNPPDNIKDTKSDIIFFQRSVPGHDNKMQFESSSYEGYFLASEKERDLFKLILKKEDELGDRSIMFTVQN,CNTQSKRVFKKGTPFSIKLC,CTSRPHITVVEGEPFYLKHC
36.0,0,30,B,30,SFTRLDSINAIIKDYRNRTLFVNDNLEPLLQPMSDENIKENAPATIFTITFYSDSNPKGIAVTLSVNKDKTLTLSSKNKTISWEEMEPPESINTDKSDIIFYRRTVPGNPELSTFESSEYKGYYLSSKKEGNLNVIVLKEEKSEGDPSIQFTITK,YFGKLESKLSVIRNLNDQVLFIDQGNRPLFEDMTDSDSRDNAPRTIFIISMYKDSQPRGMAVTISVKSEKISTLSSENKIISFKEMNPPDNIKDTKSDIIFFQRSVPGHDNKMQFESSSYEGYFLASEKERDLFKLILKKEDELGDRSIMFTVQN,KCDSASKRVFKKGTPFSITFCGKGKVKLEL,SCTSRPHITVVEGEPFYLKHCSCTTKSWYK
36.0,0,40,B,40,SFTRLDSINAIIKDYRNRTLFVNDNLEPLLSPMTDENIKENAPRTIFTITFYSDDNPRGIAVTISVNSTSTLTLSSKNKTISWEEMNPPESINTSTSDIIFYRRTVPGNPSLSTFESSEYKGYYLSSKQEGCLNVIVLKEEKSEGDPSIQFTISN,YFGKLESKLSVIRNLNDQVLFIDQGNRPLFEDMTDSDSRDNAPRTIFIISMYKDSQPRGMAVTISVKSEKISTLSSENKIISFKEMNPPDNIKDTKSDIIFFQRSVPGHDNKMQFESSSYEGYFLASEKERDLFKLILKKEDELGDRSIMFTVQN,SCTPQPVRVFKAGTPVSFTSCSSGSSSWTITTSSGSSTTL,SCTSRPHITVVEGEPFYLKHCSCTTKSWYKSSGSQEHVEL
36.0,0,50,B,50,SFTRLDSINAIIKDYRNRTLFVNDNLEPLLSPMSDENIKYNSPRTTFTITFYSDSNPRGIAVTISVNSSSTLTLSSKNKTISWEEMNPPESINTDKSDIIFYRRTVPGNPSLSTFESSEYEGYYLSSKKEGCLNVIVLKEEKSEGDPSIQFTISN,YFGKLESKLSVIRNLNDQVLFIDQGNRPLFEDMTDSDSRDNAPRTIFIISMYKDSQPRGMAVTISVKSEKISTLSSENKIISFKEMNPPDNIKDTKSDIIFFQRSVPGHDNKMQFESSSYEGYFLASEKERDLFKLILKKEDELGDRSIMFTVQN,SCDPQSVRVFKKGTPFSIKSCGSGSTSWYIKTSGSSWTKLDSSKIKIENN,SCTSRPHITVVEGEPFYLKHCSCTTKSWYKSSGSQEHVELNPRRIALHDC
