contacts,cs,ce,Chain,Length,designed_receptor_seq,native_receptor_seq,designed_binder_seq,native_binder_seq
20.0,227,237,A,10,MVKACVGDIFEQLKALGKRELSDRLDEELVVD,QTAAWRKQIFQQLTERTKRELENFRHYEQAVE,GGIEPLEDCP,HGIEPMLETP
24.0,12,32,A,20,GMDEKVKEIFENIKKLKEEVLKDYEHFKKFID,QTAAWRKQIFQQLTERTKRELENFRHYEQAVE,PIPTKFTKKEGEEPEYYLLP,RIPTCFTLYQDAEPYYLLLP
32.0,2,32,A,30,GMDEKTKKIFENLDKLEKLQLENYKHFKEFEN,QTAAWRKQIFQQLTERTKRELENFRHYEQAVE,KKIKKKIKNLKIPTKFTKKKGEKPKYYLLK,KDVLRDVWFGRIPTCFTLYQDAEPYYLLLP
38.0,3,43,A,40,GMDEKVKKIFENLDKLEKEMLENYKDYKEAIG,QTAAWRKQIFQQLTERTKRELENFRHYEQAVE,EIEKRIKNGKIPTKFTKKEGEEPKYFLLPVTKKLEDVLKG,DVLRDVWFGRIPTCFTLYQDAEPYYLLLPRVSYLTLVTDK
39.0,0,50,A,50,GMKEEVKEIFENLKKLKEEELKDYEHFEEAIG,QTAAWRKQIFQQLTERTKRELENFRHYEQAVE,EEEEVEEAIKNGKYPTVFTLKEGKEPFKLLLPVTSYLDEVTDKVIEHFKK,DDKDVLRDVWFGRIPTCFTLYQDAEPYYLLLPRVSYLTLVTDKVKKHFQK
30.0,21,31,B,10,SNADVLKAVWNGKIPTKFTLHEGAEPFYLNLPRISYLKLVTDKVVEHFKKSGGEPWFDYKGEPLKWFLPIGLLYDLLASDEELPWEITVHFKDFPEDKLDKCPSKEAIKEHFLGRLREADKLKHNSKVIESLQEESHDQLWEGVKNNDFEKFYKVAKYLRTYPEDKKGFDYVPFRIYYETQEKPFIQELFKPTTGKGKQHTLGDLLKAVAPEAIDPENGELKYKVVIHGIEPKLDTPLQWLSDYLSYPDDYLHISIIK,DDKDVLRDVWFGRIPTCFTLYQDAEPYYLLLPRVSYLTLVTDKVKKHFQKVMSEIWFEYEGTPLKWHYPIGLLFDLLASSSALPWNITVHFKSFPEKDLLHCPSKDAIEAHFMSCMKEADALKHKSQVINEMQKKDHKQLWMGLQNDRFDQFWAINRKLMEYPAEENGFRYIPFRIYQTTTERPFIQKLFRPVAADGQLHTLGDLLKEVCPSAIDPEDGEKKNQVMIHGIEPMLETPLQWLSEHLSYPDNFLHISIIP,EEFDDFEEAF,ENFRHYEQAV
50.0,11,31,B,20,SNADVLKAVWNGKIPTKFTLHEGAEPFYLLLPRTSYLKLVTDKVVEHFKKSGGEPWFDYKGEPLKWFLPIGLLYDLLASDEELPWKITVHFKDFPEDKLDKCPSKEAIKEHFLGQLREADKLKHNSKVIESLQEYHHDQLWEGVKNNDFEKFYKVAKYLRTYPEDKKGFDYVPFRIYYEDQDTPYIQELFKPTTGKGKQHTLGDLLKAVAPEAIDPENGELKYKVVIHGIEPKLDTPLQWLSDYLSYPDNYLHISIIK,DDKDVLRDVWFGRIPTCFTLYQDAEPYYLLLPRVSYLTLVTDKVKKHFQKVMSEIWFEYEGTPLKWHYPIGLLFDLLASSSALPWNITVHFKSFPEKDLLHCPSKDAIEAHFMSCMKEADALKHKSQVINEMQKKDHKQLWMGLQNDRFDQFWAINRKLMEYPAEENGFRYIPFRIYQTTTERPFIQKLFRPVAADGQLHTLGDLLKEVCPSAIDPEDGEKKNQVMIHGIEPMLETPLQWLSEHLSYPDNFLHISIIP,QLEERGKRELKDFLHFKEAY,QLTERTKRELENFRHYEQAV
68.0,1,31,B,30,SNADVLKRVWNGKIPTKFTLHEGAEPFYLLLPRTSYLKLVTDKVVEHFKKSGGEPWFDYKGEPLKWFLPIGLLYDLLASDEELPWKITVHFKDFPEEELEKCPSKEAIKEHFLGRLREADRLKHNSKVIESLAEESHEQLWEGVKNNDFEKFYKVAKYLRTYPEDSKGFLYVPFRIYYEDQKTPYIQELFKPTTEKGEQHTLGDLLKAVAPEAIDPENGELKYKVVIHGIEPLLDTPLQWMSDYLSYPDDYLHISIIK,DDKDVLRDVWFGRIPTCFTLYQDAEPYYLLLPRVSYLTLVTDKVKKHFQKVMSEIWFEYEGTPLKWHYPIGLLFDLLASSSALPWNITVHFKSFPEKDLLHCPSKDAIEAHFMSCMKEADALKHKSQVINEMQKKDHKQLWMGLQNDRFDQFWAINRKLMEYPAEENGFRYIPFRIYQTTTERPFIQKLFRPVAADGQLHTLGDLLKEVCPSAIDPEDGEKKNQVMIHGIEPMLETPLQWLSEHLSYPDNFLHISIIP,EPEWLKSIFEQLDEREKRELENFLHFEEAY,TAAWRKQIFQQLTERTKRELENFRHYEQAV
0.0,0,0,B,0,SNADVLKAVWNGKIPTEFTLAEGAEPFHLDLPRISYLKLVTDEVVEHFSKSGGEPWFDYKGEPLKWFLPIGLLYDLLASDEELPWKITVHFKDFPEDDLDKCPSKEAIKEHFLGRLREADLLKHNSEVIESLEEESHDQLWEGVKNDDFEKFYEVAKYLRTYPEDEKGFKYVPFRIYYETQKKPFIQELFKPTTEKGEQHTLGDLLKAVAPEAIDPENGELKYRVVIHGIEPDLDTPLQWLSDYLSYPDDYLHISIIK,DDKDVLRDVWFGRIPTCFTLYQDAEPYYLLLPRVSYLTLVTDKVKKHFQKVMSEIWFEYEGTPLKWHYPIGLLFDLLASSSALPWNITVHFKSFPEKDLLHCPSKDAIEAHFMSCMKEADALKHKSQVINEMQKKDHKQLWMGLQNDRFDQFWAINRKLMEYPAEENGFRYIPFRIYQTTTERPFIQKLFRPVAADGQLHTLGDLLKEVCPSAIDPEDGEKKNQVMIHGIEPMLETPLQWLSEHLSYPDNFLHISIIP,SNADVLKAVWNGKIPTEFTLAEGAEPFHLDLPRISYLKLVTDEVVEHFSKSGGEPWFDYKGEPLKWFLPIGLLYDLLASDEELPWKITVHFKDFPEDDLDKCPSKEAIKEHFLGRLREADLLKHNSEVIESLEEESHDQLWEGVKNDDFEKFYEVAKYLRTYPEDEKGFKYVPFRIYYETQKKPFIQELFKPTTEKGEQHTLGDLLKAVAPEAIDPENGELKYRVVIHGIEPDLDTPLQWLSDYLSYPDDYLHISIIKKEEEEEEEEE,
0.0,0,0,B,0,SNADVLKAVWNGKIPTEFTLAEGAEPFHLDLPRISYLKLVTDEVVEHFSKSGGEPWFDYKGEPLKWFLPIGLLYDLLASDEELPWKITVHFKDFPEDDLDKCPSKEAIKEHFLGRLREADLLKHNSEVIESLEEESHDQLWEGVKNDDFEKFYEVAKYLRTYPEDEKGFKYVPFRIYYETQKKPFIQELFKPTTEKGEQHTLGDLLKAVAPEAIDPENGELKYRVVIHGIEPDLDTPLQWLSDYLSYPDDYLHISIIK,DDKDVLRDVWFGRIPTCFTLYQDAEPYYLLLPRVSYLTLVTDKVKKHFQKVMSEIWFEYEGTPLKWHYPIGLLFDLLASSSALPWNITVHFKSFPEKDLLHCPSKDAIEAHFMSCMKEADALKHKSQVINEMQKKDHKQLWMGLQNDRFDQFWAINRKLMEYPAEENGFRYIPFRIYQTTTERPFIQKLFRPVAADGQLHTLGDLLKEVCPSAIDPEDGEKKNQVMIHGIEPMLETPLQWLSEHLSYPDNFLHISIIP,SNADVLKAVWNGKIPTEFTLAEGAEPFHLDLPRISYLKLVTDEVVEHFSKSGGEPWFDYKGEPLKWFLPIGLLYDLLASDEELPWKITVHFKDFPEDDLDKCPSKEAIKEHFLGRLREADLLKHNSEVIESLEEESHDQLWEGVKNDDFEKFYEVAKYLRTYPEDEKGFKYVPFRIYYETQKKPFIQELFKPTTEKGEQHTLGDLLKAVAPEAIDPENGELKYRVVIHGIEPDLDTPLQWLSDYLSYPDDYLHISIIKKEEEEEEEEE,
