contacts,cs,ce,Chain,Length,designed_receptor_seq,native_receptor_seq,designed_binder_seq,native_binder_seq
39.0,123,133,A,10,MSDAVTVDLRGAHLLMALLDIERVSPELNLAPYVASADRAALADDPGFAAMRGAGYVVDDRVDAALAARMAVLAAPDLEVVALLSRGRLTRGVIVDADLPPGSRLIPPNEHRVVLARRGDEWVEARRRGDEITVSDVAVADAASVAALVERGLAELHRAEPAEVEAVAVPLDDLRAAVADWRETGFDVAAGGALLDLGVSAETVAALGDALAAPAAEALVFAFQYRDDGFGPSAATLKLSDGAGGRIALYPRRADEDGGAQDLVIAPADPELVDEGVREVLATLPFGDAWTHTRVVD,TRTDITVNVDGFWMLQALLDIRHVAPELRCRPYVSTDSNDWLNEHPGMAVMREQGIVVNDAVNEQVAARMKVLAAPDLEVVALLSRGKLLYGVIDDENQPPGSRDIPDNEFRVVLARRGQHWVSAVRVGNDITVDDVTVSDSASIAALVMDGLESIHHADPAAINAVNVPMEEMLEATKSWQESGFNVFSGGDLRRMGISAATVAALGQALSDPAAEVAVYARQYRDDAKGPSASVLSLKDGSGGRIALYQQARTAGSGEAWLAICPATPQLVQVGVKTVLDTLPYGEWKTHSRVSS,ALGQDAAARW,ALGQFTAQIA
52.0,120,140,A,20,MSDSVTVDLRGAHLLMALLDIERVSPELNLAPYVASADRAALADDPGFAAMRGAGYVVDDRVDAALAARMAVLAAPDLEVVAELSRGRLTLGVIDDVFLPPGSRAIPPNEHRVVLARRGDEWVEARRRGDEITVSDVAVADAASVAALVREGLDALHRAEPAEVEAVAVPLDALDAATAEWRETGFDVAAGGALLDLGVSAETVAALGDALAAPAAEARVFAFQYRDDGFGPSAATLHLSDGAGGRIALFPARADEAGGARDLLIAPADPELVDLGVAEVLATVPFGDAWTHTRVVD,TRTDITVNVDGFWMLQALLDIRHVAPELRCRPYVSTDSNDWLNEHPGMAVMREQGIVVNDAVNEQVAARMKVLAAPDLEVVALLSRGKLLYGVIDDENQPPGSRDIPDNEFRVVLARRGQHWVSAVRVGNDITVDDVTVSDSASIAALVMDGLESIHHADPAAINAVNVPMEEMLEATKSWQESGFNVFSGGDLRRMGISAATVAALGQALSDPAAEVAVYARQYRDDAKGPSASVLSLKDGSGGRIALYQQARTAGSGEAWLAICPATPQLVQVGVKTVLDTLPYGEWKTHSRVSS,PRNALGQRTAAIACARRVAL,DNNALGQFTAQIADLDQEYD
61.0,118,148,A,30,MSDSVTVDLRGAHLLMALLDIERVSPELNLAPYVASEDEAELAALPGFEAMRGAGYVVDDEVDEALAARMAVLAAPDLEVVAELSRGRLTLGRIESAFLPPGSRAIPPNEFRVVLARRGDEWVEARRRGDEITVSDVEVDDAASVAALVEEGLSALHEAEPAEVEAVEVPLEELEEAVAEWQETGFDVEAGGALLELGVSEETVAALGDALAAPAAEARVYAFQYREDGFGPSAATLKLSDGSGGRIALFPRREDEEGGERWLVIAPAEPELVDEGVREVLASVPFGEWREHTREVE,TRTDITVNVDGFWMLQALLDIRHVAPELRCRPYVSTDSNDWLNEHPGMAVMREQGIVVNDAVNEQVAARMKVLAAPDLEVVALLSRGKLLYGVIDDENQPPGSRDIPDNEFRVVLARRGQHWVSAVRVGNDITVDDVTVSDSASIAALVMDGLESIHHADPAAINAVNVPMEEMLEATKSWQESGFNVFSGGDLRRMGISAATVAALGQALSDPAAEVAVYARQYRDDAKGPSASVLSLKDGSGGRIALYQQARTAGSGEAWLAICPATPQLVQVGVKTVLDTLPYGEWKTHSRVSS,LLERNALGQFTALIAVERRREQEEELEEAR,LIDNNALGQFTAQIADLDQEYDDFWDEDGE
64.0,115,155,A,40,MSDSVTVDLRGAHLLQALLDIERVSPELNLAPYVASEDRAALADDPGFAAMRGAGYVVDDRVDAALAARMAVLAAPDLEVVAELSRGRLTVGRIVDALLPPGSRAIPPNEHRVVLARRGDEWVEARRRGDEITVSDVAVADAASVAALVREGLDALHRAEPAEVEAVEVPLDALHEATARWQRTGFDVAAGGALLDLGVSAETVAALGDALAAPAAEARVFAFQYRDDGFGPSAATLKLSDGAGGRIALFPRRADAAGGARLLVIAPADPELVDEGVREVLATVPFGDAWTHTRVVD,TRTDITVNVDGFWMLQALLDIRHVAPELRCRPYVSTDSNDWLNEHPGMAVMREQGIVVNDAVNEQVAARMKVLAAPDLEVVALLSRGKLLYGVIDDENQPPGSRDIPDNEFRVVLARRGQHWVSAVRVGNDITVDDVTVSDSASIAALVMDGLESIHHADPAAINAVNVPMEEMLEATKSWQESGFNVFSGGDLRRMGISAATVAALGQALSDPAAEVAVYARQYRDDAKGPSASVLSLKDGSGGRIALYQQARTAGSGEAWLAICPATPQLVQVGVKTVLDTLPYGEWKTHSRVSS,PETLRRLNALGQFTATIAVLRRVEQAVELAVGRLRRELRR,RQILIDNNALGQFTAQIADLDQEYDDFWDEDGEVMRDYRL
64.0,105,155,A,50,MSDSVTVDLRGAQLLMALLDIERVSPELNLAPYVASEEELEALDEPGFEAMRGAGYVVDDEVDEELAARMAVLAEPDLEVVAELSRGRLTVGRIVDALLPPGSLDIPPNEFRVVLARRGDEWVEARRRGDEITVSDVEVEDAASVAELVLEGLSELHEAEPAEVEAVEVPFEELLEATREWQETGFDVEAGGALLELGVSEETVEALGEALAEPAAEARVYAFQYREDGFGPSEATLKLSDGSGGRIALYPRREDEEGGERWLVIAPAEPELVEEGVREVLETVPFGEWEEHSRVVE,TRTDITVNVDGFWMLQALLDIRHVAPELRCRPYVSTDSNDWLNEHPGMAVMREQGIVVNDAVNEQVAARMKVLAAPDLEVVALLSRGKLLYGVIDDENQPPGSRDIPDNEFRVVLARRGQHWVSAVRVGNDITVDDVTVSDSASIAALVMDGLESIHHADPAAINAVNVPMEEMLEATKSWQESGFNVFSGGDLRRMGISAATVAALGQALSDPAAEVAVYARQYRDDAKGPSASVLSLKDGSGGRIALYQQARTAGSGEAWLAICPATPQLVQVGVKTVLDTLPYGEWKTHSRVSS,EEVREALEEAREELLERNALGQYTAAISALDRALGAVEYAEGVLERERRR,LAQIYNNRAERQILIDNNALGQFTAQIADLDQEYDDFWDEDGEVMRDYRL
22.0,24,34,B,10,GDFCAYPPEVLSSAIQSGPGPAALLELAEKTKALEKDEKALLDKFNAAVQALLDATNDPATQAFKAAAAPFQTWLGELVKQLSVIETQINNIVGAYQTAYGNIVPLAEITANKTERQALIDANADGKNTAKIADLDQKYLDYWKKDGEVFKAFYDDVKAALAKITPWTAPPPIG,MHFEAYPPEVNSANIYAGPGPDSMLAAARAWRSLDVEMTAVQRSFNRTLLSLMDAWAGPVVMQLMEAAKPFVRWLTDLCVQLSEVERQIHEIVRAYEWAHHDMVPLAQIYNNRAERQILIDNNALGQFTAQIADLDQEYDDFWDEDGEVMRDYRLRVSDALSKLTPWKAPPPIA,AAAAAPKPTC,APELRCRPYV
31.0,21,41,B,20,GSMENYPPEVLSSAIESGPGPAALLELAEKTKKLEEDEKKALEKFNKAVEDLKKATNDPATEKFVKAAAPFQKWLGDLVKELSKIETQINNIVKAYEEAKSNIVPLEKIKENKTTREKLKKANADGKNTEKIKELDQKYLDYWYTCGVVFRDFYEKVKEALAKITPWTEPPPIG,MHFEAYPPEVNSANIYAGPGPDSMLAAARAWRSLDVEMTAVQRSFNRTLLSLMDAWAGPVVMQLMEAAKPFVRWLTDLCVQLSEVERQIHEIVRAYEWAHHDMVPLAQIYNNRAERQILIDNNALGQFTAQIADLDQEYDDFWDEDGEVMRDYRLRVSDALSKLTPWKAPPPIA,KGESPEKNLKPKVKLKSEKG,RHVAPELRCRPYVSTDSNDW
32.0,12,42,B,30,MNFENYPPEVLSSAIESGPGPAALLELAEKTKKLEKDFKALYEKFNKAVEDLKKATNDPATEKFVKAAAPFQKWLGDLVKELSKIETQINNIVSAYKEAKSNIVPLEKIEANKKERQELIDKNADGKNTAKIIDLDQKYLDYWYTCGVVFKNFYEKVKAALAKITPFTEPPPIG,MHFEAYPPEVNSANIYAGPGPDSMLAAARAWRSLDVEMTAVQRSFNRTLLSLMDAWAGPVVMQLMEAAKPFVRWLTDLCVQLSEVERQIHEIVRAYEWAHHDMVPLAQIYNNRAERQILIDNNALGQFTAQIADLDQEYDDFWDEDGEVMRDYRLRVSDALSKLTPWKAPPPIA,REEMAKKDIKMVSPVLNLKPYVKQEDKKKP,WMLQALLDIRHVAPELRCRPYVSTDSNDWL
32.0,2,42,B,40,MNFEDYPPEVLSSAIESGPGPEALLKLAEKTKELEKKFKELYEKFNKAVEELKKKYNDPATEKFVKAAEPFRKWLGELVENLSKIEEQINKIVEAYKEAKKNIVPLEEIEKNKKEREELIKKNKDGKNTEKIIELDRKYEEYWYKCGEVFKEFYEKVKEALAKIKPFTEPPPIG,MHFEAYPPEVNSANIYAGPGPDSMLAAARAWRSLDVEMTAVQRSFNRTLLSLMDAWAGPVVMQLMEAAKPFVRWLTDLCVQLSEVERQIHEIVRAYEWAHHDMVPLAQIYNNRAERQILIDNNALGQFTAQIADLDQEYDDFWDEDGEVMRDYRLRVSDALSKLTPWKAPPPIA,KEIKVDKEGARKIMEKLDIKMVSPELNLRPYVKNKEEEKK,TDITVNVDGFWMLQALLDIRHVAPELRCRPYVSTDSNDWL
32.0,0,50,B,50,MNFADYPPEVLSSAIESGPGPEALLKLAEKTKELEKKFKELYEKFNKAIEELKKKYNDPITEKFVKAAEPFRKWLKELVENLSKIEEQINKIVEAYKEAKKNIVPLEEIEKNKKEREELIKKNKDGKNTEKIIELDRKYLEYWYKCGEVFKEFYEKVKEALAKIKPFTEPPPIG,MHFEAYPPEVNSANIYAGPGPDSMLAAARAWRSLDVEMTAVQRSFNRTLLSLMDAWAGPVVMQLMEAAKPFVRWLTDLCVQLSEVERQIHEIVRAYEWAHHDMVPLAQIYNNRAERQILIDNNALGQFTAQIADLDQEYDDFWDEDGEVMRDYRLRVSDALSKLTPWKAPPPIA,GDNSIKLNAYGAYLLMAKLDIKMVSPELNLKPYVKNKDKELIKKLEEEKK,TRTDITVNVDGFWMLQALLDIRHVAPELRCRPYVSTDSNDWLNEHPGMAV
