contacts,cs,ce,Chain,Length,designed_receptor_seq,native_receptor_seq,designed_binder_seq,native_binder_seq
10.0,0,10,A,10,DVTLTGSGGGTKAAGSSVTLSCTASGNTPVIDAMGWFRQAPGQSREFVGSITRSGTLSYGSSVGSRATISRDNSQNTVYLTLTNLQPSDTGTYYCAASTWSTLQINGIEFWGSGESLTVTA,QVQLQESGGGLVQAGGSLRLSCEASGNVDRIDAMGWFRQAPGKQREFVGYISEGGILNYGDFVKGRFTISRDNAKNTVYLQMSNLKSEDTGVYFCAASHWGTLLIKGIEHWGKGTQVTVSS,SSSSSSSGTG,QKWEWKVGTG
10.0,0,20,A,20,DVTLTGSGGGTKAAGSSVTLSCTASGNTSVIDAMGWFRQAPGQSREFVGSITRSGTLSYGSSIGSRATISRNNSQNTVYLTLTNLQPSDTGTYYCAASTWSTLQINGIEFWGSGESLTVTA,QVQLQESGGGLVQAGGSLRLSCEASGNVDRIDAMGWFRQAPGKQREFVGYISEGGILNYGDFVKGRFTISRDNAKNTVYLQMSNLKSEDTGVYFCAASHWGTLLIKGIEHWGKGTQVTVSS,TTTTTRTGTGSSSSSSSPSS,QKWEWKVGTGLNGFGNVLND
12.0,5,35,A,30,DVTLTGSGGGTKAAGSSVTLSCTASGNTSVIDAMGWFRQAPGQQREFVGSITRSGVLEYGRDIGSRATISRDNSQNTVYLTLTNLQPSDTGTYYCAASTQSTLQIQGIEFWGSGESLTVTP,QVQLQESGGGLVQAGGSLRLSCEASGNVDRIDAMGWFRQAPGKQREFVGYISEGGILNYGDFVKGRFTISRDNAKNTVYLQMSNLKSEDTGVYFCAASHWGTLLIKGIEHWGKGTQVTVSS,TTTTGGGDFTFTGSDLTNNGTTLTITVTGN,KVGTGLNGFGNVLNDLTNGGTKLTITVTGN
19.0,0,40,A,40,DVTLTGSGGGTKAAGSSVTLSCTASGNTSVIDAMGWFRQAPGQSREFVGSITKSGVLNYGVNVGSRATISRNNSQNTVYLTLTNLQPSDTGTYYCAASTWNTLQINGIEFWGSGESLTVTA,QVQLQESGGGLVQAGGSLRLSCEASGNVDRIDAMGWFRQAPGKQREFVGYISEGGILNYGDFVKGRFTISRDNAKNTVYLQMSNLKSEDTGVYFCAASHWGTLLIKGIEHWGKGTQVTVSS,TTTTTRTGTGFNDFTFTGSDLTNNGTTLTITVTGTKPLTL,QKWEWKVGTGLNGFGNVLNDLTNGGTKLTITVTGNKPILL
19.0,0,50,A,50,DVTLTGSGGGTKAAGSSVTLSCTASGNTSVIDAMGWFRQAPGQQREFVGSITRSGYLNYGVNVGSRATISRNNSQNTVYLTLTNLQPSDTGTYYCAASTWNTLQIQGIEFWGSGESLTVTA,QVQLQESGGGLVQAGGSLRLSCEASGNVDRIDAMGWFRQAPGKQREFVGYISEGGILNYGDFVKGRFTISRDNAKNTVYLQMSNLKSEDTGVYFCAASHWGTLLIKGIEHWGKGTQVTVSS,TNLEFRTGTGFNDFTFTPSDLTNNGTTLTITVTGTIPVFLARAKQSFSTS,QKWEWKVGTGLNGFGNVLNDLTNGGTKLTITVTGNKPILLGRTKEAFATP
18.0,96,106,B,10,MKWEWKVGTGLSSFSHTLSDLSNGGKTLTITVTGDKPILLGRTKEAFSTSSDDIPHVTFTDGDGNTVTLTRPSNDGSAYLDLPMYDSSGNKIGTIRVNCSYAGVYGEGGTTSSSGSLNSLYASGSSDIFYGALPNGSELNSGSAAASRTKAFGSLSESDLLSQIQSVNSNITSLNDDSGSYTLDMNYTDGTVVAAALAIGISNGSTITATFDSAVTSSVTWSAPLNVNITYTSSSFTGSVSIGGTITS,QKWEWKVGTGLNGFGNVLNDLTNGGTKLTITVTGNKPILLGRTKEAFATPVDGIPHIAFTDYEGASVVLRNPNKKGLAYFVLPMKNAEGTKVGSVKVNASYAGVLGRGGVTSADGELLSLFADGLSSIFYGGLPRGSELSAGSAAAARTKLFGSLSRNDILGQIQRVNANITSLVDVAGSYRENMEYTDGTVVSAAYALGIANGQTIEATFNQAVTTSTQWSAPLNVAITYYDNDFNGSVDIGGSITA,SSSWGTSLIS,ASHWGTLLIK
18.0,86,106,B,20,MKWEWQVGSGLSSFSATLSDLSNGGKTLTITVTGDKPILLGRTKEAFSTSSNDIPHVTFTDGDGNTVTLTNPGNDGSAYLDLPMYDSSGNKIGTIRVNCSYAGVYGSGGTTSSSGSLNALYASGSSDIFYGALPNGSQLNSGSAAAAKTKAFGSLSESDLLSQIQSVNSNITSLNDDSGSYTLNMNYTDGTVVAAALAIGISNGDTIVATFDSAVTSSVTWSAPLNVNITYTNDSFTGSVSIGGTITS,QKWEWKVGTGLNGFGNVLNDLTNGGTKLTITVTGNKPILLGRTKEAFATPVDGIPHIAFTDYEGASVVLRNPNKKGLAYFVLPMKNAEGTKVGSVKVNASYAGVLGRGGVTSADGELLSLFADGLSSIFYGGLPRGSELSAGSAAAARTKLFGSLSRNDILGQIQRVNANITSLVDVAGSYRENMEYTDGTVVSAAYALGIANGQTIEATFNQAVTTSTQWSAPLNVAITYYDNDFNGSVDIGGSITA,SSSSGTYTYASSSWGTLLIS,SEDTGVYFCAASHWGTLLIK
18.0,76,106,B,30,MKWEWQVGNGLSGFSATLSDLSNGGKTLTITVTGDKPILLGRTKEAFSTSSNDIPHVTFTDGDGNTVTLTNPGNDGSAYLDLPMYDSSGNKIGTIRVNCSYAGVYGEGGTTSSSGSLNSLYASGSSDIFYGALPNGSQLNSGSAAAAKTKAFGSLSESDLLSQIQSVNSNITSLNDDSGSYTLNMNYTDGTVVAAALAIGISNGDTIVATFDSAVTSSVTWSAPLNVNITYTNDSFTGSVSIGGTITS,QKWEWKVGTGLNGFGNVLNDLTNGGTKLTITVTGNKPILLGRTKEAFATPVDGIPHIAFTDYEGASVVLRNPNKKGLAYFVLPMKNAEGTKVGSVKVNASYAGVLGRGGVTSADGELLSLFADGLSSIFYGGLPRGSELSAGSAAAARTKLFGSLSRNDILGQIQRVNANITSLVDVAGSYRENMEYTDGTVVSAAYALGIANGQTIEATFNQAVTTSTQWSAPLNVAITYYDNDFNGSVDIGGSITA,TASLTLSNIQSSDNGTYTYAKSSWGTLLIN,TVYLQMSNLKSEDTGVYFCAASHWGTLLIK
18.0,66,106,B,40,DRWEWQVGTGLSGFQATLSDLSDGGKTLTITVTGDKPILLGRTKEAFSTSSDDIPHVTFTDGDGNTVTLTNPGNDGSAYLDLPMYDSSGNKIGTIRVNASYAGVYGEGGTTSSSGSLNALYASGSSDIFYGALPNGSELNSGSAAAAKTKAFGSLSESDLLSQIQSVNSNITSLNDDSGSYTLDMNYTDGTVVAAALAIGISNGDTIVATFDSAVTSSVTWSAPLNVNITYTNDSFTGSVSIGGTITS,QKWEWKVGTGLNGFGNVLNDLTNGGTKLTITVTGNKPILLGRTKEAFATPVDGIPHIAFTDYEGASVVLRNPNKKGLAYFVLPMKNAEGTKVGSVKVNASYAGVLGRGGVTSADGELLSLFADGLSSIFYGGLPRGSELSAGSAAAARTKLFGSLSRNDILGQIQRVNANITSLVDVAGSYRENMEYTDGTVVSAAYALGIANGQTIEATFNQAVTTSTQWSAPLNVAITYYDNDFNGSVDIGGSITA,ATLSYDSSADTGYLTITNVQSSDNGTYTYAVSSWGTLLIN,FTISRDNAKNTVYLQMSNLKSEDTGVYFCAASHWGTLLIK
20.0,56,106,B,50,SNWEWQVGNGLSNFSATLSDLSNGGTTLTITVTGDKPILLGRTKSAFSTSSNDIPHVTFTDGNGNTVTLTNPGNDGSAYLDLPMYDSSGNQIGTIRINASYAGVYGEGGTTSSSGSLNALYASGSSDIFYGALPNGSELNSGSAAASRTKAFGSLSQSDLLSQIQSVNSNITSLNNNSGSYTLNMNYTDGTVVAAALAIGISNGSTITATFNSAVTSSTTWSAPLNVNITYTNSSFTGSVSIGGTITS,QKWEWKVGTGLNGFGNVLNDLTNGGTKLTITVTGNKPILLGRTKEAFATPVDGIPHIAFTDYEGASVVLRNPNKKGLAYFVLPMKNAEGTKVGSVKVNASYAGVLGRGGVTSADGELLSLFADGLSSIFYGGLPRGSELSAGSAAAARTKLFGSLSRNDILGQIQRVNANITSLVDVAGSYRENMEYTDGTVVSAAYALGIANGQTIEATFNQAVTTSTQWSAPLNVAITYYDNDFNGSVDIGGSITA,SNYGSSVGSRATFSYNSSSSTGYLTITNVQSSDNGTYTYSVSSWGTLDIS,LNYGDFVKGRFTISRDNAKNTVYLQMSNLKSEDTGVYFCAASHWGTLLIK
