contacts,cs,ce,Chain,Length,designed_receptor_seq,native_receptor_seq,designed_binder_seq,native_binder_seq
17.0,172,182,A,10,LCPPGYTC,PVLPGVKR,PCDLGSCPRC,TDNIFLQEIL
17.0,162,182,A,20,MCEPGVVC,PVLPGVKR,KCLKKCKKKGCTNKCLCPKK,FAIKSADEDGTDNIFLQEIL
22.0,170,200,A,30,MGRPGRKK,PVLPGVKR,KKKKKRSEVPRLPFGSPEEKEKVLKELKEL,DGTDNIFLQEILPVNSEEEFQTLSAAWHSI
22.0,160,200,A,40,MGRPGRIS,PVLPGVKR,RGTVYRWVKRGGKDNPAALPRKPLGSPEERERVERELARL,VQFAIKSADEDGTDNIFLQEILPVNSEEEFQTLSAAWHSI
22.0,150,200,A,50,MARPGVKK,PVLPGVKR,GGGKKNKRGVREKALAEYKKTGKDNPYLRPREPIGSKEEAEKIAKELAKL,IGSNLLDLEVVQFAIKSADEDGTDNIFLQEILPVNSEEEFQTLSAAWHSI
0.0,0,0,B,0,MLYVTPGTAEAIEKINALLIELLSSYISVLGKYIAHLKNVKELEEEREILEKYVKKFEKFNESLKKYNASKNIKEGDKFEDVIKPVAGKFKTIIESFSEFRNYFVVELQGKILAKTKDKNLVLSKETIEAFKKTYDNFVKFYVWLVESLKIGSKELEYKVVKEAKEKAKKEGKKDIFLKEIKPIKSVEEFIKESEKWIKILKGELGKLKEEFKKDAEKLK,DIKVTPGTSELVEQILALLSRYLSSYIHVLNKFISHLRRVATLRFERTTLIKFVKKLRFYNDSVLSYNASEFINEADSFDKVILPIASMFVKCVETFDLLNYYLTQSLQKEILSKTLNEDLTLTAESILAIDDTYNHFVKFSQWMIESLRIGSNLLDLEVVQFAIKSADEDGTDNIFLQEILPVNSEEEFQTLSAAWHSILDGKLGALDEEFDVVATKWH,MLYVTPGTAEAIEKINALLIELLSSYISVLGKYIAHLKNVKELEEEREILEKYVKKFEKFNESLKKYNASKNIKEGDKFEDVIKPVAGKFKTIIESFSEFRNYFVVELQGKILAKTKDKNLVLSKETIEAFKKTYDNFVKFYVWLVESLKIGSKELEYKVVKEAKEKAKKEGKKDIFLKEIKPIKSVEEFIKESEKWIKILKGELGKLKEEFKKDAEKLKGKLEHHHHHH,
0.0,0,0,B,0,MLYVTPGTAEAIEKINALLIELLSSYISVLGKYIAHLKNVKELEEEREILEKYVKKFEKFNESLKKYNASKNIKEGDKFEDVIKPVAGKFKTIIESFSEFRNYFVVELQGKILAKTKDKNLVLSKETIEAFKKTYDNFVKFYVWLVESLKIGSKELEYKVVKEAKEKAKKEGKKDIFLKEIKPIKSVEEFIKESEKWIKILKGELGKLKEEFKKDAEKLK,DIKVTPGTSELVEQILALLSRYLSSYIHVLNKFISHLRRVATLRFERTTLIKFVKKLRFYNDSVLSYNASEFINEADSFDKVILPIASMFVKCVETFDLLNYYLTQSLQKEILSKTLNEDLTLTAESILAIDDTYNHFVKFSQWMIESLRIGSNLLDLEVVQFAIKSADEDGTDNIFLQEILPVNSEEEFQTLSAAWHSILDGKLGALDEEFDVVATKWH,MLYVTPGTAEAIEKINALLIELLSSYISVLGKYIAHLKNVKELEEEREILEKYVKKFEKFNESLKKYNASKNIKEGDKFEDVIKPVAGKFKTIIESFSEFRNYFVVELQGKILAKTKDKNLVLSKETIEAFKKTYDNFVKFYVWLVESLKIGSKELEYKVVKEAKEKAKKEGKKDIFLKEIKPIKSVEEFIKESEKWIKILKGELGKLKEEFKKDAEKLKGKLEHHHHHH,
0.0,0,0,B,0,MLYVTPGTAEAIEKINALLIELLSSYISVLGKYIAHLKNVKELEEEREILEKYVKKFEKFNESLKKYNASKNIKEGDKFEDVIKPVAGKFKTIIESFSEFRNYFVVELQGKILAKTKDKNLVLSKETIEAFKKTYDNFVKFYVWLVESLKIGSKELEYKVVKEAKEKAKKEGKKDIFLKEIKPIKSVEEFIKESEKWIKILKGELGKLKEEFKKDAEKLK,DIKVTPGTSELVEQILALLSRYLSSYIHVLNKFISHLRRVATLRFERTTLIKFVKKLRFYNDSVLSYNASEFINEADSFDKVILPIASMFVKCVETFDLLNYYLTQSLQKEILSKTLNEDLTLTAESILAIDDTYNHFVKFSQWMIESLRIGSNLLDLEVVQFAIKSADEDGTDNIFLQEILPVNSEEEFQTLSAAWHSILDGKLGALDEEFDVVATKWH,MLYVTPGTAEAIEKINALLIELLSSYISVLGKYIAHLKNVKELEEEREILEKYVKKFEKFNESLKKYNASKNIKEGDKFEDVIKPVAGKFKTIIESFSEFRNYFVVELQGKILAKTKDKNLVLSKETIEAFKKTYDNFVKFYVWLVESLKIGSKELEYKVVKEAKEKAKKEGKKDIFLKEIKPIKSVEEFIKESEKWIKILKGELGKLKEEFKKDAEKLKGKLEHHHHHH,
0.0,0,0,B,0,MLYVTPGTAEAIEKINALLIELLSSYISVLGKYIAHLKNVKELEEEREILEKYVKKFEKFNESLKKYNASKNIKEGDKFEDVIKPVAGKFKTIIESFSEFRNYFVVELQGKILAKTKDKNLVLSKETIEAFKKTYDNFVKFYVWLVESLKIGSKELEYKVVKEAKEKAKKEGKKDIFLKEIKPIKSVEEFIKESEKWIKILKGELGKLKEEFKKDAEKLK,DIKVTPGTSELVEQILALLSRYLSSYIHVLNKFISHLRRVATLRFERTTLIKFVKKLRFYNDSVLSYNASEFINEADSFDKVILPIASMFVKCVETFDLLNYYLTQSLQKEILSKTLNEDLTLTAESILAIDDTYNHFVKFSQWMIESLRIGSNLLDLEVVQFAIKSADEDGTDNIFLQEILPVNSEEEFQTLSAAWHSILDGKLGALDEEFDVVATKWH,MLYVTPGTAEAIEKINALLIELLSSYISVLGKYIAHLKNVKELEEEREILEKYVKKFEKFNESLKKYNASKNIKEGDKFEDVIKPVAGKFKTIIESFSEFRNYFVVELQGKILAKTKDKNLVLSKETIEAFKKTYDNFVKFYVWLVESLKIGSKELEYKVVKEAKEKAKKEGKKDIFLKEIKPIKSVEEFIKESEKWIKILKGELGKLKEEFKKDAEKLKGKLEHHHHHH,
0.0,0,0,B,0,MLYVTPGTAEAIEKINALLIELLSSYISVLGKYIAHLKNVKELEEEREILEKYVKKFEKFNESLKKYNASKNIKEGDKFEDVIKPVAGKFKTIIESFSEFRNYFVVELQGKILAKTKDKNLVLSKETIEAFKKTYDNFVKFYVWLVESLKIGSKELEYKVVKEAKEKAKKEGKKDIFLKEIKPIKSVEEFIKESEKWIKILKGELGKLKEEFKKDAEKLK,DIKVTPGTSELVEQILALLSRYLSSYIHVLNKFISHLRRVATLRFERTTLIKFVKKLRFYNDSVLSYNASEFINEADSFDKVILPIASMFVKCVETFDLLNYYLTQSLQKEILSKTLNEDLTLTAESILAIDDTYNHFVKFSQWMIESLRIGSNLLDLEVVQFAIKSADEDGTDNIFLQEILPVNSEEEFQTLSAAWHSILDGKLGALDEEFDVVATKWH,MLYVTPGTAEAIEKINALLIELLSSYISVLGKYIAHLKNVKELEEEREILEKYVKKFEKFNESLKKYNASKNIKEGDKFEDVIKPVAGKFKTIIESFSEFRNYFVVELQGKILAKTKDKNLVLSKETIEAFKKTYDNFVKFYVWLVESLKIGSKELEYKVVKEAKEKAKKEGKKDIFLKEIKPIKSVEEFIKESEKWIKILKGELGKLKEEFKKDAEKLKGKLEHHHHHH,
