contacts,cs,ce,Chain,Length,designed_receptor_seq,native_receptor_seq,designed_binder_seq,native_binder_seq
25.0,8,18,A,10,MEINKENLENFLKNCLKPVELKEINFKTEPLIAALVISKETGFILSYATNNNIEELKIISALIQSKYSINSELNLTVVPIEIDKNKTNIYTFKIEDLNTTVAQIPNSDLLLLFIADGSYPLGLLVIKIKEALKELKPLFGFKI,VMLHSKNVKGFLENTLKPYDLHSVDFKTSSLQSSMIITATNGGILSYATSNSVNNLKMMSLLIKDKWSEDENDTNSCYPVEIDSFKTKIYTYEMEDLHTCVAQIPNSDLLLLFIAEGSFPYGLLVIKIERAMRELTDLFGYKL,DEFGNEIFKI,DTHGNVIEST
26.0,0,20,A,20,MEINKENLENFLKNCLKPVESKLINFKTEPLIAALVISKKTGFILSSATSENEEELKKISALIQKKYSINSLLKKTVYPIEIDKNKTNIYTFKIEDLNTTVAQIPESDLLLLFIADGSYPLGLLTIKIKEALKELKPLFGFKE,VMLHSKNVKGFLENTLKPYDLHSVDFKTSSLQSSMIITATNGGILSYATSNSVNNLKMMSLLIKDKWSEDENDTNSCYPVEIDSFKTKIYTYEMEDLHTCVAQIPNSDLLLLFIAEGSFPYGLLVIKIERAMRELTDLFGYKL,EIKGVKIFDKNGNTIAETGE,DIKGTIAFDTHGNVIESTGV
26.0,0,30,A,30,MEINKENLENFLKNCLKPVESKEINFKTEPLIAALVISKETGFILSSATNNDEESLKIISALITSKYSINSELKKTIYPIEIEKEKTNIYTFKIEDLNTTVAQIPKSDLLLLFIADGSYPKGLLVKDIKESLENLKPLFGFKI,VMLHSKNVKGFLENTLKPYDLHSVDFKTSSLQSSMIITATNGGILSYATSNSVNNLKMMSLLIKDKWSEDENDTNSCYPVEIDSFKTKIYTYEMEDLHTCVAQIPNSDLLLLFIAEGSFPYGLLVIKIERAMRELTDLFGYKL,ELIGTIEFDENGEVISATGIGKENLEIIKK,DIKGTIAFDTHGNVIESTGVGSQRIEDIGD
26.0,0,40,A,40,MEINKENLENFLKNCLKPVESKLVNFKTEPLIAALVISKETGFILSSATSENEEELKKISALITSKYSINSLLKKTVYPIEIEKEKTNIYTFKVEDLNTTVAQIPKSDLLLLFIADGSYPEGLLVKDIYYSLKELKPLFGFKS,VMLHSKNVKGFLENTLKPYDLHSVDFKTSSLQSSMIITATNGGILSYATSNSVNNLKMMSLLIKDKWSEDENDTNSCYPVEIDSFKTKIYTYEMEDLHTCVAQIPNSDLLLLFIAEGSFPYGLLVIKIERAMRELTDLFGYKL,KKIGEIAFDKNGNIILSTGIGKENIKLIKKLKEIKLDKNG,DIKGTIAFDTHGNVIESTGVGSQRIEDIGDLSKVTLDAEG
26.0,0,50,A,50,MEINKENLENFLKNCLKPVESKLVNFKTEPLIAALVISKETGFILSSATSENEEELKKISALITSRYSINSLLKETVYPIEIEKEKTNIYTFKVEDLNTTVAQIPKSDLLLLFIADGSYPKGLLVKDIKEALEELKPLFGFKS,VMLHSKNVKGFLENTLKPYDLHSVDFKTSSLQSSMIITATNGGILSYATSNSVNNLKMMSLLIKDKWSEDENDTNSCYPVEIDSFKTKIYTYEMEDLHTCVAQIPNSDLLLLFIAEGSFPYGLLVIKIERAMRELTDLFGYKL,EKVGTIEFDEKGNVISSTGIGSKRIEDIKELSSIKLDKKGFAITSKGDKI,DIKGTIAFDTHGNVIESTGVGSQRIEDIGDLSKVTLDAEGFAQVQGDSLL
13.0,116,126,B,10,STLGTISFDDAGDVVSSTGVGSQRLSDIGALSAVTLDADGFAVTSGGDVRQNLFTANGVTLVTYTNA,DIKGTIAFDTHGNVIESTGVGSQRIEDIGDLSKVTLDAEGFAQVQGDSLLVHLYKRNDITLAVYTSA,PNVPAGLAAL,GSFPYGLLVI
13.0,106,126,B,20,SVLGTIRFDEKGDVISATGVGKERLSDIGRLKAVKLDAKGFAEVSDGDVKINLFTTDGVTLATYTKA,DIKGTIAFDTHGNVIESTGVGSQRIEDIGDLSKVTLDAEGFAQVQGDSLLVHLYKRNDITLAVYTSA,SDKVTVKVVDGSFPLGLARK,SDLLLLFIAEGSFPYGLLVI
13.0,96,126,B,30,SVLGTIRFDEKGDVISSTGVGSERLSDIGRLSAVKLDAKGFAEVSDGDVLINLFTANGVTSATYTNK,DIKGTIAFDTHGNVIESTGVGSQRIEDIGDLSKVTLDAEGFAQVQGDSLLVHLYKRNDITLAVYTSA,ANTVSARIPNSDKVLVLVADGSFPLGLLKK,LHTCVAQIPNSDLLLLFIAEGSFPYGLLVI
14.0,86,126,B,40,SVLGTIRFDEEGRVISSTGVGSERLSDIGRLKAVKLDAKGFAEVSDGDVLINLFTANGVTSATYTNK,DIKGTIAFDTHGNVIESTGVGSQRIEDIGDLSKVTLDAEGFAQVQGDSLLVHLYKRNDITLAVYTSA,AKVEFKKLDDLNTTVRQIPGSDKYEVKIASGDFPIGALVK,TKIYTYEMEDLHTCVAQIPNSDLLLLFIAEGSFPYGLLVI
16.0,75,125,B,50,SNLGTISFDTLGNVISSTGVGSQRLSDISSLKAVKLDSKGYAVVSNGDVKENLYTKDNVTLVTYTNS,DIKGTIAFDTHGNVIESTGVGSQRIEDIGDLSKVTLDAEGFAQVQGDSLLVHLYKRNDITLAVYTSA,SSYPISINNQSTTIYTKKLNNYNTTIYQIPNSNYYKVNIASGSYPLGKLF,SCYPVEIDSFKTKIYTYEMEDLHTCVAQIPNSDLLLLFIAEGSFPYGLLV
