contacts,cs,ce,Chain,Length,designed_receptor_seq,native_receptor_seq,designed_binder_seq,native_binder_seq
16.0,71,81,A,10,MDEEERERLEQELLRLEKELLELELELLRLEE,PDAYRFLTEQDRQLRLLQAQIQRLLEAQSLMP,ELEELEEEEE,LSSILLMFSN
23.0,56,76,A,20,MDEEELKKKLEEAKKKLKEALEKLLELQKKLP,PDAYRFLTEQDRQLRLLQAQIQRLLEAQSLMP,LKVKLPEEVLEKLKELKEKL,ENEKLPDYIKQKLQCLSSIL
31.0,55,85,A,30,MDEEEFEKERQRLLKELKEALERLLELQKKLP,PDAYRFLTEQDRQLRLLQAQIQRLLEAQSLMP,PLEEVLPEEVLEKLRELREKLEELEDERPL,GENEKLPDYIKQKLQCLSSILLMFSNPTPN
31.0,36,76,A,40,GSHMAAAAAAAAAAAARRAALAARLAAQAALP,PDAYRFLTEQDRQLRLLQAQIQRLLEAQSLMP,AAGAPAVTVTYPDGRTVRYGADEVLPAAVLAALRAERARL,QAGVSSISYTSPNGQTTRYGENEKLPDYIKQKLQCLSSIL
41.0,35,85,A,50,GSHMAAAVAAQAALAALRAQLAARLAAQAAMP,PDAYRFLTEQDRQLRLLQAQIQRLLEAQSLMP,VAAGRPEVTVTYPDGRTVVYGADEVLPAAVLAALREARAALDAAADPAPA,VQAGVSSISYTSPNGQTTRYGENEKLPDYIKQKLQCLSSILLMFSNPTPN
23.0,12,22,B,10,GSHMEETREFEPYGTATRYSNGALHVEYNDGSELYVQAGKKSVTFKDPSGKTTTYGENEELPQEVKDKLKLAKEMLDAFVDPTPKTG,SAQLLKSVFVKNVGWATQLTSGAVWVQFNDGSQLVVQAGVSSISYTSPNGQTTRYGENEKLPDYIKQKLQCLSSILLMFSNPTPNFH,KLEELKEQLG,QLRLLQAQIQ
41.0,8,28,B,20,GSHMLETREFEPVGTATLYDDGSLDVRYDDGSRLFVKAGDDRVTFTDPGGRTTTYGRDETLPDEVVERLRLAREMLDAFVDPTPETG,SAQLLKSVFVKNVGWATQLTSGAVWVQFNDGSQLVVQAGVSSISYTSPNGQTTRYGENEKLPDYIKQKLQCLSSILLMFSNPTPNFH,GAQAALAALREQLARRLAAQ,EQDRQLRLLQAQIQRLLEAQ
45.0,1,31,B,30,GSHMVETKEFEPYGTATMYSDGSLDVKYNDGSHLYVKAGDDSITYTYPNGETKTYGKDEKLPQEVLDKIRLAQEMLKGFKDPTPVTG,SAQLLKSVFVKNVGWATQLTSGAVWVQFNDGSQLVVQAGVSSISYTSPNGQTTRYGENEKLPDYIKQKLQCLSSILLMFSNPTPNFH,GGGGGGGGGQGALAALQQQLAERLKKQEEL,DAYRFLTEQDRQLRLLQAQIQRLLEAQSLM
0.0,0,0,B,0,GSMELERREFEGVGVITRYSDGSYHVEYDDGSELRVKKGDPSVTFTYPDGRTVTYGRDEELPEEVLERLRLLEEMLKGFEDPTPVTG,SAQLLKSVFVKNVGWATQLTSGAVWVQFNDGSQLVVQAGVSSISYTSPNGQTTRYGENEKLPDYIKQKLQCLSSILLMFSNPTPNFH,GSMELERREFEGVGVITRYSDGSYHVEYDDGSELRVKKGDPSVTFTYPDGRTVTYGRDEELPEEVLERLRLLEEMLKGFEDPTPVTGPPPPPPPPPP,
0.0,0,0,B,0,GSMELERREFEGVGVITRYSDGSYHVEYDDGSELRVKKGDPSVTFTYPDGRTVTYGRDEELPEEVLERLRLLEEMLKGFEDPTPVTG,SAQLLKSVFVKNVGWATQLTSGAVWVQFNDGSQLVVQAGVSSISYTSPNGQTTRYGENEKLPDYIKQKLQCLSSILLMFSNPTPNFH,GSMELERREFEGVGVITRYSDGSYHVEYDDGSELRVKKGDPSVTFTYPDGRTVTYGRDEELPEEVLERLRLLEEMLKGFEDPTPVTGPPPPPPPPPP,
