contacts,cs,ce,Chain,Length,designed_receptor_seq,native_receptor_seq,designed_binder_seq,native_binder_seq
17.0,58,68,A,10,MKKALLELLEELERLKEELERLKEELEGLKEELEELEELEELEELEELEELEE,QLQAAESRYEAQKRITQVFELEILDLYGRLEKDGLLKKLEEEKAEAAEAAEER,EELEELEELE,MYRKEQYLDV
27.0,55,75,A,20,MKEAKERLEEVKKEIEERRKEYEEKRKEEEEKKKKEEEEKKKEEEEKKKEEEE,QLQAAESRYEAQKRITQVFELEILDLYGRLEKDGLLKKLEEEKAEAAEAAEER,EKKKEEEEKKEEEEKAKEEE,KVMMYRKEQYLDVLHALKVV
30.0,45,75,A,30,MKEAKERLEKAKEEIEKRREEYRKKLEEELKKLDPEKLEELKKLEEELKKLEE,QLQAAESRYEAQKRITQVFELEILDLYGRLEKDGLLKKLEEEKAEAAEAAEER,KLPPEEELKEEVEKLLKEKEELEKKAEEEL,ILPPHHESHAKVMMYRKEQYLDVLHALKVV
34.0,55,95,A,40,MKKAYERLQEARKAIERRREEERRRRLGELRREGREEEERRREEEERRREEEE,QLQAAESRYEAQKRITQVFELEILDLYGRLEKDGLLKKLEEEKAEAAEAAEER,EVRRLLREEREAVRRALEEVGEVSEETPPEEVERRKEELL,KVMMYRKEQYLDVLHALKVVRFVSDATPQAEVYLRMYQLE
37.0,45,95,A,50,MKKAKERLEKAKERIEERRKEERERIKGELEKLGLEELEKLKEELEKLKEELE,QLQAAESRYEAQKRITQVFELEILDLYGRLEKDGLLKKLEEEKAEAAEAAEER,ELPPEEELKEEVEKELEEERELVKEALEELGEISEETPPEEVEKKKEELL,ILPPHHESHAKVMMYRKEQYLDVLHALKVVRFVSDATPQAEVYLRMYQLE
21.0,9,19,B,10,GSHMEEELKKLLEEEVLSIEKLREYALRYPIPPEYRTLVWKVLLEILPPEREKWEEVEKKLREEYEAVKEALKEKGYISEETPPEEVYLFMYLLKEGKLPESPEEPLKPWQEVFLAIARAILEIVEDEVDAFWITYRFYEMLLTKFKEELPLLPELLKEYLEKEDPELLEHLEERNALPLLPYEEWFRRAFAGLIPPESLRKVWDVVVAGEVRILVFVAVEILLTFREEILKLESAEEIREFLLNIPEEKSEEIVERAIELWKKHLGVEELEG,GVEEKKSLEILLKDDRLDTEKLCTFSQRFPLPSMYRALVWKVLLGILPPHHESHAKVMMYRKEQYLDVLHALKVVRFVSDATPQAEVYLRMYQLESGKLPRSPSFPLEPDDEVFLAIAKAMEEMVEDSVDCYWITRRFVNQLNTKYRDSLPQLPKAFEQYLNLEDGRLLTHLRMCSAAPKLPYDLWFKRCFAGCLPESSLQRVWDKVVSGSCKILVFVAVEILLTFKIKVMALNSAEKITKFLENIPQDSSDAIVSKAIDLWHKHCGTPVHSS,EVRERIEELR,EAQKRITQVF
37.0,0,20,B,20,GSHMEEELKKLLEEEVLSIEKLREYALRYPIPPEYRTLVWKVLLRILPPERELHEEVEKELREEYELVKEALIETGYISEETPPEEVYLFMYLLKRGRLPESPEEPLRPEDLVFLAIARAILEIVEDEVDAFWITYRFYEMLRTRFREELPRLPELLKEYLEKEDPELLEHLEERNALPLLPYEEWFRRAFAGLIPPESLRRVWDVVVAGEVRILVFVAVEILLTFREEILELESAEEIREFLLNIPEERSEEIVERAIELWKEHLGVEELEG,GVEEKKSLEILLKDDRLDTEKLCTFSQRFPLPSMYRALVWKVLLGILPPHHESHAKVMMYRKEQYLDVLHALKVVRFVSDATPQAEVYLRMYQLESGKLPRSPSFPLEPDDEVFLAIAKAMEEMVEDSVDCYWITRRFVNQLNTKYRDSLPQLPKAFEQYLNLEDGRLLTHLRMCSAAPKLPYDLWFKRCFAGCLPESSLQRVWDKVVSGSCKILVFVAVEILLTFKIKVMALNSAEKITKFLENIPQDSSDAIVSKAIDLWHKHCGTPVHSS,LERAREEREEARERIEELLE,QLQAAESRYEAQKRITQVFE
38.0,0,30,B,30,GSHMEEELKKLLEEEVLSIEKLREYALRYPIPPEYRTLVWKVLLRILPPERELHEEVEKELREEYELVKEALIETGYISEETPPEEEYLFMYLLKRGRLPESPEEPLRPEDLVFLAIARAILEIVEDEVDAFWITYRFYEMLRTRFREELPRLPELLKEYLEKEDPELLEHLEERNALPLLPYEEWFRRAFAGLIPPESLRRVWDVVVAGDVEILVFVAVEILLTFREEILELESAEEIREFLLNIPEERSEEIVERAIELWKKHRGVEELEG,GVEEKKSLEILLKDDRLDTEKLCTFSQRFPLPSMYRALVWKVLLGILPPHHESHAKVMMYRKEQYLDVLHALKVVRFVSDATPQAEVYLRMYQLESGKLPRSPSFPLEPDDEVFLAIAKAMEEMVEDSVDCYWITRRFVNQLNTKYRDSLPQLPKAFEQYLNLEDGRLLTHLRMCSAAPKLPYDLWFKRCFAGCLPESSLQRVWDKVVSGSCKILVFVAVEILLTFKIKVMALNSAEKITKFLENIPQDSSDAIVSKAIDLWHKHCGTPVHSS,LERAREEREEARERIEELREREREREEERR,QLQAAESRYEAQKRITQVFELEILDLYGRL
38.0,0,40,B,40,GSHMEEELKKLLEEEVLSIEKLREYALRYPIPPEYRTLVWKVLLRILPPERELHEEVEKELREEYELVKEALIETGYISEETPPEEEYLFMYLLKRGRLPESPEEPLRPEDLVFLAIARAILEIVEDEVDAFWITYRFYEMLRTVFREELPRLPELLEEYLEKEDPELLEHLRERNALPLLPYEEWFRRAFAGLIPPESLRRVWDVVVAGDVEILVFVAVEILLTFREEILELESAEEIREFLLNIPEERSEEIVERAIELWKKHRGVEELEG,GVEEKKSLEILLKDDRLDTEKLCTFSQRFPLPSMYRALVWKVLLGILPPHHESHAKVMMYRKEQYLDVLHALKVVRFVSDATPQAEVYLRMYQLESGKLPRSPSFPLEPDDEVFLAIAKAMEEMVEDSVDCYWITRRFVNQLNTKYRDSLPQLPKAFEQYLNLEDGRLLTHLRMCSAAPKLPYDLWFKRCFAGCLPESSLQRVWDKVVSGSCKILVFVAVEILLTFKIKVMALNSAEKITKFLENIPQDSSDAIVSKAIDLWHKHCGTPVHSS,LERARERREEARERIEELRERERERLEEELRELGLEELLE,QLQAAESRYEAQKRITQVFELEILDLYGRLEKDGLLKKLE
38.0,0,50,B,50,GSHMEEELKKLLEEEVLSIEKLREYALRYPIPPEYRTLVWKVLLRILPPERKLHEEVEKELREEYELVKEALIETGYISEETPPEEEYLFMYLLKRGKLPESPEEPLKPEDLVFLAIARAILEIVEDEVDAFWITYRFYEMLRTVFKEELPKLPELLKEYLEKEDPELLEHLEERNALPLLPYEEWFRRAFAGLIPPESLRKVWDVVVAGDVRILVFVAVEILLTFREEILKLESAEEIREFLLNIPEEKSEEIVERAIELWKKHLGVEELEG,GVEEKKSLEILLKDDRLDTEKLCTFSQRFPLPSMYRALVWKVLLGILPPHHESHAKVMMYRKEQYLDVLHALKVVRFVSDATPQAEVYLRMYQLESGKLPRSPSFPLEPDDEVFLAIAKAMEEMVEDSVDCYWITRRFVNQLNTKYRDSLPQLPKAFEQYLNLEDGRLLTHLRMCSAAPKLPYDLWFKRCFAGCLPESSLQRVWDKVVSGSCKILVFVAVEILLTFKIKVMALNSAEKITKFLENIPQDSSDAIVSKAIDLWHKHCGTPVHSS,LERARERREEARERIEELRERERERLLEELEKEGLEELEELEELLEGLEE,QLQAAESRYEAQKRITQVFELEILDLYGRLEKDGLLKKLEEEKAEAAEAA
