contacts,cs,ce,Chain,Length,designed_receptor_seq,native_receptor_seq,designed_binder_seq,native_binder_seq
26.0,2,12,A,10,MDFKEKVKLPEGVEFEKHVAVWTKTFFGAAKLLWGELKDYFTKENAPVAACGPDYVIYGSSSPEPEPTTAPEYIEKLINDIEDIFNDESIVPKEEGVPFPEDFIEIAKWTLTRLYQVFCIIYKEFKEPLKKKDLEKYFLTLFYMFMTFVKEHNLIDEEVLKPLEDIIEKLPE,GNLRMAVMLPEGEDLNEWVAVNTVDFFNQINMLYGTITDFCTEESCPVMSAGPKYEYHWADGKKPIKCSAPKYIDYLMTWVQDQLDDETLFPSKIGVPFPKNFMSVAKTILKRLFRVYAHIYHQHFDPVIQLQEEAHLNTSFKHFIFFVQEFNLIDRRELAPLQELIEKLTS,KFVEVMKKLV,AFKFFMEQHV
36.0,0,20,A,20,MDFKEVVKLPEGVELNRHIAVWTKLFYGLTKLLVGVLKDYFTEETAPVAACGPDYVIYWEEEPEPEPTTAPEYIERLINEIEDIFNDEEIFPTEEGVPFPEDFIEIAKWTLTRLYQVYCIIYKEFKEPLKKLDLEEYFLTGLYMFLTFVKEHNLIDEEVLEPLKDLIEELPE,GNLRMAVMLPEGEDLNEWVAVNTVDFFNQINMLYGTITDFCTEESCPVMSAGPKYEYHWADGKKPIKCSAPKYIDYLMTWVQDQLDDETLFPSKIGVPFPKNFMSVAKTILKRLFRVYAHIYHQHFDPVIQLQEEAHLNTSFKHFIFFVQEFNLIDRRELAPLQELIEKLTS,KEEFKKVMEELEEFIIKLYK,PQAFKFFMEQHVENVLKSHQ
38.0,0,30,A,30,MDLKEVVKLPEGVELNRHIAVWTKLFYGLTKLLVGVLEKYFTKETAPVAACGPDYVIYWEEEPEPEPTTAPEYIKKLIEDIENIFNDESIVPKEEGVPFPEDFIEIAKWTLTRLYQVYCIIYKEFKEPLKKLNLEKYFLTGLYMFLTFVKEHNLIDEEVLKPLEDIIEKLPE,GNLRMAVMLPEGEDLNEWVAVNTVDFFNQINMLYGTITDFCTEESCPVMSAGPKYEYHWADGKKPIKCSAPKYIDYLMTWVQDQLDDETLFPSKIGVPFPKNFMSVAKTILKRLFRVYAHIYHQHFDPVIQLQEEAHLNTSFKHFIFFVQEFNLIDRRELAPLQELIEKLTS,EGLFKEVMEKLVEAVKKAYEAYLEELKKAK,PQAFKFFMEQHVENVLKSHQQRLHRKKQLE
38.0,0,40,A,40,MDLKEVVKLPEGVELNRHIAVWTKLFYGLTKLLVGVLEKYFTKETAPVAACGPDYVIYWEEEPEPEPTTAPEYIKKLIEEIEEIFNDEEIVPKEEGVPFPEDFLEIARWTLTRLYQVYCIIYKELKEPLKKLDLEKYFLTGLYMFLTFVKEHNLIDEEVLKPLEDLIEKLPE,GNLRMAVMLPEGEDLNEWVAVNTVDFFNQINMLYGTITDFCTEESCPVMSAGPKYEYHWADGKKPIKCSAPKYIDYLMTWVQDQLDDETLFPSKIGVPFPKNFMSVAKTILKRLFRVYAHIYHQHFDPVIQLQEEAHLNTSFKHFIFFVQEFNLIDRRELAPLQELIEKLTS,EGLFKEVMEKLVEAVKKAYEAYKEAVEKAEELLKKLGLEP,PQAFKFFMEQHVENVLKSHQQRLHRKKQLENEMMRVGLSQ
38.0,0,50,A,50,MDLKEVVKLPEGVELNRHIAVWTKVFYGLTKLLVGVLEKYITKENAPVAACGPDYVIYWEEEPEPEPTTAPEYIKKLINDIENIFNDESIVPKEEGVPFPEDFIEIAKWTLTRLYQVYCIIYKEFKEPLKKLNLEKYFLTGLYMFLTFVKEHNLIDEEVLKPLEDIIEKLPE,GNLRMAVMLPEGEDLNEWVAVNTVDFFNQINMLYGTITDFCTEESCPVMSAGPKYEYHWADGKKPIKCSAPKYIDYLMTWVQDQLDDETLFPSKIGVPFPKNFMSVAKTILKRLFRVYAHIYHQHFDPVIQLQEEAHLNTSFKHFIFFVQEFNLIDRRELAPLQELIEKLTS,EGLFKEVMEKLVEAIKKAYEAEKERRERLEKLLEELGLDEETRKKLEELL,PQAFKFFMEQHVENVLKSHQQRLHRKKQLENEMMRVGLSQDAQDQMRKML
14.0,11,21,B,10,MELKEKINKELKEAVEKAKEAVEKAKEAFEKALKGKGLDKETKEKLKKALEEAIEKAIEEAKEA,PQAFKFFMEQHVENVLKSHQQRLHRKKQLENEMMRVGLSQDAQDQMRKMLCQKESNYIRLKRAK,ALKKEVLEKL,GEDLNEWVAV
25.0,1,21,B,20,GSHMAELNKKLKEAVVKAYTAVNELYKKFFEEMKGKGLDKATIKKETKKLEELINKAIEEAKKE,PQAFKFFMEQHVENVLKSHQQRLHRKKQLENEMMRVGLSQDAQDQMRKMLCQKESNYIRLKRAK,LGKEVKKLPPGIDKEIWEKI,NLRMAVMLPEGEDLNEWVAV
35.0,2,32,B,30,MELKEKILKELKEAVEKGYKAVKELYEKFFEELKKKGLDEETIKKLEEELYKLIEKAIKEAIEK,PQAFKFFMEQHVENVLKSHQQRLHRKKQLENEMMRVGLSQDAQDQMRKMLCQKESNYIRLKRAK,LEEVLKLPPGIKEEIWKKAWEKLLELIKKL,LRMAVMLPEGEDLNEWVAVNTVDFFNQINM
39.0,0,40,B,40,MGLYEEVMKKLKEAVVKGYEAVKELYKKFFEELKGKGYDEETIKKLSEELEKLIEKAIKEAIEK,PQAFKFFMEQHVENVLKSHQQRLHRKKQLENEMMRVGLSQDAQDQMRKMLCQKESNYIRLKRAK,YDLEEVLKLPPGIKEEIWKEAWEKLLEGIKKLKEGEKKEE,GNLRMAVMLPEGEDLNEWVAVNTVDFFNQINMLYGTITDF
39.0,0,50,B,50,MEEYKKFMEELEKAVVEGYKAVQELYKKFFEEMKGKGYDEETIKKEAEKLEKLIEKAILEAIKE,PQAFKFFMEQHVENVLKSHQQRLHRKKQLENEMMRVGLSQDAQDQMRKMLCQKESNYIRLKRAK,YDLKKVLELPKGIKEEVWKKAWEKLLEGVLKLYEGERKEEIKEEEVPVPG,GNLRMAVMLPEGEDLNEWVAVNTVDFFNQINMLYGTITDFCTEESCPVMS
