contacts,cs,ce,Chain,Length,designed_receptor_seq,native_receptor_seq,designed_binder_seq,native_binder_seq
17.0,24,34,A,10,GPLANIDTPEERLKRLEELIKKATENEIKAKENEKKAKENKAKLDKEIKKYKDEFEKYKKELEENIKKAKETAP,HPNLDTFTPEELLQQMKELLTENHQLKEAMKLNNQAMKGRFEELSAWTEKQKEERQFFEIQSKEAKERLMALSH,KEKEERLKRL,KELAENNHIL
31.0,14,34,A,20,GPLANIDTPEEREKRYQELLKKATELRDLLKENNALNKKLKAALDKSEKKYRDEFEKYRKELEENIAKLKKEAP,HPNLDTFTPEELLQQMKELLTENHQLKEAMKLNNQAMKGRFEELSAWTEKQKEERQFFEIQSKEAKERLMALSH,ELKDIFKEITEEIKEHNIIT,KLKEEMEGVVKELAENNHIL
40.0,4,34,A,30,GPLANIDTPEERLKRMRELIKLATEERELLKELNKLDEELKKALTKSEKKFKEELEKYEKELKELKEKIEKEKK,HPNLDTFTPEELLQQMKELLTENHQLKEAMKLNNQAMKGRFEELSAWTEKQKEERQFFEIQSKEAKERLMALSH,EKKELKKGLEELKKIREEIEKEIEKHKKIL,TLVEMTLGMKKLKEEMEGVVKELAENNHIL
48.0,0,40,A,40,GPLANIDTEEERLERMREKIKEATRRREEAKKANEEFKRLYEELTKFFKKHKEEFEKYKKELEELKKKYEETKK,HPNLDTFTPEELLQQMKELLTENHQLKEAMKLNNQAMKGRFEELSAWTEKQKEERQFFEIQSKEAKERLMALSH,PSKEVLEELKKGEEELKRIEEEIKKEIEEEKRILKEFGKL,PSSNTLVEMTLGMKKLKEEMEGVVKELAENNHILERFGSL
0.0,0,0,A,0,GPLADVDTPEERLRRLRELERENRRLEEELKAAEAEVERLRAELERENRRLEEERERERRRLEEELRRLREENP,HPNLDTFTPEELLQQMKELLTENHQLKEAMKLNNQAMKGRFEELSAWTEKQKEERQFFEIQSKEAKERLMALSH,GPLADVDTPEERLRRLRELERENRRLEEELKAAEAEVERLRAELERENRRLEEERERERRRLEEELRRLREENPRLEEELRRLR,
16.0,24,34,B,10,MSLGERISKSIGNANKALVNVGKVALKAKEDVLKAFDGLKGVG,PSSNTLVEMTLGMKKLKEEMEGVVKELAENNHILERFGSLTMD,GGLAAAAAAL,QLKEAMKLNN
30.0,18,38,B,20,MSLEERIKKLIENLELARIRVEIEKEIERAEKIIKEFGKIGKG,PSSNTLVEMTLGMKKLKEEMEGVVKELAENNHILERFGSLTMD,KLEEKKKEREELKKKNKELE,LLTENHQLKEAMKLNNQAMK
41.0,8,38,B,30,MSEEVKKELEKGNKELERINKEIIEEIKYFEKIIKEFGKIGKG,PSSNTLVEMTLGMKKLKEEMEGVVKELAENNHILERFGSLTMD,EEEKLKEMKEKIKEKKKELEEKKKENEKMK,PEELLQQMKELLTENHQLKEAMKLNNQAMK
49.0,8,48,B,40,MSLGVLTELSKGLLELARIEGEIVEEIRRHLEIEKEFGKLGKG,PSSNTLVEMTLGMKKLKEEMEGVVKELAENNHILERFGSLTMD,EEELLKEMRELLKEKRRLREELKKANEEFERLYKELKELF,PEELLQQMKELLTENHQLKEAMKLNNQAMKGRFEELSAWT
49.0,0,50,B,50,MSEEVLKELSKGNLELARINGEITKEIAYHNLITKYFGTLGKG,PSSNTLVEMTLGMKKLKEEMEGVVKELAENNHILERFGSLTMD,KPKKDVFTEEELLEEMKKQIEAATKIREEMKKHNEEHKKLFEELTKLVKK,HPNLDTFTPEELLQQMKELLTENHQLKEAMKLNNQAMKGRFEELSAWTEK
