contacts,cs,ce,Chain,Length,designed_receptor_seq,native_receptor_seq,designed_binder_seq,native_binder_seq
17.0,108,118,A,10,SMDEYINKYLKPDYDVFTLKITAPKTDSYVYRPYPKGEDVPFGPPLNIDILKKVLDLELAILDITAKHEDKTIKLSDICLAPKAPENKNCTVLSVLEYFQSSHEKLDALKGDDTFVYANYHSHFLYCVKNPASTDDKSKLKLPCLGSWGGPTYADLVLAGYKDKNYNEATELIITYPIKAFNDDAENKAARDAWLKEAKKFTSNYKDDDLKITFN,LEKEYFDQHFGPFFRTEQLIIRAPLTDKHIYQPYPSGADVPFGPPLDIQILHQVLDLQIAIENITASYDNETVTLQDICLAPLSPYNTNCTILSVLNYFQNSHSVLDHKKGDDFFVYADYHTHFLYCVRAPASLNDTSLLHDPCLGTFGGPVFPWLVLGGYDDQNYNNATALVITFPVNNYYNDTEKLQRAQAWEKEFINFVKNYKNPNLTISFT,KTVKGEGPKK,HKVSGTGPCA
18.0,102,122,A,20,SREEFINKYLRPDYDVFTLKITAPKTDSYVYRPYPKGEDVPFGPPLNIDILKKVLDLELAILDITAKHEDKTIKLSDICLAPKAPENKNCTVLSVLEYFQSSHERLDALVGDDTFVYADYHSHFLYCVQNPASTDDKSKAKLPCLGKWGGPTYADLVLAGYKDKNYNEATELIITYPIKAFNDDAENKAARDAWLKEAKKFTSNYKDDDLKITFD,LEKEYFDQHFGPFFRTEQLIIRAPLTDKHIYQPYPSGADVPFGPPLDIQILHQVLDLQIAIENITASYDNETVTLQDICLAPLSPYNTNCTILSVLNYFQNSHSVLDHKKGDDFFVYADYHTHFLYCVRAPASLNDTSLLHDPCLGTFGGPVFPWLVLGGYDDQNYNNATALVITFPVNNYYNDTEKLQRAQAWEKEFINFVKNYKNPNLTISFT,GDYDKVLDVKGEGPKNGKYY,PRCRYVHKVSGTGPCAGDFA
18.0,92,122,A,30,SREEFYNTYLRPDYDVFTLRITAPLTDSYTYRPYPEGKDVPFGPPLDINILKKVLDLELAILATTAKHEDETVKLSDICLAPKAPENKNCTVLSVLEYFQSSHSRLDALVGDDTFVYADYHSHFLYCVQNPASTDDKSKAHLPCLGSWGGPTYADLVLAGYKDKNYNEATELIITYPIKAFNDDAENKKKRDAWLKEAKKFTSNYKDEDLKITFD,LEKEYFDQHFGPFFRTEQLIIRAPLTDKHIYQPYPSGADVPFGPPLDIQILHQVLDLQIAIENITASYDNETVTLQDICLAPLSPYNTNCTILSVLNYFQNSHSVLDHKKGDDFFVYADYHTHFLYCVRAPASLNDTSLLHDPCLGTFGGPVFPWLVLGGYDDQNYNNATALVITFPVNNYYNDTEKLQRAQAWEKEFINFVKNYKNPNLTISFT,GPAPEGVTGYPNCDYVLDVKGEGPKNGKYY,PAAPDGIRGFPRCRYVHKVSGTGPCAGDFA
21.0,78,118,A,40,SREEFYNTYLRPDYDVFTLRITAPLTDSYTYRPYPEGKDVPFGPPLDHGILKKVLTLELAILATTAKHEDETVTLADICLAPKAPENKNCTVLSVLEYFQSSQSRLDALVGDDTFVYADYHSHFLYCVQHPASTDDKSKAHLPCLGSWGGPTYADLVLAGYKDKNYNEATELIITFPVKAFNDDAENKKKRDAWLAEAKKFTSNYKDSDLKITFD,LEKEYFDQHFGPFFRTEQLIIRAPLTDKHIYQPYPSGADVPFGPPLDIQILHQVLDLQIAIENITASYDNETVTLQDICLAPLSPYNTNCTILSVLNYFQNSHSVLDHKKGDDFFVYADYHTHFLYCVRAPASLNDTSLLHDPCLGTFGGPVFPWLVLGGYDDQNYNNATALVITFPVNNYYNDTEKLQRAQAWEKEFINFVKNYKNPNLTISFT,YDLTIAKPDGSACLPAAPEGVTPYPNADYVLKVSGQGPCK,YNLEIKKPDGSECLPAAPDGIRGFPRCRYVHKVSGTGPCA
22.0,72,122,A,50,SMDEFINKYLRPDYDVFTLKITAPKTDAYTYRPYPKGEDVPFGPPLNHDILKKVLTLELAILDTTAKHEDKTIKLSDICLAPKAPENKNCTVLSVLEYFQGSQEKLAAKVGDDTFVYADYHSHFLYCVQNPASTDDKSKAKLPCLGTWGGPTYADLVLAGYKDKNYNEATELIITYPIKAFNDDAENKAARDAWLKEAKKFTSNYKDDDLKITFN,LEKEYFDQHFGPFFRTEQLIIRAPLTDKHIYQPYPSGADVPFGPPLDIQILHQVLDLQIAIENITASYDNETVTLQDICLAPLSPYNTNCTILSVLNYFQNSHSVLDHKKGDDFFVYADYHTHFLYCVRAPASLNDTSLLHDPCLGTFGGPVFPWLVLGGYDDQNYNNATALVITFPVNNYYNDTEKLQRAQAWEKEFINFVKNYKNPNLTISFT,GKAKNCYDLTIAKPDGSACLPAAPEGVTKYPDCDNVFKVSGQGPCKGEKL,EWAENCYNLEIKKPDGSECLPAAPDGIRGFPRCRYVHKVSGTGPCAGDFA
24.0,107,117,B,10,SGEPVYYVENGKVTKKTLEELKEDDKITSIDQLVTYGYNIEGEGIATDVPSAAKYFGFVSGVPPKFVPYQAGETATNCYKFTVKKPDGSDCLAAAPEGIKGYPDCKNVNDVSGSGPCNGDYLYDKNGNYFLYNYVASTTVYDGTTFARGAITTWILPP,RSIPLGVIHNSVLQVSDVDKLVCRDKLSSTNQLRSVGLNLEGNGVATDVPSATKRWGFRSGVPPKVVNYEAGEWAENCYNLEIKKPDGSECLPAAPDGIRGFPRCRYVHKVSGTGPCAGDFAFHKEGAFFLYDRLASTVIYRGTTFAEGVVAFLILPQ,TPTGDDLFTY,HKKGDDFFVY
24.0,97,117,B,20,SGEPVYYVENGKVTKLTLDQLKADDKLTSVDQLVTYGYNIEGEGIATDVPSAAKYFGFVSGVPPKFVPYQAGETATNCYKFTVKKPDGSACLAAAPAGVTGYPDCKNVNAVSGSGPCNGDYLYDKNGNYFLYNYVAATTVYDGTTFARGNITTWILPP,RSIPLGVIHNSVLQVSDVDKLVCRDKLSSTNQLRSVGLNLEGNGVATDVPSATKRWGFRSGVPPKVVNYEAGEWAENCYNLEIKKPDGSECLPAAPDGIRGFPRCRYVHKVSGTGPCAGDFAFHKEGAFFLYDRLASTVIYRGTTFAEGVVAFLILPQ,KYNNSAELAAFNVGDDLFTY,YFQNSHSVLDHKKGDDFFVY
25.0,109,139,B,30,EGEPVYYVENGKVTKLTLEELKEDDKITSVDQLVTYGYNIEGEGIATDVPSAAKYYGFESGKPPEFVPYQAGEKATNCYKWTVKKPDGSDCLAAAPEGVKGYPDCDYVNDVSGSGPCNGDYLRDKNGNYFLYDYVAATTVYDGTTFARGNIKTYILPP,RSIPLGVIHNSVLQVSDVDKLVCRDKLSSTNQLRSVGLNLEGNGVATDVPSATKRWGFRSGVPPKVVNYEAGEWAENCYNLEIKKPDGSECLPAAPDGIRGFPRCRYVHKVSGTGPCAGDFAFHKEGAFFLYDRLASTVIYRGTTFAEGVVAFLILPQ,KGDDLFVYCDEKTKKEYMKKNPDSKDDKCL,KGDDFFVYADYHTHFLYCVRAPASLNDTSL
25.0,99,139,B,40,EGEPVYYVENGKVTKLTLEELKEDDKITSVDQLVTYGYNIEGEGIATDVPSAAKYFGFESGKPPEFVPYQAGELATNCYKWTVKKPDGSDCLAAAPEGINGYPDCNFVNDVSGSGPCNGDYLRDKNGNYFLYNYVAATTVYDGTTFARGNIKTYILPP,RSIPLGVIHNSVLQVSDVDKLVCRDKLSSTNQLRSVGLNLEGNGVATDVPSATKRWGFRSGVPPKVVNYEAGEWAENCYNLEIKKPDGSECLPAAPDGIRGFPRCRYVHKVSGTGPCAGDFAFHKEGAFFLYDRLASTVIYRGTTFAEGVVAFLILPQ,EGSEEAKAAKVGDDLFVYCDADSRKAYCEKNPDSKDDKCK,QNSHSVLDHKKGDDFFVYADYHTHFLYCVRAPASLNDTSL
25.0,89,139,B,50,SGEPVYYVENGKVTKLTLDNLKADDKITSIDQLVTYGYNIEGEGIATDVPSAAKYFGFESGKPPKFVPYQAGELATNCYKWTIKKPDGSDCLAAAPEGIKGYPDCKFVNDVSGSGPCKGDYLRDKNGNYFLYDYVAATTVYDGTTFARGNIKTYILPP,RSIPLGVIHNSVLQVSDVDKLVCRDKLSSTNQLRSVGLNLEGNGVATDVPSATKRWGFRSGVPPKVVNYEAGEWAENCYNLEIKKPDGSECLPAAPDGIRGFPRCRYVHKVSGTGPCAGDFAFHKEGAFFLYDRLASTVIYRGTTFAEGVVAFLILPQ,EPKDSIWNYFDNSDEKFAEKVGDDFFVYCDSTTRYNYMIKNPDSKDDKCK,CTILSVLNYFQNSHSVLDHKKGDDFFVYADYHTHFLYCVRAPASLNDTSL
