contacts,cs,ce,Chain,Length,designed_receptor_seq,native_receptor_seq,designed_binder_seq,native_binder_seq
20.0,59,69,A,10,GGPLAGLLDGGLAFLAQDHTFFDTFLGGFKDREGEKEFPGDKSGVKGKVGKDAGKPGGK,PRKTAGNRLSGLLEAEEEDEFYQTTYGGFTEESGDDEYQGDQSDTEDEVDSDFDIDEGD,KPSDLRVLLG,TPRHLQLAIR
23.0,59,79,A,20,GGPLAGLLDGGLARLAEDDTFFETFLGGFVDREGEEEFEGDESGVEEEVDEDEGEEEGE,PRKTAGNRLSGLLEAEEEDEFYQTTYGGFTEESGDDEYQGDQSDTEDEVDSDFDIDEGD,DPRELRLLIAGSPGLRELLR,TPRHLQLAIRGDEELDSLIK
26.0,0,30,A,30,GGPLAGITDGGKAGAALLDTSALLSNGGLLLKEGEKEVPGDKSGVKEVYPEDLGLPEGE,PRKTAGNRLSGLLEAEEEDEFYQTTYGGFTEESGDDEYQGDQSDTEDEVDSDFDIDEGD,TVSEKAGKKEPVGKIHKEKLGGKVNLKEAL,SRSQRAGLQFPVGRIHRHLKSRRVGATAAV
26.0,0,40,A,40,GGPLAGITDGGKALAALDNTAAKNLLGGLVKKEGEKEVPGDKSGVKEVYDEDLGLPEGE,PRKTAGNRLSGLLEAEEEDEFYQTTYGGFTEESGDDEYQGDQSDTEDEVDSDFDIDEGD,TVSEEAGLKFPVGAVHKLLKGFKVNKKQAILTAKYLEKIL,SRSQRAGLQFPVGRIHRHLKSRRVGATAAVYSAAILEYLT
31.0,19,69,A,50,GGPTAGITKAGKKLAAKKDTAFEKLLGGFKKRKGAKKLEGDKSKVKVTVSKEAGKPAGK,PRKTAGNRLSGLLEAEEEDEFYQTTYGGFTEESGDDEYQGDQSDTEDEVDSDFDIDEGD,GGKRVGKAAVLALAAYLEYITAEILERAGKASKDKKVPRIEPRHLQLAIK,KSRRVGATAAVYSAAILEYLTAEVLELAGNASKDLKVKRITPRHLQLAIR
24.0,45,55,B,10,GISKQAGLQFPVGRIHRLLKKGGVKKEAAIYTAAVLEYLTAEILERAGKATKTKKVPRITPRHLQLAVRGDEGLKKLLLQAIRG,SRSQRAGLQFPVGRIHRHLKSRRVGATAAVYSAAILEYLTAEVLELAGNASKDLKVKRITPRHLQLAIRGDEELDSLIKATIAG,KEVVAAHLLG,EDEVDSDFDI
26.0,37,57,B,20,SISKKAGLQFPVGRIHRLLKKGKVNKEAAIYTAAVLEYLTAEILERAGKATKTKKVPRITPRHLQLAVRGDEGLKKLLLQAIKG,SRSQRAGLQFPVGRIHRHLKSRRVGATAAVYSAAILEYLTAEVLELAGNASKDLKVKRITPRHLQLAIRGDEELDSLIKATIAG,AGGKALGVVQKVSLSLGKKT,YQGDQSDTEDEVDSDFDIDE
42.0,27,57,B,30,SISKKAGLQFPVGRIHRLLKKGKVKKEAAIRTAAVLEYLTAEILERAGKATKTKKVPRIKPRHLQLAIRGDEGLKKLLLEAIRG,SRSQRAGLQFPVGRIHRHLKSRRVGATAAVYSAAILEYLTAEVLELAGNASKDLKVKRITPRHLQLAIRGDEELDSLIKATIAG,ELEEEEGLEEEEGDEEEEEEEEEEELEEEE,GFTEESGDDEYQGDQSDTEDEVDSDFDIDE
50.0,17,57,B,40,SVSKRAGLQFPVGRVHRLLKHGRVNKEAAVVTAAVLEYLTAEILERAGKATKTKKVPRIKPRHLQLAIRGDEGLDKLLRQFVKG,SRSQRAGLQFPVGRIHRHLKSRRVGATAAVYSAAILEYLTAEVLELAGNASKDLKVKRITPRHLQLAIRGDEELDSLIKATIAG,KPLFYQKVLGGFQLKAGGVLPKGCKLFQEEKHSADLDLEE,EDEFYQTTYGGFTEESGDDEYQGDQSDTEDEVDSDFDIDE
52.0,7,57,B,50,SVSERAGLQFPVGRVHRLLKHGRVNKEAAVATAAVLEYLTAEILERAGKASNTKKVPRITPRHLQLAIRGDEGLDKLFRKFVKG,SRSQRAGLQFPVGRIHRHLKSRRVGATAAVYSAAILEYLTAEVLELAGNASKDLKVKRITPRHLQLAIRGDEELDSLIKATIAG,GVLGQILAKEKDTFYEKVLGGFQLKEGREVLPGCTLFVEEEVDEDLDVEE,RLSGLLEAEEEDEFYQTTYGGFTEESGDDEYQGDQSDTEDEVDSDFDIDE
