contacts,cs,ce,Chain,Length,designed_receptor_seq,native_receptor_seq,designed_binder_seq,native_binder_seq
33.0,0,10,A,10,SMEFSKNYELLEKLGEGAYAVVKKCREKSTGKEYAAKIINIKKKTEKDFEALKREASITRKLEHPNIVKLKSAIQEKDKFYLVFELVEGGELFDRIVELKHFSEEEASDTIRQILEAVNHCHRNGVVHRDLKPENLLLAGKEKGSKVKLADFGLATEVEGDKREWLGFAGTPGYLAPEVLRREPYGKEVDMWACGVVLYILLCGYPPFWDENQKKLYEKIIKGEYDFPSPDWDSISPEAKDLINKMLTTNPEKRITAEEALKHPWI,CTRFSDNYDIKEELGKGAFSIVKRCVQKSTGFEFAAKIINTKKLTARDFQKLEREARICRKLHHPNIVRLHDSIQEENYHYLVFDLVTGGELFEDIVAREFYSEADASHCIQQILESVNHCHQNGVVHRNLKPENLLLASKAKGAAVKLADFGLAIEVQGDHQAWFGFAGTPGYLSPEVLKKEPYGKSVDIWACGVILYILLVGYPPFWDEDQHRLYSQIKAGAYDYPSPEWDTVTPEAKNLINQMLTVNPNKRITAAEALKHPWI,PKLKKEDFSE,ATLARQDIDE
0.0,0,0,A,0,SMEFSKNFELEEELGRGAFAVVKKCREKSTGKVYAAKIINIKKLSKKDFEDLEREASITRKLEHPNIVKLRAAIKEKDKFYLVFDLVEGGELFDRIVELDHFSEEEASDTIRQVLEAVHHCHRNGVVHRDLKPENLLLAGKEKGAKVKLADFGLATEVEGDKRAWYGFAGTPEYLAPEVLRREPYGKEVDMWACGVVLYILLCGYPPFWDEDQKKLYEKIIKGEYDFPSPDWDSISPEAKDLINRMLTTNPEKRITAAEALKHPWI,CTRFSDNYDIKEELGKGAFSIVKRCVQKSTGFEFAAKIINTKKLTARDFQKLEREARICRKLHHPNIVRLHDSIQEENYHYLVFDLVTGGELFEDIVAREFYSEADASHCIQQILESVNHCHQNGVVHRNLKPENLLLASKAKGAAVKLADFGLAIEVQGDHQAWFGFAGTPGYLSPEVLKKEPYGKSVDIWACGVILYILLVGYPPFWDEDQHRLYSQIKAGAYDYPSPEWDTVTPEAKNLINQMLTVNPNKRITAAEALKHPWI,SMEFSKNFELEEELGRGAFAVVKKCREKSTGKVYAAKIINIKKLSKKDFEDLEREASITRKLEHPNIVKLRAAIKEKDKFYLVFDLVEGGELFDRIVELDHFSEEEASDTIRQVLEAVHHCHRNGVVHRDLKPENLLLAGKEKGAKVKLADFGLATEVEGDKRAWYGFAGTPEYLAPEVLRREPYGKEVDMWACGVVLYILLCGYPPFWDEDQKKLYEKIIKGEYDFPSPDWDSISPEAKDLINRMLTTNPEKRITAAEALKHPWIKKLEEKKKKK,
0.0,0,0,A,0,SMEFSKNFELEEELGRGAFAVVKKCREKSTGKVYAAKIINIKKLSKKDFEDLEREASITRKLEHPNIVKLRAAIKEKDKFYLVFDLVEGGELFDRIVELDHFSEEEASDTIRQVLEAVHHCHRNGVVHRDLKPENLLLAGKEKGAKVKLADFGLATEVEGDKRAWYGFAGTPEYLAPEVLRREPYGKEVDMWACGVVLYILLCGYPPFWDEDQKKLYEKIIKGEYDFPSPDWDSISPEAKDLINRMLTTNPEKRITAAEALKHPWI,CTRFSDNYDIKEELGKGAFSIVKRCVQKSTGFEFAAKIINTKKLTARDFQKLEREARICRKLHHPNIVRLHDSIQEENYHYLVFDLVTGGELFEDIVAREFYSEADASHCIQQILESVNHCHQNGVVHRNLKPENLLLASKAKGAAVKLADFGLAIEVQGDHQAWFGFAGTPGYLSPEVLKKEPYGKSVDIWACGVILYILLVGYPPFWDEDQHRLYSQIKAGAYDYPSPEWDTVTPEAKNLINQMLTVNPNKRITAAEALKHPWI,SMEFSKNFELEEELGRGAFAVVKKCREKSTGKVYAAKIINIKKLSKKDFEDLEREASITRKLEHPNIVKLRAAIKEKDKFYLVFDLVEGGELFDRIVELDHFSEEEASDTIRQVLEAVHHCHRNGVVHRDLKPENLLLAGKEKGAKVKLADFGLATEVEGDKRAWYGFAGTPEYLAPEVLRREPYGKEVDMWACGVVLYILLCGYPPFWDEDQKKLYEKIIKGEYDFPSPDWDSISPEAKDLINRMLTTNPEKRITAAEALKHPWIKKLEEKKKKK,
0.0,0,0,A,0,SMEFSKNFELEEELGRGAFAVVKKCREKSTGKVYAAKIINIKKLSKKDFEDLEREASITRKLEHPNIVKLRAAIKEKDKFYLVFDLVEGGELFDRIVELDHFSEEEASDTIRQVLEAVHHCHRNGVVHRDLKPENLLLAGKEKGAKVKLADFGLATEVEGDKRAWYGFAGTPEYLAPEVLRREPYGKEVDMWACGVVLYILLCGYPPFWDEDQKKLYEKIIKGEYDFPSPDWDSISPEAKDLINRMLTTNPEKRITAAEALKHPWI,CTRFSDNYDIKEELGKGAFSIVKRCVQKSTGFEFAAKIINTKKLTARDFQKLEREARICRKLHHPNIVRLHDSIQEENYHYLVFDLVTGGELFEDIVAREFYSEADASHCIQQILESVNHCHQNGVVHRNLKPENLLLASKAKGAAVKLADFGLAIEVQGDHQAWFGFAGTPGYLSPEVLKKEPYGKSVDIWACGVILYILLVGYPPFWDEDQHRLYSQIKAGAYDYPSPEWDTVTPEAKNLINQMLTVNPNKRITAAEALKHPWI,SMEFSKNFELEEELGRGAFAVVKKCREKSTGKVYAAKIINIKKLSKKDFEDLEREASITRKLEHPNIVKLRAAIKEKDKFYLVFDLVEGGELFDRIVELDHFSEEEASDTIRQVLEAVHHCHRNGVVHRDLKPENLLLAGKEKGAKVKLADFGLATEVEGDKRAWYGFAGTPEYLAPEVLRREPYGKEVDMWACGVVLYILLCGYPPFWDEDQKKLYEKIIKGEYDFPSPDWDSISPEAKDLINRMLTTNPEKRITAAEALKHPWIKKLEEKKKKK,
0.0,0,0,A,0,SMEFSKNFELEEELGRGAFAVVKKCREKSTGKVYAAKIINIKKLSKKDFEDLEREASITRKLEHPNIVKLRAAIKEKDKFYLVFDLVEGGELFDRIVELDHFSEEEASDTIRQVLEAVHHCHRNGVVHRDLKPENLLLAGKEKGAKVKLADFGLATEVEGDKRAWYGFAGTPEYLAPEVLRREPYGKEVDMWACGVVLYILLCGYPPFWDEDQKKLYEKIIKGEYDFPSPDWDSISPEAKDLINRMLTTNPEKRITAAEALKHPWI,CTRFSDNYDIKEELGKGAFSIVKRCVQKSTGFEFAAKIINTKKLTARDFQKLEREARICRKLHHPNIVRLHDSIQEENYHYLVFDLVTGGELFEDIVAREFYSEADASHCIQQILESVNHCHQNGVVHRNLKPENLLLASKAKGAAVKLADFGLAIEVQGDHQAWFGFAGTPGYLSPEVLKKEPYGKSVDIWACGVILYILLVGYPPFWDEDQHRLYSQIKAGAYDYPSPEWDTVTPEAKNLINQMLTVNPNKRITAAEALKHPWI,SMEFSKNFELEEELGRGAFAVVKKCREKSTGKVYAAKIINIKKLSKKDFEDLEREASITRKLEHPNIVKLRAAIKEKDKFYLVFDLVEGGELFDRIVELDHFSEEEASDTIRQVLEAVHHCHRNGVVHRDLKPENLLLAGKEKGAKVKLADFGLATEVEGDKRAWYGFAGTPEYLAPEVLRREPYGKEVDMWACGVVLYILLCGYPPFWDEDQKKLYEKIIKGEYDFPSPDWDSISPEAKDLINRMLTTNPEKRITAAEALKHPWIKKLEEKKKKK,
15.0,162,172,B,10,MELKEVEYDLGGEVE,ATLARQDIDEGGEVD,EEFDGEKGVP,QAWFGFAGTP
16.0,152,172,B,20,MELKEVEYDLGGEVP,ATLARQDIDEGGEVD,GLEYEVKEGEEKNVGLKGKP,GLAIEVQGDHQAWFGFAGTP
17.0,144,174,B,30,MELVEEEFDLGGEVE,ATLARQDIDEGGEVD,EEEEEEEEELEFEVEGEEEEEVGEKGVPSL,AAVKLADFGLAIEVQGDHQAWFGFAGTPGY
19.0,132,172,B,40,SMLVALDYDLGGEVE,ATLARQDIDEGGEVD,LQNILLAGEEEGAELYLADFGLAHEVEGEEEEFYGLKGTP,PENLLLASKAKGAAVKLADFGLAIEVQGDHQAWFGFAGTP
25.0,159,209,B,50,AELVDEVLDLGGATE,ATLARQDIDEGGEVD,EEEEEWLGLKGTPGYLSPEVLRREPYGKEVDVWALGVLLYILLVGRPPFA,GDHQAWFGFAGTPGYLSPEVLKKEPYGKSVDIWACGVILYILLVGYPPFW
