contacts,cs,ce,Chain,Length,designed_receptor_seq,native_receptor_seq,designed_binder_seq,native_binder_seq
36.0,0,10,A,10,GHMKEEIEKRAEEELKLYKEGKLKLETEYKEEVKEYKITPEEIKEIREKFGSQGEFAKLLNISRSTLSQYETGKRKPGGKAIELLIKIKENPEYLEKLKKR,NRDLFAELSSALVEAKQHSEGKLTLKTHHVNDVGELNISPDEIVSIREQFNSRGVFARLLHTSSRTLENWEQGRSVPNGQAVTLLKLVQRHPETLSHIAEL,PYLIVKTEEE,KSVFVESTIF
38.0,0,20,A,20,GMDLEKIIEESEIELKEYKEGKLKLPTIEKEEVKEYKITPEEIKEIREKFGSQGEFAKLLNISRSTLSNYENGKAKPGGKAIELLIKIKENPEYLEKLKNK,NRDLFAELSSALVEAKQHSEGKLTLKTHHVNDVGELNISPDEIVSIREQFNSRGVFARLLHTSSRTLENWEQGRSVPNGQAVTLLKLVQRHPETLSHIAEL,KYIIVLTKEAEKYIKEIFGK,KSVFVESTIFEKYRDEYLSD
42.0,0,30,A,30,GMDLEKIIEESEIELKEYLEGKRELPTIELEKVKEYKITPEEIKEIREKFGSQGEFAKLLNISRSTLSQYETGKRKPGGEMIKLLILIKEKPEVLEKIKNY,NRDLFAELSSALVEAKQHSEGKLTLKTHHVNDVGELNISPDEIVSIREQFNSRGVFARLLHTSSRTLENWEQGRSVPNGQAVTLLKLVQRHPETLSHIAEL,KKIFVLSKEAEKYIKEIFDEEEFLKFLKEK,KSVFVESTIFEKYRDEYLSDEEYRLFQAEL
42.0,0,40,A,40,GMDLEKIIEESEKELEEYLKGKRELPTIELELVEEYKITPEEIKEIREKFGSQGEFAELLNISRSTLSQYETGKRKPGGKAIELLILIKEKPEVLEKIKKR,NRDLFAELSSALVEAKQHSEGKLTLKTHHVNDVGELNISPDEIVSIREQFNSRGVFARLLHTSSRTLENWEQGRSVPNGQAVTLLKLVQRHPETLSHIAEL,PRIFVLSKEAEKYIKYIFDEETLKKLMELLENPEILKKIK,KSVFVESTIFEKYRDEYLSDEEYRLFQAELLNPKLGDVIQ
43.0,0,50,A,50,GMDLLSALAEAERELEEYRRGERELPTVELELVEEYRITPEEIREIRERFGSQGEFAELLRISRSTLSQYETGKRKPGGEAIRLLLLIKERPEVLEELRRR,NRDLFAELSSALVEAKQHSEGKLTLKTHHVNDVGELNISPDEIVSIREQFNSRGVFARLLHTSSRTLENWEQGRSVPNGQAVTLLKLVQRHPETLSHIAEL,PRRFVLSRTAARYLPFVFDGEEFRRFLEELREPERGEPVEGTGGLRLLLP,KSVFVESTIFEKYRDEYLSDEEYRLFQAELLNPKLGDVIQGTGGLRKIRV
38.0,2,12,B,10,MREFRESEIFARNRAAHFDDATWAAFKAALENPEAGRPIEGTGGLRKLRWRGGGGKRVFYYLLADDTFLLLTVFGGDEPELTEAEKAELRRLEAALAG,KSVFVESTIFEKYRDEYLSDEEYRLFQAELLNPKLGDVIQGTGGLRKIRVASGGSRIIYYFLDEKRRFYLLTIYGKNESDLNANQRKQLAFEAWRNEQ,DLFAALRAAL,DLFAELSSAL
52.0,0,20,B,20,MREFIESSIFAKYRKDRFDDATWAAFKEALKNPEIGKPIKGTGGLRKVRVKGKGGVRVYYYLLEDDTFWLLTVFGKNEPELKEEEKKELKKLEEKLKG,KSVFVESTIFEKYRDEYLSDEEYRLFQAELLNPKLGDVIQGTGGLRKIRVASGGSRIIYYFLDEKRRFYLLTIYGKNESDLNANQRKQLAFEAWRNEQ,PFDLFEALKEALEEAKKKLG,NRDLFAELSSALVEAKQHSE
80.0,1,31,B,30,MRTFVMSTIFERDRAAHFDDATWAAFCRALENPEAGRPIEGTGGLRKVRVRGGGGKRVYYYLLADDTFWLLTVFGGDEPELPEAEKARLRRLERALAG,KSVFVESTIFEKYRDEYLSDEEYRLFQAELLNPKLGDVIQGTGGLRKIRVASGGSRIIYYFLDEKRRFYLLTIYGKNESDLNANQRKQLAFEAWRNEQ,PDLFAALDAALTEAEAWLDGRRELPTLHLP,RDLFAELSSALVEAKQHSEGKLTLKTHHVN
81.0,0,40,B,40,MRTFVMSTIFERDRAAHFDDATWAAFQRALRDPEAGRPIEGTGGLRKLRWRGDGAKRVYYYLLADDTFWLLTVFGGREPELPEAERARLRRLERRLAG,KSVFVESTIFEKYRDEYLSDEEYRLFQAELLNPKLGDVIQGTGGLRKIRVASGGSRIIYYFLDEKRRFYLLTIYGKNESDLNANQRKQLAFEAWRNEQ,PFDLFAALDAALTEAEAWLDGRREAPTVHLAEAAALGAAP,NRDLFAELSSALVEAKQHSEGKLTLKTHHVNDVGELNISP
81.0,0,50,B,50,MRRFVMSTIFERDRDAHFDDATWAAFRRALRDPEAGRPIEGTGGLRKVRWRGDGARRVYYYLLADDTFWLLTVFGGREPELPEAERARLRELERRLAG,KSVFVESTIFEKYRDEYLSDEEYRLFQAELLNPKLGDVIQGTGGLRKIRVASGGSRIIYYFLDEKRRFYLLTIYGKNESDLNANQRKQLAFEAWRNEQ,PFDLFAALDAALTEAEAWLRGEREAPTVELEEVAAFEVTPEEVVRALERR,NRDLFAELSSALVEAKQHSEGKLTLKTHHVNDVGELNISPDEIVSIREQF
