contacts,cs,ce,Chain,Length,designed_receptor_seq,native_receptor_seq,designed_binder_seq,native_binder_seq
25.0,3,13,A,10,MLIPERAVPGQRLIPLTGEDGRTLVFVPGPGTALRTLEVDGREVRVIEATAVGVVRVEEREGGPVLVSVEPGERVPRVGDVVLTRVTRLSRKAAGVEILEVNREPVPEDRGLGVNGSGVVAAGGGLGAKFFDRERFERYVGERYRGLIHARDVRREDRERVDVYRCFRPGDIVRARVLDRGDGRFYRLTTAAEDLGVVGARADFGRGGEMERVAEDRWRDPETGEEERRKAARPE,FQFPEIAYPGKLICPQYGTEDIIFNYVPGPGTKLIQYEHNGRTLEAITATLVGTVRCEEEKVKNILVSVLPGTNLPKEGDIVLTRVTRLSLQRANVEILAVEDKPSPIDSGIGSNGSGIVAAGGGSGAATFSVSQASSDLGETFRGIIRSQDVRSTDRDRVKVIECFKPGDIVRAQVLSLGDGTNYYLTTARNDLGVVFARAANGAGGLMYATDWQMMTSPVTGATEKRKCAKPF,LSLEEAWEAL,LNLEESWKAI
37.0,0,20,A,20,MEIPEFAIPGQLLIPETGEDGETITFIPGPGTELKTYEYEGREIKAIVATEVGVVEVEEEEGGPVLVRVVPGEEVPEVGDIVLTEVTRLSDKAAGVSILEVNREPVPEDRGEGVNGEGVIPAGGGEGALTFDEEEFERYVGERYLGLIHASDVREEDRENVDVYECFRPGDIVRAEVLDYGNGEFYRLTTADEDLGVVGARADYGLGGEMERVEEDEWEDPETGERYRRKAARPE,FQFPEIAYPGKLICPQYGTEDIIFNYVPGPGTKLIQYEHNGRTLEAITATLVGTVRCEEEKVKNILVSVLPGTNLPKEGDIVLTRVTRLSLQRANVEILAVEDKPSPIDSGIGSNGSGIVAAGGGSGAATFSVSQASSDLGETFRGIIRSQDVRSTDRDRVKVIECFKPGDIVRAQVLSLGDGTNYYLTTARNDLGVVFARAANGAGGLMYATDWQMMTSPVTGATEKRKCAKPF,EEELTLEEAWEAIREFNERP,DDKLNLEESWKAIKEMNHYC
51.0,45,75,A,30,MEIPEFAVPGQVLCPETGEDGETIVYVPGPGTELRTLEVDGEEVRAIVATEVGVVEVEEEEGEPVLVRVVPGEEVPEVGDVVLTRVTRLSDKAAGVEILEVNREPVPEDEGEGVNGEGVVDWGGGEGALEFDEEEFERDVGERYRGLIRAADVRRTDRENVDVYECFHPGDIVRAEVLDYGNGKFYVLTTAADELGVVGARADYGLGGEMFALDWEEYLDPETGETETRKCARPE,FQFPEIAYPGKLICPQYGTEDIIFNYVPGPGTKLIQYEHNGRTLEAITATLVGTVRCEEEKVKNILVSVLPGTNLPKEGDIVLTRVTRLSLQRANVEILAVEDKPSPIDSGIGSNGSGIVAAGGGSGAATFSVSQASSDLGETFRGIIRSQDVRSTDRDRVKVIECFKPGDIVRAQVLSLGDGTNYYLTTARNDLGVVFARAANGAGGLMYATDWQMMTSPVTGATEKRKCAKPF,PRYVPEDLPEEVLEEARENFEEPSPDEVVE,GIFVPCNLPKTTRKVAIENFNRPSPDDIIQ
52.0,38,78,A,40,MEIPEFAVPGQVLCPETGEDGETIVYVPGPGTELRTLEVDGEEVRAIVATEVGVVEVEEEEGEPVLVRVVPGEEVPEVGDVVLTRVTRLSDKAAGVEILEVNREPVPEDVGLGVNGEGVVAAGGGEGALFFDEEEFEREVGERYRGLIRAADVRRTRREEVDVYECFRPGDIVRARVLDRGNGKFYVLTTAADDLGVVSARADFGLGGEMFALDWEEYLDPETGERERRKCARPE,FQFPEIAYPGKLICPQYGTEDIIFNYVPGPGTKLIQYEHNGRTLEAITATLVGTVRCEEEKVKNILVSVLPGTNLPKEGDIVLTRVTRLSLQRANVEILAVEDKPSPIDSGIGSNGSGIVAAGGGSGAATFSVSQASSDLGETFRGIIRSQDVRSTDRDRVKVIECFKPGDIVRAQVLSLGDGTNYYLTTARNDLGVVFARAANGAGGLMYATDWQMMTSPVTGATEKRKCAKPF,GEDEEEEERFVPEDLPEEVLEEARENFRRPSPDEVVEELE,KHNNELLGIFVPCNLPKTTRKVAIENFNRPSPDDIIQSAQ
52.0,28,78,A,50,MEIPEFAVPGQVLCPETGEDGETIVYVPGPGTELRTLEVDGEEVRAIVATEVGVVEVEEEEGEPVLVRVVPGEEVPEVGDVVLTRVTRLSDKAAGVEILEVNREPVPEDLGLGVNGEGVVPWGGGEGALTFDEEEFEREVGERYRGLIRAADVRRTRRERVNVYECFRPGDIVRARVLDRGNGKFYVLTTAADDLGVVSARADFGLGGEMFALDWETYLDPETGEEERRKCARPE,FQFPEIAYPGKLICPQYGTEDIIFNYVPGPGTKLIQYEHNGRTLEAITATLVGTVRCEEEKVKNILVSVLPGTNLPKEGDIVLTRVTRLSLQRANVEILAVEDKPSPIDSGIGSNGSGIVAAGGGSGAATFSVSQASSDLGETFRGIIRSQDVRSTDRDRVKVIECFKPGDIVRAQVLSLGDGTNYYLTTARNDLGVVFARAANGAGGLMYATDWQMMTSPVTGATEKRKCAKPF,LEEELEELEEELEELEEERYVPEDLPEEVLEEARENFRRPSPDEVVEELE,AFTNFIIKDKKHNNELLGIFVPCNLPKTTRKVAIENFNRPSPDDIIQSAQ
23.0,206,216,B,10,GSSLSEEELLELIRELGKFEFKEEVPEDEEFEELFPEEEEDEEEEEEYVPEDIPEEELLEAIRNFLLPSPEEIEREEEEEEFWENLYRIMKVIYGVEEGEEEEEEEIGLSEEEKEEFKELVEERIEGLLEDPELRPIVEEAEEIQLMALISLAPGEEEEEEEESPELEELLEEMLETGTLEEVEP,DDKLNLEESWKAIKEMNHYCFLKNDPDFAFTNFIIKDKKHNNELLGIFVPCNLPKTTRKVAIENFNRPSPDDIIQSAQLNAFNMNIFEMLRIDEGLRLKIYKDTIGIGHKDEAEKLFNQDVDAAVRGILRNAKLKPVYDSLDAVRRAALINMVAGFTNSLRNQTPNRAKRVITTFRTGTWDAYKN,EEEEWEEEWE,GGLMYATDWQ
27.0,202,222,B,20,GSSSGSSGLLLLLLLLGASSFSLSLPLDLEGLLSSPGGGSSSSSSGPFVPSDLPLEELLEAVRNLLLPSPEEVERERERREFWENLFRLLSVIEGVEEGEEEEEEGLGLSEEEREEFRERVEERLEGLLGDPELRPLVEEAEEVRLMALLYLLGGEEEEEEEEAPELEELVEEMLETGTLEALEP,DDKLNLEESWKAIKEMNHYCFLKNDPDFAFTNFIIKDKKHNNELLGIFVPCNLPKTTRKVAIENFNRPSPDDIIQSAQLNAFNMNIFEMLRIDEGLRLKIYKDTIGIGHKDEAEKLFNQDVDAAVRGILRNAKLKPVYDSLDAVRRAALINMVAGFTNSLRNQTPNRAKRVITTFRTGTWDAYKN,EEGEGGEEWLVDWEEWRSPE,ANGAGGLMYATDWQMMTSPV
33.0,192,222,B,30,GSSSGSSGRRRRRRRRRRRRRRRRRPADLAGLAAAPGAGADLSALGPFVPADLPAAELAEAAANLAAPSPEEVARAAAEAAFWENLYRLLAAIYGVEAGRVEAGRGLGLDEAARAAFRARAEAALAGLRGDPALAPVLAAADDVRLAALLALAPGAAAAAAAAAPDLAALLRRMLEEGTLAALAP,DDKLNLEESWKAIKEMNHYCFLKNDPDFAFTNFIIKDKKHNNELLGIFVPCNLPKTTRKVAIENFNRPSPDDIIQSAQLNAFNMNIFEMLRIDEGLRLKIYKDTIGIGHKDEAEKLFNQDVDAAVRGILRNAKLKPVYDSLDAVRRAALINMVAGFTNSLRNQTPNRAKRVITTFRTGTWDAYKN,RAAGVREARCAAGAGGLMWRRAWTAWRCPA,NDLGVVFARAANGAGGLMYATDWQMMTSPV
34.0,6,46,B,40,MSELTLEEAREAIARHNAFEFREEVPEDLEALARELGEGLSLEELGEYVPEDLPEEVLEEIRRALEEPSPEEVERERARREFWENLYRAMRVIYGEREGEREEGEGLGLSEEERERFRERVERAVEGLLGDPELRPVVEAADEVRLMALLALAGGLAALLGRRSPEALELLVRMLLEGTLEALEP,DDKLNLEESWKAIKEMNHYCFLKNDPDFAFTNFIIKDKKHNNELLGIFVPCNLPKTTRKVAIENFNRPSPDDIIQSAQLNAFNMNIFEMLRIDEGLRLKIYKDTIGIGHKDEAEKLFNQDVDAAVRGILRNAKLKPVYDSLDAVRRAALINMVAGFTNSLRNQTPNRAKRVITTFRTGTWDAYKN,VRPGQLLRPEREEEGEVVEHVPGPGEELVEVEVEGRRLVV,AYPGKLICPQYGTEDIIFNYVPGPGTKLIQYEHNGRTLEA
38.0,184,234,B,50,GSHMSEEELLEAIREAGKFEFVEEVPEDEEGEEEEEEEEEDEEEEEEFVPEDLPEEELEEAEENFEKPSPRQIKREKAKKKFWENLYRILKVIYGEEEEEEEEEEELGLSEEEKEEFKEKVKEAIEGLKGDPELRPILEEAEEVQLMALIALAPGAEEEEEEEAPELEELLEEMLETGTLEAVEP,DDKLNLEESWKAIKEMNHYCFLKNDPDFAFTNFIIKDKKHNNELLGIFVPCNLPKTTRKVAIENFNRPSPDDIIQSAQLNAFNMNIFEMLRIDEGLRLKIYKDTIGIGHKDEAEKLFNQDVDAAVRGILRNAKLKPVYDSLDAVRRAALINMVAGFTNSLRNQTPNRAKRVITTFRTGTWDAYKN,EEEETEEADELGVTEARCEEGEGHLMYAVDWETWRCPECGEEEEFWAAKP,NYYLTTARNDLGVVFARAANGAGGLMYATDWQMMTSPVTGATEKRKCAKP
