contacts,cs,ce,Chain,Length,designed_receptor_seq,native_receptor_seq,designed_binder_seq,native_binder_seq
39.0,27,37,A,10,MAPEDLKKFLEERNKFFQEAVKSIGVELPLVTLTAEEAKKELERLKKEG,TDKQKSRLWELQRNRNFQASRRLGGVEMPLVTLTAAEALARLEELRSHY,PEELALLAAV,YEMTALRAAT
50.0,20,40,A,20,MAPEEEEEWLKKRNEWWQEAVKAVGVEIPLNTLTAEEAEEELKKLEEEG,TDKQKSRLWELQRNRNFQASRRLGGVEMPLVTLTAAEALARLEELRSHY,EEEKEKALKMIALLAATVKP,QRLEQAAYEMTALRAATIEL
54.0,10,40,A,30,MAPEEEKAWLEARNKWWQEALASVGVEIPLNTLSAEEAKKELERLKKEK,TDKQKSRLWELQRNRNFQASRRLGGVEMPLVTLTAAEALARLEELRSHY,PPNPLGINDPEELKKALLEMTALLAATVEP,MRNRLNIHQQQRLEQAAYEMTALRAATIEL
54.0,0,40,A,40,SNAELEKAWQEARNKFWQEAVAAVGVEIPLNTLSAEEAKKELERLKKEK,TDKQKSRLWELQRNRNFQASRRLGGVEMPLVTLTAAEALARLEELRSHY,DPRLYPGLDVYKNPWGIKDPEELKKVLLETTALLAATVEP,DPYLYPGLDIMRNRLNIHQQQRLEQAAYEMTALRAATIEL
56.0,10,60,A,50,SNAEREAAWRAARNRWFQEALAAVGVEIPLNTLSAEEAAAELERLRAEG,TDKQKSRLWELQRNRNFQASRRLGGVEMPLVTLTAAEALARLEELRSHY,PPNPLGLGDPAALRAARLRTTALRAAQIERGPEEAGLPWLAELLRELFRD,MRNRLNIHQQQRLEQAAYEMTALRAATIELGPLVRGLPHLRTIHRQLYQD
36.0,11,21,B,10,MGYLYPGTDILKNKLGITDKKELDREEARLTLENAKKIELGPVERGLPYLQEIHKKLFSDIYEWAGELRKIDLPETHYSLIEEYGNKLFEKLKEDNYLIGLEKEKFVEKLSYYYAELNKLHPFREGSGRAIRIFFYQLAIHAGYSISFKGIDRKEWYEALKTAEKGDLSKLIELFSKMVE,DPYLYPGLDIMRNRLNIHQQQRLEQAAYEMTALRAATIELGPLVRGLPHLRTIHRQLYQDIFDWAGQLREVDIPFCHFAYIEKEGNALMQDLEEEGYLVGLEKAKFVERLAHYYCEINVLHPFRVGSGLAQRIFFEQLAIHAGYQLSWQGIEKEAWNQANQSGAMGDLTALQMIFSKVVS,DIEKLYKEIS,QRNRNFQASR
57.0,3,23,B,20,SNYLYPGTNILKNKLGITDLKELEKEERKLTLENAKKIELGPLERGLPYLQYIHKELFKDIYEWAGELRKIKIPETEYYKIEEYGNKLFEKLKEDNYLVGLEKEKFVEKLSYYYIELNKLHPFREGSGRAIRIFFASLAIHAGYILSFKDIDRKEWYEALKTGEKGDLTKLIEIFKKVVE,DPYLYPGLDIMRNRLNIHQQQRLEQAAYEMTALRAATIELGPLVRGLPHLRTIHRQLYQDIFDWAGQLREVDIPFCHFAYIEKEGNALMQDLEEEGYLVGLEKAKFVERLAHYYCEINVLHPFRVGSGLAQRIFFEQLAIHAGYQLSWQGIEKEAWNQANQSGAMGDLTALQMIFSKVVS,EKEEIWKKIREKLYKEIVKL,QKSRLWELQRNRNFQASRRL
69.0,4,34,B,30,SGYLYPGTNIMKNKLGITDLKELEKEELKLTAENAAKIELGPLERGLPYLQYIHKELFKDIYEWAGELRKIDLPETHYSLIEKYGNELFEELKKDNYLVGLEKEKFVEKLSYYYIKLNTLHPFREGSGRAQRIFFHSLALHAGYILSFKDIDKKEWYEALKTGAKGDLTKLKELFSKMVE,DPYLYPGLDIMRNRLNIHQQQRLEQAAYEMTALRAATIELGPLVRGLPHLRTIHRQLYQDIFDWAGQLREVDIPFCHFAYIEKEGNALMQDLEEEGYLVGLEKAKFVERLAHYYCEINVLHPFRVGSGLAQRIFFEQLAIHAGYQLSWQGIEKEAWNQANQSGAMGDLTALQMIFSKVVS,KEKIWKETRNKLYKEIVKLGGVEIPLYEGE,KSRLWELQRNRNFQASRRLGGVEMPLVTLT
84.0,6,46,B,40,MGYLYPGTNILKNKLGIKDPKELEKKELETTALNAARIEKGPLERGLPYLQEIHKKLFQDIYEWAGELRKIDLPETHYSLIEEYGNKLFEKLKEDNYLVGLEKEKFVEKLSYYYAELNKLHPFREGSGRAQRIFFASLALHAGYILSFEGIDRKEWYEALKTAEKGDLTKLKELFSKMVE,DPYLYPGLDIMRNRLNIHQQQRLEQAAYEMTALRAATIELGPLVRGLPHLRTIHRQLYQDIFDWAGQLREVDIPFCHFAYIEKEGNALMQDLEEEGYLVGLEKAKFVERLAHYYCEINVLHPFRVGSGLAQRIFFEQLAIHAGYQLSWQGIEKEAWNQANQSGAMGDLTALQMIFSKVVS,EEWEKIKNKLYKEIVKLGGVEIPLVTLSAEEAKEKLKELL,RLWELQRNRNFQASRRLGGVEMPLVTLTAAEALARLEELR
0.0,0,0,B,0,MGYLYPGTNILKNKLGITDPKELEKEERKLTAENLKKIELGPLERGLPYLQEIHKKLFQDIYEWAGELRKIKVPETHYSLIEEYGNKLFEKLKEDNYLVGLEKEKFVEKLSYYYAELNKLHPFREGSGRAIRIFFENLAKHAGYELSWEGIDRKEYYEALKTAEKGDLSKLIEIFKKVVK,DPYLYPGLDIMRNRLNIHQQQRLEQAAYEMTALRAATIELGPLVRGLPHLRTIHRQLYQDIFDWAGQLREVDIPFCHFAYIEKEGNALMQDLEEEGYLVGLEKAKFVERLAHYYCEINVLHPFRVGSGLAQRIFFEQLAIHAGYQLSWQGIEKEAWNQANQSGAMGDLTALQMIFSKVVS,MGYLYPGTNILKNKLGITDPKELEKEERKLTAENLKKIELGPLERGLPYLQEIHKKLFQDIYEWAGELRKIKVPETHYSLIEEYGNKLFEKLKEDNYLVGLEKEKFVEKLSYYYAELNKLHPFREGSGRAIRIFFENLAKHAGYELSWEGIDRKEYYEALKTAEKGDLSKLIEIFKKVVKEKEEEEEEEE,
