contacts,cs,ce,Chain,Length,designed_receptor_seq,native_receptor_seq,designed_binder_seq,native_binder_seq
31.0,16,26,A,10,GSHMGEEELKELVEELEGEVEELKEEVEELKEEVEELKEEVEELKEEVEELKEEVEELKEEVEELVEELLEVRVHRERENEEGLWFDVSIGEEEYYFKLGLPKGEEVEVLYVPVLEELSEEELEELKEKLPEELFEERSFPLEELEEFYEELYEALHE,QQIDSADLLVANLVNENFVLSEKLDTKATEIKQLQKQIDSLNAQVKELKTQTSQQAENSEVIKDLYEYLCNVRVHKSYEDDSGLWFDISQGTSIMDYKLGFVKAQVTEVIYAPVLKQRSTEELYSLQSKLPEYLFETLSFPLSSLNQFYNKIAKSLNK,VDFEEEVEEG,IAFDDFHLDA
57.0,7,27,A,20,MEIDLKEVLKEYIEELNNKIEELKKEIEELKKEIEELKKEIEELKKEIEELKKEIEELKKEIEKIIEEKLKIRIHRERKNEDGLWFDISIGEKIYHFKIGIPLKEEIKILYEPVLENLSEEELKELKEKLPEELFKKREFELEELYEFYKLLYESLNK,QQIDSADLLVANLVNENFVLSEKLDTKATEIKQLQKQIDSLNAQVKELKTQTSQQAENSEVIKDLYEYLCNVRVHKSYEDDSGLWFDISQGTSIMDYKLGFVKAQVTEVIYAPVLKQRSTEELYSLQSKLPEYLFETLSFPLSSLNQFYNKIAKSLNK,NKLEEYKEKIDFEKEIKKAK,SVLIKREDEIAFDDFHLDAR
75.0,3,33,A,30,MEIDLKEVLKEYEKEIENLKKEIEELKKELEKEIEKLKEELEKLKEEIEKLKEEIEKLKEEIKNIIEYSLKIRIHRERKNEEGLWFDISIGEKIYHFKIGIPLEEEIKIIYEPVLENLSEEELEELKKKLPEELFKRRSFSLEEIYEFYKELYEALNK,QQIDSADLLVANLVNENFVLSEKLDTKATEIKQLQKQIDSLNAQVKELKTQTSQQAENSEVIKDLYEYLCNVRVHKSYEDDSGLWFDISQGTSIMDYKLGFVKAQVTEVIYAPVLKQRSTEELYSLQSKLPEYLFETLSFPLSSLNQFYNKIAKSLNK,EIPKGELEKYKEEIDFEKEIISAKELLEKL,FLPQSVLIKREDEIAFDDFHLDARKVLNDL
75.0,0,40,A,40,MEIDLKEVLKEYEKEIENLKKEIEELKKELEKEIEKLKEELEKLKEEIEKLKEEIEKLKEEIKEIIEYSLKIRIHRERKNEEGLWFDISIGEKIYHFKIGIPLEEEIKIIYEPVLENLSEEELEELKKLLPEELFKKRSFSLEEIYEFYKELYEALNK,QQIDSADLLVANLVNENFVLSEKLDTKATEIKQLQKQIDSLNAQVKELKTQTSQQAENSEVIKDLYEYLCNVRVHKSYEDDSGLWFDISQGTSIMDYKLGFVKAQVTEVIYAPVLKQRSTEELYSLQSKLPEYLFETLSFPLSSLNQFYNKIAKSLNK,EEKELPKGELEKYKEEIDFEKEIISAKELLKELEEEEEEE,KKRFLPQSVLIKREDEIAFDDFHLDARKVLNDLSATSENP
0.0,0,0,A,0,MEIDLKEVLKELEKELENLKKELEEKLEKLKEELEKLKEELEKLKEELEKLKEELEKLKEELEKLLEEKLKIKIKEKEEDEEKLWFYIEIGEKKYKFKLGFPKEEELKVYYEPVLEELSEEELEELKKLLPEELFKKREFELEELYEFYKLLYEALNG,QQIDSADLLVANLVNENFVLSEKLDTKATEIKQLQKQIDSLNAQVKELKTQTSQQAENSEVIKDLYEYLCNVRVHKSYEDDSGLWFDISQGTSIMDYKLGFVKAQVTEVIYAPVLKQRSTEELYSLQSKLPEYLFETLSFPLSSLNQFYNKIAKSLNK,MEIDLKEVLKELEKELENLKKELEEKLEKLKEELEKLKEELEKLKEELEKLKEELEKLKEELEKLLEEKLKIKIKEKEEDEEKLWFYIEIGEKKYKFKLGFPKEEELKVYYEPVLEELSEEELEELKKLLPEELFKKREFELEELYEFYKLLYEALNGKEEEEEEEEE,
17.0,66,76,B,10,MVKLIPESVLKKYEKEIDFDKYKFDKEKLEKIKKEKKETPFD,KKRFLPQSVLIKREDEIAFDDFHLDARKVLNDLSATSENPFS,DFKNNTLKPK,EYLCNVRVHK
32.0,62,82,B,20,MVNLLPESKLKELEKKVDFSKYKFDKKELEKLLKEDKKTPFS,KKRFLPQSVLIKREDEIAFDDFHLDARKVLNDLSATSENPFS,KKKKEFEENVLEPKKEKKKK,KDLYEYLCNVRVHKSYEDDS
41.0,59,89,B,30,MENLLPESKLIELEKKVDFKKYIFDYKELKKKLKEKKETPFS,KKRFLPQSVLIKREDEIAFDDFHLDARKVLNDLSATSENPFS,KKKKEEIEYKYNILIHKEYKNEKGKYYFIT,EVIKDLYEYLCNVRVHKSYEDDSGLWFDIS
49.0,62,102,B,40,MEKLLPESKLIEYKNKVDFSKYTFSGKELLKKLKEKKETPFS,KKRFLPQSVLIKREDEIAFDDFHLDARKVLNDLSATSENPFS,KKKKEFEEKILIHDIYEDEDGIYFDISKGENIEFFKIGFL,KDLYEYLCNVRVHKSYEDDSGLWFDISQGTSIMDYKLGFV
58.0,62,112,B,50,MKKLLPESKLIEYKNKIDFSKEIKSAKEILKEIKKEKKTPFS,KKRFLPQSVLIKREDEIAFDDFHLDARKVLNDLSATSENPFS,KKKIEFEKKILIHDIYIDEDGIWFDISKGENIEFFKIGIPLEKEIEIIIG,KDLYEYLCNVRVHKSYEDDSGLWFDISQGTSIMDYKLGFVKAQVTEVIYA
