contacts,cs,ce,Chain,Length,designed_receptor_seq,native_receptor_seq,designed_binder_seq,native_binder_seq
17.0,94,104,A,10,GSHMAEEEYEEDKKALIECLFSKPSGGGPPDVFITHVKILKCKSYPDRRPPPNTKKEDWQDRYLILSSTPDDDKKVKIHMAYRKKSGSFKIGKTFDLSELKVVEKDKKDECGFLLTFDKKYYFRTETSEERERFITDLITAYKDTFDGKYPVLINWDLSLFSLDEETYKKAVIP,MSNFLAEQYERDRKAIINCCFSRPDHGEPPNNYITHVRIIEDSKFPSSRPPPDSKLENKKKRLLILSAKPNNAKLIQIHKARENSDGSFQIGRTWQLTELVRVEKDLEISEGFILTMSKKYYWETNSAKERTVFIKSLITLYIQTFEGHVPELVNWDLSLFYLDERSYQRAVIT,KFEEAKKLIE,LKLIQDYRII
25.0,89,109,A,20,GSHMAEEEYEEDKKALIKCLFSKPSGGGPPDVFITHVKILKCKSYPDRRPPPKTKKEDWRDRYLILSSTPDDDKKVKIHSAYKKKSGDFKIGKTFDLSELKVVEKDKKDECGFLLTFDKKYYFRTETSEERERFITDLITAYKDTFDGRYPVLVNWDLSLFYLDEETYKAAVIP,MSNFLAEQYERDRKAIINCCFSRPDHGEPPNNYITHVRIIEDSKFPSSRPPPDSKLENKKKRLLILSAKPNNAKLIQIHKARENSDGSFQIGRTWQLTELVRVEKDLEISEGFILTMSKKYYWETNSAKERTVFIKSLITLYIQTFEGHVPELVNWDLSLFYLDERSYQRAVIT,KKKKKKLEESRKKIEEMVKG,CRQKFLKLIQDYRIIDSNYK
25.0,79,109,A,30,GSHMAEEEYEEDKKALIKCLFSKPSGGGPPDVFITHVKILKCKSYPDRRPPPKTKKEHWQDRYLILSSTPDDDKKVKIHSAYKKKSGDFKIGKTHDLSELKVVEKDKKDECGFLLTFDKKYYFRTETSEERERFITDLITAYRETFDGRYPVLVNWDLSLFHLDEETYKAAVIP,MSNFLAEQYERDRKAIINCCFSRPDHGEPPNNYITHVRIIEDSKFPSSRPPPDSKLENKKKRLLILSAKPNNAKLIQIHKARENSDGSFQIGRTWQLTELVRVEKDLEISEGFILTMSKKYYWETNSAKERTVFIKSLITLYIQTFEGHVPELVNWDLSLFYLDERSYQRAVIT,DKKKKKKEEKKRKEKLFQESVEKIKKSVEG,DSNKQAQAENCRQKFLKLIQDYRIIDSNYK
25.0,69,109,A,40,GSHMAEEEYEEDKKALIECLFSKPSGGGPPDVFITHVKILKCKSYPDRRPPPKTKKEHWQDRYLILSSTPDDDKKVKIHSAYKKKSGSFKIGKTHDLSELKVVEKDKKDECGFLLTFDKKHYYRTETSEERERFITDLITAYRETFDGRYPVLVNWDLSLFHLDEETYKAAVIP,MSNFLAEQYERDRKAIINCCFSRPDHGEPPNNYITHVRIIEDSKFPSSRPPPDSKLENKKKRLLILSAKPNNAKLIQIHKARENSDGSFQIGRTWQLTELVRVEKDLEISEGFILTMSKKYYWETNSAKERTVFIKSLITLYIQTFEGHVPELVNWDLSLFYLDERSYQRAVIT,IEEALEEGEDDEEKYEEAMEKLREYRFQQSVEKIKKSVEG,IKDAQRDGLHDSNKQAQAENCRQKFLKLIQDYRIIDSNYK
25.0,59,109,A,50,GSHMAEIEYEKDKEALIKCLFSKPSGGGPPDVFITHVKILKCKSYPDRRPPPNTKSSDWRDRYLILSKKPDDDKDVRIHSAYKKKSGDFKIGKTHKLSELKVVEKDKKDECGFLLTFDKKYYFRTETSEERERFIKDLITAYRDTFDGKYPVLVNWDLSLFHLDEETYKAAVIP,MSNFLAEQYERDRKAIINCCFSRPDHGEPPNNYITHVRIIEDSKFPSSRPPPDSKLENKKKRLLILSAKPNNAKLIQIHKARENSDGSFQIGRTWQLTELVRVEKDLEISEGFILTMSKKYYWETNSAKERTVFIKSLITLYIQTFEGHVPELVNWDLSLFYLDERSYQRAVIT,KKKEEEEKKKIEEELKKGEKDKEKKKKAEEKLKEFKFQQSKKKIEEMVKG,TDLQYQLKADIKDAQRDGLHDSNKQAQAENCRQKFLKLIQDYRIIDSNYK
17.0,161,171,B,10,SNAEHEEFLKLKEKIEKDLESFKNLINSVEECHKKLLKDISEEEREKLLEKLNELEKNIEKTLEKLLEDINKALILGEKDEEKKKLAEECKKKFLFLLEKEFIINKKYFEELKKKLKEKLKEIFPELSEEEIEKAIEKYPSLLEKLKEKLKGEEKEKAKKLLEKLKEIEEKMKKIEEAKKKMEEKKKE,SHMDFVAFMNKINSINANLSRYENIINQIDAQHKDLLTQVSEEQEMELRRSLDDYISQATDLQYQLKADIKDAQRDGLHDSNKQAQAENCRQKFLKLIQDYRIIDSNYKEESKEQAKRQYTIIQPEATDEEVEAAINDVNGQQIFSQALLAKTALAEVQARHQELLKLEKTMAELTQLFNDMEELVIE,YLDEEIKKLG,YLDERSYQRA
20.0,151,171,B,20,SNAEHEEFLKLIEKINEKLESFKNLINSVEECHKKLLEEISEEEREKLLEKLNELIENIKKTREELLELINEALIKGENDEEKKKLAEENKKKFLFLLKKEFIINSVYFEKLKEKLKEKLKEIFPELSEEEIEKAVEEFPGKLKELKEKLSGEELKEAEKLKEELKKIEELKKEIEEAFKKMEEKKKE,SHMDFVAFMNKINSINANLSRYENIINQIDAQHKDLLTQVSEEQEMELRRSLDDYISQATDLQYQLKADIKDAQRDGLHDSNKQAQAENCRQKFLKLIQDYRIIDSNYKEESKEQAKRQYTIIQPEATDEEVEAAINDVNGQQIFSQALLAKTALAEVQARHQELLKLEKTMAELTQLFNDMEELVIE,KIENVDLSKLYLDEEIYKLG,ELVNWDLSLFYLDERSYQRA
30.0,141,171,B,30,SNAEEEEFQKLIDSINEKLNSLKNLINSVNENFKILLKDISEEEREKNIEKLNELIENIKINLEELNKSINEALIKGENDEEKKKKAEENKKKFLFLITKLKIILNNYKEKLKEKLKEKLKEIFPELSEEEIEKAIEKEESIFEKLKEKLSGEEIEKAKELKELLKEIEELQKEIKEKFEELKKEKKE,SHMDFVAFMNKINSINANLSRYENIINQIDAQHKDLLTQVSEEQEMELRRSLDDYISQATDLQYQLKADIKDAQRDGLHDSNKQAQAENCRQKFLKLIQDYRIIDSNYKEESKEQAKRQYTIIQPEATDEEVEAAINDVNGQQIFSQALLAKTALAEVQARHQELLKLEKTMAELTQLFNDMEELVIE,FFLENNGKFPELKNVDLSKLYLDEEIYKLG,YIQTFEGHVPELVNWDLSLFYLDERSYQRA
31.0,131,171,B,40,SNAEEEEFQKLIDSINEKLNSLKNLINSVNECHKKLLKDISEEEREKLIEKLNELIENIKINLEELNKSINEALILGENDEEKYKKAKENKDKFLFLITKEKIINSNYYEKLKEKLKEKLKEIFPELSEEEIEKAIEEYPKIFEELKKEEEGKKIEEAKKLKEELKKIKELQEKLKESFKFLEKEEKK,SHMDFVAFMNKINSINANLSRYENIINQIDAQHKDLLTQVSEEQEMELRRSLDDYISQATDLQYQLKADIKDAQRDGLHDSNKQAQAENCRQKFLKLIQDYRIIDSNYKEESKEQAKRQYTIIQPEATDEEVEAAINDVNGQQIFSQALLAKTALAEVQARHQELLKLEKTMAELTQLFNDMEELVIE,EEKKIEEIKKYFLENKGKFPKLENEDLKKFYLDEEIYKLG,TVFIKSLITLYIQTFEGHVPELVNWDLSLFYLDERSYQRA
31.0,121,171,B,50,SNAEEEEFQKLIDSINEKLNSLENLINSVNENFKILLKDISEEEREKYLEELNKLIEEIKKNLEELNKSINEALIKGENDEEKYKKALENKNKFLFLITKAKIIYSNFKEKLKEKLKEKLKEIFPELSEEEIEKAIEEYPKILEELKKEEKGKEIEEAKKLLELLKEIEELQKKLNESFKELEKEKKE,SHMDFVAFMNKINSINANLSRYENIINQIDAQHKDLLTQVSEEQEMELRRSLDDYISQATDLQYQLKADIKDAQRDGLHDSNKQAQAENCRQKFLKLIQDYRIIDSNYKEESKEQAKRQYTIIQPEATDEEVEAAINDVNGQQIFSQALLAKTALAEVQARHQELLKLEKTMAELTQLFNDMEELVIE,KIEFKTEEEFKKEIKKIINEYILKNKGKFPKLENEDLKLFYLDEETYKLG,YWETNSAKERTVFIKSLITLYIQTFEGHVPELVNWDLSLFYLDERSYQRA
