contacts,cs,ce,Chain,Length,designed_receptor_seq,native_receptor_seq,designed_binder_seq,native_binder_seq
18.0,17,27,A,10,MYRPGVISEELRRALGVGENELPPFVAEMLKAGYPPGHRR,RFKPGVISEELQDALGVTDKSLPPFIYRMRQLGYPPGWLK,ELLEELFSQL,ELLFELFHQA
23.0,50,70,A,20,GFLPGVISEELRKALGVKENELPPFIERMLKLGFPPGYKK,RFKPGVISEELQDALGVTDKSLPPFIYRMRQLGYPPGWLK,FKKEIDIPYAKKLLEGIKLE,FKHEVSVPYAMNLLNGIKLY
23.0,40,70,A,30,GYKPGVISEELRKALGVKENELPPYMERMLKLGFPPGEKK,RFKPGVISEELQDALGVTDKSLPPFIYRMRQLGYPPGWLK,KKPGKSAVIKFKKEIDVPYAKKLLEGIKLG,GKPKQFAFVNFKHEVSVPYAMNLLNGIKLY
23.0,16,56,A,40,GYQPGVISEALRRALGVRENQLPPFIAEMLKAGYPPGWRS,RFKPGVISEELQDALGVTDKSLPPFIYRMRQLGYPPGWLK,EELLFELFSQRGPVERVVIPLDERGRPKKFAFVYFKYEVS,EELLFELFHQAGPVIKVKIPKDKDGKPKQFAFVNFKHEVS
39.0,18,68,A,50,GYQPGVISEELRRLLGVRENEEPPFMARMRRLGYPPGWRR,RFKPGVISEELQDALGVTDKSLPPFIYRMRQLGYPPGWLK,LLFELFSQAGPVERVVVPLDAAGRPKKFAFVTFRHEVSVPYARELLTGIG,LLFELFHQAGPVIKVKIPKDKDGKPKQFAFVNFKHEVSVPYAMNLLNGIK
19.0,5,15,B,10,GSMKKLFVGNLHEKVTEELLFELFSLSGPVKEVVIPLDKKGRPKSFAFVDFEEEKSVPKAMEDLNGVKLYGRPIKIKFLG,EADRTLFVGNLETKVTEELLFELFHQAGPVIKVKIPKDKDGKPKQFAFVNFKHEVSVPYAMNLLNGIKLYGRPIKIQFRS,KISEELKKAL,VISEELQDAL
26.0,5,25,B,20,GSHMKLFVGNLHEKVTEELLFELFSQAGPVKRVVIPLDKKGRPKSFAFVDFEKEESVPFAMELLNGVKLYGRPIKIKFLG,EADRTLFVGNLETKVTEELLFELFHQAGPVIKVKIPKDKDGKPKQFAFVNFKHEVSVPYAMNLLNGIKLYGRPIKIQFRS,KISEELRKALGVKENEKPPF,VISEELQDALGVTDKSLPPF
42.0,6,36,B,30,SMDKKLFVGNLHEKVTEELLFELFSQAGPVKEVRIPLDKKGRPKSFAFVDFEKEESVPYAMKLLNGIKLYGKPIKIKFLG,EADRTLFVGNLETKVTEELLFELFHQAGPVIKVKIPKDKDGKPKQFAFVNFKHEVSVPYAMNLLNGIKLYGRPIKIQFRS,ISEKLRKALGVKENELPPFIKRMLKLGEPP,ISEELQDALGVTDKSLPPFIYRMRQLGYPP
0.0,0,0,B,0,GSHMKLFVGNLHEKVTEELLFEIFSESGPVISVKIPLDKKGRPKRFAFVDFENEESVPKAMEDLNGVKLFGRPIKIKFLG,EADRTLFVGNLETKVTEELLFELFHQAGPVIKVKIPKDKDGKPKQFAFVNFKHEVSVPYAMNLLNGIKLYGRPIKIQFRS,GSHMKLFVGNLHEKVTEELLFEIFSESGPVISVKIPLDKKGRPKRFAFVDFENEESVPKAMEDLNGVKLFGRPIKIKFLGPKKKKKKKKK,
0.0,0,0,B,0,GSHMKLFVGNLHEKVTEELLFEIFSESGPVISVKIPLDKKGRPKRFAFVDFENEESVPKAMEDLNGVKLFGRPIKIKFLG,EADRTLFVGNLETKVTEELLFELFHQAGPVIKVKIPKDKDGKPKQFAFVNFKHEVSVPYAMNLLNGIKLYGRPIKIQFRS,GSHMKLFVGNLHEKVTEELLFEIFSESGPVISVKIPLDKKGRPKRFAFVDFENEESVPKAMEDLNGVKLFGRPIKIKFLGPKKKKKKKKK,
