contacts,cs,ce,Chain,Length,designed_receptor_seq,native_receptor_seq,designed_binder_seq,native_binder_seq
21.0,0,10,A,10,MKEELEKKIEEYKEKLEELLKKEIKLEEILETIEKAKEVLEKLKELEEKIKEEEEKLKELEKEIEKLKEEIEKLKEEIEKLLKEKEIKEEEKKEIDLEKLKELLEKLKEKLEKGEISLEELIKSEELKKLLEKVGKEDPLLALLLALKGESKEPLDPLEIELE,EYQRAIDSIEECLNKQLRLSSEKVDQYVLIENWTSLVGHLKTLHSLISNYTNGRELQNEISSLLKQDKELDLQIQDCMREMTSIYDTHLPKTQKVNAETLLDYGRKLSKFSSAPWPSEDQMRKTLLFQFSTSMVPNLSATASQLFSEQTKMNYPASPTFTTQE,IDLEKVKVEE,VDLTSIQWRM
21.0,0,20,A,20,MKEELEKKIEEYKEKLEELLKKEIKLEEILETIEKAKEVLEKLKELEEKIKEEEEKLKEEIKELEKKIEELKKKIEELEKKLKEKEIKEEEKKEIDLEKLLKELEKLKEKLEKGEISLEELIKSEELKKLLEKVGKEDPLLALLLALKEETKEPLDPREIKLK,EYQRAIDSIEECLNKQLRLSSEKVDQYVLIENWTSLVGHLKTLHSLISNYTNGRELQNEISSLLKQDKELDLQIQDCMREMTSIYDTHLPKTQKVNAETLLDYGRKLSKFSSAPWPSEDQMRKTLLFQFSTSMVPNLSATASQLFSEQTKMNYPASPTFTTQE,VDLEKVKVEDPELVKLLGGE,VDLTSIQWRMPEWVQSMGGL
21.0,0,30,A,30,MKEELIKKIEEYEKELEELLKKEIDLEKILENIEKKKEVLEKLKELLEKEKEEKEKKEEEKKEKEKEEKEKEEKEKEEKEKKEKEKKEEKEKEKVDLEKLLKELEKLKEKLEKGEISLEELIKSEEVKKLLEKVGKEDPVLAALLALKEETKEPECPVEIELK,EYQRAIDSIEECLNKQLRLSSEKVDQYVLIENWTSLVGHLKTLHSLISNYTNGRELQNEISSLLKQDKELDLQIQDCMREMTSIYDTHLPKTQKVNAETLLDYGRKLSKFSSAPWPSEDQMRKTLLFQFSTSMVPNLSATASQLFSEQTKMNYPASPTFTTQE,VDLEKVEVEDPELLKKLGELTEEVKELLKK,VDLTSIQWRMPEWVQSMGGLRTENVLEYFS
22.0,0,40,A,40,MKEELIKKIEEYDKELEELLKKEIDLEEILKNIEEKIEVLKELKELEEKIEKEKEELEKLKEEIEKLKEEIEKLKEEIEKLLKEKEIKEEEKKEIDLEELLKKLEELKEKLEKGEISLEEIIKSEEVKKLLEKIGKEDPILAALLALKEESKEPPDPREIKLE,EYQRAIDSIEECLNKQLRLSSEKVDQYVLIENWTSLVGHLKTLHSLISNYTNGRELQNEISSLLKQDKELDLQIQDCMREMTSIYDTHLPKTQKVNAETLLDYGRKLSKFSSAPWPSEDQMRKTLLFQFSTSMVPNLSATASQLFSEQTKMNYPASPTFTTQE,IDLEKVEWEDPEFIKKVGKITEEIKKLLYKLSPYYKEEEE,VDLTSIQWRMPEWVQSMGGLRTENVLEYFSQSPFYSHKSN
25.0,0,50,A,50,MEEELLKKIEEYDKELEELLKKEIDLEEILKTIEKKIETLKKLKELLEKKEKEEKEKEEEKKEKEKEEKEKEEKEKEEKEKEEKEKKEEKEEKEEEKEKEEKEKEKEKEKEEKGEISLEELIKSEEVKKLLEKIGKEDPVLAALLALKEESEKPPPPEEIKEE,EYQRAIDSIEECLNKQLRLSSEKVDQYVLIENWTSLVGHLKTLHSLISNYTNGRELQNEISSLLKQDKELDLQIQDCMREMTSIYDTHLPKTQKVNAETLLDYGRKLSKFSSAPWPSEDQMRKTLLFQFSTSMVPNLSATASQLFSEQTKMNYPASPTFTTQE,IDLEKVEWEDPEFLKKVGEETEEIKKLLYLLSPYAKEESEEVKKLLEKLG,VDLTSIQWRMPEWVQSMGGLRTENVLEYFSQSPFYSHKSNNEMLKMQSQF
20.0,136,146,B,10,MDLSGVTWSDPEFVKKVGGLNKTTVLELLRHSPFFEEDSVLAKWLKSVKDKKFTWGELLKELEKEKGLVYRIAKYDPPREALIEKVYKPKPGKEVVLKRIKVENNVIKSEPEEEEIKKRLEEEKRRKEEELKKKLEELPLYDPEKGVLLPPPEELEKLKEEVEKLKEELEK,VDLTSIQWRMPEWVQSMGGLRTENVLEYFSQSPFYSHKSNNEMLKMQSQFNALDLGDLNSQLKRLTGIQFVIIHERPPFLWVIQKQNRLNENEVKPLTVYFVCNENIYMAPNAYTLLATRMLNATYCFQKALTKIEKFPQYNPQEGYTYPSPEDFSVVRAFMQSLHSSKEA,ELEKLKEELE,LSATASQLFS
25.0,133,153,B,20,MDLSSVTWSDPAFVKKVGRLDRLTVLRLLRESPFFEEDSVLAKWLKSVKDKRFTWGELLRELEKEKGLVYVIAEYDPPHRARIEKRFKPKPGKEVVLRRIEVRDGVILSAPEEEEVLREALRRAEEEVRRLVEELRKKPLVDPELGVLLPPPEELERLREEVERLREEVER,VDLTSIQWRMPEWVQSMGGLRTENVLEYFSQSPFYSHKSNNEMLKMQSQFNALDLGDLNSQLKRLTGIQFVIIHERPPFLWVIQKQNRLNENEVKPLTVYFVCNENIYMAPNAYTLLATRMLNATYCFQKALTKIEKFPQYNPQEGYTYPSPEDFSVVRAFMQSLHSSKEA,EPEEDPLLARLRALLGELEG,VPNLSATASQLFSEQTKMNY
26.0,126,156,B,30,MDLSSVTWSDPEFVKSVGGLNRTTVLLLLRRSPFFEEDSVLAKWLKSVKDKRFTWGELLKELEKEKGLVYVIAEYDPPHRARIEKRFKPKPGKEVVLRRIEVKDGVILSAPEEEEVKKELEEKKREEELRRLKELEKKPLFDPEKGVLLPPPEELEKLKKEVEELKKKVEE,VDLTSIQWRMPEWVQSMGGLRTENVLEYFSQSPFYSHKSNNEMLKMQSQFNALDLGDLNSQLKRLTGIQFVIIHERPPFLWVIQKQNRLNENEVKPLTVYFVCNENIYMAPNAYTLLATRMLNATYCFQKALTKIEKFPQYNPQEGYTYPSPEDFSVVRAFMQSLHSSKEA,LKELLEKLPEEDPELAKLLAKLEEEKKPPP,FQFSTSMVPNLSATASQLFSEQTKMNYPAS
26.0,116,156,B,40,MDLSSVTWSDPAFVKKVGRLDRLTVLLLLRESPFFERDSVLEKWLRSVKDRRFTWGELLRELEREKGLVYVIAEYDPPHRARIEKRFRPRPGEERVLRRIEVRDGVLLAAPEEEEVRREALRREVERLRREVEELRRKPLVDPELGVLLPPPEELERLREEVERLREEVER,VDLTSIQWRMPEWVQSMGGLRTENVLEYFSQSPFYSHKSNNEMLKMQSQFNALDLGDLNSQLKRLTGIQFVIIHERPPFLWVIQKQNRLNENEVKPLTVYFVCNENIYMAPNAYTLLATRMLNATYCFQKALTKIEKFPQYNPQEGYTYPSPEDFSVVRAFMQSLHSSKEA,ELERLRESEELRRLLEELGEEDPLLARLLALRGEEERPPP,SEDQMRKTLLFQFSTSMVPNLSATASQLFSEQTKMNYPAS
26.0,106,156,B,50,MDLSSVTWSDPAFVKSVGGLNRETVLLLLRHSPYFERSSVLEKWLQSVKDKRFSWGELQRELEREKGLVYRIAEWNPPHSARIEKVFKPEPGKEVVLRRIEVRDGVLLAAPEEEEVLREALRREVERLREEVERLRREVRVDPERGVLLPSPEEVERLRREVERLREEVER,VDLTSIQWRMPEWVQSMGGLRTENVLEYFSQSPFYSHKSNNEMLKMQSQFNALDLGDLNSQLKRLTGIQFVIIHERPPFLWVIQKQNRLNENEVKPLTVYFVCNENIYMAPNAYTLLATRMLNATYCFQKALTKIEKFPQYNPQEGYTYPSPEDFSVVRAFMQSLHSSKEA,ELERLREGRVSLEELLRSEEVRRLLERVGEEDPLLARLRALEGEEERPPP,LSKFSSAPWPSEDQMRKTLLFQFSTSMVPNLSATASQLFSEQTKMNYPAS
