contacts,cs,ce,Chain,Length,designed_receptor_seq,native_receptor_seq,designed_binder_seq,native_binder_seq
26.0,91,101,A,10,ALEAELAAKRAELEAFKTARDALIAANGAPVPGDGELVLDEAADKPVSAEALAALKAALDAKEAALKAEIAAMEAQLPAVSADPAAAAAALAAARAALAAARAALAAARAALAAARAALAAARAALAAARAALGA,CRCTQLQDTIDEVATQFYSSIHYLSSHHDFVPLPGQEKVSDSKVNPISAEELQFAQRDLAKDLVTKFMQIDTLINQLPGISTAPKHQLEKIKKLQNSIEEKQLERKSLESENEDLKLQLAKRIETFGRLSCVLFQ,ARAAGEAARR,QYVNGKLYAI
45.0,91,111,A,20,GLEAELEALRAELEAFRERALAEILALGAPVPGEGELRLDLAADRPVSREELLARVEALAREERALLARIEALEARRPERDPDPAALLARLEALRAEVERLRAELERLRAELEARRAELEARRAELEARLEALGA,CRCTQLQDTIDEVATQFYSSIHYLSSHHDFVPLPGQEKVSDSKVNPISAEELQFAQRDLAKDLVTKFMQIDTLINQLPGISTAPKHQLEKIKKLQNSIEEKQLERKSLESENEDLKLQLAKRIETFGRLSCVLFQ,ALLAGRLANLEAYLAALEAA,QYVNGKLYAIEGFQKAFAEE
53.0,85,115,A,30,GLEAELERLREELERHREEALREILRLGSYVPEGGELVLDEERDRPVSEEELLRRVEELARREVELLRRIEEMERRLPEREEDPSELLRRLEELVREVEELARRLEELARRLEEEVRRLEEELRRLEEELRRLGE,CRCTQLQDTIDEVATQFYSSIHYLSSHHDFVPLPGQEKVSDSKVNPISAEELQFAQRDLAKDLVTKFMQIDTLINQLPGISTAPKHQLEKIKKLQNSIEEKQLERKSLESENEDLKLQLAKRIETFGRLSCVLFQ,PEELERQRRLGELLNLLLYLLALLEELRRA,LVQKDNQYVNGKLYAIEGFQKAFAEEIKQA
53.0,75,115,A,40,GLEAELERLREELERHREEALREILRLGSYVPEGGELVLDEERDRPVSEEELLRRVEELARREVELLRRIEEMERRLPEREEDPSELLRRLEELVREVEELARRLEELLRRLEEELRRLEEELRRLEEELRRLGE,CRCTQLQDTIDEVATQFYSSIHYLSSHHDFVPLPGQEKVSDSKVNPISAEELQFAQRDLAKDLVTKFMQIDTLINQLPGISTAPKHQLEKIKKLQNSIEEKQLERKSLESENEDLKLQLAKRIETFGRLSCVLFQ,EELRRLLEELRRLLEEQRRRGELLNLLLYLLALLEELRRA,PDVYARQFSELVQKDNQYVNGKLYAIEGFQKAFAEEIKQA
53.0,65,115,A,50,GLEEELKKLEEELEKFEEEALKEILEKGSYVPEGEELVLDEEKDKPVSEEELLKLVEELAKKKVELLKKIEEMKKKLPEEEKDPSELLEKLKELVEKVKELAEKLKEELEKLEEELKKLEEELKKLEEELKKLGE,CRCTQLQDTIDEVATQFYSSIHYLSSHHDFVPLPGQEKVSDSKVNPISAEELQFAQRDLAKDLVTKFMQIDTLINQLPGISTAPKHQLEKIKKLQNSIEEKQLERKSLESENEDLKLQLAKRIETFGRLSCVLFQ,REELEKLGLDPELLEKLEEELKKLLEQKLKGILENLKKYLEALEEELKKL,VLEYIEQGRNPDVYARQFSELVQKDNQYVNGKLYAIEGFQKAFAEEIKQA
23.0,23,33,B,10,GAELAALTAELARTAAAVAALAAAVAAADAATPAAAVPALAARLAADLDALPALAAAVRVRVPAAVAEAVAAGRDPAAVAAAVRAAAAAAAAAAAGAAAAVAGAVAAAVAAAAAAVPAAAAALAAAVAAGAAP,TDEMKSLASRLEDTTQAFYDLALIVYNLEDTTPSDAIPESLDTLIRDLKSLPDISRKVNNLIPQDVLEYIEQGRNPDVYARQFSELVQKDNQYVNGKLYAIEGFQKAFAEEIKQAYPEVSSVVDKILNEGKVE,AAAAAAAVPA,LSSHHDFVPL
30.0,18,38,B,20,MAELAALTAELRRTAAHVAALEAAVAALDAATPLAAVPALAAALAASQDALPALAAAVRVRVPAAVAEAVAAGRDPAAVAAAVRAARVAAGQARAGRALALAGALAAAVAAAAAAVPAAAAALAAAVAAGAAP,TDEMKSLASRLEDTTQAFYDLALIVYNLEDTTPSDAIPESLDTLIRDLKSLPDISRKVNNLIPQDVLEYIEQGRNPDVYARQFSELVQKDNQYVNGKLYAIEGFQKAFAEEIKQAYPEVSSVVDKILNEGKVE,AAVAALLAAPAAVPAAAAAA,SSIHYLSSHHDFVPLPGQEK
31.0,10,40,B,30,MADLAALRAELDRTVAHVNALEAAVAALDASTPLAAVPALAKALVESLDALPALAAKVKVEVPAEVAEMVAAGRNPLDYVRAVVERRVLDAQRRAGQAEALRGALERALAELAAAVPEVAADLAALRAAGAAP,TDEMKSLASRLEDTTQAFYDLALIVYNLEDTTPSDAIPESLDTLIRDLKSLPDISRKVNNLIPQDVLEYIEQGRNPDVYARQFSELVQKDNQYVNGKLYAIEGFQKAFAEEIKQAYPEVSSVVDKILNEGKVE,AAAAAAAAAAAAALLAAPAPVPAAAAAAAA,DEVATQFYSSIHYLSSHHDFVPLPGQEKVS
44.0,23,63,B,40,GMALAALTAELARTAAHVAALAAAVAALDAATPLAAVPALAAALAASLDALPALAAAVRVRVPAAVAAAVAAGRDPAAVAAAVAAAAALAAQRAAGEAAALAGLAAAAAAVAAAREPARAAALAAAAAAGAAA,TDEMKSLASRLEDTTQAFYDLALIVYNLEDTTPSDAIPESLDTLIRDLKSLPDISRKVNNLIPQDVLEYIEQGRNPDVYARQFSELVQKDNQYVNGKLYAIEGFQKAFAEEIKQAYPEVSSVVDKILNEGKVE,AAAAGAALPAGGAAAAAAAAAAPAAAAALAAALAAAAAAA,LSSHHDFVPLPGQEKVSDSKVNPISAEELQFAQRDLAKDL
53.0,18,68,B,50,GMAEAALRAELARTAAHVAALEAAVAALDAATPLAAVPALAAALAASLDALPALAAAVRAEVPAEVAAAVAAGRDPAAVAAAVAAARVLAAQRAAGRAAALAGLRAALLAELAAAFPERAAALAAAVAAGAAP,TDEMKSLASRLEDTTQAFYDLALIVYNLEDTTPSDAIPESLDTLIRDLKSLPDISRKVNNLIPQDVLEYIEQGRNPDVYARQFSELVQKDNQYVNGKLYAIEGFQKAFAEEIKQAYPEVSSVVDKILNEGKVE,AAAAAVLAAGAALPAGGAAAAAAAAAAPAAAAALAAALAAAAAAAVAALR,SSIHYLSSHHDFVPLPGQEKVSDSKVNPISAEELQFAQRDLAKDLVTKFM
