contacts,cs,ce,Chain,Length,designed_receptor_seq,native_receptor_seq,designed_binder_seq,native_binder_seq
20.0,29,39,A,10,MEELEKFKEAIKEVLEAVKEVIEVHNYIGEVIRSTEEEIPLPVLLDLIEEAEEKLEKIEELLEKYKEILEKAEVKVEGLAELLKETELFEKLLSRELSPEEKERIKELLEKVEELLEKVPLEELLEKLKELEEKAKELLEKYKEAKEKLEEEKVLETEEEKEGFKVDLEELLEKVKELLEKAKELLEKAKEALEKGEE,DISTEKTVESLEAIRHRIAQIVQSLTHFLAILHQSESLSPWPTIHKNFNILLSQIHSLSNNLAAHSHTLQTTSIYPSLEFPVKEQEPLLTTLLRTKALPEVEEWEANTLQEYEASISSQPKKKEANDAYQKDQLWDQARIIFMEERENYSWFDFVTRRQESEGEFVSQRQLEIDRATEEQNANQMLTDILSFMKSGKR,ELEKLKKLKK,FQDILDIAIN
31.0,29,49,A,20,MEELEKFKEAIKEVKEAVEEVIEVLEEIKEVIESSEEEIPLPVLKEKIEELKEKLEEIAELLEKYKEILEEAEIEVKGLAEELEETELLEELLSTELSPEAEELIEELEEIKEEILEEVEEEELEELLEEINELTEEILEEYEEAKEELEEEEILETEEEKEGFEVDLEELEEEIEELEEELEELEEELEEAEEEGEE,DISTEKTVESLEAIRHRIAQIVQSLTHFLAILHQSESLSPWPTIHKNFNILLSQIHSLSNNLAAHSHTLQTTSIYPSLEFPVKEQEPLLTTLLRTKALPEVEEWEANTLQEYEASISSQPKKKEANDAYQKDQLWDQARIIFMEERENYSWFDFVTRRQESEGEFVSQRQLEIDRATEEQNANQMLTDILSFMKSGKR,LLEELEEASLEEASPLEEIV,FQDILDIAINEGKDKYTVAP
40.0,26,56,A,30,MEELKEFLEAIKEVKEAVEEIIEELEYTKEVIESSEEEIPLPVLLDLIEELKEKIEEIAELLEKYKEILEEAEIEVEGLAEELEETELLEELLSEELSEEEKELIEELEEILEEIKEEVEEEELEELLEEINELVEEILEEYEEAVEELEEEEIELTEEEKEGFEVDLEELEEEIEELEEELEELEEELEEAEEEGEE,DISTEKTVESLEAIRHRIAQIVQSLTHFLAILHQSESLSPWPTIHKNFNILLSQIHSLSNNLAAHSHTLQTTSIYPSLEFPVKEQEPLLTTLLRTKALPEVEEWEANTLQEYEASISSQPKKKEANDAYQKDQLWDQARIIFMEERENYSWFDFVTRRQESEGEFVSQRQLEIDRATEEQNANQMLTDILSFMKSGKR,VELELEILELLSEEELSPEELLPKLEALLE,LSRFQDILDIAINEGKDKYTVAPEVYQIEC
45.0,19,59,A,40,MEELEKFKEAIKEVLEAVKEIIEHLEYTKEVIESSEEEIPFPVLKELIEETLEKIEKISELLEKYKEILEKAEIKVEGLAEELKESELLEKLLSTELSPELKELIEKLKEILEEIKEKVEEEELEELLEKINELVEEILEEFKELLEELELEEIELSEEEKEGLEIDLEELEELIEELEELLEELEELLEEAEEEGLE,DISTEKTVESLEAIRHRIAQIVQSLTHFLAILHQSESLSPWPTIHKNFNILLSQIHSLSNNLAAHSHTLQTTSIYPSLEFPVKEQEPLLTTLLRTKALPEVEEWEANTLQEYEASISSQPKKKEANDAYQKDQLWDQARIIFMEERENYSWFDFVTRRQESEGEFVSQRQLEIDRATEEQNANQMLTDILSFMKSGKR,ELEELLEILKFLEILELLSLEEASPLELLPKLYALLVLLE,DNATLTILSRFQDILDIAINEGKDKYTVAPEVYQIECHTV
49.0,10,60,A,50,MEELEKFKEAIKEVLEAVKEIIEHLEYTKEVIESSEEEIPFPLLFELIKETLEEIEKISELLEKYKEILEKAEIEVKGLAEELKESELLEELLSEELSPEEKELIEELKEILEEIKEEVEEEELEELLEEINELVEEILEEFEELLEEEELEEIELSEEEKEGFEVDLEELEELLEELEELLEELEELLEEAEEEGLE,DISTEKTVESLEAIRHRIAQIVQSLTHFLAILHQSESLSPWPTIHKNFNILLSQIHSLSNNLAAHSHTLQTTSIYPSLEFPVKEQEPLLTTLLRTKALPEVEEWEANTLQEYEASISSQPKKKEANDAYQKDQLWDQARIIFMEERENYSWFDFVTRRQESEGEFVSQRQLEIDRATEEQNANQMLTDILSFMKSGKR,ELEELLEELEELLEEIIESFKEILELLEEEELSPEELLPKLKAILTLLER,RTNTLNSSIDNATLTILSRFQDILDIAINEGKDKYTVAPEVYQIECHTVS
15.0,129,139,B,10,GPTLEELKQGLINALKAAETAAQTAITTANTTIAQLSDTTNATPAQLAPIATAITTLQAAITTAQTALTTITTAQTTLTTTLTTTTTTTTTTTTTPNTTTTTTTTTTTTTTTTTTTTTT,SDSFQRQLVQRTNTLNSSIDNATLTILSRFQDILDIAINEGKDKYTVAPEVYQIECHTVSMVRAVEQLLDVSRQIKSYWLTNSLSTSFPTVDYSEPDLEKVKRTLTKLQNHLLEVSLIE,TTTTTTTTTT,QKDQLWDQAR
24.0,131,151,B,20,GPTLEELKEGLIKALKAAYTGAVNTIINSYLEILKLADTSEASEEELKPKEEAIKALKEKIEEAKKKLEEIEKAIKEIEEALPVKKGEEKKEEKKPDLKKVFEEAIKKATEGKEVKEAP,SDSFQRQLVQRTNTLNSSIDNATLTILSRFQDILDIAINEGKDKYTVAPEVYQIECHTVSMVRAVEQLLDVSRQIKSYWLTNSLSTSFPTVDYSEPDLEKVKRTLTKLQNHLLEVSLIE,KEKAKEALEKFKKEIEKLKL,DQLWDQARIIFMEERENYSW
28.0,122,152,B,30,GPTLEELKEGLIKALKELETSAINTIINSYLEILKLSSTKNASEELLKPIEEAIKKLKEKIEEAKKKLEEIEKLKEEIEKAKKELKGELKEELKEPNLEELKEKLIKELTKDIEVKEPK,SDSFQRQLVQRTNTLNSSIDNATLTILSRFQDILDIAINEGKDKYTVAPEVYQIECHTVSMVRAVEQLLDVSRQIKSYWLTNSLSTSFPTVDYSEPDLEKVKRTLTKLQNHLLEVSLIE,LKEKLKEKLNELKEKLLKEFEEKLKELKLE,KEANDAYQKDQLWDQARIIFMEERENYSWF
28.0,112,152,B,40,GPTLEELKEGLIKLLKELEESAINTIISSYLEILKLSSLEGASPEEIEPKKKAIEELKKKIEEAKKKLEEIEKLKEEIEKALKLEKGEEKKEEKKPDLEKIIKEAIKKALKDKKVEEPK,SDSFQRQLVQRTNTLNSSIDNATLTILSRFQDILDIAINEGKDKYTVAPEVYQIECHTVSMVRAVEQLLDVSRQIKSYWLTNSLSTSFPTVDYSEPDLEKVKRTLTKLQNHLLEVSLIE,EEKKEEEKEEEKEEKEKKEEEKKKEELEKFKEELKKLKLE,EASISSQPKKKEANDAYQKDQLWDQARIIFMEERENYSWF
33.0,126,176,B,50,MPTELEKIVGLINELKSRLYSALDTIINSHLLILKLSSTKGQSLAAILPKIAAIKALEEAIKEAEEEIKKIEKEIEEIKKKLKLEKGELKEEKKEPDLKKVIEEAIKKALKDKKVEEPK,SDSFQRQLVQRTNTLNSSIDNATLTILSRFQDILDIAINEGKDKYTVAPEVYQIECHTVSMVRAVEQLLDVSRQIKSYWLTNSLSTSFPTVDYSEPDLEKVKRTLTKLQNHLLEVSLIE,ELKKLDELKEKILEEFKKALEKLKLEEILETEEEKKGFKLDLEKLIEKLK,DAYQKDQLWDQARIIFMEERENYSWFDFVTRRQESEGEFVSQRQLEIDRA
