contacts,cs,ce,Chain,Length,designed_receptor_seq,native_receptor_seq,designed_binder_seq,native_binder_seq
33.0,38,48,A,10,MEEVRKKYPDIDKTVRSILLSEAQGGITISEIKRRYEEITGEPFPLRRNVRRFLLTIPNVTSELSESGREIFSIKASLKGGDILGRVLNSEK,YISVREEYPDIDSEVRAILLSHAQNGITISSIKSEYRKLTGNPFPLHDNVTDFLLTIPNVTAECSESGKRIFNLKASLKNGHLLDMVLNQKE,VFKEYFEAEH,DFLASFLSEK
44.0,34,54,A,20,GSHVRKEFPDIDKQVRSILLSEAQGGITIAEIKRRYEEITGKPFPLRRNVKEFLLTIPNVTSEKSESGKEIFSIKASLKTGHLLGYVLNSKK,YISVREEYPDIDSEVRAILLSHAQNGITISSIKSEYRKLTGNPFPLHDNVTDFLLTIPNVTAECSESGKRIFNLKASLKNGHLLDMVLNQKE,EKEKIFLASFLSEEDIPTLV,KRGADFLASFLSEKEFPTTS
55.0,33,63,A,30,GSHVRKEFPDIDKQVRSILLSEAQGGITIAEIKRRYEEITGKPFPLKRNVKEFLLTIPNVTSEKSESGKEIFSIKASEKTGHLLNKVLNRKR,YISVREEYPDIDSEVRAILLSHAQNGITISSIKSEYRKLTGNPFPLHDNVTDFLLTIPNVTAECSESGKRIFNLKASLKNGHLLDMVLNQKE,GRKGAVFLASFLSEKDIPTTFIHGELKKEY,TKRGADFLASFLSEKEFPTTSIHGDRLQSQ
58.0,30,70,A,40,GSHVRKEFPDIDKQVRSILLSEAQGGITISEIKRKYEEITGKPFPLKRNVKEFLLTIPNVTSEKSESGKEIFSIKASEKDGHLLNIVLNRKK,YISVREEYPDIDSEVRAILLSHAQNGITISSIKSEYRKLTGNPFPLHDNVTDFLLTIPNVTAECSESGKRIFNLKASLKNGHLLDMVLNQKE,PVKTAGEAVFLASFLSMEDIPTTFIHGSLKLEQRLEALKK,FVETKRGADFLASFLSEKEFPTTSIHGDRLQSQREQALRD
59.0,26,76,A,50,GSHVRKEFPDIDKQVRSILLSRAQGGITISEIKREYEKITGKPFPLKRNVKEFLLTIPNVTSEKSESGKEIFSIKASEKDGHLLNIVLNRKK,YISVREEYPDIDSEVRAILLSHAQNGITISSIKSEYRKLTGNPFPLHDNVTDFLLTIPNVTAECSESGKRIFNLKASLKNGHLLDMVLNQKE,GIIIEVETAGEADFLASFLSQKDIPTTFIHGSLKKEQREEALKRFLEGEA,GTIVFVETKRGADFLASFLSEKEFPTTSIHGDRLQSQREQALRDFKNGSM
26.0,81,91,B,10,MKITIEEVLKNEKEEKLVEILSEDSEGTIIFVRTKHGADRLARKLTKKKFPTTAIHGNMKQSQRERALERFKKGEAKVLVATDVAARGLDIDGVNRVINYDMPNEIEDYIHRIGRTGEAISFFDPEKDKKIAADLVKVLEGKGEEVPEFLKKV,VKQTIYEVNKYAKRSKLIEILSEQADGTIVFVETKRGADFLASFLSEKEFPTTSIHGDRLQSQREQALRDFKNGSMKVLIATSVASRGLDIKNIKHVINYDMPSKIDDYVHRIGRTGRATSFFDPEKDRAIAADLVKILEGSGQTVPDFLRTC,ELEEIIKNEK,HLLDMVLNQK
33.0,71,91,B,20,MKITIEEVLKNEKEEKLVEILSEKSEGTIIFVRTKEGADRLAFYLSEKDFPTTAIHGNMKQKQREEALERFKKGEAKVLVVTDVASRGLDIDGVEHIINYDMPNEIEDYIHRIGRTGKATSFFDPEKDKKIAKDLVKVLEGKGEEVPEFLKKV,VKQTIYEVNKYAKRSKLIEILSEQADGTIVFVETKRGADFLASFLSEKEFPTTSIHGDRLQSQREQALRDFKNGSMKVLIATSVASRGLDIKNIKHVINYDMPSKIDDYVHRIGRTGRATSFFDPEKDRAIAADLVKILEGSGQTVPDFLRTC,KSVKKTEKTGHLLDIIENSK,FNLKASLKNGHLLDMVLNQK
33.0,61,91,B,30,MKITIEEVLKNDKEEKLVEILSEKSEGTIIFVRTRDGADRLAFYLSEKDFPTTAIHGNMKQSQRERALEEFKSGKAKVLVATDVAARGLDIDGVERVINYDMPNEIEDYIHRIGRTGEAISFFDPEKDKKIAADLVKVLEGKGEEVPEFLKKV,VKQTIYEVNKYAKRSKLIEILSEQADGTIVFVETKRGADFLASFLSEKEFPTTSIHGDRLQSQREQALRDFKNGSMKVLIATSVASRGLDIKNIKHVINYDMPSKIDDYVHRIGRTGRATSFFDPEKDRAIAADLVKILEGSGQTVPDFLRTC,VELTEEGEIKFSVKKTEKTGHLLDIIENMK,AECSESGKRIFNLKASLKNGHLLDMVLNQK
33.0,51,91,B,40,MKITIEEVLKNEKEEKLVEILSEKSEGTIIFVRTRDGATRLAFYLSEKDFPTTFIHGDLKQKQREEALERFKKGEAKVLVVTDVASRGLDIDGVERVINYDMPNEIEDYIHRIGRTGEAISFFDPEKDKKIAADLVKVLEGKGEEVPEFLKKV,VKQTIYEVNKYAKRSKLIEILSEQADGTIVFVETKRGADFLASFLSEKEFPTTSIHGDRLQSQREQALRDFKNGSMKVLIATSVASRGLDIKNIKHVINYDMPSKIDDYVHRIGRTGRATSFFDPEKDRAIAADLVKILEGSGQTVPDFLRTC,EFLLTIPNVTKEKTKSGKIKYGFKKSKKTGHILDIIENMK,DFLLTIPNVTAECSESGKRIFNLKASLKNGHLLDMVLNQK
34.0,41,91,B,50,MKITIEEVLKYDKEEKLVEILSEESEGTIIFVRTRDGAVRLAFYLSEKDFPTTFIHGDLKQKQRERALEEFKEGKAKVLVATDVAARGLDIDGVKRVINYDMPEKIEDYIHRIGRTGEAISFFDPERDREIAADLVKVLEGKGEEVPEFLKEV,VKQTIYEVNKYAKRSKLIEILSEQADGTIVFVETKRGADFLASFLSEKEFPTTSIHGDRLQSQREQALRDFKNGSMKVLIATSVASRGLDIKNIKHVINYDMPSKIDDYVHRIGRTGRATSFFDPEKDRAIAADLVKILEGSGQTVPDFLRTC,KPFPLEENVEEFLLTIPNVTKEKTEEGETKFGFKKSEKTGHILDIIENMK,NPFPLHDNVTDFLLTIPNVTAECSESGKRIFNLKASLKNGHLLDMVLNQK
