contacts,cs,ce,Chain,Length,designed_receptor_seq,native_receptor_seq,designed_binder_seq,native_binder_seq
38.0,31,41,A,10,GSHMVLLGREELLSRWKEEEEIPEELLDERFKPFLQKEPRPPLELQPLSEEERKRLEEEKESLEEKL,KLADYRYGREEMLALFLKDNKIPSDLLDKEFLPILQEEPLPPLALVPFTEEEQRNFSMSVNSAAVLR,EWSYLSHLKP,FWRFYSHMVR
49.0,20,40,A,20,GSHMEIYGLEELLSRYQEKQEIPEELLREEFKPYLRKEPRPPLALQPLSEEEKKKYEEEKESEEEKK,KLADYRYGREEMLALFLKDNKIPSDLLDKEFLPILQEEPLPPLALVPFTEEEQRNFSMSVNSAAVLR,KLIGEFSTVEEFWSFASHLK,KQIGTFASVEQFWRFYSHMV
54.0,11,41,A,30,GSHMEIYTLEELLSRYQEKQEIPEALLDERFKPILQKEPRPPLALQPLTEEEAKKYSEEKESLEEKL,KLADYRYGREEMLALFLKDNKIPSDLLDKEFLPILQEEPLPPLALVPFTEEEQRNFSMSVNSAAVLR,LYWKEKGKEHLIGTFSTVEEFWSFASHLKP,FWYSRRTNIKQIGTFASVEQFWRFYSHMVR
63.0,1,41,A,40,GSHMYTYTLQEWLDRYQEEQEIPEALLDEKFKPILQKEPRPPLALQPLSLEEAIKESLSTESLEELL,KLADYRYGREEMLALFLKDNKIPSDLLDKEFLPILQEEPLPPLALVPFTEEEQRNFSMSVNSAAVLR,EESPLEFSYTFTYSEEEEEKEVGTFSTVEEFWSFASHLKP,AEHPLQYNYTFWYSRRTNIKQIGTFASVEQFWRFYSHMVR
64.0,0,50,A,50,GSHMYTYGLQEWLDRYQEEQEIPEALLDERFKPILQKEPRPPLALQPLSEEEAKKKAEEKESEEEKK,KLADYRYGREEMLALFLKDNKIPSDLLDKEFLPILQEEPLPPLALVPFTEEEQRNFSMSVNSAAVLR,KKESPLQFSYTFTYSNKEKEEVIGTFSTVEEFWSFASHLKRPGDLEGDTS,EAEHPLQYNYTFWYSRRTNIKQIGTFASVEQFWRFYSHMVRPGDLTGHSD
38.0,55,65,B,10,GSMTPLKHKWTFWFSNRGKIEKIGTFSTVEEFWEFYNNLKRPGDLEGDTDYHLFKEGIKPLWEDEQNKDGGKWIIQLQKGFSTECWEKLILAVLGDEFEVGDEILGAVVSVRKNKDVLSIWNRNAKNEKVREKILEKLKKILGLPPDTKMEFKTHG,EAEHPLQYNYTFWYSRRTNIKQIGTFASVEQFWRFYSHMVRPGDLTGHSDFHLFKEGIKPMWEDDANKNGGKWIIRLRKGLASRCWENLILAMLGEQFMVGEEICGAVVSVRFQEDIISIWNKTASDQATTARIRDTLRRVLNLPPNTIMEYKTHT,GKEKVNAKSV,FSMSVNSAAV
42.0,3,23,B,20,MAENPLKHSWTFWFSNDKKIEKIGTFSTVEEFWRFYDNLKRPGDLEGDTDYHLFKEGIKPLWEDEQNKDGGKWIISLGKGLSSECWEKLILAVLGDQFEVGDEILGAVVSVRKNKDILSIWNRNAKNEKVREKILEKLKKVLELPPDTKMEFKTHG,EAEHPLQYNYTFWYSRRTNIKQIGTFASVEQFWRFYSHMVRPGDLTGHSDFHLFKEGIKPMWEDDANKNGGKWIIRLRKGLASRCWENLILAMLGEQFMVGEEICGAVVSVRFQEDIISIWNKTASDQATTARIRDTLRRVLNLPPNTIMEYKTHT,KEKYGFEEMLKLRKEKVEKP,DYRYGREEMLALFLKDNKIP
63.0,33,63,B,30,GSMTPLKHSWTFWFSNRDKIEKIGTFSTVEEFWEFYSHLSRPGDLKGDTDYHLFKEGIRPLWEDKQNENGGKWIISLKKGCSSLCWERLLLAVLGDQFEVGDEILGAVVSVRKNRDVISIWNRNAENEKVREKILEKLRSVLGLPPDTKMEFKTHG,EAEHPLQYNYTFWYSRRTNIKQIGTFASVEQFWRFYSHMVRPGDLTGHSDFHLFKEGIKPMWEDDANKNGGKWIIRLRKGLASRCWENLILAMLGEQFMVGEEICGAVVSVRFQEDIISIWNKTASDQATTARIRDTLRRVLNLPPNTIMEYKTHT,IFQEKPRPPLLLVPFSEEEKKIFSEKVDAP,ILQEEPLPPLALVPFTEEEQRNFSMSVNSA
83.0,4,44,B,40,SMENPLKHSWTFWYSNKDKIQKIGTFSTVEEFWSFYSHLKRPGDLKGDTDYHLFKEGIKPLWEDKQNENGGKWIISLKKGLSSLCWEKLILAVLGDQFEVGDEILGAVVSVRKNKDILSIWNKNAKNEKVREKILEKLKKVLELPPDTKMEFKTHK,EAEHPLQYNYTFWYSRRTNIKQIGTFASVEQFWRFYSHMVRPGDLTGHSDFHLFKEGIKPMWEDDANKNGGKWIIRLRKGLASRCWENLILAMLGEQFMVGEEICGAVVSVRFQEDIISIWNKTASDQATTARIRDTLRRVLNLPPNTIMEYKTHT,VSYGIEEMISRFKEKQEIPEELLNEKFKPILQKEPRPPLL,YRYGREEMLALFLKDNKIPSDLLDKEFLPILQEEPLPPLA
99.0,14,64,B,50,SMETPLKHSWTFWYSNKDKIQKIGTFSTVEEFWSFYSHLKRPGDLKGDSDYHLFKEGIRPLWEDKQNENGGKWIISLKKGCSSLFWERLILAVLGDEFEVGDEILGAVVSVRKNKDVISIWNRNAKNEKVREKILEKLRKVLGLPPDTKMEFKTHG,EAEHPLQYNYTFWYSRRTNIKQIGTFASVEQFWRFYSHMVRPGDLTGHSDFHLFKEGIKPMWEDDANKNGGKWIIRLRKGLASRCWENLILAMLGEQFMVGEEICGAVVSVRFQEDIISIWNKTASDQATTARIRDTLRRVLNLPPNTIMEYKTHT,EFKEKEEIPEELLNEKFKPILQKEPRPPLLLVPFSEEEKKIFSEKVNAGK,LFLKDNKIPSDLLDKEFLPILQEEPLPPLALVPFTEEEQRNFSMSVNSAA
