contacts,cs,ce,Chain,Length,designed_receptor_seq,native_receptor_seq,designed_binder_seq,native_binder_seq
20.0,0,10,A,10,GMAEEELRRLEREIEEVERRLEEVRRRMEEAERRGEELERALEGGGDREELEREREELERELERLEREREELERELERLRLERERRELEERLEELLEREPEERTEEDREEEERVREELEEVERRIEELEREVERRREELERER,GHMKQEELKRLYKAQAIQRQLEEVEERQRASEIQGVRLEKALRGEQDEAQLLQEWFKLVLEKNKLMRYESELLIMAQELELEDHQSRLEQKLREKMLKEESQKDEKDLNEEQEVFTELMQVIEQRDKLVDSLEEQRIREKAED,GPLEPEYEEL,GHMNPEYDYL
20.0,0,20,A,20,GMAEEELERLEREIEEVERELEEVERELEEAEEEGEELEEALEGGGDEEELEEEAEELEERLEELEEEREELERELERLELERERRELEEELEELLEEEPEERTEEDEERIEEVEEELEEVEEEIEELEEEIEERREELEEEE,GHMKQEELKRLYKAQAIQRQLEEVEERQRASEIQGVRLEKALRGEQDEAQLLQEWFKLVLEKNKLMRYESELLIMAQELELEDHQSRLEQKLREKMLKEESQKDEKDLNEEQEVFTELMQVIEQRDKLVDSLEEQRIREKAED,EPEEPEYEELEREEEEGEEG,GHMNPEYDYLFKLLLIGDSG
20.0,0,30,A,30,GSHMAALERLERRIAEVERRRREVRRRQEEAERRGEELARALAGGGDREELEREARELERERERLRREEEELRREERLLELLRERRRLEEELERLLEEEPERRTEEDREREREVRRRLEEVEREILELVLEVERRRRELERER,GHMKQEELKRLYKAQAIQRQLEEVEERQRASEIQGVRLEKALRGEQDEAQLLQEWFKLVLEKNKLMRYESELLIMAQELELEDHQSRLEQKLREKMLKEESQKDEKDLNEEQEVFTELMQVIEQRDKLVDSLEEQRIREKAED,EPLEPEYERLVLLAFAGLQGVGKTSLLRRL,GHMNPEYDYLFKLLLIGDSGVGKSCLLLRF
26.0,0,40,A,40,GSHMEELERLERRIEEVERRREEVERRMEEAERRGEELERALEGGEDREELEREREELERERERLEREREELERERERLELERERRELERRLEELLRRPPEERTEEDREEEERVREELEEVERRIAELVLEVERRRRELERER,GHMKQEELKRLYKAQAIQRQLEEVEERQRASEIQGVRLEKALRGEQDEAQLLQEWFKLVLEKNKLMRYESELLIMAQELELEDHQSRLEQKLREKMLKEESQKDEKDLNEEQEVFTELMQVIEQRDKLVDSLEEQRIREKAED,LPEEPEYEELRVLVLTGLPGVGKTSLARRLALERYSEERP,GHMNPEYDYLFKLLLIGDSGVGKSCLLLRFADDTYTESYI
38.0,0,50,A,50,GSHMAALERLERRIERVRERRRRVLEEMREAEEEGEELERALEGGEDEEELRERARELEERLEELEEELEELERELEALELERERRELEEELRELLEREPEERTEEDEERIREVRERLEEVLEREAELVLEVERRRRELERER,GHMKQEELKRLYKAQAIQRQLEEVEERQRASEIQGVRLEKALRGEQDEAQLLQEWFKLVLEKNKLMRYESELLIMAQELELEDHQSRLEQKLREKMLKEESQKDEKDLNEEQEVFTELMQVIEQRDKLVDSLEEQRIREKAED,EEEEPEYEELRVFVLVGETGVGKTSLARRLAEERFSEEYRPTLGREFEVR,GHMNPEYDYLFKLLLIGDSGVGKSCLLLRFADDTYTESYISTIGVDFKIR
14.0,126,136,B,10,GSHMANYDYLFKLLLIGDSGVGKSSLLLRFADDSFTEDYISTIGVDFKIRTIEIDGKTIKLQIWDTAGQERFRTITSSYYRGAHGIIVVYDVTDRESFNNVKKWLEEIKKHASENVQLLLVGNKSDLEDERVVDSNIAKEFAESKGIPFLETSAKDSKNVEEAFLTMAKNILKKE,GHMNPEYDYLFKLLLIGDSGVGKSCLLLRFADDTYTESYISTIGVDFKIRTIELDGKTIKLQIWDTAGQERFRTITSSYYRGAHGIIVVYDVTDQESYANVKQWLQEIDRYASENVNKLLVGNKSDLTTKKVVDNTTAKEFADSLGIPFLETSAKNATNVEQAFMTMAAEIKKRM,KKVEEEEKKR,KLVDSLEEQR
22.0,116,136,B,20,GSHMANYDYLFKLLLIGDSGVGKSSLLLRFADDTFTEDYISTIGVDFKIRTIEIDGKTIKLQIWDTAGQERFRTITSSYYRGAHGIIVVYDVTDRESFNNVKKWLEEIKKHASENVQILLVGNKSDLEDERVVDSNIAKEFAESLGIPFLETSAKDSKNVEEAFLTMAKNILKKE,GHMNPEYDYLFKLLLIGDSGVGKSCLLLRFADDTYTESYISTIGVDFKIRTIELDGKTIKLQIWDTAGQERFRTITSSYYRGAHGIIVVYDVTDQESYANVKQWLQEIDRYASENVNKLLVGNKSDLTTKKVVDNTTAKEFADSLGIPFLETSAKNATNVEQAFMTMAAEIKKRM,EEEEELKKREEEVLKEEEER,ELMQVIEQRDKLVDSLEEQR
25.0,109,139,B,30,GSHMADYDYLFKLLLIGDSGVGKSSLLLRFADDSFTEDYISTIGVDFKIRTIEIDGKKIKLQIWDTAGQERFRSITSAYYRGAHGIIVVYDVTDRESFNNVKKWLEEIKKHASENVQILLVGNKSDLEDERVVDSNIAKEFAESLGIPFLETSAKDSKNVEETFLTMAKNILKKH,GHMNPEYDYLFKLLLIGDSGVGKSCLLLRFADDTYTESYISTIGVDFKIRTIELDGKTIKLQIWDTAGQERFRTITSSYYRGAHGIIVVYDVTDQESYANVKQWLQEIDRYASENVNKLLVGNKSDLTTKKVVDNTTAKEFADSLGIPFLETSAKNATNVEQAFMTMAAEIKKRM,EEEKEKEERLKKLEERYKKVEEIEKKRKEE,EEQEVFTELMQVIEQRDKLVDSLEEQRIRE
25.0,99,139,B,40,GSHMADYDYLFKLLLIGDSGVGKSSLLLRFADDSFTEDYISTIGVDFKIRTIEIDGKKIKLQIWDTAGQERFRTITSAYYRGAHGIIVVYDVTDRESFNNVKKWLEEIKKHASENVQILLVGNKSDLEDERVVDKNIASEFAKSLGIPFLETSAKDSKNVEETFLTMAKNILKKH,GHMNPEYDYLFKLLLIGDSGVGKSCLLLRFADDTYTESYISTIGVDFKIRTIELDGKTIKLQIWDTAGQERFRTITSSYYRGAHGIIVVYDVTDQESYANVKQWLQEIDRYASENVNKLLVGNKSDLTTKKVVDNTTAKEFADSLGIPFLETSAKNATNVEQAFMTMAAEIKKRM,KEEMTEEDKKEIEKENEEREKKLEERYKKVEEEEKKRKEE,ESQKDEKDLNEEQEVFTELMQVIEQRDKLVDSLEEQRIRE
28.0,89,139,B,50,GSHMADYDYLFKLLLIGDSGVGKSSLLLRFADDSFSEDYISTIGVDFKIRTIEIDGKKIKLQIWDTAGQERFRSITSAYYRGAHGIIVVYDVTDRESFNNVKNWLEEIKKHASENVQILLVGNKSDLEDERVVDSNIAKEFAESLGIPFLETSAKDSKNVEEAFYTMAKNILKKH,GHMNPEYDYLFKLLLIGDSGVGKSCLLLRFADDTYTESYISTIGVDFKIRTIELDGKTIKLQIWDTAGQERFRTITSSYYRGAHGIIVVYDVTDQESYANVKQWLQEIDRYASENVNKLLVGNKSDLTTKKVVDNTTAKEFADSLGIPFLETSAKNATNVEQAFMTMAAEIKKRM,EELRELLKIDPEKRTEEDKKKIEEIRKKLLEELEKREKEVLEEEKKRLEE,QKLREKMLKEESQKDEKDLNEEQEVFTELMQVIEQRDKLVDSLEEQRIRE
