contacts,cs,ce,Chain,Length,designed_receptor_seq,native_receptor_seq,designed_binder_seq,native_binder_seq
15.0,0,10,A,10,GPDASTIKWGEGQWSPDNPDGEKKYTKEQLLALSDP,GPHMSIINYNEGQWSPNNPSGKKQYDREQLLQLREV,AAAAAPLATA,PHMKHPLMNV
15.0,0,20,A,20,GPDASTIKYGEGQWSPNNPNGEKKYTLEQLKALETP,GPHMSIINYNEGQWSPNNPSGKKQYDREQLLQLREV,DGKKHPLGKTYTLKVYKKEE,PHMKHPLMNVWTLWYLENDR
15.0,0,30,A,30,GPDASTVKWADGQWSPSNPDGEKKYTLEQLKTLSTP,GPHMSIINYNEGQWSPNNPSGKKQYDREQLLQLREV,GGVGAPLGKTYTLYVATKDDSKSVADQFKK,PHMKHPLMNVWTLWYLENDRSKSWEDMQNE
23.0,1,41,A,40,GPLAMTVKWEEGQWSPNNPNGERKYSKEFILTLSSP,GPHMSIINYNEGQWSPNNPSGKKQYDREQLLQLREV,EPEHPLGKTYTLYVATKDESKSVLDQLNKVRSFSTVEEMF,HMKHPLMNVWTLWYLENDRSKSWEDMQNEITSFDTVEDFW
24.0,0,50,A,50,GPLASTVKWEEGQWSPNNPNGERKYSLSFILTLSSP,GPHMSIINYNEGQWSPNNPSGKKQYDREQLLQLREV,SSIEHPLSHTYTLYVATKDESKSILDQLNKVQSFSTVESFWRLAKNIKPL,PHMKHPLMNVWTLWYLENDRSKSWEDMQNEITSFDTVEDFWSLYNHIKPP
27.0,21,31,B,10,GMEERPLKYTWTLWHLVKDESKSWEECFNKIVSFSTVESFWKLYNFIKPPSEIEEGSDYAIFKKDIKPMWEDKANKDGGRWVIKLKNVSDEELDNLWLKVCLMLIGGQFKYDDEICGAVINVRKKSNKIAIWTRNGKNEEAVKEIGEKTKELLELGEDIKLEFILHKDSSKIKNVPSKYKF,PHMKHPLMNVWTLWYLENDRSKSWEDMQNEITSFDTVEDFWSLYNHIKPPSEIKLGSDYSLFKKNIRPMWEDAANKQGGRWVITLNKSSKTDLDNLWLDVLLCLIGEAFDHSDQICGAVINIRGKSNKISIWTADGNNEEAALEIGHKLRDALRLGRNNSLQYQLHKDTMVKQNVKSIYTL,KNIYSIEEIN,KKQYDREQLL
35.0,13,33,B,20,GMVEHPLKYTWTLWHLVKDESKSWEECFNKIVSFSTVESFWDLYNFIKPPSEIENGSDYAIFKKDIKPMWEDKANKDGGRWVINLKNVSDEELDETWLTVCLCLIGGQFKYDDEICGAVINVRGKSNKIAIWTRNGSNEEAVKEIGETTKKILKLGKDIKLEFILHKDSSKIKNVPSVYKF,PHMKHPLMNVWTLWYLENDRSKSWEDMQNEITSFDTVEDFWSLYNHIKPPSEIKLGSDYSLFKKNIRPMWEDAANKQGGRWVITLNKSSKTDLDNLWLDVLLCLIGEAFDHSDQICGAVINIRGKSNKISIWTADGNNEEAALEIGHKLRDALRLGRNNSLQYQLHKDTMVKQNVKSIYTL,YTPDNPNGEKKYSIEFIKSI,WSPNNPSGKKQYDREQLLQL
37.0,4,34,B,30,MVVEHPLKYTWTLWHLVRDESKSWEECFNKIVSFSTVEDFWKLYNWIKPPSEIKEGSDYAIFKKDIKPMWEDKANKDGGRWVINLKNVSDEELDETWLTVCLMLIGGQFKYDDEICGAVINVRKKSNKIAIWTRNGSNEEAVKEIGEKTRELLKLGEDIKLEFILHKDSSKIKNVPSVYKF,PHMKHPLMNVWTLWYLENDRSKSWEDMQNEITSFDTVEDFWSLYNHIKPPSEIKLGSDYSLFKKNIRPMWEDAANKQGGRWVITLNKSSKTDLDNLWLDVLLCLIGEAFDHSDQICGAVINIRGKSNKISIWTADGNNEEAALEIGHKLRDALRLGRNNSLQYQLHKDTMVKQNVKSIYTL,PNTKWKEGQWSPNNPNGEKRYSIEFIKELR,SIINYNEGQWSPNNPSGKKQYDREQLLQLR
0.0,0,0,B,0,MEKETPLKYTWTLWHLVKDESKSWEECFNKIVSFSTVESFWSLYNFIKPPSEIENGSDYAIFKKDIKPMWEDEANKNGGRWVIKLKNVSDEELDNLWLKVLLMLIGGKFKYDDEICGAVINVRKKSNKISIWTRNGKNEEAVKEIGETTKKELKLGEDIKLEFILHKDSSKIKNVPSVYKF,PHMKHPLMNVWTLWYLENDRSKSWEDMQNEITSFDTVEDFWSLYNHIKPPSEIKLGSDYSLFKKNIRPMWEDAANKQGGRWVITLNKSSKTDLDNLWLDVLLCLIGEAFDHSDQICGAVINIRGKSNKISIWTADGNNEEAALEIGHKLRDALRLGRNNSLQYQLHKDTMVKQNVKSIYTL,MEKETPLKYTWTLWHLVKDESKSWEECFNKIVSFSTVESFWSLYNFIKPPSEIENGSDYAIFKKDIKPMWEDEANKNGGRWVIKLKNVSDEELDNLWLKVLLMLIGGKFKYDDEICGAVINVRKKSNKISIWTRNGKNEEAVKEIGETTKKELKLGEDIKLEFILHKDSSKIKNVPSVYKFELEHHHHHHH,
0.0,0,0,B,0,MEKETPLKYTWTLWHLVKDESKSWEECFNKIVSFSTVESFWSLYNFIKPPSEIENGSDYAIFKKDIKPMWEDEANKNGGRWVIKLKNVSDEELDNLWLKVLLMLIGGKFKYDDEICGAVINVRKKSNKISIWTRNGKNEEAVKEIGETTKKELKLGEDIKLEFILHKDSSKIKNVPSVYKF,PHMKHPLMNVWTLWYLENDRSKSWEDMQNEITSFDTVEDFWSLYNHIKPPSEIKLGSDYSLFKKNIRPMWEDAANKQGGRWVITLNKSSKTDLDNLWLDVLLCLIGEAFDHSDQICGAVINIRGKSNKISIWTADGNNEEAALEIGHKLRDALRLGRNNSLQYQLHKDTMVKQNVKSIYTL,MEKETPLKYTWTLWHLVKDESKSWEECFNKIVSFSTVESFWSLYNFIKPPSEIENGSDYAIFKKDIKPMWEDEANKNGGRWVIKLKNVSDEELDNLWLKVLLMLIGGKFKYDDEICGAVINVRKKSNKISIWTRNGKNEEAVKEIGETTKKELKLGEDIKLEFILHKDSSKIKNVPSVYKFELEHHHHHHH,
