contacts,cs,ce,Chain,Length,designed_receptor_seq,native_receptor_seq,designed_binder_seq,native_binder_seq
13.0,173,183,A,10,SMEERARAIREGLRLLSMDIRDAKTGEVLYRSTEDLSESGKVHEARIPSRVLDCGAVDVTLTFSSKEYMEDFSLEEEVYLDGVKLKEIYLSFGEVEPNSTNSFKVRIEAAPKEERIPASLLSGRVIVRTRLYDSDLLISTSEVRVFFP,AKDERAREILRGFKLNWMNLRDAETGKILWQGTEDLSVPGVEHEARVPKKILKCKAVSRELNFSSTEQMEKFRLEQKVYFKGQCLEEWFFEFGFVIPNSTNTWQSLIEAAPESQMMPASVLTGNVIIETKFFDDDLLVSTSRVRLFYV,EEEEEEEEEE,GKKKKKKSKT
13.0,163,183,A,20,SMEERARAIREGLRLLSMDIRDAETGEVLYRSTEDLLESGRVHEARIPSRVLDCGAVDVTLTFSSREYMEDFSLEEEVLLDGVRLKYFYYRFGEVEPNSTNSFLVRVEAAPEEERIPASVLSGRVIVRTRVYDRDLLISTSRVRVFFP,AKDERAREILRGFKLNWMNLRDAETGKILWQGTEDLSVPGVEHEARVPKKILKCKAVSRELNFSSTEQMEKFRLEQKVYFKGQCLEEWFFEFGFVIPNSTNTWQSLIEAAPESQMMPASVLTGNVIIETKFFDDDLLVSTSRVRLFYV,EEEEEEEEEEEEEEEEEEEE,RKHKEKMSKDGKKKKKKSKT
13.0,153,183,A,30,SMEERARAIREGLRLLSMDIRDAETGEVLYRSTEDLFESGRVHEARIPSRVLDCGAVDVTLTFSSREYMEDFSLEEEVLLDGVRLKYFYYRFGEVEPNSTNSFLVRIEAAPEEERIPASVLSGRVIVRTRVYDRDLLISTSRVRVFFP,AKDERAREILRGFKLNWMNLRDAETGKILWQGTEDLSVPGVEHEARVPKKILKCKAVSRELNFSSTEQMEKFRLEQKVYFKGQCLEEWFFEFGFVIPNSTNTWQSLIEAAPESQMMPASVLTGNVIIETKFFDDDLLVSTSRVRLFYV,EEEEEEEEEEEEEEEEEEEEEEEEEEEEEE,DAFYTLVREIRKHKEKMSKDGKKKKKKSKT
13.0,143,183,A,40,SMEERARAIREGLRLLSMDIRDAETGEVLYRSTEDLFESGRVHEARIPSRVLDCGAVDVTLRFSSREEMEDFRLRERVYLDGVELKYFYYRFGYVEPNSTNEWRVRVEAAPEEERIPASVLSGRVIVETEVYDRDLLISTSRVRVYFP,AKDERAREILRGFKLNWMNLRDAETGKILWQGTEDLSVPGVEHEARVPKKILKCKAVSRELNFSSTEQMEKFRLEQKVYFKGQCLEEWFFEFGFVIPNSTNTWQSLIEAAPESQMMPASVLTGNVIIETKFFDDDLLVSTSRVRLFYV,VSLETGEGVLEYFLSRVEELERELEELERELEELERERRG,TSAKTRQGVDDAFYTLVREIRKHKEKMSKDGKKKKKKSKT
13.0,133,183,A,50,GSHMRAEAIRRGLRLLSMDIRDAETGEVLYRSTEDLSESGRVHEARIPSRVLDCGAVDVTLTFSSRERMEDFRLLERVYLDGVELKRLYYRFGYVEPNSTNSWRVRIEAAPEEERIPASVLSGRVIVETRIYDRDLLISTSRVRVFFP,AKDERAREILRGFKLNWMNLRDAETGKILWQGTEDLSVPGVEHEARVPKKILKCKAVSRELNFSSTEQMEKFRLEQKVYFKGQCLEEWFFEFGFVIPNSTNTWQSLIEAAPESQMMPASVLTGNVIIETKFFDDDLLVSTSRVRLFYV,GEELGVPVIRVSALTGEGVEEAFLTLVEEFEKLLEEEEEEEEEEEEEEEE,ARSYGIPFIETSAKTRQGVDDAFYTLVREIRKHKEKMSKDGKKKKKKSKT
15.0,106,116,B,10,GSTYKLVVVGSGGVGKSALTIQFVKGQFVEEYDPTIEDSYRKQVVIDGEECMLDILDTAGQEEYAAMREQYMRDGQGFLVVFAVNDRESFEDVRKWVEEIRRVKDDDDVPMVLVGNKCDLPDRVVSTEEAQELADSWGIPYIETSAKTAQGVNEAFETLVREIRKRNAALEEEERAREEAEKVP,GTEYKLVVVGAGGVGKSALTIQLIQNHFVDEYDPTIEDSYRKQVVIDGETCLLDILDTAGQEEYSAMRDQYMRTGEGFLCVFAINNTKSFEDIHHYREQIKRVKDSEDVPMVLVGNKCDLPSRTVDTKQAQDLARSYGIPFIETSAKTRQGVDDAFYTLVREIRKHKEKMSKDGKKKKKKSKTK,EEEAPEEEQE,IEAAPESQMM
16.0,101,121,B,20,GSTYKLVVVGSGGVGKSALTIQFVKGQFVEEYDPTIEDSYRKQVVIDGEECMLDILDTAGQEEYAAMREQYMRDGQGFLVVFAVNDRESFEDVRKWVEEIRRVKDDDDVPMVLVGNKCDLPDRVVSTEEAQELADSWGIPYIETSAKTAQGVNEAFFTLVREIRKRNAAKEREEEARRKAEKAP,GTEYKLVVVGAGGVGKSALTIQLIQNHFVDEYDPTIEDSYRKQVVIDGETCLLDILDTAGQEEYSAMRDQYMRTGEGFLCVFAINNTKSFEDIHHYREQIKRVKDSEDVPMVLVGNKCDLPSRTVDTKQAQDLARSYGIPFIETSAKTRQGVDDAFYTLVREIRKHKEKMSKDGKKKKKKSKTK,VRRVEVKAAPEEEQVPEEEL,TWQSLIEAAPESQMMPASVL
17.0,84,114,B,30,GSTYKLVVVGSGGVGKSALTIQFVKGEFVEEYDPTIEDSYRKQVVIDGEECMLDILDTAGQEEYAAMREQYMRDGQGFLVVFAVNDRESFEDVRKWVEEIRRVKDDDDVPMVLVGNKCDLPDRVVSTEEAQELADSWGIPYIETSAKTAQGVNEAFETLVREIRKRNAAKEREEEARRRANKIP,GTEYKLVVVGAGGVGKSALTIQLIQNHFVDEYDPTIEDSYRKQVVIDGETCLLDILDTAGQEEYSAMRDQYMRTGEGFLCVFAINNTKSFEDIHHYREQIKRVKDSEDVPMVLVGNKCDLPSRTVDTKQAQDLARSYGIPFIETSAKTRQGVDDAFYTLVREIRKHKEKMSKDGKKKKKKSKTK,DYVFKFVFGKVKPNSKVKFVVFVKKAPEEE,LEEWFFEFGFVIPNSTNTWQSLIEAAPESQ
20.0,76,116,B,40,GSTYKLVVVGSGGVGKSALTIQFVKGEFVEEYDPTIEDSYRKQVVIDGEECMLDILDTAGQEEYAAMREQYMRDGQGFLVVFAVNDRESFEDVRKWVEEIRRVKDDDDVPMVLVGNKCDLPDRVVSTEEAQELADSWGIPYIETSAKTAQGVNEAFFTLVREIRKRNAAKEREEREREERNKLP,GTEYKLVVVGAGGVGKSALTIQLIQNHFVDEYDPTIEDSYRKQVVIDGETCLLDILDTAGQEEYSAMRDQYMRTGEGFLCVFAINNTKSFEDIHHYREQIKRVKDSEDVPMVLVGNKCDLPSRTVDTKQAQDLARSYGIPFIETSAKTRQGVDDAFYTLVREIRKHKEKMSKDGKKKKKKSKTK,SVLRDGVQLYSFSFKYGKVKPNSKNTFKVKIFAAPEEEQK,KVYFKGQCLEEWFFEFGFVIPNSTNTWQSLIEAAPESQMM
21.0,71,121,B,50,GSTYKLVVVGSGGVGKSALTIQFVKGEFVEEYDPTIEDSYRKQVVIDGEECMLDILDTAGQEEYAAMREQYMRDGQGFLVVFAVNDRESFEDVRKWVEEIRRVKDDDDVPMVLVGNKCDLPDRVVSTEEAQELADSWGIPYIETSAKTAQGVNEAFETLVREIRKRNAAKEREEEARRKRNKIP,GTEYKLVVVGAGGVGKSALTIQLIQNHFVDEYDPTIEDSYRKQVVIDGETCLLDILDTAGQEEYSAMRDQYMRTGEGFLCVFAINNTKSFEDIHHYREQIKRVKDSEDVPMVLVGNKCDLPSRTVDTKQAQDLARSYGIPFIETSAKTRQGVDDAFYTLVREIRKHKEKMSKDGKKKKKKSKTK,TYLKVKVLLDGVELESLEFKFGKVKPNSTETFVVKIKKAPEEEQIPEEEL,FRLEQKVYFKGQCLEEWFFEFGFVIPNSTNTWQSLIEAAPESQMMPASVL
